{
  "Info": {
    "FirmCrdNb": "139939",
    "SECNb": null,
    "BusNm": "HANLEY INVESTMENT PARTNERS LLC",
    "LegalNm": "HANLEY INVESTMENT PARTNERS LLC"
  },
  "MainAddr": {
    "Strt1": "11622 EL CAMINO REAL",
    "Strt2": "SUITE 100",
    "City": "SAN DIEGO",
    "State": 4,
    "StateSpecified": true,
    "Cntry": "United States",
    "PostlCd": "92130",
    "PhNb": "858-764-4744",
    "FaxNb": null
  },
  "MailingAddr": {
    "Strt1": null,
    "Strt2": null,
    "City": null,
    "StateSpecified": false,
    "Cntry": null,
    "PostlCd": null,
    "PhNb": null,
    "FaxNb": null
  },
  "StateRgstn": {
    "Rgltrs": [
      {
        "Cd": 4,
        "St": 1,
        "StSpecified": true,
        "Dt": "2006-06-06T00:00:00",
        "DtSpecified": true
      }
    ]
  },
  "ERA": {
    "Rgltrs": []
  },
  "Filing": [
    {
      "Dt": "2011-01-28T00:00:00",
      "FormVrsn": "11/2010"
    }
  ],
  "FormInfo": {
    "Part1A": {
      "Item1": {
        "WebAddrs": [],
        "Q1I": 1,
        "Q1ISpecified": true,
        "Q1M": 1,
        "Q1MSpecified": true,
        "Q1NSpecified": false,
        "CIKNbSpecified": false,
        "Q1OSpecified": false,
        "Q1P": null
      },
      "Item3A": {
        "OrgFormNm": "Limited Liability Company",
        "OrgFormOthNm": null
      },
      "Item3B": {
        "Q3B": "DECEMBER"
      },
      "Item3C": {
        "StateCD": 4,
        "StateCDSpecified": true,
        "CntryNm": "United States"
      },
      "Item5A": {
        "TtlEmp": null
      },
      "Item5B": {
        "Q5B1": null,
        "Q5B2": null,
        "Q5B3": null,
        "Q5B4": null,
        "Q5B5": null,
        "Q5B6": null
      },
      "Item5C": {
        "Q5C1": "0",
        "Q5C1Oth": null,
        "Q5C2": null
      },
      "Item5D": {
        "Q5D1A": null,
        "Q5D1B": null,
        "Q5D1C": null,
        "Q5D1D": null,
        "Q5D1E": null,
        "Q5D1F": null,
        "Q5D1G": null,
        "Q5D1H": null,
        "Q5D1I": null,
        "Q5D1J": null,
        "Q5D1K": null,
        "Q5D1L": null,
        "Q5D1M": null,
        "Q5D1MOth": null,
        "Q5D2A": null,
        "Q5D2B": null,
        "Q5D2C": null,
        "Q5D2D": null,
        "Q5D2E": null,
        "Q5D2F": null,
        "Q5D2G": null,
        "Q5D2H": null,
        "Q5D2I": null,
        "Q5D2J": null,
        "Q5D2K": null,
        "Q5D2L": null,
        "Q5D2M": null,
        "Q5D2MOth": null
      },
      "Item5E": {
        "Q5E1": 0,
        "Q5E1Specified": true,
        "Q5E2": 1,
        "Q5E2Specified": true,
        "Q5E3": 1,
        "Q5E3Specified": true,
        "Q5E4": 1,
        "Q5E4Specified": true,
        "Q5E5": 1,
        "Q5E5Specified": true,
        "Q5E6": 0,
        "Q5E6Specified": true,
        "Q5E7": 1,
        "Q5E7Specified": true,
        "Q5E7Oth": null
      },
      "Item5F": {
        "Q5F1": 1,
        "Q5F1Specified": true,
        "Q5F2ASpecified": false,
        "Q5F2BSpecified": false,
        "Q5F2CSpecified": false,
        "Q5F2D": null,
        "Q5F2E": null,
        "Q5F2F": null
      },
      "Item5G": {
        "Q5G1": 1,
        "Q5G1Specified": true,
        "Q5G2": 1,
        "Q5G2Specified": true,
        "Q5G3": 1,
        "Q5G3Specified": true,
        "Q5G4": 1,
        "Q5G4Specified": true,
        "Q5G5": 0,
        "Q5G5Specified": true,
        "Q5G6": 1,
        "Q5G6Specified": true,
        "Q5G7": 1,
        "Q5G7Specified": true,
        "Q5G8": 1,
        "Q5G8Specified": true,
        "Q5G9": 1,
        "Q5G9Specified": true,
        "Q5G10": 1,
        "Q5G10Specified": true,
        "Q5G11": 1,
        "Q5G11Specified": true,
        "Q5G12": 1,
        "Q5G12Specified": true,
        "Q5G12Oth": null
      },
      "Item5H": {
        "Q5H": null,
        "Q5HMT500": null
      },
      "Item5I": {
        "Q5I1": 1,
        "Q5I1Specified": true,
        "Q5I2": 1,
        "Q5I2Specified": true
      },
      "Item5J": {
        "Q5JSpecified": false
      },
      "Item6A": {
        "Q6A1Specified": false,
        "Q6A2Specified": false,
        "Q6A3Specified": false,
        "Q6A4Specified": false,
        "Q6A5Specified": false,
        "Q6A6Specified": false,
        "Q6A7Specified": false,
        "Q6A8Specified": false,
        "Q6A9Specified": false,
        "Q6A10Specified": false,
        "Q6A11Specified": false,
        "Q6A12Specified": false,
        "Q6A13Specified": false,
        "Q6A14Specified": false,
        "Q6A14Oth": null
      },
      "Item6B": {
        "Q6B1": 1,
        "Q6B1Specified": true,
        "Q6B3": 1,
        "Q6B3Specified": true,
        "Q6B2Specified": false
      },
      "Item7A": {
        "Q7A1Specified": false,
        "Q7A2Specified": false,
        "Q7A3Specified": false,
        "Q7A4Specified": false,
        "Q7A5Specified": false,
        "Q7A6Specified": false,
        "Q7A7Specified": false,
        "Q7A8Specified": false,
        "Q7A9Specified": false,
        "Q7A10Specified": false,
        "Q7A11Specified": false,
        "Q7A12Specified": false,
        "Q7A13Specified": false,
        "Q7A14Specified": false,
        "Q7A15Specified": false,
        "Q7A16Specified": false
      },
      "Item7B": {
        "Q7BSpecified": false
      },
      "Item8A": {
        "Q8A1": 1,
        "Q8A1Specified": true,
        "Q8A2": 1,
        "Q8A2Specified": true,
        "Q8A3": 1,
        "Q8A3Specified": true
      },
      "Item8B": {
        "Q8B1": 1,
        "Q8B1Specified": true,
        "Q8B2": 1,
        "Q8B2Specified": true,
        "Q8B3": 1,
        "Q8B3Specified": true
      },
      "Item8C": {
        "Q8C1": 0,
        "Q8C1Specified": true,
        "Q8C2": 0,
        "Q8C2Specified": true,
        "Q8C3": 0,
        "Q8C3Specified": true,
        "Q8C4": 0,
        "Q8C4Specified": true
      },
      "Item8D": {
        "Q8DSpecified": false
      },
      "Item8E": {
        "Q8E": 0,
        "Q8ESpecified": true
      },
      "Item8F": {
        "Q8FSpecified": false
      },
      "Item8G": {
        "Q8G1": 0,
        "Q8G1Specified": true,
        "Q8G2Specified": false
      },
      "Item8H": {
        "Q8H": 1,
        "Q8HSpecified": true
      },
      "Item8I": {
        "Q8ISpecified": false
      },
      "Item9A": {
        "Q9A1A": 1,
        "Q9A1ASpecified": true,
        "Q9A1B": 1,
        "Q9A1BSpecified": true,
        "Q9A2ASpecified": false,
        "Q9A2B": null
      },
      "Item9B": {
        "Q9B1A": 1,
        "Q9B1ASpecified": true,
        "Q9B1B": 1,
        "Q9B1BSpecified": true,
        "Q9B2ASpecified": false,
        "Q9B2B": null
      },
      "Item9C": {
        "Q9C1Specified": false,
        "Q9C2Specified": false,
        "Q9C3Specified": false,
        "Q9C4Specified": false
      },
      "Item9D": {
        "Q9D1Specified": false,
        "Q9D2Specified": false
      },
      "Item9E": {
        "Q9E": null
      },
      "Item9F": {
        "Q9F": null
      },
      "Item10A": {
        "Q10A": 1,
        "Q10ASpecified": true
      },
      "Item11": {
        "Q11Specified": false
      },
      "Item11A": {
        "Q11A1": 1,
        "Q11A1Specified": true,
        "Q11A2": 1,
        "Q11A2Specified": true
      },
      "Item11B": {
        "Q11B1": 1,
        "Q11B1Specified": true,
        "Q11B2": 1,
        "Q11B2Specified": true
      },
      "Item11C": {
        "Q11C1": 1,
        "Q11C1Specified": true,
        "Q11C2": 1,
        "Q11C2Specified": true,
        "Q11C3": 1,
        "Q11C3Specified": true,
        "Q11C4": 1,
        "Q11C4Specified": true,
        "Q11C5": 1,
        "Q11C5Specified": true
      },
      "Item11D": {
        "Q11D1": 1,
        "Q11D1Specified": true,
        "Q11D2": 1,
        "Q11D2Specified": true,
        "Q11D3": 1,
        "Q11D3Specified": true,
        "Q11D4": 1,
        "Q11D4Specified": true,
        "Q11D5": 1,
        "Q11D5Specified": true
      },
      "Item11E": {
        "Q11E1": 1,
        "Q11E1Specified": true,
        "Q11E2": 1,
        "Q11E2Specified": true,
        "Q11E3": 1,
        "Q11E3Specified": true,
        "Q11E4": 1,
        "Q11E4Specified": true
      },
      "Item11F": {
        "Q11F": 1,
        "Q11FSpecified": true
      },
      "Item11G": {
        "Q11G": 1,
        "Q11GSpecified": true
      },
      "Item11H": {
        "Q11H1A": 1,
        "Q11H1ASpecified": true,
        "Q11H1B": 1,
        "Q11H1BSpecified": true,
        "Q11H1C": 1,
        "Q11H1CSpecified": true,
        "Q11H2": 1,
        "Q11H2Specified": true
      }
    },
    "Part1B": {
      "Item2": {
        "Q1B2B1": null,
        "Q1B2B2": null,
        "Q1B2B4": 0,
        "Q1B2B4Specified": true
      },
      "DsclrQstns": {
        "Q1B2C": 1,
        "Q1B2CSpecified": true,
        "Q1B2D": 1,
        "Q1B2DSpecified": true,
        "Q1B2E1": 1,
        "Q1B2E1Specified": true,
        "Q1B2E2": 1,
        "Q1B2E2Specified": true,
        "Q1B2E3": 1,
        "Q1B2E3Specified": true,
        "Q1B2E4": 1,
        "Q1B2E4Specified": true,
        "Q1B2E5": 1,
        "Q1B2E5Specified": true,
        "Q1B2F1": 1,
        "Q1B2F1Specified": true,
        "Q1B2F2": 1,
        "Q1B2F2Specified": true,
        "Q1B2F3": 1,
        "Q1B2F3Specified": true,
        "Q1B2F4": 1,
        "Q1B2F4Specified": true,
        "Q1B2F5": 1,
        "Q1B2F5Specified": true
      },
      "ItemG": {
        "Q1BG1TaxPrprrSpecified": false,
        "Q1BG1IssueScrtsSpecified": false,
        "Q1BG1XcldPoolInvmtSpecified": false,
        "Q1BG1PoolInvmtSpecified": false,
        "Q1BG1ReAdvsrSpecified": false,
        "Q1B2G2": null
      },
      "ItemH": {
        "Q1B2HScrtsNvsmt": null,
        "Q1B2HScrtsNvsmtAmSpecified": false,
        "Q1B2HNScrtsNvsmt": null,
        "Q1B2HNScrtsNvsmtAmSpecified": false
      },
      "ItemI": {
        "Q1B2I1": 1,
        "Q1B2I1Specified": true,
        "Q1B2I1ASpecified": false,
        "Q1B2I1BSpecified": false,
        "Q1B2I1CSpecified": false,
        "Q1B2I2AiSpecified": false,
        "Q1B2I2AiiAtrnySpecified": false,
        "Q1B2I2AiiCpaSpecified": false,
        "Q1B2I2AiiOthSpecified": false,
        "Q1B2I2AiiOthTx": null,
        "Q1B2I2BSpecified": false,
        "Q1B2I3": 1,
        "Q1B2I3Specified": true
      },
      "ItemJ": {
        "Q1BJ1ASpecified": false,
        "Q1BJ1BSpecified": false,
        "Q1BJ2A": 0,
        "Q1BJ2ASpecified": true,
        "Q1BJ2BCfp": 1,
        "Q1BJ2BCfpSpecified": true,
        "Q1BJ2BCfa": 0,
        "Q1BJ2BCfaSpecified": true,
        "Q1BJ2BChfc": 1,
        "Q1BJ2BChfcSpecified": true,
        "Q1BJ2BCic": 1,
        "Q1BJ2BCicSpecified": true,
        "Q1BJ2BPfs": 1,
        "Q1BJ2BPfsSpecified": true,
        "Q1BJ2BNone": 1,
        "Q1BJ2BNoneSpecified": true
      },
      "ItemK": {
        "Q1B2K1Specified": false
      }
    }
  },
  "Reps": {
    "5115903": "HANLEY, LEE RANDALL"
  }
}