{
  "Info": {
    "SECRgnCD": 1,
    "SECRgnCDSpecified": true,
    "FirmCrdNb": "106631",
    "SECNb": "801-5097",
    "BusNm": "THE PUTNAM ADVISORY COMPANY, LLC",
    "LegalNm": "THE PUTNAM ADVISORY COMPANY, LLC"
  },
  "MainAddr": {
    "Strt1": "ONE POST OFFICE SQUARE",
    "Strt2": null,
    "City": "BOSTON",
    "State": 20,
    "StateSpecified": true,
    "Cntry": "United States",
    "PostlCd": "02109",
    "PhNb": "617-292-1000",
    "FaxNb": "617-292-1625"
  },
  "MailingAddr": {
    "Strt1": null,
    "Strt2": null,
    "City": null,
    "StateSpecified": false,
    "Cntry": null,
    "PostlCd": null,
    "PhNb": null,
    "FaxNb": null
  },
  "Rgstn": [
    {
      "FirmType": 0,
      "St": 0,
      "Dt": "1968-10-07T00:00:00"
    }
  ],
  "NoticeFiled": [
    {
      "RgltrCd": 4,
      "St": 1,
      "StSpecified": true,
      "Dt": "1998-03-19T00:00:00",
      "DtSpecified": true
    },
    {
      "RgltrCd": 3,
      "St": 1,
      "StSpecified": true,
      "Dt": "2002-03-28T00:00:00",
      "DtSpecified": true
    },
    {
      "RgltrCd": 5,
      "St": 1,
      "StSpecified": true,
      "Dt": "2002-03-28T00:00:00",
      "DtSpecified": true
    },
    {
      "RgltrCd": 6,
      "St": 1,
      "StSpecified": true,
      "Dt": "2002-03-28T00:00:00",
      "DtSpecified": true
    },
    {
      "RgltrCd": 10,
      "St": 1,
      "StSpecified": true,
      "Dt": "2002-03-28T00:00:00",
      "DtSpecified": true
    },
    {
      "RgltrCd": 12,
      "St": 1,
      "StSpecified": true,
      "Dt": "2002-03-28T00:00:00",
      "DtSpecified": true
    },
    {
      "RgltrCd": 14,
      "St": 1,
      "StSpecified": true,
      "Dt": "2002-03-28T00:00:00",
      "DtSpecified": true
    },
    {
      "RgltrCd": 16,
      "St": 1,
      "StSpecified": true,
      "Dt": "2002-03-28T00:00:00",
      "DtSpecified": true
    },
    {
      "RgltrCd": 17,
      "St": 1,
      "StSpecified": true,
      "Dt": "2002-03-28T00:00:00",
      "DtSpecified": true
    },
    {
      "RgltrCd": 18,
      "St": 1,
      "StSpecified": true,
      "Dt": "2002-03-28T00:00:00",
      "DtSpecified": true
    },
    {
      "RgltrCd": 19,
      "St": 1,
      "StSpecified": true,
      "Dt": "2002-03-28T00:00:00",
      "DtSpecified": true
    },
    {
      "RgltrCd": 20,
      "St": 1,
      "StSpecified": true,
      "Dt": "2002-03-28T00:00:00",
      "DtSpecified": true
    },
    {
      "RgltrCd": 21,
      "St": 1,
      "StSpecified": true,
      "Dt": "2002-03-28T00:00:00",
      "DtSpecified": true
    },
    {
      "RgltrCd": 22,
      "St": 1,
      "StSpecified": true,
      "Dt": "2002-03-28T00:00:00",
      "DtSpecified": true
    },
    {
      "RgltrCd": 23,
      "St": 1,
      "StSpecified": true,
      "Dt": "2002-03-28T00:00:00",
      "DtSpecified": true
    },
    {
      "RgltrCd": 25,
      "St": 1,
      "StSpecified": true,
      "Dt": "2002-03-28T00:00:00",
      "DtSpecified": true
    },
    {
      "RgltrCd": 26,
      "St": 1,
      "StSpecified": true,
      "Dt": "2002-03-28T00:00:00",
      "DtSpecified": true
    },
    {
      "RgltrCd": 27,
      "St": 1,
      "StSpecified": true,
      "Dt": "2002-03-28T00:00:00",
      "DtSpecified": true
    },
    {
      "RgltrCd": 28,
      "St": 1,
      "StSpecified": true,
      "Dt": "2002-03-28T00:00:00",
      "DtSpecified": true
    },
    {
      "RgltrCd": 29,
      "St": 1,
      "StSpecified": true,
      "Dt": "2002-03-28T00:00:00",
      "DtSpecified": true
    },
    {
      "RgltrCd": 30,
      "St": 1,
      "StSpecified": true,
      "Dt": "2002-03-28T00:00:00",
      "DtSpecified": true
    },
    {
      "RgltrCd": 34,
      "St": 1,
      "StSpecified": true,
      "Dt": "2002-03-28T00:00:00",
      "DtSpecified": true
    },
    {
      "RgltrCd": 35,
      "St": 1,
      "StSpecified": true,
      "Dt": "2002-03-28T00:00:00",
      "DtSpecified": true
    },
    {
      "RgltrCd": 36,
      "St": 1,
      "StSpecified": true,
      "Dt": "2002-03-28T00:00:00",
      "DtSpecified": true
    },
    {
      "RgltrCd": 38,
      "St": 1,
      "StSpecified": true,
      "Dt": "2002-03-28T00:00:00",
      "DtSpecified": true
    },
    {
      "RgltrCd": 39,
      "St": 1,
      "StSpecified": true,
      "Dt": "2002-03-28T00:00:00",
      "DtSpecified": true
    },
    {
      "RgltrCd": 40,
      "St": 1,
      "StSpecified": true,
      "Dt": "2002-03-28T00:00:00",
      "DtSpecified": true
    },
    {
      "RgltrCd": 41,
      "St": 1,
      "StSpecified": true,
      "Dt": "2002-03-28T00:00:00",
      "DtSpecified": true
    },
    {
      "RgltrCd": 42,
      "St": 1,
      "StSpecified": true,
      "Dt": "2002-03-28T00:00:00",
      "DtSpecified": true
    },
    {
      "RgltrCd": 46,
      "St": 1,
      "StSpecified": true,
      "Dt": "2002-03-28T00:00:00",
      "DtSpecified": true
    },
    {
      "RgltrCd": 47,
      "St": 1,
      "StSpecified": true,
      "Dt": "2002-03-28T00:00:00",
      "DtSpecified": true
    },
    {
      "RgltrCd": 48,
      "St": 1,
      "StSpecified": true,
      "Dt": "2002-03-28T00:00:00",
      "DtSpecified": true
    },
    {
      "RgltrCd": 49,
      "St": 1,
      "StSpecified": true,
      "Dt": "2002-03-28T00:00:00",
      "DtSpecified": true
    },
    {
      "RgltrCd": 50,
      "St": 1,
      "StSpecified": true,
      "Dt": "2002-03-28T00:00:00",
      "DtSpecified": true
    },
    {
      "RgltrCd": 7,
      "St": 1,
      "StSpecified": true,
      "Dt": "2002-03-29T00:00:00",
      "DtSpecified": true
    },
    {
      "RgltrCd": 31,
      "St": 1,
      "StSpecified": true,
      "Dt": "2002-03-29T00:00:00",
      "DtSpecified": true
    },
    {
      "RgltrCd": 44,
      "St": 1,
      "StSpecified": true,
      "Dt": "2002-03-29T00:00:00",
      "DtSpecified": true
    },
    {
      "RgltrCd": 43,
      "St": 1,
      "StSpecified": true,
      "Dt": "2002-04-01T00:00:00",
      "DtSpecified": true
    },
    {
      "RgltrCd": 45,
      "St": 1,
      "StSpecified": true,
      "Dt": "2002-04-01T00:00:00",
      "DtSpecified": true
    },
    {
      "RgltrCd": 2,
      "St": 1,
      "StSpecified": true,
      "Dt": "2002-04-02T00:00:00",
      "DtSpecified": true
    },
    {
      "RgltrCd": 15,
      "St": 1,
      "StSpecified": true,
      "Dt": "2002-04-03T00:00:00",
      "DtSpecified": true
    },
    {
      "RgltrCd": 0,
      "St": 1,
      "StSpecified": true,
      "Dt": "2002-04-05T00:00:00",
      "DtSpecified": true
    },
    {
      "RgltrCd": 13,
      "St": 1,
      "StSpecified": true,
      "Dt": "2002-04-08T00:00:00",
      "DtSpecified": true
    },
    {
      "RgltrCd": 51,
      "St": 1,
      "StSpecified": true,
      "Dt": "2002-04-08T00:00:00",
      "DtSpecified": true
    },
    {
      "RgltrCd": 24,
      "St": 1,
      "StSpecified": true,
      "Dt": "2002-04-10T00:00:00",
      "DtSpecified": true
    },
    {
      "RgltrCd": 33,
      "St": 1,
      "StSpecified": true,
      "Dt": "2002-04-11T00:00:00",
      "DtSpecified": true
    },
    {
      "RgltrCd": 32,
      "St": 1,
      "StSpecified": true,
      "Dt": "2002-05-03T00:00:00",
      "DtSpecified": true
    },
    {
      "RgltrCd": 1,
      "St": 1,
      "StSpecified": true,
      "Dt": "2002-05-06T00:00:00",
      "DtSpecified": true
    },
    {
      "RgltrCd": 9,
      "St": 1,
      "StSpecified": true,
      "Dt": "2002-05-30T00:00:00",
      "DtSpecified": true
    },
    {
      "RgltrCd": 37,
      "St": 1,
      "StSpecified": true,
      "Dt": "2002-05-31T00:00:00",
      "DtSpecified": true
    },
    {
      "RgltrCd": 8,
      "St": 1,
      "StSpecified": true,
      "Dt": "2003-03-31T00:00:00",
      "DtSpecified": true
    }
  ],
  "Filing": [
    {
      "Dt": "2016-04-28T00:00:00",
      "FormVrsn": "10/2012"
    }
  ],
  "FormInfo": {
    "Part1A": {
      "Item1": {
        "WebAddrs": [
          "HTTP://WWW.PUTNAM.COM"
        ],
        "Q1I": 0,
        "Q1ISpecified": true,
        "Q1M": 0,
        "Q1MSpecified": true,
        "Q1N": 1,
        "Q1NSpecified": true,
        "CIKNbSpecified": false,
        "Q1O": 1,
        "Q1OSpecified": true,
        "Q1P": "88LQ6PPLZCCSTCFX1D09"
      },
      "Item2A": {
        "Q2A1": 0,
        "Q2A1Specified": true,
        "Q2A2": 1,
        "Q2A2Specified": true,
        "Q2A3": 1,
        "Q2A3Specified": true,
        "Q2A4": 1,
        "Q2A4Specified": true,
        "Q2A5": 0,
        "Q2A5Specified": true,
        "Q2A6": 1,
        "Q2A6Specified": true,
        "Q2A7": 1,
        "Q2A7Specified": true,
        "Q2A8": 1,
        "Q2A8Specified": true,
        "Q2A9": 1,
        "Q2A9Specified": true,
        "Q2A10": 1,
        "Q2A10Specified": true,
        "Q2A11": 1,
        "Q2A11Specified": true,
        "Q2A12": 1,
        "Q2A12Specified": true,
        "Q2A13": 1,
        "Q2A13Specified": true
      },
      "Item2B": {
        "Q2B1Specified": false,
        "Q2B2Specified": false,
        "Q2B3Specified": false
      },
      "Item3A": {
        "OrgFormNm": "Limited Liability Company",
        "OrgFormOthNm": null
      },
      "Item3B": {
        "Q3B": "DECEMBER"
      },
      "Item3C": {
        "StateCD": 8,
        "StateCDSpecified": true,
        "CntryNm": "United States"
      },
      "Item5A": {
        "TtlEmp": "26"
      },
      "Item5B": {
        "Q5B1": "0",
        "Q5B2": "20",
        "Q5B3": "2",
        "Q5B4": "0",
        "Q5B5": "0",
        "Q5B6": "0"
      },
      "Item5C": {
        "Q5C1": "More than 100",
        "Q5C1Oth": "101",
        "Q5C2": "51"
      },
      "Item5D": {
        "Q5D1A": "0 percent",
        "Q5D1B": "0 percent",
        "Q5D1C": "0 percent",
        "Q5D1D": "Up to 10 percent",
        "Q5D1E": "0 percent",
        "Q5D1F": "76-99 percent",
        "Q5D1G": "Up to 10 percent",
        "Q5D1H": "0 percent",
        "Q5D1I": "Up to 10 percent",
        "Q5D1J": "Up to 10 percent",
        "Q5D1K": "0 percent",
        "Q5D1L": "Up to 10 percent",
        "Q5D1M": "Up to 10 percent",
        "Q5D1MOth": "INCUBATED ACCOUNTS, FOREIGN GOVERNMENT AGENCIES",
        "Q5D2A": "0 percent",
        "Q5D2B": "0 percent",
        "Q5D2C": "0 percent",
        "Q5D2D": "Up to 25 percent",
        "Q5D2E": "0 percent",
        "Q5D2F": "More than 75 percent",
        "Q5D2G": "Up to 25 percent",
        "Q5D2H": "0 percent",
        "Q5D2I": "Up to 25 percent",
        "Q5D2J": "Up to 25 percent",
        "Q5D2K": "0 percent",
        "Q5D2L": "Up to 25 percent",
        "Q5D2M": "Up to 25 percent",
        "Q5D2MOth": "INCUBATED ACCOUNTS, FOREIGN GOVERNMENT AGENCIES"
      },
      "Item5E": {
        "Q5E1": 0,
        "Q5E1Specified": true,
        "Q5E2": 1,
        "Q5E2Specified": true,
        "Q5E3": 1,
        "Q5E3Specified": true,
        "Q5E4": 1,
        "Q5E4Specified": true,
        "Q5E5": 1,
        "Q5E5Specified": true,
        "Q5E6": 0,
        "Q5E6Specified": true,
        "Q5E7": 1,
        "Q5E7Specified": true,
        "Q5E7Oth": null
      },
      "Item5F": {
        "Q5F1": 0,
        "Q5F1Specified": true,
        "Q5F2A": 26580670546.0,
        "Q5F2ASpecified": true,
        "Q5F2B": 11188868898.0,
        "Q5F2BSpecified": true,
        "Q5F2C": 37769539444.0,
        "Q5F2CSpecified": true,
        "Q5F2D": "104",
        "Q5F2E": "22",
        "Q5F2F": "126"
      },
      "Item5G": {
        "Q5G1": 1,
        "Q5G1Specified": true,
        "Q5G2": 1,
        "Q5G2Specified": true,
        "Q5G3": 0,
        "Q5G3Specified": true,
        "Q5G4": 0,
        "Q5G4Specified": true,
        "Q5G5": 0,
        "Q5G5Specified": true,
        "Q5G6": 1,
        "Q5G6Specified": true,
        "Q5G7": 1,
        "Q5G7Specified": true,
        "Q5G8": 1,
        "Q5G8Specified": true,
        "Q5G9": 1,
        "Q5G9Specified": true,
        "Q5G10": 1,
        "Q5G10Specified": true,
        "Q5G11": 1,
        "Q5G11Specified": true,
        "Q5G12": 1,
        "Q5G12Specified": true,
        "Q5G12Oth": null
      },
      "Item5H": {
        "Q5H": null,
        "Q5HMT500": null
      },
      "Item5I": {
        "Q5I1": 1,
        "Q5I1Specified": true,
        "Q5I2": 1,
        "Q5I2Specified": true
      },
      "Item5J": {
        "Q5J": 1,
        "Q5JSpecified": true
      },
      "Item6A": {
        "Q6A1": 1,
        "Q6A1Specified": true,
        "Q6A2": 1,
        "Q6A2Specified": true,
        "Q6A3": 0,
        "Q6A3Specified": true,
        "Q6A4": 1,
        "Q6A4Specified": true,
        "Q6A5": 1,
        "Q6A5Specified": true,
        "Q6A6": 1,
        "Q6A6Specified": true,
        "Q6A7": 1,
        "Q6A7Specified": true,
        "Q6A8": 1,
        "Q6A8Specified": true,
        "Q6A9": 1,
        "Q6A9Specified": true,
        "Q6A10": 1,
        "Q6A10Specified": true,
        "Q6A11": 1,
        "Q6A11Specified": true,
        "Q6A12": 1,
        "Q6A12Specified": true,
        "Q6A13": 1,
        "Q6A13Specified": true,
        "Q6A14": 1,
        "Q6A14Specified": true,
        "Q6A14Oth": null
      },
      "Item6B": {
        "Q6B1": 1,
        "Q6B1Specified": true,
        "Q6B3": 1,
        "Q6B3Specified": true,
        "Q6B2Specified": false
      },
      "Item7A": {
        "Q7A1": 0,
        "Q7A1Specified": true,
        "Q7A2": 0,
        "Q7A2Specified": true,
        "Q7A3": 1,
        "Q7A3Specified": true,
        "Q7A4": 1,
        "Q7A4Specified": true,
        "Q7A5": 1,
        "Q7A5Specified": true,
        "Q7A6": 0,
        "Q7A6Specified": true,
        "Q7A7": 1,
        "Q7A7Specified": true,
        "Q7A8": 1,
        "Q7A8Specified": true,
        "Q7A9": 0,
        "Q7A9Specified": true,
        "Q7A10": 1,
        "Q7A10Specified": true,
        "Q7A11": 1,
        "Q7A11Specified": true,
        "Q7A12": 0,
        "Q7A12Specified": true,
        "Q7A13": 1,
        "Q7A13Specified": true,
        "Q7A14": 1,
        "Q7A14Specified": true,
        "Q7A15": 1,
        "Q7A15Specified": true,
        "Q7A16": 0,
        "Q7A16Specified": true
      },
      "Item7B": {
        "Q7B": 0,
        "Q7BSpecified": true
      },
      "Item8A": {
        "Q8A1": 1,
        "Q8A1Specified": true,
        "Q8A2": 0,
        "Q8A2Specified": true,
        "Q8A3": 0,
        "Q8A3Specified": true
      },
      "Item8B": {
        "Q8B1": 1,
        "Q8B1Specified": true,
        "Q8B2": 0,
        "Q8B2Specified": true,
        "Q8B3": 1,
        "Q8B3Specified": true
      },
      "Item8C": {
        "Q8C1": 0,
        "Q8C1Specified": true,
        "Q8C2": 0,
        "Q8C2Specified": true,
        "Q8C3": 0,
        "Q8C3Specified": true,
        "Q8C4": 0,
        "Q8C4Specified": true
      },
      "Item8D": {
        "Q8D": 1,
        "Q8DSpecified": true
      },
      "Item8E": {
        "Q8E": 0,
        "Q8ESpecified": true
      },
      "Item8F": {
        "Q8F": 1,
        "Q8FSpecified": true
      },
      "Item8G": {
        "Q8G1": 0,
        "Q8G1Specified": true,
        "Q8G2": 0,
        "Q8G2Specified": true
      },
      "Item8H": {
        "Q8H": 0,
        "Q8HSpecified": true
      },
      "Item8I": {
        "Q8I": 1,
        "Q8ISpecified": true
      },
      "Item9A": {
        "Q9A1A": 0,
        "Q9A1ASpecified": true,
        "Q9A1B": 0,
        "Q9A1BSpecified": true,
        "Q9A2A": 2391300650.0,
        "Q9A2ASpecified": true,
        "Q9A2B": "7"
      },
      "Item9B": {
        "Q9B1A": 0,
        "Q9B1ASpecified": true,
        "Q9B1B": 0,
        "Q9B1BSpecified": true,
        "Q9B2A": 12261107889.0,
        "Q9B2ASpecified": true,
        "Q9B2B": "43"
      },
      "Item9C": {
        "Q9C1": 1,
        "Q9C1Specified": true,
        "Q9C2": 0,
        "Q9C2Specified": true,
        "Q9C3": 1,
        "Q9C3Specified": true,
        "Q9C4": 1,
        "Q9C4Specified": true
      },
      "Item9D": {
        "Q9D1": 1,
        "Q9D1Specified": true,
        "Q9D2": 1,
        "Q9D2Specified": true
      },
      "Item9E": {
        "Q9E": null
      },
      "Item9F": {
        "Q9F": "6"
      },
      "Item10A": {
        "Q10A": 1,
        "Q10ASpecified": true
      },
      "Item11": {
        "Q11": 0,
        "Q11Specified": true
      },
      "Item11A": {
        "Q11A1": 1,
        "Q11A1Specified": true,
        "Q11A2": 1,
        "Q11A2Specified": true
      },
      "Item11B": {
        "Q11B1": 1,
        "Q11B1Specified": true,
        "Q11B2": 1,
        "Q11B2Specified": true
      },
      "Item11C": {
        "Q11C1": 1,
        "Q11C1Specified": true,
        "Q11C2": 1,
        "Q11C2Specified": true,
        "Q11C3": 1,
        "Q11C3Specified": true,
        "Q11C4": 1,
        "Q11C4Specified": true,
        "Q11C5": 1,
        "Q11C5Specified": true
      },
      "Item11D": {
        "Q11D1": 1,
        "Q11D1Specified": true,
        "Q11D2": 1,
        "Q11D2Specified": true,
        "Q11D3": 1,
        "Q11D3Specified": true,
        "Q11D4": 0,
        "Q11D4Specified": true,
        "Q11D5": 1,
        "Q11D5Specified": true
      },
      "Item11E": {
        "Q11E1": 1,
        "Q11E1Specified": true,
        "Q11E2": 1,
        "Q11E2Specified": true,
        "Q11E3": 1,
        "Q11E3Specified": true,
        "Q11E4": 1,
        "Q11E4Specified": true
      },
      "Item11F": {
        "Q11F": 1,
        "Q11FSpecified": true
      },
      "Item11G": {
        "Q11G": 1,
        "Q11GSpecified": true
      },
      "Item11H": {
        "Q11H1A": 1,
        "Q11H1ASpecified": true,
        "Q11H1B": 1,
        "Q11H1BSpecified": true,
        "Q11H1C": 1,
        "Q11H1CSpecified": true,
        "Q11H2": 1,
        "Q11H2Specified": true
      }
    }
  },
  "Reps": {
    "4542718": "CASSARO, JOSEPH A."
  }
}