{
  "Info": {
    "SECRgnCD": 1,
    "SECRgnCDSpecified": true,
    "FirmCrdNb": "109355",
    "SECNb": "801-55094",
    "BusNm": "MDT ADVISERS, A DIVISION OF FEDERATED MDTA LLC",
    "LegalNm": "FEDERATED MDTA LLC"
  },
  "MainAddr": {
    "Strt1": "125 HIGH STREET",
    "Strt2": "OLIVER STREET TOWER, 21ST FLOOR",
    "City": "BOSTON",
    "State": 20,
    "StateSpecified": true,
    "Cntry": "United States",
    "PostlCd": "02110",
    "PhNb": "617-235-7100",
    "FaxNb": "412-288-3939"
  },
  "MailingAddr": {
    "Strt1": null,
    "Strt2": null,
    "City": null,
    "StateSpecified": false,
    "Cntry": null,
    "PostlCd": null,
    "PhNb": null,
    "FaxNb": null
  },
  "Rgstn": [
    {
      "FirmType": 0,
      "St": 0,
      "Dt": "1997-11-13T00:00:00"
    }
  ],
  "NoticeFiled": [
    {
      "RgltrCd": 2,
      "St": 1,
      "StSpecified": true,
      "Dt": "1991-08-01T00:00:00",
      "DtSpecified": true
    },
    {
      "RgltrCd": 8,
      "St": 1,
      "StSpecified": true,
      "Dt": "1991-08-06T00:00:00",
      "DtSpecified": true
    },
    {
      "RgltrCd": 21,
      "St": 1,
      "StSpecified": true,
      "Dt": "1991-08-06T00:00:00",
      "DtSpecified": true
    },
    {
      "RgltrCd": 43,
      "St": 1,
      "StSpecified": true,
      "Dt": "1991-08-06T00:00:00",
      "DtSpecified": true
    },
    {
      "RgltrCd": 44,
      "St": 1,
      "StSpecified": true,
      "Dt": "1991-08-07T00:00:00",
      "DtSpecified": true
    },
    {
      "RgltrCd": 35,
      "St": 1,
      "StSpecified": true,
      "Dt": "1991-08-12T00:00:00",
      "DtSpecified": true
    },
    {
      "RgltrCd": 14,
      "St": 1,
      "StSpecified": true,
      "Dt": "1991-08-13T00:00:00",
      "DtSpecified": true
    },
    {
      "RgltrCd": 51,
      "St": 1,
      "StSpecified": true,
      "Dt": "1991-08-13T00:00:00",
      "DtSpecified": true
    },
    {
      "RgltrCd": 34,
      "St": 1,
      "StSpecified": true,
      "Dt": "1991-09-04T00:00:00",
      "DtSpecified": true
    },
    {
      "RgltrCd": 12,
      "St": 1,
      "StSpecified": true,
      "Dt": "1991-09-17T00:00:00",
      "DtSpecified": true
    },
    {
      "RgltrCd": 33,
      "St": 1,
      "StSpecified": true,
      "Dt": "1991-09-18T00:00:00",
      "DtSpecified": true
    },
    {
      "RgltrCd": 50,
      "St": 1,
      "StSpecified": true,
      "Dt": "1991-10-02T00:00:00",
      "DtSpecified": true
    },
    {
      "RgltrCd": 32,
      "St": 1,
      "StSpecified": true,
      "Dt": "1991-10-21T00:00:00",
      "DtSpecified": true
    },
    {
      "RgltrCd": 47,
      "St": 1,
      "StSpecified": true,
      "Dt": "1991-11-15T00:00:00",
      "DtSpecified": true
    },
    {
      "RgltrCd": 41,
      "St": 1,
      "StSpecified": true,
      "Dt": "1993-01-01T00:00:00",
      "DtSpecified": true
    },
    {
      "RgltrCd": 7,
      "St": 1,
      "StSpecified": true,
      "Dt": "1993-12-18T00:00:00",
      "DtSpecified": true
    },
    {
      "RgltrCd": 3,
      "St": 1,
      "StSpecified": true,
      "Dt": "1994-08-03T00:00:00",
      "DtSpecified": true
    },
    {
      "RgltrCd": 26,
      "St": 1,
      "StSpecified": true,
      "Dt": "1997-10-13T00:00:00",
      "DtSpecified": true
    },
    {
      "RgltrCd": 46,
      "St": 1,
      "StSpecified": true,
      "Dt": "1997-11-13T00:00:00",
      "DtSpecified": true
    },
    {
      "RgltrCd": 15,
      "St": 1,
      "StSpecified": true,
      "Dt": "1997-12-01T00:00:00",
      "DtSpecified": true
    },
    {
      "RgltrCd": 17,
      "St": 1,
      "StSpecified": true,
      "Dt": "1997-12-01T00:00:00",
      "DtSpecified": true
    },
    {
      "RgltrCd": 20,
      "St": 1,
      "StSpecified": true,
      "Dt": "1997-12-01T00:00:00",
      "DtSpecified": true
    },
    {
      "RgltrCd": 25,
      "St": 1,
      "StSpecified": true,
      "Dt": "1997-12-01T00:00:00",
      "DtSpecified": true
    },
    {
      "RgltrCd": 31,
      "St": 1,
      "StSpecified": true,
      "Dt": "1997-12-01T00:00:00",
      "DtSpecified": true
    },
    {
      "RgltrCd": 39,
      "St": 1,
      "StSpecified": true,
      "Dt": "1997-12-01T00:00:00",
      "DtSpecified": true
    },
    {
      "RgltrCd": 49,
      "St": 1,
      "StSpecified": true,
      "Dt": "1997-12-01T00:00:00",
      "DtSpecified": true
    },
    {
      "RgltrCd": 45,
      "St": 1,
      "StSpecified": true,
      "Dt": "1997-12-02T00:00:00",
      "DtSpecified": true
    },
    {
      "RgltrCd": 10,
      "St": 1,
      "StSpecified": true,
      "Dt": "1997-12-03T00:00:00",
      "DtSpecified": true
    },
    {
      "RgltrCd": 18,
      "St": 1,
      "StSpecified": true,
      "Dt": "1997-12-03T00:00:00",
      "DtSpecified": true
    },
    {
      "RgltrCd": 23,
      "St": 1,
      "StSpecified": true,
      "Dt": "1997-12-03T00:00:00",
      "DtSpecified": true
    },
    {
      "RgltrCd": 48,
      "St": 1,
      "StSpecified": true,
      "Dt": "1997-12-08T00:00:00",
      "DtSpecified": true
    },
    {
      "RgltrCd": 0,
      "St": 1,
      "StSpecified": true,
      "Dt": "1997-12-10T00:00:00",
      "DtSpecified": true
    },
    {
      "RgltrCd": 27,
      "St": 1,
      "StSpecified": true,
      "Dt": "1997-12-11T00:00:00",
      "DtSpecified": true
    },
    {
      "RgltrCd": 4,
      "St": 1,
      "StSpecified": true,
      "Dt": "1997-12-12T00:00:00",
      "DtSpecified": true
    },
    {
      "RgltrCd": 9,
      "St": 1,
      "StSpecified": true,
      "Dt": "1997-12-15T00:00:00",
      "DtSpecified": true
    },
    {
      "RgltrCd": 42,
      "St": 1,
      "StSpecified": true,
      "Dt": "1997-12-15T00:00:00",
      "DtSpecified": true
    },
    {
      "RgltrCd": 1,
      "St": 1,
      "StSpecified": true,
      "Dt": "1998-01-01T00:00:00",
      "DtSpecified": true
    },
    {
      "RgltrCd": 22,
      "St": 1,
      "StSpecified": true,
      "Dt": "1998-01-01T00:00:00",
      "DtSpecified": true
    },
    {
      "RgltrCd": 37,
      "St": 1,
      "StSpecified": true,
      "Dt": "1998-01-01T00:00:00",
      "DtSpecified": true
    },
    {
      "RgltrCd": 6,
      "St": 1,
      "StSpecified": true,
      "Dt": "1998-01-02T00:00:00",
      "DtSpecified": true
    },
    {
      "RgltrCd": 24,
      "St": 1,
      "StSpecified": true,
      "Dt": "1998-01-02T00:00:00",
      "DtSpecified": true
    },
    {
      "RgltrCd": 13,
      "St": 1,
      "StSpecified": true,
      "Dt": "1999-01-01T00:00:00",
      "DtSpecified": true
    },
    {
      "RgltrCd": 36,
      "St": 1,
      "StSpecified": true,
      "Dt": "1999-05-19T00:00:00",
      "DtSpecified": true
    },
    {
      "RgltrCd": 29,
      "St": 1,
      "StSpecified": true,
      "Dt": "2001-01-02T00:00:00",
      "DtSpecified": true
    },
    {
      "RgltrCd": 16,
      "St": 1,
      "StSpecified": true,
      "Dt": "2001-03-06T00:00:00",
      "DtSpecified": true
    },
    {
      "RgltrCd": 28,
      "St": 1,
      "StSpecified": true,
      "Dt": "2001-03-06T00:00:00",
      "DtSpecified": true
    },
    {
      "RgltrCd": 19,
      "St": 1,
      "StSpecified": true,
      "Dt": "2001-10-08T00:00:00",
      "DtSpecified": true
    },
    {
      "RgltrCd": 30,
      "St": 1,
      "StSpecified": true,
      "Dt": "2002-01-01T00:00:00",
      "DtSpecified": true
    },
    {
      "RgltrCd": 38,
      "St": 1,
      "StSpecified": true,
      "Dt": "2002-01-10T00:00:00",
      "DtSpecified": true
    },
    {
      "RgltrCd": 40,
      "St": 1,
      "StSpecified": true,
      "Dt": "2008-03-26T00:00:00",
      "DtSpecified": true
    },
    {
      "RgltrCd": 5,
      "St": 1,
      "StSpecified": true,
      "Dt": "2015-03-16T00:00:00",
      "DtSpecified": true
    }
  ],
  "Filing": [
    {
      "Dt": "2016-03-16T00:00:00",
      "FormVrsn": "10/2012"
    }
  ],
  "FormInfo": {
    "Part1A": {
      "Item1": {
        "WebAddrs": [
          "HTTP://FEDERATEDINVESTORS.COM"
        ],
        "Q1I": 0,
        "Q1ISpecified": true,
        "Q1M": 1,
        "Q1MSpecified": true,
        "Q1N": 1,
        "Q1NSpecified": true,
        "CIKNbSpecified": false,
        "Q1O": 1,
        "Q1OSpecified": true,
        "Q1P": null
      },
      "Item2A": {
        "Q2A1": 0,
        "Q2A1Specified": true,
        "Q2A2": 1,
        "Q2A2Specified": true,
        "Q2A3": 1,
        "Q2A3Specified": true,
        "Q2A4": 1,
        "Q2A4Specified": true,
        "Q2A5": 0,
        "Q2A5Specified": true,
        "Q2A6": 1,
        "Q2A6Specified": true,
        "Q2A7": 1,
        "Q2A7Specified": true,
        "Q2A8": 1,
        "Q2A8Specified": true,
        "Q2A9": 1,
        "Q2A9Specified": true,
        "Q2A10": 1,
        "Q2A10Specified": true,
        "Q2A11": 1,
        "Q2A11Specified": true,
        "Q2A12": 1,
        "Q2A12Specified": true,
        "Q2A13": 1,
        "Q2A13Specified": true
      },
      "Item2B": {
        "Q2B1Specified": false,
        "Q2B2Specified": false,
        "Q2B3Specified": false
      },
      "Item3A": {
        "OrgFormNm": "Limited Liability Company",
        "OrgFormOthNm": null
      },
      "Item3B": {
        "Q3B": "DECEMBER"
      },
      "Item3C": {
        "StateCD": 8,
        "StateCDSpecified": true,
        "CntryNm": "United States"
      },
      "Item5A": {
        "TtlEmp": "26"
      },
      "Item5B": {
        "Q5B1": "14",
        "Q5B2": "0",
        "Q5B3": "2",
        "Q5B4": "1",
        "Q5B5": "0",
        "Q5B6": "3"
      },
      "Item5C": {
        "Q5C1": "More than 100",
        "Q5C1Oth": "4306",
        "Q5C2": "1"
      },
      "Item5D": {
        "Q5D1A": "76-99 percent",
        "Q5D1B": "Up to 10 percent",
        "Q5D1C": "0 percent",
        "Q5D1D": "11-25 percent",
        "Q5D1E": "0 percent",
        "Q5D1F": "Up to 10 percent",
        "Q5D1G": "Up to 10 percent",
        "Q5D1H": "Up to 10 percent",
        "Q5D1I": "Up to 10 percent",
        "Q5D1J": "Up to 10 percent",
        "Q5D1K": "0 percent",
        "Q5D1L": "Up to 10 percent",
        "Q5D1M": "0 percent",
        "Q5D1MOth": null,
        "Q5D2A": "Up to 25 percent",
        "Q5D2B": "Up to 25 percent",
        "Q5D2C": "0 percent",
        "Q5D2D": "Up to 75 percent",
        "Q5D2E": "0 percent",
        "Q5D2F": "Up to 25 percent",
        "Q5D2G": "Up to 25 percent",
        "Q5D2H": "Up to 25 percent",
        "Q5D2I": "Up to 25 percent",
        "Q5D2J": "Up to 25 percent",
        "Q5D2K": "0 percent",
        "Q5D2L": "Up to 25 percent",
        "Q5D2M": "0 percent",
        "Q5D2MOth": null
      },
      "Item5E": {
        "Q5E1": 0,
        "Q5E1Specified": true,
        "Q5E2": 1,
        "Q5E2Specified": true,
        "Q5E3": 1,
        "Q5E3Specified": true,
        "Q5E4": 1,
        "Q5E4Specified": true,
        "Q5E5": 1,
        "Q5E5Specified": true,
        "Q5E6": 0,
        "Q5E6Specified": true,
        "Q5E7": 1,
        "Q5E7Specified": true,
        "Q5E7Oth": null
      },
      "Item5F": {
        "Q5F1": 0,
        "Q5F1Specified": true,
        "Q5F2A": 4329699645.0,
        "Q5F2ASpecified": true,
        "Q5F2B": 0.0,
        "Q5F2BSpecified": true,
        "Q5F2C": 4329699645.0,
        "Q5F2CSpecified": true,
        "Q5F2D": "3117",
        "Q5F2E": "0",
        "Q5F2F": "3117"
      },
      "Item5G": {
        "Q5G1": 1,
        "Q5G1Specified": true,
        "Q5G2": 0,
        "Q5G2Specified": true,
        "Q5G3": 0,
        "Q5G3Specified": true,
        "Q5G4": 0,
        "Q5G4Specified": true,
        "Q5G5": 0,
        "Q5G5Specified": true,
        "Q5G6": 1,
        "Q5G6Specified": true,
        "Q5G7": 1,
        "Q5G7Specified": true,
        "Q5G8": 1,
        "Q5G8Specified": true,
        "Q5G9": 1,
        "Q5G9Specified": true,
        "Q5G10": 1,
        "Q5G10Specified": true,
        "Q5G11": 0,
        "Q5G11Specified": true,
        "Q5G12": 0,
        "Q5G12Specified": true,
        "Q5G12Oth": "ADVISER ALSO PROVIDES MODEL PORTFOLIOS AND ASSET ALLOCATION RECOMMENDATIONS AND PERIODIC UPDATES TO THEM."
      },
      "Item5H": {
        "Q5H": null,
        "Q5HMT500": null
      },
      "Item5I": {
        "Q5I1": 1,
        "Q5I1Specified": true,
        "Q5I2": 0,
        "Q5I2Specified": true
      },
      "Item5J": {
        "Q5J": 1,
        "Q5JSpecified": true
      },
      "Item6A": {
        "Q6A1": 1,
        "Q6A1Specified": true,
        "Q6A2": 1,
        "Q6A2Specified": true,
        "Q6A3": 0,
        "Q6A3Specified": true,
        "Q6A4": 1,
        "Q6A4Specified": true,
        "Q6A5": 1,
        "Q6A5Specified": true,
        "Q6A6": 1,
        "Q6A6Specified": true,
        "Q6A7": 1,
        "Q6A7Specified": true,
        "Q6A8": 1,
        "Q6A8Specified": true,
        "Q6A9": 1,
        "Q6A9Specified": true,
        "Q6A10": 1,
        "Q6A10Specified": true,
        "Q6A11": 1,
        "Q6A11Specified": true,
        "Q6A12": 1,
        "Q6A12Specified": true,
        "Q6A13": 1,
        "Q6A13Specified": true,
        "Q6A14": 1,
        "Q6A14Specified": true,
        "Q6A14Oth": null
      },
      "Item6B": {
        "Q6B1": 1,
        "Q6B1Specified": true,
        "Q6B3": 1,
        "Q6B3Specified": true,
        "Q6B2Specified": false
      },
      "Item7A": {
        "Q7A1": 0,
        "Q7A1Specified": true,
        "Q7A2": 0,
        "Q7A2Specified": true,
        "Q7A3": 1,
        "Q7A3Specified": true,
        "Q7A4": 1,
        "Q7A4Specified": true,
        "Q7A5": 1,
        "Q7A5Specified": true,
        "Q7A6": 0,
        "Q7A6Specified": true,
        "Q7A7": 1,
        "Q7A7Specified": true,
        "Q7A8": 1,
        "Q7A8Specified": true,
        "Q7A9": 0,
        "Q7A9Specified": true,
        "Q7A10": 1,
        "Q7A10Specified": true,
        "Q7A11": 1,
        "Q7A11Specified": true,
        "Q7A12": 1,
        "Q7A12Specified": true,
        "Q7A13": 1,
        "Q7A13Specified": true,
        "Q7A14": 1,
        "Q7A14Specified": true,
        "Q7A15": 1,
        "Q7A15Specified": true,
        "Q7A16": 0,
        "Q7A16Specified": true
      },
      "Item7B": {
        "Q7B": 0,
        "Q7BSpecified": true
      },
      "Item8A": {
        "Q8A1": 1,
        "Q8A1Specified": true,
        "Q8A2": 0,
        "Q8A2Specified": true,
        "Q8A3": 0,
        "Q8A3Specified": true
      },
      "Item8B": {
        "Q8B1": 1,
        "Q8B1Specified": true,
        "Q8B2": 0,
        "Q8B2Specified": true,
        "Q8B3": 0,
        "Q8B3Specified": true
      },
      "Item8C": {
        "Q8C1": 0,
        "Q8C1Specified": true,
        "Q8C2": 0,
        "Q8C2Specified": true,
        "Q8C3": 0,
        "Q8C3Specified": true,
        "Q8C4": 0,
        "Q8C4Specified": true
      },
      "Item8D": {
        "Q8D": 1,
        "Q8DSpecified": true
      },
      "Item8E": {
        "Q8E": 0,
        "Q8ESpecified": true
      },
      "Item8F": {
        "Q8F": 1,
        "Q8FSpecified": true
      },
      "Item8G": {
        "Q8G1": 0,
        "Q8G1Specified": true,
        "Q8G2": 0,
        "Q8G2Specified": true
      },
      "Item8H": {
        "Q8H": 0,
        "Q8HSpecified": true
      },
      "Item8I": {
        "Q8I": 0,
        "Q8ISpecified": true
      },
      "Item9A": {
        "Q9A1A": 0,
        "Q9A1ASpecified": true,
        "Q9A1B": 0,
        "Q9A1BSpecified": true,
        "Q9A2A": 3233800.0,
        "Q9A2ASpecified": true,
        "Q9A2B": "1"
      },
      "Item9B": {
        "Q9B1A": 1,
        "Q9B1ASpecified": true,
        "Q9B1B": 1,
        "Q9B1BSpecified": true,
        "Q9B2ASpecified": false,
        "Q9B2B": null
      },
      "Item9C": {
        "Q9C1": 0,
        "Q9C1Specified": true,
        "Q9C2": 1,
        "Q9C2Specified": true,
        "Q9C3": 0,
        "Q9C3Specified": true,
        "Q9C4": 1,
        "Q9C4Specified": true
      },
      "Item9D": {
        "Q9D1": 1,
        "Q9D1Specified": true,
        "Q9D2": 1,
        "Q9D2Specified": true
      },
      "Item9E": {
        "Q9E": null
      },
      "Item9F": {
        "Q9F": "7"
      },
      "Item10A": {
        "Q10A": 1,
        "Q10ASpecified": true
      },
      "Item11": {
        "Q11": 1,
        "Q11Specified": true
      },
      "Item11A": {
        "Q11A1": 1,
        "Q11A1Specified": true,
        "Q11A2": 1,
        "Q11A2Specified": true
      },
      "Item11B": {
        "Q11B1": 1,
        "Q11B1Specified": true,
        "Q11B2": 1,
        "Q11B2Specified": true
      },
      "Item11C": {
        "Q11C1": 1,
        "Q11C1Specified": true,
        "Q11C2": 1,
        "Q11C2Specified": true,
        "Q11C3": 1,
        "Q11C3Specified": true,
        "Q11C4": 1,
        "Q11C4Specified": true,
        "Q11C5": 1,
        "Q11C5Specified": true
      },
      "Item11D": {
        "Q11D1": 1,
        "Q11D1Specified": true,
        "Q11D2": 1,
        "Q11D2Specified": true,
        "Q11D3": 1,
        "Q11D3Specified": true,
        "Q11D4": 1,
        "Q11D4Specified": true,
        "Q11D5": 1,
        "Q11D5Specified": true
      },
      "Item11E": {
        "Q11E1": 1,
        "Q11E1Specified": true,
        "Q11E2": 1,
        "Q11E2Specified": true,
        "Q11E3": 1,
        "Q11E3Specified": true,
        "Q11E4": 1,
        "Q11E4Specified": true
      },
      "Item11F": {
        "Q11F": 1,
        "Q11FSpecified": true
      },
      "Item11G": {
        "Q11G": 1,
        "Q11GSpecified": true
      },
      "Item11H": {
        "Q11H1A": 1,
        "Q11H1ASpecified": true,
        "Q11H1B": 1,
        "Q11H1BSpecified": true,
        "Q11H1C": 1,
        "Q11H1CSpecified": true,
        "Q11H2": 1,
        "Q11H2Specified": true
      }
    }
  },
  "Reps": {
    "1011871": "WILSON, LITTELL EDWARD, JR",
    "1029555": "PERSON, SOLON ARMOUR, IV",
    "1034647": "MOSKO, JOHN CHARLES",
    "1069515": "MICHALISZYN, AMY MAE",
    "1205148": "OSTROWSKI, JAMES EDWARD",
    "1225783": "KENNEDY, HARRY JOSEPH",
    "1239916": "TUSTIN, WILLIAM CARL",
    "1246873": "TOUSIGNANT, ROBERT FRED",
    "1352839": "BAUMAN, ROBERT WARREN, JR",
    "1401147": "JONES, JEFFREY SCOTT",
    "1413861": "WROBLE, DANIEL ROBERT",
    "1418988": "MIHM, RICHARD COLLINS",
    "1442980": "WOJNAROWSKI, EDWARD JAMES",
    "1460060": "MULLER, DORIS TERESA",
    "1489427": "BOYD, RICHARD WILLIAM",
    "1513611": "EDWARDS, DONALD CLARK",
    "1572129": "CRONIN, STEPHEN PAUL",
    "1575344": "BROWN, THOMAS ROBERT",
    "1588240": "MCCAFFREY, MARTIN JAY",
    "1588383": "BOZEK, EDWARD ROBERT, JR",
    "1605801": "MARZULA, DIANE MARIE",
    "1632154": "ROSEWICZ, TIMOTHY ANDREW",
    "1676319": "EISENBRANDT, PETER WILLIAM",
    "1679899": "LAMBESIS, JANE BROEREN",
    "1702382": "HASTINGS, BRUCE EDWARD",
    "1790459": "NELSON, REBECCA JEAN",
    "1792956": "DIMARSICO, MICHAEL THOMAS",
    "1793115": "RECKER, RICHARD ANTHONY",
    "1890547": "BOHNET, JACK BOYD",
    "1891811": "BAPPERT, MICHAEL",
    "1938612": "MURPHY, MARK JOSEPH",
    "1941745": "CASEY, DANIEL PATRICK",
    "1946906": "CHARLTON, SCOTT JAMES",
    "2013835": "STALEY, JOHN ADOLPHUS",
    "203666": "FADOOL, THEODORE, JR",
    "2043674": "UHLMAN, PAUL ADAM",
    "2075760": "WOLFF, MICHAEL PATRICK",
    "2075764": "SCHINABECK, THOMAS SCOTT",
    "2079382": "CRENNY, KEVIN JAMES",
    "2132399": "SMITH, EDWARD LEE",
    "2136622": "GUNDERSEN, SCOTT ARTHUR",
    "2158278": "LISS, MICHAEL HENRY",
    "2158279": "RONAYNE, BRIAN SEAN",
    "2161597": "SANCHEZ, EDUARDO G",
    "2164437": "STRUBEL, MARK JOSEPH",
    "2179256": "MANNING, MICHAEL ROBERT",
    "2188558": "OTTO, STEPHEN CHRIS",
    "2200188": "BROOKS, EDWIN JAMES, III",
    "2217918": "NEILLY, ALEC HARRY",
    "2259571": "FRANKLIN, TIMOTHY JOHN",
    "2304467": "HOLICK, SCOTT ALAN",
    "2305527": "KAVANAGH, SCOTT DOUGLAS",
    "2315851": "KOENIG, MICHAEL WAYNE",
    "2315854": "CARROLL, MARK",
    "2364021": "KOONTZ, EDWIN CLETUS, IV",
    "2364026": "DEFILIPPI, LORI JANE",
    "2367677": "KWOK, CRYSTAL C",
    "2388918": "RASMUSSEN, JOSH",
    "2410429": "ZETTELMAYER, ERIK JAKOB",
    "2434266": "WHALEN, G WALTER",
    "2484196": "STARKS, COLIN BARKER",
    "2530150": "WASIK, DAVID ALBERT",
    "2545022": "BERG, CHRISTOPHER DAVID",
    "2551140": "CONELY, JAMES SHERIDAN",
    "2563241": "COHEN, STEVEN ROY",
    "2630258": "MORROW, VINCENT THOMAS",
    "2642389": "HAFERKAMP, DAYNA LESLIE",
    "2655345": "ZUBER, PAUL JUDE",
    "2659959": "BURKE, BRYAN MARKHAM",
    "2663785": "MCINIS, BRIAN SCOTT",
    "2700596": "SICONOLFI, PETER CHRISTOPHER",
    "2737963": "PATSY, MARK BENJAMIN",
    "2758041": "COYNE, MARY ELLEN",
    "2761481": "GETZ, JAMES FRANCIS, JR",
    "2761483": "HARPER, VICTOR LANDON, JR",
    "2790411": "BERRY, DANIEL GREGORY",
    "2796103": "NOETHLING, THEODORE AUGUST, IV",
    "2852441": "EBENREITER, JACK CUSTER",
    "2872349": "ANDERSON, IRVING FRASIA, III",
    "2930831": "TURNER, JEFFREY BRIAN",
    "2931245": "LANDRUM, JERRY LYNN",
    "2941179": "JONES, RYAN WILLIAM",
    "2991779": "ROBINSON, DIANE MCCONAGHY",
    "3020001": "HURBANEK, ROBERT MICHAEL",
    "3021868": "BENACCI, MARC JOHN",
    "3036242": "VAHL, MICHAEL NICHOLAS",
    "3095344": "PAULSON, RICHARD PAUL",
    "3095346": "PRADO, CHRISTOPHER MICHAEL",
    "3134275": "MARIK, THOMAS ANDREW",
    "3163621": "WILLIAMS, LEWIS CHANDLER",
    "3187503": "HNARAS, GEORGE MATTHEW",
    "3223145": "HERY, LOUIS ROBERT, JR",
    "3229866": "O'NEILL, JOHN ANDREW",
    "3260374": "KNUTSON, SHAWN EVERETT",
    "4143435": "FITZGIBBONS, MATTHEW PHILLIP",
    "4213333": "LARRICK, DAVID MICHAEL",
    "4258560": "KEHLER, RODNEY ANDREW",
    "4277166": "LIPINSKI, JONATHAN BRETT",
    "4416451": "PERSICHETTI, MARCUS VINCENT",
    "4448261": "BABER, KENNETH COLLEN",
    "4507784": "LIEKAR, JOHN PAUL, III",
    "4572010": "SLINEY, BRIAN JOSEPH",
    "4630830": "FOSS, EDWARD STUART",
    "4702338": "KELLY, PATRICK MICHAEL",
    "4708372": "SHREWSBURY, JOHN LEE",
    "4742396": "SULLIVAN, JONATHAN PAUL",
    "4744161": "MORGAN, KYLE SPENCER",
    "4791062": "PEDICINI, STEPHEN PAUL",
    "4793787": "Thrower, Jennifer Marie",
    "4794177": "RUSH, JOHN ROBERT",
    "4797318": "COLLETTE, SCOTT RAYMOND",
    "4832934": "SMITH, BRADLEY WAYNE",
    "4833016": "MAGAN, PAUL JOZSA",
    "4839333": "KRUSEY, JESSICA LYNN",
    "4850797": "COSTLOW, STEPHEN JAMES",
    "4850920": "SONDEJ, BRIAN JOSEPH",
    "4865570": "KEMERER, NICHOLAS RAYMOND",
    "4875702": "TOMASOVICH, JAMES PATRICK",
    "4879990": "STANLEY, JOHN ROBERT",
    "4881453": "JOHNS, DARREN RAY",
    "4887451": "WILLIAMS, THEODORE EDWARD",
    "4887805": "RYAN, MATTHEW LAWRENCE",
    "4902763": "JONES, TODD WILLIAM",
    "4903769": "DUANE, JOHN CARROLL",
    "4939234": "MINTON, CHRISTOPHER PAUL",
    "4956973": "COOPER, GREGORY WILLIAM",
    "4974348": "BUCKWALTER, PAUL MICHAEL",
    "4995622": "WILLER, BRIAN ROBERT",
    "5020435": "DAVIS, ADINA ANN",
    "5022367": "ADAMS, BRIAN PATRICK",
    "5022621": "SLOMKOWSKI, JUSTIN JOSEPH",
    "5029469": "BARKALOFF, RAISA ELIZABETH",
    "5100704": "CLAYTON, DAMON MICHAEL",
    "5107351": "VALLINA, SCOTT ALAN",
    "5111388": "QUIRK, SEAN THOMAS",
    "5145957": "EBBS, CHARLES RICHARD",
    "5163054": "GRECO, JOSEPH ANTHONY",
    "5261368": "NIED, CATHERINE MAURA",
    "5261400": "WOJCIAK, JAMES JULIAN",
    "5279107": "KERN, ROBERT HOWARD",
    "5314297": "MORGAN, DAVID FRANCIS",
    "5344202": "CORELLO, DANIEL PETER",
    "5361848": "TEACHMAN, CHRISTIE BULL",
    "5366406": "DANKMYER, DAVID GARY",
    "5434889": "BOYLE, MATTHEW ADAM",
    "5477581": "DAVIS, CHRISTOPHER THOMAS",
    "5519119": "PAWUK, REBECCA DAWN",
    "5536834": "FLISEK, MARK ANTON",
    "5536846": "ELLIS, ANDREW MICHAEL",
    "5536847": "MOLYNEAUX, SHANNON ELIZABETH",
    "5574974": "JAKOVAC, MICHAEL FRANK",
    "5641528": "HEULER, DEREK ROBERT",
    "5652569": "MCGLINCY, KENT ROBERT, JR.",
    "5751077": "SIENA, NEAL",
    "5758694": "DIBARTOLOMEO, CHRISTOPHER",
    "5759867": "SCHUTT, BRENDAN PATRICK",
    "5772653": "RECKER, MAX EDWARD",
    "5774272": "TZANOUKAKIS, GREGORY STILIANOS",
    "5824651": "DUPUIS, KURT JUSTIN",
    "5824686": "CAIN, RYAN PATRICK",
    "5847225": "MCGOWEN, SAMUEL MICHAEL",
    "5874850": "SIMAKAS, NICHOLAS JAMES",
    "5875401": "DAY, KEVIN PAUL",
    "5875423": "CONSOLI, JONATHAN HARRY",
    "5875511": "ROSS, KAITLYN CECILIA",
    "5909842": "ZUGEC, ANTHONY",
    "5934027": "RANKIN, DEVIN MICHAEL",
    "5934121": "MADDIGAN, JACOB RAYMOND",
    "5938141": "PETNUCH, BRIAN MATTHEW",
    "5941694": "MCCOURT, EUGENE WILLIAM",
    "5952050": "OSHESKIE, MATTHEW EUGENE",
    "5969186": "APFELBAUM, NEIL BENJAMIN, II",
    "5969243": "O'BRIEN, TIMOTHY DAVID",
    "6010359": "MOSER, LAUREN LEA",
    "6010426": "LEVY, JUSTIN EDWARD",
    "6029287": "CURTIN, CASEY CLARENCE",
    "6084438": "DEVITO, ALBERT JOHN ANTHONY",
    "6084461": "HEURICH, ADAM MICHELE",
    "6086099": "KNAPP, LINDSEY ANNE",
    "6126772": "BENCKART, GREGORY DANIEL",
    "6151407": "LAW, NICOLE DIANA",
    "6166831": "JACKSON, DRAKE CHRISTIAN",
    "6206447": "WAHAL, BRADLEY JOSEPH",
    "6209495": "GARCIA, BENJAMIN ALOIS",
    "6212047": "ANZIO, THOMAS ARTHUR",
    "6231716": "NEWBAUER, JUSTIN ANDREW",
    "6242003": "FRANCE, MEGAN ELISE",
    "6275879": "WAGNER, TAYLOR RACHEL",
    "6275924": "BUTLER, BRENDAN EVAN",
    "6276133": "BORDEN, DANIEL JOSHUA",
    "6276427": "GILSON, MATTHEW JOHN",
    "6276431": "FAIRBROTHER, RYAN ALEXANDER",
    "6297443": "Sopher, KELEIGH MARIE",
    "6297471": "AZEVEDO, CONOR BRANDEN",
    "6315490": "SILVERMAN, LAYNE MICHELLE",
    "6315563": "DEFILIPPO, MATTHEW ROBERT",
    "6315593": "BOWSER, MICHAEL DEREK",
    "6315636": "LIANG, MICHAEL RAWSON",
    "6316302": "ZSOLCSAK, DANIEL ROY",
    "6335607": "MILEY, PATRICK DUBBS",
    "6405441": "SIGG, KATHLEEN MARIE",
    "6405460": "MURPHY, RYAN CHARLES",
    "6406134": "JAMES, ROBERT LEFONE, JR",
    "6406933": "HENRY, ALEXANDER CARL",
    "6421683": "LITZINGER, MATTHEW JAMES",
    "6475352": "FITZGERALD, MICHAEL THOMAS",
    "6540791": "JOHNSON, TIMOTHY HORTON",
    "6540950": "SANCTIS, ZACHARY WILLIAM",
    "6586435": "Haley, Drew",
    "6586452": "Albrecht, Jillian Michele",
    "6586455": "Scaife, Morgan Elaine",
    "6586475": "Allwes, Anna Elizabeth",
    "6596213": "Mazziotti, Gabriella Teresa",
    "713096": "MURRAY, JAMES PATRICK, III",
    "722160": "CERESINO, GORDON JOSEPH",
    "852943": "HEATON, JAMES MOODY",
    "854417": "NIXON, KEITH ALLAN"
  }
}