{
  "Info": {
    "SECRgnCD": 7,
    "SECRgnCDSpecified": true,
    "FirmCrdNb": "142785",
    "SECNb": "801-77145",
    "BusNm": "BB&T SECURITIES, LLC",
    "LegalNm": "BB&T SECURITIES, LLC"
  },
  "MainAddr": {
    "Strt1": "901 EAST BYRD STREET",
    "Strt2": "RIVERFRONT PLAZA, WEST TOWER",
    "City": "RICHMOND",
    "State": 47,
    "StateSpecified": true,
    "Cntry": "United States",
    "PostlCd": "23219",
    "PhNb": "804-643-1811",
    "FaxNb": "804-783-6032"
  },
  "MailingAddr": {
    "Strt1": null,
    "Strt2": null,
    "City": null,
    "StateSpecified": false,
    "Cntry": null,
    "PostlCd": null,
    "PhNb": null,
    "FaxNb": null
  },
  "Rgstn": [
    {
      "FirmType": 0,
      "St": 0,
      "Dt": "2012-09-24T00:00:00"
    }
  ],
  "NoticeFiled": [
    {
      "RgltrCd": 0,
      "St": 1,
      "StSpecified": true,
      "Dt": "2012-09-24T00:00:00",
      "DtSpecified": true
    },
    {
      "RgltrCd": 1,
      "St": 1,
      "StSpecified": true,
      "Dt": "2012-09-24T00:00:00",
      "DtSpecified": true
    },
    {
      "RgltrCd": 2,
      "St": 1,
      "StSpecified": true,
      "Dt": "2012-09-24T00:00:00",
      "DtSpecified": true
    },
    {
      "RgltrCd": 3,
      "St": 1,
      "StSpecified": true,
      "Dt": "2012-09-24T00:00:00",
      "DtSpecified": true
    },
    {
      "RgltrCd": 4,
      "St": 1,
      "StSpecified": true,
      "Dt": "2012-09-24T00:00:00",
      "DtSpecified": true
    },
    {
      "RgltrCd": 5,
      "St": 1,
      "StSpecified": true,
      "Dt": "2012-09-24T00:00:00",
      "DtSpecified": true
    },
    {
      "RgltrCd": 6,
      "St": 1,
      "StSpecified": true,
      "Dt": "2012-09-24T00:00:00",
      "DtSpecified": true
    },
    {
      "RgltrCd": 7,
      "St": 1,
      "StSpecified": true,
      "Dt": "2012-09-24T00:00:00",
      "DtSpecified": true
    },
    {
      "RgltrCd": 8,
      "St": 1,
      "StSpecified": true,
      "Dt": "2012-09-24T00:00:00",
      "DtSpecified": true
    },
    {
      "RgltrCd": 9,
      "St": 1,
      "StSpecified": true,
      "Dt": "2012-09-24T00:00:00",
      "DtSpecified": true
    },
    {
      "RgltrCd": 10,
      "St": 1,
      "StSpecified": true,
      "Dt": "2012-09-24T00:00:00",
      "DtSpecified": true
    },
    {
      "RgltrCd": 12,
      "St": 1,
      "StSpecified": true,
      "Dt": "2012-09-24T00:00:00",
      "DtSpecified": true
    },
    {
      "RgltrCd": 13,
      "St": 1,
      "StSpecified": true,
      "Dt": "2012-09-24T00:00:00",
      "DtSpecified": true
    },
    {
      "RgltrCd": 14,
      "St": 1,
      "StSpecified": true,
      "Dt": "2012-09-24T00:00:00",
      "DtSpecified": true
    },
    {
      "RgltrCd": 15,
      "St": 1,
      "StSpecified": true,
      "Dt": "2012-09-24T00:00:00",
      "DtSpecified": true
    },
    {
      "RgltrCd": 16,
      "St": 1,
      "StSpecified": true,
      "Dt": "2012-09-24T00:00:00",
      "DtSpecified": true
    },
    {
      "RgltrCd": 17,
      "St": 1,
      "StSpecified": true,
      "Dt": "2012-09-24T00:00:00",
      "DtSpecified": true
    },
    {
      "RgltrCd": 18,
      "St": 1,
      "StSpecified": true,
      "Dt": "2012-09-24T00:00:00",
      "DtSpecified": true
    },
    {
      "RgltrCd": 19,
      "St": 1,
      "StSpecified": true,
      "Dt": "2012-09-24T00:00:00",
      "DtSpecified": true
    },
    {
      "RgltrCd": 20,
      "St": 1,
      "StSpecified": true,
      "Dt": "2012-09-24T00:00:00",
      "DtSpecified": true
    },
    {
      "RgltrCd": 21,
      "St": 1,
      "StSpecified": true,
      "Dt": "2012-09-24T00:00:00",
      "DtSpecified": true
    },
    {
      "RgltrCd": 22,
      "St": 1,
      "StSpecified": true,
      "Dt": "2012-09-24T00:00:00",
      "DtSpecified": true
    },
    {
      "RgltrCd": 23,
      "St": 1,
      "StSpecified": true,
      "Dt": "2012-09-24T00:00:00",
      "DtSpecified": true
    },
    {
      "RgltrCd": 24,
      "St": 1,
      "StSpecified": true,
      "Dt": "2012-09-24T00:00:00",
      "DtSpecified": true
    },
    {
      "RgltrCd": 25,
      "St": 1,
      "StSpecified": true,
      "Dt": "2012-09-24T00:00:00",
      "DtSpecified": true
    },
    {
      "RgltrCd": 26,
      "St": 1,
      "StSpecified": true,
      "Dt": "2012-09-24T00:00:00",
      "DtSpecified": true
    },
    {
      "RgltrCd": 27,
      "St": 1,
      "StSpecified": true,
      "Dt": "2012-09-24T00:00:00",
      "DtSpecified": true
    },
    {
      "RgltrCd": 28,
      "St": 1,
      "StSpecified": true,
      "Dt": "2012-09-24T00:00:00",
      "DtSpecified": true
    },
    {
      "RgltrCd": 29,
      "St": 1,
      "StSpecified": true,
      "Dt": "2012-09-24T00:00:00",
      "DtSpecified": true
    },
    {
      "RgltrCd": 30,
      "St": 1,
      "StSpecified": true,
      "Dt": "2012-09-24T00:00:00",
      "DtSpecified": true
    },
    {
      "RgltrCd": 31,
      "St": 1,
      "StSpecified": true,
      "Dt": "2012-09-24T00:00:00",
      "DtSpecified": true
    },
    {
      "RgltrCd": 33,
      "St": 1,
      "StSpecified": true,
      "Dt": "2012-09-24T00:00:00",
      "DtSpecified": true
    },
    {
      "RgltrCd": 34,
      "St": 1,
      "StSpecified": true,
      "Dt": "2012-09-24T00:00:00",
      "DtSpecified": true
    },
    {
      "RgltrCd": 35,
      "St": 1,
      "StSpecified": true,
      "Dt": "2012-09-24T00:00:00",
      "DtSpecified": true
    },
    {
      "RgltrCd": 36,
      "St": 1,
      "StSpecified": true,
      "Dt": "2012-09-24T00:00:00",
      "DtSpecified": true
    },
    {
      "RgltrCd": 37,
      "St": 1,
      "StSpecified": true,
      "Dt": "2012-09-24T00:00:00",
      "DtSpecified": true
    },
    {
      "RgltrCd": 38,
      "St": 1,
      "StSpecified": true,
      "Dt": "2012-09-24T00:00:00",
      "DtSpecified": true
    },
    {
      "RgltrCd": 39,
      "St": 1,
      "StSpecified": true,
      "Dt": "2012-09-24T00:00:00",
      "DtSpecified": true
    },
    {
      "RgltrCd": 40,
      "St": 1,
      "StSpecified": true,
      "Dt": "2012-09-24T00:00:00",
      "DtSpecified": true
    },
    {
      "RgltrCd": 41,
      "St": 1,
      "StSpecified": true,
      "Dt": "2012-09-24T00:00:00",
      "DtSpecified": true
    },
    {
      "RgltrCd": 42,
      "St": 1,
      "StSpecified": true,
      "Dt": "2012-09-24T00:00:00",
      "DtSpecified": true
    },
    {
      "RgltrCd": 43,
      "St": 1,
      "StSpecified": true,
      "Dt": "2012-09-24T00:00:00",
      "DtSpecified": true
    },
    {
      "RgltrCd": 44,
      "St": 1,
      "StSpecified": true,
      "Dt": "2012-09-24T00:00:00",
      "DtSpecified": true
    },
    {
      "RgltrCd": 45,
      "St": 1,
      "StSpecified": true,
      "Dt": "2012-09-24T00:00:00",
      "DtSpecified": true
    },
    {
      "RgltrCd": 46,
      "St": 1,
      "StSpecified": true,
      "Dt": "2012-09-24T00:00:00",
      "DtSpecified": true
    },
    {
      "RgltrCd": 47,
      "St": 1,
      "StSpecified": true,
      "Dt": "2012-09-24T00:00:00",
      "DtSpecified": true
    },
    {
      "RgltrCd": 48,
      "St": 1,
      "StSpecified": true,
      "Dt": "2012-09-24T00:00:00",
      "DtSpecified": true
    },
    {
      "RgltrCd": 49,
      "St": 1,
      "StSpecified": true,
      "Dt": "2012-09-24T00:00:00",
      "DtSpecified": true
    },
    {
      "RgltrCd": 50,
      "St": 1,
      "StSpecified": true,
      "Dt": "2012-09-24T00:00:00",
      "DtSpecified": true
    },
    {
      "RgltrCd": 51,
      "St": 1,
      "StSpecified": true,
      "Dt": "2012-09-24T00:00:00",
      "DtSpecified": true
    },
    {
      "RgltrCd": 53,
      "St": 1,
      "StSpecified": true,
      "Dt": "2012-09-24T00:00:00",
      "DtSpecified": true
    },
    {
      "RgltrCd": 32,
      "St": 1,
      "StSpecified": true,
      "Dt": "2012-09-27T00:00:00",
      "DtSpecified": true
    }
  ],
  "Filing": [
    {
      "Dt": "2016-04-26T00:00:00",
      "FormVrsn": "10/2012"
    }
  ],
  "FormInfo": {
    "Part1A": {
      "Item1": {
        "WebAddrs": [
          "HTTP://WWW.BBT.COM/BBTDOTCOM/BUSINESS/COMMERCIAL-INSTITUTIONAL/CAPITAL-MARKETS/DEFAULT.PAGE",
          "HTTP://WWW.BBTCAPITALMARKETS.COM",
          "HTTP://WWW.BBTSCOTTSTRINGFELLOW.COM",
          "HTTP://WWW.BBTSECURITIES.COM",
          "HTTP://WWW.BBTSTERLINGADVISORS.COM"
        ],
        "Q1I": 0,
        "Q1ISpecified": true,
        "Q1M": 1,
        "Q1MSpecified": true,
        "Q1N": 1,
        "Q1NSpecified": true,
        "CIKNbSpecified": false,
        "Q1O": 1,
        "Q1OSpecified": true,
        "Q1P": null
      },
      "Item2A": {
        "Q2A1": 0,
        "Q2A1Specified": true,
        "Q2A2": 1,
        "Q2A2Specified": true,
        "Q2A3": 1,
        "Q2A3Specified": true,
        "Q2A4": 1,
        "Q2A4Specified": true,
        "Q2A5": 1,
        "Q2A5Specified": true,
        "Q2A6": 1,
        "Q2A6Specified": true,
        "Q2A7": 1,
        "Q2A7Specified": true,
        "Q2A8": 1,
        "Q2A8Specified": true,
        "Q2A9": 1,
        "Q2A9Specified": true,
        "Q2A10": 1,
        "Q2A10Specified": true,
        "Q2A11": 1,
        "Q2A11Specified": true,
        "Q2A12": 1,
        "Q2A12Specified": true,
        "Q2A13": 1,
        "Q2A13Specified": true
      },
      "Item2B": {
        "Q2B1Specified": false,
        "Q2B2Specified": false,
        "Q2B3Specified": false
      },
      "Item3A": {
        "OrgFormNm": "Limited Liability Company",
        "OrgFormOthNm": null
      },
      "Item3B": {
        "Q3B": "DECEMBER"
      },
      "Item3C": {
        "StateCD": 8,
        "StateCDSpecified": true,
        "CntryNm": "United States"
      },
      "Item5A": {
        "TtlEmp": "1009"
      },
      "Item5B": {
        "Q5B1": "398",
        "Q5B2": "761",
        "Q5B3": "413",
        "Q5B4": "0",
        "Q5B5": "306",
        "Q5B6": "11"
      },
      "Item5C": {
        "Q5C1": "More than 100",
        "Q5C1Oth": "19400",
        "Q5C2": "0"
      },
      "Item5D": {
        "Q5D1A": "51-75 percent",
        "Q5D1B": "26-50 percent",
        "Q5D1C": "Up to 10 percent",
        "Q5D1D": "0 percent",
        "Q5D1E": "0 percent",
        "Q5D1F": "0 percent",
        "Q5D1G": "Up to 10 percent",
        "Q5D1H": "Up to 10 percent",
        "Q5D1I": "Up to 10 percent",
        "Q5D1J": "Up to 10 percent",
        "Q5D1K": "0 percent",
        "Q5D1L": "0 percent",
        "Q5D1M": "0 percent",
        "Q5D1MOth": null,
        "Q5D2A": "Up to 75 percent",
        "Q5D2B": "Up to 50 percent",
        "Q5D2C": "Up to 25 percent",
        "Q5D2D": "0 percent",
        "Q5D2E": "0 percent",
        "Q5D2F": "0 percent",
        "Q5D2G": "Up to 25 percent",
        "Q5D2H": "Up to 25 percent",
        "Q5D2I": "Up to 25 percent",
        "Q5D2J": "Up to 25 percent",
        "Q5D2K": "0 percent",
        "Q5D2L": "0 percent",
        "Q5D2M": "0 percent",
        "Q5D2MOth": null
      },
      "Item5E": {
        "Q5E1": 0,
        "Q5E1Specified": true,
        "Q5E2": 1,
        "Q5E2Specified": true,
        "Q5E3": 1,
        "Q5E3Specified": true,
        "Q5E4": 0,
        "Q5E4Specified": true,
        "Q5E5": 0,
        "Q5E5Specified": true,
        "Q5E6": 1,
        "Q5E6Specified": true,
        "Q5E7": 1,
        "Q5E7Specified": true,
        "Q5E7Oth": null
      },
      "Item5F": {
        "Q5F1": 0,
        "Q5F1Specified": true,
        "Q5F2A": 8105288590.0,
        "Q5F2ASpecified": true,
        "Q5F2B": 3601764837.0,
        "Q5F2BSpecified": true,
        "Q5F2C": 11707053427.0,
        "Q5F2CSpecified": true,
        "Q5F2D": "12263",
        "Q5F2E": "7085",
        "Q5F2F": "19348"
      },
      "Item5G": {
        "Q5G1": 0,
        "Q5G1Specified": true,
        "Q5G2": 0,
        "Q5G2Specified": true,
        "Q5G3": 1,
        "Q5G3Specified": true,
        "Q5G4": 1,
        "Q5G4Specified": true,
        "Q5G5": 0,
        "Q5G5Specified": true,
        "Q5G6": 0,
        "Q5G6Specified": true,
        "Q5G7": 0,
        "Q5G7Specified": true,
        "Q5G8": 1,
        "Q5G8Specified": true,
        "Q5G9": 1,
        "Q5G9Specified": true,
        "Q5G10": 1,
        "Q5G10Specified": true,
        "Q5G11": 1,
        "Q5G11Specified": true,
        "Q5G12": 1,
        "Q5G12Specified": true,
        "Q5G12Oth": null
      },
      "Item5H": {
        "Q5H": "More than 500",
        "Q5HMT500": "1073"
      },
      "Item5I": {
        "Q5I1": 0,
        "Q5I1Specified": true,
        "Q5I2": 0,
        "Q5I2Specified": true
      },
      "Item5J": {
        "Q5J": 1,
        "Q5JSpecified": true
      },
      "Item6A": {
        "Q6A1": 0,
        "Q6A1Specified": true,
        "Q6A2": 1,
        "Q6A2Specified": true,
        "Q6A3": 0,
        "Q6A3Specified": true,
        "Q6A4": 1,
        "Q6A4Specified": true,
        "Q6A5": 1,
        "Q6A5Specified": true,
        "Q6A6": 0,
        "Q6A6Specified": true,
        "Q6A7": 1,
        "Q6A7Specified": true,
        "Q6A8": 1,
        "Q6A8Specified": true,
        "Q6A9": 0,
        "Q6A9Specified": true,
        "Q6A10": 1,
        "Q6A10Specified": true,
        "Q6A11": 1,
        "Q6A11Specified": true,
        "Q6A12": 1,
        "Q6A12Specified": true,
        "Q6A13": 1,
        "Q6A13Specified": true,
        "Q6A14": 1,
        "Q6A14Specified": true,
        "Q6A14Oth": null
      },
      "Item6B": {
        "Q6B1": 1,
        "Q6B1Specified": true,
        "Q6B3": 0,
        "Q6B3Specified": true,
        "Q6B2Specified": false
      },
      "Item7A": {
        "Q7A1": 0,
        "Q7A1Specified": true,
        "Q7A2": 0,
        "Q7A2Specified": true,
        "Q7A3": 1,
        "Q7A3Specified": true,
        "Q7A4": 1,
        "Q7A4Specified": true,
        "Q7A5": 1,
        "Q7A5Specified": true,
        "Q7A6": 1,
        "Q7A6Specified": true,
        "Q7A7": 1,
        "Q7A7Specified": true,
        "Q7A8": 0,
        "Q7A8Specified": true,
        "Q7A9": 1,
        "Q7A9Specified": true,
        "Q7A10": 1,
        "Q7A10Specified": true,
        "Q7A11": 1,
        "Q7A11Specified": true,
        "Q7A12": 0,
        "Q7A12Specified": true,
        "Q7A13": 0,
        "Q7A13Specified": true,
        "Q7A14": 1,
        "Q7A14Specified": true,
        "Q7A15": 1,
        "Q7A15Specified": true,
        "Q7A16": 1,
        "Q7A16Specified": true
      },
      "Item7B": {
        "Q7B": 1,
        "Q7BSpecified": true
      },
      "Item8A": {
        "Q8A1": 0,
        "Q8A1Specified": true,
        "Q8A2": 0,
        "Q8A2Specified": true,
        "Q8A3": 0,
        "Q8A3Specified": true
      },
      "Item8B": {
        "Q8B1": 0,
        "Q8B1Specified": true,
        "Q8B2": 0,
        "Q8B2Specified": true,
        "Q8B3": 0,
        "Q8B3Specified": true
      },
      "Item8C": {
        "Q8C1": 0,
        "Q8C1Specified": true,
        "Q8C2": 0,
        "Q8C2Specified": true,
        "Q8C3": 0,
        "Q8C3Specified": true,
        "Q8C4": 0,
        "Q8C4Specified": true
      },
      "Item8D": {
        "Q8D": 1,
        "Q8DSpecified": true
      },
      "Item8E": {
        "Q8E": 0,
        "Q8ESpecified": true
      },
      "Item8F": {
        "Q8F": 0,
        "Q8FSpecified": true
      },
      "Item8G": {
        "Q8G1": 0,
        "Q8G1Specified": true,
        "Q8G2": 0,
        "Q8G2Specified": true
      },
      "Item8H": {
        "Q8H": 0,
        "Q8HSpecified": true
      },
      "Item8I": {
        "Q8I": 1,
        "Q8ISpecified": true
      },
      "Item9A": {
        "Q9A1A": 0,
        "Q9A1ASpecified": true,
        "Q9A1B": 0,
        "Q9A1BSpecified": true,
        "Q9A2A": 9798006294.0,
        "Q9A2ASpecified": true,
        "Q9A2B": "18639"
      },
      "Item9B": {
        "Q9B1A": 1,
        "Q9B1ASpecified": true,
        "Q9B1B": 1,
        "Q9B1BSpecified": true,
        "Q9B2ASpecified": false,
        "Q9B2B": null
      },
      "Item9C": {
        "Q9C1": 1,
        "Q9C1Specified": true,
        "Q9C2": 1,
        "Q9C2Specified": true,
        "Q9C3": 0,
        "Q9C3Specified": true,
        "Q9C4": 0,
        "Q9C4Specified": true
      },
      "Item9D": {
        "Q9D1": 0,
        "Q9D1Specified": true,
        "Q9D2": 1,
        "Q9D2Specified": true
      },
      "Item9E": {
        "Q9E": "2015-08"
      },
      "Item9F": {
        "Q9F": "1"
      },
      "Item10A": {
        "Q10A": 1,
        "Q10ASpecified": true
      },
      "Item11": {
        "Q11": 0,
        "Q11Specified": true
      },
      "Item11A": {
        "Q11A1": 1,
        "Q11A1Specified": true,
        "Q11A2": 1,
        "Q11A2Specified": true
      },
      "Item11B": {
        "Q11B1": 1,
        "Q11B1Specified": true,
        "Q11B2": 1,
        "Q11B2Specified": true
      },
      "Item11C": {
        "Q11C1": 1,
        "Q11C1Specified": true,
        "Q11C2": 0,
        "Q11C2Specified": true,
        "Q11C3": 1,
        "Q11C3Specified": true,
        "Q11C4": 0,
        "Q11C4Specified": true,
        "Q11C5": 0,
        "Q11C5Specified": true
      },
      "Item11D": {
        "Q11D1": 1,
        "Q11D1Specified": true,
        "Q11D2": 0,
        "Q11D2Specified": true,
        "Q11D3": 1,
        "Q11D3Specified": true,
        "Q11D4": 0,
        "Q11D4Specified": true,
        "Q11D5": 1,
        "Q11D5Specified": true
      },
      "Item11E": {
        "Q11E1": 1,
        "Q11E1Specified": true,
        "Q11E2": 0,
        "Q11E2Specified": true,
        "Q11E3": 1,
        "Q11E3Specified": true,
        "Q11E4": 1,
        "Q11E4Specified": true
      },
      "Item11F": {
        "Q11F": 1,
        "Q11FSpecified": true
      },
      "Item11G": {
        "Q11G": 1,
        "Q11GSpecified": true
      },
      "Item11H": {
        "Q11H1A": 1,
        "Q11H1ASpecified": true,
        "Q11H1B": 1,
        "Q11H1BSpecified": true,
        "Q11H1C": 1,
        "Q11H1CSpecified": true,
        "Q11H2": 1,
        "Q11H2Specified": true
      }
    }
  },
  "Reps": {
    "1001963": "HEINER, FRANKLIN BAIN",
    "1008395": "MURAD, RONALD ANDREW",
    "1013433": "FARMER, WELFORD STUART, JR",
    "1019593": "LONG, LINDA SUE",
    "1021289": "STROUP, ROBERT JOSEPH",
    "1025926": "MOLSTER, JOHN SANFORD",
    "1026620": "STALLINGS, CHARLES EDWIN",
    "1035030": "TOMEY, DAVID BRADLEY",
    "1035409": "HUNT, MITCHELL LEE",
    "1046790": "SPRAGUE, RICHARD PALMER",
    "1055755": "RICE, AMANDA ACKER",
    "1057985": "BRINSON, JOE MILLS, JR",
    "1069993": "MUNDWILER, CHRISTOPHER MARK",
    "1075754": "O'QUINN, WILLIAM JEFFREY",
    "1082801": "TEMPLETON, GARY WAYNE",
    "1092467": "TAMAROFF, MARTIN",
    "1097935": "EURE, RICHARD GLENN",
    "1114760": "DILLE, JAMES KIRK, JR",
    "1134463": "BALL, MICHAEL DOUGLAS",
    "1140958": "BROUGHTON, JOSEPH MELVILLE, III",
    "1146778": "OWEN, MICHAEL COLE",
    "1175075": "STINES, JAMES TRACY",
    "1176534": "GILES, RICHARD EDWIN",
    "1176893": "PRIDDY, ROBERT BRACKETT",
    "1177603": "PRESTON, JOHN LEE",
    "1191189": "GAFFNEY, GERALD WILLIAM",
    "1192953": "MARSH, RONA KRASCHEL",
    "1203215": "LADD, ROBERT CARTER",
    "1204816": "MALLOY, KELLY CARTER",
    "1208027": "KREUTZER, JOHN HEERY",
    "1209709": "APPLEWHITE, JAMES WILLIAM, III",
    "1212349": "NELSON, ELAINE S",
    "1236184": "MANNIX, DOROTHY PRATT",
    "1246906": "DEI, CHARLES BROOKS",
    "1280356": "KELEHER, KATHLEEN R",
    "1285935": "ALTICE, PERRY EDWARD",
    "1289763": "SCULL, CHARLES JOSEPH",
    "1294672": "FRYER, DANIEL KENEFICK",
    "1303574": "MARTIN, JOSEPH EDWIN",
    "1322798": "LINK, RICHARD ANDREW",
    "1332146": "HUFF, ANNE TURNER",
    "1351711": "MANN, TIMOTHY PAUL, SR",
    "1380119": "ROBINSON, STEPHEN DANIEL",
    "1400419": "CLARKE, PETER JOHN",
    "1401938": "BARR, CAROLYN KAY",
    "1403532": "LEATHERMAN, TERRY",
    "1423157": "BERARD, DAVID HARRY",
    "1453613": "GILL, JOHN ASHBURN",
    "1459383": "STACKS, WILLIAM MICHAEL",
    "1483050": "KELLEY, RUSSELL AUSTIN",
    "1491952": "LANDSITTEL, THOMAS ALAN",
    "1513349": "HUBBARD, WILLIAM JOHN",
    "1518164": "GRIFFIN, WAYNE CLARK",
    "1524488": "GAMBLE, WILLIAM PATRICK",
    "1574425": "FREEMAN, STEVEN RUSSELL",
    "1574594": "GALLOWAY, WILLIAM EDDINS, JR",
    "1575604": "LEA, WILLIAM TOWNES, JR",
    "1591402": "JONES, JEFFREY PAUL",
    "1593949": "SOWERS, WILLIAM FREDERICK, JR",
    "1619721": "COLEMAN, JOHN WILLIAM, III",
    "1630516": "ROBINSON, LEWIS HOWARD",
    "1641590": "VADEN, FRANK ROGERS",
    "1676681": "WOOD, MICHAEL TODD, JR",
    "1707257": "PETERSON, DAVID RAY",
    "1709095": "CORDELL, ALFRED ROBERT, JR",
    "1714026": "KENNY, STEVEN",
    "1719998": "HAGOPIAN, NEVA ELYSE",
    "1736281": "HOUCHINS, DAVID LEE",
    "1806468": "LARSEN, LARRY STEPHEN, JR",
    "1821486": "CIAPPA, ANDREW MICHAEL",
    "1826313": "JACKSON, CHESLEY CARLYLE, JR",
    "1828788": "LEWIS, JOHN BELLINGER",
    "1832062": "BRINKLEY, WILLIAM FRANKLIN",
    "1848113": "DUMSER, JOSEPH MAHONEY",
    "1858893": "METZ, ROBERT ELLIS",
    "1859128": "LOWERY, DEANNA PRICE",
    "1895379": "HENLEY, EDMOND DARBY",
    "1897282": "HILL, JOHN MICHAEL",
    "1898854": "LAYMAN, ELIZABETH OAKEY",
    "1905955": "MCCARTHY, JOHN JOSEPH, JR",
    "1909218": "CLARKE, BRENDA DAVIES",
    "1974408": "TUCKER, JEFFREY ALAN",
    "1975445": "RIDDICK, SHERRY BOWERS",
    "1980112": "ROSE, ROBERT THOMAS",
    "2023086": "TAYLOR, WILLIAM G, III",
    "2024940": "FARISH, MICHAEL DALE",
    "2034608": "SCHNEIDER, DABNEY MILLER",
    "2036378": "LUPTON, GEORGE ALFRED, III",
    "2048174": "STAFFORD, WILLIAM DESMOND",
    "2053137": "KRAFT, JAMES BERNARD",
    "205910": "FELDMAN, JOSEPH BERT",
    "207248": "FIELD, LAWRENCE HERZOG",
    "2079436": "STAPLES, BRETT KEITH",
    "2091876": "FONTANA, THOMAS CHARLES",
    "2105654": "CONROD, JAMES DAVID",
    "2106255": "OUZTS, WILLIAM GARRETT",
    "2163286": "BERNSTEIN, TODD DAVID",
    "2168823": "MORRIS, SCOTTY LEE",
    "2189561": "VROEGH, HENRICUS J J",
    "2195051": "WALZER, HOWARD STEVEN",
    "2197904": "RAINES, ELAINE WEATHERFORD",
    "2202839": "MILLER, MARTIN JOSEPH",
    "2204249": "LIGGITT, RANDOLPH KENT",
    "2217214": "BYRD, ROBERT ARTHUR, JR",
    "2217625": "COOPER, VICKIE KING",
    "2222313": "HIX-SICELOFF, MARTHA JON",
    "223770": "GOLD, CHARLES LEE",
    "2241095": "BROWN, ARCH MCDOWELL, JR",
    "2242237": "KILPATRICK, JAMES WILLIAM",
    "2250125": "TENDLER, MARC JONATHAN",
    "2261064": "AFFLECK, JOHN ALLEN",
    "227038": "GRAHAM, ADAIR MCKOY",
    "2291530": "SCHIERMEYER, JAMES Troy",
    "2298054": "WATSON, DONALD RAY",
    "2304184": "OLDANI, CARLO WALTER",
    "2322415": "DYSON, CRAIG EDWARD",
    "2330775": "WOOTEN, ROBERT LEE",
    "2332663": "RAISMAN, AMY ROBIN",
    "2336056": "MANNING, KENNETH CHRISTOPHER",
    "2346539": "AUSTIN, JAMES FRANCIS",
    "2354490": "DOTTERER, WILLIAM MOULTRIE",
    "2361118": "STONER, JOHN FRANKLIN",
    "2363706": "SEARS, JOSEPH MILTON, JR",
    "2366010": "SHUCK, GAVIN YOUNG",
    "2366502": "HYLTON, SAMUEL REUBEN",
    "2374817": "DALE, KENNY MAXWELL",
    "2385020": "MAZZO, ANTHONY JAMES",
    "2408387": "TRIVETTE, JAMES BURTON, JR",
    "2410197": "MELTON, MARSHA UPDIKE",
    "2418362": "WEBB, MICHELE WRAY",
    "2422440": "VONTHELEN, ALEXANDER CARNABY",
    "2423960": "SHANAHAN, FRANCIS MICHAEL",
    "2432017": "DRAKE, MICHAELE ANGELA",
    "2434255": "BOWLES, BOWLMAN TARLETON, III",
    "2444369": "WILLIAMS, BRANDAN ELIZABETH",
    "2480750": "GINTHER, LEE ANDREW",
    "2483216": "TAYLOR, HARRISON WILLIAM",
    "2484239": "CHARLTON, BILLIE JEAN",
    "2486176": "EHMAN, DEREK MICHAEL",
    "2488564": "RUIZ, VERENA SINEATH",
    "2490818": "PREWITT, ELIZABETH HANLEY",
    "2495689": "FARRELL, SHARON MARIE",
    "2521606": "GILLINGHAM, CHARLES WILLIAM",
    "2561000": "MCLEOD, RICHARD K, III",
    "2562383": "DONNELLY, BERNARD MICHAEL",
    "2564108": "WATERWORTH, JOHN CHADWICK",
    "2580005": "HARDWICK, DAVID LESLIE",
    "2582685": "SESSOMS, KENNETH ANDREW",
    "25840": "BOOKER, JOHN STANFORD",
    "2622699": "LEVIN, MARK A",
    "2625264": "MALLOY, LEIGH PATRICK",
    "26281": "BORN, DONALD LOUIS",
    "2631062": "SEMANS, WILLIAM MERRICK",
    "2657094": "CREAMER, JOHN LESLIE",
    "2663107": "SCHIRMER, AMY ADAMS",
    "2681772": "REUSS, PETER LAWRENCE",
    "2682807": "GIBSON, JAMES EDWARD",
    "26937": "BOUQUET, ROBERT EMIL",
    "2698234": "DROPPA, GINNY LEE",
    "2698379": "BURMASTER, JAY LOUIS, JR",
    "2723431": "CRAM, BRYAN SCOTT",
    "2737006": "GRIMPE, EDWARD JOHN",
    "2737241": "CRIST, CHARLES DEAN",
    "2737564": "BRINKLEY, PAUL SCOTT",
    "2753312": "WHITMORE, GEORGE HOLLAND",
    "2753323": "ROWE, ARTHUR KEMP",
    "2756380": "BARTHOLOMEW, JOSEPH WHITEMAN, III",
    "2760970": "WOODWARD, MAYO MALONE",
    "2773493": "COBLE, JASON GLENN",
    "2774080": "MANLEY, BLAKE HARPER",
    "2774733": "KAUFMAN, EDWARD GEORGE",
    "2776496": "SMITH, KYLE HARDEE",
    "2776786": "TUCK, HOLLY HAYDEN",
    "2793851": "PERMENTER, PAULA ANNETTE",
    "2804451": "GRAY, DAVID CHRISTOPHER",
    "2829175": "SINCLAIR, JASON WILLIAM",
    "2844803": "CHANNELL, DEAN",
    "2850902": "STURM, ROBERT DAVID",
    "2861430": "TAYLOR, CLARENCE BUFORD, JR",
    "2894266": "ROBINSON, JONATHAN JAY",
    "2905550": "DOMIKIS, RANDY CHRISTOPHER",
    "2909700": "IRVING, PAUL STEWART",
    "2910343": "DAMPIER, SUSAN M",
    "2920060": "BENDER, LAWRENCE FRANCIS, JR",
    "2922343": "NOYES, CHARLES VERNON, II",
    "2927758": "LONG, AMY SUSAN",
    "2933774": "JONES, RYAN HUDSON",
    "2959453": "MORRIS, ROBERT EARL",
    "2965397": "KOSLOSKE, HILARY LYNN",
    "2974896": "SETTLE, BEVERLY MAREADY",
    "2974928": "MCCONNELL, T. BRINGIER",
    "2991951": "PALKO, JOHN MATTHEW",
    "2997745": "WOOTTON, MADISON PENDLETON",
    "3001876": "SHOTTS, SARAH FRANCES",
    "3014667": "KAMPHUIS, JAN WILLEM, III",
    "3015298": "FLANDERS, ROBERT PURSER",
    "3021092": "SMITH, ROBERT NELSON",
    "3046495": "VANDYKE, JAMES LUTHER",
    "3052570": "MCKENNA, GREGORY P",
    "3067756": "POPE, JEFFREY LEE",
    "3070468": "SIVLEY, CHRISTOPHER HOWARD",
    "3070964": "DEAL, BETTY DAVIS",
    "3072406": "AKERS, MICHAEL GERARD",
    "3073405": "LEGUM, ROSS EVAN",
    "3080322": "MORRIS, CARY ALLEN",
    "3089119": "SCHRECKER JR., RAY L",
    "3108829": "KELLER, CONNOR COWDEN",
    "3129820": "ROWE, ROBERT ANTHONY",
    "3131894": "DOYLE, ELLEN SUE",
    "3190976": "BECZKOWSKI, TIMOTHY JOHN",
    "3239972": "HARDCASTLE, JENNIFER",
    "3241109": "SWALLOW, MICHAEL FRANCIS",
    "3256688": "HOGE, BRETT WIDNEY",
    "3258657": "LUSCOMB, HARRIS TRAILL, III",
    "3259088": "SHOOK, SCOTT MONTGOMERY WEBB",
    "3273557": "CROUCH, STEVEN E",
    "340612": "MORRIS, ROBERT WILLIAM",
    "342265": "MULDOWNEY, JOHN JOSEPH",
    "349219": "NORRIS, EDGAR MANLY, JR",
    "364347": "PLAGEMAN, DAVID DESALES",
    "4002997": "BOPP, PAUL JOSEPH",
    "4007958": "CRESWELL, CHRISTOPHER GEORGE",
    "4010177": "WALLER, MARVIN SCOTT",
    "4012151": "HORN, MATTHEW CLINTON",
    "4016962": "QUEREAU, JARED VANDYKE",
    "4028937": "BANYAS, KATHY LYNN",
    "4052683": "KORNICKER, STEVEN CLARK",
    "4054116": "MCCALL, MATTHEW SCOTT",
    "4089099": "SELDEN, WILLIAM DOUGLAS, VI",
    "4097876": "BRENIS, HALLIE ANN",
    "4100464": "HANOVER, BRETT MICHAEL",
    "4126939": "MERINAR, DENISE KATHLEEN",
    "4157067": "CROWDER, HOUSTON MAIE, III",
    "417234": "SCOTT, SIDNEY BUFORD",
    "4174510": "ZMUDA, ALICIA ANN",
    "4175541": "DAVIS, THOMAS LOGAN",
    "4179245": "NUNNALLY, MELANIE MCPHAIL",
    "4188568": "SMITH, CHARLES WARREN",
    "4192076": "HELMS, BRIAN ALBERT",
    "4208320": "WOOLDRIDGE, JEAN KATHRYN",
    "4210203": "ELDER, JAMES ROBERT",
    "4211936": "RABB, HUGH KIRKPATRICK",
    "4220106": "DEAL, PAUL NATHAN",
    "422857": "SHUCK, HAVEN RAY, JR",
    "4239811": "ANDERSON, ELIZABETH WILSON",
    "4244032": "TANNER, DARRYL DAVID",
    "4245647": "ROUSE, THOMAS RONALD",
    "4251272": "NGUYEN, VIET-BAC PHAN",
    "4251287": "BOYD, LEWIS MARSHALL, III",
    "4251290": "BRANTLEY, BLAIR CRAIG",
    "4252490": "SPRADLIN, TAMMY RATLIFF",
    "4260672": "FLEMING, SCOTT MITCHELL",
    "4264296": "BURTON, AMANDA HINCKLEY",
    "4281100": "PRIDEMORE, YVONNE HOLLIS",
    "4313516": "FOSTER, MICHAEL JOSEPH",
    "4320334": "HALL, SHERRY LEE",
    "4323471": "MCINTOSH, LESLIE TRAVIS",
    "4343395": "SEMENTA, RICHARD AUGUSTINE",
    "4348810": "RYAN, JAMES HUGH, III",
    "4360589": "PITTINOS, ANDREW MITCHELL",
    "4361238": "SPRAKER, STEPHEN TALBOT",
    "4373107": "SANDS, KELLEY STARR",
    "4377678": "DAVIS, JAMES TYSON",
    "4400906": "SHAEFFER, SANDRA",
    "4406843": "KLEVGARD, GLADYS VALENTIN",
    "4407034": "BROWN, ALEXANDER SIMON",
    "4427173": "KELLAM, GORDON BAYARD",
    "4448184": "SENKOWSKY, CHERYL ANN",
    "4453912": "CAMPBELL, MATTHEW LOGAN",
    "4478427": "BENNER, DONALD RAY",
    "4490584": "BYRD, HARRY FLOOD, IV",
    "4495768": "GUNTER, PAULA CHRISTINE",
    "4497654": "BRAY, C D",
    "4500929": "BARNES, JAMES ROBERT",
    "4515188": "YATES, WILLIAM RUFUS, III",
    "4523863": "TOWNS, DEBRA INMAN",
    "4539863": "NELSON, GARRETT",
    "4540754": "HILL, JUDY BAILEY",
    "4544954": "CORDLE, COYE BAXTER, III",
    "4551115": "PEPE, JASON THOMAS",
    "4553690": "BURKEY, JESSI ANNE",
    "4555276": "COX, JEREMY RYAN",
    "4557779": "GARNER, RALPH SANTFORD, III",
    "4568497": "ADAMS, MICHAEL JOSEPH",
    "4571228": "KOVAC, MICHAL",
    "4575738": "WOJDYLA, DAVID MATTHEW",
    "4585810": "LEPPERT, ERWIN CARL, JR",
    "4586870": "GOW, STEPHEN DOUGLAS",
    "4586934": "MINTZ, SAMUEL TAYLOR",
    "4588955": "VESTAL, WILLIAM ANDREWS",
    "4617976": "O'QUINN, TRAVIS",
    "4630560": "NELMS, LLOYD KEITH",
    "464467": "WHEELER, CHARLES HORATIO, IV",
    "4644992": "SANDLIN, MICHAEL JAMES",
    "4683891": "DAVIS, ASHLEY MICHELLE",
    "4688945": "RODAN, DANIEL PATRICK",
    "4707758": "LINK, BENJAMIN E EVERETTE",
    "4709811": "KRYCINSKI, MATTHEW MITCHELL",
    "4732187": "HAIGLER, THEODORE ESTEREBROOK",
    "4763220": "KAYE, DAVID WILLIAM",
    "4779334": "CURTIS, ROGER ALAN, JR.",
    "4781204": "MORRIS, ERIC JUSTIN",
    "4801546": "FUSELIER, ERIN ELIZABETH",
    "4812800": "HUNDLEY, BRETT MICHAEL",
    "4818770": "JONES, MARK ANDREW",
    "4829128": "HICKEY, MAUNSEL MCDONALD",
    "4837331": "BOWDEN, CRAIG EDWARD",
    "4841421": "GARRETT, JOSHUA MATTHEW",
    "4849400": "BLACKWELL, RICHARD TOTMAN",
    "4857237": "MILLARES, LINA C",
    "4892453": "BUXTON, PATRICIA ANN",
    "4892817": "WALTERS, CHRISTOPHER MICHAEL, ESQ.",
    "4893378": "PRICE, DANIEL AARON MORGAN",
    "4909963": "OLIVER, PEE-KHUN",
    "4923459": "TAYLOR, JOHN WALLACE",
    "4950207": "RAKESTRAW, DAVID WILLIAM",
    "4960185": "KESLER, TERESA H",
    "4967111": "REASOR, CLINE EDWARD",
    "4979184": "HORNER, EDWIN BRYAN, IV",
    "4996690": "OUZTS, WILLIAM G",
    "5003231": "FRELKE, SEAN RONALD",
    "5013378": "JODON, MELISA KELLER",
    "5014925": "SNEAD, HEATHER WOODY",
    "5018190": "SUTTON, ERIN ABIGAIL",
    "5040831": "BALL, ELMO EARL, IV",
    "5072722": "SPROUSE, CARRIE",
    "5081658": "HUGHEY, HAROLD LYMAN, III",
    "5094884": "BARTO, JANE BRANTLEY",
    "5094981": "GOLD, COURTNEY CAMPBEL",
    "5129835": "JONES, DAWN ELAINE",
    "5152924": "GOINS, STACI ELIZABETH",
    "5165120": "DUNMIRE, KATIE MORGAN",
    "5170430": "ROTHSTEIN, ADAM CORY",
    "5185284": "VESUNA, DARIUS MANUCHER",
    "5193678": "SOLAS, ERICA M",
    "5196922": "HARDESTY, TRAVER PAUL",
    "5199336": "KARR, ANDREW MICHAEL",
    "5211816": "WHATLEY, NICHOLE MICHELLE",
    "5226558": "ARTHUR, RONALD VANCE",
    "5245288": "ASHBRIDGE, THOMAS LLEWELLYN, V",
    "5266405": "RABINOWITZ, DAVID",
    "5266715": "TURNER, MATTHEW AARON",
    "5273605": "CROSBY, NATHANIEL PERRY",
    "5278088": "HICKEN, MATTHEW WESLEY",
    "5289768": "TENER, JULIE",
    "5325770": "ECKART, MELISSA LYNN",
    "5335873": "CRAWFORD, ANTOINETTE",
    "5371403": "CLASS, RICHARD PETER, II",
    "5411551": "MALONE, BRENDAN JOHN",
    "5415640": "GRAY, TIMOTHY CALHOUN, II",
    "5429997": "ARCHER, TARA JANE",
    "5460292": "POCZONTEK, JOSEPH FREDERICK",
    "5470721": "HARVEY, EMILY ROGERS",
    "5479586": "KALTENSCHNEE, ROBERT JONATHAN",
    "5487577": "HATHAWAY, BRANTLEY DAVIS",
    "5503108": "REYNOLDS, JOSEPH KENDRICK",
    "5518079": "CREAMER, MICHAEL NEWPORT",
    "5557344": "PATTESON, AMBER RUSSELL",
    "5579231": "ROBERTS, VICTORIA SUZANNE",
    "5585403": "MARSHALL, TRAVIS FREDERICK",
    "5592000": "LEGRANDE, ANNA",
    "5599953": "KILLIAN, DAVID MICHAEL",
    "5620326": "LINK, SAMANTHA BISSLAND-MOORE",
    "5657644": "KORNEGAY, HORACE R",
    "5696970": "GLASS, MELODY P",
    "5703406": "BAIGAS, JOSEPH FREDERICK, IV",
    "5710816": "GARNER, REUBEN",
    "5761415": "MOORE, JOHN MCDOWELL",
    "5770380": "HYLTON, FRANCES NICOLE",
    "5785382": "PURCELL, MARK STEPHEN",
    "5798897": "BARRETT, ALEXANDER WICKERT",
    "5808072": "RIGGAN, BENJAMIN WAYNE",
    "5812587": "RILEY, JOHN ELLIOTT",
    "5873033": "HARRIS, AUSTIN KANE",
    "5886520": "POFF, LINDA W",
    "5894441": "ELLISON, LAUREL ELYSE",
    "5898748": "GROEGER, BRANDON RICHARD",
    "5902134": "FARMER, JOSEPH LYNCH",
    "5912919": "SPELSBERG, KELLY REDFERN",
    "5914988": "PAYNE, JOHN",
    "5926317": "FLORES-VEGA, EDUARDO",
    "5927639": "KERR, JAMIE LEANN",
    "5932132": "MINTZ, CHARLES WARREN",
    "5951839": "WILKERSON, LESLIE A",
    "5983662": "ROMAN, KYLIE ANNE",
    "601901": "DISSTON, MORRIS",
    "6023960": "LETHCO, TRAVIS VERNON",
    "6047109": "CERE, STEVEN REDIC",
    "6057247": "BURLEW, MATTHEW STEVEN",
    "6068457": "INGE, RYAN BARCLAY",
    "6070081": "HAYES, KATHLEEN MATTSON",
    "6076305": "BLAIR, SAMUEL REED",
    "6095359": "COOKE, RYAN THOMAS",
    "6099913": "ALEXANDER, DAWN LEOTA",
    "6116210": "ARMSTRONG, BRADLEY PARR",
    "6145432": "HAGAN, JESSICA MARIE",
    "6167461": "TODD, CRYSTAL MUSSER",
    "6197585": "MANN, TIMOTHY PAUL, JR",
    "6222639": "TAYLOR, WILLIAM RANDOLPH",
    "6240082": "SHACKLOCK, JOSEPH",
    "6256420": "MAFFETT, ALEXANDER FRAISER",
    "6262964": "FONTANA, ALEX MICHAEL",
    "6269363": "CARTER, DON RANDALL, JR",
    "6301719": "BEASON, SIMONE ALECIA",
    "6386365": "BROWN, LAUREN CAMILLE",
    "6418855": "LINK, SEAN MICHAEL",
    "6571110": "Wales, Patrick Michael",
    "704051": "WILES, LUTHER KIRKPATRICK",
    "704764": "FOX, DIANN DAVIS",
    "710809": "FRANCIS, BERNARD ALLEN, JR",
    "715921": "RIPLEY, KENNETH RANDOLPH",
    "722238": "SHERMAN, JOHN, JR",
    "724376": "SEWELL, WILLIAM HASLETT",
    "725576": "MCCALLUM, JEFFREY SCOTT",
    "728011": "BALDWIN, FRANCIS COUPER, JR",
    "730634": "HERRICK, DAVID ALAN",
    "730654": "MINTZ, CHARLES EUGENE",
    "734650": "DAVIS, KIM MARIE",
    "815750": "JEFFORDS, JOHN ARCHIE",
    "828915": "SHIPPLETT, HENRY ROLLER, JR",
    "832483": "ABALLO, RALPH JOSEPH",
    "833500": "BARNHILL, CHARLES MITCHELL",
    "838292": "ANDERSON, DAVID ALAN",
    "846156": "MADDEN, MICHAEL JOSEPH",
    "850338": "SMITH, CHARLES STEPHEN",
    "856530": "BRELSFORD, JANIS RAE",
    "857236": "DEBERGH, RICHARD RANDOLPH",
    "858715": "ASHBRIDGE, THOMAS LLEWELLYN, IV",
    "861965": "WAFER, MARY BETH",
    "861977": "PEYTON, ANGUS MACDONALD",
    "871968": "SLEDZIK, MICHAEL BERNARD"
  }
}