{
  "Info": {
    "SECRgnCD": 0,
    "SECRgnCDSpecified": true,
    "FirmCrdNb": "162661",
    "SECNb": "802-74907",
    "BusNm": "TECHOPERATORS, LLC",
    "LegalNm": "TECHOPERATORS, LLC"
  },
  "MainAddr": {
    "Strt1": "3060 PEACHTREE ROAD N.W.",
    "Strt2": "SUITE 720",
    "City": "ATLANTA",
    "State": 10,
    "StateSpecified": true,
    "Cntry": "United States",
    "PostlCd": "30305",
    "PhNb": "404-537-2533",
    "FaxNb": "404-816-6929"
  },
  "MailingAddr": {
    "Strt1": null,
    "Strt2": null,
    "City": null,
    "StateSpecified": false,
    "Cntry": null,
    "PostlCd": null,
    "PhNb": null,
    "FaxNb": null
  },
  "Rgstn": [
    {
      "FirmType": 1,
      "St": 3,
      "Dt": "2012-03-26T00:00:00"
    }
  ],
  "NoticeFiled": [],
  "Filing": [
    {
      "Dt": "2016-02-03T00:00:00",
      "FormVrsn": "10/2012"
    }
  ],
  "FormInfo": {
    "Part1A": {
      "Item1": {
        "WebAddrs": [
          "HTTP://WWW.TECHOPERATORS.COM"
        ],
        "Q1I": 0,
        "Q1ISpecified": true,
        "Q1M": 1,
        "Q1MSpecified": true,
        "Q1N": 1,
        "Q1NSpecified": true,
        "CIKNbSpecified": false,
        "Q1O": 1,
        "Q1OSpecified": true,
        "Q1P": null
      },
      "Item2A": {
        "Q2A1Specified": false,
        "Q2A2Specified": false,
        "Q2A3Specified": false,
        "Q2A4Specified": false,
        "Q2A5Specified": false,
        "Q2A6Specified": false,
        "Q2A7Specified": false,
        "Q2A8Specified": false,
        "Q2A9Specified": false,
        "Q2A10Specified": false,
        "Q2A11Specified": false,
        "Q2A12Specified": false,
        "Q2A13Specified": false
      },
      "Item2B": {
        "Q2B1": 0,
        "Q2B1Specified": true,
        "Q2B2": 1,
        "Q2B2Specified": true,
        "Q2B3": 1,
        "Q2B3Specified": true
      },
      "Item3A": {
        "OrgFormNm": "Limited Liability Company",
        "OrgFormOthNm": null
      },
      "Item3B": {
        "Q3B": "DECEMBER"
      },
      "Item3C": {
        "StateCD": 8,
        "StateCDSpecified": true,
        "CntryNm": "United States"
      },
      "Item5A": {
        "TtlEmp": null
      },
      "Item5B": {
        "Q5B1": null,
        "Q5B2": null,
        "Q5B3": null,
        "Q5B4": null,
        "Q5B5": null,
        "Q5B6": null
      },
      "Item5C": {
        "Q5C1": null,
        "Q5C1Oth": null,
        "Q5C2": null
      },
      "Item5D": {
        "Q5D1A": null,
        "Q5D1B": null,
        "Q5D1C": null,
        "Q5D1D": null,
        "Q5D1E": null,
        "Q5D1F": null,
        "Q5D1G": null,
        "Q5D1H": null,
        "Q5D1I": null,
        "Q5D1J": null,
        "Q5D1K": null,
        "Q5D1L": null,
        "Q5D1M": null,
        "Q5D1MOth": null,
        "Q5D2A": null,
        "Q5D2B": null,
        "Q5D2C": null,
        "Q5D2D": null,
        "Q5D2E": null,
        "Q5D2F": null,
        "Q5D2G": null,
        "Q5D2H": null,
        "Q5D2I": null,
        "Q5D2J": null,
        "Q5D2K": null,
        "Q5D2L": null,
        "Q5D2M": null,
        "Q5D2MOth": null
      },
      "Item5E": {
        "Q5E1Specified": false,
        "Q5E2Specified": false,
        "Q5E3Specified": false,
        "Q5E4Specified": false,
        "Q5E5Specified": false,
        "Q5E6Specified": false,
        "Q5E7Specified": false,
        "Q5E7Oth": null
      },
      "Item5F": {
        "Q5F1Specified": false,
        "Q5F2ASpecified": false,
        "Q5F2BSpecified": false,
        "Q5F2CSpecified": false,
        "Q5F2D": null,
        "Q5F2E": null,
        "Q5F2F": null
      },
      "Item5G": {
        "Q5G1Specified": false,
        "Q5G2Specified": false,
        "Q5G3Specified": false,
        "Q5G4Specified": false,
        "Q5G5Specified": false,
        "Q5G6Specified": false,
        "Q5G7Specified": false,
        "Q5G8Specified": false,
        "Q5G9Specified": false,
        "Q5G10Specified": false,
        "Q5G11Specified": false,
        "Q5G12Specified": false,
        "Q5G12Oth": null
      },
      "Item5H": {
        "Q5H": null,
        "Q5HMT500": null
      },
      "Item5I": {
        "Q5I1Specified": false,
        "Q5I2Specified": false
      },
      "Item5J": {
        "Q5JSpecified": false
      },
      "Item6A": {
        "Q6A1Specified": false,
        "Q6A2Specified": false,
        "Q6A3Specified": false,
        "Q6A4Specified": false,
        "Q6A5Specified": false,
        "Q6A6Specified": false,
        "Q6A7Specified": false,
        "Q6A8Specified": false,
        "Q6A9Specified": false,
        "Q6A10Specified": false,
        "Q6A11Specified": false,
        "Q6A12Specified": false,
        "Q6A13Specified": false,
        "Q6A14Specified": false,
        "Q6A14Oth": null
      },
      "Item6B": {
        "Q6B1": 1,
        "Q6B1Specified": true,
        "Q6B3": 1,
        "Q6B3Specified": true,
        "Q6B2Specified": false
      },
      "Item7A": {
        "Q7A1": 1,
        "Q7A1Specified": true,
        "Q7A2": 1,
        "Q7A2Specified": true,
        "Q7A3": 1,
        "Q7A3Specified": true,
        "Q7A4": 1,
        "Q7A4Specified": true,
        "Q7A5": 1,
        "Q7A5Specified": true,
        "Q7A6": 1,
        "Q7A6Specified": true,
        "Q7A7": 1,
        "Q7A7Specified": true,
        "Q7A8": 1,
        "Q7A8Specified": true,
        "Q7A9": 1,
        "Q7A9Specified": true,
        "Q7A10": 1,
        "Q7A10Specified": true,
        "Q7A11": 1,
        "Q7A11Specified": true,
        "Q7A12": 1,
        "Q7A12Specified": true,
        "Q7A13": 1,
        "Q7A13Specified": true,
        "Q7A14": 1,
        "Q7A14Specified": true,
        "Q7A15": 1,
        "Q7A15Specified": true,
        "Q7A16": 0,
        "Q7A16Specified": true
      },
      "Item7B": {
        "Q7B": 0,
        "Q7BSpecified": true
      },
      "Item8A": {
        "Q8A1Specified": false,
        "Q8A2Specified": false,
        "Q8A3Specified": false
      },
      "Item8B": {
        "Q8B1Specified": false,
        "Q8B2Specified": false,
        "Q8B3Specified": false
      },
      "Item8C": {
        "Q8C1Specified": false,
        "Q8C2Specified": false,
        "Q8C3Specified": false,
        "Q8C4Specified": false
      },
      "Item8D": {
        "Q8DSpecified": false
      },
      "Item8E": {
        "Q8ESpecified": false
      },
      "Item8F": {
        "Q8FSpecified": false
      },
      "Item8G": {
        "Q8G1Specified": false,
        "Q8G2Specified": false
      },
      "Item8H": {
        "Q8HSpecified": false
      },
      "Item8I": {
        "Q8ISpecified": false
      },
      "Item9A": {
        "Q9A1ASpecified": false,
        "Q9A1BSpecified": false,
        "Q9A2ASpecified": false,
        "Q9A2B": null
      },
      "Item9B": {
        "Q9B1ASpecified": false,
        "Q9B1BSpecified": false,
        "Q9B2ASpecified": false,
        "Q9B2B": null
      },
      "Item9C": {
        "Q9C1Specified": false,
        "Q9C2Specified": false,
        "Q9C3Specified": false,
        "Q9C4Specified": false
      },
      "Item9D": {
        "Q9D1Specified": false,
        "Q9D2Specified": false
      },
      "Item9E": {
        "Q9E": null
      },
      "Item9F": {
        "Q9F": null
      },
      "Item10A": {
        "Q10A": 1,
        "Q10ASpecified": true
      },
      "Item11": {
        "Q11": 1,
        "Q11Specified": true
      },
      "Item11A": {
        "Q11A1": 1,
        "Q11A1Specified": true,
        "Q11A2": 1,
        "Q11A2Specified": true
      },
      "Item11B": {
        "Q11B1": 1,
        "Q11B1Specified": true,
        "Q11B2": 1,
        "Q11B2Specified": true
      },
      "Item11C": {
        "Q11C1": 1,
        "Q11C1Specified": true,
        "Q11C2": 1,
        "Q11C2Specified": true,
        "Q11C3": 1,
        "Q11C3Specified": true,
        "Q11C4": 1,
        "Q11C4Specified": true,
        "Q11C5": 1,
        "Q11C5Specified": true
      },
      "Item11D": {
        "Q11D1": 1,
        "Q11D1Specified": true,
        "Q11D2": 1,
        "Q11D2Specified": true,
        "Q11D3": 1,
        "Q11D3Specified": true,
        "Q11D4": 1,
        "Q11D4Specified": true,
        "Q11D5": 1,
        "Q11D5Specified": true
      },
      "Item11E": {
        "Q11E1": 1,
        "Q11E1Specified": true,
        "Q11E2": 1,
        "Q11E2Specified": true,
        "Q11E3": 1,
        "Q11E3Specified": true,
        "Q11E4": 1,
        "Q11E4Specified": true
      },
      "Item11F": {
        "Q11F": 1,
        "Q11FSpecified": true
      },
      "Item11G": {
        "Q11G": 1,
        "Q11GSpecified": true
      },
      "Item11H": {
        "Q11H1A": 1,
        "Q11H1ASpecified": true,
        "Q11H1B": 1,
        "Q11H1BSpecified": true,
        "Q11H1C": 1,
        "Q11H1CSpecified": true,
        "Q11H2": 1,
        "Q11H2Specified": true
      }
    }
  },
  "Reps": {}
}