{
  "Info": {
    "SECRgnCD": 2,
    "SECRgnCDSpecified": true,
    "FirmCrdNb": "29357",
    "SECNb": "801-71300",
    "BusNm": "BANCWEST INVESTMENT SERVICES, INC. (BWIS) AND BWIS D/B/A FHIS",
    "LegalNm": "BANCWEST INVESTMENT SERVICES, INC."
  },
  "MainAddr": {
    "Strt1": "13220 CALIFORNIA STREET",
    "Strt2": "2ND FLOOR",
    "City": "OMAHA",
    "State": 30,
    "StateSpecified": true,
    "Cntry": "United States",
    "PostlCd": "68154-9750",
    "PhNb": "800-338-3919",
    "FaxNb": "402-827-3108"
  },
  "MailingAddr": {
    "Strt1": null,
    "Strt2": null,
    "City": null,
    "StateSpecified": false,
    "Cntry": null,
    "PostlCd": null,
    "PhNb": null,
    "FaxNb": null
  },
  "Rgstn": [
    {
      "FirmType": 0,
      "St": 0,
      "Dt": "2010-05-11T00:00:00"
    }
  ],
  "NoticeFiled": [
    {
      "RgltrCd": 4,
      "St": 1,
      "StSpecified": true,
      "Dt": "2006-07-06T00:00:00",
      "DtSpecified": true
    },
    {
      "RgltrCd": 0,
      "St": 1,
      "StSpecified": true,
      "Dt": "2010-05-17T00:00:00",
      "DtSpecified": true
    },
    {
      "RgltrCd": 1,
      "St": 1,
      "StSpecified": true,
      "Dt": "2010-05-17T00:00:00",
      "DtSpecified": true
    },
    {
      "RgltrCd": 2,
      "St": 1,
      "StSpecified": true,
      "Dt": "2010-05-17T00:00:00",
      "DtSpecified": true
    },
    {
      "RgltrCd": 3,
      "St": 1,
      "StSpecified": true,
      "Dt": "2010-05-17T00:00:00",
      "DtSpecified": true
    },
    {
      "RgltrCd": 5,
      "St": 1,
      "StSpecified": true,
      "Dt": "2010-05-17T00:00:00",
      "DtSpecified": true
    },
    {
      "RgltrCd": 6,
      "St": 1,
      "StSpecified": true,
      "Dt": "2010-05-17T00:00:00",
      "DtSpecified": true
    },
    {
      "RgltrCd": 7,
      "St": 1,
      "StSpecified": true,
      "Dt": "2010-05-17T00:00:00",
      "DtSpecified": true
    },
    {
      "RgltrCd": 10,
      "St": 1,
      "StSpecified": true,
      "Dt": "2010-05-17T00:00:00",
      "DtSpecified": true
    },
    {
      "RgltrCd": 12,
      "St": 1,
      "StSpecified": true,
      "Dt": "2010-05-17T00:00:00",
      "DtSpecified": true
    },
    {
      "RgltrCd": 13,
      "St": 1,
      "StSpecified": true,
      "Dt": "2010-05-17T00:00:00",
      "DtSpecified": true
    },
    {
      "RgltrCd": 14,
      "St": 1,
      "StSpecified": true,
      "Dt": "2010-05-17T00:00:00",
      "DtSpecified": true
    },
    {
      "RgltrCd": 16,
      "St": 1,
      "StSpecified": true,
      "Dt": "2010-05-17T00:00:00",
      "DtSpecified": true
    },
    {
      "RgltrCd": 17,
      "St": 1,
      "StSpecified": true,
      "Dt": "2010-05-17T00:00:00",
      "DtSpecified": true
    },
    {
      "RgltrCd": 18,
      "St": 1,
      "StSpecified": true,
      "Dt": "2010-05-17T00:00:00",
      "DtSpecified": true
    },
    {
      "RgltrCd": 19,
      "St": 1,
      "StSpecified": true,
      "Dt": "2010-05-17T00:00:00",
      "DtSpecified": true
    },
    {
      "RgltrCd": 20,
      "St": 1,
      "StSpecified": true,
      "Dt": "2010-05-17T00:00:00",
      "DtSpecified": true
    },
    {
      "RgltrCd": 21,
      "St": 1,
      "StSpecified": true,
      "Dt": "2010-05-17T00:00:00",
      "DtSpecified": true
    },
    {
      "RgltrCd": 22,
      "St": 1,
      "StSpecified": true,
      "Dt": "2010-05-17T00:00:00",
      "DtSpecified": true
    },
    {
      "RgltrCd": 23,
      "St": 1,
      "StSpecified": true,
      "Dt": "2010-05-17T00:00:00",
      "DtSpecified": true
    },
    {
      "RgltrCd": 24,
      "St": 1,
      "StSpecified": true,
      "Dt": "2010-05-17T00:00:00",
      "DtSpecified": true
    },
    {
      "RgltrCd": 25,
      "St": 1,
      "StSpecified": true,
      "Dt": "2010-05-17T00:00:00",
      "DtSpecified": true
    },
    {
      "RgltrCd": 26,
      "St": 1,
      "StSpecified": true,
      "Dt": "2010-05-17T00:00:00",
      "DtSpecified": true
    },
    {
      "RgltrCd": 27,
      "St": 1,
      "StSpecified": true,
      "Dt": "2010-05-17T00:00:00",
      "DtSpecified": true
    },
    {
      "RgltrCd": 28,
      "St": 1,
      "StSpecified": true,
      "Dt": "2010-05-17T00:00:00",
      "DtSpecified": true
    },
    {
      "RgltrCd": 29,
      "St": 1,
      "StSpecified": true,
      "Dt": "2010-05-17T00:00:00",
      "DtSpecified": true
    },
    {
      "RgltrCd": 30,
      "St": 1,
      "StSpecified": true,
      "Dt": "2010-05-17T00:00:00",
      "DtSpecified": true
    },
    {
      "RgltrCd": 31,
      "St": 1,
      "StSpecified": true,
      "Dt": "2010-05-17T00:00:00",
      "DtSpecified": true
    },
    {
      "RgltrCd": 33,
      "St": 1,
      "StSpecified": true,
      "Dt": "2010-05-17T00:00:00",
      "DtSpecified": true
    },
    {
      "RgltrCd": 34,
      "St": 1,
      "StSpecified": true,
      "Dt": "2010-05-17T00:00:00",
      "DtSpecified": true
    },
    {
      "RgltrCd": 35,
      "St": 1,
      "StSpecified": true,
      "Dt": "2010-05-17T00:00:00",
      "DtSpecified": true
    },
    {
      "RgltrCd": 36,
      "St": 1,
      "StSpecified": true,
      "Dt": "2010-05-17T00:00:00",
      "DtSpecified": true
    },
    {
      "RgltrCd": 37,
      "St": 1,
      "StSpecified": true,
      "Dt": "2010-05-17T00:00:00",
      "DtSpecified": true
    },
    {
      "RgltrCd": 38,
      "St": 1,
      "StSpecified": true,
      "Dt": "2010-05-17T00:00:00",
      "DtSpecified": true
    },
    {
      "RgltrCd": 39,
      "St": 1,
      "StSpecified": true,
      "Dt": "2010-05-17T00:00:00",
      "DtSpecified": true
    },
    {
      "RgltrCd": 41,
      "St": 1,
      "StSpecified": true,
      "Dt": "2010-05-17T00:00:00",
      "DtSpecified": true
    },
    {
      "RgltrCd": 42,
      "St": 1,
      "StSpecified": true,
      "Dt": "2010-05-17T00:00:00",
      "DtSpecified": true
    },
    {
      "RgltrCd": 44,
      "St": 1,
      "StSpecified": true,
      "Dt": "2010-05-17T00:00:00",
      "DtSpecified": true
    },
    {
      "RgltrCd": 45,
      "St": 1,
      "StSpecified": true,
      "Dt": "2010-05-17T00:00:00",
      "DtSpecified": true
    },
    {
      "RgltrCd": 46,
      "St": 1,
      "StSpecified": true,
      "Dt": "2010-05-17T00:00:00",
      "DtSpecified": true
    },
    {
      "RgltrCd": 47,
      "St": 1,
      "StSpecified": true,
      "Dt": "2010-05-17T00:00:00",
      "DtSpecified": true
    },
    {
      "RgltrCd": 48,
      "St": 1,
      "StSpecified": true,
      "Dt": "2010-05-17T00:00:00",
      "DtSpecified": true
    },
    {
      "RgltrCd": 49,
      "St": 1,
      "StSpecified": true,
      "Dt": "2010-05-17T00:00:00",
      "DtSpecified": true
    },
    {
      "RgltrCd": 50,
      "St": 1,
      "StSpecified": true,
      "Dt": "2010-05-17T00:00:00",
      "DtSpecified": true
    },
    {
      "RgltrCd": 51,
      "St": 1,
      "StSpecified": true,
      "Dt": "2010-05-17T00:00:00",
      "DtSpecified": true
    },
    {
      "RgltrCd": 9,
      "St": 1,
      "StSpecified": true,
      "Dt": "2010-05-18T00:00:00",
      "DtSpecified": true
    },
    {
      "RgltrCd": 15,
      "St": 1,
      "StSpecified": true,
      "Dt": "2010-05-19T00:00:00",
      "DtSpecified": true
    },
    {
      "RgltrCd": 43,
      "St": 1,
      "StSpecified": true,
      "Dt": "2010-05-20T00:00:00",
      "DtSpecified": true
    },
    {
      "RgltrCd": 8,
      "St": 1,
      "StSpecified": true,
      "Dt": "2010-05-26T00:00:00",
      "DtSpecified": true
    },
    {
      "RgltrCd": 32,
      "St": 1,
      "StSpecified": true,
      "Dt": "2010-06-28T00:00:00",
      "DtSpecified": true
    },
    {
      "RgltrCd": 40,
      "St": 1,
      "StSpecified": true,
      "Dt": "2015-03-31T00:00:00",
      "DtSpecified": true
    },
    {
      "RgltrCd": 53,
      "St": 1,
      "StSpecified": true,
      "Dt": "2015-03-31T00:00:00",
      "DtSpecified": true
    }
  ],
  "Filing": [
    {
      "Dt": "2016-05-26T00:00:00",
      "FormVrsn": "10/2012"
    }
  ],
  "FormInfo": {
    "Part1A": {
      "Item1": {
        "WebAddrs": [
          "HTTPS://WWW.BANKOFTHEWEST.COM/PERSONAL-BANKING/INVESTMENTS"
        ],
        "Q1I": 0,
        "Q1ISpecified": true,
        "Q1M": 1,
        "Q1MSpecified": true,
        "Q1N": 1,
        "Q1NSpecified": true,
        "CIKNbSpecified": false,
        "Q1O": 1,
        "Q1OSpecified": true,
        "Q1P": "5493001GJYTESEZEBA51"
      },
      "Item2A": {
        "Q2A1": 0,
        "Q2A1Specified": true,
        "Q2A2": 1,
        "Q2A2Specified": true,
        "Q2A3": 1,
        "Q2A3Specified": true,
        "Q2A4": 1,
        "Q2A4Specified": true,
        "Q2A5": 1,
        "Q2A5Specified": true,
        "Q2A6": 1,
        "Q2A6Specified": true,
        "Q2A7": 1,
        "Q2A7Specified": true,
        "Q2A8": 1,
        "Q2A8Specified": true,
        "Q2A9": 1,
        "Q2A9Specified": true,
        "Q2A10": 1,
        "Q2A10Specified": true,
        "Q2A11": 1,
        "Q2A11Specified": true,
        "Q2A12": 1,
        "Q2A12Specified": true,
        "Q2A13": 1,
        "Q2A13Specified": true
      },
      "Item2B": {
        "Q2B1Specified": false,
        "Q2B2Specified": false,
        "Q2B3Specified": false
      },
      "Item3A": {
        "OrgFormNm": "Corporation",
        "OrgFormOthNm": null
      },
      "Item3B": {
        "Q3B": "DECEMBER"
      },
      "Item3C": {
        "StateCD": 8,
        "StateCDSpecified": true,
        "CntryNm": "United States"
      },
      "Item5A": {
        "TtlEmp": "469"
      },
      "Item5B": {
        "Q5B1": "329",
        "Q5B2": "420",
        "Q5B3": "335",
        "Q5B4": "0",
        "Q5B5": "332",
        "Q5B6": "0"
      },
      "Item5C": {
        "Q5C1": "More than 100",
        "Q5C1Oth": "5200",
        "Q5C2": "0"
      },
      "Item5D": {
        "Q5D1A": "76-99 percent",
        "Q5D1B": "Up to 10 percent",
        "Q5D1C": "0 percent",
        "Q5D1D": "0 percent",
        "Q5D1E": "0 percent",
        "Q5D1F": "0 percent",
        "Q5D1G": "Up to 10 percent",
        "Q5D1H": "Up to 10 percent",
        "Q5D1I": "Up to 10 percent",
        "Q5D1J": "0 percent",
        "Q5D1K": "0 percent",
        "Q5D1L": "0 percent",
        "Q5D1M": "0 percent",
        "Q5D1MOth": null,
        "Q5D2A": "More than 75 percent",
        "Q5D2B": "Up to 25 percent",
        "Q5D2C": "0 percent",
        "Q5D2D": "0 percent",
        "Q5D2E": "0 percent",
        "Q5D2F": "0 percent",
        "Q5D2G": "Up to 25 percent",
        "Q5D2H": "Up to 25 percent",
        "Q5D2I": "Up to 25 percent",
        "Q5D2J": "0 percent",
        "Q5D2K": "0 percent",
        "Q5D2L": "0 percent",
        "Q5D2M": "0 percent",
        "Q5D2MOth": null
      },
      "Item5E": {
        "Q5E1": 0,
        "Q5E1Specified": true,
        "Q5E2": 1,
        "Q5E2Specified": true,
        "Q5E3": 1,
        "Q5E3Specified": true,
        "Q5E4": 1,
        "Q5E4Specified": true,
        "Q5E5": 1,
        "Q5E5Specified": true,
        "Q5E6": 1,
        "Q5E6Specified": true,
        "Q5E7": 1,
        "Q5E7Specified": true,
        "Q5E7Oth": null
      },
      "Item5F": {
        "Q5F1": 0,
        "Q5F1Specified": true,
        "Q5F2A": 896486817.0,
        "Q5F2ASpecified": true,
        "Q5F2B": 0.0,
        "Q5F2BSpecified": true,
        "Q5F2C": 896486817.0,
        "Q5F2CSpecified": true,
        "Q5F2D": "5218",
        "Q5F2E": "0",
        "Q5F2F": "5218"
      },
      "Item5G": {
        "Q5G1": 1,
        "Q5G1Specified": true,
        "Q5G2": 0,
        "Q5G2Specified": true,
        "Q5G3": 1,
        "Q5G3Specified": true,
        "Q5G4": 0,
        "Q5G4Specified": true,
        "Q5G5": 1,
        "Q5G5Specified": true,
        "Q5G6": 1,
        "Q5G6Specified": true,
        "Q5G7": 0,
        "Q5G7Specified": true,
        "Q5G8": 1,
        "Q5G8Specified": true,
        "Q5G9": 1,
        "Q5G9Specified": true,
        "Q5G10": 1,
        "Q5G10Specified": true,
        "Q5G11": 1,
        "Q5G11Specified": true,
        "Q5G12": 0,
        "Q5G12Specified": true,
        "Q5G12Oth": "SELECTION OF WRAP FEE PROGRAMS"
      },
      "Item5H": {
        "Q5H": "0",
        "Q5HMT500": null
      },
      "Item5I": {
        "Q5I1": 0,
        "Q5I1Specified": true,
        "Q5I2": 1,
        "Q5I2Specified": true
      },
      "Item5J": {
        "Q5J": 0,
        "Q5JSpecified": true
      },
      "Item6A": {
        "Q6A1": 0,
        "Q6A1Specified": true,
        "Q6A2": 1,
        "Q6A2Specified": true,
        "Q6A3": 1,
        "Q6A3Specified": true,
        "Q6A4": 1,
        "Q6A4Specified": true,
        "Q6A5": 1,
        "Q6A5Specified": true,
        "Q6A6": 0,
        "Q6A6Specified": true,
        "Q6A7": 1,
        "Q6A7Specified": true,
        "Q6A8": 1,
        "Q6A8Specified": true,
        "Q6A9": 1,
        "Q6A9Specified": true,
        "Q6A10": 1,
        "Q6A10Specified": true,
        "Q6A11": 1,
        "Q6A11Specified": true,
        "Q6A12": 1,
        "Q6A12Specified": true,
        "Q6A13": 1,
        "Q6A13Specified": true,
        "Q6A14": 1,
        "Q6A14Specified": true,
        "Q6A14Oth": null
      },
      "Item6B": {
        "Q6B1": 1,
        "Q6B1Specified": true,
        "Q6B3": 0,
        "Q6B3Specified": true,
        "Q6B2Specified": false
      },
      "Item7A": {
        "Q7A1": 0,
        "Q7A1Specified": true,
        "Q7A2": 0,
        "Q7A2Specified": true,
        "Q7A3": 1,
        "Q7A3Specified": true,
        "Q7A4": 1,
        "Q7A4Specified": true,
        "Q7A5": 1,
        "Q7A5Specified": true,
        "Q7A6": 1,
        "Q7A6Specified": true,
        "Q7A7": 1,
        "Q7A7Specified": true,
        "Q7A8": 0,
        "Q7A8Specified": true,
        "Q7A9": 1,
        "Q7A9Specified": true,
        "Q7A10": 1,
        "Q7A10Specified": true,
        "Q7A11": 1,
        "Q7A11Specified": true,
        "Q7A12": 0,
        "Q7A12Specified": true,
        "Q7A13": 1,
        "Q7A13Specified": true,
        "Q7A14": 1,
        "Q7A14Specified": true,
        "Q7A15": 1,
        "Q7A15Specified": true,
        "Q7A16": 1,
        "Q7A16Specified": true
      },
      "Item7B": {
        "Q7B": 1,
        "Q7BSpecified": true
      },
      "Item8A": {
        "Q8A1": 1,
        "Q8A1Specified": true,
        "Q8A2": 0,
        "Q8A2Specified": true,
        "Q8A3": 1,
        "Q8A3Specified": true
      },
      "Item8B": {
        "Q8B1": 1,
        "Q8B1Specified": true,
        "Q8B2": 1,
        "Q8B2Specified": true,
        "Q8B3": 1,
        "Q8B3Specified": true
      },
      "Item8C": {
        "Q8C1": 0,
        "Q8C1Specified": true,
        "Q8C2": 0,
        "Q8C2Specified": true,
        "Q8C3": 1,
        "Q8C3Specified": true,
        "Q8C4": 1,
        "Q8C4Specified": true
      },
      "Item8D": {
        "Q8DSpecified": false
      },
      "Item8E": {
        "Q8E": 0,
        "Q8ESpecified": true
      },
      "Item8F": {
        "Q8F": 0,
        "Q8FSpecified": true
      },
      "Item8G": {
        "Q8G1": 0,
        "Q8G1Specified": true,
        "Q8G2": 0,
        "Q8G2Specified": true
      },
      "Item8H": {
        "Q8H": 0,
        "Q8HSpecified": true
      },
      "Item8I": {
        "Q8I": 0,
        "Q8ISpecified": true
      },
      "Item9A": {
        "Q9A1A": 0,
        "Q9A1ASpecified": true,
        "Q9A1B": 0,
        "Q9A1BSpecified": true,
        "Q9A2A": 484039610.0,
        "Q9A2ASpecified": true,
        "Q9A2B": "5302"
      },
      "Item9B": {
        "Q9B1A": 0,
        "Q9B1ASpecified": true,
        "Q9B1B": 0,
        "Q9B1BSpecified": true,
        "Q9B2A": 412447207.0,
        "Q9B2ASpecified": true,
        "Q9B2B": "2250"
      },
      "Item9C": {
        "Q9C1": 1,
        "Q9C1Specified": true,
        "Q9C2": 1,
        "Q9C2Specified": true,
        "Q9C3": 1,
        "Q9C3Specified": true,
        "Q9C4": 1,
        "Q9C4Specified": true
      },
      "Item9D": {
        "Q9D1": 1,
        "Q9D1Specified": true,
        "Q9D2": 1,
        "Q9D2Specified": true
      },
      "Item9E": {
        "Q9E": null
      },
      "Item9F": {
        "Q9F": "1"
      },
      "Item10A": {
        "Q10A": 1,
        "Q10ASpecified": true
      },
      "Item11": {
        "Q11": 1,
        "Q11Specified": true
      },
      "Item11A": {
        "Q11A1": 0,
        "Q11A1Specified": true,
        "Q11A2": 0,
        "Q11A2Specified": true
      },
      "Item11B": {
        "Q11B1": 0,
        "Q11B1Specified": true,
        "Q11B2": 0,
        "Q11B2Specified": true
      },
      "Item11C": {
        "Q11C1": 1,
        "Q11C1Specified": true,
        "Q11C2": 0,
        "Q11C2Specified": true,
        "Q11C3": 1,
        "Q11C3Specified": true,
        "Q11C4": 0,
        "Q11C4Specified": true,
        "Q11C5": 0,
        "Q11C5Specified": true
      },
      "Item11D": {
        "Q11D1": 0,
        "Q11D1Specified": true,
        "Q11D2": 0,
        "Q11D2Specified": true,
        "Q11D3": 0,
        "Q11D3Specified": true,
        "Q11D4": 0,
        "Q11D4Specified": true,
        "Q11D5": 0,
        "Q11D5Specified": true
      },
      "Item11E": {
        "Q11E1": 1,
        "Q11E1Specified": true,
        "Q11E2": 0,
        "Q11E2Specified": true,
        "Q11E3": 1,
        "Q11E3Specified": true,
        "Q11E4": 1,
        "Q11E4Specified": true
      },
      "Item11F": {
        "Q11F": 1,
        "Q11FSpecified": true
      },
      "Item11G": {
        "Q11G": 0,
        "Q11GSpecified": true
      },
      "Item11H": {
        "Q11H1A": 1,
        "Q11H1ASpecified": true,
        "Q11H1B": 1,
        "Q11H1BSpecified": true,
        "Q11H1C": 1,
        "Q11H1CSpecified": true,
        "Q11H2": 1,
        "Q11H2Specified": true
      }
    }
  },
  "Reps": {
    "1008144": "BROWN, MARK WILLIAM",
    "1063162": "GOODRICH, JEFFREY CLAY",
    "1083667": "SEITNER, STEPHEN ALLAN",
    "1106708": "SMITH, DENNIS",
    "1139760": "BLYTHE, JOSEPH",
    "1292191": "WONG, VERNON YEW CHEONG",
    "1306487": "COCHRAN, THOMAS EDWARD",
    "1327605": "SHAYLER, KEHAUNANI FRANK",
    "1363456": "GAFFNEY, GREGORY C",
    "1475242": "FARLEY, CHERYL ANN",
    "1524917": "HIGGINBOTHAM, MARK LLOYD",
    "1558453": "MCKANNAY, JEFFERY ALEX",
    "1597134": "ASHWORTH, RICHARD LEE",
    "1613342": "CONSTANT, DOUGLAS ANDREW",
    "1619399": "STINSON, LARRY REX",
    "1626384": "HARBIN, CRAIG CHARLES",
    "1627536": "BOSSIER, JAMES FRANCIS, JR",
    "1633756": "WAGNER, EVAN KERMIT",
    "1681671": "JAMAL, MALIA LITTLE",
    "1692187": "DUBENDORF, DARIN KEITH",
    "1696401": "UGHETTA, BRADLEY WILLIAM",
    "1712688": "BURGAT, BARBARA ANN",
    "1728704": "SERBIA, CYNTHIA MEDINA",
    "1773966": "AVELLAR, CRAIG STEPHEN",
    "1796839": "ELIASON, JAY DEE",
    "1859405": "SUISO, MARK HENRY",
    "1885362": "SIMPSON, RODNEY WAYNE",
    "1933470": "GONZALEZ - MARUYAMA, DIVINA C",
    "1985647": "JOHNSON, TERRY MICHAEL",
    "1997156": "STARZEC, STEPHEN FRANCIS",
    "2039612": "WEBER, BRAD LAWRENCE",
    "2041539": "MCHENRY, BRIAN JOHN",
    "2063529": "CARR, THOMAS GEORGE",
    "2068189": "SMITH, MARK STEVEN",
    "2117224": "LOPEZ, DAVID ARTHUR",
    "2118432": "CLEARY, JOHN P",
    "2122235": "MOLNAR, JOHN EUGENE, IV",
    "2135442": "NIEMI, DALE ROBERT",
    "2157136": "HULTMAN, DAVID RYAN",
    "2234928": "PRICE, CHRISTOPHER ROBIN",
    "2239477": "ROSENBERGER, DANIEL WINSTON",
    "2256608": "MAYNARD, JEFFERY JAMES",
    "2273353": "MOSSMAN, LORRIE TAKEKO",
    "2295383": "NELSON, KRISTIN DIANE",
    "2314649": "GERVIS, MAYA",
    "2320079": "ASHTON, LESLIE A",
    "2349925": "COBURN, GREG LAURENCE",
    "2364159": "KELESHIAN, JACK HAROLD",
    "2381986": "COLDIRON, ALAN BERT",
    "2391643": "YIP, BERNARD K",
    "2421378": "SIEBENBRUNER, GAYLE LOUISE",
    "2424924": "MORA, EDWARD A",
    "2449468": "STONE, SCOTT ARCHIE",
    "2489881": "CHRISTIANSON, MICHAEL LEROY",
    "2489946": "JACOBS, FRANCIS",
    "2499417": "HOWARD, TIMOTHY NEIL",
    "2526233": "GATES, RODNEY RAY",
    "2576958": "SPECHT, GEORGE TYLER",
    "2591646": "PELICH, VICTORIA MARIE",
    "2662365": "SPAHR, GREGORY SCOTT",
    "2700491": "GOULD, CHARLES SPENCER",
    "2709664": "WEITKAM, LOUIS, JR",
    "2724741": "MEYSENBURG, JASON LEE",
    "2729892": "AU, BEE BEE",
    "2737876": "MAURER, BRAD MICHAEL",
    "2751207": "KLEIST, EDWARD MARCELLUS, JR",
    "2782957": "WU, MARYANNE HUOYJIUAN",
    "2793001": "PAVAO, DUANE ALAN",
    "2800890": "CHAN, ACE S",
    "2858936": "HARKLESS, RICHARD JAMES",
    "2859085": "BUENCONSEJO, BRADLEY DAIN",
    "2868170": "KIELBORN, ROBERT MICHAEL",
    "2869349": "TORREZ, BEN DEAN",
    "2869570": "BIANCHI, PAUL PETER, JR",
    "2886732": "GOOD-O'CONNOR, JERI ANN",
    "2894837": "GRIFFITHS, RENEE THERESA",
    "2899793": "FLORENDO, NYLENE AMY MARCELINO",
    "2910427": "ZERAN, MICHAEL DAVID",
    "2919879": "FOWLER, MARK ANTHONY",
    "2933181": "QUAN, DENNIS CHRISTOPHER",
    "2959904": "GARTNER, TASHA JOY",
    "2975814": "MAYO, KEVIN DUANE",
    "2982902": "FUJIMOTO, SHERILYNN MIYO",
    "2997638": "ANDERSON, LILA JUNE",
    "3031239": "SCHELL, SHELLY LYNNE",
    "3039419": "KOH, JOHN JUNGKI",
    "3043107": "SLATE, BOBBY LEE",
    "3048752": "DAVIDSON, TABRENIA LYNN",
    "3049690": "CHUNG, DANNY DAEYOUNG",
    "3072104": "MULLIN, SEAN MICHAEL",
    "3085015": "HAILE, LORI DAWN",
    "3116243": "STIENEKE, ELIZABETH",
    "3117036": "GRABE, GEOFF LOUIS",
    "3117189": "MITCHELL, DALE KEITH",
    "3126442": "GASSELING, RYAN MICHAEL",
    "3146777": "DUVALL, JODIE MICHELLE",
    "3152736": "BRUGGEMAN, DOUGLAS JOHN",
    "3164653": "DICK, JEREMY MICHAEL",
    "3195915": "PINHO, STUART KALANI",
    "3200991": "LU, CHIEHFU",
    "3213579": "MAY, RICHARD WILLIAM",
    "3235364": "KAZEMI, SEPIDEH",
    "3236262": "SCHISSEL, CYNTHIA MARIE",
    "3255621": "TOTTORI, MICHAEL AKEO",
    "4033799": "CARMICHAEL, JODI RALYNN",
    "4037735": "SHROFF, AMY LYNNE",
    "4043433": "SWETMAN, DAISY LEE",
    "4044334": "PEDICORD PETERSON, JILL D",
    "4048609": "ZARCHEN, JOHN BARNETT",
    "4144925": "FONTENLA, JUAN JOSE",
    "4148079": "DERRA, JONATHAN JAMES",
    "4165846": "DIBILDOX, GABRIEL",
    "4170554": "LOOPER, KAREN LEE",
    "4185373": "LAU, SAMANTHA HUANG",
    "4188120": "WEISS, GREGORY",
    "4190290": "TRUONG, CHARLES K",
    "4218549": "ORIAN, MATTHEW",
    "4253895": "GABRIEL, STEVEN DALE",
    "4254707": "NUNN, PATRICIA L",
    "4265323": "HAFFLEY, JAY FREDERICK",
    "4269229": "MCNERNEY, JODY LEE",
    "4272399": "HATFIELD, JOHN CALVIN",
    "4277498": "MUTTI, SARANJIT",
    "4280335": "BRANNON, MICHAEL K",
    "4284683": "DEUTSCHMANN, JUSTIN M.",
    "4287062": "BAINS-AJMANI, GUNEET KAUR",
    "4294696": "PELL, BYRON WILLIAM",
    "4306592": "ELLMAN, DAVID MICHAEL",
    "4315050": "RHYMER, JIMMY EDWARD",
    "4322869": "INGVALSON, STEVEN DANIEL",
    "4324342": "ANDERSON III, PETER MAHONEY",
    "4335247": "ROMERO, CHRISTOPHER",
    "4338295": "LEE, SUSAN SESUK",
    "4359340": "AKRAM, MOHAMED ABDUR RAHMAN",
    "4374715": "MO'O, MAURICE TEAHI",
    "4378370": "DONNELLY, RICHARD FRANCIS",
    "4385362": "BERRY, GEORGE LINCOLN",
    "4390543": "DELAURO, RACHEL ANN",
    "4400787": "PHU, LINDA MY KIEN",
    "4422071": "BADALUCCO, BRETT MICHAEL",
    "4432883": "KIKUCHI, TRAVIS LEE",
    "443373": "TAYLOR, MICHAEL GEORGE",
    "4434265": "SWARTZBAUGH, KIRK CRILEY",
    "4435735": "HORTON, MICHAEL GEORGE",
    "4445275": "PERRY, DOUGLAS JAMES",
    "4461470": "HANSEN, CHAD WAYNE",
    "4479427": "HOLDMEYER, STEVEN MICHAEL",
    "4484779": "MARTINEZ, ROBYN L.",
    "4502346": "OLIZAROWICZ, JAMES, Jr",
    "4533516": "NISHIDA, KRISTY NATSUKO",
    "4539178": "JOHNSTON, KAREN LYNN",
    "4554598": "HUYNH, JAI LINH",
    "4563892": "COX, CLAYTON DAVID",
    "4577846": "LEE, DAVID TA-WEI",
    "4605575": "GUNSOREK, TIFFANY ANN",
    "4609493": "RIDDELL, CLAYTON HARVEY",
    "4611919": "REED, RICHARD BERT",
    "4706535": "CHENG, PHILIP K",
    "4715185": "TAYLOR, STEPHEN K.",
    "4719969": "MOGANNAM, DAVID CHRIS",
    "4722434": "FENG, ANGIE YONGJUN",
    "4759256": "DENZINGER, JOSEPH EMENS",
    "4760388": "GABADOU, THIERRY",
    "4768243": "MCCURRY, SHANE ALAN",
    "4774343": "ALLEN, MICHAEL CARL",
    "4774393": "BISSON, EVAN ROBERT",
    "4774482": "LAU, TAMMY TERRI",
    "4780728": "MCLEAN, ANNELIESE",
    "4790641": "BRODT, JACOB JOHN",
    "4794987": "DYE, SHAWN DALE",
    "4805867": "DOUGHERTY, LINDA FAIRBANKS",
    "4806489": "BERNSTEIN, PETER LOUIS",
    "4806803": "FROST, NANCY R",
    "4808973": "REA, CHRISTOPHER MICHAEL",
    "4810098": "CURLOW, BRENT ADAM",
    "4824123": "CHANG, TIFFNEY Y",
    "4833053": "KOUTSAKIS, SEAN NICHOLI",
    "4840861": "NGUYEN, VALERIE",
    "4862908": "MARTINEZ, TERNEL NORBERT",
    "4865938": "DELA CRUZ, ROBERT Oliver",
    "4867549": "CLARK, NATHAN P",
    "4868610": "GREGORIO, RONALD REDOR",
    "4871023": "WANG, DUZHI",
    "4873297": "OTNESS, JENNY LYNN",
    "4880119": "ASPLIN, TIM JESS",
    "4885321": "DHILLON, DANIEL K",
    "4893672": "DORSEY, PAUL MICHAEL",
    "4893951": "TASLAKIAN, MARDIG GABRIEL",
    "4903293": "CYZA, JASON THOMAS",
    "4924406": "BUNYAD, MOHAMMED TARIQ",
    "4926502": "PEARCE, MICHAEL DAVID",
    "4958288": "INNIGER, RONNY",
    "4971849": "HOM, CHERYL",
    "4971970": "MACDONALD, REBECCA RAE",
    "5008400": "SHARIFI, HAMY ZEKAVAT",
    "5009488": "BUTLER, STEWART THOMAS",
    "5011206": "JAGOW, MARK ALLEN",
    "5013130": "MONTAVON, LAUREN CATHERINE",
    "5013696": "LOI, WAYNE MINH",
    "5052888": "JANSEN, NICHOLE DOVE",
    "5059648": "DEHAVEN, SAMUEL OLIVER",
    "5061439": "BUMGARNER, AMANDA FRANCES",
    "5069784": "CHI, JOSEPH",
    "5075985": "SINGH, RITIKA",
    "5076565": "LEE, STEVEN HENRY",
    "5093488": "PROVENCIO, MARCUS ROBERT",
    "5109823": "FREITAS, RUTH BETTENCOURT",
    "5142893": "BENNETT, THOMAS BRADFORD",
    "5146846": "RULE, ROSHELLE RENE",
    "5161371": "BURCH, RUSSELL ALLEN, II",
    "5209370": "POPE, DUSTIN W",
    "5209784": "BUDD, DAVID MICHAEL",
    "5241603": "DHALIWAL, AMRINDER SINGH",
    "5250809": "KNOWLES, TIMOTHY ANDREW",
    "5251092": "MELGAARD, KARSTEN DAVID",
    "5255220": "TARAMPI, TANYA PASCUA",
    "5259343": "KILMER, LISA LYNN",
    "5265267": "ARNELL, DOUGLAS BRENT",
    "5282131": "LEE, JACK E",
    "5288179": "PALENSKY, JEREMY MICHAEL",
    "5308236": "INOUYE, KEITH C",
    "5315943": "CHENG, DAVID CHAO-WEI",
    "5325134": "SALTER, DONNA MARI",
    "5330862": "MOLNAR, ROBB M",
    "5332006": "VALDEZ, MARCELINO, Jr",
    "5333608": "NAGAI, JUNKO",
    "5337809": "TORRES, PAUL ANTHONY",
    "5338613": "CHOPRA, ANU BEDI",
    "5338665": "BARTSCH, JOHN LESTER",
    "5340263": "WILLCOX, Blake",
    "5353020": "BANAEI, NEGIN",
    "5359710": "BECK, JESSICA ELISABETH",
    "5379508": "THOMAS, SPENCER E",
    "5393709": "CHAFFEE, SCOTT SAMUEL",
    "5404945": "CHEO, SCOTT VINCENT",
    "5406574": "JAMILI, YAMA",
    "5406918": "LEUNG, ZEJIA",
    "5418719": "WOODWARD, JONATHAN FRANK",
    "5431141": "OLSON, JOSEPH THOMAS",
    "5435090": "MARINOFF, DAVID H",
    "5449239": "REED, MICHAEL ALLEN",
    "5467399": "BENZ, MATTHEW WILLIAM",
    "5467699": "HALDER, JASON ADAM",
    "5489415": "WINKLER, DONELLA RAE",
    "5493951": "WEBSTER, CHAD MICHAEL",
    "5499485": "MURPHY, JAMES M, JR",
    "5503328": "PENNER, LEONARD B",
    "5523620": "LEE, STEVE",
    "5532009": "USO, TAFITI FOTUOTAMA",
    "5536716": "STRASSER, TODD SARGENT",
    "5557180": "THURBER, JESSE",
    "5563385": "HIRAMOTO, MARK I",
    "5584103": "WAGNER, MICHAEL WAYNE",
    "5589024": "WAYMAN, MINDY COSTAR",
    "5591570": "HOBSON, TODD ROBERT",
    "5593020": "TISDALE, BRIAN MICHAEL",
    "5598911": "HUBAND, GARY SCOTT, JR",
    "5608650": "TRAN, TONE HUYNH",
    "5611271": "HO, DIANA",
    "5613822": "LINDSAY, CHANNING RANDOLPH",
    "5614559": "MORAN, LINDA ELIZABETH",
    "5615487": "BOESE, JIMMY NICHOLAS",
    "5628261": "LEON, ANNA DAISY",
    "5646415": "SALEHI, SHIMA",
    "5656136": "DEL PUERTO, SERGIO A",
    "5681683": "STANLEY, SCOTT MICHAEL",
    "5681755": "ROCCO, TIMOTHY J",
    "5683707": "ALEJANDRE, ANGELIQUE YESENIA",
    "5699362": "GRAZZIANO, ANTHONY S",
    "5720323": "WOLFSON, SAMUEL CRAIG",
    "5722448": "HOWARD, RYAN ANDREW",
    "5751731": "ANGLE, CHARLES THOMSON",
    "5760187": "JAHANIAN, SABA C",
    "5766177": "LARRICK, JAY DALLAS",
    "5770888": "ROSS, TROY A",
    "5772216": "DUCATT, DENNIS JAMES",
    "5780403": "CRAGHOLM, ALICIA M",
    "5783605": "DADASHADEH, JOSEPH",
    "5785903": "JOHNSTON, STEPHANE",
    "5786300": "PRITCHETT, JENNIFER LYNN",
    "5787679": "PEARSON, JAMES BRYAN",
    "5795926": "LEACH, LIDIA",
    "5833570": "NEUBAUER, ROBERT B",
    "5844501": "DUN, JESSICA ARLIN",
    "5848355": "MURNAN, ERIN SHONSEY",
    "5858410": "EGGERT, ANDREW DOUGLAS",
    "5859086": "HOFFMANN, JEFFREY PATRICK",
    "5864788": "NAJAFI, SAMINEH",
    "5869861": "LEE, PATRICK PAK CHUN",
    "5882261": "STEFFEN, JASON PAUL",
    "5889005": "TRUSTY, JENNIFER LYNN",
    "5891704": "KRUEGER, JOSHUA C",
    "5904965": "SALAS, ROSS PATRICK",
    "5906817": "SMEDLEY, WILLIAM HUNT",
    "5910552": "LIU, TIMOTHY T",
    "5928632": "MOLFINO, GREGORY LIND",
    "5942632": "YOUNG, ERIN SAYURI",
    "6000497": "XIE, YING JUAN",
    "6003661": "LEE, CHELSEA ANDRES",
    "6006294": "YARBERRY, IAN ROBERT",
    "6010038": "GARCIA, ALEJANDRO",
    "6011169": "YUN, STEVEN H",
    "6014232": "THOMAS, MARIA I",
    "6014236": "SHAH, MILAP",
    "6035717": "BLANKENBURG, BRIAN LEE",
    "6040143": "BERG, JEFFREY SCOTT",
    "6043827": "POEHLER, JESSICA RAE",
    "6115662": "BIGOLIN, VIVIANA",
    "6122112": "ANDO, IBUN",
    "6124380": "PHELPS, DENNIS MICHEAL",
    "6127754": "NICOLAI, PIETRO EDOARDO",
    "6128987": "OSBORNE, MICHAEL JAMES",
    "6133133": "MALLECK, DALE LOUIS",
    "6133950": "OKEEFE, CODY MICHAEL",
    "6149841": "CRUZ, JULIAN, JR",
    "6156840": "MUIR, JUKE",
    "6196216": "VANDAS, NATHAN Stephen",
    "6212402": "NAKAMURA, CATHERINE GRACE",
    "6215994": "LAGALA, CAMERON DAVID LOUIS",
    "6224574": "CASAS, ANDRES R",
    "6239508": "SPENCER, JAMES SCOTT",
    "6245840": "CERRUTI, RICHARD JON",
    "6248398": "BENDER, ROBERT ALLEN",
    "6263181": "TIPPLE, DAVID LEE",
    "6267898": "HSU, CHIAHUA",
    "6303465": "CEDOR, ERIC JOSEPH",
    "6374071": "ESSINGTON, STEPHEN ALAN",
    "6425138": "HAMBURGER, GLENN ANDREW",
    "6437130": "FLORES, YVONNE C",
    "6478182": "ALESSI, RYAN ADDISON",
    "6486755": "CHRISTIAENS, JULIEN",
    "6486880": "GRIVICH, JUDITH ANN",
    "6508981": "KOYAMA, CHRISTOPHER LAWRENCE ISAO",
    "6538887": "Bonk, Jeffrey Michael",
    "6551121": "CHRISTENSEN, RACHAEL S",
    "6567284": "FINCH, TYLER JAMES",
    "711705": "MILLARD, MICHAEL ANTHONY",
    "870414": "GLATTLY, MARK JOSEPH"
  }
}