{
  "Info": {
    "SECRgnCD": 7,
    "SECRgnCDSpecified": true,
    "FirmCrdNb": "44664",
    "SECNb": "801-63342",
    "BusNm": "CORNERSTONE INSTITUTIONAL INVESTORS, INC.",
    "LegalNm": "CORNERSTONE INSTITUTIONAL INVESTORS, INC."
  },
  "MainAddr": {
    "Strt1": "74 WEST BROAD STREET",
    "Strt2": "SUITE 340",
    "City": "BETHLEHEM",
    "State": 39,
    "StateSpecified": true,
    "Cntry": "United States",
    "PostlCd": "18018",
    "PhNb": "610-694-0900",
    "FaxNb": "610-867-8614"
  },
  "MailingAddr": {
    "Strt1": null,
    "Strt2": null,
    "City": null,
    "StateSpecified": false,
    "Cntry": null,
    "PostlCd": null,
    "PhNb": null,
    "FaxNb": null
  },
  "Rgstn": [
    {
      "FirmType": 0,
      "St": 0,
      "Dt": "2004-07-08T00:00:00"
    }
  ],
  "NoticeFiled": [
    {
      "RgltrCd": 39,
      "St": 1,
      "StSpecified": true,
      "Dt": "2004-07-08T00:00:00",
      "DtSpecified": true
    },
    {
      "RgltrCd": 32,
      "St": 1,
      "StSpecified": true,
      "Dt": "2005-11-03T00:00:00",
      "DtSpecified": true
    },
    {
      "RgltrCd": 36,
      "St": 1,
      "StSpecified": true,
      "Dt": "2005-11-03T00:00:00",
      "DtSpecified": true
    },
    {
      "RgltrCd": 9,
      "St": 1,
      "StSpecified": true,
      "Dt": "2005-11-04T00:00:00",
      "DtSpecified": true
    },
    {
      "RgltrCd": 45,
      "St": 1,
      "StSpecified": true,
      "Dt": "2005-11-18T00:00:00",
      "DtSpecified": true
    },
    {
      "RgltrCd": 7,
      "St": 1,
      "StSpecified": true,
      "Dt": "2007-03-28T00:00:00",
      "DtSpecified": true
    },
    {
      "RgltrCd": 21,
      "St": 1,
      "StSpecified": true,
      "Dt": "2007-03-28T00:00:00",
      "DtSpecified": true
    },
    {
      "RgltrCd": 47,
      "St": 1,
      "StSpecified": true,
      "Dt": "2007-03-28T00:00:00",
      "DtSpecified": true
    },
    {
      "RgltrCd": 30,
      "St": 1,
      "StSpecified": true,
      "Dt": "2007-08-08T00:00:00",
      "DtSpecified": true
    },
    {
      "RgltrCd": 28,
      "St": 1,
      "StSpecified": true,
      "Dt": "2011-09-26T00:00:00",
      "DtSpecified": true
    },
    {
      "RgltrCd": 20,
      "St": 1,
      "StSpecified": true,
      "Dt": "2016-01-13T00:00:00",
      "DtSpecified": true
    },
    {
      "RgltrCd": 35,
      "St": 1,
      "StSpecified": true,
      "Dt": "2016-01-13T00:00:00",
      "DtSpecified": true
    }
  ],
  "Filing": [
    {
      "Dt": "2016-03-23T00:00:00",
      "FormVrsn": "10/2012"
    }
  ],
  "FormInfo": {
    "Part1A": {
      "Item1": {
        "WebAddrs": [
          "HTTP://WWW.CORNERSTONE-COMPANIES.COM"
        ],
        "Q1I": 0,
        "Q1ISpecified": true,
        "Q1M": 1,
        "Q1MSpecified": true,
        "Q1N": 1,
        "Q1NSpecified": true,
        "CIKNbSpecified": false,
        "Q1O": 1,
        "Q1OSpecified": true,
        "Q1P": null
      },
      "Item2A": {
        "Q2A1": 0,
        "Q2A1Specified": true,
        "Q2A2": 1,
        "Q2A2Specified": true,
        "Q2A3": 1,
        "Q2A3Specified": true,
        "Q2A4": 1,
        "Q2A4Specified": true,
        "Q2A5": 1,
        "Q2A5Specified": true,
        "Q2A6": 1,
        "Q2A6Specified": true,
        "Q2A7": 0,
        "Q2A7Specified": true,
        "Q2A8": 1,
        "Q2A8Specified": true,
        "Q2A9": 1,
        "Q2A9Specified": true,
        "Q2A10": 1,
        "Q2A10Specified": true,
        "Q2A11": 1,
        "Q2A11Specified": true,
        "Q2A12": 1,
        "Q2A12Specified": true,
        "Q2A13": 1,
        "Q2A13Specified": true
      },
      "Item2B": {
        "Q2B1Specified": false,
        "Q2B2Specified": false,
        "Q2B3Specified": false
      },
      "Item3A": {
        "OrgFormNm": "Corporation",
        "OrgFormOthNm": null
      },
      "Item3B": {
        "Q3B": "DECEMBER"
      },
      "Item3C": {
        "StateCD": 39,
        "StateCDSpecified": true,
        "CntryNm": "United States"
      },
      "Item5A": {
        "TtlEmp": "22"
      },
      "Item5B": {
        "Q5B1": "20",
        "Q5B2": "20",
        "Q5B3": "20",
        "Q5B4": "20",
        "Q5B5": "12",
        "Q5B6": "1"
      },
      "Item5C": {
        "Q5C1": "More than 100",
        "Q5C1Oth": "200",
        "Q5C2": "0"
      },
      "Item5D": {
        "Q5D1A": "26-50 percent",
        "Q5D1B": "26-50 percent",
        "Q5D1C": "0 percent",
        "Q5D1D": "0 percent",
        "Q5D1E": "0 percent",
        "Q5D1F": "0 percent",
        "Q5D1G": "26-50 percent",
        "Q5D1H": "Up to 10 percent",
        "Q5D1I": "0 percent",
        "Q5D1J": "Up to 10 percent",
        "Q5D1K": "0 percent",
        "Q5D1L": "0 percent",
        "Q5D1M": "0 percent",
        "Q5D1MOth": null,
        "Q5D2A": "Up to 25 percent",
        "Q5D2B": "Up to 25 percent",
        "Q5D2C": "0 percent",
        "Q5D2D": "0 percent",
        "Q5D2E": "0 percent",
        "Q5D2F": "0 percent",
        "Q5D2G": "Up to 75 percent",
        "Q5D2H": "Up to 25 percent",
        "Q5D2I": "0 percent",
        "Q5D2J": "Up to 25 percent",
        "Q5D2K": "0 percent",
        "Q5D2L": "0 percent",
        "Q5D2M": "0 percent",
        "Q5D2MOth": null
      },
      "Item5E": {
        "Q5E1": 0,
        "Q5E1Specified": true,
        "Q5E2": 1,
        "Q5E2Specified": true,
        "Q5E3": 1,
        "Q5E3Specified": true,
        "Q5E4": 0,
        "Q5E4Specified": true,
        "Q5E5": 1,
        "Q5E5Specified": true,
        "Q5E6": 1,
        "Q5E6Specified": true,
        "Q5E7": 1,
        "Q5E7Specified": true,
        "Q5E7Oth": null
      },
      "Item5F": {
        "Q5F1": 0,
        "Q5F1Specified": true,
        "Q5F2A": 225038820.0,
        "Q5F2ASpecified": true,
        "Q5F2B": 405966567.0,
        "Q5F2BSpecified": true,
        "Q5F2C": 631005387.0,
        "Q5F2CSpecified": true,
        "Q5F2D": "341",
        "Q5F2E": "71",
        "Q5F2F": "412"
      },
      "Item5G": {
        "Q5G1": 0,
        "Q5G1Specified": true,
        "Q5G2": 0,
        "Q5G2Specified": true,
        "Q5G3": 1,
        "Q5G3Specified": true,
        "Q5G4": 1,
        "Q5G4Specified": true,
        "Q5G5": 0,
        "Q5G5Specified": true,
        "Q5G6": 0,
        "Q5G6Specified": true,
        "Q5G7": 1,
        "Q5G7Specified": true,
        "Q5G8": 1,
        "Q5G8Specified": true,
        "Q5G9": 1,
        "Q5G9Specified": true,
        "Q5G10": 1,
        "Q5G10Specified": true,
        "Q5G11": 0,
        "Q5G11Specified": true,
        "Q5G12": 1,
        "Q5G12Specified": true,
        "Q5G12Oth": null
      },
      "Item5H": {
        "Q5H": "1-10",
        "Q5HMT500": null
      },
      "Item5I": {
        "Q5I1": 1,
        "Q5I1Specified": true,
        "Q5I2": 1,
        "Q5I2Specified": true
      },
      "Item5J": {
        "Q5J": 1,
        "Q5JSpecified": true
      },
      "Item6A": {
        "Q6A1": 1,
        "Q6A1Specified": true,
        "Q6A2": 0,
        "Q6A2Specified": true,
        "Q6A3": 1,
        "Q6A3Specified": true,
        "Q6A4": 1,
        "Q6A4Specified": true,
        "Q6A5": 1,
        "Q6A5Specified": true,
        "Q6A6": 0,
        "Q6A6Specified": true,
        "Q6A7": 1,
        "Q6A7Specified": true,
        "Q6A8": 1,
        "Q6A8Specified": true,
        "Q6A9": 1,
        "Q6A9Specified": true,
        "Q6A10": 1,
        "Q6A10Specified": true,
        "Q6A11": 1,
        "Q6A11Specified": true,
        "Q6A12": 1,
        "Q6A12Specified": true,
        "Q6A13": 1,
        "Q6A13Specified": true,
        "Q6A14": 1,
        "Q6A14Specified": true,
        "Q6A14Oth": null
      },
      "Item6B": {
        "Q6B1": 1,
        "Q6B1Specified": true,
        "Q6B3": 0,
        "Q6B3Specified": true,
        "Q6B2Specified": false
      },
      "Item7A": {
        "Q7A1": 1,
        "Q7A1Specified": true,
        "Q7A2": 0,
        "Q7A2Specified": true,
        "Q7A3": 1,
        "Q7A3Specified": true,
        "Q7A4": 1,
        "Q7A4Specified": true,
        "Q7A5": 1,
        "Q7A5Specified": true,
        "Q7A6": 1,
        "Q7A6Specified": true,
        "Q7A7": 1,
        "Q7A7Specified": true,
        "Q7A8": 1,
        "Q7A8Specified": true,
        "Q7A9": 1,
        "Q7A9Specified": true,
        "Q7A10": 1,
        "Q7A10Specified": true,
        "Q7A11": 1,
        "Q7A11Specified": true,
        "Q7A12": 1,
        "Q7A12Specified": true,
        "Q7A13": 0,
        "Q7A13Specified": true,
        "Q7A14": 1,
        "Q7A14Specified": true,
        "Q7A15": 1,
        "Q7A15Specified": true,
        "Q7A16": 1,
        "Q7A16Specified": true
      },
      "Item7B": {
        "Q7B": 1,
        "Q7BSpecified": true
      },
      "Item8A": {
        "Q8A1": 1,
        "Q8A1Specified": true,
        "Q8A2": 1,
        "Q8A2Specified": true,
        "Q8A3": 1,
        "Q8A3Specified": true
      },
      "Item8B": {
        "Q8B1": 1,
        "Q8B1Specified": true,
        "Q8B2": 1,
        "Q8B2Specified": true,
        "Q8B3": 1,
        "Q8B3Specified": true
      },
      "Item8C": {
        "Q8C1": 0,
        "Q8C1Specified": true,
        "Q8C2": 0,
        "Q8C2Specified": true,
        "Q8C3": 0,
        "Q8C3Specified": true,
        "Q8C4": 0,
        "Q8C4Specified": true
      },
      "Item8D": {
        "Q8D": 1,
        "Q8DSpecified": true
      },
      "Item8E": {
        "Q8E": 0,
        "Q8ESpecified": true
      },
      "Item8F": {
        "Q8F": 1,
        "Q8FSpecified": true
      },
      "Item8G": {
        "Q8G1": 1,
        "Q8G1Specified": true,
        "Q8G2Specified": false
      },
      "Item8H": {
        "Q8H": 0,
        "Q8HSpecified": true
      },
      "Item8I": {
        "Q8I": 0,
        "Q8ISpecified": true
      },
      "Item9A": {
        "Q9A1A": 1,
        "Q9A1ASpecified": true,
        "Q9A1B": 1,
        "Q9A1BSpecified": true,
        "Q9A2ASpecified": false,
        "Q9A2B": null
      },
      "Item9B": {
        "Q9B1A": 1,
        "Q9B1ASpecified": true,
        "Q9B1B": 1,
        "Q9B1BSpecified": true,
        "Q9B2ASpecified": false,
        "Q9B2B": null
      },
      "Item9C": {
        "Q9C1": 1,
        "Q9C1Specified": true,
        "Q9C2": 1,
        "Q9C2Specified": true,
        "Q9C3": 1,
        "Q9C3Specified": true,
        "Q9C4": 1,
        "Q9C4Specified": true
      },
      "Item9D": {
        "Q9D1": 1,
        "Q9D1Specified": true,
        "Q9D2": 1,
        "Q9D2Specified": true
      },
      "Item9E": {
        "Q9E": null
      },
      "Item9F": {
        "Q9F": null
      },
      "Item10A": {
        "Q10A": 1,
        "Q10ASpecified": true
      },
      "Item11": {
        "Q11": 1,
        "Q11Specified": true
      },
      "Item11A": {
        "Q11A1": 1,
        "Q11A1Specified": true,
        "Q11A2": 1,
        "Q11A2Specified": true
      },
      "Item11B": {
        "Q11B1": 1,
        "Q11B1Specified": true,
        "Q11B2": 1,
        "Q11B2Specified": true
      },
      "Item11C": {
        "Q11C1": 1,
        "Q11C1Specified": true,
        "Q11C2": 1,
        "Q11C2Specified": true,
        "Q11C3": 1,
        "Q11C3Specified": true,
        "Q11C4": 1,
        "Q11C4Specified": true,
        "Q11C5": 1,
        "Q11C5Specified": true
      },
      "Item11D": {
        "Q11D1": 1,
        "Q11D1Specified": true,
        "Q11D2": 1,
        "Q11D2Specified": true,
        "Q11D3": 1,
        "Q11D3Specified": true,
        "Q11D4": 1,
        "Q11D4Specified": true,
        "Q11D5": 1,
        "Q11D5Specified": true
      },
      "Item11E": {
        "Q11E1": 1,
        "Q11E1Specified": true,
        "Q11E2": 1,
        "Q11E2Specified": true,
        "Q11E3": 1,
        "Q11E3Specified": true,
        "Q11E4": 1,
        "Q11E4Specified": true
      },
      "Item11F": {
        "Q11F": 1,
        "Q11FSpecified": true
      },
      "Item11G": {
        "Q11G": 1,
        "Q11GSpecified": true
      },
      "Item11H": {
        "Q11H1A": 1,
        "Q11H1ASpecified": true,
        "Q11H1B": 1,
        "Q11H1BSpecified": true,
        "Q11H1C": 1,
        "Q11H1CSpecified": true,
        "Q11H2": 1,
        "Q11H2Specified": true
      }
    }
  },
  "Reps": {
    "1013493": "COWEN, MALCOLM LEE",
    "1520689": "SCALICI, THOMAS JOSEPH",
    "2682591": "GILBERT, TIFFANY ANN",
    "2796906": "BAUDER, JENNIFER VALERIE",
    "4442939": "KARPUK, KEVIN (NMN)",
    "4455861": "ZAMBELLI, MICHAEL JOSEPH",
    "4508035": "LAKATOSH, CHRISTOPHER WILLIAM",
    "4580671": "WOOD, RYAN D",
    "4890829": "BOBECK, BRIAN DANIEL",
    "4946840": "MILLER, RITA DANIELLE",
    "4960001": "PAPAZ, TYLER JAMES",
    "5144127": "REID, TREVOR MARKWOOD",
    "5244565": "LONG, JESSICA MARIE",
    "5362867": "STRAUBEL, MICHAEL MORGAN",
    "5693671": "MCKINLEY, CHRISTOPHER JOHN",
    "5839450": "OSTE, ANGELA NICOLE",
    "6191053": "ZYM, MATTHEW JOHN",
    "6378178": "BATES, WHITNEY ROSE"
  }
}