{
  "Info": {
    "SECRgnCD": 5,
    "SECRgnCDSpecified": true,
    "FirmCrdNb": "816",
    "SECNb": "801-56264",
    "BusNm": "CREDIT SUISSE SECURITIES (USA) LLC",
    "LegalNm": "CREDIT SUISSE SECURITIES (USA) LLC"
  },
  "MainAddr": {
    "Strt1": "ONE MADISON AVENUE",
    "Strt2": null,
    "City": "NEW YORK",
    "State": 35,
    "StateSpecified": true,
    "Cntry": "United States",
    "PostlCd": "10010",
    "PhNb": "(212)325-2000",
    "FaxNb": "(212)325-8222"
  },
  "MailingAddr": {
    "Strt1": "ONE MADISON AVENUE",
    "Strt2": "9TH FLOOR",
    "City": "NEW YORK",
    "State": 35,
    "StateSpecified": true,
    "Cntry": "United States",
    "PostlCd": "10010",
    "PhNb": null,
    "FaxNb": null
  },
  "Rgstn": [
    {
      "FirmType": 0,
      "St": 0,
      "Dt": "1999-03-12T00:00:00"
    }
  ],
  "NoticeFiled": [
    {
      "RgltrCd": 39,
      "St": 1,
      "StSpecified": true,
      "Dt": "1932-07-14T00:00:00",
      "DtSpecified": true
    },
    {
      "RgltrCd": 45,
      "St": 1,
      "StSpecified": true,
      "Dt": "1983-01-01T00:00:00",
      "DtSpecified": true
    },
    {
      "RgltrCd": 9,
      "St": 1,
      "StSpecified": true,
      "Dt": "1991-07-22T00:00:00",
      "DtSpecified": true
    },
    {
      "RgltrCd": 47,
      "St": 1,
      "StSpecified": true,
      "Dt": "1991-08-14T00:00:00",
      "DtSpecified": true
    },
    {
      "RgltrCd": 32,
      "St": 1,
      "StSpecified": true,
      "Dt": "1992-09-05T00:00:00",
      "DtSpecified": true
    },
    {
      "RgltrCd": 35,
      "St": 1,
      "StSpecified": true,
      "Dt": "1994-01-31T00:00:00",
      "DtSpecified": true
    },
    {
      "RgltrCd": 46,
      "St": 1,
      "StSpecified": true,
      "Dt": "1994-05-23T00:00:00",
      "DtSpecified": true
    },
    {
      "RgltrCd": 14,
      "St": 1,
      "StSpecified": true,
      "Dt": "1994-06-09T00:00:00",
      "DtSpecified": true
    },
    {
      "RgltrCd": 21,
      "St": 1,
      "StSpecified": true,
      "Dt": "1996-01-23T00:00:00",
      "DtSpecified": true
    },
    {
      "RgltrCd": 41,
      "St": 1,
      "StSpecified": true,
      "Dt": "1997-01-01T00:00:00",
      "DtSpecified": true
    },
    {
      "RgltrCd": 34,
      "St": 1,
      "StSpecified": true,
      "Dt": "2000-01-03T00:00:00",
      "DtSpecified": true
    },
    {
      "RgltrCd": 31,
      "St": 1,
      "StSpecified": true,
      "Dt": "2000-02-02T00:00:00",
      "DtSpecified": true
    },
    {
      "RgltrCd": 4,
      "St": 1,
      "StSpecified": true,
      "Dt": "2000-02-04T00:00:00",
      "DtSpecified": true
    },
    {
      "RgltrCd": 51,
      "St": 1,
      "StSpecified": true,
      "Dt": "2000-02-04T00:00:00",
      "DtSpecified": true
    },
    {
      "RgltrCd": 33,
      "St": 1,
      "StSpecified": true,
      "Dt": "2000-02-07T00:00:00",
      "DtSpecified": true
    },
    {
      "RgltrCd": 25,
      "St": 1,
      "StSpecified": true,
      "Dt": "2000-02-17T00:00:00",
      "DtSpecified": true
    },
    {
      "RgltrCd": 23,
      "St": 1,
      "StSpecified": true,
      "Dt": "2000-04-04T00:00:00",
      "DtSpecified": true
    },
    {
      "RgltrCd": 3,
      "St": 1,
      "StSpecified": true,
      "Dt": "2000-04-21T00:00:00",
      "DtSpecified": true
    },
    {
      "RgltrCd": 50,
      "St": 1,
      "StSpecified": true,
      "Dt": "2000-04-23T00:00:00",
      "DtSpecified": true
    },
    {
      "RgltrCd": 38,
      "St": 1,
      "StSpecified": true,
      "Dt": "2000-04-25T00:00:00",
      "DtSpecified": true
    },
    {
      "RgltrCd": 49,
      "St": 1,
      "StSpecified": true,
      "Dt": "2000-04-25T00:00:00",
      "DtSpecified": true
    },
    {
      "RgltrCd": 0,
      "St": 1,
      "StSpecified": true,
      "Dt": "2000-05-08T00:00:00",
      "DtSpecified": true
    },
    {
      "RgltrCd": 2,
      "St": 1,
      "StSpecified": true,
      "Dt": "2000-06-19T00:00:00",
      "DtSpecified": true
    },
    {
      "RgltrCd": 6,
      "St": 1,
      "StSpecified": true,
      "Dt": "2000-06-21T00:00:00",
      "DtSpecified": true
    },
    {
      "RgltrCd": 10,
      "St": 1,
      "StSpecified": true,
      "Dt": "2000-06-21T00:00:00",
      "DtSpecified": true
    },
    {
      "RgltrCd": 13,
      "St": 1,
      "StSpecified": true,
      "Dt": "2000-06-21T00:00:00",
      "DtSpecified": true
    },
    {
      "RgltrCd": 17,
      "St": 1,
      "StSpecified": true,
      "Dt": "2000-06-21T00:00:00",
      "DtSpecified": true
    },
    {
      "RgltrCd": 18,
      "St": 1,
      "StSpecified": true,
      "Dt": "2000-06-21T00:00:00",
      "DtSpecified": true
    },
    {
      "RgltrCd": 15,
      "St": 1,
      "StSpecified": true,
      "Dt": "2000-06-23T00:00:00",
      "DtSpecified": true
    },
    {
      "RgltrCd": 26,
      "St": 1,
      "StSpecified": true,
      "Dt": "2000-06-23T00:00:00",
      "DtSpecified": true
    },
    {
      "RgltrCd": 29,
      "St": 1,
      "StSpecified": true,
      "Dt": "2000-06-23T00:00:00",
      "DtSpecified": true
    },
    {
      "RgltrCd": 30,
      "St": 1,
      "StSpecified": true,
      "Dt": "2000-06-23T00:00:00",
      "DtSpecified": true
    },
    {
      "RgltrCd": 43,
      "St": 1,
      "StSpecified": true,
      "Dt": "2000-06-23T00:00:00",
      "DtSpecified": true
    },
    {
      "RgltrCd": 40,
      "St": 1,
      "StSpecified": true,
      "Dt": "2000-06-26T00:00:00",
      "DtSpecified": true
    },
    {
      "RgltrCd": 48,
      "St": 1,
      "StSpecified": true,
      "Dt": "2000-06-27T00:00:00",
      "DtSpecified": true
    },
    {
      "RgltrCd": 27,
      "St": 1,
      "StSpecified": true,
      "Dt": "2000-06-28T00:00:00",
      "DtSpecified": true
    },
    {
      "RgltrCd": 42,
      "St": 1,
      "StSpecified": true,
      "Dt": "2000-06-28T00:00:00",
      "DtSpecified": true
    },
    {
      "RgltrCd": 36,
      "St": 1,
      "StSpecified": true,
      "Dt": "2000-06-29T00:00:00",
      "DtSpecified": true
    },
    {
      "RgltrCd": 44,
      "St": 1,
      "StSpecified": true,
      "Dt": "2000-06-29T00:00:00",
      "DtSpecified": true
    },
    {
      "RgltrCd": 7,
      "St": 1,
      "StSpecified": true,
      "Dt": "2000-07-05T00:00:00",
      "DtSpecified": true
    },
    {
      "RgltrCd": 37,
      "St": 1,
      "StSpecified": true,
      "Dt": "2000-07-06T00:00:00",
      "DtSpecified": true
    },
    {
      "RgltrCd": 24,
      "St": 1,
      "StSpecified": true,
      "Dt": "2000-07-19T00:00:00",
      "DtSpecified": true
    },
    {
      "RgltrCd": 12,
      "St": 1,
      "StSpecified": true,
      "Dt": "2000-07-24T00:00:00",
      "DtSpecified": true
    },
    {
      "RgltrCd": 16,
      "St": 1,
      "StSpecified": true,
      "Dt": "2000-11-08T00:00:00",
      "DtSpecified": true
    },
    {
      "RgltrCd": 1,
      "St": 1,
      "StSpecified": true,
      "Dt": "2000-12-12T00:00:00",
      "DtSpecified": true
    },
    {
      "RgltrCd": 28,
      "St": 1,
      "StSpecified": true,
      "Dt": "2000-12-18T00:00:00",
      "DtSpecified": true
    },
    {
      "RgltrCd": 19,
      "St": 1,
      "StSpecified": true,
      "Dt": "2001-10-02T00:00:00",
      "DtSpecified": true
    },
    {
      "RgltrCd": 22,
      "St": 1,
      "StSpecified": true,
      "Dt": "2002-01-30T00:00:00",
      "DtSpecified": true
    },
    {
      "RgltrCd": 8,
      "St": 1,
      "StSpecified": true,
      "Dt": "2003-09-22T00:00:00",
      "DtSpecified": true
    },
    {
      "RgltrCd": 53,
      "St": 1,
      "StSpecified": true,
      "Dt": "2008-03-31T00:00:00",
      "DtSpecified": true
    }
  ],
  "Filing": [
    {
      "Dt": "2016-05-17T00:00:00",
      "FormVrsn": "10/2012"
    }
  ],
  "FormInfo": {
    "Part1A": {
      "Item1": {
        "WebAddrs": [
          "HTTP://WWW.CREDIT-SUISSE.COM"
        ],
        "Q1I": 0,
        "Q1ISpecified": true,
        "Q1M": 0,
        "Q1MSpecified": true,
        "Q1N": 1,
        "Q1NSpecified": true,
        "CIKNbSpecified": false,
        "Q1O": 1,
        "Q1OSpecified": true,
        "Q1P": "1V8Y6QCX6YMJ2OELII46"
      },
      "Item2A": {
        "Q2A1": 1,
        "Q2A1Specified": true,
        "Q2A2": 1,
        "Q2A2Specified": true,
        "Q2A3": 1,
        "Q2A3Specified": true,
        "Q2A4": 1,
        "Q2A4Specified": true,
        "Q2A5": 1,
        "Q2A5Specified": true,
        "Q2A6": 1,
        "Q2A6Specified": true,
        "Q2A7": 1,
        "Q2A7Specified": true,
        "Q2A8": 0,
        "Q2A8Specified": true,
        "Q2A9": 1,
        "Q2A9Specified": true,
        "Q2A10": 1,
        "Q2A10Specified": true,
        "Q2A11": 1,
        "Q2A11Specified": true,
        "Q2A12": 1,
        "Q2A12Specified": true,
        "Q2A13": 1,
        "Q2A13Specified": true
      },
      "Item2B": {
        "Q2B1Specified": false,
        "Q2B2Specified": false,
        "Q2B3Specified": false
      },
      "Item3A": {
        "OrgFormNm": "Limited Liability Company",
        "OrgFormOthNm": null
      },
      "Item3B": {
        "Q3B": "DECEMBER"
      },
      "Item3C": {
        "StateCD": 8,
        "StateCDSpecified": true,
        "CntryNm": "United States"
      },
      "Item5A": {
        "TtlEmp": "8332"
      },
      "Item5B": {
        "Q5B1": "7",
        "Q5B2": "3298",
        "Q5B3": "0",
        "Q5B4": "0",
        "Q5B5": "0",
        "Q5B6": "0"
      },
      "Item5C": {
        "Q5C1": "26-100",
        "Q5C1Oth": null,
        "Q5C2": "79"
      },
      "Item5D": {
        "Q5D1A": "0 percent",
        "Q5D1B": "100 percent",
        "Q5D1C": "0 percent",
        "Q5D1D": "0 percent",
        "Q5D1E": "0 percent",
        "Q5D1F": "0 percent",
        "Q5D1G": "0 percent",
        "Q5D1H": "0 percent",
        "Q5D1I": "0 percent",
        "Q5D1J": "0 percent",
        "Q5D1K": "0 percent",
        "Q5D1L": "0 percent",
        "Q5D1M": "0 percent",
        "Q5D1MOth": null,
        "Q5D2A": "0 percent",
        "Q5D2B": "More than 75 percent",
        "Q5D2C": "0 percent",
        "Q5D2D": "0 percent",
        "Q5D2E": "0 percent",
        "Q5D2F": "0 percent",
        "Q5D2G": "0 percent",
        "Q5D2H": "0 percent",
        "Q5D2I": "0 percent",
        "Q5D2J": "0 percent",
        "Q5D2K": "0 percent",
        "Q5D2L": "0 percent",
        "Q5D2M": "0 percent",
        "Q5D2MOth": null
      },
      "Item5E": {
        "Q5E1": 0,
        "Q5E1Specified": true,
        "Q5E2": 1,
        "Q5E2Specified": true,
        "Q5E3": 1,
        "Q5E3Specified": true,
        "Q5E4": 1,
        "Q5E4Specified": true,
        "Q5E5": 1,
        "Q5E5Specified": true,
        "Q5E6": 0,
        "Q5E6Specified": true,
        "Q5E7": 0,
        "Q5E7Specified": true,
        "Q5E7Oth": "TRANSACTION-BASED FEE"
      },
      "Item5F": {
        "Q5F1": 0,
        "Q5F1Specified": true,
        "Q5F2A": 13814078.0,
        "Q5F2ASpecified": true,
        "Q5F2B": 121489999.0,
        "Q5F2BSpecified": true,
        "Q5F2C": 135304077.0,
        "Q5F2CSpecified": true,
        "Q5F2D": "3",
        "Q5F2E": "98",
        "Q5F2F": "101"
      },
      "Item5G": {
        "Q5G1": 1,
        "Q5G1Specified": true,
        "Q5G2": 0,
        "Q5G2Specified": true,
        "Q5G3": 1,
        "Q5G3Specified": true,
        "Q5G4": 0,
        "Q5G4Specified": true,
        "Q5G5": 1,
        "Q5G5Specified": true,
        "Q5G6": 1,
        "Q5G6Specified": true,
        "Q5G7": 1,
        "Q5G7Specified": true,
        "Q5G8": 1,
        "Q5G8Specified": true,
        "Q5G9": 1,
        "Q5G9Specified": true,
        "Q5G10": 1,
        "Q5G10Specified": true,
        "Q5G11": 1,
        "Q5G11Specified": true,
        "Q5G12": 1,
        "Q5G12Specified": true,
        "Q5G12Oth": null
      },
      "Item5H": {
        "Q5H": "0",
        "Q5HMT500": null
      },
      "Item5I": {
        "Q5I1": 1,
        "Q5I1Specified": true,
        "Q5I2": 1,
        "Q5I2Specified": true
      },
      "Item5J": {
        "Q5J": 1,
        "Q5JSpecified": true
      },
      "Item6A": {
        "Q6A1": 0,
        "Q6A1Specified": true,
        "Q6A2": 1,
        "Q6A2Specified": true,
        "Q6A3": 1,
        "Q6A3Specified": true,
        "Q6A4": 0,
        "Q6A4Specified": true,
        "Q6A5": 1,
        "Q6A5Specified": true,
        "Q6A6": 1,
        "Q6A6Specified": true,
        "Q6A7": 1,
        "Q6A7Specified": true,
        "Q6A8": 1,
        "Q6A8Specified": true,
        "Q6A9": 1,
        "Q6A9Specified": true,
        "Q6A10": 1,
        "Q6A10Specified": true,
        "Q6A11": 1,
        "Q6A11Specified": true,
        "Q6A12": 1,
        "Q6A12Specified": true,
        "Q6A13": 1,
        "Q6A13Specified": true,
        "Q6A14": 1,
        "Q6A14Specified": true,
        "Q6A14Oth": null
      },
      "Item6B": {
        "Q6B1": 1,
        "Q6B1Specified": true,
        "Q6B3": 1,
        "Q6B3Specified": true,
        "Q6B2Specified": false
      },
      "Item7A": {
        "Q7A1": 0,
        "Q7A1Specified": true,
        "Q7A2": 0,
        "Q7A2Specified": true,
        "Q7A3": 1,
        "Q7A3Specified": true,
        "Q7A4": 1,
        "Q7A4Specified": true,
        "Q7A5": 1,
        "Q7A5Specified": true,
        "Q7A6": 0,
        "Q7A6Specified": true,
        "Q7A7": 0,
        "Q7A7Specified": true,
        "Q7A8": 0,
        "Q7A8Specified": true,
        "Q7A9": 0,
        "Q7A9Specified": true,
        "Q7A10": 1,
        "Q7A10Specified": true,
        "Q7A11": 1,
        "Q7A11Specified": true,
        "Q7A12": 0,
        "Q7A12Specified": true,
        "Q7A13": 1,
        "Q7A13Specified": true,
        "Q7A14": 1,
        "Q7A14Specified": true,
        "Q7A15": 0,
        "Q7A15Specified": true,
        "Q7A16": 0,
        "Q7A16Specified": true
      },
      "Item7B": {
        "Q7B": 0,
        "Q7BSpecified": true
      },
      "Item8A": {
        "Q8A1": 0,
        "Q8A1Specified": true,
        "Q8A2": 0,
        "Q8A2Specified": true,
        "Q8A3": 0,
        "Q8A3Specified": true
      },
      "Item8B": {
        "Q8B1": 1,
        "Q8B1Specified": true,
        "Q8B2": 0,
        "Q8B2Specified": true,
        "Q8B3": 0,
        "Q8B3Specified": true
      },
      "Item8C": {
        "Q8C1": 0,
        "Q8C1Specified": true,
        "Q8C2": 0,
        "Q8C2Specified": true,
        "Q8C3": 1,
        "Q8C3Specified": true,
        "Q8C4": 1,
        "Q8C4Specified": true
      },
      "Item8D": {
        "Q8D": 1,
        "Q8DSpecified": true
      },
      "Item8E": {
        "Q8E": 1,
        "Q8ESpecified": true
      },
      "Item8F": {
        "Q8F": 1,
        "Q8FSpecified": true
      },
      "Item8G": {
        "Q8G1": 1,
        "Q8G1Specified": true,
        "Q8G2": 1,
        "Q8G2Specified": true
      },
      "Item8H": {
        "Q8H": 0,
        "Q8HSpecified": true
      },
      "Item8I": {
        "Q8I": 1,
        "Q8ISpecified": true
      },
      "Item9A": {
        "Q9A1A": 1,
        "Q9A1ASpecified": true,
        "Q9A1B": 1,
        "Q9A1BSpecified": true,
        "Q9A2A": 0.0,
        "Q9A2ASpecified": true,
        "Q9A2B": "0"
      },
      "Item9B": {
        "Q9B1A": 1,
        "Q9B1ASpecified": true,
        "Q9B1B": 1,
        "Q9B1BSpecified": true,
        "Q9B2A": 0.0,
        "Q9B2ASpecified": true,
        "Q9B2B": "0"
      },
      "Item9C": {
        "Q9C1": 1,
        "Q9C1Specified": true,
        "Q9C2": 1,
        "Q9C2Specified": true,
        "Q9C3": 1,
        "Q9C3Specified": true,
        "Q9C4": 1,
        "Q9C4Specified": true
      },
      "Item9D": {
        "Q9D1": 1,
        "Q9D1Specified": true,
        "Q9D2": 1,
        "Q9D2Specified": true
      },
      "Item9E": {
        "Q9E": null
      },
      "Item9F": {
        "Q9F": null
      },
      "Item10A": {
        "Q10A": 1,
        "Q10ASpecified": true
      },
      "Item11": {
        "Q11": 0,
        "Q11Specified": true
      },
      "Item11A": {
        "Q11A1": 0,
        "Q11A1Specified": true,
        "Q11A2": 0,
        "Q11A2Specified": true
      },
      "Item11B": {
        "Q11B1": 0,
        "Q11B1Specified": true,
        "Q11B2": 1,
        "Q11B2Specified": true
      },
      "Item11C": {
        "Q11C1": 0,
        "Q11C1Specified": true,
        "Q11C2": 0,
        "Q11C2Specified": true,
        "Q11C3": 1,
        "Q11C3Specified": true,
        "Q11C4": 0,
        "Q11C4Specified": true,
        "Q11C5": 0,
        "Q11C5Specified": true
      },
      "Item11D": {
        "Q11D1": 0,
        "Q11D1Specified": true,
        "Q11D2": 0,
        "Q11D2Specified": true,
        "Q11D3": 0,
        "Q11D3Specified": true,
        "Q11D4": 0,
        "Q11D4Specified": true,
        "Q11D5": 0,
        "Q11D5Specified": true
      },
      "Item11E": {
        "Q11E1": 1,
        "Q11E1Specified": true,
        "Q11E2": 0,
        "Q11E2Specified": true,
        "Q11E3": 1,
        "Q11E3Specified": true,
        "Q11E4": 0,
        "Q11E4Specified": true
      },
      "Item11F": {
        "Q11F": 1,
        "Q11FSpecified": true
      },
      "Item11G": {
        "Q11G": 0,
        "Q11GSpecified": true
      },
      "Item11H": {
        "Q11H1A": 0,
        "Q11H1ASpecified": true,
        "Q11H1B": 0,
        "Q11H1BSpecified": true,
        "Q11H1C": 1,
        "Q11H1CSpecified": true,
        "Q11H2": 0,
        "Q11H2Specified": true
      }
    }
  },
  "Reps": {
    "1130149": "MAVRIKOS, JAMES THEODORE",
    "1377740": "WALKER, JAMES FRANCIS",
    "1473855": "TUCKER, JEFFREY GRANT",
    "1754521": "GRAY, SEAN CHRISTOPHER",
    "2079036": "PALIOTTA, MICHAEL JOSEPH",
    "2274169": "MURPHY, STEPHEN FRANCIS",
    "2331173": "MULCAHY, TIMOTHY ENEAS",
    "2367350": "LUONGO, PATRICK ANTHONY",
    "2370678": "DAVIS, PAUL PATRICK",
    "2424800": "SHAFFER, CHARLES MILTON",
    "2431270": "BEDASSIE, CINTRA",
    "2622932": "DADDARIO, ROBERT ANTHONY",
    "2670015": "JENSEN, JILL ANN",
    "2738704": "ROSENTHAL, LISSA AILEEN",
    "2934822": "KUNG, YUNG-SHIN",
    "3060303": "WALTERS, ELLEN JANE",
    "3069969": "ARONGINO, MARC A",
    "3152338": "GASHTI, BHUMIKA P",
    "3235893": "ADAM, KEVIN R",
    "3266413": "GHISLANDI, EDWARD AMBROSE",
    "4009389": "LUPO, JOSEPH DANIEL, JR.",
    "4089337": "KAGNO, DAVID LANE",
    "4314179": "CARR, RYAN ROBERT",
    "4363754": "GUARIN, M. CECILIA",
    "4397636": "GREGORY, MATTHEW R",
    "4413757": "TOBIN, SEAN MICHAEL",
    "4456116": "TIPS, DAVID SPEAKMAN",
    "4463296": "BORDES, JOHN L., III",
    "4484361": "HILLMAN, THOMAS G.",
    "4501826": "DAINTON, BRIAN J.",
    "4502427": "KARNICK, ELIZABETH WARNER",
    "4502946": "BOCK, STEVEN MARTIN",
    "4503053": "MATTHEWS, BRYANT A.",
    "4503068": "VALENTINAS, MICHAEL JAMES",
    "4544004": "DILL, THOMAS ALLEN",
    "4578360": "GOCHAL, MARY NAOMI",
    "4677743": "RIGUARDI, ANTHONY EDWARD",
    "4679227": "KRUSE, TRAVIS ROBERT",
    "4696252": "GRAZIANO, RON J",
    "4699367": "VAN HELL, HANS",
    "4757130": "DODSON, MARK FRANCIS",
    "4770629": "BESHARA, ANDREW JAMES",
    "4788793": "HARR, STEVEN THOMAS",
    "4813562": "COSSARO, PABLO ENRIQUE",
    "4895350": "HADI, SYED MOHAMMAD",
    "4931929": "DUKSIN, JEREMY A",
    "4973346": "CONDELLES, CHRISTOPHER ANTHONY",
    "4974446": "WHITE, PATRICK MICHAEL",
    "4999907": "STEFFANUS, ADAM D",
    "5023065": "KLEAR, LAUREN M",
    "5030234": "KEEFER, STEPHEN PERRY",
    "5048857": "VON FELDT, MEGAN R",
    "5100611": "MARTINEZ, MICHAEL A",
    "5108739": "LEE, JAMES W",
    "5131172": "GOSSETT, JASON PATRICK",
    "5147853": "HARMON, BRANDI K",
    "5165894": "HART, PATRICK JOHN",
    "5169198": "PODDAR, SUDIN",
    "5184535": "TYO, ALEXANDER ROBERT",
    "5209924": "KIDDE, HEATHER E",
    "5221884": "KLEIN, LAUREN ASHLEY",
    "5232921": "BECK, ALEXANDER GEORGE",
    "5312352": "HAAS, ELIZABETH ERIN",
    "5409326": "LAZARUS, ANDREW B",
    "5421647": "RATH, PRATYASHA",
    "5530770": "BOCCIO, RONALD LOUIS",
    "5531274": "EASTMAN, ASHOK",
    "5538257": "MURPHY, THOMAS C",
    "5551581": "EHINGER, KRISTEN E",
    "5603574": "KWONG, MICHELLE Bo Kay",
    "5621795": "Gross, AMY BETH",
    "5680760": "NEUSER, ALEXANDRA L",
    "5729356": "HARGENS, JOSHUA J",
    "5820760": "ARIAS DE DIEGO, ALVARO ALFREDO",
    "5881863": "STAUSS, CHRISTIAN A",
    "5943328": "LYNCH, ROBERT G",
    "5954170": "BECKER, RYAN JOSEPH",
    "5998065": "OSULLIVAN, JAMIE E",
    "6084224": "BARTH, STEPHEN FREDERICK",
    "6110529": "BUNN, ANNABELLE AUGUSTA",
    "6154112": "NEWELL, TAYLOR JAMES",
    "6177871": "MEENAGA, CHANDRA S",
    "6218356": "ZINKGRAF, ZACHARY P",
    "6323235": "STOCKSTILL, SAMUEL ROY",
    "6354193": "DE PERCIN, MICHAEL T",
    "6371632": "VERMA, NONITA",
    "6409114": "ANGELES DE LA SIERRA, ALICIA MAGALI",
    "6416586": "DEVARAPALLI, KIRAN KUMAR",
    "6503499": "BONFANTINI, LISA"
  }
}