{
  "Info": {
    "lastNm": "KEVERIAN PRESS",
    "firstNm": "LISA",
    "midNm": "ANN",
    "sufNm": null,
    "indvlPK": "1001173",
    "actvAGReg": 0,
    "link": "http://www.adviserinfo.sec.gov/IAPD/Individual/1001173"
  },
  "OthrNms": [
    {
      "lastNm": "KEVERIAN",
      "firstNm": "LISA",
      "midNm": "ANN",
      "sufNm": null
    },
    {
      "lastNm": "KEVERIAN",
      "firstNm": "LISA",
      "midNm": "ANN",
      "sufNm": null
    },
    {
      "lastNm": "KEVERIANPRESS",
      "firstNm": "LISA",
      "midNm": "ANN",
      "sufNm": null
    },
    {
      "lastNm": "KEVERIANPRESS",
      "firstNm": "LISA",
      "midNm": "ANN",
      "sufNm": null
    },
    {
      "lastNm": "PRESS",
      "firstNm": "LISA",
      "midNm": "ANN",
      "sufNm": null
    }
  ],
  "CrntEmps": [
    {
      "CrntRgstns": [
        {
          "regAuth": 15,
          "regCat": 0,
          "st": 2,
          "stDt": "1999-10-28T00:00:00"
        },
        {
          "regAuth": 4,
          "regCat": 0,
          "st": 2,
          "stDt": "2004-08-24T00:00:00"
        },
        {
          "regAuth": 9,
          "regCat": 0,
          "st": 2,
          "stDt": "2004-08-25T00:00:00"
        }
      ],
      "BrnchOfLocs": [
        {
          "str1": null,
          "str2": null,
          "city": "LAKEWOOD RANCH",
          "state": 9,
          "stateSpecified": true,
          "cntry": "United States",
          "postlCd": null
        },
        {
          "str1": "TWO NORTH TAMIAMI TRAIL",
          "str2": "ONE SARASOTA TOWER, STE 1200",
          "city": "SARASOTA",
          "state": 9,
          "stateSpecified": true,
          "cntry": "United States",
          "postlCd": "34236"
        }
      ],
      "orgNm": "ROBERT W. BAIRD & CO. INCORPORATED",
      "orgPK": "8158",
      "str1": "777 E. WISCONSIN AVE",
      "str2": null,
      "city": "MILWAUKEE",
      "state": 50,
      "stateSpecified": true,
      "cntry": "United States",
      "postlCd": "53202-5391"
    }
  ],
  "Exms": [
    {
      "exmCd": 0,
      "exmNm": "Uniform Securities Agent State Law Examination",
      "exmDt": "1991-12-12T00:00:00",
      "exmDtSpecified": true
    }
  ],
  "Dsgntns": [
    {
      "dsgntnNm": "Certified Financial Planner"
    }
  ],
  "PrevRgstns": [
    {
      "BrnchOfLocs": [
        {
          "city": "LAKE FOREST",
          "state": 15,
          "stateSpecified": true
        }
      ],
      "orgNm": "HERITAGE CAPITAL MANAGEMENT INC",
      "orgPK": "110383",
      "regBeginDt": "1999-07-30T00:00:00",
      "regBeginDtSpecified": true,
      "regEndDt": "2006-08-22T00:00:00",
      "regEndDtSpecified": true
    }
  ],
  "EmpHss": [
    {
      "fromDt": "10/1999",
      "toDt": null,
      "orgNm": "ROBERT W BAIRD & CO INC",
      "city": "LAKE FOREST",
      "state": 15,
      "stateSpecified": true
    }
  ],
  "OthrBuss": {
    "OthrBus": null
  },
  "DRPs": []
}