{
  "Info": {
    "lastNm": "CORBET",
    "firstNm": "MARGARET",
    "midNm": "GLENNON",
    "sufNm": null,
    "indvlPK": "1002075",
    "actvAGReg": 0,
    "link": "http://www.adviserinfo.sec.gov/IAPD/Individual/1002075"
  },
  "OthrNms": [],
  "CrntEmps": [
    {
      "CrntRgstns": [
        {
          "regAuth": 9,
          "regCat": 0,
          "st": 2,
          "stDt": "2009-06-01T00:00:00"
        },
        {
          "regAuth": 32,
          "regCat": 0,
          "st": 2,
          "stDt": "2009-06-01T00:00:00"
        }
      ],
      "BrnchOfLocs": [
        {
          "str1": "350 EAST LAS OLAS BLVD.",
          "str2": null,
          "city": "FT. LAUDERDALE",
          "state": 9,
          "stateSpecified": true,
          "cntry": "United States",
          "postlCd": "33301"
        }
      ],
      "orgNm": "MORGAN STANLEY",
      "orgPK": "149777",
      "str1": "2000 WESTCHESTER AVENUE",
      "str2": null,
      "city": "PURCHASE",
      "state": 35,
      "stateSpecified": true,
      "cntry": "United States",
      "postlCd": "10577-2530"
    }
  ],
  "Exms": [
    {
      "exmCd": 0,
      "exmNm": "Uniform Securities Agent State Law Examination",
      "exmDt": "1986-06-24T00:00:00",
      "exmDtSpecified": true
    }
  ],
  "Dsgntns": [],
  "PrevRgstns": [
    {
      "BrnchOfLocs": [
        {
          "city": "WESTFIELD",
          "state": 32,
          "stateSpecified": true
        }
      ],
      "orgNm": "LEGG MASON WOOD WALKER, INCORPORATED",
      "orgPK": "6555",
      "regBeginDt": "2002-06-20T00:00:00",
      "regBeginDtSpecified": true,
      "regEndDt": "2006-02-21T00:00:00",
      "regEndDtSpecified": true
    },
    {
      "BrnchOfLocs": [
        {
          "city": "FT. LAUDERDALE",
          "state": 9,
          "stateSpecified": true
        },
        {
          "city": "NEW YORK",
          "state": 35,
          "stateSpecified": true
        },
        {
          "city": "WESTFIELD",
          "state": 32,
          "stateSpecified": true
        },
        {
          "city": "WESTFIELD",
          "state": 32,
          "stateSpecified": true
        }
      ],
      "orgNm": "CITIGROUP GLOBAL MARKETS INC.",
      "orgPK": "7059",
      "regBeginDt": "2006-02-21T00:00:00",
      "regBeginDtSpecified": true,
      "regEndDt": "2009-06-01T00:00:00",
      "regEndDtSpecified": true
    }
  ],
  "EmpHss": [
    {
      "fromDt": "06/1971",
      "toDt": "10/2007",
      "orgNm": "UNEMPLOYED",
      "city": "WESTFIELD",
      "state": 32,
      "stateSpecified": true
    },
    {
      "fromDt": "02/2006",
      "toDt": null,
      "orgNm": "CITIGROUP GLOBAL MARKETS INC.",
      "city": "FORT LAUDERDALE",
      "state": 9,
      "stateSpecified": true
    },
    {
      "fromDt": "06/2009",
      "toDt": null,
      "orgNm": "MORGAN STANLEY SMITH BARNEY",
      "city": "FT. LAUDERDALE",
      "state": 9,
      "stateSpecified": true
    },
    {
      "fromDt": "01/2015",
      "toDt": null,
      "orgNm": "MORGAN STANLEY PRIVATE BANK, NATIONAL ASSOCIATION",
      "city": "NEW YORK",
      "state": 35,
      "stateSpecified": true
    }
  ],
  "OthrBuss": {
    "OthrBus": null
  },
  "DRPs": []
}