{
  "Info": {
    "lastNm": "BERGER",
    "firstNm": "WARREN",
    "midNm": "GEORGE",
    "sufNm": "III",
    "indvlPK": "1003007",
    "actvAGReg": 1,
    "link": "http://www.adviserinfo.sec.gov/IAPD/Individual/1003007"
  },
  "OthrNms": [
    {
      "lastNm": "BERGER",
      "firstNm": "III",
      "midNm": "WARREN GEORGE",
      "sufNm": null
    },
    {
      "lastNm": "BERGER",
      "firstNm": "WARREN",
      "midNm": "GEORGE",
      "sufNm": null
    },
    {
      "lastNm": "BERGER",
      "firstNm": "WARREN",
      "midNm": "GEORGE III",
      "sufNm": null
    }
  ],
  "CrntEmps": [
    {
      "CrntRgstns": [
        {
          "regAuth": 22,
          "regCat": 0,
          "st": 2,
          "stDt": "2009-01-05T00:00:00"
        },
        {
          "regAuth": 31,
          "regCat": 0,
          "st": 2,
          "stDt": "2014-02-11T00:00:00"
        },
        {
          "regAuth": 45,
          "regCat": 0,
          "st": 3,
          "stDt": "2014-07-24T00:00:00"
        },
        {
          "regAuth": 9,
          "regCat": 0,
          "st": 2,
          "stDt": "2014-12-16T00:00:00"
        },
        {
          "regAuth": 20,
          "regCat": 0,
          "st": 2,
          "stDt": "2015-01-02T00:00:00"
        }
      ],
      "BrnchOfLocs": [
        {
          "str1": "1332 POST ROAD",
          "str2": "SUITE 2A",
          "city": "WELLS",
          "state": 22,
          "stateSpecified": true,
          "cntry": "United States",
          "postlCd": "04090"
        }
      ],
      "orgNm": "SALEM ADVISORY GROUP LLC",
      "orgPK": "145697",
      "str1": "1332 POST ROAD",
      "str2": "SUITE 2A",
      "city": "WELLS",
      "state": 22,
      "stateSpecified": true,
      "cntry": "United States",
      "postlCd": "04090"
    }
  ],
  "Exms": [
    {
      "exmCd": 0,
      "exmNm": "Uniform Securities Agent State Law Examination",
      "exmDt": "2006-09-21T00:00:00",
      "exmDtSpecified": true
    }
  ],
  "Dsgntns": [
    {
      "dsgntnNm": "Chartered Financial Consultant"
    }
  ],
  "PrevRgstns": [
    {
      "BrnchOfLocs": [
        {
          "city": "NEW ORLEANS",
          "state": 19,
          "stateSpecified": true
        }
      ],
      "orgNm": "NEW ENGLAND SECURITIES",
      "orgPK": "615",
      "regBeginDt": "2002-07-29T00:00:00",
      "regBeginDtSpecified": true,
      "regEndDt": "2002-12-04T00:00:00",
      "regEndDtSpecified": true
    }
  ],
  "EmpHss": [
    {
      "fromDt": "01/2004",
      "toDt": "12/2008",
      "orgNm": "THE GUARDIAN LIFE INS. CO.",
      "city": "PORTLAND",
      "state": 22,
      "stateSpecified": true
    },
    {
      "fromDt": "12/2005",
      "toDt": "09/2006",
      "orgNm": "METLIFE SECURITIES",
      "city": "SOUTH PORTLAND",
      "state": 22,
      "stateSpecified": true
    },
    {
      "fromDt": "12/2005",
      "toDt": "09/2006",
      "orgNm": "METROPOLITAN LIFE INSURANCE COMPANY",
      "city": "SOUTH PORTLAND",
      "state": 22,
      "stateSpecified": true
    },
    {
      "fromDt": "10/2006",
      "toDt": "11/2007",
      "orgNm": "NORTHWESTERN MUTUAL INVESTMENT SERVICES, LLC",
      "city": "PORTLAND",
      "state": 22,
      "stateSpecified": true
    },
    {
      "fromDt": "10/2006",
      "toDt": "11/2007",
      "orgNm": "NORTHWESTERN MUTUAL LIFE INSURANCE COMPANY",
      "city": "MILWAUKEE",
      "state": 50,
      "stateSpecified": true
    },
    {
      "fromDt": "01/2008",
      "toDt": "10/2008",
      "orgNm": "PARK AVENUE SECURITIES",
      "city": "PORTLAND",
      "state": 22,
      "stateSpecified": true
    },
    {
      "fromDt": "01/2009",
      "toDt": null,
      "orgNm": "H. BECK, INC.",
      "city": "ROCKVILLE",
      "state": 21,
      "stateSpecified": true
    },
    {
      "fromDt": "01/2009",
      "toDt": "05/2013",
      "orgNm": "SALEM ADVISORY GROUP, LLC",
      "city": "WELLS",
      "state": 22,
      "stateSpecified": true
    },
    {
      "fromDt": "01/2009",
      "toDt": null,
      "orgNm": "SELF EMPLOYED",
      "city": "WELLS",
      "state": 22,
      "stateSpecified": true
    },
    {
      "fromDt": "10/2011",
      "toDt": null,
      "orgNm": "LAMAINE INDUSTRIES",
      "city": "SIDELL",
      "state": 19,
      "stateSpecified": true
    },
    {
      "fromDt": "05/2013",
      "toDt": "09/2015",
      "orgNm": "SALEM ADVISORY GROUP",
      "city": "WELLS",
      "state": 22,
      "stateSpecified": true
    },
    {
      "fromDt": "10/2015",
      "toDt": null,
      "orgNm": "Salem Advisory Group, LLC",
      "city": "Wells",
      "state": 22,
      "stateSpecified": true
    }
  ],
  "OthrBuss": {
    "OthrBus": {
      "desc": "WARREN BERGER POSITION: SALESPERSON NATURE: INSURANCE SALES (INVESTMENT-RELATED OBA) INVESTMENT RELATED: YES NUMBER OF HOURS: 10 INVESTMENT RELATED HOURS: 8 START DATE: 01/01/2009  ADDRESS: 7 BEAVER BROOK RD, SCARBOROUGH ME 04074  DESCRIPTION: SERVICE OF EXISING INSURANCE CLIENTS    SALEM ADVISORY GROUP LLC-INSURANCE  POSITION: PRESIDENT NATURE: INSURANCE SALES (INVESTMENT-RELATED OBA) INVESTMENT RELATED: YES NUMBER OF HOURS: 10 INVESTMENT RELATED HOURS: 10 START DATE: 12/01/2008  ADDRESS: 1332 POST RD, SUITE 2A, WELLS ME 04090  DESCRIPTION: SALES AND SERVICE OF FIXED INSURANCE PRODUCTS    SALEM ADVISORY GROUP LLC-RIA  POSITION: PRESIDENT NATURE: INVESTMENT-RELATED OBA NOT THROUGH H. BECK, INC. INVESTMENT RELATED: YES NUMBER OF HOURS: 80 INVESTMENT RELATED HOURS: 70 START DATE: 03/17/2009  ADDRESS: 1332 POST RD, SUITE 2A, WELLS ME 04094  DESCRIPTION: REVIEW AND MANAGE CLIENTS PORTFOLIOS IN CONJUNCTION WITH FIRM'S RIA PORTFOLIO MANAGER    H. BECK INC  POSITION: REGISTERED REPRESENTATIVE NATURE: OTHER OBA INVESTMENT RELATED: YES NUMBER OF HOURS: 10 INVESTMENT RELATED HOURS: 10 START DATE: 01/01/2009  ADDRESS: 6600 ROCKLEDGE DRIVE, BETHESDA MD 20817  DESCRIPTION: SALES OF MUTUAL FUNDS AND SERVICE OF EXISTING CLIENTS ACCOUNTS    LAMAINE INDUSTRIES LLC  POSITION: PRESIDENT NATURE: OTHER OBA INVESTMENT RELATED: NO NUMBER OF HOURS: 4 INVESTMENT RELATED HOURS: 1 START DATE: 10/25/2011  ADDRESS: 517 SPARTAN DR, UNIT 8204, SLIDELL LA 70458  DESCRIPTION: MY COMPANY WILL BE WORKING IN A JOINT VENTURE TO OBTAIN GOVERNMENT JOBS MANAGING COMMISSARY FACILITIES"
    }
  },
  "DRPs": []
}