{
  "Info": {
    "lastNm": "KINTZ",
    "firstNm": "ROBERT",
    "midNm": "ALLEN",
    "sufNm": null,
    "indvlPK": "1007926",
    "actvAGReg": 0,
    "link": "http://www.adviserinfo.sec.gov/IAPD/Individual/1007926"
  },
  "OthrNms": [
    {
      "lastNm": "KINTZ",
      "firstNm": "BOB",
      "midNm": null,
      "sufNm": null
    }
  ],
  "CrntEmps": [
    {
      "CrntRgstns": [
        {
          "regAuth": 31,
          "regCat": 0,
          "st": 2,
          "stDt": "2007-09-18T00:00:00"
        },
        {
          "regAuth": 45,
          "regCat": 0,
          "st": 3,
          "stDt": "2011-02-01T00:00:00"
        }
      ],
      "BrnchOfLocs": [
        {
          "str1": "875 GREENLAND RD., UNIT B10",
          "str2": null,
          "city": "PORTSMOUTH",
          "state": 31,
          "stateSpecified": true,
          "cntry": "United States",
          "postlCd": "03801"
        }
      ],
      "orgNm": "LPL FINANCIAL LLC",
      "orgPK": "6413",
      "str1": "75 STATE STREET, 22ND FLOOR",
      "str2": null,
      "city": "BOSTON",
      "state": 20,
      "stateSpecified": true,
      "cntry": "United States",
      "postlCd": "02109"
    }
  ],
  "Exms": [
    {
      "exmCd": 3,
      "exmNm": "Uniform Combined State Law Examination",
      "exmDt": "2007-08-15T00:00:00",
      "exmDtSpecified": true
    }
  ],
  "Dsgntns": [],
  "PrevRgstns": [],
  "EmpHss": [
    {
      "fromDt": "04/1995",
      "toDt": "06/2007",
      "orgNm": "LIBERTY MUTUAL INS COMPANY",
      "city": "PORTSMOUTH",
      "state": 31,
      "stateSpecified": true
    },
    {
      "fromDt": "06/2007",
      "toDt": null,
      "orgNm": "LPL FINANCIAL, LLC",
      "city": "PORTSMOUTH",
      "state": 31,
      "stateSpecified": true
    }
  ],
  "OthrBuss": {
    "OthrBus": {
      "desc": "1. 10/15/2010: REAL ESTATE RENTAL - KINTZ & MARDIN REALTY, LLC - LLC CREATED TO BUY AND MANAGE OUR OFFICE CONDO USED FOR LPL BUSINESS. - 0% - PORTSMOUTH, NH"
    }
  },
  "DRPs": []
}