{
  "Info": {
    "lastNm": "GRAHAM",
    "firstNm": "ALEXANDER",
    "midNm": "STEWART",
    "sufNm": null,
    "indvlPK": "1008351",
    "actvAGReg": 1,
    "link": "http://www.adviserinfo.sec.gov/IAPD/Individual/1008351"
  },
  "OthrNms": [
    {
      "lastNm": "GRAHAM",
      "firstNm": "ALEC",
      "midNm": null,
      "sufNm": null
    }
  ],
  "CrntEmps": [
    {
      "CrntRgstns": [
        {
          "regAuth": 21,
          "regCat": 0,
          "st": 2,
          "stDt": "1994-11-10T00:00:00"
        },
        {
          "regAuth": 20,
          "regCat": 0,
          "st": 2,
          "stDt": "2012-06-04T00:00:00"
        },
        {
          "regAuth": 9,
          "regCat": 0,
          "st": 2,
          "stDt": "2012-06-18T00:00:00"
        },
        {
          "regAuth": 45,
          "regCat": 0,
          "st": 3,
          "stDt": "2013-04-09T00:00:00"
        }
      ],
      "BrnchOfLocs": [
        {
          "str1": "1 N. CHARLES ST.",
          "str2": "SUITE 1505",
          "city": "BALTIMORE",
          "state": 21,
          "stateSpecified": true,
          "cntry": "United States",
          "postlCd": "21201"
        }
      ],
      "orgNm": "BALTIMORE CAPITAL MANAGEMENT, INC.",
      "orgPK": "109949",
      "str1": "575 S. CHARLES ST.",
      "str2": "SUITE 506",
      "city": "BALTIMORE",
      "state": 21,
      "stateSpecified": true,
      "cntry": "United States",
      "postlCd": "21201"
    }
  ],
  "Exms": [
    {
      "exmCd": 0,
      "exmNm": "Uniform Securities Agent State Law Examination",
      "exmDt": "1982-03-01T00:00:00",
      "exmDtSpecified": true
    },
    {
      "exmCd": 2,
      "exmNm": "Uniform Investment Adviser Law Examination",
      "exmDt": "1994-11-10T00:00:00",
      "exmDtSpecified": true
    }
  ],
  "Dsgntns": [],
  "PrevRgstns": [
    {
      "BrnchOfLocs": [
        {
          "city": "ANNAPOLIS",
          "state": 21,
          "stateSpecified": true
        }
      ],
      "orgNm": "HILLMAN CAPITAL MANAGEMENT INC",
      "orgPK": "110096",
      "regBeginDt": "2003-07-28T00:00:00",
      "regBeginDtSpecified": true,
      "regEndDt": "2006-10-23T00:00:00",
      "regEndDtSpecified": true
    }
  ],
  "EmpHss": [
    {
      "fromDt": "10/1994",
      "toDt": null,
      "orgNm": "ARMATA PARTNERS, L.P.",
      "city": "BALTIMORE",
      "state": 21,
      "stateSpecified": true
    },
    {
      "fromDt": "10/1994",
      "toDt": null,
      "orgNm": "BALTIMORE CAPITAL MGMT",
      "city": "BALTIMORE",
      "state": 21,
      "stateSpecified": true
    },
    {
      "fromDt": "07/2003",
      "toDt": null,
      "orgNm": "HILLMAN CAPITAL MANAGEMENT",
      "city": "ANNAPOLIS",
      "state": 21,
      "stateSpecified": true
    }
  ],
  "OthrBuss": {
    "OthrBus": {
      "desc": "GIBSON ISLAND CORP - DIRECTOR              "
    }
  },
  "DRPs": []
}