{
  "Info": {
    "lastNm": "HOCHHEISER",
    "firstNm": "ROBERT",
    "midNm": "ISRAEL",
    "sufNm": null,
    "indvlPK": "1010062",
    "actvAGReg": 0,
    "link": "http://www.adviserinfo.sec.gov/IAPD/Individual/1010062"
  },
  "OthrNms": [],
  "CrntEmps": [
    {
      "CrntRgstns": [
        {
          "regAuth": 9,
          "regCat": 0,
          "st": 2,
          "stDt": "2000-05-09T00:00:00"
        }
      ],
      "BrnchOfLocs": [
        {
          "str1": "835 RUNNER OAK ST",
          "str2": null,
          "city": "CELEBRATION",
          "state": 9,
          "stateSpecified": true,
          "cntry": "United States",
          "postlCd": "34747"
        }
      ],
      "orgNm": "PRINCIPAL SECURITIES, INC.",
      "orgPK": "1137",
      "str1": "655 9TH STREET",
      "str2": null,
      "city": "DES MOINES",
      "state": 13,
      "stateSpecified": true,
      "cntry": "United States",
      "postlCd": "50309"
    }
  ],
  "Exms": [],
  "Dsgntns": [],
  "PrevRgstns": [],
  "EmpHss": [
    {
      "fromDt": "10/1999",
      "toDt": null,
      "orgNm": "PRINCIPAL LIFE INSURANCE CO",
      "city": "DES MOINES",
      "state": 13,
      "stateSpecified": true
    },
    {
      "fromDt": "03/2000",
      "toDt": null,
      "orgNm": "PRINCOR FINANCIAL SERVICES CORP",
      "city": "DES MOINES",
      "state": 13,
      "stateSpecified": true
    },
    {
      "fromDt": "12/2001",
      "toDt": "08/2012",
      "orgNm": "HOCHHEISER PLANNING SERVICES",
      "city": "WINTER SPRINGS",
      "state": 9,
      "stateSpecified": true
    }
  ],
  "OthrBuss": {
    "OthrBus": null
  },
  "DRPs": []
}