{
  "Info": {
    "lastNm": "WILLINGHAM",
    "firstNm": "JANET",
    "midNm": "MOCK",
    "sufNm": null,
    "indvlPK": "1013092",
    "actvAGReg": 0,
    "link": "http://www.adviserinfo.sec.gov/IAPD/Individual/1013092"
  },
  "OthrNms": [
    {
      "lastNm": "MOCK",
      "firstNm": "JANET",
      "midNm": null,
      "sufNm": null
    }
  ],
  "CrntEmps": [
    {
      "CrntRgstns": [
        {
          "regAuth": 45,
          "regCat": 0,
          "st": 3,
          "stDt": "1998-10-20T00:00:00"
        },
        {
          "regAuth": 9,
          "regCat": 0,
          "st": 2,
          "stDt": "1998-10-23T00:00:00"
        }
      ],
      "BrnchOfLocs": [
        {
          "str1": "1190 W MARION AVE",
          "str2": null,
          "city": "PUNTA GORDA",
          "state": 9,
          "stateSpecified": true,
          "cntry": "United States",
          "postlCd": "33950"
        }
      ],
      "orgNm": "MERRILL LYNCH, PIERCE, FENNER & SMITH INCORPORATED",
      "orgPK": "7691",
      "str1": "ONE BRYANT PARK",
      "str2": null,
      "city": "NEW YORK",
      "state": 35,
      "stateSpecified": true,
      "cntry": "United States",
      "postlCd": "10036"
    }
  ],
  "Exms": [
    {
      "exmCd": 0,
      "exmNm": "Uniform Securities Agent State Law Examination",
      "exmDt": "1991-06-18T00:00:00",
      "exmDtSpecified": true
    },
    {
      "exmCd": 2,
      "exmNm": "Uniform Investment Adviser Law Examination",
      "exmDt": "1998-11-24T00:00:00",
      "exmDtSpecified": true
    }
  ],
  "Dsgntns": [],
  "PrevRgstns": [],
  "EmpHss": [
    {
      "fromDt": "10/1998",
      "toDt": null,
      "orgNm": "MERRILL LYNCH, PIERCE, FENNER & SMITH INCORPORATED",
      "city": "PUNTA GORDA",
      "state": 9,
      "stateSpecified": true
    },
    {
      "fromDt": "09/2011",
      "toDt": null,
      "orgNm": "BANK OF AMERICA, N.A.",
      "city": "PUNTA GORDA",
      "state": 9,
      "stateSpecified": true
    }
  ],
  "OthrBuss": {
    "OthrBus": null
  },
  "DRPs": []
}