{
  "Info": {
    "lastNm": "TERRY",
    "firstNm": "WILLIAM",
    "midNm": "ALEXANDER",
    "sufNm": null,
    "indvlPK": "1017945",
    "actvAGReg": 0,
    "link": "http://www.adviserinfo.sec.gov/IAPD/Individual/1017945"
  },
  "OthrNms": [
    {
      "lastNm": "TERRY",
      "firstNm": "BILL",
      "midNm": null,
      "sufNm": null
    },
    {
      "lastNm": "TERRY",
      "firstNm": "WILLIAM",
      "midNm": null,
      "sufNm": null
    },
    {
      "lastNm": "TERRY",
      "firstNm": "WILLIAM",
      "midNm": "A.",
      "sufNm": null
    }
  ],
  "CrntEmps": [
    {
      "CrntRgstns": [
        {
          "regAuth": 1,
          "regCat": 0,
          "st": 2,
          "stDt": "1998-05-18T00:00:00"
        }
      ],
      "BrnchOfLocs": [
        {
          "str1": "2545 HIGHLAND AVENUE",
          "str2": "SUITE 200",
          "city": "BIRMINGHAM",
          "state": 1,
          "stateSpecified": true,
          "cntry": "United States",
          "postlCd": "35205"
        },
        {
          "str1": "2545 HIGHLAND AVENUE",
          "str2": "SUITE 200",
          "city": "BIRMINGHAM",
          "state": 1,
          "stateSpecified": true,
          "cntry": "United States",
          "postlCd": "35205"
        }
      ],
      "orgNm": "HIGHLAND ASSOCIATES INC",
      "orgPK": "104948",
      "str1": "2545 HIGHLAND AVENUE",
      "str2": "SUITE 200",
      "city": "BIRMINGHAM",
      "state": 1,
      "stateSpecified": true,
      "cntry": "United States",
      "postlCd": "35205"
    }
  ],
  "Exms": [
    {
      "exmCd": 0,
      "exmNm": "Uniform Securities Agent State Law Examination",
      "exmDt": "1981-12-04T00:00:00",
      "exmDtSpecified": true
    },
    {
      "exmCd": 2,
      "exmNm": "Uniform Investment Adviser Law Examination",
      "exmDt": "1993-05-20T00:00:00",
      "exmDtSpecified": true
    }
  ],
  "Dsgntns": [],
  "PrevRgstns": [],
  "EmpHss": [
    {
      "fromDt": "05/1987",
      "toDt": null,
      "orgNm": "HIGHLAND ASSOC. INC.",
      "city": "BIRMINGHAM",
      "state": 1,
      "stateSpecified": true
    },
    {
      "fromDt": "10/1989",
      "toDt": "11/2011",
      "orgNm": "HIGHLAND INFORMATION SERVICES, INC.",
      "city": "BIRMINGHAM",
      "state": 1,
      "stateSpecified": true
    }
  ],
  "OthrBuss": {
    "OthrBus": {
      "desc": "A.  PROTECTIVE, 2801 HIGHWAY 280 SOUTH, BIRMINGHAM, AL, 35223, CORPORATION, INSURANCE, NOT INVESTMENT RELATED, BOARD OF DIRECTORS, BOARD MEMBER, 8 HRS/MONTH, 4 DURING TRADING HOURS, STOCK HOLDER  B. GREATER AL COUNSIL OF THE BOY SCOUTS OF AMERICA, 516 LIBERTY PKWY, BIRMINGHAM, AL, 35242, NOT INVESTMENT RELATED, COUNSIL PRESIDENT, OVERSEES BOARD AND VARIOUS COMMITTEES, 15 HRS/MONTH, 4 DURING TRADING HOURS, NOT COMPENSATED  C.  BIRMINGHAM MUSEUM OF ART, BIRMINGHAM, AL, MUSEUM, MEMBER OF THE FINANCE COMMITTEE, 4 HRS/MONTH, NONE DURING TRADING HOURS, NOT COMPENSATED  D.  ST. MARY'S ON THE HIGHLANDS ENDOWMENT TRUST, BIRMINGHAM, AL, ENDOWMENT, RELIGIOUS, TRUSTEE, NOT INVESTMENT RELATED, 4 HRS/MONTH, NONE DURING TRADING, NOT COMPENSATED  F.  NATURE CONSERVANCY OF AL, 2100 1ST AVENUE NORTH, SUITE 500, BIRMINGHAM, AL, 35203, CONSERVATORY, NOT INVESTMENT RELATED, TRUSTEE, 4HRS/MONTH, NONE DURING TRADING, NOT COMPENSATED"
    }
  },
  "DRPs": [
    {
      "hasRegAction": 0,
      "hasRegActionSpecified": true,
      "hasCriminal": 1,
      "hasCriminalSpecified": true,
      "hasBankrupt": 1,
      "hasBankruptSpecified": true,
      "hasCivilJudc": 1,
      "hasCivilJudcSpecified": true,
      "hasBond": 1,
      "hasBondSpecified": true,
      "hasJudgment": 1,
      "hasJudgmentSpecified": true,
      "hasInvstgn": 1,
      "hasInvstgnSpecified": true,
      "hasCustComp": 1,
      "hasCustCompSpecified": true,
      "hasTermination": 1,
      "hasTerminationSpecified": true
    }
  ]
}