{
  "Info": {
    "lastNm": "SCHOENFELD",
    "firstNm": "BARRY",
    "midNm": "MARVIN",
    "sufNm": null,
    "indvlPK": "1019762",
    "actvAGReg": 0,
    "link": "http://www.adviserinfo.sec.gov/IAPD/Individual/1019762"
  },
  "OthrNms": [
    {
      "lastNm": "SCHOENFELD",
      "firstNm": "MARVIN",
      "midNm": "BARRY",
      "sufNm": null
    },
    {
      "lastNm": "SCHOENFLED",
      "firstNm": "BARRY",
      "midNm": "MARVIN",
      "sufNm": null
    }
  ],
  "CrntEmps": [
    {
      "CrntRgstns": [
        {
          "regAuth": 32,
          "regCat": 0,
          "st": 2,
          "stDt": "2009-05-07T00:00:00"
        }
      ],
      "BrnchOfLocs": [
        {
          "str1": "200 CAMPUS DR",
          "str2": "STE 220",
          "city": "FLORHAM PARK",
          "state": 32,
          "stateSpecified": true,
          "cntry": "United States",
          "postlCd": "07932"
        }
      ],
      "orgNm": "WELLS FARGO ADVISORS, LLC",
      "orgPK": "19616",
      "str1": "ONE NORTH JEFFERSON AVENUE",
      "str2": "MAIL CODE: H0004-050",
      "city": "ST. LOUIS",
      "state": 25,
      "stateSpecified": true,
      "cntry": "United States",
      "postlCd": "63103-2205"
    }
  ],
  "Exms": [
    {
      "exmCd": 0,
      "exmNm": "Uniform Securities Agent State Law Examination",
      "exmDt": "1983-05-31T00:00:00",
      "exmDtSpecified": true
    },
    {
      "exmCd": 3,
      "exmNm": "Uniform Combined State Law Examination",
      "exmDt": "2002-06-05T00:00:00",
      "exmDtSpecified": true
    }
  ],
  "Dsgntns": [],
  "PrevRgstns": [
    {
      "BrnchOfLocs": [
        {
          "city": "MORRISTOWN",
          "state": 32,
          "stateSpecified": true
        },
        {
          "city": "MORRISTOWN",
          "state": 32,
          "stateSpecified": true
        }
      ],
      "orgNm": "CITIGROUP GLOBAL MARKETS INC.",
      "orgPK": "7059",
      "regBeginDt": "2002-06-12T00:00:00",
      "regBeginDtSpecified": true,
      "regEndDt": "2009-05-14T00:00:00",
      "regEndDtSpecified": true
    }
  ],
  "EmpHss": [
    {
      "fromDt": "05/1996",
      "toDt": "04/2009",
      "orgNm": "CITIGROUP GLOBAL MARKETS INC.",
      "city": "MORRISTOWN",
      "state": 32,
      "stateSpecified": true
    },
    {
      "fromDt": "04/2009",
      "toDt": "05/2009",
      "orgNm": "WACHOVIA SECURITIES LLC",
      "city": "FLORHAM PARK",
      "state": 32,
      "stateSpecified": true
    },
    {
      "fromDt": "05/2009",
      "toDt": null,
      "orgNm": "WELLS FARGO ADVISORS LLC",
      "city": "FLORHAM PARK",
      "state": 32,
      "stateSpecified": true
    }
  ],
  "OthrBuss": {
    "OthrBus": null
  },
  "DRPs": [
    {
      "hasRegAction": 1,
      "hasRegActionSpecified": true,
      "hasCriminal": 1,
      "hasCriminalSpecified": true,
      "hasBankrupt": 1,
      "hasBankruptSpecified": true,
      "hasCivilJudc": 1,
      "hasCivilJudcSpecified": true,
      "hasBond": 1,
      "hasBondSpecified": true,
      "hasJudgment": 1,
      "hasJudgmentSpecified": true,
      "hasInvstgn": 1,
      "hasInvstgnSpecified": true,
      "hasCustComp": 0,
      "hasCustCompSpecified": true,
      "hasTermination": 1,
      "hasTerminationSpecified": true
    }
  ]
}