{
  "Info": {
    "lastNm": "RICHMAN",
    "firstNm": "DAVID",
    "midNm": "MICHAEL",
    "sufNm": null,
    "indvlPK": "1024804",
    "actvAGReg": 0,
    "link": "http://www.adviserinfo.sec.gov/IAPD/Individual/1024804"
  },
  "OthrNms": [
    {
      "lastNm": "RICHMAN",
      "firstNm": "DAVID",
      "midNm": null,
      "sufNm": null
    }
  ],
  "CrntEmps": [
    {
      "CrntRgstns": [
        {
          "regAuth": 20,
          "regCat": 0,
          "st": 2,
          "stDt": "2009-04-17T00:00:00"
        }
      ],
      "BrnchOfLocs": [
        {
          "str1": "TWO INTERNATIONAL PLACE",
          "str2": null,
          "city": "BOSTON",
          "state": 20,
          "stateSpecified": true,
          "cntry": "United States",
          "postlCd": "02110"
        }
      ],
      "orgNm": "EATON VANCE MANAGEMENT",
      "orgPK": "104859",
      "str1": "TWO INTERNATIONAL PLACE",
      "str2": null,
      "city": "BOSTON",
      "state": 20,
      "stateSpecified": true,
      "cntry": "United States",
      "postlCd": "02110"
    }
  ],
  "Exms": [
    {
      "exmCd": 2,
      "exmNm": "Uniform Investment Adviser Law Examination",
      "exmDt": "1994-10-28T00:00:00",
      "exmDtSpecified": true
    },
    {
      "exmCd": 0,
      "exmNm": "Uniform Securities Agent State Law Examination",
      "exmDt": "2004-12-10T00:00:00",
      "exmDtSpecified": true
    }
  ],
  "Dsgntns": [],
  "PrevRgstns": [
    {
      "BrnchOfLocs": [
        {
          "city": "WEST HARTFORD",
          "state": 6,
          "stateSpecified": true
        }
      ],
      "orgNm": "BRINKER CAPITAL INC",
      "orgPK": "111743",
      "regBeginDt": "1996-03-29T00:00:00",
      "regBeginDtSpecified": true,
      "regEndDt": "2004-05-06T00:00:00",
      "regEndDtSpecified": true
    },
    {
      "BrnchOfLocs": [
        {
          "city": "WEST HARTFORD",
          "state": 6,
          "stateSpecified": true
        }
      ],
      "orgNm": "FISHER INVESTMENTS",
      "orgPK": "107342",
      "regBeginDt": "2004-01-16T00:00:00",
      "regBeginDtSpecified": true,
      "regEndDt": "2004-08-02T00:00:00",
      "regEndDtSpecified": true
    }
  ],
  "EmpHss": [
    {
      "fromDt": "08/2004",
      "toDt": "10/2007",
      "orgNm": "EATON VANCE DISTRIBUTORS, INC.",
      "city": "BOSTON",
      "state": 20,
      "stateSpecified": true
    },
    {
      "fromDt": "11/2007",
      "toDt": "02/2009",
      "orgNm": "EATON VANCE DISTRIBUTORS, INC.",
      "city": "BOSTON",
      "state": 20,
      "stateSpecified": true
    },
    {
      "fromDt": "02/2009",
      "toDt": null,
      "orgNm": "EATON VANCE DISTRIBUTORS, INC.",
      "city": "BOSTON",
      "state": 20,
      "stateSpecified": true
    },
    {
      "fromDt": "02/2009",
      "toDt": null,
      "orgNm": "EATON VANCE MANAGEMENT",
      "city": "BOSTON",
      "state": 20,
      "stateSpecified": true
    }
  ],
  "OthrBuss": {
    "OthrBus": {
      "desc": "SELF-EMPLOYED, CHARISMATIC ADVISOR PUBLISHING PARTNERSHIP WITH DR. ROBERT BROOKS (NON-INVESTMENT RELATED)- PERFORMED OUTSIDE OF SECURITIES TRADING HOURS:  WRITER AND CO-AUTHOR, LOCATED IN WEST HARTFORD, CT RECEIVING ROYALTIES FOR BOOK SALES AND POTENTIAL PUBLISHER ADVANCES FOR NEW WORK. 40 HOURS PER MONTH. SELF-EMPLOYED, D&F CONSULTING PARTNERSHIP WITH HIS SPOUSE LOCATED IN MIAMI BEACH, FL (NON-INVESTMENT RELATED)- PERFORMED OUTSIDE OF SECURITIES TRADING HOURS: RECEIVING ROYALTIES FOR BOOK SALES HOURS VARY PER MONTH. START DATE 2003.    CO-AUTHOR OF NEW BOOK WITH ALAN PARISSI CALLED DOCTOR OF SALES. PROJECTED SPRING 2013 RELEASE. BOOK ROYALTIES TO BE PAID TO D + F CONSULTING 20 ISLAND AVE MIAMI BEACH, FL 33139"
    }
  },
  "DRPs": []
}