{
  "Info": {
    "lastNm": "LAMBERT",
    "firstNm": "PAUL",
    "midNm": null,
    "sufNm": null,
    "indvlPK": "1028631",
    "actvAGReg": 0,
    "link": "http://www.adviserinfo.sec.gov/IAPD/Individual/1028631"
  },
  "OthrNms": [
    {
      "lastNm": "LAMBERT",
      "firstNm": "PAUL",
      "midNm": "(NMN)",
      "sufNm": null
    }
  ],
  "CrntEmps": [
    {
      "CrntRgstns": [
        {
          "regAuth": 5,
          "regCat": 0,
          "st": 2,
          "stDt": "1999-01-01T00:00:00"
        }
      ],
      "BrnchOfLocs": [
        {
          "str1": "425 S. CHERRY STREET",
          "str2": "SUITE 900",
          "city": "DENVER",
          "state": 5,
          "stateSpecified": true,
          "cntry": "United States",
          "postlCd": "80246"
        }
      ],
      "orgNm": "CHERRY STREET PARTNERS",
      "orgPK": "111711",
      "str1": "425 S CHERRY ST",
      "str2": "STE 900",
      "city": "DENVER",
      "state": 5,
      "stateSpecified": true,
      "cntry": "United States",
      "postlCd": "80246"
    }
  ],
  "Exms": [
    {
      "exmCd": 3,
      "exmNm": "Uniform Combined State Law Examination",
      "exmDt": "2003-06-02T00:00:00",
      "exmDtSpecified": true
    },
    {
      "exmCd": 0,
      "exmNm": "Uniform Securities Agent State Law Examination",
      "exmDt": "2003-09-17T00:00:00",
      "exmDtSpecified": true
    }
  ],
  "Dsgntns": [
    {
      "dsgntnNm": "Certified Financial Planner"
    }
  ],
  "PrevRgstns": [
    {
      "BrnchOfLocs": [
        {
          "city": "DENVER",
          "state": 5,
          "stateSpecified": true
        }
      ],
      "orgNm": "WALNUT STREET ADVISERS INC",
      "orgPK": "109903",
      "regBeginDt": "1999-07-27T00:00:00",
      "regBeginDtSpecified": true,
      "regEndDt": "2003-06-20T00:00:00",
      "regEndDtSpecified": true
    }
  ],
  "EmpHss": [
    {
      "fromDt": "06/1987",
      "toDt": null,
      "orgNm": "CHERRY STREET PARTNERS",
      "city": "DENVER",
      "state": 5,
      "stateSpecified": true
    },
    {
      "fromDt": "06/1987",
      "toDt": null,
      "orgNm": "GENERAL AMERICAN",
      "city": "ST. LOUIS",
      "state": 25,
      "stateSpecified": true
    },
    {
      "fromDt": "06/1987",
      "toDt": null,
      "orgNm": "PAUL LAMBERT, INC",
      "city": "DENVER",
      "state": 5,
      "stateSpecified": true
    },
    {
      "fromDt": "03/2005",
      "toDt": "02/2007",
      "orgNm": "UNITED SECURITIES ALLIANCE",
      "city": "DENVER",
      "state": 5,
      "stateSpecified": true
    }
  ],
  "OthrBuss": {
    "OthrBus": {
      "desc": "1)PAUL LAMBERT AS PRESIDENT OF CHERRY STREET PARTNERS, INC. PROVIDES FINANCIAL PLANNING, RETIREMENT PLANNING, ESTATE PLANNING, EMPLOYEE BENEFITS PLANNING, EXECUTIVE COMPENSATION PLANNING, BUSINESS CONSULTING/SUCCESSION AND EXIT PLANNING THROUGH CHERRY STREET PARTNERS, INC. LOCATED AT 425 S. CHERRY ST., STE. 900 DENVER, CO  80246. APPROXIMATELY 75% OF TIME SPENT WORKING IS DEDICATED TO THE PERFORMANCE OF THESE NON-INVESTMENT RELATED SERVICES./ RIA"
    }
  },
  "DRPs": []
}