{
  "Info": {
    "lastNm": "TENNILL",
    "firstNm": "JAMES",
    "midNm": "BYRON",
    "sufNm": "JR",
    "indvlPK": "1030288",
    "actvAGReg": 0,
    "link": "http://www.adviserinfo.sec.gov/IAPD/Individual/1030288"
  },
  "OthrNms": [
    {
      "lastNm": "TENNILL",
      "firstNm": "JAMES",
      "midNm": "BYRON JR",
      "sufNm": null
    }
  ],
  "CrntEmps": [
    {
      "CrntRgstns": [
        {
          "regAuth": 18,
          "regCat": 0,
          "st": 2,
          "stDt": "2007-08-09T00:00:00"
        }
      ],
      "BrnchOfLocs": [
        {
          "str1": "600 NORTH HURSTBOURNE PARKWAY",
          "str2": "SUITE 100",
          "city": "LOUISVILLE",
          "state": 18,
          "stateSpecified": true,
          "cntry": "United States",
          "postlCd": "40222"
        }
      ],
      "orgNm": "STIFEL, NICOLAUS & COMPANY, INCORPORATED",
      "orgPK": "793",
      "str1": "501 N BROADWAY",
      "str2": null,
      "city": "ST LOUIS",
      "state": 25,
      "stateSpecified": true,
      "cntry": "United States",
      "postlCd": "63102"
    }
  ],
  "Exms": [
    {
      "exmCd": 0,
      "exmNm": "Uniform Securities Agent State Law Examination",
      "exmDt": "1982-09-22T00:00:00",
      "exmDtSpecified": true
    },
    {
      "exmCd": 2,
      "exmNm": "Uniform Investment Adviser Law Examination",
      "exmDt": "2002-01-18T00:00:00",
      "exmDtSpecified": true
    }
  ],
  "Dsgntns": [],
  "PrevRgstns": [
    {
      "BrnchOfLocs": [
        {
          "city": "LOUISVILLE",
          "state": 18,
          "stateSpecified": true
        },
        {
          "city": "LOUISVILLE",
          "state": 18,
          "stateSpecified": true
        }
      ],
      "orgNm": "WELLS FARGO ADVISORS, LLC",
      "orgPK": "19616",
      "regBeginDt": "1999-10-01T00:00:00",
      "regBeginDtSpecified": true,
      "regEndDt": "2007-08-02T00:00:00",
      "regEndDtSpecified": true
    }
  ],
  "EmpHss": [
    {
      "fromDt": "06/2003",
      "toDt": "07/2007",
      "orgNm": "WACHOVIA SECURITIES, LLC",
      "city": "LOUISVILLE",
      "state": 18,
      "stateSpecified": true
    },
    {
      "fromDt": "07/2007",
      "toDt": null,
      "orgNm": "STIFEL, NICOLAUS & COMPANY, INCORPORATED",
      "city": "LOUISVILLE",
      "state": 18,
      "stateSpecified": true
    }
  ],
  "OthrBuss": {
    "OthrBus": {
      "desc": "BOARD OF DIRECTORS FOR CHARITABLE ORGANIZATION-PORTLAND PROMISE INC."
    }
  },
  "DRPs": [
    {
      "hasRegAction": 1,
      "hasRegActionSpecified": true,
      "hasCriminal": 1,
      "hasCriminalSpecified": true,
      "hasBankrupt": 1,
      "hasBankruptSpecified": true,
      "hasCivilJudc": 1,
      "hasCivilJudcSpecified": true,
      "hasBond": 1,
      "hasBondSpecified": true,
      "hasJudgment": 1,
      "hasJudgmentSpecified": true,
      "hasInvstgn": 1,
      "hasInvstgnSpecified": true,
      "hasCustComp": 0,
      "hasCustCompSpecified": true,
      "hasTermination": 1,
      "hasTerminationSpecified": true
    }
  ]
}