{
  "Info": {
    "lastNm": "MONTGOMERY",
    "firstNm": "JOHN",
    "midNm": "MILTON",
    "sufNm": null,
    "indvlPK": "1033543",
    "actvAGReg": 1,
    "link": "http://www.adviserinfo.sec.gov/IAPD/Individual/1033543"
  },
  "OthrNms": [],
  "CrntEmps": [
    {
      "CrntRgstns": [
        {
          "regAuth": 42,
          "regCat": 0,
          "st": 2,
          "stDt": "2014-07-08T00:00:00"
        },
        {
          "regAuth": 39,
          "regCat": 0,
          "st": 2,
          "stDt": "2014-07-09T00:00:00"
        },
        {
          "regAuth": 50,
          "regCat": 0,
          "st": 2,
          "stDt": "2014-07-09T00:00:00"
        },
        {
          "regAuth": 4,
          "regCat": 0,
          "st": 2,
          "stDt": "2014-07-16T00:00:00"
        },
        {
          "regAuth": 28,
          "regCat": 0,
          "st": 2,
          "stDt": "2014-07-16T00:00:00"
        },
        {
          "regAuth": 9,
          "regCat": 0,
          "st": 2,
          "stDt": "2014-07-30T00:00:00"
        },
        {
          "regAuth": 10,
          "regCat": 0,
          "st": 2,
          "stDt": "2014-09-12T00:00:00"
        }
      ],
      "BrnchOfLocs": [
        {
          "str1": null,
          "str2": null,
          "city": "MT. PLEASANT",
          "state": 42,
          "stateSpecified": true,
          "cntry": "United States",
          "postlCd": null
        }
      ],
      "orgNm": "FINANCIAL FREEDOM ADVISORS, LLC",
      "orgPK": "170963",
      "str1": null,
      "str2": null,
      "city": "MT. PLEASANT",
      "state": 42,
      "stateSpecified": true,
      "cntry": "United States",
      "postlCd": null
    }
  ],
  "Exms": [
    {
      "exmCd": 0,
      "exmNm": "Uniform Securities Agent State Law Examination",
      "exmDt": "1982-04-02T00:00:00",
      "exmDtSpecified": true
    }
  ],
  "Dsgntns": [
    {
      "dsgntnNm": "Certified Financial Planner"
    }
  ],
  "PrevRgstns": [
    {
      "BrnchOfLocs": [
        {
          "city": "CHARLESTON",
          "state": 42,
          "stateSpecified": true
        },
        {
          "city": "ODESSA",
          "state": 9,
          "stateSpecified": true
        }
      ],
      "orgNm": "FIRST ALLIED SECURITIES, INC.",
      "orgPK": "32444",
      "regBeginDt": "2004-02-18T00:00:00",
      "regBeginDtSpecified": true,
      "regEndDt": "2012-07-02T00:00:00",
      "regEndDtSpecified": true
    },
    {
      "BrnchOfLocs": [
        {
          "city": "CHARLESTON",
          "state": 42,
          "stateSpecified": true
        }
      ],
      "orgNm": "FIRST ALLIED ADVISORY SERVICES, INC.",
      "orgPK": "137888",
      "regBeginDt": "2012-07-02T00:00:00",
      "regBeginDtSpecified": true,
      "regEndDt": "2014-07-15T00:00:00",
      "regEndDtSpecified": true
    }
  ],
  "EmpHss": [
    {
      "fromDt": "12/1994",
      "toDt": "07/2014",
      "orgNm": "FIRST ALLIED SECURITIES, INC.",
      "city": "DULUTH",
      "state": 10,
      "stateSpecified": true
    },
    {
      "fromDt": "07/2012",
      "toDt": "07/2014",
      "orgNm": "FIRST ALLIED ADVISORY SERVICES, INC.",
      "city": "CHESTERFIELD",
      "state": 25,
      "stateSpecified": true
    },
    {
      "fromDt": "07/2014",
      "toDt": null,
      "orgNm": "FINANCIAL FREEDOM ADVISORS, LLC",
      "city": "MT. PLEASANT",
      "state": 42,
      "stateSpecified": true
    }
  ],
  "OthrBuss": {
    "OthrBus": null
  },
  "DRPs": [
    {
      "hasRegAction": 1,
      "hasRegActionSpecified": true,
      "hasCriminal": 1,
      "hasCriminalSpecified": true,
      "hasBankrupt": 1,
      "hasBankruptSpecified": true,
      "hasCivilJudc": 1,
      "hasCivilJudcSpecified": true,
      "hasBond": 1,
      "hasBondSpecified": true,
      "hasJudgment": 1,
      "hasJudgmentSpecified": true,
      "hasInvstgn": 1,
      "hasInvstgnSpecified": true,
      "hasCustComp": 0,
      "hasCustCompSpecified": true,
      "hasTermination": 1,
      "hasTerminationSpecified": true
    }
  ]
}