{
  "Info": {
    "lastNm": "HARKEN",
    "firstNm": "MICHAEL",
    "midNm": "JON",
    "sufNm": null,
    "indvlPK": "1036834",
    "actvAGReg": 0,
    "link": "http://www.adviserinfo.sec.gov/IAPD/Individual/1036834"
  },
  "OthrNms": [],
  "CrntEmps": [
    {
      "CrntRgstns": [
        {
          "regAuth": 13,
          "regCat": 0,
          "st": 2,
          "stDt": "2014-06-03T00:00:00"
        },
        {
          "regAuth": 45,
          "regCat": 0,
          "st": 2,
          "stDt": "2015-10-05T00:00:00"
        }
      ],
      "BrnchOfLocs": [
        {
          "str1": "915 8th St",
          "str2": "Ste 101",
          "city": "Boone",
          "state": 13,
          "stateSpecified": true,
          "cntry": "United States",
          "postlCd": "50036"
        }
      ],
      "orgNm": "PRINCIPAL SECURITIES, INC.",
      "orgPK": "1137",
      "str1": "655 9TH STREET",
      "str2": null,
      "city": "DES MOINES",
      "state": 13,
      "stateSpecified": true,
      "cntry": "United States",
      "postlCd": "50309"
    }
  ],
  "Exms": [
    {
      "exmCd": 0,
      "exmNm": "Uniform Securities Agent State Law Examination",
      "exmDt": "1982-07-01T00:00:00",
      "exmDtSpecified": true
    },
    {
      "exmCd": 2,
      "exmNm": "Uniform Investment Adviser Law Examination",
      "exmDt": "1998-09-12T00:00:00",
      "exmDtSpecified": true
    }
  ],
  "Dsgntns": [
    {
      "dsgntnNm": "Certified Financial Planner"
    }
  ],
  "PrevRgstns": [
    {
      "BrnchOfLocs": [
        {
          "city": "DES MOINES",
          "state": 13,
          "stateSpecified": true
        },
        {
          "city": "DES MOINES",
          "state": 13,
          "stateSpecified": true
        },
        {
          "city": "INDEPENDENCE",
          "state": 25,
          "stateSpecified": true
        }
      ],
      "orgNm": "PRINCIPAL SECURITIES, INC.",
      "orgPK": "1137",
      "regBeginDt": "2000-01-18T00:00:00",
      "regBeginDtSpecified": true,
      "regEndDt": "2008-10-21T00:00:00",
      "regEndDtSpecified": true
    },
    {
      "BrnchOfLocs": [
        {
          "city": "WEST DES MOINES",
          "state": 13,
          "stateSpecified": true
        }
      ],
      "orgNm": "FBL INVESTMENT MANAGEMENT SERVICES, INC.",
      "orgPK": "5308",
      "regBeginDt": "2008-10-29T00:00:00",
      "regBeginDtSpecified": true,
      "regEndDt": "2014-01-16T00:00:00",
      "regEndDtSpecified": true
    }
  ],
  "EmpHss": [
    {
      "fromDt": "11/1988",
      "toDt": "10/2008",
      "orgNm": "PRINCIPAL MUTUAL LIFE INS. CO.",
      "city": "DES MOINES",
      "state": 13,
      "stateSpecified": true
    },
    {
      "fromDt": "02/1990",
      "toDt": "10/2008",
      "orgNm": "PRINCOR FINANCIAL SERVICES CORPORATION",
      "city": "DES MOINES",
      "state": 13,
      "stateSpecified": true
    },
    {
      "fromDt": "10/2008",
      "toDt": "05/2014",
      "orgNm": "EQUITRUST MARKETING SERV LLC",
      "city": "WEST DES MOINES",
      "state": 13,
      "stateSpecified": true
    },
    {
      "fromDt": "10/2008",
      "toDt": "01/2014",
      "orgNm": "FARM BUREAU",
      "city": "WEST DES MOINES",
      "state": 13,
      "stateSpecified": true
    },
    {
      "fromDt": "06/2014",
      "toDt": null,
      "orgNm": "PRINCIPAL LIFE INSURANCE COMPANY",
      "city": "BOONE",
      "state": 13,
      "stateSpecified": true
    },
    {
      "fromDt": "06/2014",
      "toDt": null,
      "orgNm": "PRINCOR FINANCIAL SERVICES CORPORATION",
      "city": "BOONE",
      "state": 13,
      "stateSpecified": true
    }
  ],
  "OthrBuss": {
    "OthrBus": {
      "desc": "*SHALLOW BOATLIFT, RESELL SPECIALIZED BOAT LIFT EQUIPMENT; 06/10/2014"
    }
  },
  "DRPs": []
}