{
  "Info": {
    "lastNm": "SHILT",
    "firstNm": "ARTHUR",
    "midNm": "ADAM",
    "sufNm": null,
    "indvlPK": "1037827",
    "actvAGReg": 0,
    "link": "http://www.adviserinfo.sec.gov/IAPD/Individual/1037827"
  },
  "OthrNms": [],
  "CrntEmps": [
    {
      "CrntRgstns": [
        {
          "regAuth": 36,
          "regCat": 0,
          "st": 2,
          "stDt": "2011-08-02T00:00:00"
        }
      ],
      "BrnchOfLocs": [
        {
          "str1": "1201 N. ORANGE STREET",
          "str2": "SUITE 729",
          "city": "WILMINGTON",
          "state": 8,
          "stateSpecified": true,
          "cntry": "United States",
          "postlCd": "19801"
        }
      ],
      "orgNm": "COASTAL INVESTMENT ADVISORS",
      "orgPK": "134952",
      "str1": "1201 N. ORANGE STREET",
      "str2": "SUITE 729",
      "city": "WILMINGTON",
      "state": 8,
      "stateSpecified": true,
      "cntry": "United States",
      "postlCd": "19801"
    }
  ],
  "Exms": [
    {
      "exmCd": 0,
      "exmNm": "Uniform Securities Agent State Law Examination",
      "exmDt": "1982-04-08T00:00:00",
      "exmDtSpecified": true
    }
  ],
  "Dsgntns": [],
  "PrevRgstns": [
    {
      "BrnchOfLocs": [
        {
          "city": "CINCINNATI",
          "state": 36,
          "stateSpecified": true
        }
      ],
      "orgNm": "THE COASTAL ADVISORY GROUP, LLC",
      "orgPK": "139534",
      "regBeginDt": "2008-12-08T00:00:00",
      "regBeginDtSpecified": true,
      "regEndDt": "2011-07-21T00:00:00",
      "regEndDtSpecified": true
    }
  ],
  "EmpHss": [
    {
      "fromDt": "07/1991",
      "toDt": null,
      "orgNm": "COASTAL EQUITIES, INC.",
      "city": "CINCINNATI",
      "state": 36,
      "stateSpecified": true
    },
    {
      "fromDt": "12/2008",
      "toDt": "07/2011",
      "orgNm": "COASTAL ADVISORY GROUP",
      "city": "CINCINNATI",
      "state": 36,
      "stateSpecified": true
    },
    {
      "fromDt": "07/2011",
      "toDt": null,
      "orgNm": "DONNELLY STEEN & COMPANY",
      "city": "WILMINGTON",
      "state": 8,
      "stateSpecified": true
    }
  ],
  "OthrBuss": {
    "OthrBus": {
      "desc": "AN INVESTMENT ADVISOR 20 HOURS PER WEEK WITH COASTAL INVESTMENT ADVISORS."
    }
  },
  "DRPs": []
}