{
  "Info": {
    "lastNm": "NEWMAN",
    "firstNm": "ROBERT",
    "midNm": null,
    "sufNm": null,
    "indvlPK": "1037553",
    "actvAGReg": 1,
    "link": "http://www.adviserinfo.sec.gov/IAPD/Individual/1037553"
  },
  "OthrNms": [
    {
      "lastNm": "NEWMAN",
      "firstNm": "ROBERT",
      "midNm": "J",
      "sufNm": null
    },
    {
      "lastNm": "NEWMAN",
      "firstNm": "ROBERT",
      "midNm": "L",
      "sufNm": null
    }
  ],
  "CrntEmps": [
    {
      "CrntRgstns": [
        {
          "regAuth": 45,
          "regCat": 0,
          "st": 2,
          "stDt": "2008-03-31T00:00:00"
        },
        {
          "regAuth": 4,
          "regCat": 0,
          "st": 2,
          "stDt": "2009-11-20T00:00:00"
        }
      ],
      "BrnchOfLocs": [
        {
          "str1": "THREE HARBOR DRIVE, SUITE 315",
          "str2": null,
          "city": "SAUSALITO",
          "state": 4,
          "stateSpecified": true,
          "cntry": "United States",
          "postlCd": "94965"
        }
      ],
      "orgNm": "APERIO GROUP, LLC",
      "orgPK": "111616",
      "str1": "THREE HARBOR DRIVE, SUITE 315",
      "str2": null,
      "city": "SAUSALITO",
      "state": 4,
      "stateSpecified": true,
      "cntry": "United States",
      "postlCd": "94965"
    }
  ],
  "Exms": [
    {
      "exmCd": 0,
      "exmNm": "Uniform Securities Agent State Law Examination",
      "exmDt": "1982-07-01T00:00:00",
      "exmDtSpecified": true
    }
  ],
  "Dsgntns": [
    {
      "dsgntnNm": "Chartered Financial Analyst"
    }
  ],
  "PrevRgstns": [],
  "EmpHss": [
    {
      "fromDt": "05/1993",
      "toDt": null,
      "orgNm": "NEWMAN GROUP",
      "city": "HILLSBOROUGH",
      "state": 4,
      "stateSpecified": true
    },
    {
      "fromDt": "12/2000",
      "toDt": null,
      "orgNm": "APERIO GROUP, LLC",
      "city": "LARKSPUR",
      "state": 4,
      "stateSpecified": true
    }
  ],
  "OthrBuss": {
    "OthrBus": {
      "desc": "NEWMAN GROUP, LTD 916 JACKLING DRIVE  BURLINGAME, CA 94010    SHAREHOLDER AND ADVISOR  ZERO HOURS"
    }
  },
  "DRPs": []
}