{
  "Info": {
    "lastNm": "GRAY",
    "firstNm": "CHARLES",
    "midNm": "BORDEN",
    "sufNm": null,
    "indvlPK": "1051975",
    "actvAGReg": 0,
    "link": "http://www.adviserinfo.sec.gov/IAPD/Individual/1051975"
  },
  "OthrNms": [
    {
      "lastNm": "GRAY",
      "firstNm": "CHARLIE",
      "midNm": null,
      "sufNm": null
    }
  ],
  "CrntEmps": [
    {
      "CrntRgstns": [
        {
          "regAuth": 10,
          "regCat": 0,
          "st": 2,
          "stDt": "2003-04-24T00:00:00"
        },
        {
          "regAuth": 45,
          "regCat": 0,
          "st": 3,
          "stDt": "2004-10-18T00:00:00"
        }
      ],
      "BrnchOfLocs": [
        {
          "str1": "1100 ABERNATHY RD",
          "str2": "BLD. 500, STE. 500",
          "city": "ATLANTA",
          "state": 10,
          "stateSpecified": true,
          "cntry": "United States",
          "postlCd": "30328"
        }
      ],
      "orgNm": "GV FINANCIAL ADVISORS, INC.",
      "orgPK": "106725",
      "str1": "1100 ABERNATHY ROAD",
      "str2": "SUITE 500",
      "city": "ATLANTA",
      "state": 10,
      "stateSpecified": true,
      "cntry": "United States",
      "postlCd": "30328-5646"
    }
  ],
  "Exms": [
    {
      "exmCd": 0,
      "exmNm": "Uniform Securities Agent State Law Examination",
      "exmDt": "1982-09-01T00:00:00",
      "exmDtSpecified": true
    }
  ],
  "Dsgntns": [
    {
      "dsgntnNm": "Certified Financial Planner"
    }
  ],
  "PrevRgstns": [
    {
      "BrnchOfLocs": [
        {
          "city": "ATLANTA",
          "state": 10,
          "stateSpecified": true
        }
      ],
      "orgNm": "GV FINANCIAL ADVISORS, INC.",
      "orgPK": "112118",
      "regBeginDt": "2003-04-25T00:00:00",
      "regBeginDtSpecified": true,
      "regEndDt": "2011-12-06T00:00:00",
      "regEndDtSpecified": true
    }
  ],
  "EmpHss": [
    {
      "fromDt": "02/1991",
      "toDt": null,
      "orgNm": "GV ATLANTA, INC",
      "city": "ATLANTA",
      "state": 10,
      "stateSpecified": true
    },
    {
      "fromDt": "02/1991",
      "toDt": "12/2011",
      "orgNm": "GV CAPITAL MANAGEMENT, INC",
      "city": "ATLANTA",
      "state": 10,
      "stateSpecified": true
    },
    {
      "fromDt": "02/1991",
      "toDt": null,
      "orgNm": "GV FINANCIAL ADVISORS, INC",
      "city": "ATLANTA",
      "state": 10,
      "stateSpecified": true
    },
    {
      "fromDt": "02/1991",
      "toDt": null,
      "orgNm": "MINNESOTA LIFE",
      "city": "ST. PAUL",
      "state": 24,
      "stateSpecified": true
    },
    {
      "fromDt": "02/1991",
      "toDt": null,
      "orgNm": "SECURIAN FINANCIAL SERVICES, INC.",
      "city": "ST. PAUL",
      "state": 24,
      "stateSpecified": true
    },
    {
      "fromDt": "04/2007",
      "toDt": "12/2008",
      "orgNm": "KIRSCHNER & LEWYN, LLC",
      "city": "ATLANTA",
      "state": 10,
      "stateSpecified": true
    }
  ],
  "OthrBuss": {
    "OthrBus": {
      "desc": "*GV ATLANTA, INC, ATLANTA, GA; NON INVESTMENT RELATED; FIXED INSURNCE SALES; AGENT; 04/1999 TO PRESENT; VARIOUS HOURS/MNTH WITH VARIOUS HOURS/MNTH DURING TRADING HOURS. *MOUNT VERNON PRESBYTERIAN FOUNDATION, ATLANTA, GA; NON INVESTMENT RELATED; PRESIDENT; 01/2014; 3-4 HRS/MNTH WITH 1 HR/MNTH DURING TRADING HOURS. *GUIDED WEALTH INC, ATLANTA, GA; INVESTMENT RELATED, OWNER; 06/2015-PRESENT; 5HRS/MO, 0HRS/MO DURING TRADING.*GV FINANCIAL ADVISORS IA BUSINESS, ATLANTA, GA; INVESTMENT RELATED; INVESTMENT ADVISOR REPRESENTATIVE; 09/2015 TO PRESENT; 10 HRS/MO WITH 10 HRS/MO DURING TRADING HOURS.*GV ATLANTA, ATLANTA, GA; INVESTMENT RELATED; AGENT; 09/2015 TO PRESENT; 10 HRS/MO WITH 10 HRS/MO DURING TRADING HOURS."
    }
  },
  "DRPs": [
    {
      "hasRegAction": 1,
      "hasRegActionSpecified": true,
      "hasCriminal": 1,
      "hasCriminalSpecified": true,
      "hasBankrupt": 1,
      "hasBankruptSpecified": true,
      "hasCivilJudc": 1,
      "hasCivilJudcSpecified": true,
      "hasBond": 1,
      "hasBondSpecified": true,
      "hasJudgment": 1,
      "hasJudgmentSpecified": true,
      "hasInvstgn": 1,
      "hasInvstgnSpecified": true,
      "hasCustComp": 0,
      "hasCustCompSpecified": true,
      "hasTermination": 1,
      "hasTerminationSpecified": true
    }
  ]
}