{
  "Info": {
    "lastNm": "CAMMON",
    "firstNm": "ROGER",
    "midNm": "ERVON",
    "sufNm": null,
    "indvlPK": "1055486",
    "actvAGReg": 0,
    "link": "http://www.adviserinfo.sec.gov/IAPD/Individual/1055486"
  },
  "OthrNms": [],
  "CrntEmps": [
    {
      "CrntRgstns": [
        {
          "regAuth": 25,
          "regCat": 0,
          "st": 2,
          "stDt": "2001-10-11T00:00:00"
        },
        {
          "regAuth": 2,
          "regCat": 0,
          "st": 2,
          "stDt": "2012-01-10T00:00:00"
        }
      ],
      "BrnchOfLocs": [
        {
          "str1": "701 MARKET STREET",
          "str2": "SUITE 1200",
          "city": "ST. LOUIS",
          "state": 25,
          "stateSpecified": true,
          "cntry": "United States",
          "postlCd": "63101"
        }
      ],
      "orgNm": "AXA ADVISORS, LLC",
      "orgPK": "6627",
      "str1": "1290 AVENUE OF THE AMERICAS",
      "str2": null,
      "city": "NEW YORK",
      "state": 35,
      "stateSpecified": true,
      "cntry": "United States",
      "postlCd": "10104"
    }
  ],
  "Exms": [
    {
      "exmCd": 0,
      "exmNm": "Uniform Securities Agent State Law Examination",
      "exmDt": "1991-10-22T00:00:00",
      "exmDtSpecified": true
    },
    {
      "exmCd": 2,
      "exmNm": "Uniform Investment Adviser Law Examination",
      "exmDt": "1999-10-04T00:00:00",
      "exmDtSpecified": true
    }
  ],
  "Dsgntns": [],
  "PrevRgstns": [],
  "EmpHss": [
    {
      "fromDt": "10/1983",
      "toDt": null,
      "orgNm": "BRYANT GROUP, INC.",
      "city": "ST. LOUIS",
      "state": 25,
      "stateSpecified": true
    },
    {
      "fromDt": "09/1999",
      "toDt": null,
      "orgNm": "AXA ADVISORS, LLC",
      "city": "NEW YORK",
      "state": 35,
      "stateSpecified": true
    },
    {
      "fromDt": "12/2001",
      "toDt": null,
      "orgNm": "M. HOLDINGS SECURITIES, INC.",
      "city": "PORTLAND",
      "state": 38,
      "stateSpecified": true
    }
  ],
  "OthrBuss": {
    "OthrBus": {
      "desc": "PRES AND CO CEO OF BRYANT GROUP, INC, OCT 1983, 12,500 DOLLARS PER YR 60 HRS PER MONTH  ST LOUIS PRIORY SCHOOL, FINANCE COMM. MEMBER, SEPT 2011, 2 HRS PER MONTH, NO COMP VARIOUS OUTSIDE INSURANCE COMPANIES, BYRANT GROUP, INC, SERVICE AGENT, JAN 1997, 1 HOUR PER MONTH, 1500 DOLLARS PER YEAR ST  LOUIS PRIMARY SCHOOL , FINANCE COMM SINCE 2013  REVIEW AND ADVISORY ONLY 1 HR PER MO, NO COMP, INCARNATE WORD FOUNDATION, BOARD MEMBER, SEPT 1 2015, 2 HOURS PER MONTH, NO COMP"
    }
  },
  "DRPs": []
}