{
  "Info": {
    "lastNm": "MAZZOLA",
    "firstNm": "JOHN",
    "midNm": "GLENNON",
    "sufNm": null,
    "indvlPK": "1060018",
    "actvAGReg": 0,
    "link": "http://www.adviserinfo.sec.gov/IAPD/Individual/1060018"
  },
  "OthrNms": [],
  "CrntEmps": [
    {
      "CrntRgstns": [
        {
          "regAuth": 25,
          "regCat": 0,
          "st": 2,
          "stDt": "2010-11-17T00:00:00"
        }
      ],
      "BrnchOfLocs": [
        {
          "str1": "350 SWEET BRIAR COURT",
          "str2": null,
          "city": "LABADIE",
          "state": 25,
          "stateSpecified": true,
          "cntry": "United States",
          "postlCd": "63055"
        }
      ],
      "orgNm": "VICUS CAPITAL, INC.",
      "orgPK": "116021",
      "str1": "476 ROLLING RIDGE DRIVE",
      "str2": "SUITE 315",
      "city": "STATE COLLEGE",
      "state": 39,
      "stateSpecified": true,
      "cntry": "United States",
      "postlCd": "16801"
    }
  ],
  "Exms": [
    {
      "exmCd": 0,
      "exmNm": "Uniform Securities Agent State Law Examination",
      "exmDt": "1982-10-11T00:00:00",
      "exmDtSpecified": true
    },
    {
      "exmCd": 2,
      "exmNm": "Uniform Investment Adviser Law Examination",
      "exmDt": "1999-11-11T00:00:00",
      "exmDtSpecified": true
    }
  ],
  "Dsgntns": [],
  "PrevRgstns": [
    {
      "BrnchOfLocs": [
        {
          "city": "ST. LOUIS",
          "state": 25,
          "stateSpecified": true
        }
      ],
      "orgNm": "WEST COUNTY FINANCIAL SERVICES",
      "orgPK": "113810",
      "regBeginDt": "1999-02-19T00:00:00",
      "regBeginDtSpecified": true,
      "regEndDt": "2011-04-14T00:00:00",
      "regEndDtSpecified": true
    }
  ],
  "EmpHss": [
    {
      "fromDt": "02/1992",
      "toDt": null,
      "orgNm": "WEST COUNTY FINANCIAL SERVICES & INSURA",
      "city": "MANCHESTER",
      "state": 25,
      "stateSpecified": true
    },
    {
      "fromDt": "06/1996",
      "toDt": "08/2013",
      "orgNm": "WALNUT STREET SECURITIES, INC.",
      "city": "DES PERES",
      "state": 25,
      "stateSpecified": true
    },
    {
      "fromDt": "11/2010",
      "toDt": null,
      "orgNm": "VICUS CAPITAL, INC. (FORMERLY PFG FINANCIAL ADVISORS)",
      "city": "STATE COLLEGE",
      "state": 39,
      "stateSpecified": true
    },
    {
      "fromDt": "09/2013",
      "toDt": null,
      "orgNm": "CETERA ADVISOR NETWORKS LLC",
      "city": "EL SEGUNDO",
      "state": 4,
      "stateSpecified": true
    }
  ],
  "OthrBuss": {
    "OthrBus": {
      "desc": "1. INDEPENDENT INSURANCE AGENT, DISABILITY, FIXED ANNUITIES, LIFE/ACCIDENT/HEALTH, LONG-TERM CARE,  BEGAN 07/1973,  4HRS/WKDY ONLY;    2. VICUS CAPITAL, INC.,  INVESTMENT RELATED,  SAME AS REGISTERED ADDRESS,  OUTSIDE RIA - ADVISORY BUSINESS,  START 12/2010,  21HRS/WK (20 TRADING HOURS),  INVESTMENT ADVISOR REPRESENTATIVE;    3. MAZZOLA FAMILY TRUST,  INVESTMENT RELATED,  SAME AS REGISTERED ADDRESS,  TRUST,  START 09/15/1994,  <1HR/WK (NON-TRADING HOURS),  CO-TRUSTEE;    4. WEST COUNTY FINANCIAL SERVICES,  INVESTMENT RELATED,  SAME AS REGISTERED ADDRESS,  DBA NAME FOR INSURANCE, SECURITIES, & ADVISORY SERVICES,  START 1992,  40HRS/WK (32.5 TRADING HOURS),  INSURANCE AGENT, REGISTERED REPRESENTATIVE, INVESETMENT ADVISOR REPRESENTATIVE;"
    }
  },
  "DRPs": []
}