{
  "Info": {
    "lastNm": "MITCHEN",
    "firstNm": "RICHARD",
    "midNm": "EDWARD",
    "sufNm": null,
    "indvlPK": "1065032",
    "actvAGReg": 0,
    "link": "http://www.adviserinfo.sec.gov/IAPD/Individual/1065032"
  },
  "OthrNms": [],
  "CrntEmps": [
    {
      "CrntRgstns": [
        {
          "regAuth": 45,
          "regCat": 0,
          "st": 3,
          "stDt": "2009-01-02T00:00:00"
        },
        {
          "regAuth": 19,
          "regCat": 0,
          "st": 2,
          "stDt": "2009-05-08T00:00:00"
        }
      ],
      "BrnchOfLocs": [
        {
          "str1": "4757 MILLWOOD DRIVE",
          "str2": null,
          "city": "BATON ROUGE",
          "state": 19,
          "stateSpecified": true,
          "cntry": "United States",
          "postlCd": "70817"
        }
      ],
      "orgNm": "RAYMOND JAMES FINANCIAL SERVICES ADVISORS, INC",
      "orgPK": "149018",
      "str1": "880 CARILLON PARKWAY",
      "str2": null,
      "city": "SAINT PETERSBURG",
      "state": 9,
      "stateSpecified": true,
      "cntry": "United States",
      "postlCd": "33716"
    }
  ],
  "Exms": [
    {
      "exmCd": 0,
      "exmNm": "Uniform Securities Agent State Law Examination",
      "exmDt": "1987-02-18T00:00:00",
      "exmDtSpecified": true
    }
  ],
  "Dsgntns": [],
  "PrevRgstns": [],
  "EmpHss": [
    {
      "fromDt": "04/1981",
      "toDt": null,
      "orgNm": "RICHARD E MITCHEN CPA",
      "city": "BATON ROUGE",
      "state": 19,
      "stateSpecified": true
    },
    {
      "fromDt": "08/1982",
      "toDt": null,
      "orgNm": "RAYMOND JAMES FINANCIAL SERVICES, INC.",
      "city": "BATON ROUGE",
      "state": 19,
      "stateSpecified": true
    },
    {
      "fromDt": "04/2005",
      "toDt": null,
      "orgNm": "CAMP SMILING ACRES",
      "city": "GREENSBURG",
      "state": 19,
      "stateSpecified": true
    },
    {
      "fromDt": "04/2005",
      "toDt": null,
      "orgNm": "RICHARD E. MITCHEN CPA",
      "city": "BATON ROUGE",
      "state": 19,
      "stateSpecified": true
    },
    {
      "fromDt": "04/2005",
      "toDt": "12/2008",
      "orgNm": "SILVIO,MITCHEN & WALKER",
      "city": "BATON ROUGE",
      "state": 19,
      "stateSpecified": true
    },
    {
      "fromDt": "02/2007",
      "toDt": null,
      "orgNm": "INSURANCE - NON VARIABLE",
      "city": "RATON ROUGE",
      "state": 19,
      "stateSpecified": true
    },
    {
      "fromDt": "01/2009",
      "toDt": null,
      "orgNm": "RAYMOND JAMES FINANCIAL SERVICES ADVISORS, INC",
      "city": "BATON ROUGE",
      "state": 19,
      "stateSpecified": true
    },
    {
      "fromDt": "01/2013",
      "toDt": null,
      "orgNm": "TEQPRO PROFESSIONAL SERVICES, INC",
      "city": "BATON ROUGE",
      "state": 19,
      "stateSpecified": true
    },
    {
      "fromDt": "03/2013",
      "toDt": null,
      "orgNm": "MITCHEN WEALTH MANAGEMENT LLC",
      "city": "BATON ROUGE",
      "state": 19,
      "stateSpecified": true
    }
  ],
  "OthrBuss": {
    "OthrBus": {
      "desc": "1.PRIVATE INVESTMENT IN SEVERGY, INC. - BATON ROUGE, LA. NO DUTIES OR RESPONSIBLITIES. WILL NOT RECOMMEND TO CLIENTS.  STARTED 03/17/2011. 0 HOURS WEEKLY, 0 DURING TRADING HOURS. 2. RICHARD E. MICHTEN CPA - BATON ROUGE, LA. OWNER OF SUPPORT COMPANY. ACCOUNTING/CPA/TAX PREP COMPANY.  STARTED 04/1981 TO PRESENT. 8 HOURS WEEKLY, 8 DURING TRADING HOURS.  3. INSURANCE-NON VARIABLE - BATON ROUGE, LA. LIFE & HEALTH INSURANCE SALES. 1 HOUR WEEKLY, 1 DURING TRADING HOURS.  4. MITCHEN WEALTH MANAGEMENT LLC - BATON ROUGE, LA. OWNER OF SUPPORT COMPANY.  0 HOURS WEEKLY, 0 DURING TRADING HOURS.  NOT INVESTMENT RELATED. 01/2012-PRESENT. LLC FOR RJ BUSINESS.  5. SOLE PROPRIETOR - RICHARD MITCHEN; INVESTMENT RELATED; 6/1966- PRESENT; BATON ROUGE, LA; PERSONAL/PRIVATE INVESTMENT, COLLECTABLES - COINS, STAMPS, CURRENCY, BOOKS, MAPS, ART; 2 HRS/MONTH, 0 HRS DURING TRADING.  6. TEQPRO PROFESSIONAL SERVICES, INC - BATON ROUGE, LA - 01/2013 TO PRESENT - BUSINESS OWNER/PROPRIETOR/OWNER - REVIEW FINANCIALS - 2 HOURS PER MONTH - 2 HOURS DURING TRADING HOURS - INVESTMENT RELATED  7. RICHARD E. MITCHEN CPA; BATON ROUGE, LA; ACCOUNTING/CPA; PROPRIETOR/OWNER; NOT INVESTMENT RELATED; 04/2005-PRESENT; 32 HOURS PER MONTH, 8 HOURS DURING TRADING."
    }
  },
  "DRPs": []
}