{
  "Info": {
    "lastNm": "LOVELAND",
    "firstNm": "NANCY",
    "midNm": "ARLENE",
    "sufNm": null,
    "indvlPK": "1071351",
    "actvAGReg": 0,
    "link": "http://www.adviserinfo.sec.gov/IAPD/Individual/1071351"
  },
  "OthrNms": [
    {
      "lastNm": "HARRISON",
      "firstNm": "NANCY",
      "midNm": "ARLENE",
      "sufNm": null
    },
    {
      "lastNm": "SKINNER",
      "firstNm": "NANCY",
      "midNm": "LOVELAND",
      "sufNm": null
    }
  ],
  "CrntEmps": [
    {
      "CrntRgstns": [
        {
          "regAuth": 3,
          "regCat": 0,
          "st": 2,
          "stDt": "2007-08-20T00:00:00"
        }
      ],
      "BrnchOfLocs": [
        {
          "str1": "6520 N 7TH ST",
          "str2": "STE 100C",
          "city": "PHOENIX",
          "state": 3,
          "stateSpecified": true,
          "cntry": "United States",
          "postlCd": "85014"
        },
        {
          "str1": "7333 E. DOUBLETREE RANCH ROAD #120",
          "str2": null,
          "city": "SCOTTSDALE",
          "state": 3,
          "stateSpecified": true,
          "cntry": "UNITED STATES",
          "postlCd": "85258-2023"
        }
      ],
      "orgNm": "UNITED PLANNERS' FINANCIAL SERVICES OF AMERICA A LIMITED PARTNER",
      "orgPK": "20804",
      "str1": "7333 EAST DOUBLETREE RANCH RD, SUITE 120",
      "str2": null,
      "city": "SCOTTSDALE",
      "state": 3,
      "stateSpecified": true,
      "cntry": "United States",
      "postlCd": "85258"
    }
  ],
  "Exms": [
    {
      "exmCd": 0,
      "exmNm": "Uniform Securities Agent State Law Examination",
      "exmDt": "1982-10-29T00:00:00",
      "exmDtSpecified": true
    },
    {
      "exmCd": 2,
      "exmNm": "Uniform Investment Adviser Law Examination",
      "exmDt": "1998-07-31T00:00:00",
      "exmDtSpecified": true
    }
  ],
  "Dsgntns": [
    {
      "dsgntnNm": "Certified Financial Planner"
    }
  ],
  "PrevRgstns": [
    {
      "BrnchOfLocs": [
        {
          "city": "PHOENIX",
          "state": 3,
          "stateSpecified": true
        }
      ],
      "orgNm": "CETERA ADVISOR NETWORKS LLC",
      "orgPK": "13572",
      "regBeginDt": "2003-03-11T00:00:00",
      "regBeginDtSpecified": true,
      "regEndDt": "2004-06-28T00:00:00",
      "regEndDtSpecified": true
    }
  ],
  "EmpHss": [
    {
      "fromDt": "02/1983",
      "toDt": null,
      "orgNm": "NANCY LOVELAND - SELF EMPLOYED REP",
      "city": "PHOENIX",
      "state": 3,
      "stateSpecified": true
    },
    {
      "fromDt": "06/2004",
      "toDt": null,
      "orgNm": "UNITED PLANNERS FINANCIAL SERVICES",
      "city": "SCOTTSDALE",
      "state": 3,
      "stateSpecified": true
    },
    {
      "fromDt": "07/2009",
      "toDt": "04/2011",
      "orgNm": "MOVIE WORK NOW",
      "city": "PHOENIX",
      "state": 3,
      "stateSpecified": true
    }
  ],
  "OthrBuss": {
    "OthrBus": {
      "desc": "NANCY A. LOVELAND (DBA) - AGENT/REP -INSURANCE AND FINANCIAL SERVICES -  PHOENIX, AZ - SINCE 02/1983."
    }
  },
  "DRPs": []
}