{
  "Info": {
    "lastNm": "DURDEN",
    "firstNm": "DERRYL",
    "midNm": "MELVIN",
    "sufNm": null,
    "indvlPK": "1075174",
    "actvAGReg": 0,
    "link": "http://www.adviserinfo.sec.gov/IAPD/Individual/1075174"
  },
  "OthrNms": [],
  "CrntEmps": [
    {
      "CrntRgstns": [
        {
          "regAuth": 49,
          "regCat": 0,
          "st": 2,
          "stDt": "2010-08-02T00:00:00"
        }
      ],
      "BrnchOfLocs": [
        {
          "str1": null,
          "str2": null,
          "city": "SEATTLE",
          "state": 49,
          "stateSpecified": true,
          "cntry": "United States",
          "postlCd": null
        },
        {
          "str1": "11440 NORTH JOG ROAD",
          "str2": null,
          "city": "PALM BEACH GARDENS",
          "state": 9,
          "stateSpecified": true,
          "cntry": "USA",
          "postlCd": "33418-3764"
        },
        {
          "str1": "11440 NORTH JOG ROAD",
          "str2": null,
          "city": "PALM BEACH GARDENS",
          "state": 9,
          "stateSpecified": true,
          "cntry": "United States",
          "postlCd": "33418-3764"
        }
      ],
      "orgNm": "GWN SECURITIES INC.",
      "orgPK": "128929",
      "str1": "11440 NORTH JOG ROAD",
      "str2": null,
      "city": "PALM BEACH GARDENS",
      "state": 9,
      "stateSpecified": true,
      "cntry": "United States",
      "postlCd": "33418-3764"
    }
  ],
  "Exms": [
    {
      "exmCd": 2,
      "exmNm": "Uniform Investment Adviser Law Examination",
      "exmDt": "1999-07-23T00:00:00",
      "exmDtSpecified": true
    },
    {
      "exmCd": 0,
      "exmNm": "Uniform Securities Agent State Law Examination",
      "exmDt": "2004-04-19T00:00:00",
      "exmDtSpecified": true
    }
  ],
  "Dsgntns": [
    {
      "dsgntnNm": "Chartered Financial Consultant"
    }
  ],
  "PrevRgstns": [
    {
      "BrnchOfLocs": [
        {
          "city": "SEATTLE",
          "state": 49,
          "stateSpecified": true
        }
      ],
      "orgNm": "SIGNATOR FINANCIAL SERVICES, INC.",
      "orgPK": "19061",
      "regBeginDt": "2002-01-29T00:00:00",
      "regBeginDtSpecified": true,
      "regEndDt": "2004-02-03T00:00:00",
      "regEndDtSpecified": true
    },
    {
      "BrnchOfLocs": [
        {
          "city": "CINCINNATI",
          "state": 36,
          "stateSpecified": true
        },
        {
          "city": "CINCINNATI",
          "state": 36,
          "stateSpecified": true
        },
        {
          "city": "CINCINNATI",
          "state": 36,
          "stateSpecified": true
        },
        {
          "city": "LAKE TAPPS",
          "state": 49,
          "stateSpecified": true
        }
      ],
      "orgNm": "GREAT AMERICAN ADVISORS, INC.",
      "orgPK": "36451",
      "regBeginDt": "2006-12-07T00:00:00",
      "regBeginDtSpecified": true,
      "regEndDt": "2010-08-04T00:00:00",
      "regEndDtSpecified": true
    }
  ],
  "EmpHss": [
    {
      "fromDt": "01/1983",
      "toDt": null,
      "orgNm": "EAST UNION INVESTORS, INC",
      "city": "SEATTLE",
      "state": 49,
      "stateSpecified": true
    },
    {
      "fromDt": "02/1992",
      "toDt": null,
      "orgNm": "SELF EMPLOYED  DBA - DURDEN & DURDEN, INC",
      "city": "SEATTLE",
      "state": 49,
      "stateSpecified": true
    },
    {
      "fromDt": "12/2001",
      "toDt": null,
      "orgNm": "SAFECO INVESTMENT SERVICES, INC.",
      "city": "REDMOND",
      "state": 49,
      "stateSpecified": true
    },
    {
      "fromDt": "12/2006",
      "toDt": "08/2010",
      "orgNm": "GREAT AMERICAN ADVISORS, INC.",
      "city": "CINCINNATI",
      "state": 36,
      "stateSpecified": true
    },
    {
      "fromDt": "08/2010",
      "toDt": null,
      "orgNm": "GWN SECURITIES INC",
      "city": "PALM BEACH GARDENS",
      "state": 9,
      "stateSpecified": true
    }
  ],
  "OthrBuss": {
    "OthrBus": {
      "desc": "1. EAST UNION INVESTORS, OWNS AND MANAGES A COMMERCIAL OFFICE BUILDING. PRESIDENT AND CEO BUILDING MANAGEMENT, DEVOTES ABOUT 5 HRS PER MONTH. DOES NOT RELATE TO INS OR SEC BUSINESS. 2. HIGHLAND CAPITAL BROKERAGE, INSURANCE SALES, AGENT, LONG TERM CARE SALES & SERVICE, 2314 E UNION ST., STE. 201, SEATTLE, WA 98122 3.  DURDEN & DURDEN,  INVESTMENT ADVISOR REPRESENTATIVE, VICE-PRES INSURANCE AND FINANCIAL PLANNING---COMMISSION AND FEE COMPENSATION, 2314 E UNION ST., STE. 201, SEATTLE, WA 98122.    INDEX ANNUITY SALES  POSITION: AGENT NATURE: FIXED ANNUITY SALES & SERVICE INVESTMENT RELATED: NO NUMBER OF HOURS: 50 INVESTMENT RELATED HOURS: 50 START DATE: 02/01/1986  ADDRESS: JACKSON NATIONAL LIFE, 1 CORPORATE WAY P.O. BOX 24068, LANSING MI 48951  DESCRIPTION: ASSET ALLOCATION PLAN CONSULATION, SERVICE, AND REVIEW    THE CD ASSOCIATION  POSITION: PRESIDENT NATURE: NEIGBORHOOD BUSINESS DISTRICT CLEANLINESS, PUBLIC SAFETY, & WELCOMING ENVIROMENT INVESTMENT RELATED: NO NUMBER OF HOURS: 15 INVESTMENT RELATED HOURS: 15 START DATE: 01/03/2011  ADDRESS: PO BOX 22026, SEATTLE WA 98103  DESCRIPTION: COORDINATE & LEAD BOARD MEETINGS AND ACTIVITIES    NEW MARKETS TAX COMMITTEE ADVISORY BOARD  POSITION: BOARD MEMBER NATURE: GIVE OPINION AS TO THE COMMUNITY VALUE OF PROPOSED REAL ESTATE DEVELOPEMENT. INVESTMENT RELATED: NO NUMBER OF HOURS: 1 SECURITIES TRADING HOURS: 0 START DATE: 06/30/2013  ADDRESS: SEATTLE INVESTMENT FUND, PO BOX 94708, SEATTLE WA 98124-4708  DESCRIPTION: THE ADVISORY BOARD I AM A MEMBER OF EVALUATES COMMERCIAL REAL ESTATE PROJECTS PROPOSED IN UNDERSERVED SEATTLE COMMUNITIES, AND GIVE OPINION TO THE NEW MARKETS TAX COMMITTEE AS TO IF THE PROJECT FORWARDS THE GOALS OF THE NEW MARKETS TAX CREDIT COMMITTEE. THE NEW COMMITTEE DECIDES WETHER TO AWARD THE TAX CREDITS FOR THE PROJECT. THIS IS DONE IN OUTSIDE OF AND APART FROM MY ROLE ON THE ADVISROY BOARD.    LTC THROUGH HIGHLAND CAPITAL BROKERAGE  POSITION: AGENT NATURE: RISK TRANSFER PLANNING FOR LONG TERM HEALTHCARE INVESTMENT RELATED: NO NUMBER OF HOURS: 4 SECURITIES TRADING HOURS: 4 START DATE: 01/03/2005  ADDRESS: HIGHLAND CAPITAL BROKERAGE, 1601 FIFTH AVENUE, SUITE 1800, SEATTLE WA 98101  DESCRIPTION: SALES & SERVICE"
    }
  },
  "DRPs": []
}