{
  "Info": {
    "lastNm": "ULIASZ",
    "firstNm": "ROBERT",
    "midNm": "JOSEPH",
    "sufNm": null,
    "indvlPK": "1078965",
    "actvAGReg": 0,
    "link": "http://www.adviserinfo.sec.gov/IAPD/Individual/1078965"
  },
  "OthrNms": [],
  "CrntEmps": [
    {
      "CrntRgstns": [
        {
          "regAuth": 48,
          "regCat": 0,
          "st": 2,
          "stDt": "2010-03-08T00:00:00"
        },
        {
          "regAuth": 20,
          "regCat": 0,
          "st": 2,
          "stDt": "2010-03-17T00:00:00"
        }
      ],
      "BrnchOfLocs": [
        {
          "str1": "87 EAST ST",
          "str2": null,
          "city": "PITTSFIELD",
          "state": 20,
          "stateSpecified": true,
          "cntry": "United States",
          "postlCd": "01202"
        }
      ],
      "orgNm": "INVEST FINANCIAL CORPORATION",
      "orgPK": "12984",
      "str1": "12750 CITRUS PARK LANE",
      "str2": "SUITE 300",
      "city": "TAMPA",
      "state": 9,
      "stateSpecified": true,
      "cntry": "United States",
      "postlCd": "33625"
    }
  ],
  "Exms": [
    {
      "exmCd": 0,
      "exmNm": "Uniform Securities Agent State Law Examination",
      "exmDt": "1981-06-10T00:00:00",
      "exmDtSpecified": true
    }
  ],
  "Dsgntns": [
    {
      "dsgntnNm": "Chartered Financial Consultant"
    }
  ],
  "PrevRgstns": [],
  "EmpHss": [
    {
      "fromDt": "11/1980",
      "toDt": "02/2010",
      "orgNm": "NEW ENGLAND LIFE",
      "city": "PITTSFIELD",
      "state": 20,
      "stateSpecified": true
    },
    {
      "fromDt": "11/1982",
      "toDt": "02/2010",
      "orgNm": "NEW ENGLAND SECURITIES",
      "city": "WEST HARTFORD",
      "state": 6,
      "stateSpecified": true
    },
    {
      "fromDt": "08/1992",
      "toDt": null,
      "orgNm": "BARDWELL BOWLBY & KARAM",
      "city": "PITTSFIELD",
      "state": 20,
      "stateSpecified": true
    },
    {
      "fromDt": "03/2010",
      "toDt": null,
      "orgNm": "INVEST FINANCIAL CORPORATION",
      "city": "PITTSFIELD",
      "state": 20,
      "stateSpecified": true
    }
  ],
  "OthrBuss": {
    "OthrBus": {
      "desc": "1)BARDWELL, BOWLBY & KARAN INSURANCE; 87 EAST STREET, PO BOX 1700, PITTSFILED, MA 01202; SALES OF LIFE; LIFE INSURANCE & THE SELLING OF GROUP INSURANCE; P & C; INVESTMENT RELATED; START 1/1/80; 80 HRS/MO; 80 DURING TRADING; 2) BARDWELL, BOWLBY & KARAN; 87 EAST ST, PO BOX 1700, PITTSFIELD, MA 01202;P & C; SALES - SELLING OF P & C BUSSINES; INVESTMENT RELATED; START 1/1/80; 80 HRS/MO, 80 DURING TRADING.  3) ROBERT J. ULIASZ & SUSAN J. ULIASZ; INVESTMENT RELATED; 3487 RABBIT RUN PATH, THE VILLAGES, FL  32162; HOME RENTAL; OWNER; START DATE 11/1/14; 10 HPM/0 HPM DURING TRADING"
    }
  },
  "DRPs": []
}