{
  "Info": {
    "lastNm": "MYERS",
    "firstNm": "JOHN",
    "midNm": "E",
    "sufNm": "III",
    "indvlPK": "1080462",
    "actvAGReg": 0,
    "link": "http://www.adviserinfo.sec.gov/IAPD/Individual/1080462"
  },
  "OthrNms": [
    {
      "lastNm": "MYERS III",
      "firstNm": "JOHN",
      "midNm": "E",
      "sufNm": "III"
    },
    {
      "lastNm": "MYERS",
      "firstNm": "JOHN",
      "midNm": "EDWARD",
      "sufNm": "III"
    }
  ],
  "CrntEmps": [
    {
      "CrntRgstns": [
        {
          "regAuth": 44,
          "regCat": 0,
          "st": 2,
          "stDt": "2009-06-01T00:00:00"
        },
        {
          "regAuth": 9,
          "regCat": 0,
          "st": 2,
          "stDt": "2014-04-11T00:00:00"
        }
      ],
      "BrnchOfLocs": [
        {
          "str1": "4458 LEGENDARY DRIVE",
          "str2": "SUITE 300",
          "city": "DESTIN",
          "state": 9,
          "stateSpecified": true,
          "cntry": "United States",
          "postlCd": "32541"
        },
        {
          "str1": "LANDMARK CENTER",
          "str2": "1111 NORTH SHORE DR STE N-160",
          "city": "KNOXVILLE",
          "state": 44,
          "stateSpecified": true,
          "cntry": "United States",
          "postlCd": "37919"
        }
      ],
      "orgNm": "MORGAN STANLEY",
      "orgPK": "149777",
      "str1": "2000 WESTCHESTER AVENUE",
      "str2": null,
      "city": "PURCHASE",
      "state": 35,
      "stateSpecified": true,
      "cntry": "United States",
      "postlCd": "10577-2530"
    }
  ],
  "Exms": [
    {
      "exmCd": 0,
      "exmNm": "Uniform Securities Agent State Law Examination",
      "exmDt": "1983-03-02T00:00:00",
      "exmDtSpecified": true
    },
    {
      "exmCd": 2,
      "exmNm": "Uniform Investment Adviser Law Examination",
      "exmDt": "1992-02-06T00:00:00",
      "exmDtSpecified": true
    }
  ],
  "Dsgntns": [],
  "PrevRgstns": [
    {
      "BrnchOfLocs": [
        {
          "city": "KNOXVILLE",
          "state": 44,
          "stateSpecified": true
        },
        {
          "city": "KNOXVILLE",
          "state": 44,
          "stateSpecified": true
        }
      ],
      "orgNm": "MORGAN STANLEY DW INC.",
      "orgPK": "7556",
      "regBeginDt": "2004-02-10T00:00:00",
      "regBeginDtSpecified": true,
      "regEndDt": "2006-11-07T00:00:00",
      "regEndDtSpecified": true
    },
    {
      "BrnchOfLocs": [
        {
          "city": "KNOXVILLE",
          "state": 44,
          "stateSpecified": true
        }
      ],
      "orgNm": "CITIGROUP GLOBAL MARKETS INC.",
      "orgPK": "7059",
      "regBeginDt": "2006-11-09T00:00:00",
      "regBeginDtSpecified": true,
      "regEndDt": "2009-06-01T00:00:00",
      "regEndDtSpecified": true
    }
  ],
  "EmpHss": [
    {
      "fromDt": "12/1987",
      "toDt": "11/2006",
      "orgNm": "DEAN WITTER REYNOLDS INC.",
      "city": "KNOXVILLE",
      "state": 44,
      "stateSpecified": true
    },
    {
      "fromDt": "11/2006",
      "toDt": null,
      "orgNm": "CITIGROUP GLOBAL MARKETS INC.",
      "city": "KNOXVILLE",
      "state": 44,
      "stateSpecified": true
    },
    {
      "fromDt": "06/2009",
      "toDt": null,
      "orgNm": "MORGAN STANLEY SMITH BARNEY",
      "city": "KNOXVILLE",
      "state": 44,
      "stateSpecified": true
    },
    {
      "fromDt": "01/2015",
      "toDt": null,
      "orgNm": "MORGAN STANLEY PRIVATE BANK, NATIONAL ASSOCIATION",
      "city": "NEW YORK",
      "state": 35,
      "stateSpecified": true
    }
  ],
  "OthrBuss": {
    "OthrBus": {
      "desc": "RESIDENTIAL RENTAL PROPERTY; KNOXVILLE TN; ARAGON LANE; SINGLE FAMILY RENTAL PROPERTY MANAGED BY A REAL ESTATE MANAGEMENT COMPANY; NO DUTIES; 1 AFTER BUSINESS HOURS; 0 DURING BUSINESS; 10/2012"
    }
  },
  "DRPs": [
    {
      "hasRegAction": 0,
      "hasRegActionSpecified": true,
      "hasCriminal": 1,
      "hasCriminalSpecified": true,
      "hasBankrupt": 1,
      "hasBankruptSpecified": true,
      "hasCivilJudc": 1,
      "hasCivilJudcSpecified": true,
      "hasBond": 1,
      "hasBondSpecified": true,
      "hasJudgment": 1,
      "hasJudgmentSpecified": true,
      "hasInvstgn": 1,
      "hasInvstgnSpecified": true,
      "hasCustComp": 1,
      "hasCustCompSpecified": true,
      "hasTermination": 1,
      "hasTerminationSpecified": true
    }
  ]
}