{
  "Info": {
    "lastNm": "DUBLIS",
    "firstNm": "EDWARD",
    "midNm": "FELIX",
    "sufNm": null,
    "indvlPK": "1080504",
    "actvAGReg": 0,
    "link": "http://www.adviserinfo.sec.gov/IAPD/Individual/1080504"
  },
  "OthrNms": [
    {
      "lastNm": "DUBLIS",
      "firstNm": "ED",
      "midNm": null,
      "sufNm": null
    }
  ],
  "CrntEmps": [
    {
      "CrntRgstns": [
        {
          "regAuth": 45,
          "regCat": 0,
          "st": 2,
          "stDt": "2013-12-16T00:00:00"
        },
        {
          "regAuth": 23,
          "regCat": 0,
          "st": 2,
          "stDt": "2013-12-18T00:00:00"
        }
      ],
      "BrnchOfLocs": [
        {
          "str1": "1414 84TH ST SW",
          "str2": null,
          "city": "BYRON CENTER",
          "state": 23,
          "stateSpecified": true,
          "cntry": "United States",
          "postlCd": "49315"
        }
      ],
      "orgNm": "LPL FINANCIAL LLC",
      "orgPK": "6413",
      "str1": "75 STATE STREET, 22ND FLOOR",
      "str2": null,
      "city": "BOSTON",
      "state": 20,
      "stateSpecified": true,
      "cntry": "United States",
      "postlCd": "02109"
    }
  ],
  "Exms": [
    {
      "exmCd": 0,
      "exmNm": "Uniform Securities Agent State Law Examination",
      "exmDt": "1990-07-16T00:00:00",
      "exmDtSpecified": true
    },
    {
      "exmCd": 2,
      "exmNm": "Uniform Investment Adviser Law Examination",
      "exmDt": "1998-05-02T00:00:00",
      "exmDtSpecified": true
    }
  ],
  "Dsgntns": [
    {
      "dsgntnNm": "Chartered Financial Consultant"
    }
  ],
  "PrevRgstns": [
    {
      "BrnchOfLocs": [
        {
          "city": "BATTLE CREEK",
          "state": 23,
          "stateSpecified": true
        },
        {
          "city": "BATTLECREEK",
          "state": 23,
          "stateSpecified": true
        },
        {
          "city": "GRAND HAVEN",
          "state": 23,
          "stateSpecified": true
        },
        {
          "city": "GRAND RAPIDS",
          "state": 23,
          "stateSpecified": true
        },
        {
          "city": "MIDDLEVILLE",
          "state": 23,
          "stateSpecified": true
        },
        {
          "city": "WYOMING",
          "state": 23,
          "stateSpecified": true
        }
      ],
      "orgNm": "INVEST FINANCIAL CORPORATION",
      "orgPK": "12984",
      "regBeginDt": "2005-07-05T00:00:00",
      "regBeginDtSpecified": true,
      "regEndDt": "2013-12-17T00:00:00",
      "regEndDtSpecified": true
    }
  ],
  "EmpHss": [
    {
      "fromDt": "06/2005",
      "toDt": "12/2013",
      "orgNm": "INVEST FINANCIAL CORP",
      "city": "KALAMAZOO",
      "state": 23,
      "stateSpecified": true
    },
    {
      "fromDt": "12/2013",
      "toDt": null,
      "orgNm": "LPL FINANCIAL LLC",
      "city": "BYRON CENTER",
      "state": 23,
      "stateSpecified": true
    }
  ],
  "OthrBuss": {
    "OthrBus": {
      "desc": "1. 12/16/2013: No Business Name - Not Investment Related - Outside/W-2 Employment - 10% OF TIME SPENT - PROFESSIONAL MUSICIAN.     2. 12/16/2013: No Business Name - Investment Related - At Reported Business Location(s) - NON-VARIABLE INSURANCE - 10% OF TIME SPENT - BROKER; LINES OF FIXED INS OFFERED: FIXED ANNUITIES, LONG TERM CARE, HEALTH, DISABILITY, LIFE.       3. 12/27/2013: America Group Retirement Strategy Centers - INV REL - AT REPORTED LOCATION - DBA for LPL Business (entity for LPL business).        4. 6/22/2016: Diversified Financial Concepts - Investment Related - At Reported Business Location(s) - DBA for LPL Business (entity for LPL business) - Started 06/13/2016 - 200 Hours Per Month/140 Hours During Securities Trading."
    }
  },
  "DRPs": []
}