{
  "Info": {
    "lastNm": "BOGARD",
    "firstNm": "THOMAS",
    "midNm": "LEE",
    "sufNm": null,
    "indvlPK": "1081679",
    "actvAGReg": 0,
    "link": "http://www.adviserinfo.sec.gov/IAPD/Individual/1081679"
  },
  "OthrNms": [
    {
      "lastNm": "BOGARD",
      "firstNm": "TOM",
      "midNm": null,
      "sufNm": null
    }
  ],
  "CrntEmps": [
    {
      "CrntRgstns": [
        {
          "regAuth": 5,
          "regCat": 0,
          "st": 2,
          "stDt": "2009-01-02T00:00:00"
        },
        {
          "regAuth": 45,
          "regCat": 0,
          "st": 3,
          "stDt": "2009-01-02T00:00:00"
        },
        {
          "regAuth": 33,
          "regCat": 0,
          "st": 2,
          "stDt": "2012-08-24T00:00:00"
        }
      ],
      "BrnchOfLocs": [
        {
          "str1": "540 N CASCADE AVE",
          "str2": "SUITE 101",
          "city": "COLORADO SPRINGS",
          "state": 5,
          "stateSpecified": true,
          "cntry": "United States",
          "postlCd": "80903"
        }
      ],
      "orgNm": "RAYMOND JAMES FINANCIAL SERVICES ADVISORS, INC",
      "orgPK": "149018",
      "str1": "880 CARILLON PARKWAY",
      "str2": null,
      "city": "SAINT PETERSBURG",
      "state": 9,
      "stateSpecified": true,
      "cntry": "United States",
      "postlCd": "33716"
    }
  ],
  "Exms": [
    {
      "exmCd": 0,
      "exmNm": "Uniform Securities Agent State Law Examination",
      "exmDt": "1983-01-12T00:00:00",
      "exmDtSpecified": true
    }
  ],
  "Dsgntns": [],
  "PrevRgstns": [],
  "EmpHss": [
    {
      "fromDt": "07/1987",
      "toDt": null,
      "orgNm": "RAYMOND JAMES FINANCIAL SERVICES, INC.",
      "city": "COLORADO SPRINGS",
      "state": 5,
      "stateSpecified": true
    },
    {
      "fromDt": "01/2009",
      "toDt": null,
      "orgNm": "RAYMOND JAMES FINANCIAL SERVICES ADVISORS, INC",
      "city": "COLORADO SPRINGS",
      "state": 5,
      "stateSpecified": true
    },
    {
      "fromDt": "04/2011",
      "toDt": "07/2014",
      "orgNm": "BOGARD FINANCIAL SERVICES, INC.",
      "city": "COLORADO SPRINGS",
      "state": 5,
      "stateSpecified": true
    },
    {
      "fromDt": "05/2013",
      "toDt": null,
      "orgNm": "ACCOUNTING/CPA/TAX PREPARATION",
      "city": "COLORADO SPRINGS",
      "state": 5,
      "stateSpecified": true
    },
    {
      "fromDt": "07/2014",
      "toDt": null,
      "orgNm": "COLORADO WEALTH PARTNERS, INC.",
      "city": "COLORADO SPRINGS",
      "state": 5,
      "stateSpecified": true
    },
    {
      "fromDt": "04/2015",
      "toDt": "06/2016",
      "orgNm": "HIGH COUNTRY FINANCIAL ADVISORS, INC.",
      "city": "COLORADO SPRINGS",
      "state": 5,
      "stateSpecified": true
    }
  ],
  "OthrBuss": {
    "OthrBus": {
      "desc": "1. BOGARD FINANCIAL SERVICES - COLORADO SPRINGS, CO. OWNER OF SUPPORT COMPANY/DBA. 04/2001 TO PRESENT. 0 HOURS MONTHLY, 0 DURING TRADING HOURS.  NOT INVESTMENT RELATED.   2. ACCOUNTING/CPA/TAX PREPARATION - COLORADO SPRINGS, CO. INDEPENDENT CONTRACTOR FOR FREE.  STARTED 5/16/13 TO PRESENT. 2 HOURS WEEKLY, 0 DURING TRADING HOURS.  INVESTMENT RELATED.  3.COLORADO WEALTH PARTNERS, INC. - COLORADO SPRINGS, CO. 07/2014 TO PRESENT. NOT INVESTMENT RELATED. SUPPORT COMPANY/DBA (OWNER). 2 HOURS PER MONTH, 0 HOURS DURING TRADING. OWNER."
    }
  },
  "DRPs": []
}