{
  "Info": {
    "lastNm": "SCHUETTE",
    "firstNm": "GREGORY",
    "midNm": "GERARD",
    "sufNm": "SR",
    "indvlPK": "1082712",
    "actvAGReg": 0,
    "link": "http://www.adviserinfo.sec.gov/IAPD/Individual/1082712"
  },
  "OthrNms": [
    {
      "lastNm": "SCHUETTE",
      "firstNm": "GREGORY",
      "midNm": "G",
      "sufNm": null
    }
  ],
  "CrntEmps": [
    {
      "CrntRgstns": [
        {
          "regAuth": 44,
          "regCat": 0,
          "st": 2,
          "stDt": "2012-06-07T00:00:00"
        }
      ],
      "BrnchOfLocs": [
        {
          "str1": "1319 SUNSET DRIVE",
          "str2": "SUITE 201",
          "city": "JOHNSON CITY",
          "state": 44,
          "stateSpecified": true,
          "cntry": "United States",
          "postlCd": "37604"
        }
      ],
      "orgNm": "STIFEL, NICOLAUS & COMPANY, INCORPORATED",
      "orgPK": "793",
      "str1": "501 N BROADWAY",
      "str2": null,
      "city": "ST LOUIS",
      "state": 25,
      "stateSpecified": true,
      "cntry": "United States",
      "postlCd": "63102"
    }
  ],
  "Exms": [
    {
      "exmCd": 0,
      "exmNm": "Uniform Securities Agent State Law Examination",
      "exmDt": "1986-10-02T00:00:00",
      "exmDtSpecified": true
    }
  ],
  "Dsgntns": [
    {
      "dsgntnNm": "Certified Financial Planner"
    }
  ],
  "PrevRgstns": [
    {
      "BrnchOfLocs": [
        {
          "city": "JOHNSON CITY",
          "state": 44,
          "stateSpecified": true
        },
        {
          "city": "PIKEVILLE",
          "state": 18,
          "stateSpecified": true
        },
        {
          "city": "ST. LOUIS",
          "state": 25,
          "stateSpecified": true
        }
      ],
      "orgNm": "A. G. EDWARDS & SONS, INC.",
      "orgPK": "4",
      "regBeginDt": "2004-02-03T00:00:00",
      "regBeginDtSpecified": true,
      "regEndDt": "2008-01-01T00:00:00",
      "regEndDtSpecified": true
    },
    {
      "BrnchOfLocs": [
        {
          "city": "JOHNSON CITY",
          "state": 44,
          "stateSpecified": true
        }
      ],
      "orgNm": "WELLS FARGO ADVISORS, LLC",
      "orgPK": "19616",
      "regBeginDt": "2008-01-01T00:00:00",
      "regBeginDtSpecified": true,
      "regEndDt": "2012-06-08T00:00:00",
      "regEndDtSpecified": true
    }
  ],
  "EmpHss": [
    {
      "fromDt": "02/1982",
      "toDt": "01/2008",
      "orgNm": "A.G. EDWARDS",
      "city": "JOHNSON CITY",
      "state": 44,
      "stateSpecified": true
    },
    {
      "fromDt": "01/2008",
      "toDt": "05/2009",
      "orgNm": "WACHOVIA SECURITIES, LLC",
      "city": "JOHNSON CITY",
      "state": 44,
      "stateSpecified": true
    },
    {
      "fromDt": "05/2009",
      "toDt": "06/2012",
      "orgNm": "WELLS FARGO ADVISORS LLC",
      "city": "JOHNSON CITY",
      "state": 44,
      "stateSpecified": true
    },
    {
      "fromDt": "06/2012",
      "toDt": null,
      "orgNm": "STIFEL, NICOLAUS & COMPANY, INCORPORATED",
      "city": "JOHNSON CITY",
      "state": 44,
      "stateSpecified": true
    }
  ],
  "OthrBuss": {
    "OthrBus": null
  },
  "DRPs": []
}