{
  "Info": {
    "lastNm": "TEMPLETON",
    "firstNm": "GARY",
    "midNm": "WAYNE",
    "sufNm": null,
    "indvlPK": "1082801",
    "actvAGReg": 0,
    "link": "http://www.adviserinfo.sec.gov/IAPD/Individual/1082801"
  },
  "OthrNms": [],
  "CrntEmps": [
    {
      "CrntRgstns": [
        {
          "regAuth": 47,
          "regCat": 0,
          "st": 2,
          "stDt": "2013-01-02T00:00:00"
        }
      ],
      "BrnchOfLocs": [
        {
          "str1": "810 MAIN STREET",
          "str2": "P.O. BOX 200",
          "city": "LYNCHBURG",
          "state": 47,
          "stateSpecified": true,
          "cntry": "United States",
          "postlCd": "24504"
        }
      ],
      "orgNm": "BB&T SECURITIES, LLC",
      "orgPK": "142785",
      "str1": "901 EAST BYRD STREET",
      "str2": "RIVERFRONT PLAZA, WEST TOWER",
      "city": "RICHMOND",
      "state": 47,
      "stateSpecified": true,
      "cntry": "United States",
      "postlCd": "23219"
    }
  ],
  "Exms": [
    {
      "exmCd": 0,
      "exmNm": "Uniform Securities Agent State Law Examination",
      "exmDt": "1982-12-30T00:00:00",
      "exmDtSpecified": true
    },
    {
      "exmCd": 3,
      "exmNm": "Uniform Combined State Law Examination",
      "exmDt": "2003-10-01T00:00:00",
      "exmDtSpecified": true
    }
  ],
  "Dsgntns": [],
  "PrevRgstns": [
    {
      "BrnchOfLocs": [
        {
          "city": "LYNCHBURG",
          "state": 47,
          "stateSpecified": true
        },
        {
          "city": "LYNCHBURG",
          "state": 47,
          "stateSpecified": true
        }
      ],
      "orgNm": "SCOTT & STRINGFELLOW, LLC",
      "orgPK": "6255",
      "regBeginDt": "2003-10-02T00:00:00",
      "regBeginDtSpecified": true,
      "regEndDt": "2013-01-02T00:00:00",
      "regEndDtSpecified": true
    }
  ],
  "EmpHss": [
    {
      "fromDt": "12/1974",
      "toDt": null,
      "orgNm": "VA ARMY NATIONAL GUARD",
      "city": "LYNCHBURG",
      "state": 47,
      "stateSpecified": true
    },
    {
      "fromDt": "05/1999",
      "toDt": null,
      "orgNm": "SCOTT & STRINGFELLOW, INC.",
      "city": "RICHMOND",
      "state": 47,
      "stateSpecified": true
    },
    {
      "fromDt": "01/2013",
      "toDt": null,
      "orgNm": "BB&T SECURITIES, LLC",
      "city": "LYNCHBURG",
      "state": 47,
      "stateSpecified": true
    }
  ],
  "OthrBuss": {
    "OthrBus": {
      "desc": "1. BLUE RIDGE REGION - PORSCHE LUB OF AMERICA: NOT INVESTMENT RELATED, NOT PUBLICLY TRADED, ROANOKE VA, CAR LUB, VICE PRESIDENT, MONTHLY MEETINGS, START APPROX JAN 2006, APPROX 1 HR/MO DURING BUSINSS HRS, NO COMP.  2. ST. ANDREW PRESBYTERIAN CHURCH: NOT INVESTMENT RELATED, NOT PUBLICLY TRADED, LYNCHBURG VA, CHURCH, MEMBER OF SESSION, MONTHLY MEETINGS, NOT DURING NORMAL BUSINESS HRS, START APPROX JAN 2010, NO COMP."
    }
  },
  "DRPs": []
}