{
  "Info": {
    "lastNm": "SAMPLAWSKI",
    "firstNm": "JOANN",
    "midNm": "MARIE",
    "sufNm": null,
    "indvlPK": "1083374",
    "actvAGReg": 0,
    "link": "http://www.adviserinfo.sec.gov/IAPD/Individual/1083374"
  },
  "OthrNms": [
    {
      "lastNm": "JENKINS",
      "firstNm": "JOANN",
      "midNm": "MARIE",
      "sufNm": null
    },
    {
      "lastNm": "LIVIGNI",
      "firstNm": "JOANN",
      "midNm": "MARIE",
      "sufNm": null
    }
  ],
  "CrntEmps": [
    {
      "CrntRgstns": [
        {
          "regAuth": 4,
          "regCat": 0,
          "st": 2,
          "stDt": "2009-06-01T00:00:00"
        }
      ],
      "BrnchOfLocs": [
        {
          "str1": "14850  NORTH  SCOTTSDALE RD",
          "str2": "SUITE 600",
          "city": "SCOTTSDALE",
          "state": 3,
          "stateSpecified": true,
          "cntry": "United States",
          "postlCd": "85254"
        }
      ],
      "orgNm": "MORGAN STANLEY",
      "orgPK": "149777",
      "str1": "2000 WESTCHESTER AVENUE",
      "str2": null,
      "city": "PURCHASE",
      "state": 35,
      "stateSpecified": true,
      "cntry": "United States",
      "postlCd": "10577-2530"
    }
  ],
  "Exms": [
    {
      "exmCd": 0,
      "exmNm": "Uniform Securities Agent State Law Examination",
      "exmDt": "1987-03-11T00:00:00",
      "exmDtSpecified": true
    },
    {
      "exmCd": 2,
      "exmNm": "Uniform Investment Adviser Law Examination",
      "exmDt": "2006-06-26T00:00:00",
      "exmDtSpecified": true
    }
  ],
  "Dsgntns": [],
  "PrevRgstns": [
    {
      "BrnchOfLocs": [
        {
          "city": "SCOTTSDALE",
          "state": 3,
          "stateSpecified": true
        },
        {
          "city": "SCOTTSDALE",
          "state": 3,
          "stateSpecified": true
        }
      ],
      "orgNm": "MORGAN STANLEY DW INC.",
      "orgPK": "7556",
      "regBeginDt": "2006-06-27T00:00:00",
      "regBeginDtSpecified": true,
      "regEndDt": "2007-04-02T00:00:00",
      "regEndDtSpecified": true
    },
    {
      "BrnchOfLocs": [
        {
          "city": "SCOTTSDALE",
          "state": 3,
          "stateSpecified": true
        },
        {
          "city": "SCOTTSDALE",
          "state": 3,
          "stateSpecified": true
        }
      ],
      "orgNm": "MORGAN STANLEY & CO. LLC",
      "orgPK": "8209",
      "regBeginDt": "2007-04-02T00:00:00",
      "regBeginDtSpecified": true,
      "regEndDt": "2009-06-01T00:00:00",
      "regEndDtSpecified": true
    }
  ],
  "EmpHss": [
    {
      "fromDt": "06/2003",
      "toDt": "04/2007",
      "orgNm": "MORGAN STANLEY DW, INC.",
      "city": "SCOTTSDALE",
      "state": 3,
      "stateSpecified": true
    },
    {
      "fromDt": "04/2007",
      "toDt": null,
      "orgNm": "MORGAN STANLEY & CO., INCORPORATED",
      "city": "SCOTTSDALE",
      "state": 3,
      "stateSpecified": true
    },
    {
      "fromDt": "06/2009",
      "toDt": null,
      "orgNm": "MORGAN STANLEY SMITH BARNEY",
      "city": "SCOTTSDALE",
      "state": 3,
      "stateSpecified": true
    }
  ],
  "OthrBuss": {
    "OthrBus": null
  },
  "DRPs": []
}