{
  "Info": {
    "lastNm": "SPEIDELL",
    "firstNm": "LAWRENCE",
    "midNm": "SHAW",
    "sufNm": null,
    "indvlPK": "1093971",
    "actvAGReg": 1,
    "link": "http://www.adviserinfo.sec.gov/IAPD/Individual/1093971"
  },
  "OthrNms": [],
  "CrntEmps": [
    {
      "CrntRgstns": [
        {
          "regAuth": 4,
          "regCat": 0,
          "st": 2,
          "stDt": "2008-07-21T00:00:00"
        }
      ],
      "BrnchOfLocs": [
        {
          "str1": "7776 IVANHOE AVENUE",
          "str2": "SUITE 150",
          "city": "LA JOLLA",
          "state": 4,
          "stateSpecified": true,
          "cntry": "United States",
          "postlCd": "92037"
        }
      ],
      "orgNm": "FRONTIER MARKET ASSET MANAGEMENT, LLC",
      "orgPK": "145341",
      "str1": "7776 IVANHOE AVENUE",
      "str2": "SUITE 150",
      "city": "LA JOLLA",
      "state": 4,
      "stateSpecified": true,
      "cntry": "United States",
      "postlCd": "92037"
    }
  ],
  "Exms": [
    {
      "exmCd": 0,
      "exmNm": "Uniform Securities Agent State Law Examination",
      "exmDt": "1983-03-02T00:00:00",
      "exmDtSpecified": true
    },
    {
      "exmCd": 2,
      "exmNm": "Uniform Investment Adviser Law Examination",
      "exmDt": "1994-06-23T00:00:00",
      "exmDtSpecified": true
    }
  ],
  "Dsgntns": [
    {
      "dsgntnNm": "Chartered Financial Analyst"
    }
  ],
  "PrevRgstns": [
    {
      "BrnchOfLocs": [
        {
          "city": "SAN DIEGO",
          "state": 4,
          "stateSpecified": true
        }
      ],
      "orgNm": "NICHOLAS-APPLEGATE CAPITAL MANAGEMENT LLC",
      "orgPK": "104606",
      "regBeginDt": "1997-07-08T00:00:00",
      "regBeginDtSpecified": true,
      "regEndDt": "2003-01-14T00:00:00",
      "regEndDtSpecified": true
    },
    {
      "BrnchOfLocs": [
        {
          "city": "LA JOLLA",
          "state": 4,
          "stateSpecified": true
        }
      ],
      "orgNm": "KROHNE CAPITAL, LLC",
      "orgPK": "129553",
      "regBeginDt": "2006-07-28T00:00:00",
      "regBeginDtSpecified": true,
      "regEndDt": "2008-01-03T00:00:00",
      "regEndDtSpecified": true
    }
  ],
  "EmpHss": [
    {
      "fromDt": "01/2003",
      "toDt": "08/2006",
      "orgNm": "LAFFER ASSOCIATES",
      "city": "SAN DIEGO",
      "state": 4,
      "stateSpecified": true
    },
    {
      "fromDt": "08/2006",
      "toDt": "09/2007",
      "orgNm": "ONDINE ASSET MANAGEMENT",
      "city": "LA JOLLA",
      "state": 4,
      "stateSpecified": true
    },
    {
      "fromDt": "09/2007",
      "toDt": null,
      "orgNm": "FRONTIER MARKET ASSET MANAGEMENT, LLC",
      "city": "LA JOLLA",
      "state": 4,
      "stateSpecified": true
    }
  ],
  "OthrBuss": {
    "OthrBus": null
  },
  "DRPs": []
}