{
  "Info": {
    "lastNm": "KROLL",
    "firstNm": "WILLIAM",
    "midNm": "CLARKE",
    "sufNm": null,
    "indvlPK": "1094500",
    "actvAGReg": 0,
    "link": "http://www.adviserinfo.sec.gov/IAPD/Individual/1094500"
  },
  "OthrNms": [],
  "CrntEmps": [
    {
      "CrntRgstns": [
        {
          "regAuth": 36,
          "regCat": 0,
          "st": 2,
          "stDt": "2012-04-03T00:00:00"
        }
      ],
      "BrnchOfLocs": [
        {
          "str1": "CORPORATE PLAZA I",
          "str2": "6450 ROCKSIDE WOODS BLVD - S STE 100",
          "city": "INDEPENDENCE",
          "state": 36,
          "stateSpecified": true,
          "cntry": "United States",
          "postlCd": "44131-9976"
        }
      ],
      "orgNm": "VOYA FINANCIAL ADVISORS, INC.",
      "orgPK": "2882",
      "str1": "909 LOCUST STREET",
      "str2": null,
      "city": "DES MOINES",
      "state": 13,
      "stateSpecified": true,
      "cntry": "United States",
      "postlCd": "50309"
    }
  ],
  "Exms": [
    {
      "exmCd": 0,
      "exmNm": "Uniform Securities Agent State Law Examination",
      "exmDt": "1994-04-18T00:00:00",
      "exmDtSpecified": true
    }
  ],
  "Dsgntns": [
    {
      "dsgntnNm": "Chartered Financial Consultant"
    }
  ],
  "PrevRgstns": [
    {
      "BrnchOfLocs": [
        {
          "city": "INDEPENDENCE",
          "state": 36,
          "stateSpecified": true
        },
        {
          "city": "INDEPENDENCE",
          "state": 36,
          "stateSpecified": true
        }
      ],
      "orgNm": "VALIC FINANCIAL ADVISORS, INC.",
      "orgPK": "42803",
      "regBeginDt": "2002-06-14T00:00:00",
      "regBeginDtSpecified": true,
      "regEndDt": "2012-03-22T00:00:00",
      "regEndDtSpecified": true
    }
  ],
  "EmpHss": [
    {
      "fromDt": "12/2001",
      "toDt": "03/2012",
      "orgNm": "VALIC FINANCIAL ADVISORS, INC.",
      "city": "INDEPENDENCE",
      "state": 36,
      "stateSpecified": true
    },
    {
      "fromDt": "03/2012",
      "toDt": "09/2014",
      "orgNm": "ING FINANCIAL PARTNERS, INC.",
      "city": "INDEPENDENCE",
      "state": 36,
      "stateSpecified": true
    },
    {
      "fromDt": "05/2012",
      "toDt": null,
      "orgNm": "R.A. CROUCHER & ASSOCIATES",
      "city": "INDEPENDENCE",
      "state": 36,
      "stateSpecified": true
    },
    {
      "fromDt": "09/2014",
      "toDt": null,
      "orgNm": "VOYA FINANCIAL ADVISORS",
      "city": "INDEPENDENCE",
      "state": 36,
      "stateSpecified": true
    }
  ],
  "OthrBuss": {
    "OthrBus": {
      "desc": "1)INDEPENDENT INSURANCE AGENT;YES;6450 ROCKSIDE WOODS BLVD S, STE 100, INDEPENDENCE, OH 44131;FIXED INSURANCE SALES;INDEPENDENT INSURANCE AGENT;03/22/2012;5;5;SALES AND SERVICE OF FIXED INSURANCE CONTRACTS. 2)R.A. CROUCHER & ASSOCIATES,YES,6450 ROCKSIDE WOODS BLVD S, STE 100, INDEPENDENCE, OH 44131,DBA,AGENT,05/07/2012,160,160,MARKETING DBA FOR THE SALES AND SERVICE OF FINANCIAL SERVICES PRODUCTS."
    }
  },
  "DRPs": []
}