{
  "Info": {
    "lastNm": "PARTL",
    "firstNm": "JEFFREY",
    "midNm": "RICHARD",
    "sufNm": null,
    "indvlPK": "1097746",
    "actvAGReg": 0,
    "link": "http://www.adviserinfo.sec.gov/IAPD/Individual/1097746"
  },
  "OthrNms": [],
  "CrntEmps": [
    {
      "CrntRgstns": [
        {
          "regAuth": 28,
          "regCat": 0,
          "st": 2,
          "stDt": "2009-01-26T00:00:00"
        },
        {
          "regAuth": 47,
          "regCat": 0,
          "st": 2,
          "stDt": "2012-02-29T00:00:00"
        }
      ],
      "BrnchOfLocs": [
        {
          "str1": "101 N 3RD ST",
          "str2": null,
          "city": "WILMINGTON",
          "state": 28,
          "stateSpecified": true,
          "cntry": "United States",
          "postlCd": "28401"
        },
        {
          "str1": "200 S COLLEGE ST",
          "str2": "8TH FL",
          "city": "CHARLOTTE",
          "state": 28,
          "stateSpecified": true,
          "cntry": "United States",
          "postlCd": "28202"
        }
      ],
      "orgNm": "BB&T INVESTMENT SERVICES, INC.",
      "orgPK": "33856",
      "str1": "200 SOUTH COLLEGE STREET",
      "str2": "8TH FLOOR",
      "city": "CHARLOTTE",
      "state": 28,
      "stateSpecified": true,
      "cntry": "United States",
      "postlCd": "28202"
    }
  ],
  "Exms": [
    {
      "exmCd": 0,
      "exmNm": "Uniform Securities Agent State Law Examination",
      "exmDt": "1983-03-24T00:00:00",
      "exmDtSpecified": true
    },
    {
      "exmCd": 2,
      "exmNm": "Uniform Investment Adviser Law Examination",
      "exmDt": "1999-08-11T00:00:00",
      "exmDtSpecified": true
    }
  ],
  "Dsgntns": [],
  "PrevRgstns": [
    {
      "BrnchOfLocs": [
        {
          "city": "WILMINGTON",
          "state": 28,
          "stateSpecified": true
        }
      ],
      "orgNm": "WELLS FARGO ADVISORS, LLC",
      "orgPK": "19616",
      "regBeginDt": "2002-01-31T00:00:00",
      "regBeginDtSpecified": true,
      "regEndDt": "2003-07-29T00:00:00",
      "regEndDtSpecified": true
    },
    {
      "BrnchOfLocs": [
        {
          "city": "WILMINGTON",
          "state": 28,
          "stateSpecified": true
        }
      ],
      "orgNm": "UVEST FINANCIAL SERVICES GROUP, INC.",
      "orgPK": "13787",
      "regBeginDt": "2003-07-14T00:00:00",
      "regBeginDtSpecified": true,
      "regEndDt": "2004-06-04T00:00:00",
      "regEndDtSpecified": true
    },
    {
      "BrnchOfLocs": [
        {
          "city": "WILMINGTON",
          "state": 28,
          "stateSpecified": true
        }
      ],
      "orgNm": "WELLS FARGO ADVISORS, LLC",
      "orgPK": "19616",
      "regBeginDt": "2004-06-11T00:00:00",
      "regBeginDtSpecified": true,
      "regEndDt": "2005-09-26T00:00:00",
      "regEndDtSpecified": true
    },
    {
      "BrnchOfLocs": [
        {
          "city": "CHARLOTTE",
          "state": 28,
          "stateSpecified": true
        },
        {
          "city": "CHARLOTTE",
          "state": 28,
          "stateSpecified": true
        },
        {
          "city": "WILMINGTON",
          "state": 28,
          "stateSpecified": true
        },
        {
          "city": "WILMINGTON",
          "state": 28,
          "stateSpecified": true
        }
      ],
      "orgNm": "BB&T INVESTMENT SERVICES, INC.",
      "orgPK": "33856",
      "regBeginDt": "2005-10-20T00:00:00",
      "regBeginDtSpecified": true,
      "regEndDt": "2008-12-31T00:00:00",
      "regEndDtSpecified": true
    }
  ],
  "EmpHss": [
    {
      "fromDt": "10/2005",
      "toDt": "12/2008",
      "orgNm": "BB&T",
      "city": "WILMINGTON",
      "state": 28,
      "stateSpecified": true
    },
    {
      "fromDt": "10/2005",
      "toDt": "12/2008",
      "orgNm": "BB&T INVESTMENT SERVICES",
      "city": "CHARLOTTE",
      "state": 28,
      "stateSpecified": true
    },
    {
      "fromDt": "01/2009",
      "toDt": null,
      "orgNm": "BB&T BANK",
      "city": "WILMINGTON",
      "state": 28,
      "stateSpecified": true
    },
    {
      "fromDt": "01/2009",
      "toDt": null,
      "orgNm": "BB&T INVESTMENTS",
      "city": "CHARLOTTE",
      "state": 28,
      "stateSpecified": true
    }
  ],
  "OthrBuss": {
    "OthrBus": {
      "desc": "BELLAMY MANSION POSITION: WEALTH ADVISOR NATURE: BOARD ADVISOR OF NON-PROFIT ENTITY. INVESTMENT RELATED: NO NUMBER OF HOURS: 4 INVESTMENT RELATED HOURS: 1 START DATE: 07/15/2014 ADDRESS: 503 MARKET ST, WILMINGTON NC 28401 DESCRIPTION: THE BELLAMY MANSION IS A PNC (PRESERVATION NORTH CAROLINA, A 501C3 ENTITY) HISTORIC PROPERTY. THE BELLAMY HOUSE FUCTIONS AS A MUSEUM. TO RAISE FUNDS IN AN EFFORT TO SUPPORT ITSELF, THE BELLAMY HAS EVENTS ON AND OFF THE PROPERTY AND ALSO ALLOWS INDIVIDUALS AND CORPORATE ENTITIES TO RENT THE HOUSE FOR EVENTS (WEDDINGS,ECT.)  RENTAL PROPERTY POSITION: owner NATURE: Owner/Sole Proprietor INVESTMENT RELATED: No NUMBER OF HOURS: 2 SECURITIES TRADING HOURS: 0 START DATE: 01/01/2015 ADDRESS: 4181 Abbington Terrace, Wilmington NC 28405 DESCRIPTION: This is a residential house that I am renting to my son, Matthew J. Partl."
    }
  },
  "DRPs": []
}