{
  "Info": {
    "lastNm": "CAESAR",
    "firstNm": "STEWART",
    "midNm": null,
    "sufNm": null,
    "indvlPK": "1097290",
    "actvAGReg": 0,
    "link": "http://www.adviserinfo.sec.gov/IAPD/Individual/1097290"
  },
  "OthrNms": [],
  "CrntEmps": [
    {
      "CrntRgstns": [
        {
          "regAuth": 32,
          "regCat": 0,
          "st": 2,
          "stDt": "2004-07-12T00:00:00"
        },
        {
          "regAuth": 4,
          "regCat": 0,
          "st": 2,
          "stDt": "2007-02-15T00:00:00"
        },
        {
          "regAuth": 9,
          "regCat": 0,
          "st": 2,
          "stDt": "2015-05-11T00:00:00"
        },
        {
          "regAuth": 5,
          "regCat": 0,
          "st": 2,
          "stDt": "2015-08-20T00:00:00"
        }
      ],
      "BrnchOfLocs": [
        {
          "str1": "4250 VETERANS MEMORIAL HWY",
          "str2": "4TH FLOOR EAST",
          "city": "HOLBROOK",
          "state": 35,
          "stateSpecified": true,
          "cntry": "United States",
          "postlCd": "11742"
        }
      ],
      "orgNm": "AMERICAN PORTFOLIOS ADVISORS, INC",
      "orgPK": "112697",
      "str1": "4250 VETERAN'S MEMORIAL HIGHWAY",
      "str2": "4TH. FLOOR, SUITE 420E",
      "city": "HOLBROOK",
      "state": 35,
      "stateSpecified": true,
      "cntry": "United States",
      "postlCd": "11741"
    }
  ],
  "Exms": [
    {
      "exmCd": 3,
      "exmNm": "Uniform Combined State Law Examination",
      "exmDt": "2004-07-06T00:00:00",
      "exmDtSpecified": true
    }
  ],
  "Dsgntns": [],
  "PrevRgstns": [],
  "EmpHss": [
    {
      "fromDt": "02/2004",
      "toDt": null,
      "orgNm": "AMERICAN PORTFOLIOS FINANCIAL SERVICES, INC",
      "city": "RED BANK",
      "state": 32,
      "stateSpecified": true
    }
  ],
  "OthrBuss": {
    "OthrBus": {
      "desc": "RETIREMENT RESOURCE NETWORK; FINANCIAL PLANNING, INSURANCE. IS SECURITES RELATED AND STARTED 4/2004. OWNER 100%, DEVOTES 200 HRS PER MONTH; 160 HRS DURING MARKET HRS. 11/28/12"
    }
  },
  "DRPs": []
}