{
  "Info": {
    "lastNm": "SMITH",
    "firstNm": "JOHN",
    "midNm": "WILEY",
    "sufNm": null,
    "indvlPK": "1098819",
    "actvAGReg": 0,
    "link": "http://www.adviserinfo.sec.gov/IAPD/Individual/1098819"
  },
  "OthrNms": [
    {
      "lastNm": "SMITH",
      "firstNm": "JACK",
      "midNm": null,
      "sufNm": null
    }
  ],
  "CrntEmps": [
    {
      "CrntRgstns": [
        {
          "regAuth": 32,
          "regCat": 0,
          "st": 2,
          "stDt": "2008-01-01T00:00:00"
        },
        {
          "regAuth": 45,
          "regCat": 0,
          "st": 3,
          "stDt": "2016-03-17T00:00:00"
        }
      ],
      "BrnchOfLocs": [
        {
          "str1": "1201 NEW RD, STE 207",
          "str2": "CORNERSTONE COMMERCE CENTER",
          "city": "LINWOOD",
          "state": 32,
          "stateSpecified": true,
          "cntry": "United States",
          "postlCd": "08221"
        }
      ],
      "orgNm": "WELLS FARGO ADVISORS, LLC",
      "orgPK": "19616",
      "str1": "ONE NORTH JEFFERSON AVENUE",
      "str2": "MAIL CODE: H0004-050",
      "city": "ST. LOUIS",
      "state": 25,
      "stateSpecified": true,
      "cntry": "United States",
      "postlCd": "63103-2205"
    }
  ],
  "Exms": [
    {
      "exmCd": 0,
      "exmNm": "Uniform Securities Agent State Law Examination",
      "exmDt": "1997-10-30T00:00:00",
      "exmDtSpecified": true
    }
  ],
  "Dsgntns": [],
  "PrevRgstns": [
    {
      "BrnchOfLocs": [
        {
          "city": "CAPE MAY COURT HOUSE",
          "state": 32,
          "stateSpecified": true
        },
        {
          "city": "CAPE MAY COURT HOUSE",
          "state": 32,
          "stateSpecified": true
        },
        {
          "city": "ST. LOUIS",
          "state": 25,
          "stateSpecified": true
        }
      ],
      "orgNm": "A. G. EDWARDS & SONS, INC.",
      "orgPK": "4",
      "regBeginDt": "2003-10-14T00:00:00",
      "regBeginDtSpecified": true,
      "regEndDt": "2008-01-01T00:00:00",
      "regEndDtSpecified": true
    }
  ],
  "EmpHss": [
    {
      "fromDt": "07/1997",
      "toDt": "01/2008",
      "orgNm": "A.G. EDWARDS",
      "city": "CAPE MAY COURT HOUSE",
      "state": 32,
      "stateSpecified": true
    },
    {
      "fromDt": "01/2008",
      "toDt": "05/2009",
      "orgNm": "WACHOVIA SECURITIES, LLC",
      "city": "CAPE MAY COURT HOUSE",
      "state": 32,
      "stateSpecified": true
    },
    {
      "fromDt": "05/2009",
      "toDt": null,
      "orgNm": "WELLS FARGO ADVISORS LLC",
      "city": "CAPE MAY COURTHOUSE",
      "state": 32,
      "stateSpecified": true
    }
  ],
  "OthrBuss": {
    "OthrBus": null
  },
  "DRPs": []
}