{
  "Info": {
    "lastNm": "FORREST",
    "firstNm": "JOHN",
    "midNm": "E",
    "sufNm": "III",
    "indvlPK": "1109444",
    "actvAGReg": 0,
    "link": "http://www.adviserinfo.sec.gov/IAPD/Individual/1109444"
  },
  "OthrNms": [
    {
      "lastNm": "FORREST",
      "firstNm": "JOHN",
      "midNm": "EDWARD",
      "sufNm": null
    }
  ],
  "CrntEmps": [
    {
      "CrntRgstns": [
        {
          "regAuth": 39,
          "regCat": 0,
          "st": 2,
          "stDt": "2013-11-08T00:00:00"
        }
      ],
      "BrnchOfLocs": [
        {
          "str1": "1055 WESTLAKES DRIVE",
          "str2": "SUITE 250",
          "city": "BERWYN",
          "state": 39,
          "stateSpecified": true,
          "cntry": "United States",
          "postlCd": "19312"
        }
      ],
      "orgNm": "BRINKER CAPITAL INC",
      "orgPK": "111743",
      "str1": "1055 WESTLAKES DRIVE",
      "str2": "SUITE 250",
      "city": "BERWYN",
      "state": 39,
      "stateSpecified": true,
      "cntry": "United States",
      "postlCd": "19312"
    }
  ],
  "Exms": [
    {
      "exmCd": 0,
      "exmNm": "Uniform Securities Agent State Law Examination",
      "exmDt": "1983-03-24T00:00:00",
      "exmDtSpecified": true
    },
    {
      "exmCd": 2,
      "exmNm": "Uniform Investment Adviser Law Examination",
      "exmDt": "1993-09-09T00:00:00",
      "exmDtSpecified": true
    },
    {
      "exmCd": 3,
      "exmNm": "Uniform Combined State Law Examination",
      "exmDt": "2011-03-04T00:00:00",
      "exmDtSpecified": true
    }
  ],
  "Dsgntns": [],
  "PrevRgstns": [
    {
      "BrnchOfLocs": [
        {
          "city": "NEW YORK",
          "state": 35,
          "stateSpecified": true
        }
      ],
      "orgNm": "OFI PRIVATE INVESTMENTS INC",
      "orgPK": "107807",
      "regBeginDt": "2001-12-07T00:00:00",
      "regBeginDtSpecified": true,
      "regEndDt": "2005-12-19T00:00:00",
      "regEndDtSpecified": true
    },
    {
      "BrnchOfLocs": [
        {
          "city": "CONCORD",
          "state": 31,
          "stateSpecified": true
        }
      ],
      "orgNm": "LINCOLN FINANCIAL SECURITIES CORPORATION",
      "orgPK": "3870",
      "regBeginDt": "2011-03-07T00:00:00",
      "regBeginDtSpecified": true,
      "regEndDt": "2012-03-01T00:00:00",
      "regEndDtSpecified": true
    },
    {
      "BrnchOfLocs": [
        {
          "city": "BOSTON",
          "state": 20,
          "stateSpecified": true
        },
        {
          "city": "BOSTON",
          "state": 20,
          "stateSpecified": true
        },
        {
          "city": "Bellevue",
          "state": 49,
          "stateSpecified": true
        }
      ],
      "orgNm": "SIGNATOR FINANCIAL SERVICES, INC.",
      "orgPK": "19061",
      "regBeginDt": "2012-03-12T00:00:00",
      "regBeginDtSpecified": true,
      "regEndDt": "2013-07-31T00:00:00",
      "regEndDtSpecified": true
    }
  ],
  "EmpHss": [
    {
      "fromDt": "05/2001",
      "toDt": "01/2009",
      "orgNm": "OPPENHEIMERFUNDS DISTRIBUTOR, INC.",
      "city": "NEW YORK",
      "state": 35,
      "stateSpecified": true
    },
    {
      "fromDt": "01/2009",
      "toDt": "10/2010",
      "orgNm": "UNEMPLOYED",
      "city": "LONGMEADOW",
      "state": 20,
      "stateSpecified": true
    },
    {
      "fromDt": "10/2010",
      "toDt": "03/2012",
      "orgNm": "LINCOLN FINANCIAL SECURITIES CORPORATION",
      "city": "CONCORD",
      "state": 31,
      "stateSpecified": true
    },
    {
      "fromDt": "11/2010",
      "toDt": "03/2012",
      "orgNm": "LINCOLN FINANCIAL ADVISORS CORPORATION",
      "city": "CONCORD",
      "state": 31,
      "stateSpecified": true
    },
    {
      "fromDt": "03/2012",
      "toDt": "07/2013",
      "orgNm": "SYMETRA INVESTMENT SERVICES, INC.",
      "city": "BELLEVUE",
      "state": 49,
      "stateSpecified": true
    },
    {
      "fromDt": "10/2013",
      "toDt": null,
      "orgNm": "BRINKER CAPITAL",
      "city": "BERWYN",
      "state": 39,
      "stateSpecified": true
    }
  ],
  "OthrBuss": {
    "OthrBus": null
  },
  "DRPs": []
}