{
  "Info": {
    "lastNm": "ALLEN",
    "firstNm": "RANDY",
    "midNm": "LANE",
    "sufNm": null,
    "indvlPK": "1110931",
    "actvAGReg": 0,
    "link": "http://www.adviserinfo.sec.gov/IAPD/Individual/1110931"
  },
  "OthrNms": [
    {
      "lastNm": "ALLEN",
      "firstNm": "RANDY",
      "midNm": "L",
      "sufNm": null
    }
  ],
  "CrntEmps": [
    {
      "CrntRgstns": [
        {
          "regAuth": 9,
          "regCat": 0,
          "st": 2,
          "stDt": "2007-01-05T00:00:00"
        },
        {
          "regAuth": 37,
          "regCat": 0,
          "st": 2,
          "stDt": "2009-09-17T00:00:00"
        },
        {
          "regAuth": 45,
          "regCat": 0,
          "st": 3,
          "stDt": "2015-05-26T00:00:00"
        },
        {
          "regAuth": 2,
          "regCat": 0,
          "st": 2,
          "stDt": "2016-01-28T00:00:00"
        },
        {
          "regAuth": 23,
          "regCat": 0,
          "st": 2,
          "stDt": "2016-04-18T00:00:00"
        }
      ],
      "BrnchOfLocs": [
        {
          "str1": "12215 US HWY 301 N",
          "str2": null,
          "city": "PARRISH",
          "state": 9,
          "stateSpecified": true,
          "cntry": "United States",
          "postlCd": "34219"
        },
        {
          "str1": "1812 MANATEE AVENUE WEST",
          "str2": null,
          "city": "BRADENTON",
          "state": 9,
          "stateSpecified": true,
          "cntry": "United States",
          "postlCd": "34205"
        }
      ],
      "orgNm": "INVESTMENT CENTERS OF AMERICA, INC.",
      "orgPK": "16443",
      "str1": "5555 W GRANDE MARKET DRIVE",
      "str2": null,
      "city": "APPLETON",
      "state": 50,
      "stateSpecified": true,
      "cntry": "United States",
      "postlCd": "54913-8403"
    }
  ],
  "Exms": [
    {
      "exmCd": 0,
      "exmNm": "Uniform Securities Agent State Law Examination",
      "exmDt": "1987-03-17T00:00:00",
      "exmDtSpecified": true
    },
    {
      "exmCd": 2,
      "exmNm": "Uniform Investment Adviser Law Examination",
      "exmDt": "1999-12-27T00:00:00",
      "exmDtSpecified": true
    }
  ],
  "Dsgntns": [],
  "PrevRgstns": [],
  "EmpHss": [
    {
      "fromDt": "09/1995",
      "toDt": null,
      "orgNm": "INVESTMENT CENTERS OF AMERICA, INC.",
      "city": "BRANDENTON",
      "state": 9,
      "stateSpecified": true
    }
  ],
  "OthrBuss": {
    "OthrBus": {
      "desc": "1) RANDY ALLEN INSURANCE - RENEWAL INCOME FROM OLD BOOK OF LIFE & HEALTH AGENCY DEVELOPED FROM 1980-1995.  2) RL ALLEN PROPERTIES - OWNER OF RENTAL APARTMENTS."
    }
  },
  "DRPs": []
}