{
  "Info": {
    "lastNm": "BRADFORD",
    "firstNm": "STEVEN",
    "midNm": "LEE",
    "sufNm": null,
    "indvlPK": "1112313",
    "actvAGReg": 1,
    "link": "http://www.adviserinfo.sec.gov/IAPD/Individual/1112313"
  },
  "OthrNms": [],
  "CrntEmps": [
    {
      "CrntRgstns": [
        {
          "regAuth": 45,
          "regCat": 0,
          "st": 2,
          "stDt": "2011-02-24T00:00:00"
        }
      ],
      "BrnchOfLocs": [
        {
          "str1": "8000 IH-10 WEST",
          "str2": "SUITE 800",
          "city": "SAN ANTONIO",
          "state": 45,
          "stateSpecified": true,
          "cntry": "United States",
          "postlCd": "78230-3897"
        }
      ],
      "orgNm": "EAGLE STRATEGIES LLC",
      "orgPK": "110826",
      "str1": "51 MADISON AVENUE",
      "str2": "ROOM 913",
      "city": "NEW YORK",
      "state": 35,
      "stateSpecified": true,
      "cntry": "United States",
      "postlCd": "10010"
    }
  ],
  "Exms": [
    {
      "exmCd": 0,
      "exmNm": "Uniform Securities Agent State Law Examination",
      "exmDt": "1984-09-20T00:00:00",
      "exmDtSpecified": true
    }
  ],
  "Dsgntns": [
    {
      "dsgntnNm": "Chartered Financial Consultant"
    }
  ],
  "PrevRgstns": [],
  "EmpHss": [
    {
      "fromDt": "01/1982",
      "toDt": null,
      "orgNm": "NEW YORK LIFE INSURANCE CO",
      "city": "OKLAHOMA CITY",
      "state": 37,
      "stateSpecified": true
    },
    {
      "fromDt": "09/1982",
      "toDt": null,
      "orgNm": "NYLIFE SECURITIES INC.",
      "city": "DENVER",
      "state": 5,
      "stateSpecified": true
    },
    {
      "fromDt": "02/2011",
      "toDt": null,
      "orgNm": "EAGLE STRATEGIES LLC",
      "city": "SAN ANTONIO",
      "state": 45,
      "stateSpecified": true
    }
  ],
  "OthrBuss": {
    "OthrBus": null
  },
  "DRPs": []
}