{
  "Info": {
    "lastNm": "HOLT",
    "firstNm": "THOMAS",
    "midNm": "RICHARD",
    "sufNm": "JR",
    "indvlPK": "1114182",
    "actvAGReg": 0,
    "link": "http://www.adviserinfo.sec.gov/IAPD/Individual/1114182"
  },
  "OthrNms": [
    {
      "lastNm": "HOH",
      "firstNm": "THOMAS",
      "midNm": "RICHARD",
      "sufNm": null
    }
  ],
  "CrntEmps": [
    {
      "CrntRgstns": [
        {
          "regAuth": 39,
          "regCat": 0,
          "st": 2,
          "stDt": "2006-04-25T00:00:00"
        },
        {
          "regAuth": 45,
          "regCat": 0,
          "st": 3,
          "stDt": "2013-06-18T00:00:00"
        }
      ],
      "BrnchOfLocs": [
        {
          "str1": "401 PLYMOUTH ROAD",
          "str2": "SUITE 150",
          "city": "PLYMOUTH MEETING",
          "state": 39,
          "stateSpecified": true,
          "cntry": "United States",
          "postlCd": "19462"
        }
      ],
      "orgNm": "LEGACY ADVISORS, LLC",
      "orgPK": "139830",
      "str1": "401 PLYMOUTH ROAD",
      "str2": "SUITE 150",
      "city": "PLYMOUTH MEETING",
      "state": 39,
      "stateSpecified": true,
      "cntry": "United States",
      "postlCd": "19462"
    }
  ],
  "Exms": [
    {
      "exmCd": 2,
      "exmNm": "Uniform Investment Adviser Law Examination",
      "exmDt": "1998-08-28T00:00:00",
      "exmDtSpecified": true
    },
    {
      "exmCd": 0,
      "exmNm": "Uniform Securities Agent State Law Examination",
      "exmDt": "2007-03-02T00:00:00",
      "exmDtSpecified": true
    }
  ],
  "Dsgntns": [
    {
      "dsgntnNm": "Chartered Financial Analyst"
    }
  ],
  "PrevRgstns": [],
  "EmpHss": [
    {
      "fromDt": "12/2005",
      "toDt": null,
      "orgNm": "LEGACY ADVISORS, LLC",
      "city": "PLYMOUTH MEETING",
      "state": 39,
      "stateSpecified": true
    },
    {
      "fromDt": "03/2006",
      "toDt": "11/2006",
      "orgNm": "LEGACY ADVISORS, LLC",
      "city": "PLYMOUTH MEETING",
      "state": 39,
      "stateSpecified": true
    },
    {
      "fromDt": "06/2006",
      "toDt": null,
      "orgNm": "M HOLDINGS SECURITIES, INC.",
      "city": "PORTLAND",
      "state": 38,
      "stateSpecified": true
    }
  ],
  "OthrBuss": {
    "OthrBus": {
      "desc": "FRIENDS SCHOOL HAVERFORD, 851 BUCK LANE, HAVERFORD, PA. FORMERLY: CLERK OF FINANCE COMMITTEE, SCHOOL COMMITTEE MEMBER.  CURRENTLY: MEMBER OF FINANCE COMMITTEE (1 HOUR PER MONTH, NOT DURING TRADING HOURS, VOLUNTEER, NO COMPENSATION)    OVERBROOK SCHOOL FOR THE BLIND, 6333 MALVERN AVENUE, PHILADELPHIA, PA  CURRENTLY, SINCE 2012: MEMBER OF INVESTMENT COMMITTEE (1 HOUR PER QUARTER, NOT DURING TRADING HOURS, VOLUNTEER, NO COMPENSATION)"
    }
  },
  "DRPs": []
}