{
  "Info": {
    "lastNm": "STEYERT",
    "firstNm": "ROBERT",
    "midNm": "JOHN",
    "sufNm": null,
    "indvlPK": "1122075",
    "actvAGReg": 0,
    "link": "http://www.adviserinfo.sec.gov/IAPD/Individual/1122075"
  },
  "OthrNms": [],
  "CrntEmps": [
    {
      "CrntRgstns": [
        {
          "regAuth": 4,
          "regCat": 0,
          "st": 2,
          "stDt": "2005-10-21T00:00:00"
        }
      ],
      "BrnchOfLocs": [
        {
          "str1": null,
          "str2": null,
          "city": "Irvine",
          "state": 4,
          "stateSpecified": true,
          "cntry": "United States",
          "postlCd": null
        }
      ],
      "orgNm": "INDEPENDENT FINANCIAL GROUP, LLC",
      "orgPK": "7717",
      "str1": "12671 HIGH BLUFF DR",
      "str2": "SUITE 200",
      "city": "SAN DIEGO",
      "state": 4,
      "stateSpecified": true,
      "cntry": "United States",
      "postlCd": "92130"
    }
  ],
  "Exms": [
    {
      "exmCd": 0,
      "exmNm": "Uniform Securities Agent State Law Examination",
      "exmDt": "1990-09-11T00:00:00",
      "exmDtSpecified": true
    },
    {
      "exmCd": 2,
      "exmNm": "Uniform Investment Adviser Law Examination",
      "exmDt": "1999-12-01T00:00:00",
      "exmDtSpecified": true
    }
  ],
  "Dsgntns": [],
  "PrevRgstns": [
    {
      "BrnchOfLocs": [
        {
          "city": "SAN JUAN CAPIST",
          "state": 4,
          "stateSpecified": true
        }
      ],
      "orgNm": "SENTRA SECURITIES CORPORATION",
      "orgPK": "10249",
      "regBeginDt": "2002-02-26T00:00:00",
      "regBeginDtSpecified": true,
      "regEndDt": "2004-07-12T00:00:00",
      "regEndDtSpecified": true
    },
    {
      "BrnchOfLocs": [
        {
          "city": "SAN JUAN CAPISTRANO",
          "state": 4,
          "stateSpecified": true
        }
      ],
      "orgNm": "INDEPENDENT FINANCIAL GROUP, LLC",
      "orgPK": "125953",
      "regBeginDt": "2004-07-01T00:00:00",
      "regBeginDtSpecified": true,
      "regEndDt": "2005-10-21T00:00:00",
      "regEndDtSpecified": true
    }
  ],
  "EmpHss": [
    {
      "fromDt": "07/2004",
      "toDt": null,
      "orgNm": "INDEPENDENT FINANCIAL GROUP, INC",
      "city": "SAN JUAN CAPISTRANO",
      "state": 4,
      "stateSpecified": true
    },
    {
      "fromDt": "07/2004",
      "toDt": null,
      "orgNm": "INDEPENDENT FINANCIAL GROUP, LLC",
      "city": "SAN JUAN CAPISTRANO",
      "state": 4,
      "stateSpecified": true
    }
  ],
  "OthrBuss": {
    "OthrBus": {
      "desc": "(1) CA INSURANCE AGENT SELLING FIXED INSURANCE, LONG TERM CARE, DISABILITY AND HEALTH SINCE 2009. NON-INVESTMENT RELATED. APPROXIMATELY  30% OF TIME SPENT. BUSINESS CONDUCTED AT OFFICE ADDRESS OF RECORD."
    }
  },
  "DRPs": []
}