{
  "Info": {
    "lastNm": "MCPHERSON",
    "firstNm": "ROBERT",
    "midNm": "BRIAN",
    "sufNm": null,
    "indvlPK": "1134106",
    "actvAGReg": 0,
    "link": "http://www.adviserinfo.sec.gov/IAPD/Individual/1134106"
  },
  "OthrNms": [
    {
      "lastNm": "MCPHERSON",
      "firstNm": "BRIAN",
      "midNm": null,
      "sufNm": null
    },
    {
      "lastNm": "MCPHERSON",
      "firstNm": "ROBERT",
      "midNm": null,
      "sufNm": null
    }
  ],
  "CrntEmps": [
    {
      "CrntRgstns": [
        {
          "regAuth": 7,
          "regCat": 0,
          "st": 2,
          "stDt": "1995-02-07T00:00:00"
        },
        {
          "regAuth": 45,
          "regCat": 0,
          "st": 3,
          "stDt": "2007-03-20T00:00:00"
        },
        {
          "regAuth": 47,
          "regCat": 0,
          "st": 2,
          "stDt": "2008-02-05T00:00:00"
        }
      ],
      "BrnchOfLocs": [
        {
          "str1": "1717 PENNSYLVANIA AVE NW",
          "str2": "SUITE 1050",
          "city": "WASHINGTON",
          "state": 7,
          "stateSpecified": true,
          "cntry": "United States",
          "postlCd": "20006"
        }
      ],
      "orgNm": "RAYMOND JAMES & ASSOCIATES, INC.",
      "orgPK": "705",
      "str1": "880 CARILLON PARKWAY",
      "str2": null,
      "city": "ST PETERSBURG",
      "state": 9,
      "stateSpecified": true,
      "cntry": "United States",
      "postlCd": "33716"
    }
  ],
  "Exms": [
    {
      "exmCd": 0,
      "exmNm": "Uniform Securities Agent State Law Examination",
      "exmDt": "1983-07-25T00:00:00",
      "exmDtSpecified": true
    },
    {
      "exmCd": 2,
      "exmNm": "Uniform Investment Adviser Law Examination",
      "exmDt": "1994-11-30T00:00:00",
      "exmDtSpecified": true
    }
  ],
  "Dsgntns": [],
  "PrevRgstns": [],
  "EmpHss": [
    {
      "fromDt": "07/1993",
      "toDt": null,
      "orgNm": "RAYMOND JAMES & ASSOCIATES, INC.",
      "city": "WASHINGTON",
      "state": 7,
      "stateSpecified": true
    }
  ],
  "OthrBuss": {
    "OthrBus": {
      "desc": "(1)10/2006 ST STEPHES & ST AGNES FATHERS CLUB - BD MEMBER/OFFICER/DIRECTOR; 10 HRS PER MTH,1 HRS PER MTH DURING BSNS HRS  (2)Name of Business : City of Alexandria Park & Recreation Commission   Address: rec centers throughout the city,alxandrid, VA   Nature of the Business: Non Profit Org. - Founder/Leadership   Position/Title: Director   Investment Related:No   Start Date: 02/01/2012   Hours per month devoted to this business: 3   Hours per month devoted to this business during trading hours: 0   Description of duties: Monthly meetings"
    }
  },
  "DRPs": []
}