{
  "Info": {
    "lastNm": "TOUSSAINT",
    "firstNm": "GLENN",
    "midNm": "RICHARD",
    "sufNm": null,
    "indvlPK": "1145760",
    "actvAGReg": 0,
    "link": "http://www.adviserinfo.sec.gov/IAPD/Individual/1145760"
  },
  "OthrNms": [],
  "CrntEmps": [
    {
      "CrntRgstns": [
        {
          "regAuth": 32,
          "regCat": 0,
          "st": 2,
          "stDt": "2016-01-08T00:00:00"
        }
      ],
      "BrnchOfLocs": [
        {
          "str1": "4 Candlewood Drive",
          "str2": null,
          "city": "Wasahington",
          "state": 32,
          "stateSpecified": true,
          "cntry": "United States",
          "postlCd": "07882"
        }
      ],
      "orgNm": "INTERNATIONAL ASSETS INVESTMENT MANAGEMENT, LLC",
      "orgPK": "144426",
      "str1": "390 NORTH ORANGE AVENUE",
      "str2": "SUITE 750",
      "city": "ORLANDO",
      "state": 9,
      "stateSpecified": true,
      "cntry": "United States",
      "postlCd": "32801"
    }
  ],
  "Exms": [
    {
      "exmCd": 0,
      "exmNm": "Uniform Securities Agent State Law Examination",
      "exmDt": "1992-12-04T00:00:00",
      "exmDtSpecified": true
    },
    {
      "exmCd": 2,
      "exmNm": "Uniform Investment Adviser Law Examination",
      "exmDt": "1999-10-04T00:00:00",
      "exmDtSpecified": true
    }
  ],
  "Dsgntns": [
    {
      "dsgntnNm": "Certified Financial Planner"
    },
    {
      "dsgntnNm": "Chartered Financial Consultant"
    }
  ],
  "PrevRgstns": [
    {
      "BrnchOfLocs": [
        {
          "city": "CRANFORD",
          "state": 32,
          "stateSpecified": true
        }
      ],
      "orgNm": "1717 CAPITAL MANAGEMENT COMPANY",
      "orgPK": "4082",
      "regBeginDt": "2001-01-11T00:00:00",
      "regBeginDtSpecified": true,
      "regEndDt": "2004-05-26T00:00:00",
      "regEndDtSpecified": true
    },
    {
      "BrnchOfLocs": [
        {
          "city": "EDISON",
          "state": 32,
          "stateSpecified": true
        },
        {
          "city": "EDISON",
          "state": 32,
          "stateSpecified": true
        }
      ],
      "orgNm": "HORNOR, TOWNSEND & KENT, INC.",
      "orgPK": "4031",
      "regBeginDt": "2004-05-25T00:00:00",
      "regBeginDtSpecified": true,
      "regEndDt": "2015-06-15T00:00:00",
      "regEndDtSpecified": true
    }
  ],
  "EmpHss": [
    {
      "fromDt": "05/2004",
      "toDt": "06/2015",
      "orgNm": "HORNOR, TOWNSEND, & KENT",
      "city": "HORSHAM",
      "state": 39,
      "stateSpecified": true
    },
    {
      "fromDt": "05/2004",
      "toDt": "06/2015",
      "orgNm": "PENN MUTUAL",
      "city": "HORSHAM",
      "state": 39,
      "stateSpecified": true
    },
    {
      "fromDt": "09/2015",
      "toDt": null,
      "orgNm": "INTERNATIONAL ASSETS ADVISORY LLC",
      "city": "WASHINGTON",
      "state": 32,
      "stateSpecified": true
    }
  ],
  "OthrBuss": {
    "OthrBus": {
      "desc": "1) INSURANCE BROKERAGE  4 CANDLEWOOD DRIVE, WASHINGTON, NJ  07882 - INSURANCE SALES FOR MULTIPLE CARRIERS INCLUDING PENN MUTUAL LIFE - AGENT SINCE 4/2003 - APPROX 50 HRS/MO - COMMISSION RELATED COMPENSATION  2) MUSICIAN  4 CANDLEWOOD DR, WASHINGTON, NJ  07882 - PERFORMANCE AND SALES OF RECORDINGS, MUSICIAN SINCE 01/2013 - APPROX 1 HR/MO - COMPENSATED BY CD SALES  3) INTERNATIONAL ASSETS INVESTMENT MANAGEMENT LLC 390 N ORANGE AVE STE 750 ORLANDO, FL 32801 - RIA AFFILIATE OF INTERNATIONAL ASSETS ADVISORS - ADVISOR SINCE 09/2015 - APPROX 80 HRS/MO - FEE BASED COMPENSATION"
    }
  },
  "DRPs": [
    {
      "hasRegAction": 1,
      "hasRegActionSpecified": true,
      "hasCriminal": 1,
      "hasCriminalSpecified": true,
      "hasBankrupt": 1,
      "hasBankruptSpecified": true,
      "hasCivilJudc": 1,
      "hasCivilJudcSpecified": true,
      "hasBond": 1,
      "hasBondSpecified": true,
      "hasJudgment": 1,
      "hasJudgmentSpecified": true,
      "hasInvstgn": 1,
      "hasInvstgnSpecified": true,
      "hasCustComp": 0,
      "hasCustCompSpecified": true,
      "hasTermination": 0,
      "hasTerminationSpecified": true
    }
  ]
}