{
  "Info": {
    "lastNm": "WALLSTEIN",
    "firstNm": "GARY",
    "midNm": "LEE",
    "sufNm": null,
    "indvlPK": "1148172",
    "actvAGReg": 0,
    "link": "http://www.adviserinfo.sec.gov/IAPD/Individual/1148172"
  },
  "OthrNms": [
    {
      "lastNm": "WALLSTEIN",
      "firstNm": "GARY",
      "midNm": "L",
      "sufNm": null
    }
  ],
  "CrntEmps": [
    {
      "CrntRgstns": [
        {
          "regAuth": 24,
          "regCat": 0,
          "st": 2,
          "stDt": "2013-11-04T00:00:00"
        }
      ],
      "BrnchOfLocs": [
        {
          "str1": "3601 MINNESOTA DRIVE",
          "str2": "SUITE 170",
          "city": "BLOOMINGTON",
          "state": 24,
          "stateSpecified": true,
          "cntry": "United States",
          "postlCd": "55435"
        }
      ],
      "orgNm": "RAYMOND JAMES FINANCIAL SERVICES ADVISORS, INC",
      "orgPK": "149018",
      "str1": "880 CARILLON PARKWAY",
      "str2": null,
      "city": "SAINT PETERSBURG",
      "state": 9,
      "stateSpecified": true,
      "cntry": "United States",
      "postlCd": "33716"
    }
  ],
  "Exms": [
    {
      "exmCd": 0,
      "exmNm": "Uniform Securities Agent State Law Examination",
      "exmDt": "1983-07-19T00:00:00",
      "exmDtSpecified": true
    },
    {
      "exmCd": 2,
      "exmNm": "Uniform Investment Adviser Law Examination",
      "exmDt": "1999-12-15T00:00:00",
      "exmDtSpecified": true
    }
  ],
  "Dsgntns": [],
  "PrevRgstns": [
    {
      "BrnchOfLocs": [
        {
          "city": "ST PAUL",
          "state": 24,
          "stateSpecified": true
        },
        {
          "city": "ST. PAUL",
          "state": 24,
          "stateSpecified": true
        }
      ],
      "orgNm": "RBC CAPITAL MARKETS, LLC",
      "orgPK": "31194",
      "regBeginDt": "2005-04-14T00:00:00",
      "regBeginDtSpecified": true,
      "regEndDt": "2006-08-07T00:00:00",
      "regEndDtSpecified": true
    }
  ],
  "EmpHss": [
    {
      "fromDt": "07/2006",
      "toDt": null,
      "orgNm": "RAYMOND JAMES FINANCIAL SERVICES, INC.",
      "city": "BLOOMINGTON",
      "state": 24,
      "stateSpecified": true
    },
    {
      "fromDt": "10/2006",
      "toDt": "10/2014",
      "orgNm": "NORTHEAST BANK",
      "city": "MINNEAPOLIS",
      "state": 24,
      "stateSpecified": true
    },
    {
      "fromDt": "01/2009",
      "toDt": null,
      "orgNm": "RAYMOND JAMES FINANCIAL SERVICES ADVISORS, INC",
      "city": "BLOOMINGTON",
      "state": 24,
      "stateSpecified": true
    },
    {
      "fromDt": "01/2015",
      "toDt": null,
      "orgNm": "HOME FEDERAL BANK",
      "city": "BLOOMINGTON",
      "state": 24,
      "stateSpecified": true
    }
  ],
  "OthrBuss": {
    "OthrBus": {
      "desc": "HOME FEDERAL BANK:INVESTMENT RELATED:1/2015-PRESENT:BLOOMINGTON, MN:BANK/CREDIT UNION ASSOCIATE:40 HRS/MO:40 HRS DURING TRADING:FINANCIAL ADVISOR AT BANK LOCATION."
    }
  },
  "DRPs": []
}