{
  "Info": {
    "lastNm": "SANTANELLO",
    "firstNm": "DANIEL",
    "midNm": "RICHARD",
    "sufNm": null,
    "indvlPK": "1158062",
    "actvAGReg": 0,
    "link": "http://www.adviserinfo.sec.gov/IAPD/Individual/1158062"
  },
  "OthrNms": [],
  "CrntEmps": [
    {
      "CrntRgstns": [
        {
          "regAuth": 20,
          "regCat": 0,
          "st": 2,
          "stDt": "2008-09-25T00:00:00"
        }
      ],
      "BrnchOfLocs": [
        {
          "str1": "175 FEDERAL STREET",
          "str2": null,
          "city": "BOSTON",
          "state": 20,
          "stateSpecified": true,
          "cntry": "UNITED STATES",
          "postlCd": "02110"
        }
      ],
      "orgNm": "WINSLOW, EVANS & CROCKER, INC.",
      "orgPK": "29686",
      "str1": "175 FEDERAL STREET",
      "str2": "6TH FLOOR",
      "city": "BOSTON",
      "state": 20,
      "stateSpecified": true,
      "cntry": "United States",
      "postlCd": "02110"
    }
  ],
  "Exms": [
    {
      "exmCd": 0,
      "exmNm": "Uniform Securities Agent State Law Examination",
      "exmDt": "1983-07-29T00:00:00",
      "exmDtSpecified": true
    },
    {
      "exmCd": 2,
      "exmNm": "Uniform Investment Adviser Law Examination",
      "exmDt": "2008-05-21T00:00:00",
      "exmDtSpecified": true
    }
  ],
  "Dsgntns": [],
  "PrevRgstns": [],
  "EmpHss": [
    {
      "fromDt": "05/1990",
      "toDt": "01/2007",
      "orgNm": "A. G. EDWARDS & SONS, INC.",
      "city": "PEABODY",
      "state": 20,
      "stateSpecified": true
    },
    {
      "fromDt": "01/2007",
      "toDt": "08/2008",
      "orgNm": "RAYMOND JAMES & ASSOCIATES",
      "city": "SPRINGFIELD",
      "state": 20,
      "stateSpecified": true
    },
    {
      "fromDt": "08/2008",
      "toDt": null,
      "orgNm": "WINSLOW, EVANS & CROCKER, INC.",
      "city": "BOSTON",
      "state": 20,
      "stateSpecified": true
    }
  ],
  "OthrBuss": {
    "OthrBus": null
  },
  "DRPs": [
    {
      "hasRegAction": 1,
      "hasRegActionSpecified": true,
      "hasCriminal": 1,
      "hasCriminalSpecified": true,
      "hasBankrupt": 1,
      "hasBankruptSpecified": true,
      "hasCivilJudc": 1,
      "hasCivilJudcSpecified": true,
      "hasBond": 1,
      "hasBondSpecified": true,
      "hasJudgment": 1,
      "hasJudgmentSpecified": true,
      "hasInvstgn": 1,
      "hasInvstgnSpecified": true,
      "hasCustComp": 0,
      "hasCustCompSpecified": true,
      "hasTermination": 1,
      "hasTerminationSpecified": true
    }
  ]
}