{
  "Info": {
    "lastNm": "FRANK",
    "firstNm": "DAVID",
    "midNm": "L",
    "sufNm": null,
    "indvlPK": "1161169",
    "actvAGReg": 0,
    "link": "http://www.adviserinfo.sec.gov/IAPD/Individual/1161169"
  },
  "OthrNms": [
    {
      "lastNm": "FRANK",
      "firstNm": "DAVID",
      "midNm": null,
      "sufNm": null
    }
  ],
  "CrntEmps": [
    {
      "CrntRgstns": [
        {
          "regAuth": 32,
          "regCat": 0,
          "st": 2,
          "stDt": "2002-06-28T00:00:00"
        },
        {
          "regAuth": 9,
          "regCat": 0,
          "st": 2,
          "stDt": "2015-12-02T00:00:00"
        }
      ],
      "BrnchOfLocs": [
        {
          "str1": "160 MOUNT BETHEL RD",
          "str2": null,
          "city": "WARREN",
          "state": 32,
          "stateSpecified": true,
          "cntry": "United States",
          "postlCd": "07059"
        },
        {
          "str1": "5355 TOWN CENTER RD STE 600",
          "str2": null,
          "city": "BOCA RATON",
          "state": 9,
          "stateSpecified": true,
          "cntry": "United States",
          "postlCd": "33486"
        }
      ],
      "orgNm": "WELLS FARGO ADVISORS, LLC",
      "orgPK": "19616",
      "str1": "ONE NORTH JEFFERSON AVENUE",
      "str2": "MAIL CODE: H0004-050",
      "city": "ST. LOUIS",
      "state": 25,
      "stateSpecified": true,
      "cntry": "United States",
      "postlCd": "63103-2205"
    }
  ],
  "Exms": [
    {
      "exmCd": 0,
      "exmNm": "Uniform Securities Agent State Law Examination",
      "exmDt": "1984-07-30T00:00:00",
      "exmDtSpecified": true
    },
    {
      "exmCd": 2,
      "exmNm": "Uniform Investment Adviser Law Examination",
      "exmDt": "1992-11-16T00:00:00",
      "exmDtSpecified": true
    }
  ],
  "Dsgntns": [
    {
      "dsgntnNm": "Certified Financial Planner"
    }
  ],
  "PrevRgstns": [],
  "EmpHss": [
    {
      "fromDt": "06/2003",
      "toDt": "05/2009",
      "orgNm": "WACHOVIA SECURITIES, LLC",
      "city": "WESTFIELD",
      "state": 32,
      "stateSpecified": true
    },
    {
      "fromDt": "09/2008",
      "toDt": "05/2009",
      "orgNm": "WACHOVIA SECURITIES, LLC",
      "city": "WARREN",
      "state": 32,
      "stateSpecified": true
    },
    {
      "fromDt": "05/2009",
      "toDt": null,
      "orgNm": "WELLS FARGO ADVISORS LLC",
      "city": "WARREN",
      "state": 32,
      "stateSpecified": true
    }
  ],
  "OthrBuss": {
    "OthrBus": {
      "desc": "* WEST ORANGE ROTARY CLUB. 1. C/O LLEWELYN EDISON   2. MAKING THE WORLD A BETTER PLACE  3.2005-2006 PRESIDENT  4.7/01/05-06-30-06  5.20  6.MINIMAL  7.RUNNING CLUB.    CO-OWNER OF FRANK FAMILY HOLDING LLC.      NY AVE, LCC; INV RELATED; DEERFIELD BEACH, FL; INHERITED VACANT LAND; 33% OWNERSHIP BY FRANK FAMILY HOLDINGS; START 3/2005; 0.25 HOURS PER MONTH, 0 DURING TRADING; OWNER."
    }
  },
  "DRPs": [
    {
      "hasRegAction": 1,
      "hasRegActionSpecified": true,
      "hasCriminal": 1,
      "hasCriminalSpecified": true,
      "hasBankrupt": 1,
      "hasBankruptSpecified": true,
      "hasCivilJudc": 1,
      "hasCivilJudcSpecified": true,
      "hasBond": 1,
      "hasBondSpecified": true,
      "hasJudgment": 1,
      "hasJudgmentSpecified": true,
      "hasInvstgn": 1,
      "hasInvstgnSpecified": true,
      "hasCustComp": 0,
      "hasCustCompSpecified": true,
      "hasTermination": 1,
      "hasTerminationSpecified": true
    }
  ]
}