{
  "Info": {
    "lastNm": "CHRISTOFFERSON",
    "firstNm": "ROBERT",
    "midNm": "TOD",
    "sufNm": null,
    "indvlPK": "1161241",
    "actvAGReg": 0,
    "link": "http://www.adviserinfo.sec.gov/IAPD/Individual/1161241"
  },
  "OthrNms": [
    {
      "lastNm": "CHRISTOFFERSON",
      "firstNm": "TOD",
      "midNm": null,
      "sufNm": null
    }
  ],
  "CrntEmps": [
    {
      "CrntRgstns": [
        {
          "regAuth": 4,
          "regCat": 0,
          "st": 2,
          "stDt": "2014-06-09T00:00:00"
        }
      ],
      "BrnchOfLocs": [
        {
          "str1": null,
          "str2": null,
          "city": "ROHNERT PARK",
          "state": 4,
          "stateSpecified": true,
          "cntry": "United States",
          "postlCd": null
        }
      ],
      "orgNm": "H.D. VEST ADVISORY SERVICES, INC",
      "orgPK": "104556",
      "str1": "6333 NORTH STATE HIGHWAY 161",
      "str2": "4TH FLOOR",
      "city": "IRVING",
      "state": 45,
      "stateSpecified": true,
      "cntry": "United States",
      "postlCd": "75038"
    }
  ],
  "Exms": [
    {
      "exmCd": 0,
      "exmNm": "Uniform Securities Agent State Law Examination",
      "exmDt": "1985-09-05T00:00:00",
      "exmDtSpecified": true
    },
    {
      "exmCd": 3,
      "exmNm": "Uniform Combined State Law Examination",
      "exmDt": "2001-01-31T00:00:00",
      "exmDtSpecified": true
    }
  ],
  "Dsgntns": [],
  "PrevRgstns": [
    {
      "BrnchOfLocs": [
        {
          "city": "EL DORADO HILLS",
          "state": 4,
          "stateSpecified": true
        },
        {
          "city": "EL DORADO HILLS",
          "state": 4,
          "stateSpecified": true
        },
        {
          "city": "EL DORADO HILLS",
          "state": 4,
          "stateSpecified": true
        },
        {
          "city": "SACRAMENTO",
          "state": 4,
          "stateSpecified": true
        },
        {
          "city": "SANTA FE",
          "state": 33,
          "stateSpecified": true
        },
        {
          "city": "WOODACRE",
          "state": 4,
          "stateSpecified": true
        }
      ],
      "orgNm": "NATIONWIDE INVESTMENT SERVICES CORPORATION",
      "orgPK": "7110",
      "regBeginDt": "2006-03-16T00:00:00",
      "regBeginDtSpecified": true,
      "regEndDt": "2006-12-05T00:00:00",
      "regEndDtSpecified": true
    },
    {
      "BrnchOfLocs": [
        {
          "city": "COLUMBUS",
          "state": 36,
          "stateSpecified": true
        }
      ],
      "orgNm": "NATIONWIDE INVESTMENT ADVISORS, LLC",
      "orgPK": "142373",
      "regBeginDt": "2006-12-05T00:00:00",
      "regBeginDtSpecified": true,
      "regEndDt": "2010-06-28T00:00:00",
      "regEndDtSpecified": true
    },
    {
      "BrnchOfLocs": [
        {
          "city": "CARPINTERIA",
          "state": 4,
          "stateSpecified": true
        },
        {
          "city": "CARPINTERIA",
          "state": 4,
          "stateSpecified": true
        },
        {
          "city": "FRESNO",
          "state": 4,
          "stateSpecified": true
        },
        {
          "city": "ROHNERT PARK",
          "state": 4,
          "stateSpecified": true
        }
      ],
      "orgNm": "PLANMEMBER SECURITIES CORPORATION",
      "orgPK": "11869",
      "regBeginDt": "2012-02-13T00:00:00",
      "regBeginDtSpecified": true,
      "regEndDt": "2013-10-22T00:00:00",
      "regEndDtSpecified": true
    }
  ],
  "EmpHss": [
    {
      "fromDt": "02/2002",
      "toDt": "06/2010",
      "orgNm": "NATIONWIDE INVESTMENT SERVICES",
      "city": "COLUMBUS",
      "state": 36,
      "stateSpecified": true
    },
    {
      "fromDt": "12/2006",
      "toDt": "06/2010",
      "orgNm": "NATIONWIDE INVESTMENT ADVISORS, LLC",
      "city": "COLUMBUS",
      "state": 36,
      "stateSpecified": true
    },
    {
      "fromDt": "07/2010",
      "toDt": "12/2010",
      "orgNm": "UNEMPLOYED",
      "city": "SANTA ROSA",
      "state": 4,
      "stateSpecified": true
    },
    {
      "fromDt": "01/2011",
      "toDt": "12/2011",
      "orgNm": "NELSON & ASSOCIATES",
      "city": "SANTA ROSA",
      "state": 4,
      "stateSpecified": true
    },
    {
      "fromDt": "01/2012",
      "toDt": null,
      "orgNm": "ROBERT HALF",
      "city": "ROHNERT PARK",
      "state": 4,
      "stateSpecified": true
    },
    {
      "fromDt": "02/2012",
      "toDt": "10/2013",
      "orgNm": "PLANMEMBER SECURITIES CORPORATION",
      "city": "CARPINTERIA",
      "state": 4,
      "stateSpecified": true
    },
    {
      "fromDt": "11/2013",
      "toDt": null,
      "orgNm": "HD VEST INSURANCE SERVICES",
      "city": "SANTA ROSA",
      "state": 4,
      "stateSpecified": true
    },
    {
      "fromDt": "11/2013",
      "toDt": null,
      "orgNm": "HD VEST INVESTMENT SECURITIES",
      "city": "SANTA ROSA",
      "state": 4,
      "stateSpecified": true
    },
    {
      "fromDt": "06/2014",
      "toDt": null,
      "orgNm": "HD VEST ADVISORY SERVICES",
      "city": "ROHNERT PARK",
      "state": 4,
      "stateSpecified": true
    }
  ],
  "OthrBuss": {
    "OthrBus": {
      "desc": "H.D. VEST INSURANCE~'NIR'~100 B STREET~ ~SANTA ROSA~CA~95401~INDEPENDENT INSURANCE AGENT~INSURANCE SALES AGENT~11/2013~50HRS~50HRS~PROVIDES INSURANCE SERVICES~~ROBERT CHRISTOFFERSON~'NIR'~806 GOLF COURSE DR~ ~ROHNERT PARK~CA~94928~OPTICAL SHOP~OTHER~9/1991~80HRS~8HRS~OPERATION AND OR MARKETING NAME FOR H.D.VEST SERVICES~~ROBERT HALF~'NIR'~100 B STREET~ ~SAMTA ROSA~CA~95401~TAX PREPARATION/ACCOUNTING~OWNER/SOLE PROPRIETER~1/2012~160HRS~100HRS~PROVIDES TAX PREPARATION SERVICES"
    }
  },
  "DRPs": [
    {
      "hasRegAction": 0,
      "hasRegActionSpecified": true,
      "hasCriminal": 1,
      "hasCriminalSpecified": true,
      "hasBankrupt": 1,
      "hasBankruptSpecified": true,
      "hasCivilJudc": 1,
      "hasCivilJudcSpecified": true,
      "hasBond": 1,
      "hasBondSpecified": true,
      "hasJudgment": 1,
      "hasJudgmentSpecified": true,
      "hasInvstgn": 1,
      "hasInvstgnSpecified": true,
      "hasCustComp": 1,
      "hasCustCompSpecified": true,
      "hasTermination": 1,
      "hasTerminationSpecified": true
    }
  ]
}