{
  "Info": {
    "lastNm": "NAHILL",
    "firstNm": "MICHAEL",
    "midNm": "JAMES",
    "sufNm": null,
    "indvlPK": "1176473",
    "actvAGReg": 0,
    "link": "http://www.adviserinfo.sec.gov/IAPD/Individual/1176473"
  },
  "OthrNms": [],
  "CrntEmps": [
    {
      "CrntRgstns": [
        {
          "regAuth": 6,
          "regCat": 0,
          "st": 2,
          "stDt": "2006-03-24T00:00:00"
        },
        {
          "regAuth": 45,
          "regCat": 0,
          "st": 3,
          "stDt": "2015-06-18T00:00:00"
        }
      ],
      "BrnchOfLocs": [
        {
          "str1": "200 BRICKSTONE SQUARE",
          "str2": null,
          "city": "ANDOVER",
          "state": 20,
          "stateSpecified": true,
          "cntry": "United States",
          "postlCd": "01810"
        }
      ],
      "orgNm": "MERRILL LYNCH, PIERCE, FENNER & SMITH INCORPORATED",
      "orgPK": "7691",
      "str1": "ONE BRYANT PARK",
      "str2": null,
      "city": "NEW YORK",
      "state": 35,
      "stateSpecified": true,
      "cntry": "United States",
      "postlCd": "10036"
    }
  ],
  "Exms": [
    {
      "exmCd": 0,
      "exmNm": "Uniform Securities Agent State Law Examination",
      "exmDt": "1983-09-22T00:00:00",
      "exmDtSpecified": true
    },
    {
      "exmCd": 3,
      "exmNm": "Uniform Combined State Law Examination",
      "exmDt": "2006-03-14T00:00:00",
      "exmDtSpecified": true
    }
  ],
  "Dsgntns": [],
  "PrevRgstns": [],
  "EmpHss": [
    {
      "fromDt": "09/1999",
      "toDt": null,
      "orgNm": "MERRILL LYNCH",
      "city": "BOSTON",
      "state": 20,
      "stateSpecified": true
    },
    {
      "fromDt": "01/2010",
      "toDt": null,
      "orgNm": "BANK OF AMERICA, NA",
      "city": "ANDOVER",
      "state": 20,
      "stateSpecified": true
    }
  ],
  "OthrBuss": {
    "OthrBus": {
      "desc": "FAMILY LIMITED ESTATE; FOR PROFIT; 5 BOBBY JONES DRIVE, ANDOVER, MA 10810; YES INV RELATED; 4 HOURS MONTHLY; 1 DURING TRADING HOURS; GENERAL PARTNER; STARTED 7/15/1999   I*91377  FOR PROFIT OR NOT FOR PROFIT: FOR-PROFIT ORGANIZATION  NAME OF OUTSIDE BUSINESS ORGANIZATION: MOONLIGHT LLC  INVESTMENT RELATED: N  ADDRESS OF BUSINESS:  NANTCKET, MASSACHUSETTS 2554  NATURE OF BUSINESS: LLC,  POSITION, TITLE, ASSOCIATION: OTHER, I'M A MEMBER OF THE LLC  START DATE OF RELATIONSHIP: 1/19/2016  NUMBER OF HOURS DEVOTED: 5 HOUR(S) MONTHLY  NUMBER OF HOURS DEVOTED DURING TRADING HOURS: 0  DUTIES: MY FRIEND AND I ARE BUILING A HOUSE FOR PERSONAL USE. THE LLC IS BEING USED AS OUR ENTITY FOR CREDITOR PROTECTION"
    }
  },
  "DRPs": []
}