{
  "Info": {
    "lastNm": "PENCHANSKY",
    "firstNm": "SANDY",
    "midNm": "MARC",
    "sufNm": null,
    "indvlPK": "1182748",
    "actvAGReg": 0,
    "link": "http://www.adviserinfo.sec.gov/IAPD/Individual/1182748"
  },
  "OthrNms": [],
  "CrntEmps": [
    {
      "CrntRgstns": [
        {
          "regAuth": 20,
          "regCat": 0,
          "st": 2,
          "stDt": "2007-04-11T00:00:00"
        }
      ],
      "BrnchOfLocs": [
        {
          "str1": "30 CHURCH STREET",
          "str2": null,
          "city": "BELMONT",
          "state": 20,
          "stateSpecified": true,
          "cntry": "United States",
          "postlCd": "02476"
        },
        {
          "str1": "6 LEXINGTON STREET",
          "str2": null,
          "city": "WALTHAM",
          "state": 20,
          "stateSpecified": true,
          "cntry": "United States",
          "postlCd": "02452"
        },
        {
          "str1": "60 MAIN STREET",
          "str2": null,
          "city": "WATERTOWN",
          "state": 20,
          "stateSpecified": true,
          "cntry": "United States",
          "postlCd": "02472"
        },
        {
          "str1": "980 MASSACHUSETTS AVENUE",
          "str2": null,
          "city": "ARLINGTON",
          "state": 20,
          "stateSpecified": true,
          "cntry": "United States",
          "postlCd": "02478"
        }
      ],
      "orgNm": "INFINEX INVESTMENTS, INC.",
      "orgPK": "35371",
      "str1": "538 PRESTON AVENUE",
      "str2": null,
      "city": "MERIDEN",
      "state": 6,
      "stateSpecified": true,
      "cntry": "United States",
      "postlCd": "06450-4858"
    }
  ],
  "Exms": [
    {
      "exmCd": 0,
      "exmNm": "Uniform Securities Agent State Law Examination",
      "exmDt": "1987-11-24T00:00:00",
      "exmDtSpecified": true
    },
    {
      "exmCd": 2,
      "exmNm": "Uniform Investment Adviser Law Examination",
      "exmDt": "1998-08-25T00:00:00",
      "exmDtSpecified": true
    }
  ],
  "Dsgntns": [
    {
      "dsgntnNm": "Certified Financial Planner"
    }
  ],
  "PrevRgstns": [
    {
      "BrnchOfLocs": [
        {
          "city": "CAMBRIDGE",
          "state": 20,
          "stateSpecified": true
        }
      ],
      "orgNm": "INFINEX INVESTMENTS, INC.",
      "orgPK": "35371",
      "regBeginDt": "2001-09-24T00:00:00",
      "regBeginDtSpecified": true,
      "regEndDt": "2006-06-19T00:00:00",
      "regEndDtSpecified": true
    },
    {
      "BrnchOfLocs": [
        {
          "city": "NEWTON",
          "state": 20,
          "stateSpecified": true
        }
      ],
      "orgNm": "BANC OF AMERICA INVESTMENT SERVICES, INC.",
      "orgPK": "16361",
      "regBeginDt": "2006-06-21T00:00:00",
      "regBeginDtSpecified": true,
      "regEndDt": "2007-03-27T00:00:00",
      "regEndDtSpecified": true
    }
  ],
  "EmpHss": [
    {
      "fromDt": "06/2006",
      "toDt": "03/2007",
      "orgNm": "BANC OF AMERICA INSURANCE SERVICES, INC.",
      "city": "NEWTON",
      "state": 20,
      "stateSpecified": true
    },
    {
      "fromDt": "06/2006",
      "toDt": "03/2007",
      "orgNm": "BANC OF AMERICA INVESTMENT SERVICES, INC.",
      "city": "NEWTON",
      "state": 20,
      "stateSpecified": true
    },
    {
      "fromDt": "04/2007",
      "toDt": null,
      "orgNm": "INFINEX INVESTMENTS, INC.",
      "city": "WATERTOWN",
      "state": 20,
      "stateSpecified": true
    },
    {
      "fromDt": "04/2007",
      "toDt": null,
      "orgNm": "WATERTOWN SAVINGS BANK",
      "city": "WATERTOWN",
      "state": 20,
      "stateSpecified": true
    }
  ],
  "OthrBuss": {
    "OthrBus": null
  },
  "DRPs": []
}