{
  "Info": {
    "lastNm": "MILLER",
    "firstNm": "ALAN",
    "midNm": "W",
    "sufNm": null,
    "indvlPK": "1185867",
    "actvAGReg": 0,
    "link": "http://www.adviserinfo.sec.gov/IAPD/Individual/1185867"
  },
  "OthrNms": [
    {
      "lastNm": "MILLER",
      "firstNm": "ALAN",
      "midNm": "K",
      "sufNm": null
    },
    {
      "lastNm": "MILLER",
      "firstNm": "ALAN",
      "midNm": "WAYNE",
      "sufNm": null
    }
  ],
  "CrntEmps": [
    {
      "CrntRgstns": [
        {
          "regAuth": 22,
          "regCat": 0,
          "st": 2,
          "stDt": "2008-01-01T00:00:00"
        }
      ],
      "BrnchOfLocs": [
        {
          "str1": "23 WATER ST STE 200",
          "str2": "KEY PLAZA",
          "city": "BANGOR",
          "state": 22,
          "stateSpecified": true,
          "cntry": "United States",
          "postlCd": "04401"
        }
      ],
      "orgNm": "WELLS FARGO ADVISORS, LLC",
      "orgPK": "19616",
      "str1": "ONE NORTH JEFFERSON AVENUE",
      "str2": "MAIL CODE: H0004-050",
      "city": "ST. LOUIS",
      "state": 25,
      "stateSpecified": true,
      "cntry": "United States",
      "postlCd": "63103-2205"
    }
  ],
  "Exms": [
    {
      "exmCd": 0,
      "exmNm": "Uniform Securities Agent State Law Examination",
      "exmDt": "1983-10-21T00:00:00",
      "exmDtSpecified": true
    },
    {
      "exmCd": 3,
      "exmNm": "Uniform Combined State Law Examination",
      "exmDt": "2002-05-23T00:00:00",
      "exmDtSpecified": true
    }
  ],
  "Dsgntns": [],
  "PrevRgstns": [
    {
      "BrnchOfLocs": [
        {
          "city": "BANGOR",
          "state": 22,
          "stateSpecified": true
        },
        {
          "city": "CAMDEN",
          "state": 22,
          "stateSpecified": true
        },
        {
          "city": "ST. LOUIS",
          "state": 25,
          "stateSpecified": true
        }
      ],
      "orgNm": "A. G. EDWARDS & SONS, INC.",
      "orgPK": "4",
      "regBeginDt": "2002-06-12T00:00:00",
      "regBeginDtSpecified": true,
      "regEndDt": "2008-01-01T00:00:00",
      "regEndDtSpecified": true
    }
  ],
  "EmpHss": [
    {
      "fromDt": "12/1984",
      "toDt": "01/2008",
      "orgNm": "A.G. EDWARDS",
      "city": "BANGOR",
      "state": 22,
      "stateSpecified": true
    },
    {
      "fromDt": "01/2008",
      "toDt": "05/2009",
      "orgNm": "WACHOVIA SECURITIES, LLC",
      "city": "BANGOR",
      "state": 22,
      "stateSpecified": true
    },
    {
      "fromDt": "05/2009",
      "toDt": null,
      "orgNm": "WELLS FARGO ADVISORS LLC",
      "city": "BANGOR",
      "state": 22,
      "stateSpecified": true
    }
  ],
  "OthrBuss": {
    "OthrBus": {
      "desc": "TRUSTEE FOR FRIEND, INV RELATED, BANGOR, ME, START: 10/2001 MAINE COASTAL FLIGHT CENTER INC.; NOT INVESTMENT RELATED; TRENTON, ME; PILOT; SCENIC FLIGHTS AND FLIGHT SCHOOL; START DATE 6/20/2012; 10 HRS PER MONTH; 0 HRS DURING TRADING."
    }
  },
  "DRPs": []
}