{
  "Info": {
    "lastNm": "SCHMITT",
    "firstNm": "JAMES",
    "midNm": "LESLIE",
    "sufNm": null,
    "indvlPK": "1185071",
    "actvAGReg": 0,
    "link": "http://www.adviserinfo.sec.gov/IAPD/Individual/1185071"
  },
  "OthrNms": [],
  "CrntEmps": [
    {
      "CrntRgstns": [
        {
          "regAuth": 4,
          "regCat": 0,
          "st": 2,
          "stDt": "1997-12-15T00:00:00"
        },
        {
          "regAuth": 15,
          "regCat": 0,
          "st": 2,
          "stDt": "2000-12-14T00:00:00"
        },
        {
          "regAuth": 45,
          "regCat": 0,
          "st": 3,
          "stDt": "2012-06-13T00:00:00"
        }
      ],
      "BrnchOfLocs": [
        {
          "str1": "1 Parkview Plz",
          "str2": "Ste 760",
          "city": "OAKBROOK TERRACE",
          "state": 15,
          "stateSpecified": true,
          "cntry": "United States",
          "postlCd": "60181-4795"
        }
      ],
      "orgNm": "AMERIPRISE FINANCIAL SERVICES, INC.",
      "orgPK": "6363",
      "str1": "707 2ND AVENUE SOUTH",
      "str2": null,
      "city": "MINNEAPOLIS",
      "state": 24,
      "stateSpecified": true,
      "cntry": "United States",
      "postlCd": "55402"
    }
  ],
  "Exms": [
    {
      "exmCd": 0,
      "exmNm": "Uniform Securities Agent State Law Examination",
      "exmDt": "1994-12-23T00:00:00",
      "exmDtSpecified": true
    },
    {
      "exmCd": 2,
      "exmNm": "Uniform Investment Adviser Law Examination",
      "exmDt": "1996-01-18T00:00:00",
      "exmDtSpecified": true
    }
  ],
  "Dsgntns": [],
  "PrevRgstns": [],
  "EmpHss": [
    {
      "fromDt": "12/1987",
      "toDt": null,
      "orgNm": "Ameriprise Financial Services Inc.",
      "city": "Oakbrook Terrace",
      "state": 15,
      "stateSpecified": true
    }
  ],
  "OthrBuss": {
    "OthrBus": {
      "desc": "OUTSIDE EMPLOYMENT; PMP RESEARCH; REALLY NOT SURE;  USED BY MANY ADVISORS TO OBTAIN GROUP HEALTH INSURANCE; OHIO; 0-9 HRS PER MONTH.    FIDUCIARY ACTIVITIES ; BROTHER-IN-LAW, FATHER; SUBSEQUENT TUSTEE, SUBSEQUENT TUSTEE, SUBSEQUENT TUSTEE, POA;"
    }
  },
  "DRPs": []
}