{
  "Info": {
    "lastNm": "NETKIN",
    "firstNm": "MARJORIE",
    "midNm": "ELLEN",
    "sufNm": null,
    "indvlPK": "1192921",
    "actvAGReg": 0,
    "link": "http://www.adviserinfo.sec.gov/IAPD/Individual/1192921"
  },
  "OthrNms": [
    {
      "lastNm": "HIRSH",
      "firstNm": "MARJORIE",
      "midNm": "ELLEN",
      "sufNm": null
    },
    {
      "lastNm": "NETKIN",
      "firstNm": "MARJORIE",
      "midNm": "ELLEN",
      "sufNm": null
    }
  ],
  "CrntEmps": [
    {
      "CrntRgstns": [
        {
          "regAuth": 32,
          "regCat": 0,
          "st": 2,
          "stDt": "2005-11-02T00:00:00"
        },
        {
          "regAuth": 45,
          "regCat": 0,
          "st": 3,
          "stDt": "2005-11-30T00:00:00"
        }
      ],
      "BrnchOfLocs": [
        {
          "str1": "117 TOWNE LAKE PARKWAY",
          "str2": "SUITE 200",
          "city": "WOODSTOCK",
          "state": 10,
          "stateSpecified": true,
          "cntry": "United States",
          "postlCd": "30188"
        },
        {
          "str1": "117 TOWNE LAKE PARKWAY",
          "str2": null,
          "city": "WOODSTOCK",
          "state": 10,
          "stateSpecified": true,
          "cntry": "UNITED STATES",
          "postlCd": "30188"
        },
        {
          "str1": "1199 ROUTE 22 EAST",
          "str2": null,
          "city": "MOUNTAINSIDE",
          "state": 32,
          "stateSpecified": true,
          "cntry": "United States",
          "postlCd": "07092"
        }
      ],
      "orgNm": "WOODSTOCK FINANCIAL GROUP, INC.",
      "orgPK": "38095",
      "str1": "117 TOWNE LAKE PARKWAY",
      "str2": "SUITE 200",
      "city": "WOODSTOCK",
      "state": 10,
      "stateSpecified": true,
      "cntry": "United States",
      "postlCd": "30188"
    }
  ],
  "Exms": [
    {
      "exmCd": 0,
      "exmNm": "Uniform Securities Agent State Law Examination",
      "exmDt": "1991-09-11T00:00:00",
      "exmDtSpecified": true
    },
    {
      "exmCd": 2,
      "exmNm": "Uniform Investment Adviser Law Examination",
      "exmDt": "2006-02-14T00:00:00",
      "exmDtSpecified": true
    }
  ],
  "Dsgntns": [],
  "PrevRgstns": [
    {
      "BrnchOfLocs": [
        {
          "city": "SHORT HILLS",
          "state": 32,
          "stateSpecified": true
        }
      ],
      "orgNm": "PRUDENTIAL EQUITY GROUP, LLC",
      "orgPK": "7471",
      "regBeginDt": "2002-07-02T00:00:00",
      "regBeginDtSpecified": true,
      "regEndDt": "2003-07-01T00:00:00",
      "regEndDtSpecified": true
    },
    {
      "BrnchOfLocs": [
        {
          "city": "SHORT HILLS,",
          "state": 32,
          "stateSpecified": true
        }
      ],
      "orgNm": "WELLS FARGO ADVISORS, LLC",
      "orgPK": "19616",
      "regBeginDt": "2003-07-01T00:00:00",
      "regBeginDtSpecified": true,
      "regEndDt": "2004-05-14T00:00:00",
      "regEndDtSpecified": true
    },
    {
      "BrnchOfLocs": [
        {
          "city": "SHORT HILLS",
          "state": 32,
          "stateSpecified": true
        }
      ],
      "orgNm": "MORGAN STANLEY DW INC.",
      "orgPK": "7556",
      "regBeginDt": "2004-05-13T00:00:00",
      "regBeginDtSpecified": true,
      "regEndDt": "2005-11-02T00:00:00",
      "regEndDtSpecified": true
    }
  ],
  "EmpHss": [
    {
      "fromDt": "10/2005",
      "toDt": null,
      "orgNm": "RAIKE FINANCIAL GROUP",
      "city": "WOODSTOCK",
      "state": 10,
      "stateSpecified": true
    }
  ],
  "OthrBuss": {
    "OthrBus": {
      "desc": "EDGEWOOD FINANCIAL GROUP; INVESTMENT RELATED; 1199 RT 22 EAST SUITE 306, MOUNTAINSIDE, NJ 07092; DBA FOR WOODSTOCK FINANCIAL GROUP; BROKER, INVESTMENT ADVISORY REP, INSURANCE LICENSED; PRESIDENT; 01/01/2006; DEVOTES APPROX 160 HOURS WHICH ALL ARE DURING TRADING HOURS; DUTIES INCLUDE SPEAKING TO CLIENTS, ENTERING ORDER, ADMINISTRATIVE DUTIES, ETC.  DISCUSSING ALL ASPECTS OF FINANCIAL LIVES WITH CLIENTS."
    }
  },
  "DRPs": []
}