{
  "Info": {
    "lastNm": "WALSH",
    "firstNm": "CONSTANCE",
    "midNm": "MICHELLE",
    "sufNm": null,
    "indvlPK": "1192281",
    "actvAGReg": 0,
    "link": "http://www.adviserinfo.sec.gov/IAPD/Individual/1192281"
  },
  "OthrNms": [
    {
      "lastNm": "HANLET",
      "firstNm": "CONSTANCE",
      "midNm": "MICHELLE",
      "sufNm": null
    },
    {
      "lastNm": "WALSH",
      "firstNm": "CONSTANCE",
      "midNm": "M",
      "sufNm": null
    },
    {
      "lastNm": "WALSH",
      "firstNm": "CONSTANCE",
      "midNm": "MICHELLE",
      "sufNm": null
    }
  ],
  "CrntEmps": [
    {
      "CrntRgstns": [
        {
          "regAuth": 15,
          "regCat": 0,
          "st": 2,
          "stDt": "2000-06-06T00:00:00"
        }
      ],
      "BrnchOfLocs": [
        {
          "str1": "109 NORTH THIRD STREET",
          "str2": null,
          "city": "GENEVA",
          "state": 15,
          "stateSpecified": true,
          "cntry": "United States",
          "postlCd": "60134"
        }
      ],
      "orgNm": "THIRD STREET ADVISORS, LLC",
      "orgPK": "113212",
      "str1": "109 NORTH THIRD STREET",
      "str2": null,
      "city": "GENEVA",
      "state": 15,
      "stateSpecified": true,
      "cntry": "United States",
      "postlCd": "60134"
    },
    {
      "CrntRgstns": [
        {
          "regAuth": 15,
          "regCat": 0,
          "st": 2,
          "stDt": "1998-08-03T00:00:00"
        }
      ],
      "BrnchOfLocs": [
        {
          "str1": "109 NORTH THIRD STREET",
          "str2": null,
          "city": "GENEVA",
          "state": 15,
          "stateSpecified": true,
          "cntry": "United States",
          "postlCd": "60134"
        }
      ],
      "orgNm": "NEACO ADVISORY, INC.",
      "orgPK": "123482",
      "str1": "109 NORTH 3RD STREET",
      "str2": null,
      "city": "GENEVA",
      "state": 15,
      "stateSpecified": true,
      "cntry": "United States",
      "postlCd": "60134"
    }
  ],
  "Exms": [
    {
      "exmCd": 0,
      "exmNm": "Uniform Securities Agent State Law Examination",
      "exmDt": "1985-06-04T00:00:00",
      "exmDtSpecified": true
    },
    {
      "exmCd": 2,
      "exmNm": "Uniform Investment Adviser Law Examination",
      "exmDt": "1994-08-12T00:00:00",
      "exmDtSpecified": true
    }
  ],
  "Dsgntns": [
    {
      "dsgntnNm": "Certified Financial Planner"
    }
  ],
  "PrevRgstns": [],
  "EmpHss": [
    {
      "fromDt": "05/1997",
      "toDt": null,
      "orgNm": "FSC SECURITIES CORPORATION",
      "city": "GENEVA",
      "state": 15,
      "stateSpecified": true
    },
    {
      "fromDt": "05/1997",
      "toDt": null,
      "orgNm": "NEACO ADVISORY, INC.",
      "city": "GENEVA",
      "state": 15,
      "stateSpecified": true
    },
    {
      "fromDt": "02/2000",
      "toDt": null,
      "orgNm": "THIRD STREET ADVISORS, LLC",
      "city": "GENEVA",
      "state": 15,
      "stateSpecified": true
    }
  ],
  "OthrBuss": {
    "OthrBus": {
      "desc": "1) THIRD STREET ADVISORS, LLC., INVESTMENT RELATED, 105 NORTH THIRD ST. GENEVA, IL 60134, INVESTMENT ADVISOR REPRESENTATIVE, START DATE:02/2000, 40 HRS/MTH., 40 HRS. DURING ST HOURS, FEE BASED ASSET MANAGEMENT SERVICES, INCLUDING NO LOAD MUTUAL FUNDS, INDIVIDUAL STOCKS/BONDS   2) CONTINUUM FINANCIAL GROUP; INVESTMENT RELATED, 4300 COMMERCE CT, SUITE 318 LISLE, IL 60532; OWNER, START DATE:03/2000, 100 HRS/MTH., 80 HRS. DURING ST HOURS, DBA FOR INVESTMENT RELATED ACTIVITIES.     3) WALSH FINANCIAL DIVORCE SOLUTIONS LLC, NOT INVESTMENT RELATED, 4300 COMMERCE CT. SUITE 318 LISLE, IL 60532; START DATE:01/2000, 70 HRS/MTH., 50 HRS. DURING ST HOURS, FINANCIAL GUIDANCE DURING DIVORCE, PREPARE POST DIVORCE BUDGETS, ANALYSIS REFLECTING SETTLEMENT OPTIONS, EXPERT WITNESS TESTIMONY, SPEAKING ENGAGEMENTS, FINANCIAL MEDIATION, COLLABORATIVE DIVORCE FINANCIAL NEUTRAL"
    }
  },
  "DRPs": [
    {
      "hasRegAction": 1,
      "hasRegActionSpecified": true,
      "hasCriminal": 1,
      "hasCriminalSpecified": true,
      "hasBankrupt": 1,
      "hasBankruptSpecified": true,
      "hasCivilJudc": 1,
      "hasCivilJudcSpecified": true,
      "hasBond": 1,
      "hasBondSpecified": true,
      "hasJudgment": 1,
      "hasJudgmentSpecified": true,
      "hasInvstgn": 1,
      "hasInvstgnSpecified": true,
      "hasCustComp": 0,
      "hasCustCompSpecified": true,
      "hasTermination": 1,
      "hasTerminationSpecified": true
    }
  ]
}