{
  "Info": {
    "lastNm": "RIHA",
    "firstNm": "RONALD",
    "midNm": "FRANCIS",
    "sufNm": null,
    "indvlPK": "1197185",
    "actvAGReg": 0,
    "link": "http://www.adviserinfo.sec.gov/IAPD/Individual/1197185"
  },
  "OthrNms": [],
  "CrntEmps": [
    {
      "CrntRgstns": [
        {
          "regAuth": 13,
          "regCat": 0,
          "st": 2,
          "stDt": "1999-01-01T00:00:00"
        }
      ],
      "BrnchOfLocs": [
        {
          "str1": "1005 BROADWAY",
          "str2": null,
          "city": "EMMETSBURG",
          "state": 13,
          "stateSpecified": true,
          "cntry": "United States",
          "postlCd": "50536-0027"
        }
      ],
      "orgNm": "AMERIPRISE FINANCIAL SERVICES, INC.",
      "orgPK": "6363",
      "str1": "707 2ND AVENUE SOUTH",
      "str2": null,
      "city": "MINNEAPOLIS",
      "state": 24,
      "stateSpecified": true,
      "cntry": "United States",
      "postlCd": "55402"
    }
  ],
  "Exms": [
    {
      "exmCd": 0,
      "exmNm": "Uniform Securities Agent State Law Examination",
      "exmDt": "1983-10-12T00:00:00",
      "exmDtSpecified": true
    }
  ],
  "Dsgntns": [],
  "PrevRgstns": [],
  "EmpHss": [
    {
      "fromDt": "09/1983",
      "toDt": null,
      "orgNm": "AMERIPRISE FINANCIAL SERVICES INC",
      "city": "EMMETSBURG",
      "state": 13,
      "stateSpecified": true
    }
  ],
  "OthrBuss": {
    "OthrBus": {
      "desc": "REAL ESTATE OWNERSHIP :-COMMERCIAL ,1005 BROADWAY OFFICE BUILDING & 2 APARTMENTS EMMETSBURG, IA,INC:$3000TO$3999."
    }
  },
  "DRPs": []
}