{
  "Info": {
    "lastNm": "MARKHAM",
    "firstNm": "THOMAS",
    "midNm": "EDWARD",
    "sufNm": null,
    "indvlPK": "1200247",
    "actvAGReg": 0,
    "link": "http://www.adviserinfo.sec.gov/IAPD/Individual/1200247"
  },
  "OthrNms": [],
  "CrntEmps": [
    {
      "CrntRgstns": [
        {
          "regAuth": 38,
          "regCat": 0,
          "st": 2,
          "stDt": "2005-01-10T00:00:00"
        }
      ],
      "BrnchOfLocs": [
        {
          "str1": null,
          "str2": null,
          "city": "PORTLAND",
          "state": 38,
          "stateSpecified": true,
          "cntry": "United States",
          "postlCd": null
        }
      ],
      "orgNm": "SECURITIES AMERICA ADVISORS, INC.",
      "orgPK": "110518",
      "str1": "12325 PORT GRACE BLVD.",
      "str2": null,
      "city": "LA VISTA",
      "state": 30,
      "stateSpecified": true,
      "cntry": "United States",
      "postlCd": "68128-8204"
    }
  ],
  "Exms": [
    {
      "exmCd": 0,
      "exmNm": "Uniform Securities Agent State Law Examination",
      "exmDt": "1992-07-08T00:00:00",
      "exmDtSpecified": true
    },
    {
      "exmCd": 3,
      "exmNm": "Uniform Combined State Law Examination",
      "exmDt": "2004-11-30T00:00:00",
      "exmDtSpecified": true
    }
  ],
  "Dsgntns": [],
  "PrevRgstns": [],
  "EmpHss": [
    {
      "fromDt": "08/1991",
      "toDt": null,
      "orgNm": "SECURITIES AMERICA, INC.",
      "city": "PORTLAND",
      "state": 38,
      "stateSpecified": true
    },
    {
      "fromDt": "01/2005",
      "toDt": null,
      "orgNm": "SECURITIES AMERICA ADVISORS, INC.",
      "city": "PORTLAND",
      "state": 38,
      "stateSpecified": true
    }
  ],
  "OthrBuss": {
    "OthrBus": {
      "desc": "SECURITIES AMERICA ADVISORS - INVESTMENT ADVISORY - IAR - INVESTMENT RELATED - START DATE: 08/1991 - LOCATED AT 9300 S.W. CAMILLE TERRACE, PORTLAND, OR 97223   INSURANCE SALES - AGENT - INVESTMENT RELATED - START DATE: 8/1991 - LOCATED AT 9300 SOUTHWEST CAMILLE TERRACE, PORTLAND, OR 97223"
    }
  },
  "DRPs": []
}