{
  "Info": {
    "lastNm": "NARANG",
    "firstNm": "SATISH",
    "midNm": "KUMAR",
    "sufNm": null,
    "indvlPK": "1210028",
    "actvAGReg": 0,
    "link": "http://www.adviserinfo.sec.gov/IAPD/Individual/1210028"
  },
  "OthrNms": [],
  "CrntEmps": [
    {
      "CrntRgstns": [
        {
          "regAuth": 45,
          "regCat": 0,
          "st": 3,
          "stDt": "2013-09-24T00:00:00"
        }
      ],
      "BrnchOfLocs": [
        {
          "str1": "650 CORPORATION ST STE 404",
          "str2": null,
          "city": "BEAVER",
          "state": 39,
          "stateSpecified": true,
          "cntry": "United States",
          "postlCd": "15009"
        }
      ],
      "orgNm": "WELLS FARGO ADVISORS, LLC",
      "orgPK": "19616",
      "str1": "ONE NORTH JEFFERSON AVENUE",
      "str2": "MAIL CODE: H0004-050",
      "city": "ST. LOUIS",
      "state": 25,
      "stateSpecified": true,
      "cntry": "United States",
      "postlCd": "63103-2205"
    }
  ],
  "Exms": [
    {
      "exmCd": 0,
      "exmNm": "Uniform Securities Agent State Law Examination",
      "exmDt": "1983-11-28T00:00:00",
      "exmDtSpecified": true
    }
  ],
  "Dsgntns": [],
  "PrevRgstns": [],
  "EmpHss": [
    {
      "fromDt": "08/1984",
      "toDt": "01/2008",
      "orgNm": "A.G. EDWARDS",
      "city": "BEAVER",
      "state": 39,
      "stateSpecified": true
    },
    {
      "fromDt": "01/2008",
      "toDt": "05/2009",
      "orgNm": "WACHOVIA SECURITIES, LLC",
      "city": "BEAVER",
      "state": 39,
      "stateSpecified": true
    },
    {
      "fromDt": "05/2009",
      "toDt": null,
      "orgNm": "WELLS FARGO ADVISORS LLC",
      "city": "BEAVER",
      "state": 39,
      "stateSpecified": true
    }
  ],
  "OthrBuss": {
    "OthrBus": {
      "desc": "RENTAL PROPERTY; INVESTMENT RELATED; WAHSINGTON DC; OWNER; CONDO; START DATE 6/2011; 0 HRS PER MONTH."
    }
  },
  "DRPs": []
}