{
  "Info": {
    "lastNm": "MCNAMARA",
    "firstNm": "BRIAN",
    "midNm": "MARK",
    "sufNm": null,
    "indvlPK": "1212130",
    "actvAGReg": 0,
    "link": "http://www.adviserinfo.sec.gov/IAPD/Individual/1212130"
  },
  "OthrNms": [],
  "CrntEmps": [
    {
      "CrntRgstns": [
        {
          "regAuth": 6,
          "regCat": 0,
          "st": 2,
          "stDt": "2016-01-11T00:00:00"
        },
        {
          "regAuth": 9,
          "regCat": 0,
          "st": 2,
          "stDt": "2016-01-13T00:00:00"
        },
        {
          "regAuth": 47,
          "regCat": 0,
          "st": 2,
          "stDt": "2016-04-01T00:00:00"
        }
      ],
      "BrnchOfLocs": [
        {
          "str1": "10 MERCHANTS ROAD",
          "str2": null,
          "city": "SANDWICH",
          "state": 20,
          "stateSpecified": true,
          "cntry": "United States",
          "postlCd": "02563"
        },
        {
          "str1": "20 TEATICKET HIGHWAY",
          "str2": null,
          "city": "EAST FALMOUTH",
          "state": 20,
          "stateSpecified": true,
          "cntry": "United States",
          "postlCd": "02536"
        },
        {
          "str1": "39 NATHAN ELLIS HIGHWAY",
          "str2": null,
          "city": "MASHPEE",
          "state": 20,
          "stateSpecified": true,
          "cntry": "United States",
          "postlCd": "02649"
        },
        {
          "str1": "4 PLAZAWAY",
          "str2": "MS:  MA660",
          "city": "FAIRHAVEN",
          "state": 20,
          "stateSpecified": true,
          "cntry": "United States",
          "postlCd": "02719"
        },
        {
          "str1": "50 DAVIS STRAITS",
          "str2": null,
          "city": "EAST FALMOUTH",
          "state": 20,
          "stateSpecified": true,
          "cntry": "United States",
          "postlCd": "02540"
        },
        {
          "str1": "65 RT. 6A",
          "str2": null,
          "city": "SANDWICH",
          "state": 20,
          "stateSpecified": true,
          "cntry": "United States",
          "postlCd": "02563"
        },
        {
          "str1": "65 WIANNO AVE.",
          "str2": null,
          "city": "OSTERVILLE",
          "state": 20,
          "stateSpecified": true,
          "cntry": "United States",
          "postlCd": "02655"
        }
      ],
      "orgNm": "CITIZENS SECURITIES, INC.",
      "orgPK": "39550",
      "str1": "770 LEGACY PLACE",
      "str2": "MLP240",
      "city": "DEDHAM",
      "state": 20,
      "stateSpecified": true,
      "cntry": "United States",
      "postlCd": "02026"
    }
  ],
  "Exms": [
    {
      "exmCd": 0,
      "exmNm": "Uniform Securities Agent State Law Examination",
      "exmDt": "1984-01-17T00:00:00",
      "exmDtSpecified": true
    },
    {
      "exmCd": 2,
      "exmNm": "Uniform Investment Adviser Law Examination",
      "exmDt": "2016-01-11T00:00:00",
      "exmDtSpecified": true
    }
  ],
  "Dsgntns": [],
  "PrevRgstns": [],
  "EmpHss": [
    {
      "fromDt": "11/2002",
      "toDt": null,
      "orgNm": "CITIZENS INVESTMENT SERVICES CORP",
      "city": "SANDWICH",
      "state": 20,
      "stateSpecified": true
    }
  ],
  "OthrBuss": {
    "OthrBus": null
  },
  "DRPs": [
    {
      "hasRegAction": 1,
      "hasRegActionSpecified": true,
      "hasCriminal": 1,
      "hasCriminalSpecified": true,
      "hasBankrupt": 1,
      "hasBankruptSpecified": true,
      "hasCivilJudc": 1,
      "hasCivilJudcSpecified": true,
      "hasBond": 1,
      "hasBondSpecified": true,
      "hasJudgment": 1,
      "hasJudgmentSpecified": true,
      "hasInvstgn": 1,
      "hasInvstgnSpecified": true,
      "hasCustComp": 0,
      "hasCustCompSpecified": true,
      "hasTermination": 1,
      "hasTerminationSpecified": true
    }
  ]
}