{
  "Info": {
    "lastNm": "SOSSAMON",
    "firstNm": "JAMES",
    "midNm": "DENNIS",
    "sufNm": "SR",
    "indvlPK": "1221731",
    "actvAGReg": 0,
    "link": "http://www.adviserinfo.sec.gov/IAPD/Individual/1221731"
  },
  "OthrNms": [
    {
      "lastNm": "SOSSAMON",
      "firstNm": "DENNIS",
      "midNm": null,
      "sufNm": "SR"
    },
    {
      "lastNm": "SOSSAMON",
      "firstNm": "DENNY",
      "midNm": null,
      "sufNm": null
    }
  ],
  "CrntEmps": [
    {
      "CrntRgstns": [
        {
          "regAuth": 25,
          "regCat": 0,
          "st": 2,
          "stDt": "2011-01-03T00:00:00"
        },
        {
          "regAuth": 2,
          "regCat": 0,
          "st": 2,
          "stDt": "2011-01-06T00:00:00"
        },
        {
          "regAuth": 37,
          "regCat": 0,
          "st": 2,
          "stDt": "2011-01-07T00:00:00"
        }
      ],
      "BrnchOfLocs": [
        {
          "str1": null,
          "str2": null,
          "city": "HIWASSE",
          "state": 2,
          "stateSpecified": true,
          "cntry": "United States",
          "postlCd": null
        },
        {
          "str1": null,
          "str2": null,
          "city": "QUITMAN",
          "state": 2,
          "stateSpecified": true,
          "cntry": "United States",
          "postlCd": null
        }
      ],
      "orgNm": "WALL STREET FINANCIAL GROUP, INC.",
      "orgPK": "35830",
      "str1": "255 WOODCLIFF DR",
      "str2": null,
      "city": "FAIRPORT",
      "state": 35,
      "stateSpecified": true,
      "cntry": "United States",
      "postlCd": "14450"
    }
  ],
  "Exms": [
    {
      "exmCd": 0,
      "exmNm": "Uniform Securities Agent State Law Examination",
      "exmDt": "1983-05-27T00:00:00",
      "exmDtSpecified": true
    },
    {
      "exmCd": 2,
      "exmNm": "Uniform Investment Adviser Law Examination",
      "exmDt": "2008-03-10T00:00:00",
      "exmDtSpecified": true
    }
  ],
  "Dsgntns": [],
  "PrevRgstns": [
    {
      "BrnchOfLocs": [
        {
          "city": "FOLSOM",
          "state": 4,
          "stateSpecified": true
        },
        {
          "city": "HIAWASSEE",
          "state": 2,
          "stateSpecified": true
        },
        {
          "city": "HIWASSE",
          "state": 2,
          "stateSpecified": true
        },
        {
          "city": "MULDROW",
          "state": 37,
          "stateSpecified": true
        }
      ],
      "orgNm": "BRECEK & YOUNG ADVISORS, INC.",
      "orgPK": "40395",
      "regBeginDt": "2008-03-25T00:00:00",
      "regBeginDtSpecified": true,
      "regEndDt": "2009-01-23T00:00:00",
      "regEndDtSpecified": true
    },
    {
      "BrnchOfLocs": [
        {
          "city": "LAVISTA",
          "state": 30,
          "stateSpecified": true
        }
      ],
      "orgNm": "SECURITIES AMERICA ADVISORS, INC.",
      "orgPK": "110518",
      "regBeginDt": "2009-01-23T00:00:00",
      "regBeginDtSpecified": true,
      "regEndDt": "2010-12-31T00:00:00",
      "regEndDtSpecified": true
    }
  ],
  "EmpHss": [
    {
      "fromDt": "03/2001",
      "toDt": "01/2009",
      "orgNm": "BRECEK & YOUNG ADVISORS, INC.",
      "city": "FOLSOM",
      "state": 4,
      "stateSpecified": true
    },
    {
      "fromDt": "04/2008",
      "toDt": "12/2010",
      "orgNm": "FINANCIAL PLAN ADVISORS",
      "city": "HIWASSE",
      "state": 2,
      "stateSpecified": true
    },
    {
      "fromDt": "01/2009",
      "toDt": "12/2010",
      "orgNm": "SECURITIES AMERICA ADVISORS, INC.",
      "city": "LAVISTA",
      "state": 30,
      "stateSpecified": true
    },
    {
      "fromDt": "01/2009",
      "toDt": "12/2010",
      "orgNm": "SECURITIES AMERICA, INC.",
      "city": "HIWASSE",
      "state": 2,
      "stateSpecified": true
    },
    {
      "fromDt": "01/2011",
      "toDt": null,
      "orgNm": "WALL STREET FINANCIAL GROUP, INC.",
      "city": "FAIRPORT",
      "state": 35,
      "stateSpecified": true
    }
  ],
  "OthrBuss": {
    "OthrBus": {
      "desc": "1.) INSURANCE SALES (LIFE, HEALTH, DISABILITY, LONG TERM CARE).  COMPENSATED ON A COMMISSION BASIS.  5-8 HOURS PER MONTH, 1-2 HOURS DURING TRADING HOURS. 2.) REPRESENTATIVE SERVICING EXISTING EQUITY INDEXED ANNUITIES (INSURANCE SALES WHEN WRITTEN). NO CLIENTS INVOLVED. NO E&O (OUTSIDE OF WSFG). SELLING START DATE: 10/2/2003-12/16/2006. 1 HOUR PER MONTH. 1 HOUR PER TRADING."
    }
  },
  "DRPs": [
    {
      "hasRegAction": 1,
      "hasRegActionSpecified": true,
      "hasCriminal": 0,
      "hasCriminalSpecified": true,
      "hasBankrupt": 1,
      "hasBankruptSpecified": true,
      "hasCivilJudc": 1,
      "hasCivilJudcSpecified": true,
      "hasBond": 1,
      "hasBondSpecified": true,
      "hasJudgment": 1,
      "hasJudgmentSpecified": true,
      "hasInvstgn": 1,
      "hasInvstgnSpecified": true,
      "hasCustComp": 1,
      "hasCustCompSpecified": true,
      "hasTermination": 1,
      "hasTerminationSpecified": true
    }
  ]
}