{
  "Info": {
    "lastNm": "IRIMIA",
    "firstNm": "ELENA",
    "midNm": "MARIA",
    "sufNm": null,
    "indvlPK": "1223055",
    "actvAGReg": 0,
    "link": "http://www.adviserinfo.sec.gov/IAPD/Individual/1223055"
  },
  "OthrNms": [],
  "CrntEmps": [
    {
      "CrntRgstns": [
        {
          "regAuth": 19,
          "regCat": 0,
          "st": 2,
          "stDt": "2014-08-25T00:00:00"
        }
      ],
      "BrnchOfLocs": [
        {
          "str1": "3900 NORTH CAUSEWAY BLVD",
          "str2": "SUITE1200 - OFFICES 1247, 1248, 1249, 1264",
          "city": "METAIRIE",
          "state": 19,
          "stateSpecified": true,
          "cntry": "United States",
          "postlCd": "70002"
        }
      ],
      "orgNm": "TIAA-CREF INDIVIDUAL & INSTITUTIONAL SERVICES, LLC",
      "orgPK": "20472",
      "str1": "730 THIRD AVENUE",
      "str2": null,
      "city": "NEW YORK",
      "state": 35,
      "stateSpecified": true,
      "cntry": "United States",
      "postlCd": "10017-3206"
    }
  ],
  "Exms": [
    {
      "exmCd": 3,
      "exmNm": "Uniform Combined State Law Examination",
      "exmDt": "2002-03-18T00:00:00",
      "exmDtSpecified": true
    }
  ],
  "Dsgntns": [],
  "PrevRgstns": [
    {
      "BrnchOfLocs": [
        {
          "city": "NEW ORLEANS",
          "state": 19,
          "stateSpecified": true
        },
        {
          "city": "NEW ORLEANS",
          "state": 19,
          "stateSpecified": true
        },
        {
          "city": "NEW YORK",
          "state": 35,
          "stateSpecified": true
        },
        {
          "city": "WILMINGTON",
          "state": 8,
          "stateSpecified": true
        }
      ],
      "orgNm": "CITIGROUP GLOBAL MARKETS INC.",
      "orgPK": "7059",
      "regBeginDt": "2006-04-27T00:00:00",
      "regBeginDtSpecified": true,
      "regEndDt": "2009-06-01T00:00:00",
      "regEndDtSpecified": true
    },
    {
      "BrnchOfLocs": [
        {
          "city": "PURCHASE",
          "state": 35,
          "stateSpecified": true
        }
      ],
      "orgNm": "MORGAN STANLEY",
      "orgPK": "149777",
      "regBeginDt": "2009-06-01T00:00:00",
      "regBeginDtSpecified": true,
      "regEndDt": "2010-07-13T00:00:00",
      "regEndDtSpecified": true
    },
    {
      "BrnchOfLocs": [
        {
          "city": "NEW ORLEANS",
          "state": 19,
          "stateSpecified": true
        }
      ],
      "orgNm": "MORGAN STANLEY",
      "orgPK": "149777",
      "regBeginDt": "2010-10-22T00:00:00",
      "regBeginDtSpecified": true,
      "regEndDt": "2013-03-01T00:00:00",
      "regEndDtSpecified": true
    },
    {
      "BrnchOfLocs": [
        {
          "city": "NEW ORLEANS",
          "state": 19,
          "stateSpecified": true
        },
        {
          "city": "NEW ORLEANS",
          "state": 19,
          "stateSpecified": true
        }
      ],
      "orgNm": "J.P. MORGAN SECURITIES LLC",
      "orgPK": "79",
      "regBeginDt": "2013-02-15T00:00:00",
      "regBeginDtSpecified": true,
      "regEndDt": "2014-07-29T00:00:00",
      "regEndDtSpecified": true
    }
  ],
  "EmpHss": [
    {
      "fromDt": "10/1999",
      "toDt": "07/2010",
      "orgNm": "SMITH BARNEY/CITIGROUP/MORGAN STANLEY SMITH BARNEY",
      "city": "PURCHASE",
      "state": 35,
      "stateSpecified": true
    },
    {
      "fromDt": "10/2010",
      "toDt": "02/2013",
      "orgNm": "MORGAN STANLEY SMITH BARNEY",
      "city": "NEW ORLEANS",
      "state": 19,
      "stateSpecified": true
    },
    {
      "fromDt": "01/2011",
      "toDt": "06/2011",
      "orgNm": "DELGADO COMMUNITY",
      "city": "NEW ORLEANS",
      "state": 19,
      "stateSpecified": true
    },
    {
      "fromDt": "07/2012",
      "toDt": "08/2013",
      "orgNm": "NAWBO-NOLA",
      "city": "NEW ORLEANS",
      "state": 19,
      "stateSpecified": true
    },
    {
      "fromDt": "02/2013",
      "toDt": "07/2014",
      "orgNm": "JP MORGAN SECURITIES, LLC",
      "city": "NEW ORLEANS",
      "state": 19,
      "stateSpecified": true
    },
    {
      "fromDt": "07/2014",
      "toDt": null,
      "orgNm": "TIAA",
      "city": "METAIRIE",
      "state": 19,
      "stateSpecified": true
    },
    {
      "fromDt": "07/2014",
      "toDt": null,
      "orgNm": "TIAA-CREF INDIVIDUAL & INSTITUTIONAL SERVICES, LLC",
      "city": "METAIRIE",
      "state": 19,
      "stateSpecified": true
    }
  ],
  "OthrBuss": {
    "OthrBus": null
  },
  "DRPs": []
}