{
  "Info": {
    "lastNm": "REYES",
    "firstNm": "CARLOS",
    "midNm": null,
    "sufNm": null,
    "indvlPK": "1225683",
    "actvAGReg": 0,
    "link": "http://www.adviserinfo.sec.gov/IAPD/Individual/1225683"
  },
  "OthrNms": [],
  "CrntEmps": [
    {
      "CrntRgstns": [
        {
          "regAuth": 45,
          "regCat": 0,
          "st": 2,
          "stDt": "2016-03-23T00:00:00"
        }
      ],
      "BrnchOfLocs": [
        {
          "str1": "1271 AVENUE OF THE AMERICAS",
          "str2": "14TH FL",
          "city": "NEW YORK",
          "state": 35,
          "stateSpecified": true,
          "cntry": "United States",
          "postlCd": "10020-1302"
        },
        {
          "str1": "2929 Purple Sage Dr.",
          "str2": null,
          "city": "Flower Mound",
          "state": 45,
          "stateSpecified": true,
          "cntry": "United States",
          "postlCd": "75028"
        },
        {
          "str1": "8418 Preston Road",
          "str2": null,
          "city": "Dallas",
          "state": 45,
          "stateSpecified": true,
          "cntry": "United States",
          "postlCd": "75225"
        }
      ],
      "orgNm": "E*TRADE CAPITAL MANAGEMENT, LLC",
      "orgPK": "42159",
      "str1": "1271 AVENUE OF THE AMERICAS",
      "str2": "14TH FL",
      "city": "NEW YORK",
      "state": 35,
      "stateSpecified": true,
      "cntry": "United States",
      "postlCd": "10020-1302"
    }
  ],
  "Exms": [
    {
      "exmCd": 0,
      "exmNm": "Uniform Securities Agent State Law Examination",
      "exmDt": "1992-08-18T00:00:00",
      "exmDtSpecified": true
    },
    {
      "exmCd": 3,
      "exmNm": "Uniform Combined State Law Examination",
      "exmDt": "2005-07-05T00:00:00",
      "exmDtSpecified": true
    }
  ],
  "Dsgntns": [],
  "PrevRgstns": [
    {
      "BrnchOfLocs": [
        {
          "city": "FLOWER MOUND",
          "state": 45,
          "stateSpecified": true
        },
        {
          "city": "NEW YORK",
          "state": 35,
          "stateSpecified": true
        },
        {
          "city": "NEW YORK",
          "state": 35,
          "stateSpecified": true
        }
      ],
      "orgNm": "MERRILL LYNCH, PIERCE, FENNER & SMITH INCORPORATED",
      "orgPK": "7691",
      "regBeginDt": "2005-07-07T00:00:00",
      "regBeginDtSpecified": true,
      "regEndDt": "2016-03-28T00:00:00",
      "regEndDtSpecified": true
    }
  ],
  "EmpHss": [
    {
      "fromDt": "03/2005",
      "toDt": "03/2016",
      "orgNm": "MERRILL LYNCH, PIERCE, FENNER & SMITH INCORPORATED",
      "city": "FLOWER MOUND",
      "state": 45,
      "stateSpecified": true
    },
    {
      "fromDt": "03/2016",
      "toDt": null,
      "orgNm": "E*TRADE Capital Management LLC",
      "city": "Dallas",
      "state": 45,
      "stateSpecified": true
    },
    {
      "fromDt": "03/2016",
      "toDt": null,
      "orgNm": "E*TRADE Securities LLC",
      "city": "Dallas",
      "state": 45,
      "stateSpecified": true
    }
  ],
  "OthrBuss": {
    "OthrBus": null
  },
  "DRPs": []
}