{
  "Info": {
    "lastNm": "PEARL",
    "firstNm": "CARTER",
    "midNm": "ALLEN",
    "sufNm": null,
    "indvlPK": "1226543",
    "actvAGReg": 1,
    "link": "http://www.adviserinfo.sec.gov/IAPD/Individual/1226543"
  },
  "OthrNms": [],
  "CrntEmps": [
    {
      "CrntRgstns": [
        {
          "regAuth": 3,
          "regCat": 0,
          "st": 2,
          "stDt": "2012-12-17T00:00:00"
        },
        {
          "regAuth": 45,
          "regCat": 0,
          "st": 3,
          "stDt": "2013-02-12T00:00:00"
        }
      ],
      "BrnchOfLocs": [
        {
          "str1": "4742 N 24TH STREET",
          "str2": "SUITE 300",
          "city": "PHOENIX",
          "state": 3,
          "stateSpecified": true,
          "cntry": "United States",
          "postlCd": "85016"
        }
      ],
      "orgNm": "INTRINSIC VALUE PARTNERS, LLC",
      "orgPK": "165214",
      "str1": "4742 N 24TH STREET",
      "str2": "SUITE 300",
      "city": "PHOENIX",
      "state": 3,
      "stateSpecified": true,
      "cntry": "United States",
      "postlCd": "85016"
    }
  ],
  "Exms": [
    {
      "exmCd": 0,
      "exmNm": "Uniform Securities Agent State Law Examination",
      "exmDt": "1994-02-09T00:00:00",
      "exmDtSpecified": true
    },
    {
      "exmCd": 2,
      "exmNm": "Uniform Investment Adviser Law Examination",
      "exmDt": "1998-02-17T00:00:00",
      "exmDtSpecified": true
    }
  ],
  "Dsgntns": [
    {
      "dsgntnNm": "Chartered Financial Analyst"
    }
  ],
  "PrevRgstns": [
    {
      "BrnchOfLocs": [
        {
          "city": "PHOENIX",
          "state": 3,
          "stateSpecified": true
        }
      ],
      "orgNm": "PACWEST FINANCIAL MANAGEMENT INC",
      "orgPK": "108740",
      "regBeginDt": "2002-08-06T00:00:00",
      "regBeginDtSpecified": true,
      "regEndDt": "2012-12-12T00:00:00",
      "regEndDtSpecified": true
    }
  ],
  "EmpHss": [
    {
      "fromDt": "05/2002",
      "toDt": "11/2012",
      "orgNm": "PACWEST FINANCIAL MANAGEMENT, INC.",
      "city": "PHOENIX",
      "state": 3,
      "stateSpecified": true
    },
    {
      "fromDt": "11/2012",
      "toDt": null,
      "orgNm": "INTRINSIC VALUE PARTNERS",
      "city": "PHOENIX",
      "state": 3,
      "stateSpecified": true
    }
  ],
  "OthrBuss": {
    "OthrBus": {
      "desc": "CARTER IS THE PROPRIETOR OF C. PEARL INVESTMENT HOLDINGS, INC.  THE BUSINESS IS INVESTMENT RELATED IN THAT IT WAS THE ENTITY THAT RECEIVED INVESTMENT MANAGEMENT FEES FROM THE PREVIOUS RIA WITH WHICH CARTER WAS AFFILIATED, PACWEST FINANCIAL MANAGEMENT, INC.  CARTER PEARL IS NO LONGER ASSOCIATED WITH PACWEST.  THE ADDRESS FOR  C. PEARL INVESTMENT HOLDINGS, INC. IS 321 E. MONTEBELLO AVE., PHOENIX, AZ 85012.  EVEN THOUGH THE ENTITY IS STILL OPEN, CARTER DOES NOT SPEND ANY TIME ON C. PEARL INVESTMENT HOLDINGS, INC., SINCE CARTER PEARL IS NO LONGER ASSOCIATED WITH PACWEST."
    }
  },
  "DRPs": []
}