{
  "Info": {
    "lastNm": "ALLSHOUSE",
    "firstNm": "ROBERT",
    "midNm": "DEAN",
    "sufNm": null,
    "indvlPK": "1227910",
    "actvAGReg": 0,
    "link": "http://www.adviserinfo.sec.gov/IAPD/Individual/1227910"
  },
  "OthrNms": [
    {
      "lastNm": "ALLHOUSE",
      "firstNm": "BOB",
      "midNm": "DEAN",
      "sufNm": null
    }
  ],
  "CrntEmps": [
    {
      "CrntRgstns": [
        {
          "regAuth": 39,
          "regCat": 0,
          "st": 2,
          "stDt": "2004-02-06T00:00:00"
        }
      ],
      "BrnchOfLocs": [
        {
          "str1": "1 NORTHGATE SQUARE",
          "str2": null,
          "city": "GREENSBURG",
          "state": 39,
          "stateSpecified": true,
          "cntry": "United States",
          "postlCd": "15601"
        },
        {
          "str1": "11440 NORTH JOG ROAD",
          "str2": null,
          "city": "PALM BEACH GARDENS",
          "state": 9,
          "stateSpecified": true,
          "cntry": "USA",
          "postlCd": "33418-3764"
        },
        {
          "str1": "11440 NORTH JOG ROAD",
          "str2": null,
          "city": "PALM BEACH GARDENS",
          "state": 9,
          "stateSpecified": true,
          "cntry": "United States",
          "postlCd": "33418-3764"
        },
        {
          "str1": "940 WEST VALLEY ROAD",
          "str2": "SUITE 1200",
          "city": "WAYNE",
          "state": 39,
          "stateSpecified": true,
          "cntry": "United States",
          "postlCd": "19087"
        }
      ],
      "orgNm": "GWN SECURITIES INC.",
      "orgPK": "128929",
      "str1": "11440 NORTH JOG ROAD",
      "str2": null,
      "city": "PALM BEACH GARDENS",
      "state": 9,
      "stateSpecified": true,
      "cntry": "United States",
      "postlCd": "33418-3764"
    }
  ],
  "Exms": [
    {
      "exmCd": 0,
      "exmNm": "Uniform Securities Agent State Law Examination",
      "exmDt": "1984-02-02T00:00:00",
      "exmDtSpecified": true
    },
    {
      "exmCd": 2,
      "exmNm": "Uniform Investment Adviser Law Examination",
      "exmDt": "2003-06-10T00:00:00",
      "exmDtSpecified": true
    }
  ],
  "Dsgntns": [],
  "PrevRgstns": [
    {
      "BrnchOfLocs": [
        {
          "city": "PITTSBURGH",
          "state": 39,
          "stateSpecified": true
        }
      ],
      "orgNm": "COMMONWEALTH ADVISORY GROUP, LTD.",
      "orgPK": "113347",
      "regBeginDt": "2003-06-16T00:00:00",
      "regBeginDtSpecified": true,
      "regEndDt": "2011-11-16T00:00:00",
      "regEndDtSpecified": true
    },
    {
      "BrnchOfLocs": [
        {
          "city": "GREENSBURG",
          "state": 39,
          "stateSpecified": true
        }
      ],
      "orgNm": "MONEY CONCEPTS CAPITAL CORP",
      "orgPK": "12963",
      "regBeginDt": "2004-01-02T00:00:00",
      "regBeginDtSpecified": true,
      "regEndDt": "2004-03-11T00:00:00",
      "regEndDtSpecified": true
    }
  ],
  "EmpHss": [
    {
      "fromDt": "01/2003",
      "toDt": null,
      "orgNm": "COMMONWEALTH ADVISORY GROUP, LTD",
      "city": "PITTSBURGH",
      "state": 39,
      "stateSpecified": true
    },
    {
      "fromDt": "02/2004",
      "toDt": null,
      "orgNm": "GWN SECURITIES INC",
      "city": "PALM BEACH GARDENS",
      "state": 9,
      "stateSpecified": true
    }
  ],
  "OthrBuss": {
    "OthrBus": {
      "desc": "ASH III POSITION: PARTNER NATURE: FLIPPING HOUSES INVESTMENT RELATED: NO NUMBER OF HOURS: 5 INVESTMENT RELATED HOURS: 2 START DATE: 03/15/2007  ADDRESS: 45 WOODLAND AVE, GREENSBURG PA 15601  DESCRIPTION: FINANCIAL RECORD KEEPING AND COLLECTING RENT    ANNUITY  POSITION: AGENT NATURE: FIXED ANNUITY SALES THROUGH ...GBU FINANCIAL LIFE 4254 CLAIRTON BLVD PITTSBURGH PA 15227 INVESTMENT RELATED: YES NUMBER OF HOURS: 1 INVESTMENT RELATED HOURS: 1 START DATE: 03/15/2011  ADDRESS: ONE NORTHGATE SQUARE, GREENSBURG PA 15601  DESCRIPTION: SALES REP/AGENT"
    }
  },
  "DRPs": [
    {
      "hasRegAction": 0,
      "hasRegActionSpecified": true,
      "hasCriminal": 1,
      "hasCriminalSpecified": true,
      "hasBankrupt": 1,
      "hasBankruptSpecified": true,
      "hasCivilJudc": 1,
      "hasCivilJudcSpecified": true,
      "hasBond": 1,
      "hasBondSpecified": true,
      "hasJudgment": 1,
      "hasJudgmentSpecified": true,
      "hasInvstgn": 1,
      "hasInvstgnSpecified": true,
      "hasCustComp": 1,
      "hasCustCompSpecified": true,
      "hasTermination": 1,
      "hasTerminationSpecified": true
    }
  ]
}