{
  "Info": {
    "lastNm": "GAREY",
    "firstNm": "ROBERT",
    "midNm": "BRUCE",
    "sufNm": null,
    "indvlPK": "1230628",
    "actvAGReg": 1,
    "link": "http://www.adviserinfo.sec.gov/IAPD/Individual/1230628"
  },
  "OthrNms": [
    {
      "lastNm": "GAREY",
      "firstNm": "BOB",
      "midNm": null,
      "sufNm": null
    },
    {
      "lastNm": "GAREY",
      "firstNm": "ROBERT",
      "midNm": "B",
      "sufNm": null
    }
  ],
  "CrntEmps": [
    {
      "CrntRgstns": [
        {
          "regAuth": 45,
          "regCat": 0,
          "st": 3,
          "stDt": "2008-12-08T00:00:00"
        },
        {
          "regAuth": 9,
          "regCat": 0,
          "st": 2,
          "stDt": "2009-01-21T00:00:00"
        }
      ],
      "BrnchOfLocs": [
        {
          "str1": "16021 N. FLORIDA AVE.",
          "str2": null,
          "city": "LUTZ",
          "state": 9,
          "stateSpecified": true,
          "cntry": "United States",
          "postlCd": "33549"
        }
      ],
      "orgNm": "TAMPA ASSET MANAGEMENT, LLC",
      "orgPK": "148558",
      "str1": "16021 N. FLORIDA AVE.",
      "str2": null,
      "city": "LUTZ",
      "state": 9,
      "stateSpecified": true,
      "cntry": "United States",
      "postlCd": "33549"
    },
    {
      "CrntRgstns": [
        {
          "regAuth": 9,
          "regCat": 0,
          "st": 2,
          "stDt": "2016-01-21T00:00:00"
        }
      ],
      "BrnchOfLocs": [
        {
          "str1": "1413 S. HOWARD AVE.",
          "str2": "SUITE 201",
          "city": "TAMPA",
          "state": 9,
          "stateSpecified": true,
          "cntry": "United States",
          "postlCd": "33606"
        },
        {
          "str1": "16021 N. Florida Avenue",
          "str2": null,
          "city": "Lutz",
          "state": 9,
          "stateSpecified": true,
          "cntry": "United States",
          "postlCd": "33549"
        }
      ],
      "orgNm": "BRIGHTWATER ADVISORY, LLC",
      "orgPK": "169806",
      "str1": "1413 S. HOWARD AVE.",
      "str2": "SUITE 201",
      "city": "TAMPA",
      "state": 9,
      "stateSpecified": true,
      "cntry": "United States",
      "postlCd": "33606"
    }
  ],
  "Exms": [
    {
      "exmCd": 0,
      "exmNm": "Uniform Securities Agent State Law Examination",
      "exmDt": "1984-02-03T00:00:00",
      "exmDtSpecified": true
    },
    {
      "exmCd": 2,
      "exmNm": "Uniform Investment Adviser Law Examination",
      "exmDt": "1992-03-23T00:00:00",
      "exmDtSpecified": true
    }
  ],
  "Dsgntns": [],
  "PrevRgstns": [
    {
      "BrnchOfLocs": [
        {
          "city": "TAMPA",
          "state": 9,
          "stateSpecified": true
        },
        {
          "city": "TAMPA",
          "state": 9,
          "stateSpecified": true
        }
      ],
      "orgNm": "WELLS FARGO ADVISORS, LLC",
      "orgPK": "19616",
      "regBeginDt": "1999-10-01T00:00:00",
      "regBeginDtSpecified": true,
      "regEndDt": "2008-12-08T00:00:00",
      "regEndDtSpecified": true
    }
  ],
  "EmpHss": [
    {
      "fromDt": "08/1999",
      "toDt": "12/2008",
      "orgNm": "WACHOVIA SECURITIES, INC.",
      "city": "TAMPA",
      "state": 9,
      "stateSpecified": true
    },
    {
      "fromDt": "12/2008",
      "toDt": null,
      "orgNm": "TAMPA ASSET MANAGEMENT, LLC",
      "city": "TAMPA",
      "state": 9,
      "stateSpecified": true
    },
    {
      "fromDt": "01/2016",
      "toDt": null,
      "orgNm": "Brightwater Advisory, LLC",
      "city": "Tampa",
      "state": 9,
      "stateSpecified": true
    }
  ],
  "OthrBuss": {
    "OthrBus": {
      "desc": "Brightwater Advisory, LLC (\"Brightwater\"), Investment Adviser Representative, Start date 01/2016, investment related, 1413 S. Howard Ave Tampa FL 33606, Brightwater is an unaffliated registered investment adviser firm, Robert solely serves in this capacity to provide Brightwater's clients with ongoing advice and service in the event the Principal of Brightwater is unavailable for an extended period (e.g., planned vacations, temporary incapacity due to illness, etc.)"
    }
  },
  "DRPs": [
    {
      "hasRegAction": 1,
      "hasRegActionSpecified": true,
      "hasCriminal": 1,
      "hasCriminalSpecified": true,
      "hasBankrupt": 1,
      "hasBankruptSpecified": true,
      "hasCivilJudc": 1,
      "hasCivilJudcSpecified": true,
      "hasBond": 1,
      "hasBondSpecified": true,
      "hasJudgment": 1,
      "hasJudgmentSpecified": true,
      "hasInvstgn": 1,
      "hasInvstgnSpecified": true,
      "hasCustComp": 0,
      "hasCustCompSpecified": true,
      "hasTermination": 1,
      "hasTerminationSpecified": true
    }
  ]
}