{
  "Info": {
    "lastNm": "HAAS",
    "firstNm": "KIM",
    "midNm": "CHRISTINE",
    "sufNm": null,
    "indvlPK": "1232823",
    "actvAGReg": 0,
    "link": "http://www.adviserinfo.sec.gov/IAPD/Individual/1232823"
  },
  "OthrNms": [
    {
      "lastNm": "HARTENBAUER",
      "firstNm": "KIM",
      "midNm": "CHRISTINE",
      "sufNm": null
    }
  ],
  "CrntEmps": [
    {
      "CrntRgstns": [
        {
          "regAuth": 39,
          "regCat": 0,
          "st": 2,
          "stDt": "2012-01-25T00:00:00"
        }
      ],
      "BrnchOfLocs": [
        {
          "str1": null,
          "str2": null,
          "city": "TELFORD",
          "state": 39,
          "stateSpecified": true,
          "cntry": "United States",
          "postlCd": null
        }
      ],
      "orgNm": "NEXT FINANCIAL GROUP, INC.",
      "orgPK": "46214",
      "str1": "2500 WILCREST",
      "str2": "SUITE 620",
      "city": "HOUSTON",
      "state": 45,
      "stateSpecified": true,
      "cntry": "United States",
      "postlCd": "77042"
    }
  ],
  "Exms": [
    {
      "exmCd": 0,
      "exmNm": "Uniform Securities Agent State Law Examination",
      "exmDt": "1984-03-16T00:00:00",
      "exmDtSpecified": true
    },
    {
      "exmCd": 2,
      "exmNm": "Uniform Investment Adviser Law Examination",
      "exmDt": "2007-12-20T00:00:00",
      "exmDtSpecified": true
    }
  ],
  "Dsgntns": [],
  "PrevRgstns": [],
  "EmpHss": [
    {
      "fromDt": "07/1987",
      "toDt": null,
      "orgNm": "MILTON F. WHITEHEAD ASSOC. INC.",
      "city": "TELFORD",
      "state": 39,
      "stateSpecified": true
    },
    {
      "fromDt": "11/1999",
      "toDt": null,
      "orgNm": "NEXT FINANCIAL GROUP, INC.",
      "city": "HAMPTON",
      "state": 47,
      "stateSpecified": true
    }
  ],
  "OthrBuss": {
    "OthrBus": {
      "desc": "1) WHITEHEAD ASSOCIATES POSITION: Agent NATURE: Insurance - Life/Health INVESTMENT RELATED: No NUMBER OF HOURS: 1 SECURITIES TRADING HOURS: 1 START DATE: 07/13/1987 ADDRESS: 716 N Bethlehem Pike Ste. 208, Lower Gwynedd PA 19002 DESCRIPTION: I sell term and permanent life insurance  2) THOMAS HARTENBAUER TRUST POSITION: Co-Trustee of Father's Trust NATURE: Trustee INVESTMENT RELATED: Yes NUMBER OF HOURS: 1 SECURITIES TRADING HOURS: 1 START DATE: 01/31/2014 ADDRESS: 1661 Ridge Road, Telford PA 18969 DESCRIPTION: Make income payments to beneficiary (my Mother), oversee and manage investments, have tax return filed and taxes paid, pay any other bills of Trust  3) THOMAS & BARBARA HARTENBAUER IRREVOCABLE TRUST POSITION: Co-Trustee of Parents' Trust NATURE: Trustee INVESTMENT RELATED: Yes NUMBER OF HOURS: 1 SECURITIES TRADING HOURS: 1 START DATE: 12/23/2006 ADDRESS: 1122 Salford Station Road, Schwenksville PA 19473 DESCRIPTION: Oversee and manage mutual fund accounts, make payments of income/principal to the beneficiary (my Nephew) per the Trust  4) KIM HAAS POSITION: Agent NATURE: Insurance - Fixed Annuities, Life/Health INVESTMENT RELATED: No NUMBER OF HOURS: 1 SECURITIES TRADING HOURS: 1 START DATE: 01/29/2016 ADDRESS: 1661 Ridge Road, Telford PA 18969 DESCRIPTION: Sell andprovide service to clients with fixed annuity contracts, and life insurance policies."
    }
  },
  "DRPs": []
}