{
  "Info": {
    "lastNm": "ANDERSON",
    "firstNm": "PAUL",
    "midNm": "HAROLD",
    "sufNm": "JR",
    "indvlPK": "1232572",
    "actvAGReg": 0,
    "link": "http://www.adviserinfo.sec.gov/IAPD/Individual/1232572"
  },
  "OthrNms": [
    {
      "lastNm": "ANDERSON JR.",
      "firstNm": "PAUL",
      "midNm": "HAROLD",
      "sufNm": "JR"
    },
    {
      "lastNm": "ANDERSON",
      "firstNm": "PAUL",
      "midNm": "H",
      "sufNm": null
    },
    {
      "lastNm": "ANDERSON",
      "firstNm": "PAUL",
      "midNm": "HAROLD",
      "sufNm": null
    },
    {
      "lastNm": "ANDERSON",
      "firstNm": "PAUL",
      "midNm": "HAROLD (JR)",
      "sufNm": null
    },
    {
      "lastNm": "ANDERSON",
      "firstNm": "PAUL",
      "midNm": "HAROLD",
      "sufNm": "JR"
    },
    {
      "lastNm": "ANDERSON",
      "firstNm": "SKIP",
      "midNm": null,
      "sufNm": null
    }
  ],
  "CrntEmps": [
    {
      "CrntRgstns": [
        {
          "regAuth": 21,
          "regCat": 0,
          "st": 2,
          "stDt": "2009-03-26T00:00:00"
        },
        {
          "regAuth": 45,
          "regCat": 0,
          "st": 3,
          "stDt": "2009-06-08T00:00:00"
        }
      ],
      "BrnchOfLocs": [
        {
          "str1": "7700 WISCONSIN AVE",
          "str2": "SUITE 300",
          "city": "BETHESDA",
          "state": 21,
          "stateSpecified": true,
          "cntry": "United States",
          "postlCd": "20814"
        }
      ],
      "orgNm": "UBS FINANCIAL SERVICES INC.",
      "orgPK": "8174",
      "str1": "1200 HARBOR BOULEVARD",
      "str2": null,
      "city": "WEEHAWKEN",
      "state": 32,
      "stateSpecified": true,
      "cntry": "United States",
      "postlCd": "07086"
    }
  ],
  "Exms": [
    {
      "exmCd": 0,
      "exmNm": "Uniform Securities Agent State Law Examination",
      "exmDt": "1984-01-30T00:00:00",
      "exmDtSpecified": true
    }
  ],
  "Dsgntns": [],
  "PrevRgstns": [
    {
      "BrnchOfLocs": [
        {
          "city": "GAITHERSBURG",
          "state": 21,
          "stateSpecified": true
        }
      ],
      "orgNm": "LEGG MASON WOOD WALKER, INCORPORATED",
      "orgPK": "6555",
      "regBeginDt": "1999-01-01T00:00:00",
      "regBeginDtSpecified": true,
      "regEndDt": "2006-02-21T00:00:00",
      "regEndDtSpecified": true
    },
    {
      "BrnchOfLocs": [
        {
          "city": "GAITHERSBURG",
          "state": 21,
          "stateSpecified": true
        },
        {
          "city": "GAITHERSBURG",
          "state": 21,
          "stateSpecified": true
        },
        {
          "city": "NEW YORK",
          "state": 35,
          "stateSpecified": true
        }
      ],
      "orgNm": "CITIGROUP GLOBAL MARKETS INC.",
      "orgPK": "7059",
      "regBeginDt": "2006-02-21T00:00:00",
      "regBeginDtSpecified": true,
      "regEndDt": "2009-04-15T00:00:00",
      "regEndDtSpecified": true
    }
  ],
  "EmpHss": [
    {
      "fromDt": "02/2006",
      "toDt": "03/2009",
      "orgNm": "CITIGROUP GLOBAL MARKETS INC.",
      "city": "GAITHERSBURG",
      "state": 21,
      "stateSpecified": true
    },
    {
      "fromDt": "03/2009",
      "toDt": null,
      "orgNm": "UBS FINANCIAL SERVICES INC",
      "city": "BETHESDA",
      "state": 21,
      "stateSpecified": true
    }
  ],
  "OthrBuss": {
    "OthrBus": null
  },
  "DRPs": []
}