{
  "Info": {
    "lastNm": "CANTOR",
    "firstNm": "DAVID",
    "midNm": "AARON",
    "sufNm": null,
    "indvlPK": "1237872",
    "actvAGReg": 1,
    "link": "http://www.adviserinfo.sec.gov/IAPD/Individual/1237872"
  },
  "OthrNms": [],
  "CrntEmps": [
    {
      "CrntRgstns": [
        {
          "regAuth": 33,
          "regCat": 0,
          "st": 2,
          "stDt": "2003-01-10T00:00:00"
        },
        {
          "regAuth": 45,
          "regCat": 0,
          "st": 3,
          "stDt": "2014-07-01T00:00:00"
        }
      ],
      "BrnchOfLocs": [
        {
          "str1": null,
          "str2": null,
          "city": "SANTA FE",
          "state": 33,
          "stateSpecified": true,
          "cntry": "United States",
          "postlCd": null
        }
      ],
      "orgNm": "LONGVIEW ASSET MANAGEMENT, LLC",
      "orgPK": "122997",
      "str1": "214 MCKENZIE STREET",
      "str2": null,
      "city": "SANTA FE",
      "state": 33,
      "stateSpecified": true,
      "cntry": "United States",
      "postlCd": "87501"
    }
  ],
  "Exms": [],
  "Dsgntns": [],
  "PrevRgstns": [
    {
      "BrnchOfLocs": [
        {
          "city": "SANTA FE",
          "state": 33,
          "stateSpecified": true
        }
      ],
      "orgNm": "RAVEN'SWING ASSET MANAGEMENT, INC.",
      "orgPK": "118234",
      "regBeginDt": "2003-01-10T00:00:00",
      "regBeginDtSpecified": true,
      "regEndDt": "2010-12-31T00:00:00",
      "regEndDtSpecified": true
    },
    {
      "BrnchOfLocs": [
        {
          "city": "SANTA FE",
          "state": 33,
          "stateSpecified": true
        }
      ],
      "orgNm": "MINDFUL INVESTMENT MANAGEMENT COMPANY",
      "orgPK": "115684",
      "regBeginDt": "2006-03-23T00:00:00",
      "regBeginDtSpecified": true,
      "regEndDt": "2010-12-31T00:00:00",
      "regEndDtSpecified": true
    }
  ],
  "EmpHss": [
    {
      "fromDt": "01/1990",
      "toDt": null,
      "orgNm": "DAVID A. CANTOR",
      "city": "SANTA FE",
      "state": 33,
      "stateSpecified": true
    },
    {
      "fromDt": "07/2000",
      "toDt": "12/2010",
      "orgNm": "RAVEN'SWING ASSET MANAGEMENT, INC.",
      "city": "SANTA FE",
      "state": 33,
      "stateSpecified": true
    },
    {
      "fromDt": "08/2002",
      "toDt": null,
      "orgNm": "LONGVIEW ASSET MANAGEMENT LLC",
      "city": "SANTA FE",
      "state": 33,
      "stateSpecified": true
    },
    {
      "fromDt": "01/2006",
      "toDt": "12/2010",
      "orgNm": "MINDFUL INVESTMENT MANAGEMENT COMPANY",
      "city": "SANTA FE",
      "state": 33,
      "stateSpecified": true
    }
  ],
  "OthrBuss": {
    "OthrBus": {
      "desc": "Raven'sWing Asset Management Inc. (RWAM) holds a 90% membership interest in LongView Asset Management, LLC. David Cantor has been the sole owner and president of RWAM since 2000. RWAM is registered with the state of New Mexico at the following address:  214 McKenzie Street  Santa Fe, NM 87501    RWAM is not a Registered Investment Advisor and does not conduct investment-related activities independent of its ownership of LongView. David Cantor spends approximately five hours per month- generally outside of securities trading hours - on management issues related to RWAM."
    }
  },
  "DRPs": []
}