{
  "Info": {
    "lastNm": "KLIPFEL",
    "firstNm": "TIMOTHY",
    "midNm": "H",
    "sufNm": null,
    "indvlPK": "1238536",
    "actvAGReg": 0,
    "link": "http://www.adviserinfo.sec.gov/IAPD/Individual/1238536"
  },
  "OthrNms": [],
  "CrntEmps": [
    {
      "CrntRgstns": [
        {
          "regAuth": 49,
          "regCat": 0,
          "st": 2,
          "stDt": "2006-07-10T00:00:00"
        }
      ],
      "BrnchOfLocs": [
        {
          "str1": "STE 217",
          "str2": "2330 EASTGATE N",
          "city": "WALLA WALLA",
          "state": 49,
          "stateSpecified": true,
          "cntry": "United States",
          "postlCd": "99362"
        }
      ],
      "orgNm": "THRIVENT INVESTMENT MANAGEMENT INC.",
      "orgPK": "18387",
      "str1": "625 FOURTH AVENUE SOUTH",
      "str2": null,
      "city": "MINNEAPOLIS",
      "state": 24,
      "stateSpecified": true,
      "cntry": "United States",
      "postlCd": "55415-1665"
    }
  ],
  "Exms": [
    {
      "exmCd": 0,
      "exmNm": "Uniform Securities Agent State Law Examination",
      "exmDt": "1984-06-01T00:00:00",
      "exmDtSpecified": true
    },
    {
      "exmCd": 3,
      "exmNm": "Uniform Combined State Law Examination",
      "exmDt": "2006-01-07T00:00:00",
      "exmDtSpecified": true
    }
  ],
  "Dsgntns": [],
  "PrevRgstns": [],
  "EmpHss": [
    {
      "fromDt": "07/2002",
      "toDt": null,
      "orgNm": "THRIVENT FINANCIAL FOR LUTHERANS",
      "city": "APPLETON",
      "state": 50,
      "stateSpecified": true
    },
    {
      "fromDt": "07/2002",
      "toDt": null,
      "orgNm": "THRIVENT INVESTMENT MANAGEMENT INC.",
      "city": "WALLA WALLA",
      "state": 49,
      "stateSpecified": true
    }
  ],
  "OthrBuss": {
    "OthrBus": {
      "desc": "NAIFA WALLA WALLA AS TREASURER FOR THE PAST 10 YRS AND PLAN TO CONTINUE INTO THE FUTURE; COLLECT &AMP; DEPOSIT ANNUAL DUES FROM MEMBERS AND PAY EXPENSES; 1-2 HRS PER MO    AMSOIL DISTRIBUTOR WHICH IS PRIMARILY FOR PERSONAL USE OF AMSOIL AUTOLUB WITH OCCASIONAL SALE OF PRODUCTS TO FRIENDS, 1-2 HRS PER MONTH; MP APPROVES    CNA, LECLAIR INS  POSITION: AGENT NATURE: INSURANCE SALES INVESTMENT RELATED: NO"
    }
  },
  "DRPs": []
}