{
  "Info": {
    "lastNm": "EMBRY",
    "firstNm": "ABIGAIL",
    "midNm": "BUDD",
    "sufNm": null,
    "indvlPK": "1238747",
    "actvAGReg": 0,
    "link": "http://www.adviserinfo.sec.gov/IAPD/Individual/1238747"
  },
  "OthrNms": [
    {
      "lastNm": "EMBRY",
      "firstNm": "ABIGAIL",
      "midNm": null,
      "sufNm": null
    },
    {
      "lastNm": "EMBRY",
      "firstNm": "ABIGAIL",
      "midNm": "B",
      "sufNm": null
    },
    {
      "lastNm": "EMBRY",
      "firstNm": "ABIGAIL",
      "midNm": "B",
      "sufNm": null
    },
    {
      "lastNm": "EMBRY",
      "firstNm": "ABIGAIL",
      "midNm": "E",
      "sufNm": null
    },
    {
      "lastNm": "EMBRY",
      "firstNm": "ABIGAIL",
      "midNm": "EMBRY",
      "sufNm": null
    },
    {
      "lastNm": "GRANACKI",
      "firstNm": "ABIGAIL",
      "midNm": "EMBRY",
      "sufNm": null
    },
    {
      "lastNm": "HEIL",
      "firstNm": "ABIGAIL",
      "midNm": "E",
      "sufNm": null
    },
    {
      "lastNm": "TULLIS",
      "firstNm": "ABIGAIL",
      "midNm": "E",
      "sufNm": null
    },
    {
      "lastNm": "TULLIS",
      "firstNm": "ABIGAIL",
      "midNm": "EMBRY",
      "sufNm": null
    }
  ],
  "CrntEmps": [
    {
      "CrntRgstns": [
        {
          "regAuth": 10,
          "regCat": 0,
          "st": 2,
          "stDt": "2011-09-20T00:00:00"
        }
      ],
      "BrnchOfLocs": [
        {
          "str1": "10 W BELL STREET",
          "str2": null,
          "city": "HIAWASSEE",
          "state": 10,
          "stateSpecified": true,
          "cntry": "United States",
          "postlCd": "30546-0610"
        }
      ],
      "orgNm": "RAYMOND JAMES FINANCIAL SERVICES ADVISORS, INC",
      "orgPK": "149018",
      "str1": "880 CARILLON PARKWAY",
      "str2": null,
      "city": "SAINT PETERSBURG",
      "state": 9,
      "stateSpecified": true,
      "cntry": "United States",
      "postlCd": "33716"
    }
  ],
  "Exms": [
    {
      "exmCd": 0,
      "exmNm": "Uniform Securities Agent State Law Examination",
      "exmDt": "1986-05-16T00:00:00",
      "exmDtSpecified": true
    },
    {
      "exmCd": 2,
      "exmNm": "Uniform Investment Adviser Law Examination",
      "exmDt": "2003-01-30T00:00:00",
      "exmDtSpecified": true
    }
  ],
  "Dsgntns": [],
  "PrevRgstns": [
    {
      "BrnchOfLocs": [
        {
          "city": "SARASOTA",
          "state": 9,
          "stateSpecified": true
        }
      ],
      "orgNm": "MORGAN STANLEY DW INC.",
      "orgPK": "7556",
      "regBeginDt": "1991-01-01T00:00:00",
      "regBeginDtSpecified": true,
      "regEndDt": "2003-02-14T00:00:00",
      "regEndDtSpecified": true
    },
    {
      "BrnchOfLocs": [
        {
          "city": "ORLANDO",
          "state": 9,
          "stateSpecified": true
        }
      ],
      "orgNm": "BANC OF AMERICA INVESTMENT SERVICES, INC.",
      "orgPK": "16361",
      "regBeginDt": "2003-03-06T00:00:00",
      "regBeginDtSpecified": true,
      "regEndDt": "2004-05-13T00:00:00",
      "regEndDtSpecified": true
    },
    {
      "BrnchOfLocs": [
        {
          "city": "HIAWASSEE",
          "state": 10,
          "stateSpecified": true
        },
        {
          "city": "HIAWASSEE",
          "state": 10,
          "stateSpecified": true
        }
      ],
      "orgNm": "RAYMOND JAMES FINANCIAL SERVICES, INC.",
      "orgPK": "6694",
      "regBeginDt": "2006-06-22T00:00:00",
      "regBeginDtSpecified": true,
      "regEndDt": "2009-01-02T00:00:00",
      "regEndDtSpecified": true
    },
    {
      "BrnchOfLocs": [
        {
          "city": "SAINT PETERSBURG",
          "state": 9,
          "stateSpecified": true
        }
      ],
      "orgNm": "RAYMOND JAMES FINANCIAL SERVICES ADVISORS, INC",
      "orgPK": "149018",
      "regBeginDt": "2009-01-02T00:00:00",
      "regBeginDtSpecified": true,
      "regEndDt": "2009-02-23T00:00:00",
      "regEndDtSpecified": true
    }
  ],
  "EmpHss": [
    {
      "fromDt": "03/2005",
      "toDt": "02/2009",
      "orgNm": "BANK OF HIAWASSEE",
      "city": "HIAWASSEE",
      "state": 10,
      "stateSpecified": true
    },
    {
      "fromDt": "03/2005",
      "toDt": "02/2009",
      "orgNm": "RAYMOND JAMES FINANCIAL SERVICES",
      "city": "HIAWASSEE",
      "state": 10,
      "stateSpecified": true
    },
    {
      "fromDt": "01/2009",
      "toDt": "02/2009",
      "orgNm": "RAYMOND JAMES FINANCIAL SERVICES ADVISORS, INC",
      "city": "HIAWASSEE",
      "state": 10,
      "stateSpecified": true
    },
    {
      "fromDt": "02/2009",
      "toDt": "08/2010",
      "orgNm": "UNEMPLOYED",
      "city": "COLORADO SPRINGS",
      "state": 5,
      "stateSpecified": true
    },
    {
      "fromDt": "08/2010",
      "toDt": null,
      "orgNm": "RAYMOND JAMES FINANCIAL SERVICES, INC.",
      "city": "COLORADO SPRINGS",
      "state": 5,
      "stateSpecified": true
    },
    {
      "fromDt": "09/2011",
      "toDt": null,
      "orgNm": "SUPPORT COMPANY/DBA (NON-OWNER)",
      "city": "HIAWASSEE",
      "state": 10,
      "stateSpecified": true
    }
  ],
  "OthrBuss": {
    "OthrBus": {
      "desc": "EDWIN B. EMBRY TRUST:NOT INVESTMENT RELATED:12/2005-PRESENT:COLORADO SPRINGS, CO:TRUSTEE:TESTAMENTRY TRUST:30 HRS/MO:0 HRS DURING TRADING:TRUSTEE OF FATHER'S TESTAMENTARY TRUST.    71-B BERRONG ST.,HIAWASSEE, GA   NATURE OF THE BUSINESS: SUPPORT COMPANY/DBA (NON-OWNER)   EMPLOYEE   INVESTMENT RELATED:NO   09/12/2011   HOURS PER MONTH 0   HOURS PER MONTH DURING TRADING HOURS: 0   DESCRIPTION OF DUTIES: NA"
    }
  },
  "DRPs": []
}