{
  "Info": {
    "lastNm": "DIAMOND",
    "firstNm": "MARTIN",
    "midNm": "ALAN",
    "sufNm": null,
    "indvlPK": "1240490",
    "actvAGReg": 0,
    "link": "http://www.adviserinfo.sec.gov/IAPD/Individual/1240490"
  },
  "OthrNms": [],
  "CrntEmps": [
    {
      "CrntRgstns": [
        {
          "regAuth": 32,
          "regCat": 0,
          "st": 2,
          "stDt": "2008-02-15T00:00:00"
        }
      ],
      "BrnchOfLocs": [
        {
          "str1": "61 SOUTH PARAMUS ROAD",
          "str2": "MACK CENTER IV",
          "city": "PARAMUS",
          "state": 32,
          "stateSpecified": true,
          "cntry": "United States",
          "postlCd": "07652"
        }
      ],
      "orgNm": "UBS FINANCIAL SERVICES INC.",
      "orgPK": "8174",
      "str1": "1200 HARBOR BOULEVARD",
      "str2": null,
      "city": "WEEHAWKEN",
      "state": 32,
      "stateSpecified": true,
      "cntry": "United States",
      "postlCd": "07086"
    }
  ],
  "Exms": [
    {
      "exmCd": 0,
      "exmNm": "Uniform Securities Agent State Law Examination",
      "exmDt": "1984-03-23T00:00:00",
      "exmDtSpecified": true
    }
  ],
  "Dsgntns": [
    {
      "dsgntnNm": "Certified Financial Planner"
    }
  ],
  "PrevRgstns": [
    {
      "BrnchOfLocs": [
        {
          "city": "PARAMUS",
          "state": 32,
          "stateSpecified": true
        }
      ],
      "orgNm": "PRUDENTIAL EQUITY GROUP, LLC",
      "orgPK": "7471",
      "regBeginDt": "2001-07-02T00:00:00",
      "regBeginDtSpecified": true,
      "regEndDt": "2003-07-01T00:00:00",
      "regEndDtSpecified": true
    },
    {
      "BrnchOfLocs": [
        {
          "city": "PARAMUS",
          "state": 32,
          "stateSpecified": true
        },
        {
          "city": "PARAMUS",
          "state": 32,
          "stateSpecified": true
        }
      ],
      "orgNm": "WELLS FARGO ADVISORS, LLC",
      "orgPK": "19616",
      "regBeginDt": "2003-07-01T00:00:00",
      "regBeginDtSpecified": true,
      "regEndDt": "2008-02-19T00:00:00",
      "regEndDtSpecified": true
    }
  ],
  "EmpHss": [
    {
      "fromDt": "07/2003",
      "toDt": "02/2008",
      "orgNm": "WACHOVIA SECURITIES LLC",
      "city": "PARAMUS",
      "state": 32,
      "stateSpecified": true
    },
    {
      "fromDt": "02/2008",
      "toDt": null,
      "orgNm": "UBS FINANCIAL SERVICES INC",
      "city": "PARAMUS",
      "state": 32,
      "stateSpecified": true
    }
  ],
  "OthrBuss": {
    "OthrBus": {
      "desc": "TRUSTEE FOR THE MUSITA DIAMOND IRREVOCABLE TRUST."
    }
  },
  "DRPs": []
}