{
  "Info": {
    "lastNm": "KACHEL",
    "firstNm": "LAURENCE",
    "midNm": "DAVID",
    "sufNm": null,
    "indvlPK": "1240215",
    "actvAGReg": 0,
    "link": "http://www.adviserinfo.sec.gov/IAPD/Individual/1240215"
  },
  "OthrNms": [
    {
      "lastNm": "KACHEL",
      "firstNm": "LARRY",
      "midNm": "D.",
      "sufNm": null
    }
  ],
  "CrntEmps": [
    {
      "CrntRgstns": [
        {
          "regAuth": 50,
          "regCat": 0,
          "st": 2,
          "stDt": "2005-04-26T00:00:00"
        }
      ],
      "BrnchOfLocs": [
        {
          "str1": "16800 WEST GREENFIELD AVENUE",
          "str2": "SUITE 350",
          "city": "BROOKFIELD",
          "state": 50,
          "stateSpecified": true,
          "cntry": "United States",
          "postlCd": "53005"
        }
      ],
      "orgNm": "CETERA INVESTMENT ADVISERS LLC",
      "orgPK": "105644",
      "str1": "200 NORTH MARTINGALE ROAD",
      "str2": null,
      "city": "SCHAUMBURG",
      "state": 15,
      "stateSpecified": true,
      "cntry": "United States",
      "postlCd": "60173-2096"
    }
  ],
  "Exms": [
    {
      "exmCd": 0,
      "exmNm": "Uniform Securities Agent State Law Examination",
      "exmDt": "1984-02-23T00:00:00",
      "exmDtSpecified": true
    },
    {
      "exmCd": 2,
      "exmNm": "Uniform Investment Adviser Law Examination",
      "exmDt": "2005-03-24T00:00:00",
      "exmDtSpecified": true
    }
  ],
  "Dsgntns": [],
  "PrevRgstns": [],
  "EmpHss": [
    {
      "fromDt": "06/1990",
      "toDt": null,
      "orgNm": "DLK ENTERPRISES, INC.",
      "city": "WHITEWATER",
      "state": 50,
      "stateSpecified": true
    },
    {
      "fromDt": "10/2004",
      "toDt": null,
      "orgNm": "CETERA FINANCIAL SPECIALISTS LLC",
      "city": "SCHAUMBURG",
      "state": 15,
      "stateSpecified": true
    },
    {
      "fromDt": "04/2005",
      "toDt": null,
      "orgNm": "CETERA INVESTMENT ADVISERS LLC",
      "city": "SCHAUMBURG",
      "state": 15,
      "stateSpecified": true
    },
    {
      "fromDt": "11/2012",
      "toDt": null,
      "orgNm": "KACHEL FINANCIAL GROUP",
      "city": "BROOKFIELD",
      "state": 50,
      "stateSpecified": true
    }
  ],
  "OthrBuss": {
    "OthrBus": {
      "desc": "1) KACHEL INSURANCE - 16800 W. GREENFIELD AVENUE SUITE 350 BROOKFIELD, WI  53005 -  HEALTH INSURANCE SALES/CONSULTING - OWNER - STARTED 1994 - 2HRS/WK.   2)KACHEL FINANCIAL GROUP; INV-REL; BROOKFIELD, WI; OWNER; FINANCIAL ADVISORY; START DATE 11/2012; 160 HRS/MNTH 130 DURING SECURITY TRADING HRS:  3) DLK ENTERPRISES, INC; NOT INV REL; WHITEWATER, WI; REAL ESTATE DEVELOPMENT AND PROPERTY MANAGEMENT; VICE PRESIDENT; START DATE 1/1/1990; 10HR/WK NOT DURING TRADING HRS:   4) GREATER WHITEWATER COMMITTEE, INC, NOT INVEST REL, 405 PANTHER COURT, WHITEWATER, WI, 53190, 2HR/MO NOT DURING TRADING HRS, CHAIRMAN OF THE BOARD AND SENIOR FOUNDING MEMBER.   5) WHITEWATER COMMUNITY DEVELOPMENT AUTHORITY, NOT INVEST REL, 312 W WHITEWATER ST, WHITEWATER, WI, 53190, GOVERNMENT BOARD, START 06/01/11, 3HR/MO NOT DURING TRADING HRS, BOARD MEMBER.   6) CEDAR CREST COMMUNITY FOR SENIOR ADULTS, NOT INVEST REL, 1702 S RIVER RD, JANESVILLE, WI, 53546, SENIOR RESIDENTIAL LIVING FACILITY, START 06/01/10, 3HR/MO NOT DURING TRADING HRS, VICE PRESIDENT OF THE BOARD.  7)COMMERCIAL BANK HOLDING COMPANY, NOT INVEST REL, 200 FREMONT ST, WHITEWATER, WI, 53190, BANK HOLDING COMPANY, START 06/01/11, 10HR/WK DURING TRADING, VICE PRESIDENT/BOARD MEMBER.  8)WISCONSIN DAIRY SUPPLY, INC, NOT INVEST REL, 440 W ANN ST, WHITEWATER, WI, 53190, DAIRY SUPPLY COMPANY, START 06/01/05, 1HR/WK NOT DURING TRADING, VICE PRESIDENT, BOARD OF DIRECTORS.  9)KACHEL ENTERPRISES LIMITED PARTNERSHIP, NOT INVEST REL, 144 TRATT ST, WHITEWATER, WI, 53190, REAL ESTATE PROPERTY MANAGEMENT."
    }
  },
  "DRPs": []
}