{
  "Info": {
    "lastNm": "SELL",
    "firstNm": "WALTER",
    "midNm": "ADAIR",
    "sufNm": null,
    "indvlPK": "1247400",
    "actvAGReg": 0,
    "link": "http://www.adviserinfo.sec.gov/IAPD/Individual/1247400"
  },
  "OthrNms": [],
  "CrntEmps": [
    {
      "CrntRgstns": [
        {
          "regAuth": 39,
          "regCat": 0,
          "st": 2,
          "stDt": "2003-08-04T00:00:00"
        }
      ],
      "BrnchOfLocs": [
        {
          "str1": "1195 WASHINGTON PIKE",
          "str2": "STE 330",
          "city": "BRIDGEVILLE",
          "state": 39,
          "stateSpecified": true,
          "cntry": "United States",
          "postlCd": "15017"
        }
      ],
      "orgNm": "AMERIPRISE FINANCIAL SERVICES, INC.",
      "orgPK": "6363",
      "str1": "707 2ND AVENUE SOUTH",
      "str2": null,
      "city": "MINNEAPOLIS",
      "state": 24,
      "stateSpecified": true,
      "cntry": "United States",
      "postlCd": "55402"
    }
  ],
  "Exms": [
    {
      "exmCd": 0,
      "exmNm": "Uniform Securities Agent State Law Examination",
      "exmDt": "1984-05-16T00:00:00",
      "exmDtSpecified": true
    }
  ],
  "Dsgntns": [
    {
      "dsgntnNm": "Certified Financial Planner"
    }
  ],
  "PrevRgstns": [],
  "EmpHss": [
    {
      "fromDt": "02/1984",
      "toDt": null,
      "orgNm": "AMERIPRSIE FINANCIAL SERVICES INC.",
      "city": "PITTSBURGH",
      "state": 39,
      "stateSpecified": true
    },
    {
      "fromDt": "02/1984",
      "toDt": null,
      "orgNm": "RIVERSOURCE LIFE INSURANCE COMPANY",
      "city": "MINNEAPOLIS",
      "state": 24,
      "stateSpecified": true
    }
  ],
  "OthrBuss": {
    "OthrBus": {
      "desc": "Fiduciary Activities; Named or act in a fiduciary capacity; such as attorney-in-fact, trustee, conservator, guardian, executor or personal representative."
    }
  },
  "DRPs": []
}