{
  "Info": {
    "lastNm": "CREIGHTON",
    "firstNm": "CHARLES",
    "midNm": "VINCENT",
    "sufNm": null,
    "indvlPK": "1248368",
    "actvAGReg": 0,
    "link": "http://www.adviserinfo.sec.gov/IAPD/Individual/1248368"
  },
  "OthrNms": [
    {
      "lastNm": "CREIGHTON",
      "firstNm": "CHUCK",
      "midNm": null,
      "sufNm": null
    }
  ],
  "CrntEmps": [
    {
      "CrntRgstns": [
        {
          "regAuth": 39,
          "regCat": 0,
          "st": 2,
          "stDt": "1997-01-07T00:00:00"
        }
      ],
      "BrnchOfLocs": [
        {
          "str1": "1400 NORTH PROVIDENCE ROAD",
          "str2": "ROSE TREE CORPORATE CENTER I, SUITE 117",
          "city": "MEDIA",
          "state": 39,
          "stateSpecified": true,
          "cntry": "United States",
          "postlCd": "19063"
        }
      ],
      "orgNm": "EQUITY SERVICES, INC.",
      "orgPK": "265",
      "str1": "ONE NATIONAL LIFE DRIVE",
      "str2": null,
      "city": "MONTPELIER",
      "state": 48,
      "stateSpecified": true,
      "cntry": "United States",
      "postlCd": "05604"
    }
  ],
  "Exms": [
    {
      "exmCd": 0,
      "exmNm": "Uniform Securities Agent State Law Examination",
      "exmDt": "1984-05-24T00:00:00",
      "exmDtSpecified": true
    }
  ],
  "Dsgntns": [],
  "PrevRgstns": [],
  "EmpHss": [
    {
      "fromDt": "07/1982",
      "toDt": null,
      "orgNm": "SHEVLIN GLADDEN ASSOCIATES",
      "city": "BROOMALL",
      "state": 39,
      "stateSpecified": true
    },
    {
      "fromDt": "02/1984",
      "toDt": null,
      "orgNm": "EQUITY SERVICES, INC.",
      "city": "BROOMALL",
      "state": 39,
      "stateSpecified": true
    }
  ],
  "OthrBuss": {
    "OthrBus": {
      "desc": "*KEY ADVISORS, INV REL. 7/82-PRES. 40 HR/MO DUR TRDNG. SALES AND MARKETING OF VARIOUS LIFE, HEALTH, DI, LTC AND ANNUITY PRODUCTS."
    }
  },
  "DRPs": []
}