{
  "Info": {
    "lastNm": "SHERTZER",
    "firstNm": "HARRY",
    "midNm": "REYNOLDS",
    "sufNm": "JR",
    "indvlPK": "1251803",
    "actvAGReg": 1,
    "link": "http://www.adviserinfo.sec.gov/IAPD/Individual/1251803"
  },
  "OthrNms": [],
  "CrntEmps": [
    {
      "CrntRgstns": [
        {
          "regAuth": 28,
          "regCat": 0,
          "st": 2,
          "stDt": "2011-03-01T00:00:00"
        }
      ],
      "BrnchOfLocs": [
        {
          "str1": "2150 COUNTRY CLUB RD",
          "str2": "SUITE 250",
          "city": "WINSTON-SALEM",
          "state": 28,
          "stateSpecified": true,
          "cntry": "United States",
          "postlCd": "27104"
        }
      ],
      "orgNm": "WESTHAMPTON CAPITAL",
      "orgPK": "119176",
      "str1": "2150 COUNTRY CLUB RD",
      "str2": "SUITE 250",
      "city": "WINSTON-SALEM",
      "state": 28,
      "stateSpecified": true,
      "cntry": "United States",
      "postlCd": "27104"
    }
  ],
  "Exms": [
    {
      "exmCd": 0,
      "exmNm": "Uniform Securities Agent State Law Examination",
      "exmDt": "1984-04-16T00:00:00",
      "exmDtSpecified": true
    },
    {
      "exmCd": 2,
      "exmNm": "Uniform Investment Adviser Law Examination",
      "exmDt": "1992-02-04T00:00:00",
      "exmDtSpecified": true
    }
  ],
  "Dsgntns": [],
  "PrevRgstns": [
    {
      "BrnchOfLocs": [
        {
          "city": "WINSTON-SALEM",
          "state": 28,
          "stateSpecified": true
        }
      ],
      "orgNm": "CUSO FINANCIAL SERVICES, L.P.",
      "orgPK": "42132",
      "regBeginDt": "2002-03-20T00:00:00",
      "regBeginDtSpecified": true,
      "regEndDt": "2005-01-04T00:00:00",
      "regEndDtSpecified": true
    },
    {
      "BrnchOfLocs": [
        {
          "city": "DURHAM",
          "state": 28,
          "stateSpecified": true
        }
      ],
      "orgNm": "VALIC FINANCIAL ADVISORS, INC.",
      "orgPK": "42803",
      "regBeginDt": "2005-07-11T00:00:00",
      "regBeginDtSpecified": true,
      "regEndDt": "2005-08-11T00:00:00",
      "regEndDtSpecified": true
    },
    {
      "BrnchOfLocs": [
        {
          "city": "HIGH POINT",
          "state": 28,
          "stateSpecified": true
        },
        {
          "city": "KERNERSVILLE",
          "state": 28,
          "stateSpecified": true
        }
      ],
      "orgNm": "IRONSTONE SECURITIES, INC.",
      "orgPK": "130335",
      "regBeginDt": "2006-09-05T00:00:00",
      "regBeginDtSpecified": true,
      "regEndDt": "2008-10-01T00:00:00",
      "regEndDtSpecified": true
    },
    {
      "BrnchOfLocs": [
        {
          "city": "WINSTON SALEM",
          "state": 28,
          "stateSpecified": true
        }
      ],
      "orgNm": "RAYMOND JAMES FINANCIAL SERVICES ADVISORS, INC",
      "orgPK": "149018",
      "regBeginDt": "2009-06-30T00:00:00",
      "regBeginDtSpecified": true,
      "regEndDt": "2010-01-12T00:00:00",
      "regEndDtSpecified": true
    }
  ],
  "EmpHss": [
    {
      "fromDt": "02/2005",
      "toDt": "08/2006",
      "orgNm": "WESTHAMPTON CAPITAL INC.",
      "city": "CHARLOTTE",
      "state": 28,
      "stateSpecified": true
    },
    {
      "fromDt": "09/2006",
      "toDt": "09/2008",
      "orgNm": "IRONSTONE SECURITIES INC.",
      "city": "RALEIGH",
      "state": 28,
      "stateSpecified": true
    },
    {
      "fromDt": "09/2008",
      "toDt": "06/2009",
      "orgNm": "UNEMPLOYED",
      "city": "WINSTON-SALEM",
      "state": 28,
      "stateSpecified": true
    },
    {
      "fromDt": "06/2009",
      "toDt": "01/2010",
      "orgNm": "RAYMOND JAMES FINANCIAL SERVICES",
      "city": "KERNERSVILLE",
      "state": 28,
      "stateSpecified": true
    },
    {
      "fromDt": "02/2010",
      "toDt": null,
      "orgNm": "WESTHAMPTON CAPITAL, LLC",
      "city": "WINSTON-SALEM",
      "state": 28,
      "stateSpecified": true
    }
  ],
  "OthrBuss": {
    "OthrBus": null
  },
  "DRPs": []
}