{
  "Info": {
    "lastNm": "LAKE",
    "firstNm": "JAY",
    "midNm": "DEE",
    "sufNm": null,
    "indvlPK": "1253117",
    "actvAGReg": 1,
    "link": "http://www.adviserinfo.sec.gov/IAPD/Individual/1253117"
  },
  "OthrNms": [],
  "CrntEmps": [
    {
      "CrntRgstns": [
        {
          "regAuth": 49,
          "regCat": 0,
          "st": 2,
          "stDt": "2014-07-30T00:00:00"
        },
        {
          "regAuth": 45,
          "regCat": 0,
          "st": 3,
          "stDt": "2016-04-05T00:00:00"
        }
      ],
      "BrnchOfLocs": [
        {
          "str1": null,
          "str2": null,
          "city": "SPOKANE",
          "state": 49,
          "stateSpecified": true,
          "cntry": "United States",
          "postlCd": null
        }
      ],
      "orgNm": "TWENTY TWENTY INVESTMENT ADVISORS, LLC",
      "orgPK": "128086",
      "str1": null,
      "str2": null,
      "city": "SPOKANE",
      "state": 49,
      "stateSpecified": true,
      "cntry": "United States",
      "postlCd": null
    }
  ],
  "Exms": [
    {
      "exmCd": 0,
      "exmNm": "Uniform Securities Agent State Law Examination",
      "exmDt": "1988-07-08T00:00:00",
      "exmDtSpecified": true
    },
    {
      "exmCd": 2,
      "exmNm": "Uniform Investment Adviser Law Examination",
      "exmDt": "1993-06-05T00:00:00",
      "exmDtSpecified": true
    }
  ],
  "Dsgntns": [],
  "PrevRgstns": [
    {
      "BrnchOfLocs": [
        {
          "city": "SPOKANE",
          "state": 49,
          "stateSpecified": true
        }
      ],
      "orgNm": "NELSON SECURITIES,INC.",
      "orgPK": "14377",
      "regBeginDt": "1997-03-10T00:00:00",
      "regBeginDtSpecified": true,
      "regEndDt": "2002-09-25T00:00:00",
      "regEndDtSpecified": true
    },
    {
      "BrnchOfLocs": [
        {
          "city": "KENNEWICK",
          "state": 49,
          "stateSpecified": true
        }
      ],
      "orgNm": "PETERSEN HASTINGS INVESTMENT MANAGEMENT INC",
      "orgPK": "110952",
      "regBeginDt": "2002-09-24T00:00:00",
      "regBeginDtSpecified": true,
      "regEndDt": "2003-09-04T00:00:00",
      "regEndDtSpecified": true
    }
  ],
  "EmpHss": [
    {
      "fromDt": "11/2003",
      "toDt": "08/2014",
      "orgNm": "JAY LAKE INVESTMENT MANAGEMENT",
      "city": "SPOKANE",
      "state": 49,
      "stateSpecified": true
    },
    {
      "fromDt": "08/2014",
      "toDt": null,
      "orgNm": "TWENTY TWENTY INVESTMENT ADVISORS, LLC",
      "city": "SPOKANE",
      "state": 49,
      "stateSpecified": true
    }
  ],
  "OthrBuss": {
    "OthrBus": null
  },
  "DRPs": []
}