{
  "Info": {
    "lastNm": "GRACE",
    "firstNm": "DENISE",
    "midNm": "ALENE",
    "sufNm": null,
    "indvlPK": "1256721",
    "actvAGReg": 1,
    "link": "http://www.adviserinfo.sec.gov/IAPD/Individual/1256721"
  },
  "OthrNms": [
    {
      "lastNm": "GOODROW",
      "firstNm": "DENISE",
      "midNm": "ALENE",
      "sufNm": null
    },
    {
      "lastNm": "LAKE",
      "firstNm": "DENISE",
      "midNm": "A",
      "sufNm": null
    },
    {
      "lastNm": "LAKE",
      "firstNm": "DENISE",
      "midNm": "ALENE",
      "sufNm": null
    }
  ],
  "CrntEmps": [
    {
      "CrntRgstns": [
        {
          "regAuth": 23,
          "regCat": 0,
          "st": 2,
          "stDt": "2016-06-14T00:00:00"
        }
      ],
      "BrnchOfLocs": [
        {
          "str1": null,
          "str2": null,
          "city": "Farmington Hills",
          "state": 23,
          "stateSpecified": true,
          "cntry": "United States",
          "postlCd": null
        },
        {
          "str1": "19520 WEST CATAWBA AVENUE",
          "str2": "SUITE 312B",
          "city": "CORNELIUS",
          "state": 28,
          "stateSpecified": true,
          "cntry": "United States",
          "postlCd": "28031"
        }
      ],
      "orgNm": "ALPHASTAR CAPITAL MANAGEMENT, LLC",
      "orgPK": "157423",
      "str1": "19520 WEST CATAWBA AVENUE",
      "str2": "SUITE 312B",
      "city": "CORNELIUS",
      "state": 28,
      "stateSpecified": true,
      "cntry": "United States",
      "postlCd": "28031"
    }
  ],
  "Exms": [
    {
      "exmCd": 0,
      "exmNm": "Uniform Securities Agent State Law Examination",
      "exmDt": "2006-06-26T00:00:00",
      "exmDtSpecified": true
    },
    {
      "exmCd": 2,
      "exmNm": "Uniform Investment Adviser Law Examination",
      "exmDt": "2016-05-24T00:00:00",
      "exmDtSpecified": true
    }
  ],
  "Dsgntns": [],
  "PrevRgstns": [],
  "EmpHss": [
    {
      "fromDt": "10/2005",
      "toDt": "01/2008",
      "orgNm": "MASSACHUSETTS MUTUAL LIFE INSURANCE CO.",
      "city": "FARMINGTON HILLS",
      "state": 23,
      "stateSpecified": true
    },
    {
      "fromDt": "03/2006",
      "toDt": "01/2008",
      "orgNm": "MML INVESTORS SERVICES, INC",
      "city": "FARMINGTON HILLS",
      "state": 23,
      "stateSpecified": true
    },
    {
      "fromDt": "01/2008",
      "toDt": null,
      "orgNm": "GRACE FINANCIAL GROUP, LLC",
      "city": "FARMINGTON HILLS",
      "state": 23,
      "stateSpecified": true
    },
    {
      "fromDt": "07/2009",
      "toDt": "05/2011",
      "orgNm": "QUESTAR CAPITAL CORPORATION",
      "city": "MINNEAPOLIS",
      "state": 24,
      "stateSpecified": true
    },
    {
      "fromDt": "05/2012",
      "toDt": "12/2013",
      "orgNm": "GRADIENT SECURITIES, LLC",
      "city": "SHOREVIEW",
      "state": 24,
      "stateSpecified": true
    },
    {
      "fromDt": "06/2016",
      "toDt": null,
      "orgNm": "AlphaStar Capital Management, LLC",
      "city": "Cornelius",
      "state": 28,
      "stateSpecified": true
    }
  ],
  "OthrBuss": {
    "OthrBus": {
      "desc": "ENTITY:  GRACE FINANCIAL GROUP, LLC:  NATURE:  FIXED INSURANCE SALES;  POSITIION:  OWNER/INSURANCE AGENT;  START:  2008;  HOURS: 30 HOURS A MONTH AND 20 HOURS ARE DURING TRADING HOURS."
    }
  },
  "DRPs": []
}