{
  "Info": {
    "lastNm": "TOBOCMAN",
    "firstNm": "BEVERLY",
    "midNm": "JEAN",
    "sufNm": null,
    "indvlPK": "1265883",
    "actvAGReg": 0,
    "link": "http://www.adviserinfo.sec.gov/IAPD/Individual/1265883"
  },
  "OthrNms": [
    {
      "lastNm": "NOSANCHUK",
      "firstNm": "BEVERLY",
      "midNm": "JEAN",
      "sufNm": null
    },
    {
      "lastNm": "NOSANCHVK",
      "firstNm": "BEVERLY",
      "midNm": null,
      "sufNm": null
    },
    {
      "lastNm": "OLEN",
      "firstNm": "BEVERLY",
      "midNm": null,
      "sufNm": null
    },
    {
      "lastNm": "OLEN",
      "firstNm": "BEVERLY",
      "midNm": "JEAN",
      "sufNm": null
    }
  ],
  "CrntEmps": [
    {
      "CrntRgstns": [
        {
          "regAuth": 4,
          "regCat": 0,
          "st": 2,
          "stDt": "2016-07-06T00:00:00"
        },
        {
          "regAuth": 23,
          "regCat": 0,
          "st": 2,
          "stDt": "2016-07-07T00:00:00"
        }
      ],
      "BrnchOfLocs": [
        {
          "str1": "43252 Woodward Avenue",
          "str2": "Suite 205",
          "city": "Bloomfield Hills",
          "state": 23,
          "stateSpecified": true,
          "cntry": "United States",
          "postlCd": "48302"
        }
      ],
      "orgNm": "STRATEGIC WEALTH ADVISORS GROUP",
      "orgPK": "283824",
      "str1": "411 BOREL AVE",
      "str2": null,
      "city": "SAN MATEO",
      "state": 4,
      "stateSpecified": true,
      "cntry": "United States",
      "postlCd": "94402"
    }
  ],
  "Exms": [
    {
      "exmCd": 0,
      "exmNm": "Uniform Securities Agent State Law Examination",
      "exmDt": "1984-07-12T00:00:00",
      "exmDtSpecified": true
    }
  ],
  "Dsgntns": [
    {
      "dsgntnNm": "Chartered Financial Consultant"
    }
  ],
  "PrevRgstns": [
    {
      "BrnchOfLocs": [
        {
          "city": "BLOOMFIELD HILLS",
          "state": 23,
          "stateSpecified": true
        }
      ],
      "orgNm": "FSC SECURITIES CORPORATION",
      "orgPK": "7461",
      "regBeginDt": "2005-01-24T00:00:00",
      "regBeginDtSpecified": true,
      "regEndDt": "2008-12-31T00:00:00",
      "regEndDtSpecified": true
    },
    {
      "BrnchOfLocs": [
        {
          "city": "BLOOMFIELD HILLS",
          "state": 23,
          "stateSpecified": true
        }
      ],
      "orgNm": "STRATEGIC WEALTH ADVISORS GROUP",
      "orgPK": "140977",
      "regBeginDt": "2006-09-05T00:00:00",
      "regBeginDtSpecified": true,
      "regEndDt": "2016-07-07T00:00:00",
      "regEndDtSpecified": true
    }
  ],
  "EmpHss": [
    {
      "fromDt": "05/1994",
      "toDt": "01/2009",
      "orgNm": "FSC SECURITIES CORPORATION",
      "city": "SYLVAN LAKE",
      "state": 23,
      "stateSpecified": true
    },
    {
      "fromDt": "09/2006",
      "toDt": "01/2009",
      "orgNm": "STRATEGIC WEALTH ADVISORS GROUP, INC",
      "city": "BLOOMFIELD HILLS",
      "state": 23,
      "stateSpecified": true
    },
    {
      "fromDt": "01/2009",
      "toDt": "09/2009",
      "orgNm": "ASSOCIATED SECURITIES CORP.",
      "city": "BLOOMFIELD HILLS",
      "state": 23,
      "stateSpecified": true
    },
    {
      "fromDt": "09/2009",
      "toDt": null,
      "orgNm": "LPL FINANCIAL CORPORATION",
      "city": "BLOOMFIELD HILLS",
      "state": 23,
      "stateSpecified": true
    },
    {
      "fromDt": "11/2010",
      "toDt": null,
      "orgNm": "STRATEGIC WEALTH ADVISORS GROUP",
      "city": "BLOOMFIELD HILLS",
      "state": 23,
      "stateSpecified": true
    }
  ],
  "OthrBuss": {
    "OthrBus": {
      "desc": "1. 4/8/2010: DBA ONLY - JBT FINANCIAL, LLC - PARTNERSHIP WITH JEREMEY OLEN. - BLOOMFIELD HILLS, MI.     2. 4/8/2010: C RESOURCE DESIGN, INC. -Business Entity For Tax/Investment Purposes Only -  CORP USED FOR REVENUE PROCESSING AND EXPENSES MOSTLY FOR BOOK AUTHORED: \"NOW THAT HE'S GONE\". - NON INV Related     3. 5/19/2010: NON-VARIABLE INSURANCE - JBT FINANCIAL, LLC - SELLS TERM INSURANCE. - TIME SPENT 5% - BLOOMFIELD HILLS, MI.      4. 11/12/2010: REGISTERED INVESTMENT ADVISOR - STRATEGIC WEALTH ADVISORS GROUP - (HYBRID) PROVIDES FINANCIAL PLANNING SERVICES TO CLIENTS. - TIME SPENT 50% - BLOOMFIELD HILLS, MI.      5. 8/24/2011: OTHER-BOOK - AUTHOR OF \"NOW THAT HE'S GONE\" A BOOK THAT TALKS ABOUT HOW TO DEAL WITH LIFE AFTER LOSS. - TIME SPENT 1%"
    }
  },
  "DRPs": []
}