{
  "Info": {
    "lastNm": "LAMBERT",
    "firstNm": "RONALD",
    "midNm": "ALAN",
    "sufNm": null,
    "indvlPK": "1270558",
    "actvAGReg": 0,
    "link": "http://www.adviserinfo.sec.gov/IAPD/Individual/1270558"
  },
  "OthrNms": [],
  "CrntEmps": [
    {
      "CrntRgstns": [
        {
          "regAuth": 6,
          "regCat": 0,
          "st": 2,
          "stDt": "2012-03-26T00:00:00"
        }
      ],
      "BrnchOfLocs": [
        {
          "str1": "69 BROAD STREET",
          "str2": null,
          "city": "STAMFORD",
          "state": 6,
          "stateSpecified": true,
          "cntry": "United States",
          "postlCd": "06901"
        }
      ],
      "orgNm": "AMERIVEST INVESTMENT MANAGEMENT, LLC",
      "orgPK": "111514",
      "str1": "200 SOUTH 108TH AVENUE",
      "str2": null,
      "city": "OMAHA",
      "state": 30,
      "stateSpecified": true,
      "cntry": "United States",
      "postlCd": "68154"
    },
    {
      "CrntRgstns": [
        {
          "regAuth": 6,
          "regCat": 0,
          "st": 2,
          "stDt": "2012-03-26T00:00:00"
        }
      ],
      "BrnchOfLocs": [
        {
          "str1": "69 BROAD STREET",
          "str2": null,
          "city": "STAMFORD",
          "state": 6,
          "stateSpecified": true,
          "cntry": "United States",
          "postlCd": "06901"
        }
      ],
      "orgNm": "TD AMERITRADE, INC.",
      "orgPK": "7870",
      "str1": "200 SOUTH 108TH AVENUE",
      "str2": null,
      "city": "OMAHA",
      "state": 30,
      "stateSpecified": true,
      "cntry": "United States",
      "postlCd": "68154"
    }
  ],
  "Exms": [
    {
      "exmCd": 0,
      "exmNm": "Uniform Securities Agent State Law Examination",
      "exmDt": "1984-05-23T00:00:00",
      "exmDtSpecified": true
    },
    {
      "exmCd": 2,
      "exmNm": "Uniform Investment Adviser Law Examination",
      "exmDt": "2007-12-06T00:00:00",
      "exmDtSpecified": true
    }
  ],
  "Dsgntns": [
    {
      "dsgntnNm": "Certified Financial Planner"
    }
  ],
  "PrevRgstns": [
    {
      "BrnchOfLocs": [
        {
          "city": "BALDWIN PLACE",
          "state": 35,
          "stateSpecified": true
        },
        {
          "city": "BEDFORD HILLS",
          "state": 35,
          "stateSpecified": true
        },
        {
          "city": "BREWSTER",
          "state": 35,
          "stateSpecified": true
        },
        {
          "city": "BRONXVILLE",
          "state": 35,
          "stateSpecified": true
        },
        {
          "city": "CORTLANDT MANOR",
          "state": 35,
          "stateSpecified": true
        },
        {
          "city": "EASTCHESTER",
          "state": 35,
          "stateSpecified": true
        },
        {
          "city": "GREENBURGH",
          "state": 35,
          "stateSpecified": true
        },
        {
          "city": "GREENWICH",
          "state": 6,
          "stateSpecified": true
        },
        {
          "city": "HARTSDALE",
          "state": 35,
          "stateSpecified": true
        },
        {
          "city": "MAMARONECK",
          "state": 35,
          "stateSpecified": true
        },
        {
          "city": "MILLBURN",
          "state": 32,
          "stateSpecified": true
        },
        {
          "city": "MOUNT KISCO",
          "state": 35,
          "stateSpecified": true
        },
        {
          "city": "MOUNT VERNON",
          "state": 35,
          "stateSpecified": true
        },
        {
          "city": "MOUNT VERNON",
          "state": 35,
          "stateSpecified": true
        },
        {
          "city": "NEW ROCHELLE",
          "state": 35,
          "stateSpecified": true
        },
        {
          "city": "NEW ROCHELLE",
          "state": 35,
          "stateSpecified": true
        },
        {
          "city": "NEW ROCHELLE",
          "state": 35,
          "stateSpecified": true
        },
        {
          "city": "NEW YORK CITY",
          "state": 35,
          "stateSpecified": true
        },
        {
          "city": "OSSINING",
          "state": 35,
          "stateSpecified": true
        },
        {
          "city": "PELHAM",
          "state": 35,
          "stateSpecified": true
        },
        {
          "city": "RYE",
          "state": 35,
          "stateSpecified": true
        },
        {
          "city": "SCARSDALE",
          "state": 35,
          "stateSpecified": true
        },
        {
          "city": "WHITE PLAINS",
          "state": 35,
          "stateSpecified": true
        },
        {
          "city": "WHITE PLAINS",
          "state": 35,
          "stateSpecified": true
        },
        {
          "city": "YONKERS",
          "state": 35,
          "stateSpecified": true
        },
        {
          "city": "YONKERS",
          "state": 35,
          "stateSpecified": true
        },
        {
          "city": "YONKERS",
          "state": 35,
          "stateSpecified": true
        },
        {
          "city": "YONKERS",
          "state": 35,
          "stateSpecified": true
        },
        {
          "city": "YONKERS",
          "state": 35,
          "stateSpecified": true
        },
        {
          "city": "YONKERS",
          "state": 35,
          "stateSpecified": true
        },
        {
          "city": "YONKERS",
          "state": 35,
          "stateSpecified": true
        },
        {
          "city": "YORKTOWN HEIGHTS",
          "state": 35,
          "stateSpecified": true
        }
      ],
      "orgNm": "HSBC SECURITIES (USA) INC.",
      "orgPK": "19585",
      "regBeginDt": "2007-12-07T00:00:00",
      "regBeginDtSpecified": true,
      "regEndDt": "2011-06-17T00:00:00",
      "regEndDtSpecified": true
    }
  ],
  "EmpHss": [
    {
      "fromDt": "06/2000",
      "toDt": "06/2011",
      "orgNm": "HSBC BROKERAGE (USA) INC.",
      "city": "NEW ROCHELLE",
      "state": 35,
      "stateSpecified": true
    },
    {
      "fromDt": "01/2005",
      "toDt": "06/2011",
      "orgNm": "HSBC SECURITIES (USA) INC.",
      "city": "NEW YORK CITY",
      "state": 35,
      "stateSpecified": true
    },
    {
      "fromDt": "07/2011",
      "toDt": "03/2012",
      "orgNm": "UNEMPLOYED",
      "city": "RYE BROOK",
      "state": 35,
      "stateSpecified": true
    },
    {
      "fromDt": "03/2012",
      "toDt": null,
      "orgNm": "TD AMERITRADE, INC.",
      "city": "STAMFORD",
      "state": 6,
      "stateSpecified": true
    }
  ],
  "OthrBuss": {
    "OthrBus": {
      "desc": "INSURANCE LICENSING POSITION: N/A NATURE: NONE AT THIS TIME INVESTMENT RELATED: YES NUMBER OF HOURS: 0 INVESTMENT RELATED HOURS: 0 START DATE: 03/12/2012  ADDRESS: 54 TAMARACK ROAD, RYE BROOK NY 10573  DESCRIPTION: I HOLD NY STATE LIFE AND HEALTH LICENSES. I DO NOT SELL OR SOLICIT BUSINESS AND I RECEIVE NO ONGOING COMPENSATION FROM ANY PREVIOUS PRODUCT SALES."
    }
  },
  "DRPs": []
}