{
  "Info": {
    "lastNm": "GAPUSAN-NEUSCHWANGER",
    "firstNm": "BERNADETTE",
    "midNm": "JANE",
    "sufNm": null,
    "indvlPK": "1270663",
    "actvAGReg": 0,
    "link": "http://www.adviserinfo.sec.gov/IAPD/Individual/1270663"
  },
  "OthrNms": [
    {
      "lastNm": "GAPUSAN",
      "firstNm": "BERNADETTE",
      "midNm": "JANE",
      "sufNm": null
    },
    {
      "lastNm": "GAPUSAN-NEUSCHWANGER",
      "firstNm": "BERNADETTE",
      "midNm": null,
      "sufNm": null
    },
    {
      "lastNm": "GAPUSANNEUSCHWANGER",
      "firstNm": "BERNADETTE",
      "midNm": "JANE",
      "sufNm": null
    }
  ],
  "CrntEmps": [
    {
      "CrntRgstns": [
        {
          "regAuth": 4,
          "regCat": 0,
          "st": 2,
          "stDt": "2006-01-26T00:00:00"
        }
      ],
      "BrnchOfLocs": [
        {
          "str1": "9665 WILSHIRE BOULEVARD",
          "str2": "3RD FLOOR",
          "city": "BEVERLY HILLS",
          "state": 4,
          "stateSpecified": true,
          "cntry": "United States",
          "postlCd": "90212-2351"
        }
      ],
      "orgNm": "RBC CAPITAL MARKETS, LLC",
      "orgPK": "31194",
      "str1": "3 WORLD FINANCIAL CENTER",
      "str2": "200 VESEY ST.",
      "city": "NEW YORK",
      "state": 35,
      "stateSpecified": true,
      "cntry": "United States",
      "postlCd": "10281"
    }
  ],
  "Exms": [
    {
      "exmCd": 0,
      "exmNm": "Uniform Securities Agent State Law Examination",
      "exmDt": "1986-02-14T00:00:00",
      "exmDtSpecified": true
    },
    {
      "exmCd": 2,
      "exmNm": "Uniform Investment Adviser Law Examination",
      "exmDt": "1995-06-06T00:00:00",
      "exmDtSpecified": true
    }
  ],
  "Dsgntns": [],
  "PrevRgstns": [
    {
      "BrnchOfLocs": [
        {
          "city": "LOS ANGELES",
          "state": 4,
          "stateSpecified": true
        }
      ],
      "orgNm": "DEUTSCHE BANK SECURITIES INC.",
      "orgPK": "2525",
      "regBeginDt": "2001-06-18T00:00:00",
      "regBeginDtSpecified": true,
      "regEndDt": "2005-11-21T00:00:00",
      "regEndDtSpecified": true
    },
    {
      "BrnchOfLocs": [
        {
          "city": "SHERMAN OAKS",
          "state": 4,
          "stateSpecified": true
        }
      ],
      "orgNm": "WELLS FARGO ADVISORS FINANCIAL NETWORK, LLC",
      "orgPK": "11025",
      "regBeginDt": "2005-11-09T00:00:00",
      "regBeginDtSpecified": true,
      "regEndDt": "2006-01-24T00:00:00",
      "regEndDtSpecified": true
    }
  ],
  "EmpHss": [
    {
      "fromDt": "01/2006",
      "toDt": "03/2008",
      "orgNm": "RBC DAIN RAUSCHER INC.",
      "city": "BEVERLY HILLS",
      "state": 4,
      "stateSpecified": true
    },
    {
      "fromDt": "03/2008",
      "toDt": null,
      "orgNm": "RBC CAPITAL MARKETS CORPORATION",
      "city": "BEVERLY HILLS",
      "state": 4,
      "stateSpecified": true
    }
  ],
  "OthrBuss": {
    "OthrBus": null
  },
  "DRPs": []
}