{
  "Info": {
    "lastNm": "ZAFRA",
    "firstNm": "LESLIE",
    "midNm": "E",
    "sufNm": null,
    "indvlPK": "1275253",
    "actvAGReg": 0,
    "link": "http://www.adviserinfo.sec.gov/IAPD/Individual/1275253"
  },
  "OthrNms": [
    {
      "lastNm": "ZAFRA",
      "firstNm": "LESLIE",
      "midNm": null,
      "sufNm": null
    },
    {
      "lastNm": "ZAFRA",
      "firstNm": "LESLIE",
      "midNm": "EMMANUEL",
      "sufNm": null
    }
  ],
  "CrntEmps": [
    {
      "CrntRgstns": [
        {
          "regAuth": 4,
          "regCat": 0,
          "st": 2,
          "stDt": "2012-09-06T00:00:00"
        }
      ],
      "BrnchOfLocs": [
        {
          "str1": "251 EAST 32ND STREET",
          "str2": "SUITE 4H",
          "city": "NEW YORK",
          "state": 35,
          "stateSpecified": true,
          "cntry": "United States",
          "postlCd": "10016"
        }
      ],
      "orgNm": "SAGEPOINT FINANCIAL, INC.",
      "orgPK": "133763",
      "str1": "2800 NORTH CENTRAL AVENUE",
      "str2": "SUITE 2100",
      "city": "PHOENIX",
      "state": 3,
      "stateSpecified": true,
      "cntry": "United States",
      "postlCd": "85004"
    }
  ],
  "Exms": [
    {
      "exmCd": 0,
      "exmNm": "Uniform Securities Agent State Law Examination",
      "exmDt": "1984-07-02T00:00:00",
      "exmDtSpecified": true
    },
    {
      "exmCd": 2,
      "exmNm": "Uniform Investment Adviser Law Examination",
      "exmDt": "1999-12-31T00:00:00",
      "exmDtSpecified": true
    },
    {
      "exmCd": 3,
      "exmNm": "Uniform Combined State Law Examination",
      "exmDt": "2012-07-20T00:00:00",
      "exmDtSpecified": true
    }
  ],
  "Dsgntns": [],
  "PrevRgstns": [],
  "EmpHss": [
    {
      "fromDt": "10/2005",
      "toDt": "01/2009",
      "orgNm": "AIG FINANCIAL ADVISORS, INC.",
      "city": "PHOENIX",
      "state": 3,
      "stateSpecified": true
    },
    {
      "fromDt": "01/2009",
      "toDt": null,
      "orgNm": "SAGEPOINT FINANCIAL, INC.",
      "city": "PHOENIX",
      "state": 3,
      "stateSpecified": true
    }
  ],
  "OthrBuss": {
    "OthrBus": {
      "desc": "RENTAL OF A GARAGE SPACE ON MY PERSONAL PROPERTY. THE PROPERTY IS LOCATED AT 290 DEKALB AVENUE, BROOKLYN NEW YORK 11205. THE PROPERTY IIS A ONE FAMILY HOUSE WHICH IS OCCUPIED BY MY IMMEDIATE FAMILY. ONLY THE GARAGE SPACE IS RENTED WHICH IS DIRECTLY ATTACHED TO THE HOUSE."
    }
  },
  "DRPs": []
}