{
  "Info": {
    "lastNm": "BURTON",
    "firstNm": "TERRY",
    "midNm": "RICHARD",
    "sufNm": null,
    "indvlPK": "1284704",
    "actvAGReg": 0,
    "link": "http://www.adviserinfo.sec.gov/IAPD/Individual/1284704"
  },
  "OthrNms": [],
  "CrntEmps": [
    {
      "CrntRgstns": [
        {
          "regAuth": 39,
          "regCat": 0,
          "st": 2,
          "stDt": "2005-01-10T00:00:00"
        }
      ],
      "BrnchOfLocs": [
        {
          "str1": null,
          "str2": null,
          "city": "SEWICKLEY",
          "state": 39,
          "stateSpecified": true,
          "cntry": "United States",
          "postlCd": null
        },
        {
          "str1": "6 KIMBALL LANE",
          "str2": null,
          "city": "LYNNFIELD",
          "state": 20,
          "stateSpecified": true,
          "cntry": "United States",
          "postlCd": "01940"
        },
        {
          "str1": "602 BALDWIN STREET",
          "str2": null,
          "city": "BRIDGEVILLE",
          "state": 39,
          "stateSpecified": true,
          "cntry": "United States",
          "postlCd": "15017"
        }
      ],
      "orgNm": "INVESTORS CAPITAL CORP.",
      "orgPK": "30613",
      "str1": "6 KIMBALL LANE",
      "str2": null,
      "city": "LYNNFIELD",
      "state": 20,
      "stateSpecified": true,
      "cntry": "United States",
      "postlCd": "01940"
    }
  ],
  "Exms": [
    {
      "exmCd": 0,
      "exmNm": "Uniform Securities Agent State Law Examination",
      "exmDt": "1984-09-20T00:00:00",
      "exmDtSpecified": true
    },
    {
      "exmCd": 2,
      "exmNm": "Uniform Investment Adviser Law Examination",
      "exmDt": "2003-10-17T00:00:00",
      "exmDtSpecified": true
    }
  ],
  "Dsgntns": [],
  "PrevRgstns": [
    {
      "BrnchOfLocs": [
        {
          "city": null,
          "stateSpecified": false
        }
      ],
      "orgNm": "EASTERN POINT ADVISORS INC.",
      "orgPK": "107123",
      "regBeginDt": "2003-10-20T00:00:00",
      "regBeginDtSpecified": true,
      "regEndDt": "2004-12-31T00:00:00",
      "regEndDtSpecified": true
    }
  ],
  "EmpHss": [
    {
      "fromDt": "08/1985",
      "toDt": null,
      "orgNm": "SELF-EMPLOYED",
      "city": "ALLISON PARK",
      "state": 39,
      "stateSpecified": true
    },
    {
      "fromDt": "01/2002",
      "toDt": null,
      "orgNm": "INVESTORS CAPITAL CORPORATION",
      "city": "LYNNFIELD",
      "state": 20,
      "stateSpecified": true
    }
  ],
  "OthrBuss": {
    "OthrBus": {
      "desc": "DBA  BURTON WEALTH MANAGEMENT, 2369 FAIRHILL ROAD REAR, SEWICKLEY, PA  15143***OBA FIXED INSURANCE. 2369 FAIRHILL ROAD REAR. SEWICKLEY, PA 15143.INSURANCE SALES & PLANNING. FINANCIAL ADVISOR, AGENT. 1986. HRS/MONTH: 10 HRS/TRADING: 10"
    }
  },
  "DRPs": []
}