{
  "Info": {
    "lastNm": "WYROUGH",
    "firstNm": "PETER",
    "midNm": "STUART",
    "sufNm": null,
    "indvlPK": "1291706",
    "actvAGReg": 0,
    "link": "http://www.adviserinfo.sec.gov/IAPD/Individual/1291706"
  },
  "OthrNms": [],
  "CrntEmps": [
    {
      "CrntRgstns": [
        {
          "regAuth": 21,
          "regCat": 0,
          "st": 2,
          "stDt": "2012-08-09T00:00:00"
        }
      ],
      "BrnchOfLocs": [
        {
          "str1": "1900 THE ALAMEDA",
          "str2": "1ST FLOOR",
          "city": "SAN JOSE",
          "state": 4,
          "stateSpecified": true,
          "cntry": "United States",
          "postlCd": "95126"
        },
        {
          "str1": "2444 SOLOMONS ISLAND ROAD",
          "str2": "SUITE 212",
          "city": "ANNAPLOIS",
          "state": 21,
          "stateSpecified": true,
          "cntry": "United States",
          "postlCd": "21401"
        }
      ],
      "orgNm": "CONCERT WEALTH MANAGEMENT",
      "orgPK": "141253",
      "str1": "1900 THE ALAMEDA",
      "str2": "1ST FLOOR",
      "city": "SAN JOSE",
      "state": 4,
      "stateSpecified": true,
      "cntry": "United States",
      "postlCd": "95126"
    }
  ],
  "Exms": [
    {
      "exmCd": 0,
      "exmNm": "Uniform Securities Agent State Law Examination",
      "exmDt": "1985-04-25T00:00:00",
      "exmDtSpecified": true
    },
    {
      "exmCd": 2,
      "exmNm": "Uniform Investment Adviser Law Examination",
      "exmDt": "1999-12-20T00:00:00",
      "exmDtSpecified": true
    }
  ],
  "Dsgntns": [
    {
      "dsgntnNm": "Certified Financial Planner"
    }
  ],
  "PrevRgstns": [
    {
      "BrnchOfLocs": [
        {
          "city": "DUNKIRK",
          "state": 21,
          "stateSpecified": true
        }
      ],
      "orgNm": "LEGG MASON WOOD WALKER, INCORPORATED",
      "orgPK": "6555",
      "regBeginDt": "2002-02-13T00:00:00",
      "regBeginDtSpecified": true,
      "regEndDt": "2004-04-06T00:00:00",
      "regEndDtSpecified": true
    },
    {
      "BrnchOfLocs": [
        {
          "city": "DUNKIRK",
          "state": 21,
          "stateSpecified": true
        }
      ],
      "orgNm": "RAYMOND JAMES FINANCIAL SERVICES, INC.",
      "orgPK": "6694",
      "regBeginDt": "2004-04-13T00:00:00",
      "regBeginDtSpecified": true,
      "regEndDt": "2008-08-15T00:00:00",
      "regEndDtSpecified": true
    },
    {
      "BrnchOfLocs": [
        {
          "city": "CHICAGO",
          "state": 15,
          "stateSpecified": true
        },
        {
          "city": "CHICAGO",
          "state": 15,
          "stateSpecified": true
        },
        {
          "city": "DUNKIRK",
          "state": 21,
          "stateSpecified": true
        }
      ],
      "orgNm": "BROKERSXPRESS LLC",
      "orgPK": "127081",
      "regBeginDt": "2008-11-04T00:00:00",
      "regBeginDtSpecified": true,
      "regEndDt": "2012-08-13T00:00:00",
      "regEndDtSpecified": true
    }
  ],
  "EmpHss": [
    {
      "fromDt": "04/2004",
      "toDt": "08/2008",
      "orgNm": "RAYMOND JAMES FINANCIAL SERVICES",
      "city": "DUNKIRK",
      "state": 21,
      "stateSpecified": true
    },
    {
      "fromDt": "08/2008",
      "toDt": "10/2008",
      "orgNm": "UNEMPLOYED",
      "city": "ANNAPOLIS",
      "state": 21,
      "stateSpecified": true
    },
    {
      "fromDt": "10/2008",
      "toDt": "09/2012",
      "orgNm": "BROKERSXPRESS",
      "city": "CHICAGO",
      "state": 15,
      "stateSpecified": true
    },
    {
      "fromDt": "09/2012",
      "toDt": null,
      "orgNm": "CONCERT WEALTH DBA VALUE WEALTH SERVICES",
      "city": "ANNAPOLIS",
      "state": 21,
      "stateSpecified": true
    },
    {
      "fromDt": "09/2012",
      "toDt": null,
      "orgNm": "PURSHE KAPLAN STERLING INVESTMENTS",
      "city": "ALBANY",
      "state": 35,
      "stateSpecified": true
    }
  ],
  "OthrBuss": {
    "OthrBus": {
      "desc": "1. FORMING A COMPANY THAT WILL DEVELOP AND SELL A FINANCIAL AND INVESTMENT SOFTWARE TOOL, CURRENTLY IN THE PATENT PROCESS, FOR PORTABLE DIGITAL DEVICES. INVOLVES A FEW HOURS DURING THE WEEK, MOSTLY AFTER BUSINESS HOURS.   2. I AM A TRUSTEE FOR AN ACCOUNT THAT BENEFITS A RELATIVE'S CHILDREN. I PROVIDE INVESTMENT ADVISORY SERVICES ON THIS ACCOUNT RELATIONSHIP. AT SOME POINT I May HIRE AN INVESTMENT ADVISOR TO PROVIDE ADVICE TO ME FOR THE BENEFIT OF THE CHILDREN.I PROVIDE INVESTMENT ADVISORY SERVICES ON THIS ACCOUNT RELATIONSHIP. AT SOME POINT I MAY HIRE AN INVESTMENT ADVISOR TO PROVIDE ADVICE TO ME FOR THE BENEFIT OF THE CHILDREN.     3. CONCERT WEALTH Management, inc., DBA VALUE WEALTH SERVICES. INVESTMENT RELATED 2444 SOLOMONS ISLAND RD, STE 212, ANNAPOLIS MD 21401 CEO AND FOUNDER. FINANCIAL AND INVESTMENT ADVISOR FOR THE BENEFIT OF MY CLIENTS    4. PKS FINANCIAL SERVICES, 9/7/2012-PRESENT, FIXED INSURANCE SALES."
    }
  },
  "DRPs": []
}