{
  "Info": {
    "lastNm": "REEVES",
    "firstNm": "SIDNEY",
    "midNm": null,
    "sufNm": null,
    "indvlPK": "1295886",
    "actvAGReg": 1,
    "link": "http://www.adviserinfo.sec.gov/IAPD/Individual/1295886"
  },
  "OthrNms": [
    {
      "lastNm": "REEVES",
      "firstNm": "SID",
      "midNm": null,
      "sufNm": null
    },
    {
      "lastNm": "REEVES",
      "firstNm": "SID",
      "midNm": null,
      "sufNm": null
    }
  ],
  "CrntEmps": [
    {
      "CrntRgstns": [
        {
          "regAuth": 4,
          "regCat": 0,
          "st": 2,
          "stDt": "2014-11-24T00:00:00"
        }
      ],
      "BrnchOfLocs": [
        {
          "str1": "15372 SEITZ CT.",
          "str2": null,
          "city": "MOORPARK",
          "state": 4,
          "stateSpecified": true,
          "cntry": "United States",
          "postlCd": "93021"
        },
        {
          "str1": "8316 CORNELL ROAD",
          "str2": null,
          "city": "CINCINNATI",
          "state": 36,
          "stateSpecified": true,
          "cntry": "United States",
          "postlCd": "45249"
        }
      ],
      "orgNm": "HORTER INVESTMENT MANAGEMENT, LLC",
      "orgPK": "119880",
      "str1": "8316 CORNELL ROAD",
      "str2": null,
      "city": "CINCINNATI",
      "state": 36,
      "stateSpecified": true,
      "cntry": "United States",
      "postlCd": "45249"
    }
  ],
  "Exms": [
    {
      "exmCd": 2,
      "exmNm": "Uniform Investment Adviser Law Examination",
      "exmDt": "1998-10-28T00:00:00",
      "exmDtSpecified": true
    },
    {
      "exmCd": 0,
      "exmNm": "Uniform Securities Agent State Law Examination",
      "exmDt": "1999-11-23T00:00:00",
      "exmDtSpecified": true
    }
  ],
  "Dsgntns": [
    {
      "dsgntnNm": "Certified Financial Planner"
    }
  ],
  "PrevRgstns": [
    {
      "BrnchOfLocs": [
        {
          "city": "SIMI VALLEY",
          "state": 4,
          "stateSpecified": true
        }
      ],
      "orgNm": "UNITED PLANNERS' FINANCIAL SERVICES OF AMERICA A LIMITED PARTNER",
      "orgPK": "20804",
      "regBeginDt": "2000-12-11T00:00:00",
      "regBeginDtSpecified": true,
      "regEndDt": "2005-06-29T00:00:00",
      "regEndDtSpecified": true
    },
    {
      "BrnchOfLocs": [
        {
          "city": "SIMI VALLEY",
          "state": 4,
          "stateSpecified": true
        },
        {
          "city": "SIMI VALLEY",
          "state": 4,
          "stateSpecified": true
        }
      ],
      "orgNm": "CINCINNATI ANALYSTS, INC.",
      "orgPK": "5478",
      "regBeginDt": "2005-07-14T00:00:00",
      "regBeginDtSpecified": true,
      "regEndDt": "2008-03-18T00:00:00",
      "regEndDtSpecified": true
    },
    {
      "BrnchOfLocs": [
        {
          "city": "SIMI VALLEY",
          "state": 4,
          "stateSpecified": true
        },
        {
          "city": "WOODLAND HILLS",
          "state": 4,
          "stateSpecified": true
        }
      ],
      "orgNm": "CINCINNATI ANALYSTS, INC.",
      "orgPK": "5478",
      "regBeginDt": "2008-06-16T00:00:00",
      "regBeginDtSpecified": true,
      "regEndDt": "2009-03-31T00:00:00",
      "regEndDtSpecified": true
    },
    {
      "BrnchOfLocs": [
        {
          "city": "OMAHA",
          "state": 30,
          "stateSpecified": true
        },
        {
          "city": "SIMI VALLEY",
          "state": 4,
          "stateSpecified": true
        }
      ],
      "orgNm": "QA3 FINANCIAL LLC",
      "orgPK": "104957",
      "regBeginDt": "2009-10-12T00:00:00",
      "regBeginDtSpecified": true,
      "regEndDt": "2011-02-11T00:00:00",
      "regEndDtSpecified": true
    },
    {
      "BrnchOfLocs": [
        {
          "city": "SAN DIEGO",
          "state": 4,
          "stateSpecified": true
        },
        {
          "city": "SIMI VALLEY",
          "state": 4,
          "stateSpecified": true
        }
      ],
      "orgNm": "CETERA ADVISORS LLC",
      "orgPK": "10299",
      "regBeginDt": "2011-05-06T00:00:00",
      "regBeginDtSpecified": true,
      "regEndDt": "2013-03-01T00:00:00",
      "regEndDtSpecified": true
    },
    {
      "BrnchOfLocs": [
        {
          "city": "ARDEN HILLS",
          "state": 24,
          "stateSpecified": true
        },
        {
          "city": "SIMI VALLEY",
          "state": 4,
          "stateSpecified": true
        }
      ],
      "orgNm": "GRADIENT ADVISORS, LLC",
      "orgPK": "152665",
      "regBeginDt": "2013-07-15T00:00:00",
      "regBeginDtSpecified": true,
      "regEndDt": "2013-12-31T00:00:00",
      "regEndDtSpecified": true
    }
  ],
  "EmpHss": [
    {
      "fromDt": "03/1986",
      "toDt": null,
      "orgNm": "SIDNEY REEES INSURANCE SALES",
      "city": "SIMI VALLEY",
      "state": 4,
      "stateSpecified": true
    },
    {
      "fromDt": "11/1988",
      "toDt": null,
      "orgNm": "INNOVATIVE FINANCIAL / CFP",
      "city": "WESTLAKE VILLAGE",
      "state": 4,
      "stateSpecified": true
    },
    {
      "fromDt": "06/2005",
      "toDt": "03/2008",
      "orgNm": "CAPITAL ANALYSTS INCORPORATED",
      "city": "RADNOR",
      "state": 39,
      "stateSpecified": true
    },
    {
      "fromDt": "06/2008",
      "toDt": "03/2009",
      "orgNm": "CAPITAL ANALYSTS INCORPORATED",
      "city": "CINCINNATI",
      "state": 36,
      "stateSpecified": true
    },
    {
      "fromDt": "10/2009",
      "toDt": "02/2011",
      "orgNm": "QA3 FINANCIAL CORP",
      "city": "OMAHA",
      "state": 30,
      "stateSpecified": true
    },
    {
      "fromDt": "05/2011",
      "toDt": "03/2013",
      "orgNm": "MULTI-FINANCIAL SECURITIES CORPORATION",
      "city": "DENVER",
      "state": 5,
      "stateSpecified": true
    },
    {
      "fromDt": "07/2013",
      "toDt": "12/2013",
      "orgNm": "GRADIENT SECURITIES, LLC",
      "city": "ARDEN HILLS",
      "state": 24,
      "stateSpecified": true
    },
    {
      "fromDt": "11/2014",
      "toDt": null,
      "orgNm": "HORTER INVESTMENT MANAGEMENT",
      "city": "CINCINNATI",
      "state": 36,
      "stateSpecified": true
    }
  ],
  "OthrBuss": {
    "OthrBus": {
      "desc": "1)NAME OF BUSINESS: INNOVATIVE FINANCIAL INC. INVESTMENT RELATED?: NO  CURRENT BUSINESS ADDRESS: 980 ENCHANTED WAY SUITE 205, SIMI VALLEY, CA 93064  NATURE OF BUSINESS: INCOME TAX ACCOUNTS  YOUR TITLE: OWNER  START DATE:03/1994  APPROXIMATE NUMBER OF HOURS PER MONTH YOU DEVOTE TO THE BUSINESS: 160 - FEB THROUGH APRIL  APPROXIMATE NUMBER OF HOURS PER MONTH DEVOTE TO THE BUSINESS DURING SECURITIES HOURS: 60  BRIEFLY DESCRIBE YOUR DUTIES: INCOME TAX AND ACCOUNTING  2) NAME OF BUSINESS: DBA FOR SIDNEY REEVES  INVESTMENT RELATED?: NO  CURRENT BUSINESS ADDRESS: 980 ENCHANTED WAY SUITE 205, SIMI VALLEY, CA 93064  NATURE OF BUSINESS: INSURANCE SALES  YOUR TITLE: INSURANCE ADVISOR  START DATE: 03/1986  APPROXIMATE NUMBER OF HOURS PER MONTH YOU DEVOTE TO THE BUSINESS: 25  APPROXIMATE NUMBER OF HOURS PER MONTH DEVOTE TO THE BUSINESS DURING SECURITIES HOURS: 10  BRIEFLY DESCRIBE YOUR DUTIES: INSURANCE SALES"
    }
  },
  "DRPs": [
    {
      "hasRegAction": 0,
      "hasRegActionSpecified": true,
      "hasCriminal": 1,
      "hasCriminalSpecified": true,
      "hasBankrupt": 1,
      "hasBankruptSpecified": true,
      "hasCivilJudc": 1,
      "hasCivilJudcSpecified": true,
      "hasBond": 1,
      "hasBondSpecified": true,
      "hasJudgment": 1,
      "hasJudgmentSpecified": true,
      "hasInvstgn": 1,
      "hasInvstgnSpecified": true,
      "hasCustComp": 1,
      "hasCustCompSpecified": true,
      "hasTermination": 0,
      "hasTerminationSpecified": true
    }
  ]
}