{
  "Info": {
    "lastNm": "KNUTH",
    "firstNm": "KAY",
    "midNm": "MARIE",
    "sufNm": null,
    "indvlPK": "1296275",
    "actvAGReg": 0,
    "link": "http://www.adviserinfo.sec.gov/IAPD/Individual/1296275"
  },
  "OthrNms": [
    {
      "lastNm": "STACHOVAK",
      "firstNm": "KAY",
      "midNm": "MARIE",
      "sufNm": null
    },
    {
      "lastNm": "STACHOVAN",
      "firstNm": "KAY",
      "midNm": "MARIE",
      "sufNm": null
    }
  ],
  "CrntEmps": [
    {
      "CrntRgstns": [
        {
          "regAuth": 50,
          "regCat": 0,
          "st": 2,
          "stDt": "2009-02-05T00:00:00"
        },
        {
          "regAuth": 45,
          "regCat": 0,
          "st": 2,
          "stDt": "2012-01-03T00:00:00"
        }
      ],
      "BrnchOfLocs": [
        {
          "str1": "101 W EDISON AVE",
          "str2": "STE 256",
          "city": "APPLETON",
          "state": 50,
          "stateSpecified": true,
          "cntry": "United States",
          "postlCd": "54915"
        }
      ],
      "orgNm": "CAMBRIDGE INVESTMENT RESEARCH ADVISORS, INC.",
      "orgPK": "134139",
      "str1": "1776 PLEASANT PLAIN RD.",
      "str2": null,
      "city": "FAIRFIELD",
      "state": 13,
      "stateSpecified": true,
      "cntry": "United States",
      "postlCd": "52556-8757"
    }
  ],
  "Exms": [
    {
      "exmCd": 0,
      "exmNm": "Uniform Securities Agent State Law Examination",
      "exmDt": "1984-09-25T00:00:00",
      "exmDtSpecified": true
    }
  ],
  "Dsgntns": [
    {
      "dsgntnNm": "Certified Financial Planner"
    }
  ],
  "PrevRgstns": [
    {
      "BrnchOfLocs": [
        {
          "city": "APPLETON",
          "state": 50,
          "stateSpecified": true
        },
        {
          "city": "GREEN BAY",
          "state": 50,
          "stateSpecified": true
        },
        {
          "city": "GREEN BAY",
          "state": 50,
          "stateSpecified": true
        }
      ],
      "orgNm": "INVEST FINANCIAL CORPORATION",
      "orgPK": "12984",
      "regBeginDt": "2004-04-08T00:00:00",
      "regBeginDtSpecified": true,
      "regEndDt": "2007-04-17T00:00:00",
      "regEndDtSpecified": true
    }
  ],
  "EmpHss": [
    {
      "fromDt": "03/2004",
      "toDt": "04/2007",
      "orgNm": "INVEST FINANCIAL CORP",
      "city": "GREEN BAY",
      "state": 50,
      "stateSpecified": true
    },
    {
      "fromDt": "03/2004",
      "toDt": "04/2007",
      "orgNm": "JOHNSON BANK",
      "city": "GREEN BAY",
      "state": 50,
      "stateSpecified": true
    },
    {
      "fromDt": "04/2007",
      "toDt": "06/2007",
      "orgNm": "UNEMPLOYED",
      "city": "APPLETON",
      "state": 50,
      "stateSpecified": true
    },
    {
      "fromDt": "07/2007",
      "toDt": null,
      "orgNm": "CAMBRIDGE INVESTMENT RESEARCH ADVISORS, INC",
      "city": "FAIRFIELD",
      "state": 13,
      "stateSpecified": true
    },
    {
      "fromDt": "07/2007",
      "toDt": null,
      "orgNm": "CAMBRIDGE INVESTMENT RESEARCH, INC",
      "city": "FAIRFIELD",
      "state": 13,
      "stateSpecified": true
    }
  ],
  "OthrBuss": {
    "OthrBus": {
      "desc": "1)INDEPENDENT INSURANCE AGENT FOR VARIOUS INDEPENDENT INSURANCE COMPANIES.    2)GOODWILL INDUSTRIES/HARMONY CAFE; APPLETON, WI.  VOLUNTEER/PRO BONO FINANCIAL COUNSELING SINCE 5/13/2009.8 HRS/MNTHLY AND 0 DURING TRADE HRS.     3)HARBOR HOUSE DOMESTIC ABUSE PROGRAM (NON-INVESTMENT RELATED), 720 W. 5TH ST., APPLETON, WI 54914; PRO BONO FINANCIAL COUNSELING; START DATE: 1/1/10; 1 HR/MO, 0 HR DURING SECURITIES TRADING HRS; PROVIDE BUDGET/DEBT MANAGEMENT/FINANCIL PLANNING COUSELING TO INDIVIDUALS WHO ARE USING HARBOR HOUSE SERVICES.     4)KENYA WORKS W6657 FIRE LANE 6 MENASHA, WI 54952. BEGAN 9/1/13 AS BOARD MEMEBER FORSTERS COLLABORATIVE PARNERSHIPS WITH THE COMMUNITIES OF KENYA AND EAST AFRICA EDUCATIONAL AND VOCATIONL OPPORTUNITIES, AND PROMOTE HEALTH AND WELFARE EMPOWERING PEOPLE AND DIFFUSING GENERATIONAL POVERTY. NOT INVESTMENT RELATED. DEVOTES 3 HRS/MNTH. 1 DURING TRADING. NON-PROFIT ORGANIZATION.    5)OUTLOOK FUNERAL SERVICES, 121 E SECOND ST., FRANKLIN, OH 45005. BEGAN 3/25/11 AS SPEAKER WHO WILL PRESENT SALES TRAINING MODULES TO ADVANCE FUNERAL PLANNERS. NOT INVESTMENT RELATED. DEVOTES 4 INITIAL HRS/MNTH, NONE DURING TRADING."
    }
  },
  "DRPs": []
}