{
  "Info": {
    "lastNm": "BULLARA",
    "firstNm": "PAUL",
    "midNm": null,
    "sufNm": "III",
    "indvlPK": "1303043",
    "actvAGReg": 0,
    "link": "http://www.adviserinfo.sec.gov/IAPD/Individual/1303043"
  },
  "OthrNms": [
    {
      "lastNm": "BULLARA",
      "firstNm": "PAUL",
      "midNm": null,
      "sufNm": null
    },
    {
      "lastNm": "BULLARA",
      "firstNm": "PAUL",
      "midNm": null,
      "sufNm": "III"
    }
  ],
  "CrntEmps": [
    {
      "CrntRgstns": [
        {
          "regAuth": 9,
          "regCat": 0,
          "st": 2,
          "stDt": "2015-07-17T00:00:00"
        }
      ],
      "BrnchOfLocs": [
        {
          "str1": "600 N WESTSHORE BLVD",
          "str2": "SUITE 200",
          "city": "TAMPA",
          "state": 9,
          "stateSpecified": true,
          "cntry": "United States",
          "postlCd": "33609"
        }
      ],
      "orgNm": "HORNOR, TOWNSEND & KENT, INC.",
      "orgPK": "4031",
      "str1": "600 DRESHER RD",
      "str2": "STE C1C",
      "city": "HORSHAM",
      "state": 39,
      "stateSpecified": true,
      "cntry": "United States",
      "postlCd": "19044"
    }
  ],
  "Exms": [
    {
      "exmCd": 0,
      "exmNm": "Uniform Securities Agent State Law Examination",
      "exmDt": "2012-04-27T00:00:00",
      "exmDtSpecified": true
    }
  ],
  "Dsgntns": [],
  "PrevRgstns": [
    {
      "BrnchOfLocs": [
        {
          "city": "TAMPA",
          "state": 9,
          "stateSpecified": true
        },
        {
          "city": "TAMPA",
          "state": 9,
          "stateSpecified": true
        }
      ],
      "orgNm": "MML INVESTORS SERVICES, LLC",
      "orgPK": "10409",
      "regBeginDt": "1999-03-02T00:00:00",
      "regBeginDtSpecified": true,
      "regEndDt": "2012-01-11T00:00:00",
      "regEndDtSpecified": true
    },
    {
      "BrnchOfLocs": [
        {
          "city": "TAMPA",
          "state": 9,
          "stateSpecified": true
        },
        {
          "city": "TAMPA",
          "state": 9,
          "stateSpecified": true
        }
      ],
      "orgNm": "PARK AVENUE SECURITIES LLC",
      "orgPK": "46173",
      "regBeginDt": "2012-02-08T00:00:00",
      "regBeginDtSpecified": true,
      "regEndDt": "2015-05-08T00:00:00",
      "regEndDtSpecified": true
    }
  ],
  "EmpHss": [
    {
      "fromDt": "02/1999",
      "toDt": "01/2012",
      "orgNm": "MASSMUTUAL LIFE INSURANCE COMPANY",
      "city": "TAMPA",
      "state": 9,
      "stateSpecified": true
    },
    {
      "fromDt": "03/1999",
      "toDt": "05/2015",
      "orgNm": "MML INVESTORS SERVICES",
      "city": "TAMPA",
      "state": 9,
      "stateSpecified": true
    },
    {
      "fromDt": "01/2012",
      "toDt": "05/2015",
      "orgNm": "GUARDIAN LIFE INSURANCE COMPANY",
      "city": "TAMPA",
      "state": 9,
      "stateSpecified": true
    },
    {
      "fromDt": "01/2012",
      "toDt": "05/2015",
      "orgNm": "PARK AVENUE SECURITIES",
      "city": "TAMPA",
      "state": 9,
      "stateSpecified": true
    },
    {
      "fromDt": "05/2015",
      "toDt": null,
      "orgNm": "HORNOR TOWNSEND & KENT INC",
      "city": "HORSHAM",
      "state": 39,
      "stateSpecified": true
    },
    {
      "fromDt": "05/2015",
      "toDt": null,
      "orgNm": "PENN MUTUAL LIFE INSURANCE CO",
      "city": "HORSHAM",
      "state": 39,
      "stateSpecified": true
    }
  ],
  "OthrBuss": {
    "OthrBus": {
      "desc": "1)INSURANCE BROKERAGE: DBA NAME:  21ST CENTUARY FINANCIAL; INVESTMENT RELATED: YES;  ADDRESS:    600 N. WESTSHORE BLVD, STE 200,   NATURE OF OBA:     LIFE INSURANCE SALES FOR MULTIPLE CARRIERS INCLUDING PENN MUTUAL LIFE;  POSITION, TITLE, RELATIONSHIP:     SALES MANAGER;  START DATE OF OBA:            05/2015;  # HOURS/MONTH:  MORE THAN 140 HRS/MONTHLY;  # HOURS/MONTH DURING TRADING:            MORE THAN 140 HRS/MONTHLY;  DESCRIBE DUTIES: DEVELOPMENT AND TRAINING FOR SALES AND SERVICE OF LIFE, ACCIDENT, HEALTH/DI/ LTC AND ANNUITY WITH NEW PRODUCERS/REPRESENTATIVES.    2)REAL ESTATE PORPERTY: DBA NAME: NONE;  INVESTMENT RELATED:        NO;  ADDRESS:    TAMPA, FL;  NATURE OF OBA:     TOWNHOUSE RENTAL ;  POSITION, TITLE, RELATIONSHIP:     OWNER;  START DATE OF OBA:            2007;  # HOURS/MONTH:  2 HRS/MONTHLY;  # HOURS/MONTH DURING TRADING: O HRS/MONTHLY;  DESCRIBE DUTIES:  COORDINATE WITH MANAGEMENT COMPANY THAT COLLECTS THE RENTAL ON THE PROPERTY.    3)REAL ESTATE PROPERTY: DBA NAME:   NONE;  INVESTMENT RELATED:        NO;  ADDRESS:    BLUE RIDGE, GEORGIA;  NATURE OF OBA:     CABIN RENTAL PROPERTY;  POSITION, TITLE, RELATIONSHIP:     OWNER;  START DATE OF OBA:            2010;  # HOURS/MONTH:  2 HRS/MONTHLY;  # HOURS/MONTH DURING TRADING: 0 HRS/MONTHLY;  DESCRIBE DUTIES: COORDINATE WITH MANAGEMENT COMPANY THAT COLLECTS THE RENTAL ON THE PROPERTY."
    }
  },
  "DRPs": []
}