{
  "Info": {
    "lastNm": "MAYS",
    "firstNm": "RICHARD",
    "midNm": "DAN",
    "sufNm": null,
    "indvlPK": "1306685",
    "actvAGReg": 0,
    "link": "http://www.adviserinfo.sec.gov/IAPD/Individual/1306685"
  },
  "OthrNms": [],
  "CrntEmps": [
    {
      "CrntRgstns": [
        {
          "regAuth": 4,
          "regCat": 0,
          "st": 2,
          "stDt": "2016-04-19T00:00:00"
        }
      ],
      "BrnchOfLocs": [
        {
          "str1": "2801 TOWNSGATE ROAD",
          "str2": "SUITE 320",
          "city": "WESTLAKE VILLAGE",
          "state": 4,
          "stateSpecified": true,
          "cntry": "United States",
          "postlCd": "91361"
        }
      ],
      "orgNm": "MML INVESTORS SERVICES, LLC",
      "orgPK": "10409",
      "str1": "1295 STATE STREET",
      "str2": null,
      "city": "SPRINGFIELD",
      "state": 20,
      "stateSpecified": true,
      "cntry": "United States",
      "postlCd": "01111-0001"
    }
  ],
  "Exms": [
    {
      "exmCd": 3,
      "exmNm": "Uniform Combined State Law Examination",
      "exmDt": "2016-03-22T00:00:00",
      "exmDtSpecified": true
    }
  ],
  "Dsgntns": [],
  "PrevRgstns": [],
  "EmpHss": [
    {
      "fromDt": "09/1984",
      "toDt": null,
      "orgNm": "MML INVESTORS SERVICES, INC.",
      "city": "WESTLAKE VILLAGE",
      "state": 4,
      "stateSpecified": true
    }
  ],
  "OthrBuss": {
    "OthrBus": null
  },
  "DRPs": []
}