{
  "Info": {
    "lastNm": "SMITH",
    "firstNm": "ROBERT",
    "midNm": "JOHN",
    "sufNm": "JR",
    "indvlPK": "1314372",
    "actvAGReg": 0,
    "link": "http://www.adviserinfo.sec.gov/IAPD/Individual/1314372"
  },
  "OthrNms": [
    {
      "lastNm": "SMITH",
      "firstNm": "ROBERT",
      "midNm": "J",
      "sufNm": null
    }
  ],
  "CrntEmps": [
    {
      "CrntRgstns": [
        {
          "regAuth": 4,
          "regCat": 0,
          "st": 2,
          "stDt": "2011-06-09T00:00:00"
        }
      ],
      "BrnchOfLocs": [
        {
          "str1": "1875 CENTURY PARK EAST",
          "str2": "SUITE 1950",
          "city": "LOS ANGELES",
          "state": 4,
          "stateSpecified": true,
          "cntry": "United States",
          "postlCd": "90067"
        },
        {
          "str1": "500 S PALM CANYON DRIVE",
          "str2": "SUITE 315",
          "city": "PALM SPRINGS",
          "state": 4,
          "stateSpecified": true,
          "cntry": "United States",
          "postlCd": "92264"
        }
      ],
      "orgNm": "MML INVESTORS SERVICES, LLC",
      "orgPK": "10409",
      "str1": "1295 STATE STREET",
      "str2": null,
      "city": "SPRINGFIELD",
      "state": 20,
      "stateSpecified": true,
      "cntry": "United States",
      "postlCd": "01111-0001"
    }
  ],
  "Exms": [
    {
      "exmCd": 3,
      "exmNm": "Uniform Combined State Law Examination",
      "exmDt": "2011-03-25T00:00:00",
      "exmDtSpecified": true
    }
  ],
  "Dsgntns": [],
  "PrevRgstns": [
    {
      "BrnchOfLocs": [
        {
          "city": "MIRAGE",
          "state": 4,
          "stateSpecified": true
        }
      ],
      "orgNm": "EAGLE STRATEGIES LLC",
      "orgPK": "110826",
      "regBeginDt": "2011-03-28T00:00:00",
      "regBeginDtSpecified": true,
      "regEndDt": "2011-05-17T00:00:00",
      "regEndDtSpecified": true
    }
  ],
  "EmpHss": [
    {
      "fromDt": "06/1984",
      "toDt": "05/2011",
      "orgNm": "NEW YORK LIFE INSURANCE COMPANY",
      "city": "SAN BERNARDINO",
      "state": 4,
      "stateSpecified": true
    },
    {
      "fromDt": "06/1984",
      "toDt": "05/2011",
      "orgNm": "NYLIFE SECURITIES INC.",
      "city": "SAN BERNARDINO",
      "state": 4,
      "stateSpecified": true
    },
    {
      "fromDt": "11/2006",
      "toDt": null,
      "orgNm": "R.J. SMITH INSURANCE & FINANCIAL SERVICES",
      "city": "PALM DESERT",
      "state": 4,
      "stateSpecified": true
    },
    {
      "fromDt": "03/2011",
      "toDt": "05/2011",
      "orgNm": "EAGLE STRATEGIES LLC",
      "city": "RANCHO MIRAGE",
      "state": 4,
      "stateSpecified": true
    },
    {
      "fromDt": "05/2011",
      "toDt": null,
      "orgNm": "MASSMUTUAL FINANCIAL GROUP",
      "city": "RANCHO MIRAGE",
      "state": 4,
      "stateSpecified": true
    },
    {
      "fromDt": "05/2011",
      "toDt": null,
      "orgNm": "MML INVESTORS SERVICES",
      "city": "RANCHO MIRAGE",
      "state": 4,
      "stateSpecified": true
    }
  ],
  "OthrBuss": {
    "OthrBus": {
      "desc": "1)Name: DOT Insurance & Financial Services Inc DBA RJ SMith Insurance & Financial Services Inv rel: Y Add: 500 S Palm Canyon Drive Ste 315 Palm Springs CA 92264 Nature: NonMMLIA Insurance Brokerage Position: agent Start date: 1984 No. HR/MO: 10-20 No. HR/MO during sec trading: 10-20 Describe duties: life, health, group life, disability..2) Name: Robert J Smith Inv rel: Y Add: 849 N Franklin Ave #822 Chicago IL 60610 Nature: simple rental property Position: Joint Owner Start date: 2006 No. HR/MO: 2 No. HR/MO during sec trading: 2 Describe duties: Management of the property. This is a 2nd home that we currently rent under a long term lease through the end of 2016"
    }
  },
  "DRPs": [
    {
      "hasRegAction": 1,
      "hasRegActionSpecified": true,
      "hasCriminal": 1,
      "hasCriminalSpecified": true,
      "hasBankrupt": 1,
      "hasBankruptSpecified": true,
      "hasCivilJudc": 1,
      "hasCivilJudcSpecified": true,
      "hasBond": 1,
      "hasBondSpecified": true,
      "hasJudgment": 1,
      "hasJudgmentSpecified": true,
      "hasInvstgn": 1,
      "hasInvstgnSpecified": true,
      "hasCustComp": 1,
      "hasCustCompSpecified": true,
      "hasTermination": 0,
      "hasTerminationSpecified": true
    }
  ]
}