{
  "Info": {
    "lastNm": "ZIEGLER",
    "firstNm": "JOSEPH",
    "midNm": "EDWARD",
    "sufNm": null,
    "indvlPK": "1321047",
    "actvAGReg": 0,
    "link": "http://www.adviserinfo.sec.gov/IAPD/Individual/1321047"
  },
  "OthrNms": [
    {
      "lastNm": "ZIEGLER",
      "firstNm": "JOE",
      "midNm": null,
      "sufNm": null
    }
  ],
  "CrntEmps": [
    {
      "CrntRgstns": [
        {
          "regAuth": 32,
          "regCat": 0,
          "st": 2,
          "stDt": "2009-01-02T00:00:00"
        }
      ],
      "BrnchOfLocs": [
        {
          "str1": "1 HWY 12, PLAZA 1 STE 302",
          "str2": "P.O. BOX 524",
          "city": "FLEMINGTON",
          "state": 32,
          "stateSpecified": true,
          "cntry": "United States",
          "postlCd": "08822"
        }
      ],
      "orgNm": "RAYMOND JAMES FINANCIAL SERVICES ADVISORS, INC",
      "orgPK": "149018",
      "str1": "880 CARILLON PARKWAY",
      "str2": null,
      "city": "SAINT PETERSBURG",
      "state": 9,
      "stateSpecified": true,
      "cntry": "United States",
      "postlCd": "33716"
    }
  ],
  "Exms": [
    {
      "exmCd": 0,
      "exmNm": "Uniform Securities Agent State Law Examination",
      "exmDt": "1984-11-29T00:00:00",
      "exmDtSpecified": true
    }
  ],
  "Dsgntns": [],
  "PrevRgstns": [],
  "EmpHss": [
    {
      "fromDt": "03/1991",
      "toDt": null,
      "orgNm": "RAYMOND JAMES FINANCIAL SERVICES, INC.",
      "city": "FLEMINGTON",
      "state": 32,
      "stateSpecified": true
    },
    {
      "fromDt": "01/2009",
      "toDt": null,
      "orgNm": "RAYMOND JAMES FINANCIAL SERVICES ADVISORS, INC",
      "city": "FLEMINGTON",
      "state": 32,
      "stateSpecified": true
    }
  ],
  "OthrBuss": {
    "OthrBus": null
  },
  "DRPs": []
}