{
  "Info": {
    "lastNm": "MONAGHAN",
    "firstNm": "TINA",
    "midNm": "MARIA",
    "sufNm": null,
    "indvlPK": "1321636",
    "actvAGReg": 0,
    "link": "http://www.adviserinfo.sec.gov/IAPD/Individual/1321636"
  },
  "OthrNms": [
    {
      "lastNm": "SLAVENS",
      "firstNm": "TINA",
      "midNm": "MARIA",
      "sufNm": null
    }
  ],
  "CrntEmps": [
    {
      "CrntRgstns": [
        {
          "regAuth": 32,
          "regCat": 0,
          "st": 2,
          "stDt": "2010-06-18T00:00:00"
        }
      ],
      "BrnchOfLocs": [
        {
          "str1": "120 ALBANY ST 4TH FLOOR",
          "str2": null,
          "city": "NEW BRUNSWICK",
          "state": 32,
          "stateSpecified": true,
          "cntry": "United States",
          "postlCd": "08901"
        }
      ],
      "orgNm": "MORGAN STANLEY",
      "orgPK": "149777",
      "str1": "2000 WESTCHESTER AVENUE",
      "str2": null,
      "city": "PURCHASE",
      "state": 35,
      "stateSpecified": true,
      "cntry": "United States",
      "postlCd": "10577-2530"
    }
  ],
  "Exms": [
    {
      "exmCd": 0,
      "exmNm": "Uniform Securities Agent State Law Examination",
      "exmDt": "1985-10-23T00:00:00",
      "exmDtSpecified": true
    },
    {
      "exmCd": 2,
      "exmNm": "Uniform Investment Adviser Law Examination",
      "exmDt": "2005-04-14T00:00:00",
      "exmDtSpecified": true
    }
  ],
  "Dsgntns": [],
  "PrevRgstns": [
    {
      "BrnchOfLocs": [
        {
          "city": "FLORHAM PARK",
          "state": 32,
          "stateSpecified": true
        },
        {
          "city": "FLORHAM PARK",
          "state": 32,
          "stateSpecified": true
        }
      ],
      "orgNm": "CITIGROUP GLOBAL MARKETS INC.",
      "orgPK": "7059",
      "regBeginDt": "2002-08-20T00:00:00",
      "regBeginDtSpecified": true,
      "regEndDt": "2009-02-24T00:00:00",
      "regEndDtSpecified": true
    }
  ],
  "EmpHss": [
    {
      "fromDt": "01/1994",
      "toDt": "02/2009",
      "orgNm": "CITIGROUP GLOBAL MARKETS INC.",
      "city": "FLORHAM PARK",
      "state": 32,
      "stateSpecified": true
    },
    {
      "fromDt": "02/2009",
      "toDt": "05/2010",
      "orgNm": "UNEMPLOYED",
      "city": "MADISON",
      "state": 32,
      "stateSpecified": true
    },
    {
      "fromDt": "05/2010",
      "toDt": "05/2014",
      "orgNm": "MORGAN STANLEY",
      "city": "NEW BRUNSWICK",
      "state": 32,
      "stateSpecified": true
    },
    {
      "fromDt": "05/2014",
      "toDt": "10/2015",
      "orgNm": "MORGAN STANLEY",
      "city": "NEW BRUNSWICK",
      "state": 32,
      "stateSpecified": true
    },
    {
      "fromDt": "10/2015",
      "toDt": null,
      "orgNm": "MORGAN STANLEY",
      "city": "NEW BRUNSWICK",
      "state": 32,
      "stateSpecified": true
    }
  ],
  "OthrBuss": {
    "OthrBus": null
  },
  "DRPs": []
}