{
  "Info": {
    "lastNm": "LUDWICK",
    "firstNm": "ROY",
    "midNm": "CARL",
    "sufNm": null,
    "indvlPK": "1325901",
    "actvAGReg": 1,
    "link": "http://www.adviserinfo.sec.gov/IAPD/Individual/1325901"
  },
  "OthrNms": [],
  "CrntEmps": [
    {
      "CrntRgstns": [
        {
          "regAuth": 5,
          "regCat": 0,
          "st": 2,
          "stDt": "2001-10-16T00:00:00"
        }
      ],
      "BrnchOfLocs": [
        {
          "str1": "3050 BROADWAY",
          "str2": "SUITE 202",
          "city": "BOULDER",
          "state": 5,
          "stateSpecified": true,
          "cntry": "United States",
          "postlCd": "80304"
        }
      ],
      "orgNm": "LUDWICK & SHIRMAN",
      "orgPK": "115069",
      "str1": "3050 BROADWAY",
      "str2": "SUITE 202",
      "city": "BOULDER",
      "state": 5,
      "stateSpecified": true,
      "cntry": "United States",
      "postlCd": "80304"
    }
  ],
  "Exms": [
    {
      "exmCd": 0,
      "exmNm": "Uniform Securities Agent State Law Examination",
      "exmDt": "1989-07-25T00:00:00",
      "exmDtSpecified": true
    },
    {
      "exmCd": 2,
      "exmNm": "Uniform Investment Adviser Law Examination",
      "exmDt": "1998-03-11T00:00:00",
      "exmDtSpecified": true
    }
  ],
  "Dsgntns": [
    {
      "dsgntnNm": "Chartered Financial Consultant"
    }
  ],
  "PrevRgstns": [],
  "EmpHss": [
    {
      "fromDt": "02/1997",
      "toDt": null,
      "orgNm": "LUDWICK & SHIRMAN, LLC",
      "city": "BOULDER",
      "state": 5,
      "stateSpecified": true
    }
  ],
  "OthrBuss": {
    "OthrBus": {
      "desc": "I AM ON THE BOARD OF DIRECTORS FOR COMPOSITE TECHNOLOGY DEVELOPMENT INC.  THIS IS A PRIVATE SMALL BUSINESS IN LAFAYETTE, COLORADO.  IT IS NOT INVESTMENT RELATED.  IT IS A BUSINESS DEVELOPING AND RESEARCHING  COMPOSITE MATERIALS."
    }
  },
  "DRPs": []
}