{
  "Info": {
    "lastNm": "RANDOLPH",
    "firstNm": "SUSAN",
    "midNm": "ELIZABETH",
    "sufNm": null,
    "indvlPK": "1326719",
    "actvAGReg": 0,
    "link": "http://www.adviserinfo.sec.gov/IAPD/Individual/1326719"
  },
  "OthrNms": [
    {
      "lastNm": "LAMPSON",
      "firstNm": "SUSAN",
      "midNm": "E",
      "sufNm": null
    },
    {
      "lastNm": "LAMPSON",
      "firstNm": "SUSAN",
      "midNm": "ELIZABETH",
      "sufNm": null
    }
  ],
  "CrntEmps": [
    {
      "CrntRgstns": [
        {
          "regAuth": 42,
          "regCat": 0,
          "st": 2,
          "stDt": "2005-02-18T00:00:00"
        },
        {
          "regAuth": 45,
          "regCat": 0,
          "st": 3,
          "stDt": "2009-06-19T00:00:00"
        }
      ],
      "BrnchOfLocs": [
        {
          "str1": "17 LOCKWOOD DR",
          "str2": null,
          "city": "CHARLESTON",
          "state": 42,
          "stateSpecified": true,
          "cntry": "United States",
          "postlCd": "29401"
        }
      ],
      "orgNm": "MERRILL LYNCH, PIERCE, FENNER & SMITH INCORPORATED",
      "orgPK": "7691",
      "str1": "ONE BRYANT PARK",
      "str2": null,
      "city": "NEW YORK",
      "state": 35,
      "stateSpecified": true,
      "cntry": "United States",
      "postlCd": "10036"
    }
  ],
  "Exms": [
    {
      "exmCd": 3,
      "exmNm": "Uniform Combined State Law Examination",
      "exmDt": "1999-03-12T00:00:00",
      "exmDtSpecified": true
    }
  ],
  "Dsgntns": [],
  "PrevRgstns": [],
  "EmpHss": [
    {
      "fromDt": "02/1997",
      "toDt": null,
      "orgNm": "MERRILL LYNCH, PIERCE, FENNER & SMITH INCORPORATED",
      "city": "CHARLESTON",
      "state": 42,
      "stateSpecified": true
    }
  ],
  "OthrBuss": {
    "OthrBus": null
  },
  "DRPs": []
}