{
  "Info": {
    "lastNm": "Enright",
    "firstNm": "John",
    "midNm": "Graham",
    "sufNm": null,
    "indvlPK": "1326171",
    "actvAGReg": 0,
    "link": "http://www.adviserinfo.sec.gov/IAPD/Individual/1326171"
  },
  "OthrNms": [],
  "CrntEmps": [
    {
      "CrntRgstns": [
        {
          "regAuth": 15,
          "regCat": 0,
          "st": 2,
          "stDt": "2013-05-21T00:00:00"
        }
      ],
      "BrnchOfLocs": [
        {
          "str1": "104 WEST CHESTNUT",
          "str2": null,
          "city": "HINSDALE",
          "state": 15,
          "stateSpecified": true,
          "cntry": "United States",
          "postlCd": "60521"
        }
      ],
      "orgNm": "EDWARD JONES",
      "orgPK": "250",
      "str1": "12555 MANCHESTER RD",
      "str2": null,
      "city": "ST. LOUIS",
      "state": 25,
      "stateSpecified": true,
      "cntry": "United States",
      "postlCd": "63131"
    }
  ],
  "Exms": [
    {
      "exmCd": 0,
      "exmNm": "Uniform Securities Agent State Law Examination",
      "exmDt": "1986-05-08T00:00:00",
      "exmDtSpecified": true
    },
    {
      "exmCd": 2,
      "exmNm": "Uniform Investment Adviser Law Examination",
      "exmDt": "1994-03-24T00:00:00",
      "exmDtSpecified": true
    },
    {
      "exmCd": 3,
      "exmNm": "Uniform Combined State Law Examination",
      "exmDt": "2013-07-12T00:00:00",
      "exmDtSpecified": true
    }
  ],
  "Dsgntns": [],
  "PrevRgstns": [
    {
      "BrnchOfLocs": [
        {
          "city": "FORT LAUDERDALE",
          "state": 9,
          "stateSpecified": true
        },
        {
          "city": "MINNEAPOLIS",
          "state": 24,
          "stateSpecified": true
        },
        {
          "city": "OAKBROOK TERRACE",
          "state": 15,
          "stateSpecified": true
        },
        {
          "city": "PHOENIX",
          "state": 3,
          "stateSpecified": true
        }
      ],
      "orgNm": "RBC CAPITAL MARKETS, LLC",
      "orgPK": "31194",
      "regBeginDt": "2002-09-24T00:00:00",
      "regBeginDtSpecified": true,
      "regEndDt": "2011-01-13T00:00:00",
      "regEndDtSpecified": true
    },
    {
      "BrnchOfLocs": [
        {
          "city": "CHICAGO",
          "state": 15,
          "stateSpecified": true
        }
      ],
      "orgNm": "RMB CAPITAL MANAGEMENT",
      "orgPK": "134249",
      "regBeginDt": "2011-05-05T00:00:00",
      "regBeginDtSpecified": true,
      "regEndDt": "2013-04-18T00:00:00",
      "regEndDtSpecified": true
    }
  ],
  "EmpHss": [
    {
      "fromDt": "09/2002",
      "toDt": "03/2008",
      "orgNm": "RBC DAIN RAUSCHER INC.",
      "city": "VERNON HILLS",
      "state": 15,
      "stateSpecified": true
    },
    {
      "fromDt": "03/2008",
      "toDt": "01/2011",
      "orgNm": "RBC CAPITAL MARKETS, LLC",
      "city": "PLANTATION",
      "state": 15,
      "stateSpecified": true
    },
    {
      "fromDt": "04/2011",
      "toDt": "05/2013",
      "orgNm": "RMB CAPITAL MANAGEMENT",
      "city": "CHICAGO",
      "state": 15,
      "stateSpecified": true
    },
    {
      "fromDt": "05/2013",
      "toDt": null,
      "orgNm": "EDWARD JONES",
      "city": "ST. LOUIS",
      "state": 25,
      "stateSpecified": true
    }
  ],
  "OthrBuss": {
    "OthrBus": {
      "desc": "\"COLLEGE OF DUPAGE  GLEN ELLYN, IL  START DATE: 11/4/2013  COMMITTE MEMBER  HOURS PER MONTH: 0  HOURS DURING TRADING: 0  MEMBER OF  THE COLLEGE OF DUPAGE PLANNED GIVING COMMITTEE\""
    }
  },
  "DRPs": [
    {
      "hasRegAction": 1,
      "hasRegActionSpecified": true,
      "hasCriminal": 1,
      "hasCriminalSpecified": true,
      "hasBankrupt": 1,
      "hasBankruptSpecified": true,
      "hasCivilJudc": 1,
      "hasCivilJudcSpecified": true,
      "hasBond": 1,
      "hasBondSpecified": true,
      "hasJudgment": 1,
      "hasJudgmentSpecified": true,
      "hasInvstgn": 1,
      "hasInvstgnSpecified": true,
      "hasCustComp": 0,
      "hasCustCompSpecified": true,
      "hasTermination": 1,
      "hasTerminationSpecified": true
    }
  ]
}