{
  "Info": {
    "lastNm": "NELSON",
    "firstNm": "LEONARD",
    "midNm": "LEE",
    "sufNm": null,
    "indvlPK": "1336235",
    "actvAGReg": 0,
    "link": "http://www.adviserinfo.sec.gov/IAPD/Individual/1336235"
  },
  "OthrNms": [],
  "CrntEmps": [
    {
      "CrntRgstns": [
        {
          "regAuth": 38,
          "regCat": 0,
          "st": 2,
          "stDt": "2005-11-07T00:00:00"
        },
        {
          "regAuth": 49,
          "regCat": 0,
          "st": 2,
          "stDt": "2005-11-07T00:00:00"
        },
        {
          "regAuth": 3,
          "regCat": 0,
          "st": 2,
          "stDt": "2015-01-21T00:00:00"
        }
      ],
      "BrnchOfLocs": [
        {
          "str1": "5901 SW MACADAM AVE",
          "str2": "SUITE 135",
          "city": "PORTLAND",
          "state": 38,
          "stateSpecified": true,
          "cntry": "United States",
          "postlCd": "97239"
        }
      ],
      "orgNm": "KMS FINANCIAL SERVICES, INC.",
      "orgPK": "3866",
      "str1": "2001 SIXTH AVE STE 2801",
      "str2": null,
      "city": "SEATTLE",
      "state": 49,
      "stateSpecified": true,
      "cntry": "United States",
      "postlCd": "98121"
    }
  ],
  "Exms": [
    {
      "exmCd": 0,
      "exmNm": "Uniform Securities Agent State Law Examination",
      "exmDt": "1985-02-13T00:00:00",
      "exmDtSpecified": true
    },
    {
      "exmCd": 2,
      "exmNm": "Uniform Investment Adviser Law Examination",
      "exmDt": "1999-04-12T00:00:00",
      "exmDtSpecified": true
    }
  ],
  "Dsgntns": [
    {
      "dsgntnNm": "Certified Financial Planner"
    }
  ],
  "PrevRgstns": [],
  "EmpHss": [
    {
      "fromDt": "11/2005",
      "toDt": null,
      "orgNm": "KMS FINANCIAL SERVICES, INC",
      "city": "SEATTLE",
      "state": 49,
      "stateSpecified": true
    }
  ],
  "OthrBuss": {
    "OthrBus": {
      "desc": "TRAFALGAR CAPITAL MANAGEMENT INC - NOT INVESTMENT RELATED - 5901 SW MACADAM AVE SUITE 135 PORTLAND OR 97239 - CORP USED TO REPORT INCOME RECV'D ON 1099 - NO INVESTMENT ADVICE GIVEN OR CLIENTS THROUGH THIS CORP - 2006"
    }
  },
  "DRPs": []
}