{
  "Info": {
    "lastNm": "MILLER",
    "firstNm": "ERIC",
    "midNm": "BRUCE",
    "sufNm": null,
    "indvlPK": "1340803",
    "actvAGReg": 0,
    "link": "http://www.adviserinfo.sec.gov/IAPD/Individual/1340803"
  },
  "OthrNms": [],
  "CrntEmps": [
    {
      "CrntRgstns": [
        {
          "regAuth": 4,
          "regCat": 0,
          "st": 2,
          "stDt": "2015-11-16T00:00:00"
        },
        {
          "regAuth": 45,
          "regCat": 0,
          "st": 2,
          "stDt": "2015-11-16T00:00:00"
        }
      ],
      "BrnchOfLocs": [
        {
          "str1": "2000 AVENUE OF THE STARS",
          "str2": null,
          "city": "LOS ANGELES",
          "state": 4,
          "stateSpecified": true,
          "cntry": "United States",
          "postlCd": "90067"
        }
      ],
      "orgNm": "UBS FINANCIAL SERVICES INC.",
      "orgPK": "8174",
      "str1": "1200 HARBOR BOULEVARD",
      "str2": null,
      "city": "WEEHAWKEN",
      "state": 32,
      "stateSpecified": true,
      "cntry": "United States",
      "postlCd": "07086"
    }
  ],
  "Exms": [
    {
      "exmCd": 0,
      "exmNm": "Uniform Securities Agent State Law Examination",
      "exmDt": "1985-11-19T00:00:00",
      "exmDtSpecified": true
    },
    {
      "exmCd": 2,
      "exmNm": "Uniform Investment Adviser Law Examination",
      "exmDt": "1992-02-10T00:00:00",
      "exmDtSpecified": true
    }
  ],
  "Dsgntns": [],
  "PrevRgstns": [
    {
      "BrnchOfLocs": [
        {
          "city": "LOS ANGELES",
          "state": 4,
          "stateSpecified": true
        },
        {
          "city": "LOS ANGELES",
          "state": 4,
          "stateSpecified": true
        },
        {
          "city": "NEW YORK",
          "state": 35,
          "stateSpecified": true
        }
      ],
      "orgNm": "LEHMAN BROTHERS INC.",
      "orgPK": "7506",
      "regBeginDt": "2000-01-11T00:00:00",
      "regBeginDtSpecified": true,
      "regEndDt": "2008-09-24T00:00:00",
      "regEndDtSpecified": true
    },
    {
      "BrnchOfLocs": [
        {
          "city": "LOS ANGELES",
          "state": 4,
          "stateSpecified": true
        }
      ],
      "orgNm": "CREDIT SUISSE SECURITIES (USA) LLC",
      "orgPK": "816",
      "regBeginDt": "2008-09-19T00:00:00",
      "regBeginDtSpecified": true,
      "regEndDt": "2015-12-16T00:00:00",
      "regEndDtSpecified": true
    }
  ],
  "EmpHss": [
    {
      "fromDt": "11/1999",
      "toDt": "09/2008",
      "orgNm": "LEHMAN BROTHERS",
      "city": "LOS ANGELES",
      "state": 4,
      "stateSpecified": true
    },
    {
      "fromDt": "09/2008",
      "toDt": "11/2015",
      "orgNm": "CREDIT SUISSE SECURITIES (USA) LLC",
      "city": "LOS ANGELES",
      "state": 4,
      "stateSpecified": true
    },
    {
      "fromDt": "06/2014",
      "toDt": "11/2015",
      "orgNm": "CREDIT SUISSE LENDING LLC",
      "city": "LOS ANGELES",
      "state": 4,
      "stateSpecified": true
    },
    {
      "fromDt": "11/2015",
      "toDt": null,
      "orgNm": "UBS FINANCIAL SERVICES INC",
      "city": "LOS ANGELES",
      "state": 4,
      "stateSpecified": true
    }
  ],
  "OthrBuss": {
    "OthrBus": null
  },
  "DRPs": []
}