{
  "Info": {
    "lastNm": "LANSING",
    "firstNm": "JOHN",
    "midNm": "EDWARD",
    "sufNm": null,
    "indvlPK": "1341962",
    "actvAGReg": 0,
    "link": "http://www.adviserinfo.sec.gov/IAPD/Individual/1341962"
  },
  "OthrNms": [
    {
      "lastNm": "LANSING",
      "firstNm": "JACK",
      "midNm": null,
      "sufNm": null
    },
    {
      "lastNm": "LANSING",
      "firstNm": "JOHN",
      "midNm": "EDWARD",
      "sufNm": null
    },
    {
      "lastNm": "LANSING",
      "firstNm": "JOHN EDWARD",
      "midNm": "EDWARD",
      "sufNm": null
    }
  ],
  "CrntEmps": [
    {
      "CrntRgstns": [
        {
          "regAuth": 9,
          "regCat": 0,
          "st": 2,
          "stDt": "2011-10-31T00:00:00"
        },
        {
          "regAuth": 45,
          "regCat": 0,
          "st": 3,
          "stDt": "2011-11-03T00:00:00"
        }
      ],
      "BrnchOfLocs": [
        {
          "str1": "440 ROYAL PALM WAY",
          "str2": "3RD FLOOR",
          "city": "PALM BEACH",
          "state": 9,
          "stateSpecified": true,
          "cntry": "United States",
          "postlCd": "33480"
        }
      ],
      "orgNm": "UBS FINANCIAL SERVICES INC.",
      "orgPK": "8174",
      "str1": "1200 HARBOR BOULEVARD",
      "str2": null,
      "city": "WEEHAWKEN",
      "state": 32,
      "stateSpecified": true,
      "cntry": "United States",
      "postlCd": "07086"
    }
  ],
  "Exms": [
    {
      "exmCd": 0,
      "exmNm": "Uniform Securities Agent State Law Examination",
      "exmDt": "1985-04-09T00:00:00",
      "exmDtSpecified": true
    },
    {
      "exmCd": 2,
      "exmNm": "Uniform Investment Adviser Law Examination",
      "exmDt": "1997-04-03T00:00:00",
      "exmDtSpecified": true
    }
  ],
  "Dsgntns": [],
  "PrevRgstns": [
    {
      "BrnchOfLocs": [
        {
          "city": "WEST PALM BEACH",
          "state": 9,
          "stateSpecified": true
        },
        {
          "city": "WEST PALM BEACH",
          "state": 9,
          "stateSpecified": true
        }
      ],
      "orgNm": "MERRILL LYNCH, PIERCE, FENNER & SMITH INCORPORATED",
      "orgPK": "7691",
      "regBeginDt": "1985-04-12T00:00:00",
      "regBeginDtSpecified": true,
      "regEndDt": "2011-10-28T00:00:00",
      "regEndDtSpecified": true
    }
  ],
  "EmpHss": [
    {
      "fromDt": "01/1985",
      "toDt": "12/2009",
      "orgNm": "MERRILL LYNCH, PIERCE, FENNER & SMITH INCORPORATED",
      "city": "PALM BEACH",
      "state": 9,
      "stateSpecified": true
    },
    {
      "fromDt": "12/2009",
      "toDt": "10/2011",
      "orgNm": "BANK OF AMERICA,NA",
      "city": "WEST PALM BEACH",
      "state": 9,
      "stateSpecified": true
    },
    {
      "fromDt": "10/2011",
      "toDt": null,
      "orgNm": "UBS FINANCIAL SERVICES INC",
      "city": "PALM BEACH",
      "state": 9,
      "stateSpecified": true
    }
  ],
  "OthrBuss": {
    "OthrBus": {
      "desc": "NAME: ADELAIDE G. WALDRON TRUST  INVESTMENT RELATED: (YES OR NO)  YES    ADDRESS:  1170 BREAKERS WEST BLVD., WEST PALM BEACH, FL,  33411    NATURE:  LIFE INSURANCE TRUST    YOUR POSITION, TITLE, ASSOCIATION:  TRUSTEE    START DATE:  03/03/06    NUMBER OF HOURS DEVOTED PER MONTH:  10    NUMBER OF HOURS DEVOTED DURING SECURITIES TRADING HOURS:  2 PER MONTH   DUTIES:  TRUSTEE  2) St George Center / 21 West 22nd Street Riviera,FL 33404 / Other/ Charities, Cultural, Educational & Political Organisations  / Soup Kitchen / Officer /  / President of Board of Directors / Start Date Soup Kitchen 1/1/15 /"
    }
  },
  "DRPs": [
    {
      "hasRegAction": 1,
      "hasRegActionSpecified": true,
      "hasCriminal": 1,
      "hasCriminalSpecified": true,
      "hasBankrupt": 1,
      "hasBankruptSpecified": true,
      "hasCivilJudc": 1,
      "hasCivilJudcSpecified": true,
      "hasBond": 1,
      "hasBondSpecified": true,
      "hasJudgment": 1,
      "hasJudgmentSpecified": true,
      "hasInvstgn": 1,
      "hasInvstgnSpecified": true,
      "hasCustComp": 0,
      "hasCustCompSpecified": true,
      "hasTermination": 1,
      "hasTerminationSpecified": true
    }
  ]
}