{
  "Info": {
    "lastNm": "PARKS",
    "firstNm": "TOMAS",
    "midNm": "HARRY",
    "sufNm": null,
    "indvlPK": "1347802",
    "actvAGReg": 0,
    "link": "http://www.adviserinfo.sec.gov/IAPD/Individual/1347802"
  },
  "OthrNms": [
    {
      "lastNm": "PARKS",
      "firstNm": "THOMAS",
      "midNm": "HARRY",
      "sufNm": null
    },
    {
      "lastNm": "PARKS",
      "firstNm": "TOM",
      "midNm": null,
      "sufNm": null
    }
  ],
  "CrntEmps": [
    {
      "CrntRgstns": [
        {
          "regAuth": 9,
          "regCat": 0,
          "st": 2,
          "stDt": "2011-10-27T00:00:00"
        }
      ],
      "BrnchOfLocs": [
        {
          "str1": "600 N WESTSHORE BLVD",
          "str2": "SUITE 200",
          "city": "TAMPA",
          "state": 9,
          "stateSpecified": true,
          "cntry": "United States",
          "postlCd": "33609"
        }
      ],
      "orgNm": "HORNOR, TOWNSEND & KENT, INC.",
      "orgPK": "4031",
      "str1": "600 DRESHER RD",
      "str2": "STE C1C",
      "city": "HORSHAM",
      "state": 39,
      "stateSpecified": true,
      "cntry": "United States",
      "postlCd": "19044"
    }
  ],
  "Exms": [
    {
      "exmCd": 0,
      "exmNm": "Uniform Securities Agent State Law Examination",
      "exmDt": "2011-03-31T00:00:00",
      "exmDtSpecified": true
    }
  ],
  "Dsgntns": [
    {
      "dsgntnNm": "Chartered Financial Consultant"
    }
  ],
  "PrevRgstns": [],
  "EmpHss": [
    {
      "fromDt": "07/2003",
      "toDt": "06/2009",
      "orgNm": "MT VERNON NAZARENE UNIVERSITY",
      "city": "MT VERNON",
      "state": 36,
      "stateSpecified": true
    },
    {
      "fromDt": "06/2009",
      "toDt": "06/2010",
      "orgNm": "FRANKLIN UNIVERSITY",
      "city": "COLUMBUS",
      "state": 36,
      "stateSpecified": true
    },
    {
      "fromDt": "07/2010",
      "toDt": "09/2010",
      "orgNm": "SELF EMPLOYED",
      "city": "SUNBURY",
      "state": 36,
      "stateSpecified": true
    },
    {
      "fromDt": "09/2010",
      "toDt": null,
      "orgNm": "HORNOR TOWNSEND & KENT INC",
      "city": "HORSHAM",
      "state": 39,
      "stateSpecified": true
    },
    {
      "fromDt": "09/2010",
      "toDt": null,
      "orgNm": "PENN MUTUAL LIFE INSURANCE CO",
      "city": "HORSHAM",
      "state": 39,
      "stateSpecified": true
    }
  ],
  "OthrBuss": {
    "OthrBus": {
      "desc": "1)21ST CENTURY FINANCIAL, INVESTMENT-RELATED, 600 N. WESTSHORE BLVD., STE. 200 TAMPA, FL 33609, INSURANCE SALES FOR MULTIPLE CARRIERS INCLUDING PENN MUTUAL LIFE INSURANCE COMPANY, SENIOR VP BUSINESS DEVELOPMENT, START DATE: 09/01/2010, APPROX. NUMBER OF HOURS/MONTH: 172, APPROX. NUMBER OF HOURS/ MONTH DEVOTED DURING SECURITIES TRADING HOURS: 172, DUTIES: SALE OF LIFE, DISABILITY, MEDICAL, LTC AND ANNUITY INSURANCE PRODUCTS.    2)ADJUNCT TEACHING - NO DBA USED, NOT INVESTMENT-RELATED, 4800 S. WESTSHORE BLVD., #515, TAMPA, FL 33611, TEACHING ADJUNCT COURSES ONLINE OCCASIONALLY FOR COLLEGES AND UNIVERSITIES, EMPLOYEE, START DATE: JUNE 2012, APPROXIMATE NUMBER OF HOURS/MONTH: LESS THAN 10, APPROXIMATE NUMBER OF HOURS/MONTH DEVOTED TO THIS ACTIVITY DURING SECURITIES TRADING HOURS: LESS THAN 10, DUTIES: TEACHING VARIOUS CLASSES IN AREAS RELATED TO MY DOCTORATE.    3) TRUSTEE - DBA: PARKS FAMILY FOUNDATION, INVESTMENT RELATED, 600 N. WESTSHORE BLVD., STE. 200, TAMPA, FL  33609, CHARITABLE FOUNDATION, TRUSTEE, START DATE: OCTOBER 2011, APPROXIMATE NUMBER OF HOURS/MONTH: LESS THAN 10, APPROXIMATE NUMBER OF HOURS/MONTH DEVOTED TO THIS ACTIVITY DURING SECURITIES TRADING HOURS: LESS THAN 10, DUTIES: RECEIVE CHARITABLE CONTRIBUTIONS FROM TIME TO TIME FROM IMMEDIATE FAMILY MEMBERS AND DISTRIBUTE TO DESERVING CHARITABLE ORGANIZATIONS SELECTED BY THE FAMILY."
    }
  },
  "DRPs": []
}