{
  "Info": {
    "lastNm": "PESCHL",
    "firstNm": "TERRY",
    "midNm": "FREDRICK",
    "sufNm": null,
    "indvlPK": "1357058",
    "actvAGReg": 1,
    "link": "http://www.adviserinfo.sec.gov/IAPD/Individual/1357058"
  },
  "OthrNms": [
    {
      "lastNm": "PESCHL",
      "firstNm": "TERRENCE",
      "midNm": null,
      "sufNm": null
    }
  ],
  "CrntEmps": [
    {
      "CrntRgstns": [
        {
          "regAuth": 43,
          "regCat": 0,
          "st": 2,
          "stDt": "1989-01-25T00:00:00"
        },
        {
          "regAuth": 45,
          "regCat": 0,
          "st": 2,
          "stDt": "2011-06-07T00:00:00"
        }
      ],
      "BrnchOfLocs": [
        {
          "str1": "719 WEST KEMP",
          "str2": "P.O. BOX 487",
          "city": "WATERTOWN",
          "state": 43,
          "stateSpecified": true,
          "cntry": "United States",
          "postlCd": "57201-0487"
        }
      ],
      "orgNm": "TERRY PESCHL & ASSOCIATES, INC.",
      "orgPK": "117524",
      "str1": "719 WEST KEMP AVENUE",
      "str2": null,
      "city": "WATERTOWN",
      "state": 43,
      "stateSpecified": true,
      "cntry": "United States",
      "postlCd": "57201-0487"
    }
  ],
  "Exms": [
    {
      "exmCd": 0,
      "exmNm": "Uniform Securities Agent State Law Examination",
      "exmDt": "1986-02-17T00:00:00",
      "exmDtSpecified": true
    },
    {
      "exmCd": 2,
      "exmNm": "Uniform Investment Adviser Law Examination",
      "exmDt": "1997-05-31T00:00:00",
      "exmDtSpecified": true
    }
  ],
  "Dsgntns": [],
  "PrevRgstns": [
    {
      "BrnchOfLocs": [
        {
          "city": "WATERTOWN",
          "state": 43,
          "stateSpecified": true
        }
      ],
      "orgNm": "SPC",
      "orgPK": "110692",
      "regBeginDt": "2002-10-15T00:00:00",
      "regBeginDtSpecified": true,
      "regEndDt": "2009-12-31T00:00:00",
      "regEndDtSpecified": true
    },
    {
      "BrnchOfLocs": [
        {
          "city": "ANN ARBOR",
          "state": 23,
          "stateSpecified": true
        },
        {
          "city": "WATERTOWN",
          "state": 43,
          "stateSpecified": true
        }
      ],
      "orgNm": "SPC",
      "orgPK": "110692",
      "regBeginDt": "2013-01-10T00:00:00",
      "regBeginDtSpecified": true,
      "regEndDt": "2013-07-12T00:00:00",
      "regEndDtSpecified": true
    }
  ],
  "EmpHss": [
    {
      "fromDt": "05/1973",
      "toDt": null,
      "orgNm": "TERRY PESCHL & ASSOCIATES, INC.",
      "city": "WATERTOWN",
      "state": 43,
      "stateSpecified": true
    },
    {
      "fromDt": "02/1983",
      "toDt": null,
      "orgNm": "TERRY PESCHL RENTAL",
      "city": "WATERTOWN",
      "state": 43,
      "stateSpecified": true
    },
    {
      "fromDt": "02/2002",
      "toDt": null,
      "orgNm": "SAMMONS SECURITIES COMPANY, LLC",
      "city": "ANN ARBOR",
      "state": 23,
      "stateSpecified": true
    },
    {
      "fromDt": "10/2002",
      "toDt": "12/2009",
      "orgNm": "SIGMA PLANNING CORPORATION",
      "city": "ANN ARBOR",
      "state": 23,
      "stateSpecified": true
    },
    {
      "fromDt": "01/2013",
      "toDt": null,
      "orgNm": "SPC",
      "city": "ANN ARBOR",
      "state": 23,
      "stateSpecified": true
    }
  ],
  "OthrBuss": {
    "OthrBus": {
      "desc": "TERRY PESCHL & ASSOCIATES, INC.  INVESTMENT RELATED  719 WEST KEMP AVE., WATERTOWN, SD 57201  PRESIDENT OF STATE REGISTERED RIA SINCE 1973. APPROXIMATELY 20-25  HOURS PER WEEK PROVIDING FINANCIAL PLANNING SERVICES  NON-INVESTMENT RELATED  TERRY PESCHL RENTAL  719 WEST KEMP AVE., WATERTOWN, SD 57201  RENTAL PROPERTIES, OWNER SINCE 1983, APPROXIMATELY 1 HOUR A WEEK.  INSURANCE AGENT WITH VARIOUS TRADITIONAL COMPANIES SINCE 1973  TREASURER FOR SUMMERWOOD CONDO ASSOCIATION"
    }
  },
  "DRPs": []
}