{
  "Info": {
    "lastNm": "MCGUIRE",
    "firstNm": "SHANNON",
    "midNm": "HARBRECHT",
    "sufNm": null,
    "indvlPK": "1360436",
    "actvAGReg": 0,
    "link": "http://www.adviserinfo.sec.gov/IAPD/Individual/1360436"
  },
  "OthrNms": [
    {
      "lastNm": "MCGUIRE",
      "firstNm": "SHANNON",
      "midNm": null,
      "sufNm": null
    },
    {
      "lastNm": "MCGUIRE",
      "firstNm": "SHANNON",
      "midNm": null,
      "sufNm": null
    },
    {
      "lastNm": "REYNOLDS",
      "firstNm": "SHANNON",
      "midNm": "HARBRECHT",
      "sufNm": null
    }
  ],
  "CrntEmps": [
    {
      "CrntRgstns": [
        {
          "regAuth": 46,
          "regCat": 0,
          "st": 2,
          "stDt": "2012-06-08T00:00:00"
        }
      ],
      "BrnchOfLocs": [
        {
          "str1": "2000 WESTCHESTER AVENUE",
          "str2": null,
          "city": "PURCHASE",
          "state": 35,
          "stateSpecified": true,
          "cntry": "USA",
          "postlCd": "10577-2530"
        },
        {
          "str1": "680 WEST 10000 SOUTH JORDAN VALLEY TECH II",
          "str2": null,
          "city": "SOUTH JORDAN",
          "state": 46,
          "stateSpecified": true,
          "cntry": "United States",
          "postlCd": "84095"
        }
      ],
      "orgNm": "MORGAN STANLEY",
      "orgPK": "149777",
      "str1": "2000 WESTCHESTER AVENUE",
      "str2": null,
      "city": "PURCHASE",
      "state": 35,
      "stateSpecified": true,
      "cntry": "United States",
      "postlCd": "10577-2530"
    }
  ],
  "Exms": [
    {
      "exmCd": 0,
      "exmNm": "Uniform Securities Agent State Law Examination",
      "exmDt": "1992-01-09T00:00:00",
      "exmDtSpecified": true
    },
    {
      "exmCd": 2,
      "exmNm": "Uniform Investment Adviser Law Examination",
      "exmDt": "2012-06-07T00:00:00",
      "exmDtSpecified": true
    }
  ],
  "Dsgntns": [],
  "PrevRgstns": [],
  "EmpHss": [
    {
      "fromDt": "03/2004",
      "toDt": "04/2007",
      "orgNm": "MORGAN STANLEY DW INC.",
      "city": "SALT LAKE CITY",
      "state": 46,
      "stateSpecified": true
    },
    {
      "fromDt": "04/2007",
      "toDt": "05/2009",
      "orgNm": "MORGAN STANLEY & CO., INCORPORATED",
      "city": "SALT LAKE CITY",
      "state": 46,
      "stateSpecified": true
    },
    {
      "fromDt": "06/2009",
      "toDt": "02/2012",
      "orgNm": "MORGAN STANLEY SMITH BARNEY",
      "city": "SALT LAKE CITY",
      "state": 46,
      "stateSpecified": true
    },
    {
      "fromDt": "04/2012",
      "toDt": null,
      "orgNm": "MORGAN STANLEY SMITH BARNEY",
      "city": "SOUTH JORDAN",
      "state": 46,
      "stateSpecified": true
    }
  ],
  "OthrBuss": {
    "OthrBus": null
  },
  "DRPs": []
}