{
  "Info": {
    "lastNm": "THOME",
    "firstNm": "EILEEN",
    "midNm": "M",
    "sufNm": null,
    "indvlPK": "1365942",
    "actvAGReg": 0,
    "link": "http://www.adviserinfo.sec.gov/IAPD/Individual/1365942"
  },
  "OthrNms": [
    {
      "lastNm": "THOME",
      "firstNm": "EILEEN",
      "midNm": "DUCK",
      "sufNm": null
    }
  ],
  "CrntEmps": [
    {
      "CrntRgstns": [
        {
          "regAuth": 36,
          "regCat": 0,
          "st": 2,
          "stDt": "2015-01-30T00:00:00"
        }
      ],
      "BrnchOfLocs": [
        {
          "str1": "800 SHADES CREEK PARKWAY",
          "str2": "SUITE 815",
          "city": "BIRMINGHAM",
          "state": 1,
          "stateSpecified": true,
          "cntry": "United States",
          "postlCd": "35209"
        }
      ],
      "orgNm": "STERNE AGEE INVESTMENT ADVISOR SERVICES, INC.",
      "orgPK": "174182",
      "str1": "2 PERIMETER PARK SOUTH",
      "str2": "SUITE 100 EAST",
      "city": "BIRMINGHAM",
      "state": 1,
      "stateSpecified": true,
      "cntry": "United States",
      "postlCd": "35243"
    }
  ],
  "Exms": [
    {
      "exmCd": 0,
      "exmNm": "Uniform Securities Agent State Law Examination",
      "exmDt": "1986-03-10T00:00:00",
      "exmDtSpecified": true
    }
  ],
  "Dsgntns": [],
  "PrevRgstns": [
    {
      "BrnchOfLocs": [
        {
          "city": "COLUMBUS",
          "state": 36,
          "stateSpecified": true
        },
        {
          "city": "YOUNGSTOWN",
          "state": 36,
          "stateSpecified": true
        },
        {
          "city": "YOUNGSTOWN",
          "state": 36,
          "stateSpecified": true
        }
      ],
      "orgNm": "WRP INVESTMENTS, INC.",
      "orgPK": "7365",
      "regBeginDt": "2000-07-07T00:00:00",
      "regBeginDtSpecified": true,
      "regEndDt": "2015-01-30T00:00:00",
      "regEndDtSpecified": true
    }
  ],
  "EmpHss": [
    {
      "fromDt": "07/1999",
      "toDt": null,
      "orgNm": "WRP INVESTMENTS, INC.",
      "city": "YOUNGSTOWN",
      "state": 36,
      "stateSpecified": true
    },
    {
      "fromDt": "09/2014",
      "toDt": null,
      "orgNm": "STERNE AGEE FINANCIAL SERVICES, INC.",
      "city": "COLUMBUS",
      "state": 36,
      "stateSpecified": true
    },
    {
      "fromDt": "01/2015",
      "toDt": null,
      "orgNm": "STERNE AGEE INVESTMENT ADVISOR SERVICES, INC.",
      "city": "BIRMINGHAM",
      "state": 1,
      "stateSpecified": true
    }
  ],
  "OthrBuss": {
    "OthrBus": {
      "desc": "THOME FINANCIAL SERVICES, 982 CLUBVIEW BLVD N,  COLUMBUS OHIO 43235:  SOLE PROPRIETORSHIP,  NATURE OF BUS:INSURANCE SALES,  TITLE: AGENT,  DUTIES:INS SALES,  TIME SPENT: 5%,  COMPENSATION: COMMISSIONS"
    }
  },
  "DRPs": []
}