{
  "Info": {
    "lastNm": "MAKRIS",
    "firstNm": "GEORGE",
    "midNm": "JOHN",
    "sufNm": null,
    "indvlPK": "1365224",
    "actvAGReg": 0,
    "link": "http://www.adviserinfo.sec.gov/IAPD/Individual/1365224"
  },
  "OthrNms": [],
  "CrntEmps": [
    {
      "CrntRgstns": [
        {
          "regAuth": 36,
          "regCat": 0,
          "st": 2,
          "stDt": "2016-05-13T00:00:00"
        }
      ],
      "BrnchOfLocs": [
        {
          "str1": null,
          "str2": null,
          "city": "CINCINNATI",
          "state": 36,
          "stateSpecified": true,
          "cntry": "United States",
          "postlCd": null
        },
        {
          "str1": "5580 GLENWAY AVENUE",
          "str2": null,
          "city": "CINCINNATI",
          "state": 36,
          "stateSpecified": true,
          "cntry": "United States",
          "postlCd": "45238"
        }
      ],
      "orgNm": "SIGNATOR INVESTORS, INC.",
      "orgPK": "468",
      "str1": "380 STUART STREET",
      "str2": "S-8",
      "city": "BOSTON",
      "state": 20,
      "stateSpecified": true,
      "cntry": "United States",
      "postlCd": "02116"
    }
  ],
  "Exms": [
    {
      "exmCd": 0,
      "exmNm": "Uniform Securities Agent State Law Examination",
      "exmDt": "1994-04-26T00:00:00",
      "exmDtSpecified": true
    },
    {
      "exmCd": 3,
      "exmNm": "Uniform Combined State Law Examination",
      "exmDt": "2008-02-15T00:00:00",
      "exmDtSpecified": true
    }
  ],
  "Dsgntns": [],
  "PrevRgstns": [
    {
      "BrnchOfLocs": [
        {
          "city": "CINCINNATI",
          "state": 36,
          "stateSpecified": true
        },
        {
          "city": "CINCINNATI",
          "state": 36,
          "stateSpecified": true
        },
        {
          "city": "CINCINNATI",
          "state": 36,
          "stateSpecified": true
        },
        {
          "city": "ST. PETERSBURG",
          "state": 9,
          "stateSpecified": true
        },
        {
          "city": "ST. PETERSBURG",
          "state": 9,
          "stateSpecified": true
        }
      ],
      "orgNm": "TRANSAMERICA FINANCIAL ADVISORS, INC",
      "orgPK": "16164",
      "regBeginDt": "1999-08-19T00:00:00",
      "regBeginDtSpecified": true,
      "regEndDt": "2016-05-13T00:00:00",
      "regEndDtSpecified": true
    }
  ],
  "EmpHss": [
    {
      "fromDt": "09/1985",
      "toDt": null,
      "orgNm": "INDEPENDENT INSURANCE AGENT",
      "city": "CINCINNATI",
      "state": 36,
      "stateSpecified": true
    },
    {
      "fromDt": "04/1991",
      "toDt": null,
      "orgNm": "MAKRIS FINANCIAL GROUP",
      "city": "CINCINNATI",
      "state": 36,
      "stateSpecified": true
    },
    {
      "fromDt": "04/1991",
      "toDt": null,
      "orgNm": "TRANSAMERICA FINANCIAL ADVISORS, INC.",
      "city": "CINCINNATI",
      "state": 36,
      "stateSpecified": true
    },
    {
      "fromDt": "05/2016",
      "toDt": null,
      "orgNm": "SIGNATOR INVESTORS, INC.",
      "city": "CINCINNATI",
      "state": 36,
      "stateSpecified": true
    }
  ],
  "OthrBuss": {
    "OthrBus": {
      "desc": "1)SEVERAL LLCS CREATED TO HOLD RENTAL PROPERTY, CINCINNATI, OH, OWNER, NOT INVESTMENT-RELATED, 8/2011, 10-15 HRS/MO, 0 HRS DURING SECURITIES TRADING HOURS 2)BIG VIEW, LLC, MEMBER/OWNER OF VACATION HOME IN OHIO, NOT INV-REL, START 5/2014"
    }
  },
  "DRPs": [
    {
      "hasRegAction": 1,
      "hasRegActionSpecified": true,
      "hasCriminal": 1,
      "hasCriminalSpecified": true,
      "hasBankrupt": 1,
      "hasBankruptSpecified": true,
      "hasCivilJudc": 1,
      "hasCivilJudcSpecified": true,
      "hasBond": 1,
      "hasBondSpecified": true,
      "hasJudgment": 1,
      "hasJudgmentSpecified": true,
      "hasInvstgn": 1,
      "hasInvstgnSpecified": true,
      "hasCustComp": 0,
      "hasCustCompSpecified": true,
      "hasTermination": 1,
      "hasTerminationSpecified": true
    }
  ]
}