{
  "Info": {
    "lastNm": "PERSKY",
    "firstNm": "STEVEN",
    "midNm": "DAVID",
    "sufNm": null,
    "indvlPK": "1368992",
    "actvAGReg": 1,
    "link": "http://www.adviserinfo.sec.gov/IAPD/Individual/1368992"
  },
  "OthrNms": [],
  "CrntEmps": [
    {
      "CrntRgstns": [
        {
          "regAuth": 45,
          "regCat": 0,
          "st": 3,
          "stDt": "2007-05-25T00:00:00"
        },
        {
          "regAuth": 4,
          "regCat": 0,
          "st": 2,
          "stDt": "2007-12-18T00:00:00"
        }
      ],
      "BrnchOfLocs": [
        {
          "str1": "12424 WILSHIRE BLVD.",
          "str2": "SUITE 600",
          "city": "LOS ANGELES",
          "state": 4,
          "stateSpecified": true,
          "cntry": "United States",
          "postlCd": "90025"
        }
      ],
      "orgNm": "DALTON INVESTMENTS LLC",
      "orgPK": "109538",
      "str1": "1601 CLOVERFIELD BOULEVARD",
      "str2": "SUITE 5050 N",
      "city": "SANTA MONICA",
      "state": 4,
      "stateSpecified": true,
      "cntry": "United States",
      "postlCd": "90404"
    }
  ],
  "Exms": [
    {
      "exmCd": 0,
      "exmNm": "Uniform Securities Agent State Law Examination",
      "exmDt": "1992-09-03T00:00:00",
      "exmDtSpecified": true
    },
    {
      "exmCd": 2,
      "exmNm": "Uniform Investment Adviser Law Examination",
      "exmDt": "1993-12-16T00:00:00",
      "exmDtSpecified": true
    }
  ],
  "Dsgntns": [
    {
      "dsgntnNm": "Chartered Financial Analyst"
    }
  ],
  "PrevRgstns": [],
  "EmpHss": [
    {
      "fromDt": "03/1999",
      "toDt": null,
      "orgNm": "DALTON INVESTMENTS LLC",
      "city": "LOS ANGELES",
      "state": 4,
      "stateSpecified": true
    }
  ],
  "OthrBuss": {
    "OthrBus": null
  },
  "DRPs": []
}