{
  "Info": {
    "lastNm": "MODICO",
    "firstNm": "LINDA",
    "midNm": null,
    "sufNm": null,
    "indvlPK": "1372707",
    "actvAGReg": 0,
    "link": "http://www.adviserinfo.sec.gov/IAPD/Individual/1372707"
  },
  "OthrNms": [],
  "CrntEmps": [
    {
      "CrntRgstns": [
        {
          "regAuth": 37,
          "regCat": 0,
          "st": 2,
          "stDt": "1998-07-07T00:00:00"
        },
        {
          "regAuth": 45,
          "regCat": 0,
          "st": 3,
          "stDt": "2006-09-08T00:00:00"
        }
      ],
      "BrnchOfLocs": [
        {
          "str1": "590 MADISON AVE",
          "str2": null,
          "city": "NEW YORK",
          "state": 35,
          "stateSpecified": true,
          "cntry": "United States",
          "postlCd": "10022"
        },
        {
          "str1": "590 MADISON AVENUE",
          "str2": "23RD FLOOR",
          "city": "NEW YORK",
          "state": 35,
          "stateSpecified": true,
          "cntry": "United States",
          "postlCd": "10022"
        }
      ],
      "orgNm": "UBS FINANCIAL SERVICES INC.",
      "orgPK": "8174",
      "str1": "1200 HARBOR BOULEVARD",
      "str2": null,
      "city": "WEEHAWKEN",
      "state": 32,
      "stateSpecified": true,
      "cntry": "United States",
      "postlCd": "07086"
    }
  ],
  "Exms": [
    {
      "exmCd": 0,
      "exmNm": "Uniform Securities Agent State Law Examination",
      "exmDt": "1985-05-31T00:00:00",
      "exmDtSpecified": true
    },
    {
      "exmCd": 2,
      "exmNm": "Uniform Investment Adviser Law Examination",
      "exmDt": "1994-07-15T00:00:00",
      "exmDtSpecified": true
    }
  ],
  "Dsgntns": [],
  "PrevRgstns": [],
  "EmpHss": [
    {
      "fromDt": "02/1996",
      "toDt": null,
      "orgNm": "UBS FINANCIAL SERVICES INC.",
      "city": "NEW YORK",
      "state": 35,
      "stateSpecified": true
    }
  ],
  "OthrBuss": {
    "OthrBus": {
      "desc": "YMCA OG GREATER NY / 5 WEST 63RD STREET NEW YORK,NY 10023 / FOUNDATION/ SPORT & LEISURE FACILITIES  / YOUTH PROGRAMS / DEVELOPMENT COMMITTEE / INPUT ON YOUTH PROGRAMS / START DATE 7/1/2011."
    }
  },
  "DRPs": []
}