{
  "Info": {
    "lastNm": "THOMPSON",
    "firstNm": "CARL",
    "midNm": "LEE",
    "sufNm": null,
    "indvlPK": "1373253",
    "actvAGReg": 0,
    "link": "http://www.adviserinfo.sec.gov/IAPD/Individual/1373253"
  },
  "OthrNms": [
    {
      "lastNm": "THOMPSON",
      "firstNm": "LEE",
      "midNm": null,
      "sufNm": null
    }
  ],
  "CrntEmps": [
    {
      "CrntRgstns": [
        {
          "regAuth": 45,
          "regCat": 0,
          "st": 2,
          "stDt": "2012-04-02T00:00:00"
        }
      ],
      "BrnchOfLocs": [
        {
          "str1": "1120 NASA PARKWAY",
          "str2": "SUITE 210",
          "city": "HOUSTON",
          "state": 45,
          "stateSpecified": true,
          "cntry": "United States",
          "postlCd": "77058"
        }
      ],
      "orgNm": "INDEPENDENT FINANCIAL PARTNERS",
      "orgPK": "125112",
      "str1": "3030 NORTH ROCKY POINT DR. WEST",
      "str2": "SUITE 700",
      "city": "TAMPA",
      "state": 9,
      "stateSpecified": true,
      "cntry": "United States",
      "postlCd": "33607"
    }
  ],
  "Exms": [
    {
      "exmCd": 0,
      "exmNm": "Uniform Securities Agent State Law Examination",
      "exmDt": "1985-06-18T00:00:00",
      "exmDtSpecified": true
    }
  ],
  "Dsgntns": [],
  "PrevRgstns": [
    {
      "BrnchOfLocs": [
        {
          "city": "HOUSTON",
          "state": 45,
          "stateSpecified": true
        },
        {
          "city": "HOUSTON",
          "state": 45,
          "stateSpecified": true
        }
      ],
      "orgNm": "MERRILL LYNCH, PIERCE, FENNER & SMITH INCORPORATED",
      "orgPK": "7691",
      "regBeginDt": "1985-06-25T00:00:00",
      "regBeginDtSpecified": true,
      "regEndDt": "2011-08-26T00:00:00",
      "regEndDtSpecified": true
    }
  ],
  "EmpHss": [
    {
      "fromDt": "03/1985",
      "toDt": "08/2011",
      "orgNm": "MERRILL LYNCH, PIERCE, FENNER & SMITH INCORPORATED",
      "city": "HOUSTON",
      "state": 45,
      "stateSpecified": true
    },
    {
      "fromDt": "09/2009",
      "toDt": "08/2011",
      "orgNm": "BANK OF AMERICA, NA",
      "city": "HOUSTON",
      "state": 45,
      "stateSpecified": true
    },
    {
      "fromDt": "08/2011",
      "toDt": null,
      "orgNm": "LPL FINANCIAL, LLC",
      "city": "SEABROOK",
      "state": 45,
      "stateSpecified": true
    },
    {
      "fromDt": "06/2012",
      "toDt": null,
      "orgNm": "INDEPENDANT FINANCIAL PARTNERS",
      "city": "SEABROOK",
      "state": 45,
      "stateSpecified": true
    }
  ],
  "OthrBuss": {
    "OthrBus": {
      "desc": "1. 9/8/2011: DBA ONLY - THOMPSON WEALTH MANAGEMENT, LLC - SEABROOK, TX.     2. 2/24/2012: DBA ONLY - US INVESTORS, LLC - SEABROOK, TX.      3. 6/15/2012: REGISTERED INVESTMENT ADVISOR - INDEPENDANT FINANCIAL PARTNERS - IAR - (HYBRID) INDEPENDANT FINANCIAL PARTNERS - TIME SPENT 50% - SEABROOK, TX.    4. 2/11/2014: REGISTERED INVESTMENT ADVISOR DBA - INDEPENDANT FINANCIAL PARTNERS - PROVIDE FINANCIAL ADVICE FOR PROFESSIONAL MANAGEMENT. - HYBRID-THOMPSON WEALTH MANAGEMENT, LLC - TIME SPENT 50% - SEABROOK, TX."
    }
  },
  "DRPs": [
    {
      "hasRegAction": 1,
      "hasRegActionSpecified": true,
      "hasCriminal": 0,
      "hasCriminalSpecified": true,
      "hasBankrupt": 0,
      "hasBankruptSpecified": true,
      "hasCivilJudc": 1,
      "hasCivilJudcSpecified": true,
      "hasBond": 1,
      "hasBondSpecified": true,
      "hasJudgment": 1,
      "hasJudgmentSpecified": true,
      "hasInvstgn": 1,
      "hasInvstgnSpecified": true,
      "hasCustComp": 0,
      "hasCustCompSpecified": true,
      "hasTermination": 1,
      "hasTerminationSpecified": true
    }
  ]
}