{
  "Info": {
    "lastNm": "LUNDVALL",
    "firstNm": "MARSHA",
    "midNm": null,
    "sufNm": null,
    "indvlPK": "1377699",
    "actvAGReg": 0,
    "link": "http://www.adviserinfo.sec.gov/IAPD/Individual/1377699"
  },
  "OthrNms": [
    {
      "lastNm": "BALZOTTI",
      "firstNm": "MARSHA",
      "midNm": null,
      "sufNm": null
    }
  ],
  "CrntEmps": [
    {
      "CrntRgstns": [
        {
          "regAuth": 6,
          "regCat": 0,
          "st": 2,
          "stDt": "2015-11-07T00:00:00"
        }
      ],
      "BrnchOfLocs": [
        {
          "str1": "MARITIME CENTER",
          "str2": "545 LONG WHARF DRIVE - 7TH FL.",
          "city": "NEW HAVEN",
          "state": 6,
          "stateSpecified": true,
          "cntry": "United States",
          "postlCd": "06511"
        }
      ],
      "orgNm": "MORGAN STANLEY",
      "orgPK": "149777",
      "str1": "2000 WESTCHESTER AVENUE",
      "str2": null,
      "city": "PURCHASE",
      "state": 35,
      "stateSpecified": true,
      "cntry": "United States",
      "postlCd": "10577-2530"
    }
  ],
  "Exms": [
    {
      "exmCd": 2,
      "exmNm": "Uniform Investment Adviser Law Examination",
      "exmDt": "1998-09-30T00:00:00",
      "exmDtSpecified": true
    },
    {
      "exmCd": 0,
      "exmNm": "Uniform Securities Agent State Law Examination",
      "exmDt": "2015-05-23T00:00:00",
      "exmDtSpecified": true
    },
    {
      "exmCd": 3,
      "exmNm": "Uniform Combined State Law Examination",
      "exmDt": "2015-11-07T00:00:00",
      "exmDtSpecified": true
    }
  ],
  "Dsgntns": [],
  "PrevRgstns": [],
  "EmpHss": [
    {
      "fromDt": "10/2000",
      "toDt": "10/2007",
      "orgNm": "HOME",
      "city": "FAIRFIELD",
      "state": 6,
      "stateSpecified": true
    },
    {
      "fromDt": "10/2007",
      "toDt": "06/2008",
      "orgNm": "FAYE KIM DESIGNS",
      "city": "WESTPORT",
      "state": 6,
      "stateSpecified": true
    },
    {
      "fromDt": "06/2008",
      "toDt": "11/2008",
      "orgNm": "HOME",
      "city": "WESTPORT",
      "state": 6,
      "stateSpecified": true
    },
    {
      "fromDt": "11/2008",
      "toDt": "12/2009",
      "orgNm": "FAYE KIM DESIGNS",
      "city": "WESTPORT",
      "state": 6,
      "stateSpecified": true
    },
    {
      "fromDt": "12/2009",
      "toDt": "01/2010",
      "orgNm": "HOME",
      "city": "FAIRFIELD",
      "state": 6,
      "stateSpecified": true
    },
    {
      "fromDt": "01/2010",
      "toDt": "04/2011",
      "orgNm": "DR. CYNTHIA BARTOLONE, DMD",
      "city": "FAIRFIELD",
      "state": 6,
      "stateSpecified": true
    },
    {
      "fromDt": "04/2011",
      "toDt": "11/2012",
      "orgNm": "HOME",
      "city": "FAIRIFLED",
      "state": 6,
      "stateSpecified": true
    },
    {
      "fromDt": "11/2012",
      "toDt": "06/2013",
      "orgNm": "NORTHWESTERN MUTUAL INSURANCE CO.",
      "city": "FAIRFIELD",
      "state": 6,
      "stateSpecified": true
    },
    {
      "fromDt": "06/2013",
      "toDt": "11/2013",
      "orgNm": "HOME",
      "city": "FAIRFIELD",
      "state": 6,
      "stateSpecified": true
    },
    {
      "fromDt": "11/2013",
      "toDt": "03/2014",
      "orgNm": "NORTHWESTERN MUTUAL INSURANCE CO.",
      "city": "FAIRFIELD",
      "state": 6,
      "stateSpecified": true
    },
    {
      "fromDt": "03/2014",
      "toDt": "04/2014",
      "orgNm": "HOME",
      "city": "FAIRFILED",
      "state": 6,
      "stateSpecified": true
    },
    {
      "fromDt": "04/2014",
      "toDt": "11/2014",
      "orgNm": "MORGAN STANLEY",
      "city": "STAMFORD",
      "state": 6,
      "stateSpecified": true
    },
    {
      "fromDt": "11/2014",
      "toDt": null,
      "orgNm": "Morgan Stanley",
      "city": "New Haven",
      "state": 6,
      "stateSpecified": true
    }
  ],
  "OthrBuss": {
    "OthrBus": null
  },
  "DRPs": []
}