{
  "Info": {
    "lastNm": "BROERMAN",
    "firstNm": "GREGORY",
    "midNm": "DEAN",
    "sufNm": null,
    "indvlPK": "1379905",
    "actvAGReg": 0,
    "link": "http://www.adviserinfo.sec.gov/IAPD/Individual/1379905"
  },
  "OthrNms": [
    {
      "lastNm": "BROERMAN",
      "firstNm": "GREG",
      "midNm": null,
      "sufNm": null
    }
  ],
  "CrntEmps": [
    {
      "CrntRgstns": [
        {
          "regAuth": 50,
          "regCat": 0,
          "st": 2,
          "stDt": "1996-03-06T00:00:00"
        },
        {
          "regAuth": 15,
          "regCat": 0,
          "st": 2,
          "stDt": "1998-08-31T00:00:00"
        },
        {
          "regAuth": 45,
          "regCat": 0,
          "st": 3,
          "stDt": "2015-02-04T00:00:00"
        },
        {
          "regAuth": 9,
          "regCat": 0,
          "st": 2,
          "stDt": "2015-03-05T00:00:00"
        },
        {
          "regAuth": 3,
          "regCat": 0,
          "st": 2,
          "stDt": "2015-05-13T00:00:00"
        }
      ],
      "BrnchOfLocs": [
        {
          "str1": "3131 E. CAMELBACK RD.",
          "str2": "SUITE 100",
          "city": "PHOENIX",
          "state": 3,
          "stateSpecified": true,
          "cntry": "United States",
          "postlCd": "85016"
        },
        {
          "str1": "3928 60TH ST",
          "str2": null,
          "city": "KENOSHA",
          "state": 50,
          "stateSpecified": true,
          "cntry": "United States",
          "postlCd": "53144"
        }
      ],
      "orgNm": "INVEST FINANCIAL CORPORATION",
      "orgPK": "12984",
      "str1": "12750 CITRUS PARK LANE",
      "str2": "SUITE 300",
      "city": "TAMPA",
      "state": 9,
      "stateSpecified": true,
      "cntry": "United States",
      "postlCd": "33625"
    }
  ],
  "Exms": [
    {
      "exmCd": 0,
      "exmNm": "Uniform Securities Agent State Law Examination",
      "exmDt": "1985-07-23T00:00:00",
      "exmDtSpecified": true
    },
    {
      "exmCd": 2,
      "exmNm": "Uniform Investment Adviser Law Examination",
      "exmDt": "1998-07-01T00:00:00",
      "exmDtSpecified": true
    }
  ],
  "Dsgntns": [],
  "PrevRgstns": [],
  "EmpHss": [
    {
      "fromDt": "08/1987",
      "toDt": null,
      "orgNm": "INVEST Financial Corp.",
      "city": "Tampa",
      "state": 9,
      "stateSpecified": true
    },
    {
      "fromDt": "08/2004",
      "toDt": null,
      "orgNm": "JOHNSON BANK",
      "city": "KENOSHA",
      "state": 50,
      "stateSpecified": true
    }
  ],
  "OthrBuss": {
    "OthrBus": {
      "desc": "JOHNSON INSURANCE, LLC.  INVESTMENT RELATED. 3928 60TH ST, KENOSHA, WI. LTC, DISABILITY, LIFE INS. AGENT. START 01/01/05. 2 HPM DURING TRADING."
    }
  },
  "DRPs": [
    {
      "hasRegAction": 1,
      "hasRegActionSpecified": true,
      "hasCriminal": 1,
      "hasCriminalSpecified": true,
      "hasBankrupt": 1,
      "hasBankruptSpecified": true,
      "hasCivilJudc": 1,
      "hasCivilJudcSpecified": true,
      "hasBond": 1,
      "hasBondSpecified": true,
      "hasJudgment": 1,
      "hasJudgmentSpecified": true,
      "hasInvstgn": 1,
      "hasInvstgnSpecified": true,
      "hasCustComp": 0,
      "hasCustCompSpecified": true,
      "hasTermination": 1,
      "hasTerminationSpecified": true
    }
  ]
}