{
  "Info": {
    "lastNm": "BARLOW",
    "firstNm": "DREW",
    "midNm": "DONALD",
    "sufNm": null,
    "indvlPK": "1379248",
    "actvAGReg": 0,
    "link": "http://www.adviserinfo.sec.gov/IAPD/Individual/1379248"
  },
  "OthrNms": [
    {
      "lastNm": "BARLOW",
      "firstNm": "DREW",
      "midNm": "D",
      "sufNm": null
    }
  ],
  "CrntEmps": [
    {
      "CrntRgstns": [
        {
          "regAuth": 45,
          "regCat": 0,
          "st": 3,
          "stDt": "2015-09-30T00:00:00"
        },
        {
          "regAuth": 39,
          "regCat": 0,
          "st": 2,
          "stDt": "2015-10-01T00:00:00"
        }
      ],
      "BrnchOfLocs": [
        {
          "str1": "411 SOUTH STATE ST.",
          "str2": null,
          "city": "NEWTOWN",
          "state": 39,
          "stateSpecified": true,
          "cntry": "United States",
          "postlCd": "18940"
        }
      ],
      "orgNm": "UBS FINANCIAL SERVICES INC.",
      "orgPK": "8174",
      "str1": "1200 HARBOR BOULEVARD",
      "str2": null,
      "city": "WEEHAWKEN",
      "state": 32,
      "stateSpecified": true,
      "cntry": "United States",
      "postlCd": "07086"
    }
  ],
  "Exms": [
    {
      "exmCd": 0,
      "exmNm": "Uniform Securities Agent State Law Examination",
      "exmDt": "1985-08-07T00:00:00",
      "exmDtSpecified": true
    },
    {
      "exmCd": 2,
      "exmNm": "Uniform Investment Adviser Law Examination",
      "exmDt": "1992-12-02T00:00:00",
      "exmDtSpecified": true
    }
  ],
  "Dsgntns": [],
  "PrevRgstns": [
    {
      "BrnchOfLocs": [
        {
          "city": "DOYLESTOWN",
          "state": 39,
          "stateSpecified": true
        }
      ],
      "orgNm": "MORGAN STANLEY & CO. LLC",
      "orgPK": "8209",
      "regBeginDt": "2009-04-17T00:00:00",
      "regBeginDtSpecified": true,
      "regEndDt": "2009-06-01T00:00:00",
      "regEndDtSpecified": true
    },
    {
      "BrnchOfLocs": [
        {
          "city": "DOYLESTOWN",
          "state": 39,
          "stateSpecified": true
        }
      ],
      "orgNm": "MORGAN STANLEY",
      "orgPK": "149777",
      "regBeginDt": "2009-06-01T00:00:00",
      "regBeginDtSpecified": true,
      "regEndDt": "2015-10-06T00:00:00",
      "regEndDtSpecified": true
    }
  ],
  "EmpHss": [
    {
      "fromDt": "07/2003",
      "toDt": "01/2009",
      "orgNm": "WACHOVIA SECURITIES LLC",
      "city": "JENKINTOWN",
      "state": 39,
      "stateSpecified": true
    },
    {
      "fromDt": "01/2009",
      "toDt": "06/2009",
      "orgNm": "MORGAN STANLEY & CO. INCORPORATED",
      "city": "DOYLESTOWN",
      "state": 39,
      "stateSpecified": true
    },
    {
      "fromDt": "06/2009",
      "toDt": "01/2015",
      "orgNm": "MORGAN STANLEY SMITH BARNEY",
      "city": "DOYLESTOWN",
      "state": 39,
      "stateSpecified": true
    },
    {
      "fromDt": "01/2015",
      "toDt": "09/2015",
      "orgNm": "MORGAN STANLEY PRIVATE BANK, NATIONAL ASSOCIATION",
      "city": "NEW YORK",
      "state": 35,
      "stateSpecified": true
    },
    {
      "fromDt": "09/2015",
      "toDt": null,
      "orgNm": "UBS FINANCIAL SERVICES INC.",
      "city": "NEWTOWN",
      "state": 39,
      "stateSpecified": true
    }
  ],
  "OthrBuss": {
    "OthrBus": {
      "desc": "Knowledge Transfer Partners Inc / 4057 Landisville Rd Doylestown,PA 18902 / Company/ Information Technology  / Website Design / Officer /  / signing tax returns / Start Date 7/1/99  /"
    }
  },
  "DRPs": [
    {
      "hasRegAction": 1,
      "hasRegActionSpecified": true,
      "hasCriminal": 1,
      "hasCriminalSpecified": true,
      "hasBankrupt": 1,
      "hasBankruptSpecified": true,
      "hasCivilJudc": 1,
      "hasCivilJudcSpecified": true,
      "hasBond": 1,
      "hasBondSpecified": true,
      "hasJudgment": 1,
      "hasJudgmentSpecified": true,
      "hasInvstgn": 1,
      "hasInvstgnSpecified": true,
      "hasCustComp": 0,
      "hasCustCompSpecified": true,
      "hasTermination": 1,
      "hasTerminationSpecified": true
    }
  ]
}