{
  "Info": {
    "lastNm": "JETTE",
    "firstNm": "MICHAEL",
    "midNm": "JOSEPH",
    "sufNm": null,
    "indvlPK": "1380178",
    "actvAGReg": 0,
    "link": "http://www.adviserinfo.sec.gov/IAPD/Individual/1380178"
  },
  "OthrNms": [],
  "CrntEmps": [
    {
      "CrntRgstns": [
        {
          "regAuth": 28,
          "regCat": 0,
          "st": 2,
          "stDt": "2003-02-05T00:00:00"
        },
        {
          "regAuth": 45,
          "regCat": 0,
          "st": 3,
          "stDt": "2008-01-09T00:00:00"
        }
      ],
      "BrnchOfLocs": [
        {
          "str1": "4201 CONGRESS STREET",
          "str2": "SUITE 210",
          "city": "CHARLOTTE",
          "state": 28,
          "stateSpecified": true,
          "cntry": "United States",
          "postlCd": "20209"
        }
      ],
      "orgNm": "CARROLL FINANCIAL ASSOCIATES INC",
      "orgPK": "105427",
      "str1": "4201 CONGRESS STREET, STE 210",
      "str2": null,
      "city": "CHARLOTTE",
      "state": 28,
      "stateSpecified": true,
      "cntry": "United States",
      "postlCd": "28209"
    }
  ],
  "Exms": [
    {
      "exmCd": 0,
      "exmNm": "Uniform Securities Agent State Law Examination",
      "exmDt": "1991-02-01T00:00:00",
      "exmDtSpecified": true
    }
  ],
  "Dsgntns": [],
  "PrevRgstns": [],
  "EmpHss": [
    {
      "fromDt": "11/2000",
      "toDt": "12/2012",
      "orgNm": "FINANCIAL NETWORK INVESTMENT CORP.",
      "city": "CHARLOTTE",
      "state": 28,
      "stateSpecified": true
    },
    {
      "fromDt": "01/2013",
      "toDt": null,
      "orgNm": "CETERA ADVISOR NETWORKS LLC",
      "city": "EL SEGUNDO",
      "state": 4,
      "stateSpecified": true
    }
  ],
  "OthrBuss": {
    "OthrBus": {
      "desc": "FIXED INSURANCE; LIFE, HEALTH, DISABILITY, ANNUITIES AND LTC.  FIXED INSURANCE DBA OF PHYSICIANS FINANCIAL PARTNERS.  CARROLL FINANCIAL ASSOCIATES; RIA.  MEMBER OF THE BOARD OF TRUSTEES OF THE OUTREACH FOUNDATION.   NAME OF OTHER BUSINESS: MWANDI CHRISTIAN HOSPITAL  INVESTMENT RELATED: NO  ADDRESS: N/A  NATURE OF BUSINESS: HOSPITAL MISSION IN ZAMBIA, AFRICA  POSITION/TITLE/RELATIONSHIP: BOARD MEMBER  START DATE: 10/01/2011  APX NUMBER OF HOURS PER WEEK: 1-2  APX NUMBER OF HOURS DURING TRADING HOURS: 0  BRIEF DESCRIPTION OF DUTIES: ATTEND BOARD MEETINGS, ASSIST IN FUND RAISING AND MISSION PROJECTS"
    }
  },
  "DRPs": []
}