{
  "Info": {
    "lastNm": "VENKATRAMAN",
    "firstNm": "RAJESWARAN",
    "midNm": null,
    "sufNm": null,
    "indvlPK": "1383008",
    "actvAGReg": 0,
    "link": "http://www.adviserinfo.sec.gov/IAPD/Individual/1383008"
  },
  "OthrNms": [
    {
      "lastNm": "RAJESWARAN",
      "firstNm": "VENKATRAMAN",
      "midNm": null,
      "sufNm": null
    }
  ],
  "CrntEmps": [
    {
      "CrntRgstns": [
        {
          "regAuth": 15,
          "regCat": 0,
          "st": 2,
          "stDt": "2011-01-03T00:00:00"
        }
      ],
      "BrnchOfLocs": [
        {
          "str1": "2525 CABOT DRIVE",
          "str2": "SUITE 100R",
          "city": "LISLE",
          "state": 15,
          "stateSpecified": true,
          "cntry": "United States",
          "postlCd": "60532"
        }
      ],
      "orgNm": "VOYA FINANCIAL ADVISORS, INC.",
      "orgPK": "2882",
      "str1": "909 LOCUST STREET",
      "str2": null,
      "city": "DES MOINES",
      "state": 13,
      "stateSpecified": true,
      "cntry": "United States",
      "postlCd": "50309"
    }
  ],
  "Exms": [
    {
      "exmCd": 0,
      "exmNm": "Uniform Securities Agent State Law Examination",
      "exmDt": "1993-08-24T00:00:00",
      "exmDtSpecified": true
    },
    {
      "exmCd": 2,
      "exmNm": "Uniform Investment Adviser Law Examination",
      "exmDt": "1998-02-06T00:00:00",
      "exmDtSpecified": true
    }
  ],
  "Dsgntns": [],
  "PrevRgstns": [
    {
      "BrnchOfLocs": [
        {
          "city": "LISLE",
          "state": 15,
          "stateSpecified": true
        },
        {
          "city": "LISLE",
          "state": 15,
          "stateSpecified": true
        }
      ],
      "orgNm": "VOYA FINANCIAL PARTNERS, LLC",
      "orgPK": "34815",
      "regBeginDt": "2000-07-07T00:00:00",
      "regBeginDtSpecified": true,
      "regEndDt": "2011-01-03T00:00:00",
      "regEndDtSpecified": true
    }
  ],
  "EmpHss": [
    {
      "fromDt": "11/2000",
      "toDt": "09/2014",
      "orgNm": "ING",
      "city": "LISLE",
      "state": 15,
      "stateSpecified": true
    },
    {
      "fromDt": "05/2002",
      "toDt": "12/2010",
      "orgNm": "ING FINANCIAL ADVISERS, LLC",
      "city": "LISLE",
      "state": 15,
      "stateSpecified": true
    },
    {
      "fromDt": "01/2011",
      "toDt": "09/2014",
      "orgNm": "ING FINANCIAL PARTNERS, INC.",
      "city": "LISLE",
      "state": 15,
      "stateSpecified": true
    },
    {
      "fromDt": "09/2014",
      "toDt": null,
      "orgNm": "VOYA FINANCIAL",
      "city": "LISLE",
      "state": 15,
      "stateSpecified": true
    },
    {
      "fromDt": "09/2014",
      "toDt": null,
      "orgNm": "VOYA FINANCIAL ADVISORS",
      "city": "LISLE",
      "state": 15,
      "stateSpecified": true
    }
  ],
  "OthrBuss": {
    "OthrBus": {
      "desc": "1)INDEPENDENT INSURANCE AGENT,YES,65 RUFFLED FEATHERS DR, LEMONT IL  60439,FIXED INSURANCE SALES,INDEPENDENT INSURANCE AGENT,04/26/2011,160,160,SALES OF FIXED INSURANCE PRODUCTS 2)RAJESWARAN VENKATRAMAN,NO,1 CORPORATE LAKES STE 100, LISLE IL 60532,REAL ESTATE,OWNER,01/01/2010,40,40,NOT A LICENSED REALTOR, OCCASIONALLY BUYS AND SELLS REAL ESTATE PROPERTIES FOR HIS PERSONAL ACT  3)VENKAT AND ASSOCIATIES,YES,65 RUFFLED FEATHERS DR, LEMONT IL  60439,DBA,INDEPENDENT AGENT,01/01/1987,80,80,DBA FOR INSURANCE BUSINESS  4)FIXED INSURANCE,YES,1 CORPORATE LAKES STE 100. 2525 CABOT DR. LISLE, IL 60532,FIXED INSURANCE, FIXED AGENT,01/01/2011,160,160,SALE OF FIXED INSURANCE"
    }
  },
  "DRPs": [
    {
      "hasRegAction": 1,
      "hasRegActionSpecified": true,
      "hasCriminal": 1,
      "hasCriminalSpecified": true,
      "hasBankrupt": 1,
      "hasBankruptSpecified": true,
      "hasCivilJudc": 1,
      "hasCivilJudcSpecified": true,
      "hasBond": 1,
      "hasBondSpecified": true,
      "hasJudgment": 1,
      "hasJudgmentSpecified": true,
      "hasInvstgn": 1,
      "hasInvstgnSpecified": true,
      "hasCustComp": 0,
      "hasCustCompSpecified": true,
      "hasTermination": 1,
      "hasTerminationSpecified": true
    }
  ]
}