{
  "Info": {
    "lastNm": "CHAWK",
    "firstNm": "SUZANNE",
    "midNm": "LEIGH",
    "sufNm": null,
    "indvlPK": "1388079",
    "actvAGReg": 0,
    "link": "http://www.adviserinfo.sec.gov/IAPD/Individual/1388079"
  },
  "OthrNms": [
    {
      "lastNm": "PEREZ",
      "firstNm": "SUE",
      "midNm": null,
      "sufNm": null
    },
    {
      "lastNm": "PEREZ",
      "firstNm": "SUE",
      "midNm": null,
      "sufNm": null
    },
    {
      "lastNm": "PEREZ",
      "firstNm": "SUZANNE",
      "midNm": "LEIGH",
      "sufNm": null
    },
    {
      "lastNm": "PEREZ",
      "firstNm": "SUZANNE",
      "midNm": "LEIGH",
      "sufNm": null
    }
  ],
  "CrntEmps": [
    {
      "CrntRgstns": [
        {
          "regAuth": 4,
          "regCat": 0,
          "st": 2,
          "stDt": "2010-06-24T00:00:00"
        }
      ],
      "BrnchOfLocs": [
        {
          "str1": "777 NORTH CAPITOL STREET NE, SUITE 600",
          "str2": null,
          "city": "WASHINGTON",
          "state": 7,
          "stateSpecified": true,
          "cntry": "United States",
          "postlCd": "20002-4240"
        }
      ],
      "orgNm": "ICMA RETIREMENT CORP",
      "orgPK": "108783",
      "str1": "777 NORTH CAPITOL STREET NE, SUITE 600",
      "str2": null,
      "city": "WASHINGTON",
      "state": 7,
      "stateSpecified": true,
      "cntry": "United States",
      "postlCd": "20002-4240"
    }
  ],
  "Exms": [
    {
      "exmCd": 2,
      "exmNm": "Uniform Investment Adviser Law Examination",
      "exmDt": "1999-12-20T00:00:00",
      "exmDtSpecified": true
    },
    {
      "exmCd": 0,
      "exmNm": "Uniform Securities Agent State Law Examination",
      "exmDt": "2000-02-24T00:00:00",
      "exmDtSpecified": true
    }
  ],
  "Dsgntns": [],
  "PrevRgstns": [
    {
      "BrnchOfLocs": [
        {
          "city": "AUBURN HILLS",
          "state": 23,
          "stateSpecified": true
        }
      ],
      "orgNm": "VALIC FINANCIAL ADVISORS, INC.",
      "orgPK": "42803",
      "regBeginDt": "2006-10-17T00:00:00",
      "regBeginDtSpecified": true,
      "regEndDt": "2008-10-22T00:00:00",
      "regEndDtSpecified": true
    }
  ],
  "EmpHss": [
    {
      "fromDt": "01/2006",
      "toDt": "10/2008",
      "orgNm": "AIG/VALIC FINANCIAL ADVISORS",
      "city": "AUBURN HILLS",
      "state": 23,
      "stateSpecified": true
    },
    {
      "fromDt": "10/2008",
      "toDt": null,
      "orgNm": "ICMA RETIRMENT CORPORATION",
      "city": "WASHINGTON",
      "state": 7,
      "stateSpecified": true
    }
  ],
  "OthrBuss": {
    "OthrBus": null
  },
  "DRPs": []
}