{
  "Info": {
    "lastNm": "PEARSON",
    "firstNm": "ALAN",
    "midNm": "PAUL",
    "sufNm": null,
    "indvlPK": "1389113",
    "actvAGReg": 0,
    "link": "http://www.adviserinfo.sec.gov/IAPD/Individual/1389113"
  },
  "OthrNms": [
    {
      "lastNm": "PEARSON",
      "firstNm": "ALAN",
      "midNm": "P",
      "sufNm": null
    }
  ],
  "CrntEmps": [
    {
      "CrntRgstns": [
        {
          "regAuth": 6,
          "regCat": 0,
          "st": 2,
          "stDt": "2006-09-22T00:00:00"
        }
      ],
      "BrnchOfLocs": [
        {
          "str1": "ONE CORPORATE DRIVE",
          "str2": null,
          "city": "SHELTON",
          "state": 6,
          "stateSpecified": true,
          "cntry": "United States",
          "postlCd": "06484"
        }
      ],
      "orgNm": "AST INVESTMENT SERVICES, INC.",
      "orgPK": "108897",
      "str1": "ONE CORPORATE DRIVE",
      "str2": null,
      "city": "SHELTON",
      "state": 6,
      "stateSpecified": true,
      "cntry": "United States",
      "postlCd": "06484"
    }
  ],
  "Exms": [
    {
      "exmCd": 0,
      "exmNm": "Uniform Securities Agent State Law Examination",
      "exmDt": "1990-07-02T00:00:00",
      "exmDtSpecified": true
    },
    {
      "exmCd": 2,
      "exmNm": "Uniform Investment Adviser Law Examination",
      "exmDt": "2004-06-16T00:00:00",
      "exmDtSpecified": true
    }
  ],
  "Dsgntns": [],
  "PrevRgstns": [
    {
      "BrnchOfLocs": [
        {
          "city": "WATERBURY",
          "state": 6,
          "stateSpecified": true
        },
        {
          "city": "WATERBURY",
          "state": 6,
          "stateSpecified": true
        }
      ],
      "orgNm": "WELLS FARGO ADVISORS, LLC",
      "orgPK": "19616",
      "regBeginDt": "2004-06-22T00:00:00",
      "regBeginDtSpecified": true,
      "regEndDt": "2006-09-08T00:00:00",
      "regEndDtSpecified": true
    }
  ],
  "EmpHss": [
    {
      "fromDt": "11/2003",
      "toDt": "09/2006",
      "orgNm": "WACHOVIA SECURTIES, LLC",
      "city": "WATERBURY",
      "state": 6,
      "stateSpecified": true
    },
    {
      "fromDt": "09/2006",
      "toDt": "11/2007",
      "orgNm": "AMERICAN SKANDIA MARKETING, INC.",
      "city": "SHELTON",
      "state": 6,
      "stateSpecified": true
    },
    {
      "fromDt": "09/2006",
      "toDt": null,
      "orgNm": "AST INVESTMENT SERVICES",
      "city": "SHELTON",
      "state": 6,
      "stateSpecified": true
    },
    {
      "fromDt": "09/2006",
      "toDt": null,
      "orgNm": "THE PRUDENTIAL INSURANCE COMPANY OF AMERICA",
      "city": "SHELTON",
      "state": 6,
      "stateSpecified": true
    },
    {
      "fromDt": "11/2007",
      "toDt": null,
      "orgNm": "PRUDENTIAL ANNUITIES DISTRIBUTORS",
      "city": "SHELTON",
      "state": 6,
      "stateSpecified": true
    }
  ],
  "OthrBuss": {
    "OthrBus": null
  },
  "DRPs": []
}