{
  "Info": {
    "lastNm": "PAOLELLA",
    "firstNm": "CHRISTOPHER",
    "midNm": "JOSEPH",
    "sufNm": null,
    "indvlPK": "1399614",
    "actvAGReg": 0,
    "link": "http://www.adviserinfo.sec.gov/IAPD/Individual/1399614"
  },
  "OthrNms": [
    {
      "lastNm": "PAOLELLA",
      "firstNm": "CHRIS",
      "midNm": null,
      "sufNm": null
    }
  ],
  "CrntEmps": [
    {
      "CrntRgstns": [
        {
          "regAuth": 10,
          "regCat": 0,
          "st": 2,
          "stDt": "2016-03-31T00:00:00"
        }
      ],
      "BrnchOfLocs": [
        {
          "str1": "SIX CONCOURSE PARKWAY",
          "str2": "SUITE 3300",
          "city": "ATLANTA",
          "state": 10,
          "stateSpecified": true,
          "cntry": "United States",
          "postlCd": "30328"
        }
      ],
      "orgNm": "LIQUID STRATEGIES, LLC",
      "orgPK": "170107",
      "str1": "SIX CONCOURSE PARKWAY",
      "str2": "SUITE 3300",
      "city": "ATLANTA",
      "state": 10,
      "stateSpecified": true,
      "cntry": "United States",
      "postlCd": "30328"
    }
  ],
  "Exms": [
    {
      "exmCd": 0,
      "exmNm": "Uniform Securities Agent State Law Examination",
      "exmDt": "1998-03-10T00:00:00",
      "exmDtSpecified": true
    },
    {
      "exmCd": 3,
      "exmNm": "Uniform Combined State Law Examination",
      "exmDt": "2015-03-23T00:00:00",
      "exmDtSpecified": true
    }
  ],
  "Dsgntns": [],
  "PrevRgstns": [],
  "EmpHss": [
    {
      "fromDt": "06/2006",
      "toDt": "02/2015",
      "orgNm": "PERIMETER CAPITAL MANAGEMENT",
      "city": "ATLANTA",
      "state": 10,
      "stateSpecified": true
    },
    {
      "fromDt": "01/2015",
      "toDt": null,
      "orgNm": "IMST DISTRIBUTORS, LLC",
      "city": "ATLANTA",
      "state": 10,
      "stateSpecified": true
    },
    {
      "fromDt": "02/2015",
      "toDt": null,
      "orgNm": "LIQUID STRATEGIES, LLC",
      "city": "ATLANTA",
      "state": 10,
      "stateSpecified": true
    }
  ],
  "OthrBuss": {
    "OthrBus": {
      "desc": "LIQUID STRATEGIES, LLC; ATLANTA, GA; INVESTMENT RELATED; INVESTMENT MANAGEMENT; MANAGING PARTNER; MANAGEMENT, MARKETING, CLIENT SERVICE, 160 HOURS PER MONTH WITH 128 HOURS DURING SECURITIES TRADING HOURS."
    }
  },
  "DRPs": []
}