{
  "Info": {
    "lastNm": "Tramontano",
    "firstNm": "Lynn",
    "midNm": "Rocielle Wright",
    "sufNm": null,
    "indvlPK": "1399243",
    "actvAGReg": 0,
    "link": "http://www.adviserinfo.sec.gov/IAPD/Individual/1399243"
  },
  "OthrNms": [
    {
      "lastNm": "TRAMONTANO",
      "firstNm": "LYNN",
      "midNm": "ROCIELLE",
      "sufNm": null
    },
    {
      "lastNm": "WRIGHT",
      "firstNm": "LYNN",
      "midNm": "ROCIELLE",
      "sufNm": null
    },
    {
      "lastNm": "WRIGHT",
      "firstNm": "LYNN",
      "midNm": "ROCIELLE",
      "sufNm": null
    }
  ],
  "CrntEmps": [
    {
      "CrntRgstns": [
        {
          "regAuth": 36,
          "regCat": 0,
          "st": 2,
          "stDt": "2011-12-05T00:00:00"
        }
      ],
      "BrnchOfLocs": [
        {
          "str1": "1500 W THIRD AVENUE SUITE 100",
          "str2": null,
          "city": "COLUMBUS",
          "state": 36,
          "stateSpecified": true,
          "cntry": "United States",
          "postlCd": "43212"
        }
      ],
      "orgNm": "EDWARD JONES",
      "orgPK": "250",
      "str1": "12555 MANCHESTER RD",
      "str2": null,
      "city": "ST. LOUIS",
      "state": 25,
      "stateSpecified": true,
      "cntry": "United States",
      "postlCd": "63131"
    }
  ],
  "Exms": [
    {
      "exmCd": 0,
      "exmNm": "Uniform Securities Agent State Law Examination",
      "exmDt": "2010-06-10T00:00:00",
      "exmDtSpecified": true
    },
    {
      "exmCd": 2,
      "exmNm": "Uniform Investment Adviser Law Examination",
      "exmDt": "2010-11-10T00:00:00",
      "exmDtSpecified": true
    }
  ],
  "Dsgntns": [],
  "PrevRgstns": [
    {
      "BrnchOfLocs": [
        {
          "city": "COLUMBUS",
          "state": 36,
          "stateSpecified": true
        }
      ],
      "orgNm": "PRUCO SECURITIES, LLC.",
      "orgPK": "5685",
      "regBeginDt": "2010-11-19T00:00:00",
      "regBeginDtSpecified": true,
      "regEndDt": "2011-12-12T00:00:00",
      "regEndDtSpecified": true
    }
  ],
  "EmpHss": [
    {
      "fromDt": "10/2001",
      "toDt": "10/2006",
      "orgNm": "COSHOCTON COUNTY",
      "city": "COSHOCTON",
      "state": 36,
      "stateSpecified": true
    },
    {
      "fromDt": "10/2006",
      "toDt": "01/2007",
      "orgNm": "UNEMPLOYED",
      "city": "DOVER",
      "state": 36,
      "stateSpecified": true
    },
    {
      "fromDt": "01/2007",
      "toDt": "01/2009",
      "orgNm": "FAIRFIELD COUNTY",
      "city": "CARROLL",
      "state": 36,
      "stateSpecified": true
    },
    {
      "fromDt": "01/2009",
      "toDt": "12/2011",
      "orgNm": "PRUCO SECURITIES LLC",
      "city": "COLUMBUS",
      "state": 36,
      "stateSpecified": true
    },
    {
      "fromDt": "01/2009",
      "toDt": "12/2011",
      "orgNm": "PRUDENTIAL INSURANCE CO OF AMERICA",
      "city": "COLUMBUS",
      "state": 36,
      "stateSpecified": true
    },
    {
      "fromDt": "12/2011",
      "toDt": null,
      "orgNm": "EDWARD JONES",
      "city": "ST LOUIS",
      "state": 25,
      "stateSpecified": true
    }
  ],
  "OthrBuss": {
    "OthrBus": null
  },
  "DRPs": []
}