{
  "Info": {
    "lastNm": "SHROPSHIRE",
    "firstNm": "JANE",
    "midNm": "TAYLOR",
    "sufNm": null,
    "indvlPK": "1401678",
    "actvAGReg": 0,
    "link": "http://www.adviserinfo.sec.gov/IAPD/Individual/1401678"
  },
  "OthrNms": [],
  "CrntEmps": [
    {
      "CrntRgstns": [
        {
          "regAuth": 1,
          "regCat": 0,
          "st": 2,
          "stDt": "2016-07-06T00:00:00"
        }
      ],
      "BrnchOfLocs": [
        {
          "str1": null,
          "str2": null,
          "city": "MOBILE",
          "state": 1,
          "stateSpecified": true,
          "cntry": "United States",
          "postlCd": null
        }
      ],
      "orgNm": "AXA ADVISORS, LLC",
      "orgPK": "6627",
      "str1": "1290 AVENUE OF THE AMERICAS",
      "str2": null,
      "city": "NEW YORK",
      "state": 35,
      "stateSpecified": true,
      "cntry": "United States",
      "postlCd": "10104"
    }
  ],
  "Exms": [
    {
      "exmCd": 0,
      "exmNm": "Uniform Securities Agent State Law Examination",
      "exmDt": "1986-02-04T00:00:00",
      "exmDtSpecified": true
    },
    {
      "exmCd": 2,
      "exmNm": "Uniform Investment Adviser Law Examination",
      "exmDt": "2016-06-29T00:00:00",
      "exmDtSpecified": true
    }
  ],
  "Dsgntns": [],
  "PrevRgstns": [],
  "EmpHss": [
    {
      "fromDt": "06/2005",
      "toDt": null,
      "orgNm": "AXA ADVISORS, LLC",
      "city": "NEW YORK",
      "state": 35,
      "stateSpecified": true
    }
  ],
  "OthrBuss": {
    "OthrBus": {
      "desc": "(1) VARIOUS OUTSIDE INSURANCE BROKERAGE ACTIVITY.          (2) DAYSPRING BAPTIST CHURCH, 2200 CODY ROAD, SOUTH MOBILE, AL 36695, CHARITABLE,  2/01/2013- BOARD MEMBER - PERSONNEL COMMITTEE, -ADVISING THE BOARD OF DIRECTORS ON MATTERS PERTAINING TO PERSONNEL ADMINISTRATION AND STAFFING, 10 HOURS PER MONTH, NO COMPENSATION, NON INVESTMENT RELATED.  (3) REALTY BENEFIT SERVICES - 1087 MOUNT EYRE ROAD, WASHINGTON CROSSING, PA 18977- SALES ASSOCIATE - SALE OF TAX ACCOUNT PROGRAM FOR WHICH REALTY BENEFIT SERVICES COLLECT THE ADMINISTRATIVE FEE- 08/21/2015- 40 HOURS PER MONTH- NON INVESTMENT REALTED. (4) DEGALIS ASSOCIATES, LLC - 9 E. SLOW RD., SUITE A, MARITON, NJ 08053 - SALES ASSOCIATE- SALES OF GROUP AND INDIVIDUAL HEALTH AND ANCILIARY PRODUCTS - 08/21/2015-40 HOURS PER MONTH - NON INVESTMENT REALATED."
    }
  },
  "DRPs": []
}