{
  "Info": {
    "lastNm": "MARTINEZ ESTEVES",
    "firstNm": "JOSE",
    "midNm": "RAMON",
    "sufNm": null,
    "indvlPK": "1402991",
    "actvAGReg": 0,
    "link": "http://www.adviserinfo.sec.gov/IAPD/Individual/1402991"
  },
  "OthrNms": [
    {
      "lastNm": "MARTINE",
      "firstNm": "JOSE",
      "midNm": "RAMON",
      "sufNm": null
    },
    {
      "lastNm": "MARTINEZ",
      "firstNm": "JOEY",
      "midNm": null,
      "sufNm": null
    },
    {
      "lastNm": "MARTINEZ",
      "firstNm": "JOSE",
      "midNm": "RAMON",
      "sufNm": null
    }
  ],
  "CrntEmps": [
    {
      "CrntRgstns": [
        {
          "regAuth": 40,
          "regCat": 0,
          "st": 2,
          "stDt": "2013-06-04T00:00:00"
        }
      ],
      "BrnchOfLocs": [
        {
          "str1": "209 MUNOZ RIVERA AVENUE",
          "str2": "POPULAR CENTER 12TH FLOOR",
          "city": "SAN JUAN",
          "state": 40,
          "stateSpecified": true,
          "cntry": "United States",
          "postlCd": "00918"
        }
      ],
      "orgNm": "POPULAR SECURITIES, LLC",
      "orgPK": "8096",
      "str1": "POPULAR CENTER, 209 PONCE DE LEON",
      "str2": "SUITE 1200",
      "city": "HATO REY",
      "state": 40,
      "stateSpecified": true,
      "cntry": "United States",
      "postlCd": "00918"
    }
  ],
  "Exms": [
    {
      "exmCd": 0,
      "exmNm": "Uniform Securities Agent State Law Examination",
      "exmDt": "1987-11-07T00:00:00",
      "exmDtSpecified": true
    },
    {
      "exmCd": 3,
      "exmNm": "Uniform Combined State Law Examination",
      "exmDt": "2007-09-28T00:00:00",
      "exmDtSpecified": true
    }
  ],
  "Dsgntns": [],
  "PrevRgstns": [],
  "EmpHss": [
    {
      "fromDt": "01/1997",
      "toDt": "01/2008",
      "orgNm": "SANTANDER SECURITIES",
      "city": "SAN JUAN",
      "state": 40,
      "stateSpecified": true
    },
    {
      "fromDt": "01/2008",
      "toDt": null,
      "orgNm": "POPULAR SECURITIES, INC.",
      "city": "SAN JUAN",
      "state": 40,
      "stateSpecified": true
    }
  ],
  "OthrBuss": {
    "OthrBus": null
  },
  "DRPs": [
    {
      "hasRegAction": 1,
      "hasRegActionSpecified": true,
      "hasCriminal": 1,
      "hasCriminalSpecified": true,
      "hasBankrupt": 1,
      "hasBankruptSpecified": true,
      "hasCivilJudc": 1,
      "hasCivilJudcSpecified": true,
      "hasBond": 1,
      "hasBondSpecified": true,
      "hasJudgment": 1,
      "hasJudgmentSpecified": true,
      "hasInvstgn": 1,
      "hasInvstgnSpecified": true,
      "hasCustComp": 0,
      "hasCustCompSpecified": true,
      "hasTermination": 1,
      "hasTerminationSpecified": true
    }
  ]
}