{
  "Info": {
    "lastNm": "CASTELLANO",
    "firstNm": "GERALD",
    "midNm": "JOSEPH",
    "sufNm": null,
    "indvlPK": "1404978",
    "actvAGReg": 0,
    "link": "http://www.adviserinfo.sec.gov/IAPD/Individual/1404978"
  },
  "OthrNms": [
    {
      "lastNm": "CASTELLANO",
      "firstNm": "GERALD",
      "midNm": "J",
      "sufNm": null
    }
  ],
  "CrntEmps": [
    {
      "CrntRgstns": [
        {
          "regAuth": 32,
          "regCat": 0,
          "st": 2,
          "stDt": "2014-06-13T00:00:00"
        }
      ],
      "BrnchOfLocs": [
        {
          "str1": "14 Walsh Drive",
          "str2": "Suite 100",
          "city": "PARSIPPANY",
          "state": 32,
          "stateSpecified": true,
          "cntry": "United States",
          "postlCd": "07054"
        }
      ],
      "orgNm": "SECURIAN FINANCIAL SERVICES, INC.",
      "orgPK": "15296",
      "str1": "400 ROBERT STREET NORTH",
      "str2": null,
      "city": "ST PAUL",
      "state": 24,
      "stateSpecified": true,
      "cntry": "United States",
      "postlCd": "55101-2098"
    }
  ],
  "Exms": [
    {
      "exmCd": 0,
      "exmNm": "Uniform Securities Agent State Law Examination",
      "exmDt": "1985-11-01T00:00:00",
      "exmDtSpecified": true
    }
  ],
  "Dsgntns": [
    {
      "dsgntnNm": "Chartered Financial Consultant"
    }
  ],
  "PrevRgstns": [
    {
      "BrnchOfLocs": [
        {
          "city": "ELMSFORD",
          "state": 35,
          "stateSpecified": true
        },
        {
          "city": "ELMWOOD PARK",
          "state": 32,
          "stateSpecified": true
        },
        {
          "city": "MAHWAH",
          "state": 32,
          "stateSpecified": true
        },
        {
          "city": "NEW YORK",
          "state": 35,
          "stateSpecified": true
        }
      ],
      "orgNm": "NEW ENGLAND SECURITIES",
      "orgPK": "615",
      "regBeginDt": "2002-06-21T00:00:00",
      "regBeginDtSpecified": true,
      "regEndDt": "2014-06-23T00:00:00",
      "regEndDtSpecified": true
    }
  ],
  "EmpHss": [
    {
      "fromDt": "08/1985",
      "toDt": "06/2014",
      "orgNm": "NEW ENGLAND SECURITIES",
      "city": "BOSTON",
      "state": 20,
      "stateSpecified": true
    },
    {
      "fromDt": "06/2014",
      "toDt": null,
      "orgNm": "ALLIED WEALTH PARTNERS",
      "city": "PARSIPPANY",
      "state": 32,
      "stateSpecified": true
    },
    {
      "fromDt": "06/2014",
      "toDt": null,
      "orgNm": "MINNESOTA LIFE INSURANC COMPANY",
      "city": "ST PAUL",
      "state": 24,
      "stateSpecified": true
    },
    {
      "fromDt": "06/2014",
      "toDt": null,
      "orgNm": "SECURIAN FINANCIAL SERVICES, INC",
      "city": "ST PAUL",
      "state": 24,
      "stateSpecified": true
    }
  ],
  "OthrBuss": {
    "OthrBus": {
      "desc": "ALLIED WEALTH PARTNERS; 14 WALSH DRIVE SUITE 100 PARSIPPANY NJ 07054; INVESTMENT RELATED; FIXED INSURANCE SALES; AGENT/BROKER; 06-2014-ONGOING; 1-3 HRS PER MONTH; 1-3 HRS PER MONTH DURING SECURITIES TRADING HRS."
    }
  },
  "DRPs": []
}