{
  "Info": {
    "lastNm": "GIBBS",
    "firstNm": "JAMES",
    "midNm": "KENNETH",
    "sufNm": "II",
    "indvlPK": "1405039",
    "actvAGReg": 0,
    "link": "http://www.adviserinfo.sec.gov/IAPD/Individual/1405039"
  },
  "OthrNms": [
    {
      "lastNm": "GIBBS",
      "firstNm": "KENNY",
      "midNm": null,
      "sufNm": null
    },
    {
      "lastNm": "GIBBS",
      "firstNm": "KENNY",
      "midNm": null,
      "sufNm": null
    }
  ],
  "CrntEmps": [
    {
      "CrntRgstns": [
        {
          "regAuth": 45,
          "regCat": 0,
          "st": 3,
          "stDt": "1987-09-21T00:00:00"
        },
        {
          "regAuth": 2,
          "regCat": 0,
          "st": 2,
          "stDt": "1991-05-20T00:00:00"
        }
      ],
      "BrnchOfLocs": [
        {
          "str1": "2200 RODNEY PARHAM RD",
          "str2": null,
          "city": "LITTLE ROCK",
          "state": 2,
          "stateSpecified": true,
          "cntry": "United States",
          "postlCd": "72212"
        }
      ],
      "orgNm": "MERRILL LYNCH, PIERCE, FENNER & SMITH INCORPORATED",
      "orgPK": "7691",
      "str1": "ONE BRYANT PARK",
      "str2": null,
      "city": "NEW YORK",
      "state": 35,
      "stateSpecified": true,
      "cntry": "United States",
      "postlCd": "10036"
    }
  ],
  "Exms": [
    {
      "exmCd": 0,
      "exmNm": "Uniform Securities Agent State Law Examination",
      "exmDt": "1985-10-09T00:00:00",
      "exmDtSpecified": true
    },
    {
      "exmCd": 2,
      "exmNm": "Uniform Investment Adviser Law Examination",
      "exmDt": "1994-04-07T00:00:00",
      "exmDtSpecified": true
    }
  ],
  "Dsgntns": [],
  "PrevRgstns": [],
  "EmpHss": [
    {
      "fromDt": "07/1985",
      "toDt": null,
      "orgNm": "MERRILL LYNCH, PIERCE, FENNER & SMITH INCORPORATED",
      "city": "LITTLE ROCK",
      "state": 2,
      "stateSpecified": true
    },
    {
      "fromDt": "12/2009",
      "toDt": null,
      "orgNm": "BANK OF AMERICA, NA",
      "city": "LITTLE ROCK",
      "state": 2,
      "stateSpecified": true
    }
  ],
  "OthrBuss": {
    "OthrBus": null
  },
  "DRPs": []
}