{
  "Info": {
    "lastNm": "LAUGHRIDGE",
    "firstNm": "CHARLES",
    "midNm": "HUGH",
    "sufNm": "III",
    "indvlPK": "1410187",
    "actvAGReg": 0,
    "link": "http://www.adviserinfo.sec.gov/IAPD/Individual/1410187"
  },
  "OthrNms": [
    {
      "lastNm": "LAUGHRIDGE",
      "firstNm": "CHUCK",
      "midNm": null,
      "sufNm": null
    },
    {
      "lastNm": "LAUGHRIDGEIII",
      "firstNm": "CHARLES",
      "midNm": "HUGH",
      "sufNm": null
    }
  ],
  "CrntEmps": [
    {
      "CrntRgstns": [
        {
          "regAuth": 28,
          "regCat": 0,
          "st": 2,
          "stDt": "2013-09-03T00:00:00"
        }
      ],
      "BrnchOfLocs": [
        {
          "str1": null,
          "str2": null,
          "city": "HARKERS ISLAND",
          "state": 28,
          "stateSpecified": true,
          "cntry": "United States",
          "postlCd": null
        }
      ],
      "orgNm": "CETERA ADVISOR NETWORKS LLC",
      "orgPK": "13572",
      "str1": "200 N. SEPULVEDA BLVD.",
      "str2": "SUITE 1300",
      "city": "EL SEGUNDO",
      "state": 4,
      "stateSpecified": true,
      "cntry": "United States",
      "postlCd": "90245-5672"
    }
  ],
  "Exms": [
    {
      "exmCd": 0,
      "exmNm": "Uniform Securities Agent State Law Examination",
      "exmDt": "1985-11-04T00:00:00",
      "exmDtSpecified": true
    },
    {
      "exmCd": 2,
      "exmNm": "Uniform Investment Adviser Law Examination",
      "exmDt": "1999-09-15T00:00:00",
      "exmDtSpecified": true
    }
  ],
  "Dsgntns": [],
  "PrevRgstns": [
    {
      "BrnchOfLocs": [
        {
          "city": "HARKERS ISLAND",
          "state": 28,
          "stateSpecified": true
        },
        {
          "city": "ROANOKE RAPIDS",
          "state": 28,
          "stateSpecified": true
        },
        {
          "city": "ROANOKE RAPIDS",
          "state": 28,
          "stateSpecified": true
        }
      ],
      "orgNm": "TOWER SQUARE SECURITIES, INC.",
      "orgPK": "833",
      "regBeginDt": "2001-12-31T00:00:00",
      "regBeginDtSpecified": true,
      "regEndDt": "2013-09-03T00:00:00",
      "regEndDtSpecified": true
    }
  ],
  "EmpHss": [
    {
      "fromDt": "05/1992",
      "toDt": null,
      "orgNm": "FINANCIAL DESIGN, INC.",
      "city": "ROANOKE RAPIDS",
      "state": 28,
      "stateSpecified": true
    },
    {
      "fromDt": "02/1996",
      "toDt": null,
      "orgNm": "TRAVELERS INSURANCE GROUP",
      "city": "HARTFORD",
      "state": 6,
      "stateSpecified": true
    },
    {
      "fromDt": "03/1996",
      "toDt": "08/2013",
      "orgNm": "TOWER SQUARE SECURITIES, INC.",
      "city": "ROANOKE RAPIDS",
      "state": 28,
      "stateSpecified": true
    },
    {
      "fromDt": "09/2013",
      "toDt": null,
      "orgNm": "CETERA ADVISOR NETWORKS LLC",
      "city": "EL SEGUNDO",
      "state": 4,
      "stateSpecified": true
    }
  ],
  "OthrBuss": {
    "OthrBus": {
      "desc": "THE WATERMAN GROUP, INC OWNER OF A FISHING WEBSITE HARKERS ISLAND, NC FOR 5HRS/WK & 2HRS EVENING & WKENDS SINCE 05/2006"
    }
  },
  "DRPs": [
    {
      "hasRegAction": 1,
      "hasRegActionSpecified": true,
      "hasCriminal": 1,
      "hasCriminalSpecified": true,
      "hasBankrupt": 1,
      "hasBankruptSpecified": true,
      "hasCivilJudc": 1,
      "hasCivilJudcSpecified": true,
      "hasBond": 1,
      "hasBondSpecified": true,
      "hasJudgment": 1,
      "hasJudgmentSpecified": true,
      "hasInvstgn": 1,
      "hasInvstgnSpecified": true,
      "hasCustComp": 0,
      "hasCustCompSpecified": true,
      "hasTermination": 1,
      "hasTerminationSpecified": true
    }
  ]
}