{
  "Info": {
    "lastNm": "MOAK-MARSHALL",
    "firstNm": "NANCY",
    "midNm": null,
    "sufNm": null,
    "indvlPK": "1413513",
    "actvAGReg": 0,
    "link": "http://www.adviserinfo.sec.gov/IAPD/Individual/1413513"
  },
  "OthrNms": [
    {
      "lastNm": "MOAK",
      "firstNm": "NANCY",
      "midNm": "LORETTA",
      "sufNm": null
    }
  ],
  "CrntEmps": [
    {
      "CrntRgstns": [
        {
          "regAuth": 6,
          "regCat": 0,
          "st": 2,
          "stDt": "2007-12-11T00:00:00"
        },
        {
          "regAuth": 45,
          "regCat": 0,
          "st": 2,
          "stDt": "2009-08-21T00:00:00"
        }
      ],
      "BrnchOfLocs": [
        {
          "str1": "205 S SALINA ST",
          "str2": null,
          "city": "SYRACUSE",
          "state": 35,
          "stateSpecified": true,
          "cntry": "United States",
          "postlCd": "13202"
        }
      ],
      "orgNm": "MERRILL LYNCH, PIERCE, FENNER & SMITH INCORPORATED",
      "orgPK": "7691",
      "str1": "ONE BRYANT PARK",
      "str2": null,
      "city": "NEW YORK",
      "state": 35,
      "stateSpecified": true,
      "cntry": "United States",
      "postlCd": "10036"
    }
  ],
  "Exms": [
    {
      "exmCd": 0,
      "exmNm": "Uniform Securities Agent State Law Examination",
      "exmDt": "1989-08-29T00:00:00",
      "exmDtSpecified": true
    },
    {
      "exmCd": 3,
      "exmNm": "Uniform Combined State Law Examination",
      "exmDt": "2007-12-10T00:00:00",
      "exmDtSpecified": true
    }
  ],
  "Dsgntns": [],
  "PrevRgstns": [],
  "EmpHss": [
    {
      "fromDt": "07/1980",
      "toDt": null,
      "orgNm": "MERRILL LYNCH PIERCE FENNER & SMITH INC.",
      "city": "SYRACUSE",
      "state": 35,
      "stateSpecified": true
    },
    {
      "fromDt": "08/1982",
      "toDt": null,
      "orgNm": "MERRILL LYNCH, PIERCE, FENNER & SMITH INCORPORATED",
      "city": "SYRACUSE",
      "state": 35,
      "stateSpecified": true
    }
  ],
  "OthrBuss": {
    "OthrBus": null
  },
  "DRPs": []
}