{
  "Info": {
    "lastNm": "Hochstetler",
    "firstNm": "Roger",
    "midNm": "Lewis",
    "sufNm": null,
    "indvlPK": "1421251",
    "actvAGReg": 0,
    "link": "http://www.adviserinfo.sec.gov/IAPD/Individual/1421251"
  },
  "OthrNms": [],
  "CrntEmps": [
    {
      "CrntRgstns": [
        {
          "regAuth": 25,
          "regCat": 0,
          "st": 2,
          "stDt": "2013-11-13T00:00:00"
        }
      ],
      "BrnchOfLocs": [
        {
          "str1": "12121 BLUE RIDGE BLVD SUITE G",
          "str2": null,
          "city": "GRANDVIEW",
          "state": 25,
          "stateSpecified": true,
          "cntry": "United States",
          "postlCd": "64030"
        }
      ],
      "orgNm": "EDWARD JONES",
      "orgPK": "250",
      "str1": "12555 MANCHESTER RD",
      "str2": null,
      "city": "ST. LOUIS",
      "state": 25,
      "stateSpecified": true,
      "cntry": "United States",
      "postlCd": "63131"
    }
  ],
  "Exms": [
    {
      "exmCd": 0,
      "exmNm": "Uniform Securities Agent State Law Examination",
      "exmDt": "1985-10-23T00:00:00",
      "exmDtSpecified": true
    },
    {
      "exmCd": 3,
      "exmNm": "Uniform Combined State Law Examination",
      "exmDt": "2013-06-21T00:00:00",
      "exmDtSpecified": true
    }
  ],
  "Dsgntns": [],
  "PrevRgstns": [],
  "EmpHss": [
    {
      "fromDt": "08/2006",
      "toDt": "06/2008",
      "orgNm": "REFINING LIFESTYLE, INC",
      "city": "INDEPENDENCE",
      "state": 25,
      "stateSpecified": true
    },
    {
      "fromDt": "07/2008",
      "toDt": "02/2011",
      "orgNm": "RUDI'S ORGANIC BAKERY",
      "city": "BOULDER",
      "state": 5,
      "stateSpecified": true
    },
    {
      "fromDt": "02/2011",
      "toDt": "02/2013",
      "orgNm": "SUNCORE PRODUCTS, LLC",
      "city": "DENVER",
      "state": 5,
      "stateSpecified": true
    },
    {
      "fromDt": "04/2013",
      "toDt": null,
      "orgNm": "EDWARD JONES",
      "city": "SAINT LOUIS",
      "state": 25,
      "stateSpecified": true
    }
  ],
  "OthrBuss": {
    "OthrBus": null
  },
  "DRPs": [
    {
      "hasRegAction": 1,
      "hasRegActionSpecified": true,
      "hasCriminal": 1,
      "hasCriminalSpecified": true,
      "hasBankrupt": 0,
      "hasBankruptSpecified": true,
      "hasCivilJudc": 1,
      "hasCivilJudcSpecified": true,
      "hasBond": 1,
      "hasBondSpecified": true,
      "hasJudgment": 1,
      "hasJudgmentSpecified": true,
      "hasInvstgn": 1,
      "hasInvstgnSpecified": true,
      "hasCustComp": 1,
      "hasCustCompSpecified": true,
      "hasTermination": 1,
      "hasTerminationSpecified": true
    }
  ]
}