{
  "Info": {
    "lastNm": "KIMBALL",
    "firstNm": "BRENT",
    "midNm": "ROY",
    "sufNm": null,
    "indvlPK": "1424463",
    "actvAGReg": 0,
    "link": "http://www.adviserinfo.sec.gov/IAPD/Individual/1424463"
  },
  "OthrNms": [],
  "CrntEmps": [
    {
      "CrntRgstns": [
        {
          "regAuth": 31,
          "regCat": 0,
          "st": 2,
          "stDt": "2011-01-10T00:00:00"
        }
      ],
      "BrnchOfLocs": [
        {
          "str1": "11440 NORTH JOG ROAD",
          "str2": null,
          "city": "PALM BEACH GARDENS",
          "state": 9,
          "stateSpecified": true,
          "cntry": "USA",
          "postlCd": "33418-3764"
        },
        {
          "str1": "11440 NORTH JOG ROAD",
          "str2": null,
          "city": "PALM BEACH GARDENS",
          "state": 9,
          "stateSpecified": true,
          "cntry": "United States",
          "postlCd": "33418-3764"
        },
        {
          "str1": "5 SHEEP DAVID ROAD",
          "str2": "STE. H",
          "city": "PEMBROKE",
          "state": 31,
          "stateSpecified": true,
          "cntry": "United States",
          "postlCd": "03275"
        }
      ],
      "orgNm": "GWN SECURITIES INC.",
      "orgPK": "128929",
      "str1": "11440 NORTH JOG ROAD",
      "str2": null,
      "city": "PALM BEACH GARDENS",
      "state": 9,
      "stateSpecified": true,
      "cntry": "United States",
      "postlCd": "33418-3764"
    }
  ],
  "Exms": [
    {
      "exmCd": 0,
      "exmNm": "Uniform Securities Agent State Law Examination",
      "exmDt": "1986-01-22T00:00:00",
      "exmDtSpecified": true
    },
    {
      "exmCd": 2,
      "exmNm": "Uniform Investment Adviser Law Examination",
      "exmDt": "1999-06-11T00:00:00",
      "exmDtSpecified": true
    }
  ],
  "Dsgntns": [
    {
      "dsgntnNm": "Certified Financial Planner"
    }
  ],
  "PrevRgstns": [
    {
      "BrnchOfLocs": [
        {
          "city": "FREEDOM",
          "state": 31,
          "stateSpecified": true
        },
        {
          "city": "SUNCOOK",
          "state": 31,
          "stateSpecified": true
        }
      ],
      "orgNm": "GREAT AMERICAN ADVISORS, INC.",
      "orgPK": "36451",
      "regBeginDt": "2003-10-22T00:00:00",
      "regBeginDtSpecified": true,
      "regEndDt": "2007-06-13T00:00:00",
      "regEndDtSpecified": true
    },
    {
      "BrnchOfLocs": [
        {
          "city": "NEWTON",
          "state": 20,
          "stateSpecified": true
        },
        {
          "city": "PEMBROKE",
          "state": 31,
          "stateSpecified": true
        }
      ],
      "orgNm": "EQUITY SERVICES, INC.",
      "orgPK": "265",
      "regBeginDt": "2007-06-19T00:00:00",
      "regBeginDtSpecified": true,
      "regEndDt": "2008-06-04T00:00:00",
      "regEndDtSpecified": true
    },
    {
      "BrnchOfLocs": [
        {
          "city": "CINCINNATI",
          "state": 36,
          "stateSpecified": true
        },
        {
          "city": "SUNCOOK",
          "state": 31,
          "stateSpecified": true
        }
      ],
      "orgNm": "GREAT AMERICAN ADVISORS, INC.",
      "orgPK": "36451",
      "regBeginDt": "2008-06-04T00:00:00",
      "regBeginDtSpecified": true,
      "regEndDt": "2010-08-02T00:00:00",
      "regEndDtSpecified": true
    },
    {
      "BrnchOfLocs": [
        {
          "city": "SUNCOOK",
          "state": 31,
          "stateSpecified": true
        }
      ],
      "orgNm": "LINCOLN INVESTMENT",
      "orgPK": "519",
      "regBeginDt": "2010-08-02T00:00:00",
      "regBeginDtSpecified": true,
      "regEndDt": "2011-02-04T00:00:00",
      "regEndDtSpecified": true
    }
  ],
  "EmpHss": [
    {
      "fromDt": "02/1990",
      "toDt": null,
      "orgNm": "A1 FREEDOM FINANCIAL",
      "city": "PEMBROKE",
      "state": 31,
      "stateSpecified": true
    },
    {
      "fromDt": "09/1999",
      "toDt": "06/2007",
      "orgNm": "AAG SECURITIES, INC.",
      "city": "CINCINNATI",
      "state": 36,
      "stateSpecified": true
    },
    {
      "fromDt": "06/2007",
      "toDt": "06/2008",
      "orgNm": "EQUITY SERVICES, INC",
      "city": "MONTPELIER",
      "state": 48,
      "stateSpecified": true
    },
    {
      "fromDt": "06/2008",
      "toDt": "08/2010",
      "orgNm": "GREAT AMERICAN ADVISORS, INC",
      "city": "CONCORD",
      "state": 31,
      "stateSpecified": true
    },
    {
      "fromDt": "08/2010",
      "toDt": "01/2011",
      "orgNm": "LINCOLN INVESTMENT",
      "city": "SUNCOOK",
      "state": 31,
      "stateSpecified": true
    },
    {
      "fromDt": "01/2011",
      "toDt": null,
      "orgNm": "GWN SECURITIES INC.",
      "city": "PALM BEACH GARDENS",
      "state": 9,
      "stateSpecified": true
    }
  ],
  "OthrBuss": {
    "OthrBus": {
      "desc": "*A1 FREEDOM FIN. INV REL.5 SHEEP DAVIS ROAD SUITE H, PEMBROKE NH 03275. INS PRINCIPLE. 09/07-PRES. 160HR/MO DUR TR HR. AGENT FOR INS. I AM A PRODUCER FOR SEV. INS CO. TO SELL DI, ANNUITIES, LI,HEALTH,LTC. *ALEX'S TEAM FOUND.NOT INV REL.PO BOX 1886 ANDOVER MA./2HR 0 DUR TR HR"
    }
  },
  "DRPs": []
}