{
  "Info": {
    "lastNm": "SATALIN",
    "firstNm": "MARTIN",
    "midNm": "JOHN",
    "sufNm": null,
    "indvlPK": "1425711",
    "actvAGReg": 0,
    "link": "http://www.adviserinfo.sec.gov/IAPD/Individual/1425711"
  },
  "OthrNms": [
    {
      "lastNm": "SATALIN",
      "firstNm": "MARTY",
      "midNm": null,
      "sufNm": null
    }
  ],
  "CrntEmps": [
    {
      "CrntRgstns": [
        {
          "regAuth": 45,
          "regCat": 0,
          "st": 3,
          "stDt": "2009-06-16T00:00:00"
        }
      ],
      "BrnchOfLocs": [
        {
          "str1": "440 SOUTH WARREN ST.",
          "str2": "6TH FLOOR",
          "city": "SYRACUSE",
          "state": 35,
          "stateSpecified": true,
          "cntry": "United States",
          "postlCd": "13202"
        }
      ],
      "orgNm": "UBS FINANCIAL SERVICES INC.",
      "orgPK": "8174",
      "str1": "1200 HARBOR BOULEVARD",
      "str2": null,
      "city": "WEEHAWKEN",
      "state": 32,
      "stateSpecified": true,
      "cntry": "United States",
      "postlCd": "07086"
    }
  ],
  "Exms": [
    {
      "exmCd": 0,
      "exmNm": "Uniform Securities Agent State Law Examination",
      "exmDt": "1985-11-26T00:00:00",
      "exmDtSpecified": true
    },
    {
      "exmCd": 2,
      "exmNm": "Uniform Investment Adviser Law Examination",
      "exmDt": "1991-12-17T00:00:00",
      "exmDtSpecified": true
    }
  ],
  "Dsgntns": [],
  "PrevRgstns": [],
  "EmpHss": [
    {
      "fromDt": "07/1993",
      "toDt": "02/2009",
      "orgNm": "CITIGROUP GLOBAL MARKETS INC.",
      "city": "SYRACUSE",
      "state": 35,
      "stateSpecified": true
    },
    {
      "fromDt": "02/2009",
      "toDt": null,
      "orgNm": "UBS FINANCIAL SERVICES INC",
      "city": "SYRACUSE",
      "state": 35,
      "stateSpecified": true
    }
  ],
  "OthrBuss": {
    "OthrBus": {
      "desc": "FINRA REGULATORY INSTITUTION  ONE LIBERTY PLAZA  NY NY  ARBITRATOR  11/2008  0-8 HOURS PER MONTH, VARIABLE.  ARBITRATION PANEL"
    }
  },
  "DRPs": []
}