{
  "Info": {
    "lastNm": "BEARE",
    "firstNm": "JAMES",
    "midNm": "TIMOTHY",
    "sufNm": null,
    "indvlPK": "1427206",
    "actvAGReg": 0,
    "link": "http://www.adviserinfo.sec.gov/IAPD/Individual/1427206"
  },
  "OthrNms": [],
  "CrntEmps": [
    {
      "CrntRgstns": [
        {
          "regAuth": 4,
          "regCat": 0,
          "st": 2,
          "stDt": "2011-01-03T00:00:00"
        },
        {
          "regAuth": 43,
          "regCat": 0,
          "st": 2,
          "stDt": "2011-01-03T00:00:00"
        }
      ],
      "BrnchOfLocs": [
        {
          "str1": "13625 CALIFORNIA ST STE 100",
          "str2": "[GL-RBO]",
          "city": "OMAHA",
          "state": 30,
          "stateSpecified": true,
          "cntry": "United States",
          "postlCd": "68154"
        },
        {
          "str1": "204 S 1ST STREET",
          "str2": null,
          "city": "ABERDEEN",
          "state": 43,
          "stateSpecified": true,
          "cntry": "United States",
          "postlCd": "57401"
        }
      ],
      "orgNm": "WELLS FARGO ADVISORS, LLC",
      "orgPK": "19616",
      "str1": "ONE NORTH JEFFERSON AVENUE",
      "str2": "MAIL CODE: H0004-050",
      "city": "ST. LOUIS",
      "state": 25,
      "stateSpecified": true,
      "cntry": "United States",
      "postlCd": "63103-2205"
    }
  ],
  "Exms": [
    {
      "exmCd": 0,
      "exmNm": "Uniform Securities Agent State Law Examination",
      "exmDt": "1986-05-19T00:00:00",
      "exmDtSpecified": true
    },
    {
      "exmCd": 2,
      "exmNm": "Uniform Investment Adviser Law Examination",
      "exmDt": "1999-11-03T00:00:00",
      "exmDtSpecified": true
    }
  ],
  "Dsgntns": [
    {
      "dsgntnNm": "Certified Financial Planner"
    }
  ],
  "PrevRgstns": [
    {
      "BrnchOfLocs": [
        {
          "city": "ABERDEEN",
          "state": 43,
          "stateSpecified": true
        },
        {
          "city": "ABERDEEN",
          "state": 43,
          "stateSpecified": true
        },
        {
          "city": "ABERDEEN",
          "state": 43,
          "stateSpecified": true
        }
      ],
      "orgNm": "WELLS FARGO INVESTMENTS, LLC",
      "orgPK": "10582",
      "regBeginDt": "2004-06-02T00:00:00",
      "regBeginDtSpecified": true,
      "regEndDt": "2011-01-03T00:00:00",
      "regEndDtSpecified": true
    }
  ],
  "EmpHss": [
    {
      "fromDt": "12/2000",
      "toDt": "01/2011",
      "orgNm": "WELLS FARGO INVESTMENTS, LLC",
      "city": "ABERDEEN",
      "state": 43,
      "stateSpecified": true
    },
    {
      "fromDt": "01/2011",
      "toDt": null,
      "orgNm": "WELLS FARGO ADVISORS LLC",
      "city": "ABERDEEN",
      "state": 43,
      "stateSpecified": true
    }
  ],
  "OthrBuss": {
    "OthrBus": {
      "desc": "ZB3 LLC, 1515 N JACKSON ST, ABERDEEN, SD 57601. INVESTOR IN JIMMY JOHNS FRANCHISE. 0 HRS AND NO COMPENSATION AT THIS TIME, 6-8 MONTHS BEFORE NEW STORE TO OPEN. -  BEARE RENTALS, LLC; INV-RELATED; ABERDEEN, SD; 100% OWNERSHIP WITH SPOUSE; START: 10/01/2004; HOURS: 2 PER MONTH - 0 DURING TRADING; DUTIES: RENTAL PROPERTY MANAGEMENT"
    }
  },
  "DRPs": [
    {
      "hasRegAction": 1,
      "hasRegActionSpecified": true,
      "hasCriminal": 1,
      "hasCriminalSpecified": true,
      "hasBankrupt": 1,
      "hasBankruptSpecified": true,
      "hasCivilJudc": 1,
      "hasCivilJudcSpecified": true,
      "hasBond": 1,
      "hasBondSpecified": true,
      "hasJudgment": 1,
      "hasJudgmentSpecified": true,
      "hasInvstgn": 1,
      "hasInvstgnSpecified": true,
      "hasCustComp": 0,
      "hasCustCompSpecified": true,
      "hasTermination": 1,
      "hasTerminationSpecified": true
    }
  ]
}