{
  "Info": {
    "lastNm": "BRICKNER",
    "firstNm": "WARD",
    "midNm": "RUSSELL",
    "sufNm": null,
    "indvlPK": "1434842",
    "actvAGReg": 0,
    "link": "http://www.adviserinfo.sec.gov/IAPD/Individual/1434842"
  },
  "OthrNms": [
    {
      "lastNm": "BRICKNER",
      "firstNm": "WARD",
      "midNm": "RUSSEL",
      "sufNm": null
    }
  ],
  "CrntEmps": [
    {
      "CrntRgstns": [
        {
          "regAuth": 32,
          "regCat": 0,
          "st": 2,
          "stDt": "2014-08-08T00:00:00"
        },
        {
          "regAuth": 6,
          "regCat": 0,
          "st": 2,
          "stDt": "2015-04-13T00:00:00"
        }
      ],
      "BrnchOfLocs": [
        {
          "str1": "4250 VETERAN'S MEMORIAL HIGHWAY",
          "str2": "4TH. FLOOR, SUITE 420E",
          "city": "HOLBROOK",
          "state": 35,
          "stateSpecified": true,
          "cntry": "United States",
          "postlCd": "11741"
        }
      ],
      "orgNm": "AMERICAN PORTFOLIOS ADVISORS, INC",
      "orgPK": "112697",
      "str1": "4250 VETERAN'S MEMORIAL HIGHWAY",
      "str2": "4TH. FLOOR, SUITE 420E",
      "city": "HOLBROOK",
      "state": 35,
      "stateSpecified": true,
      "cntry": "United States",
      "postlCd": "11741"
    }
  ],
  "Exms": [
    {
      "exmCd": 0,
      "exmNm": "Uniform Securities Agent State Law Examination",
      "exmDt": "1985-12-18T00:00:00",
      "exmDtSpecified": true
    },
    {
      "exmCd": 3,
      "exmNm": "Uniform Combined State Law Examination",
      "exmDt": "2006-02-10T00:00:00",
      "exmDtSpecified": true
    }
  ],
  "Dsgntns": [],
  "PrevRgstns": [
    {
      "BrnchOfLocs": [
        {
          "city": "WOODBURY",
          "state": 35,
          "stateSpecified": true
        },
        {
          "city": "WOODBURY",
          "state": 35,
          "stateSpecified": true
        }
      ],
      "orgNm": "PARK AVENUE SECURITIES LLC",
      "orgPK": "46173",
      "regBeginDt": "2007-02-06T00:00:00",
      "regBeginDtSpecified": true,
      "regEndDt": "2014-07-07T00:00:00",
      "regEndDtSpecified": true
    }
  ],
  "EmpHss": [
    {
      "fromDt": "03/2005",
      "toDt": null,
      "orgNm": "GUARDIAN LIFE INSURANCE COMPANY OF AMERICA",
      "city": "WOODBURY",
      "state": 35,
      "stateSpecified": true
    },
    {
      "fromDt": "03/2005",
      "toDt": "06/2014",
      "orgNm": "PARK AVENUE SECURITIES",
      "city": "WOODBURY",
      "state": 35,
      "stateSpecified": true
    },
    {
      "fromDt": "06/2014",
      "toDt": null,
      "orgNm": "AMERICAN PORTFOLIOS FINANCIAL SERVICES, INC.",
      "city": "HOLBROOK",
      "state": 35,
      "stateSpecified": true
    }
  ],
  "OthrBuss": {
    "OthrBus": {
      "desc": "1) DBA-FORTRESS FINANCIAL SERVICES, INC. SELLING NON-GUARDIAN INSURANCE PRODUCTS   2) NATIONAL NETWORK FOR ATTORNEYS, SILENT PARTNER. AS OF 12/1/2012. MARKETING SERVICE FOR BUSINESSES.  NO COMPENSATION.    3) Legal Shield. Referral to LS. Provides legal services through a network of provider law firms. Not securities related. Start date 10/2015. .5 hours devoted per month, zero hours during market hours."
    }
  },
  "DRPs": [
    {
      "hasRegAction": 1,
      "hasRegActionSpecified": true,
      "hasCriminal": 1,
      "hasCriminalSpecified": true,
      "hasBankrupt": 1,
      "hasBankruptSpecified": true,
      "hasCivilJudc": 1,
      "hasCivilJudcSpecified": true,
      "hasBond": 1,
      "hasBondSpecified": true,
      "hasJudgment": 0,
      "hasJudgmentSpecified": true,
      "hasInvstgn": 1,
      "hasInvstgnSpecified": true,
      "hasCustComp": 0,
      "hasCustCompSpecified": true,
      "hasTermination": 1,
      "hasTerminationSpecified": true
    }
  ]
}