{
  "Info": {
    "lastNm": "SCAHILL",
    "firstNm": "TRACY",
    "midNm": "A",
    "sufNm": null,
    "indvlPK": "1436012",
    "actvAGReg": 0,
    "link": "http://www.adviserinfo.sec.gov/IAPD/Individual/1436012"
  },
  "OthrNms": [
    {
      "lastNm": "BREWER",
      "firstNm": "TRACY",
      "midNm": null,
      "sufNm": null
    },
    {
      "lastNm": "BREWER",
      "firstNm": "TRACY",
      "midNm": "ANN",
      "sufNm": null
    },
    {
      "lastNm": "BREWERLITTMAN",
      "firstNm": "TRACY",
      "midNm": null,
      "sufNm": null
    }
  ],
  "CrntEmps": [
    {
      "CrntRgstns": [
        {
          "regAuth": 45,
          "regCat": 0,
          "st": 3,
          "stDt": "2004-07-21T00:00:00"
        },
        {
          "regAuth": 6,
          "regCat": 0,
          "st": 2,
          "stDt": "2007-08-31T00:00:00"
        }
      ],
      "BrnchOfLocs": [
        {
          "str1": "1325 FRANKLIN AVE",
          "str2": null,
          "city": "GARDEN CITY",
          "state": 35,
          "stateSpecified": true,
          "cntry": "United States",
          "postlCd": "11530"
        }
      ],
      "orgNm": "MERRILL LYNCH, PIERCE, FENNER & SMITH INCORPORATED",
      "orgPK": "7691",
      "str1": "ONE BRYANT PARK",
      "str2": null,
      "city": "NEW YORK",
      "state": 35,
      "stateSpecified": true,
      "cntry": "United States",
      "postlCd": "10036"
    }
  ],
  "Exms": [
    {
      "exmCd": 0,
      "exmNm": "Uniform Securities Agent State Law Examination",
      "exmDt": "1986-06-03T00:00:00",
      "exmDtSpecified": true
    },
    {
      "exmCd": 2,
      "exmNm": "Uniform Investment Adviser Law Examination",
      "exmDt": "1996-08-21T00:00:00",
      "exmDtSpecified": true
    }
  ],
  "Dsgntns": [],
  "PrevRgstns": [],
  "EmpHss": [
    {
      "fromDt": "10/1985",
      "toDt": null,
      "orgNm": "MERRILL LYNCH, PIERCE, FENNER & SMITH INCORPORATED",
      "city": "GARDEN CITY",
      "state": 35,
      "stateSpecified": true
    },
    {
      "fromDt": "12/2009",
      "toDt": null,
      "orgNm": "BANK OF AMERICA, NA",
      "city": "GARDEN CITY",
      "state": 35,
      "stateSpecified": true
    }
  ],
  "OthrBuss": {
    "OthrBus": null
  },
  "DRPs": []
}