{
  "Info": {
    "lastNm": "JOYCE",
    "firstNm": "RICHARD",
    "midNm": "JOSEPH",
    "sufNm": null,
    "indvlPK": "1439982",
    "actvAGReg": 1,
    "link": "http://www.adviserinfo.sec.gov/IAPD/Individual/1439982"
  },
  "OthrNms": [],
  "CrntEmps": [
    {
      "CrntRgstns": [
        {
          "regAuth": 28,
          "regCat": 0,
          "st": 2,
          "stDt": "2015-02-27T00:00:00"
        },
        {
          "regAuth": 42,
          "regCat": 0,
          "st": 2,
          "stDt": "2015-03-02T00:00:00"
        }
      ],
      "BrnchOfLocs": [
        {
          "str1": null,
          "str2": null,
          "city": "WAXHAW",
          "state": 28,
          "stateSpecified": true,
          "cntry": "United States",
          "postlCd": null
        },
        {
          "str1": "4105 LEXINGTON AVENUE N.",
          "str2": "SUITE 310",
          "city": "ARDEN HILLS",
          "state": 24,
          "stateSpecified": true,
          "cntry": "United States",
          "postlCd": "55126"
        }
      ],
      "orgNm": "GRADIENT ADVISORS, LLC",
      "orgPK": "152665",
      "str1": "4105 LEXINGTON AVENUE N.",
      "str2": "SUITE 310",
      "city": "ARDEN HILLS",
      "state": 24,
      "stateSpecified": true,
      "cntry": "United States",
      "postlCd": "55126"
    }
  ],
  "Exms": [
    {
      "exmCd": 0,
      "exmNm": "Uniform Securities Agent State Law Examination",
      "exmDt": "1986-08-12T00:00:00",
      "exmDtSpecified": true
    },
    {
      "exmCd": 2,
      "exmNm": "Uniform Investment Adviser Law Examination",
      "exmDt": "2015-01-08T00:00:00",
      "exmDtSpecified": true
    }
  ],
  "Dsgntns": [],
  "PrevRgstns": [],
  "EmpHss": [
    {
      "fromDt": "07/1998",
      "toDt": null,
      "orgNm": "FINANCIAL DESIGN, INC",
      "city": "CHARLOTTE",
      "state": 28,
      "stateSpecified": true
    }
  ],
  "OthrBuss": {
    "OthrBus": {
      "desc": "DBA FINANCIAL DESIGN, INC; 2212 HIGHLAND FOREST DRIVE, WAXHAW, NC 28173; INV-RELATED; INSURANCE AND ADVISORY SALES; START 07/1998; 160 HRS/MO; 160 HRS/MO DURING TRADING"
    }
  },
  "DRPs": []
}