{
  "Info": {
    "lastNm": "BULL",
    "firstNm": "DARRYL",
    "midNm": "ROBERT",
    "sufNm": "SR",
    "indvlPK": "1440055",
    "actvAGReg": 0,
    "link": "http://www.adviserinfo.sec.gov/IAPD/Individual/1440055"
  },
  "OthrNms": [
    {
      "lastNm": "BULL",
      "firstNm": "DARRYL",
      "midNm": "ROBERT",
      "sufNm": null
    },
    {
      "lastNm": "BULL",
      "firstNm": "DARRYL",
      "midNm": "ROBERT",
      "sufNm": null
    },
    {
      "lastNm": "BULL",
      "firstNm": "DARRYL",
      "midNm": "ROBERT",
      "sufNm": "SR"
    }
  ],
  "CrntEmps": [
    {
      "CrntRgstns": [
        {
          "regAuth": 39,
          "regCat": 0,
          "st": 2,
          "stDt": "2015-02-18T00:00:00"
        }
      ],
      "BrnchOfLocs": [
        {
          "str1": "110 PENNSYLVANIA AVE",
          "str2": null,
          "city": "BANGOR",
          "state": 39,
          "stateSpecified": true,
          "cntry": "United States",
          "postlCd": "18013-1923"
        }
      ],
      "orgNm": "ALLSTATE FINANCIAL ADVISORS, LLC",
      "orgPK": "109524",
      "str1": "3100 SANDERS ROAD",
      "str2": null,
      "city": "NORTHBROOK",
      "state": 15,
      "stateSpecified": true,
      "cntry": "United States",
      "postlCd": "60062"
    }
  ],
  "Exms": [
    {
      "exmCd": 0,
      "exmNm": "Uniform Securities Agent State Law Examination",
      "exmDt": "1986-02-27T00:00:00",
      "exmDtSpecified": true
    },
    {
      "exmCd": 2,
      "exmNm": "Uniform Investment Adviser Law Examination",
      "exmDt": "2013-03-19T00:00:00",
      "exmDtSpecified": true
    }
  ],
  "Dsgntns": [],
  "PrevRgstns": [
    {
      "BrnchOfLocs": [
        {
          "city": "CENTER SQUARE",
          "state": 39,
          "stateSpecified": true
        },
        {
          "city": "NORRISTOWN",
          "state": 39,
          "stateSpecified": true
        },
        {
          "city": "POTTSTOWN",
          "state": 39,
          "stateSpecified": true
        },
        {
          "city": "READING",
          "state": 39,
          "stateSpecified": true
        },
        {
          "city": "READING",
          "state": 39,
          "stateSpecified": true
        },
        {
          "city": "READING",
          "state": 39,
          "stateSpecified": true
        },
        {
          "city": "ROYERSFORD",
          "state": 39,
          "stateSpecified": true
        },
        {
          "city": "SINKING SPRING",
          "state": 39,
          "stateSpecified": true
        },
        {
          "city": "SINKING SPRING",
          "state": 39,
          "stateSpecified": true
        },
        {
          "city": "TROOPER",
          "state": 39,
          "stateSpecified": true
        },
        {
          "city": "WYOMISSING",
          "state": 39,
          "stateSpecified": true
        }
      ],
      "orgNm": "CITIZENS SECURITIES, INC.",
      "orgPK": "39550",
      "regBeginDt": "2008-10-23T00:00:00",
      "regBeginDtSpecified": true,
      "regEndDt": "2010-08-26T00:00:00",
      "regEndDtSpecified": true
    }
  ],
  "EmpHss": [
    {
      "fromDt": "06/1997",
      "toDt": "09/2014",
      "orgNm": "BULL FINANCIAL GROUP",
      "city": "DOWNINGTOWN",
      "state": 39,
      "stateSpecified": true
    },
    {
      "fromDt": "01/2004",
      "toDt": "08/2006",
      "orgNm": "OHIO NATIONAL",
      "city": "CINCINNATI",
      "state": 36,
      "stateSpecified": true
    },
    {
      "fromDt": "01/2004",
      "toDt": "08/2006",
      "orgNm": "THE O.N. EQUTIY SALES COMPANY",
      "city": "CINCINNATI",
      "state": 36,
      "stateSpecified": true
    },
    {
      "fromDt": "08/2006",
      "toDt": "09/2008",
      "orgNm": "ALLSTATE INSURANCE COMPANY",
      "city": "PARKERFORD",
      "state": 39,
      "stateSpecified": true
    },
    {
      "fromDt": "09/2008",
      "toDt": "08/2010",
      "orgNm": "CCO INVESTMENT SERVICES CORP",
      "city": "CENTER SQUARE",
      "state": 39,
      "stateSpecified": true
    },
    {
      "fromDt": "06/2013",
      "toDt": "12/2015",
      "orgNm": "COLLEGE BOUND",
      "city": "DOWNINGTOWN",
      "state": 39,
      "stateSpecified": true
    },
    {
      "fromDt": "09/2014",
      "toDt": null,
      "orgNm": "ALLSTATE INSURANCE CO",
      "city": "BANGOR",
      "state": 39,
      "stateSpecified": true
    }
  ],
  "OthrBuss": {
    "OthrBus": {
      "desc": "BULL FINANCIAL GROUP INC, owner  2 William Penn Drive, Downingtown, PA 19335  duties: renewal income  1%; 5 hours per month; 5 hours per month during trades  6/30/1997  not investment related"
    }
  },
  "DRPs": [
    {
      "hasRegAction": 1,
      "hasRegActionSpecified": true,
      "hasCriminal": 1,
      "hasCriminalSpecified": true,
      "hasBankrupt": 1,
      "hasBankruptSpecified": true,
      "hasCivilJudc": 1,
      "hasCivilJudcSpecified": true,
      "hasBond": 1,
      "hasBondSpecified": true,
      "hasJudgment": 1,
      "hasJudgmentSpecified": true,
      "hasInvstgn": 1,
      "hasInvstgnSpecified": true,
      "hasCustComp": 1,
      "hasCustCompSpecified": true,
      "hasTermination": 0,
      "hasTerminationSpecified": true
    }
  ]
}