{
  "Info": {
    "lastNm": "BOSCHERT",
    "firstNm": "DEAN",
    "midNm": "ALLEN",
    "sufNm": null,
    "indvlPK": "1444454",
    "actvAGReg": 0,
    "link": "http://www.adviserinfo.sec.gov/IAPD/Individual/1444454"
  },
  "OthrNms": [],
  "CrntEmps": [
    {
      "CrntRgstns": [
        {
          "regAuth": 5,
          "regCat": 0,
          "st": 2,
          "stDt": "2015-09-29T00:00:00"
        }
      ],
      "BrnchOfLocs": [
        {
          "str1": "5540 N Academy Blvd",
          "str2": "Suite 220",
          "city": "Colorado Springs",
          "state": 5,
          "stateSpecified": true,
          "cntry": "United States",
          "postlCd": "80918"
        }
      ],
      "orgNm": "CETERA INVESTMENT ADVISERS LLC",
      "orgPK": "105644",
      "str1": "200 NORTH MARTINGALE ROAD",
      "str2": null,
      "city": "SCHAUMBURG",
      "state": 15,
      "stateSpecified": true,
      "cntry": "United States",
      "postlCd": "60173-2096"
    }
  ],
  "Exms": [
    {
      "exmCd": 0,
      "exmNm": "Uniform Securities Agent State Law Examination",
      "exmDt": "1988-02-29T00:00:00",
      "exmDtSpecified": true
    },
    {
      "exmCd": 2,
      "exmNm": "Uniform Investment Adviser Law Examination",
      "exmDt": "2002-03-13T00:00:00",
      "exmDtSpecified": true
    }
  ],
  "Dsgntns": [
    {
      "dsgntnNm": "Chartered Financial Consultant"
    }
  ],
  "PrevRgstns": [
    {
      "BrnchOfLocs": [
        {
          "city": "COLORADO SPRINGS",
          "state": 5,
          "stateSpecified": true
        }
      ],
      "orgNm": "QUICK & REILLY, INC.",
      "orgPK": "11217",
      "regBeginDt": "2002-09-06T00:00:00",
      "regBeginDtSpecified": true,
      "regEndDt": "2004-09-22T00:00:00",
      "regEndDtSpecified": true
    },
    {
      "BrnchOfLocs": [
        {
          "city": "COLORADO SPRINGS",
          "state": 5,
          "stateSpecified": true
        },
        {
          "city": "COLORADO SPRINGS",
          "state": 5,
          "stateSpecified": true
        }
      ],
      "orgNm": "AMERIPRISE ADVISOR SERVICES, INC.",
      "orgPK": "5979",
      "regBeginDt": "2004-09-07T00:00:00",
      "regBeginDtSpecified": true,
      "regEndDt": "2008-11-04T00:00:00",
      "regEndDtSpecified": true
    },
    {
      "BrnchOfLocs": [
        {
          "city": "COLORADO SPRINGS",
          "state": 5,
          "stateSpecified": true
        }
      ],
      "orgNm": "J P TURNER & COMPANY CAPITAL MANAGEMENT, LLC",
      "orgPK": "124446",
      "regBeginDt": "2008-11-05T00:00:00",
      "regBeginDtSpecified": true,
      "regEndDt": "2015-11-13T00:00:00",
      "regEndDtSpecified": true
    }
  ],
  "EmpHss": [
    {
      "fromDt": "09/2004",
      "toDt": "11/2008",
      "orgNm": "H&R BLOCK FINANCIAL ADVISORS",
      "city": "COLORADO SPRINGS",
      "state": 5,
      "stateSpecified": true
    },
    {
      "fromDt": "11/2008",
      "toDt": null,
      "orgNm": "J.P. TURNER& COMPANY, LLC",
      "city": "COLORADO SPRINGS",
      "state": 5,
      "stateSpecified": true
    },
    {
      "fromDt": "08/2015",
      "toDt": null,
      "orgNm": "SUMMIT BROKERAGE SERVICES",
      "city": "COLORADO SPRINGS",
      "state": 5,
      "stateSpecified": true
    }
  ],
  "OthrBuss": {
    "OthrBus": {
      "desc": "(1)  THE COLORADO SPRINGS SCHOOL; 21 BORADMOOR AVE, COLORADO SPRINGS, CO, 80906; SINCE 06/2012; TRUSTEE; SERVE ON THE BOARD OF TRUSTEES; 3 HOURS SPENT ON THIS ACTIVITY/MONTH; 0 DURING TRADING HOURS   (2)  THE COLORADO SPRINGS SCHOOL FOUNDATION; 21 BORADMOOR AVE, COLORADO SPRINGS, CO, 80906; SINCE 06/2010; DIRECTOR; SERVE ON BOARD OF DIRECTORS; 1 HOURS SPENT/ MONTH; 0 DURING TRADING HOURS    (3)  ACADEMY WEALTH MANAGEMENT GROUP; SAME AS BRANCH ADDRESS; SINCE 10/23/2015; FINANCIAL ADVISOR; FINANCIAL SERVICES AND BROKERAGE; 160 HOURS SPENT ON ACTIVITY PER MONTH, 160 HOURS SPENT ON ACTIVITY DURING TRADING HOURS"
    }
  },
  "DRPs": []
}