{
  "Info": {
    "lastNm": "MCCORMICK",
    "firstNm": "SCOT",
    "midNm": "LYLE",
    "sufNm": null,
    "indvlPK": "1446132",
    "actvAGReg": 1,
    "link": "http://www.adviserinfo.sec.gov/IAPD/Individual/1446132"
  },
  "OthrNms": [
    {
      "lastNm": "MCCORMICK",
      "firstNm": "SCOT",
      "midNm": null,
      "sufNm": null
    },
    {
      "lastNm": "MCCORMICK",
      "firstNm": "SCOT",
      "midNm": "L",
      "sufNm": null
    }
  ],
  "CrntEmps": [
    {
      "CrntRgstns": [
        {
          "regAuth": 9,
          "regCat": 0,
          "st": 2,
          "stDt": "2015-05-15T00:00:00"
        },
        {
          "regAuth": 10,
          "regCat": 0,
          "st": 2,
          "stDt": "2015-08-05T00:00:00"
        }
      ],
      "BrnchOfLocs": [
        {
          "str1": null,
          "str2": null,
          "city": "CAPE CORAL",
          "state": 9,
          "stateSpecified": true,
          "cntry": "United States",
          "postlCd": null
        }
      ],
      "orgNm": "SCOT MCCORMICK LLC",
      "orgPK": "146056",
      "str1": null,
      "str2": null,
      "city": "CAPE CORAL",
      "state": 9,
      "stateSpecified": true,
      "cntry": "United States",
      "postlCd": null
    }
  ],
  "Exms": [
    {
      "exmCd": 0,
      "exmNm": "Uniform Securities Agent State Law Examination",
      "exmDt": "1997-05-27T00:00:00",
      "exmDtSpecified": true
    },
    {
      "exmCd": 3,
      "exmNm": "Uniform Combined State Law Examination",
      "exmDt": "2003-05-21T00:00:00",
      "exmDtSpecified": true
    }
  ],
  "Dsgntns": [
    {
      "dsgntnNm": "Chartered Financial Analyst"
    }
  ],
  "PrevRgstns": [
    {
      "BrnchOfLocs": [
        {
          "city": "RENO",
          "state": 34,
          "stateSpecified": true
        }
      ],
      "orgNm": "WELLS FARGO INVESTMENTS, LLC",
      "orgPK": "10582",
      "regBeginDt": "2003-05-22T00:00:00",
      "regBeginDtSpecified": true,
      "regEndDt": "2005-05-04T00:00:00",
      "regEndDtSpecified": true
    },
    {
      "BrnchOfLocs": [
        {
          "city": "RENO",
          "state": 34,
          "stateSpecified": true
        }
      ],
      "orgNm": "ADAGIO CAPITAL MANAGEMENT, LLC",
      "orgPK": "122612",
      "regBeginDt": "2005-10-19T00:00:00",
      "regBeginDtSpecified": true,
      "regEndDt": "2009-06-30T00:00:00",
      "regEndDtSpecified": true
    }
  ],
  "EmpHss": [
    {
      "fromDt": "08/2005",
      "toDt": "10/2008",
      "orgNm": "ADAGIO FINANCIAL LLC",
      "city": "RENO",
      "state": 34,
      "stateSpecified": true
    },
    {
      "fromDt": "08/2005",
      "toDt": "10/2008",
      "orgNm": "ADAGIO TRUST COMPANY",
      "city": "RENO",
      "state": 34,
      "stateSpecified": true
    },
    {
      "fromDt": "10/2008",
      "toDt": null,
      "orgNm": "SCOT MCCORMICK LLC",
      "city": "CAPE CORAL",
      "state": 9,
      "stateSpecified": true
    },
    {
      "fromDt": "04/2015",
      "toDt": "06/2015",
      "orgNm": "SCOT MCCORMICK LLC",
      "city": "CHEYENNE",
      "state": 52,
      "stateSpecified": true
    }
  ],
  "OthrBuss": {
    "OthrBus": null
  },
  "DRPs": []
}