{
  "Info": {
    "lastNm": "D'AGOSTINO",
    "firstNm": "TAMMY",
    "midNm": "JEAN",
    "sufNm": null,
    "indvlPK": "1447785",
    "actvAGReg": 0,
    "link": "http://www.adviserinfo.sec.gov/IAPD/Individual/1447785"
  },
  "OthrNms": [
    {
      "lastNm": "BAKER",
      "firstNm": "TAMMY",
      "midNm": "J",
      "sufNm": null
    },
    {
      "lastNm": "BAKER",
      "firstNm": "TAMMY",
      "midNm": "JEAN",
      "sufNm": null
    },
    {
      "lastNm": "DAGOSTINO",
      "firstNm": "TAMMY",
      "midNm": "JEAN",
      "sufNm": null
    }
  ],
  "CrntEmps": [
    {
      "CrntRgstns": [
        {
          "regAuth": 4,
          "regCat": 0,
          "st": 2,
          "stDt": "2009-06-01T00:00:00"
        },
        {
          "regAuth": 34,
          "regCat": 0,
          "st": 2,
          "stDt": "2011-02-09T00:00:00"
        }
      ],
      "BrnchOfLocs": [
        {
          "str1": "21650 OXNARD ST.",
          "str2": "SUITE 1800",
          "city": "WOODLAND HILLS",
          "state": 4,
          "stateSpecified": true,
          "cntry": "United States",
          "postlCd": "91367"
        }
      ],
      "orgNm": "MORGAN STANLEY",
      "orgPK": "149777",
      "str1": "2000 WESTCHESTER AVENUE",
      "str2": null,
      "city": "PURCHASE",
      "state": 35,
      "stateSpecified": true,
      "cntry": "United States",
      "postlCd": "10577-2530"
    }
  ],
  "Exms": [
    {
      "exmCd": 0,
      "exmNm": "Uniform Securities Agent State Law Examination",
      "exmDt": "1997-04-03T00:00:00",
      "exmDtSpecified": true
    },
    {
      "exmCd": 3,
      "exmNm": "Uniform Combined State Law Examination",
      "exmDt": "2009-06-03T00:00:00",
      "exmDtSpecified": true
    }
  ],
  "Dsgntns": [],
  "PrevRgstns": [
    {
      "BrnchOfLocs": [
        {
          "city": "WOODLAND HILLS",
          "state": 4,
          "stateSpecified": true
        },
        {
          "city": "WOODLAND HILLS",
          "state": 4,
          "stateSpecified": true
        }
      ],
      "orgNm": "UBS FINANCIAL SERVICES INC.",
      "orgPK": "8174",
      "regBeginDt": "2000-06-13T00:00:00",
      "regBeginDtSpecified": true,
      "regEndDt": "2006-09-26T00:00:00",
      "regEndDtSpecified": true
    },
    {
      "BrnchOfLocs": [
        {
          "city": "WOODLAND HILLS",
          "state": 4,
          "stateSpecified": true
        }
      ],
      "orgNm": "MORGAN STANLEY DW INC.",
      "orgPK": "7556",
      "regBeginDt": "2006-10-10T00:00:00",
      "regBeginDtSpecified": true,
      "regEndDt": "2007-04-02T00:00:00",
      "regEndDtSpecified": true
    },
    {
      "BrnchOfLocs": [
        {
          "city": "WOODLAND HILLS",
          "state": 4,
          "stateSpecified": true
        }
      ],
      "orgNm": "MORGAN STANLEY & CO. LLC",
      "orgPK": "8209",
      "regBeginDt": "2007-04-02T00:00:00",
      "regBeginDtSpecified": true,
      "regEndDt": "2009-06-01T00:00:00",
      "regEndDtSpecified": true
    }
  ],
  "EmpHss": [
    {
      "fromDt": "05/2001",
      "toDt": "09/2006",
      "orgNm": "UBS PAINEWEBBER INCORPORATED",
      "city": "WOODLAND HILLS",
      "state": 4,
      "stateSpecified": true
    },
    {
      "fromDt": "09/2006",
      "toDt": "04/2007",
      "orgNm": "MORGAN STANLEY DW, INC.",
      "city": "WOODLAND HILLS",
      "state": 4,
      "stateSpecified": true
    },
    {
      "fromDt": "04/2007",
      "toDt": null,
      "orgNm": "MORGAN STANLEY & CO., INCORPORATED",
      "city": "WOODLAND HILLS",
      "state": 4,
      "stateSpecified": true
    },
    {
      "fromDt": "06/2009",
      "toDt": null,
      "orgNm": "MORGAN STANLEY SMITH BARNEY",
      "city": "WOODLAND HILLS",
      "state": 4,
      "stateSpecified": true
    }
  ],
  "OthrBuss": {
    "OthrBus": null
  },
  "DRPs": []
}