{
  "Info": {
    "lastNm": "GOETTERT",
    "firstNm": "WILLIAM",
    "midNm": "HOWARD",
    "sufNm": null,
    "indvlPK": "1447191",
    "actvAGReg": 0,
    "link": "http://www.adviserinfo.sec.gov/IAPD/Individual/1447191"
  },
  "OthrNms": [
    {
      "lastNm": "GOETTERT",
      "firstNm": "BILL",
      "midNm": null,
      "sufNm": null
    }
  ],
  "CrntEmps": [
    {
      "CrntRgstns": [
        {
          "regAuth": 45,
          "regCat": 0,
          "st": 3,
          "stDt": "2015-08-14T00:00:00"
        },
        {
          "regAuth": 9,
          "regCat": 0,
          "st": 2,
          "stDt": "2015-08-24T00:00:00"
        }
      ],
      "BrnchOfLocs": [
        {
          "str1": "SMITH BARNEY FINANCIAL CENTER",
          "str2": "595 SOUTH FEDERAL HIGHWAY",
          "city": "BOCA RATON",
          "state": 9,
          "stateSpecified": true,
          "cntry": "United States",
          "postlCd": "33432"
        }
      ],
      "orgNm": "MORGAN STANLEY",
      "orgPK": "149777",
      "str1": "2000 WESTCHESTER AVENUE",
      "str2": null,
      "city": "PURCHASE",
      "state": 35,
      "stateSpecified": true,
      "cntry": "United States",
      "postlCd": "10577-2530"
    }
  ],
  "Exms": [
    {
      "exmCd": 0,
      "exmNm": "Uniform Securities Agent State Law Examination",
      "exmDt": "2004-03-29T00:00:00",
      "exmDtSpecified": true
    }
  ],
  "Dsgntns": [],
  "PrevRgstns": [
    {
      "BrnchOfLocs": [
        {
          "city": "WESTON",
          "state": 9,
          "stateSpecified": true
        },
        {
          "city": "WESTON",
          "state": 9,
          "stateSpecified": true
        }
      ],
      "orgNm": "MERRILL LYNCH, PIERCE, FENNER & SMITH INCORPORATED",
      "orgPK": "7691",
      "regBeginDt": "2000-03-28T00:00:00",
      "regBeginDtSpecified": true,
      "regEndDt": "2010-08-24T00:00:00",
      "regEndDtSpecified": true
    },
    {
      "BrnchOfLocs": [
        {
          "city": "BOCA RATON",
          "state": 9,
          "stateSpecified": true
        }
      ],
      "orgNm": "CITIGROUP GLOBAL MARKETS INC.",
      "orgPK": "7059",
      "regBeginDt": "2010-08-30T00:00:00",
      "regBeginDtSpecified": true,
      "regEndDt": "2015-09-08T00:00:00",
      "regEndDtSpecified": true
    }
  ],
  "EmpHss": [
    {
      "fromDt": "03/2000",
      "toDt": "08/2010",
      "orgNm": "MERRILL LYNCH",
      "city": "FT. LAUDERDALE",
      "state": 9,
      "stateSpecified": true
    },
    {
      "fromDt": "01/2010",
      "toDt": "08/2010",
      "orgNm": "BANK OF AMERICA, NA",
      "city": "WESTON",
      "state": 9,
      "stateSpecified": true
    },
    {
      "fromDt": "08/2010",
      "toDt": "08/2015",
      "orgNm": "CITIGROUP GLOBAL MARKETS",
      "city": "BOCA RATON",
      "state": 9,
      "stateSpecified": true
    },
    {
      "fromDt": "08/2015",
      "toDt": null,
      "orgNm": "MORGAN STANLEY PRIVATE BANK, NATIONAL ASSOCIATION",
      "city": "NEW YORK",
      "state": 35,
      "stateSpecified": true
    },
    {
      "fromDt": "08/2015",
      "toDt": null,
      "orgNm": "MORGAN STANLEY SMITH BARNEY LLC",
      "city": "BOCA RATON",
      "state": 9,
      "stateSpecified": true
    }
  ],
  "OthrBuss": {
    "OthrBus": null
  },
  "DRPs": []
}