{
  "Info": {
    "lastNm": "RAMSEY",
    "firstNm": "ROBERT",
    "midNm": "CHAFFIN",
    "sufNm": null,
    "indvlPK": "1447570",
    "actvAGReg": 0,
    "link": "http://www.adviserinfo.sec.gov/IAPD/Individual/1447570"
  },
  "OthrNms": [],
  "CrntEmps": [
    {
      "CrntRgstns": [
        {
          "regAuth": 44,
          "regCat": 0,
          "st": 2,
          "stDt": "2005-07-29T00:00:00"
        }
      ],
      "BrnchOfLocs": [
        {
          "str1": "2525 WEST END AVENUE",
          "str2": "STE 1000",
          "city": "NASHVILLE",
          "state": 44,
          "stateSpecified": true,
          "cntry": "United States",
          "postlCd": "37203"
        }
      ],
      "orgNm": "ROBERT W. BAIRD & CO. INCORPORATED",
      "orgPK": "8158",
      "str1": "777 E. WISCONSIN AVE",
      "str2": null,
      "city": "MILWAUKEE",
      "state": 50,
      "stateSpecified": true,
      "cntry": "United States",
      "postlCd": "53202-5391"
    }
  ],
  "Exms": [
    {
      "exmCd": 0,
      "exmNm": "Uniform Securities Agent State Law Examination",
      "exmDt": "1986-03-05T00:00:00",
      "exmDtSpecified": true
    },
    {
      "exmCd": 2,
      "exmNm": "Uniform Investment Adviser Law Examination",
      "exmDt": "1994-03-07T00:00:00",
      "exmDtSpecified": true
    }
  ],
  "Dsgntns": [],
  "PrevRgstns": [
    {
      "BrnchOfLocs": [
        {
          "city": "NASHVILLE",
          "state": 44,
          "stateSpecified": true
        }
      ],
      "orgNm": "MORGAN STANLEY DW INC.",
      "orgPK": "7556",
      "regBeginDt": "2002-12-16T00:00:00",
      "regBeginDtSpecified": true,
      "regEndDt": "2005-08-05T00:00:00",
      "regEndDtSpecified": true
    }
  ],
  "EmpHss": [
    {
      "fromDt": "07/2005",
      "toDt": null,
      "orgNm": "ROBERT W. BAIRD",
      "city": "NASHVILLE",
      "state": 44,
      "stateSpecified": true
    }
  ],
  "OthrBuss": {
    "OthrBus": {
      "desc": "GENERAL PARTNER IN 3 REAL ESTATE PARTNERSHIPS. HOPKINSVILLE ASSOCIATES,LTD. I AM LIMITED PARTNER AND THE SOLE GENERAL PARTNER.COMBINED OWNERSHIP IS 24.5%.FOX HOLLOW ASSOCIATES,LTD. JONESBORO,AK.I AM A GENERAL PARTNER AND HAVE 15% OWNERSHIP. CROMWELL PARK JOINT VENTURE. MEMPHIS,TN.GENERAL PARTNER 15% OWN.            OWNER OF THE HOPKINSVILLE ASSOCIATES, LTD., AN APARTMENT COMPLEX OWNERSHIP."
    }
  },
  "DRPs": []
}