{
  "Info": {
    "lastNm": "BERLAND",
    "firstNm": "BRUCE",
    "midNm": "I",
    "sufNm": null,
    "indvlPK": "1455255",
    "actvAGReg": 0,
    "link": "http://www.adviserinfo.sec.gov/IAPD/Individual/1455255"
  },
  "OthrNms": [
    {
      "lastNm": "BERLAND",
      "firstNm": "BRUCE",
      "midNm": null,
      "sufNm": null
    }
  ],
  "CrntEmps": [
    {
      "CrntRgstns": [
        {
          "regAuth": 10,
          "regCat": 0,
          "st": 2,
          "stDt": "2012-04-09T00:00:00"
        }
      ],
      "BrnchOfLocs": [
        {
          "str1": "3980 OLD MILTON PKWY",
          "str2": null,
          "city": "ALPHARETTA",
          "state": 10,
          "stateSpecified": true,
          "cntry": "United States",
          "postlCd": "30005"
        }
      ],
      "orgNm": "AMERIVEST INVESTMENT MANAGEMENT, LLC",
      "orgPK": "111514",
      "str1": "200 SOUTH 108TH AVENUE",
      "str2": null,
      "city": "OMAHA",
      "state": 30,
      "stateSpecified": true,
      "cntry": "United States",
      "postlCd": "68154"
    },
    {
      "CrntRgstns": [
        {
          "regAuth": 10,
          "regCat": 0,
          "st": 2,
          "stDt": "2012-04-09T00:00:00"
        }
      ],
      "BrnchOfLocs": [
        {
          "str1": "3980 OLD MILTON PKWY",
          "str2": null,
          "city": "ALPHARETTA",
          "state": 10,
          "stateSpecified": true,
          "cntry": "United States",
          "postlCd": "30005"
        }
      ],
      "orgNm": "TD AMERITRADE, INC.",
      "orgPK": "7870",
      "str1": "200 SOUTH 108TH AVENUE",
      "str2": null,
      "city": "OMAHA",
      "state": 30,
      "stateSpecified": true,
      "cntry": "United States",
      "postlCd": "68154"
    }
  ],
  "Exms": [
    {
      "exmCd": 0,
      "exmNm": "Uniform Securities Agent State Law Examination",
      "exmDt": "1986-07-28T00:00:00",
      "exmDtSpecified": true
    },
    {
      "exmCd": 3,
      "exmNm": "Uniform Combined State Law Examination",
      "exmDt": "2012-03-29T00:00:00",
      "exmDtSpecified": true
    }
  ],
  "Dsgntns": [],
  "PrevRgstns": [],
  "EmpHss": [
    {
      "fromDt": "04/2005",
      "toDt": "04/2010",
      "orgNm": "J. ALDEN ASSOCIATES, INC",
      "city": "JENKINTOWN",
      "state": 39,
      "stateSpecified": true
    },
    {
      "fromDt": "03/2010",
      "toDt": "03/2012",
      "orgNm": "DINOSAUR SECURITIES",
      "city": "NEW YORK",
      "state": 35,
      "stateSpecified": true
    },
    {
      "fromDt": "03/2012",
      "toDt": null,
      "orgNm": "TDAMERITRADE",
      "city": "ALPHARETTA",
      "state": 10,
      "stateSpecified": true
    }
  ],
  "OthrBuss": {
    "OthrBus": null
  },
  "DRPs": [
    {
      "hasRegAction": 1,
      "hasRegActionSpecified": true,
      "hasCriminal": 1,
      "hasCriminalSpecified": true,
      "hasBankrupt": 1,
      "hasBankruptSpecified": true,
      "hasCivilJudc": 1,
      "hasCivilJudcSpecified": true,
      "hasBond": 1,
      "hasBondSpecified": true,
      "hasJudgment": 1,
      "hasJudgmentSpecified": true,
      "hasInvstgn": 1,
      "hasInvstgnSpecified": true,
      "hasCustComp": 0,
      "hasCustCompSpecified": true,
      "hasTermination": 1,
      "hasTerminationSpecified": true
    }
  ]
}