{
  "Info": {
    "lastNm": "DENNEY",
    "firstNm": "GERALD",
    "midNm": "HOWARD",
    "sufNm": "JR",
    "indvlPK": "1463871",
    "actvAGReg": 0,
    "link": "http://www.adviserinfo.sec.gov/IAPD/Individual/1463871"
  },
  "OthrNms": [
    {
      "lastNm": "DENNEY",
      "firstNm": "GERALD",
      "midNm": "H",
      "sufNm": "JR"
    },
    {
      "lastNm": "DENNEY",
      "firstNm": "GERALD",
      "midNm": "H",
      "sufNm": "JR"
    },
    {
      "lastNm": "DENNEY",
      "firstNm": "JERRY",
      "midNm": null,
      "sufNm": null
    },
    {
      "lastNm": "DENNEY",
      "firstNm": "JERRY",
      "midNm": null,
      "sufNm": "JR"
    }
  ],
  "CrntEmps": [
    {
      "CrntRgstns": [
        {
          "regAuth": 47,
          "regCat": 0,
          "st": 2,
          "stDt": "2013-09-26T00:00:00"
        }
      ],
      "BrnchOfLocs": [
        {
          "str1": "600 PETER JEFFERSON PARKWAY, STE 370",
          "str2": null,
          "city": "CHARLOTTESVILLE",
          "state": 47,
          "stateSpecified": true,
          "cntry": "United States",
          "postlCd": "22911"
        },
        {
          "str1": "65 MADISON AVENUE, SUITE 300",
          "str2": null,
          "city": "MORRISTOWN",
          "state": 32,
          "stateSpecified": true,
          "cntry": "United States",
          "postlCd": "07960"
        }
      ],
      "orgNm": "PRIVATE ADVISOR GROUP, LLC",
      "orgPK": "155216",
      "str1": "65 MADISON AVENUE, SUITE 300",
      "str2": null,
      "city": "MORRISTOWN",
      "state": 32,
      "stateSpecified": true,
      "cntry": "United States",
      "postlCd": "07960"
    }
  ],
  "Exms": [
    {
      "exmCd": 0,
      "exmNm": "Uniform Securities Agent State Law Examination",
      "exmDt": "1990-07-27T00:00:00",
      "exmDtSpecified": true
    },
    {
      "exmCd": 2,
      "exmNm": "Uniform Investment Adviser Law Examination",
      "exmDt": "1995-03-06T00:00:00",
      "exmDtSpecified": true
    }
  ],
  "Dsgntns": [
    {
      "dsgntnNm": "Certified Financial Planner"
    },
    {
      "dsgntnNm": "Chartered Financial Consultant"
    }
  ],
  "PrevRgstns": [
    {
      "BrnchOfLocs": [
        {
          "city": "CHARLOTTESVILLE",
          "state": 47,
          "stateSpecified": true
        }
      ],
      "orgNm": "UBS FINANCIAL SERVICES INC.",
      "orgPK": "8174",
      "regBeginDt": "2000-11-16T00:00:00",
      "regBeginDtSpecified": true,
      "regEndDt": "2004-02-26T00:00:00",
      "regEndDtSpecified": true
    },
    {
      "BrnchOfLocs": [
        {
          "city": "WAYNESBORO",
          "state": 47,
          "stateSpecified": true
        }
      ],
      "orgNm": "COMMONWEALTH FINANCIAL NETWORK",
      "orgPK": "8032",
      "regBeginDt": "2004-02-11T00:00:00",
      "regBeginDtSpecified": true,
      "regEndDt": "2010-07-01T00:00:00",
      "regEndDtSpecified": true
    },
    {
      "BrnchOfLocs": [
        {
          "city": "CHARLOTTESVILLE",
          "state": 47,
          "stateSpecified": true
        }
      ],
      "orgNm": "WELLS FARGO ADVISORS, LLC",
      "orgPK": "19616",
      "regBeginDt": "2010-07-01T00:00:00",
      "regBeginDtSpecified": true,
      "regEndDt": "2013-10-18T00:00:00",
      "regEndDtSpecified": true
    }
  ],
  "EmpHss": [
    {
      "fromDt": "02/2004",
      "toDt": "07/2010",
      "orgNm": "BLUE RIDGE PLANNING SERVICES",
      "city": "CHARLOTTESVILLE",
      "state": 47,
      "stateSpecified": true
    },
    {
      "fromDt": "02/2004",
      "toDt": "07/2010",
      "orgNm": "COMMONWEALTH FINANCIAL NETWORK",
      "city": "WALTHAM",
      "state": 20,
      "stateSpecified": true
    },
    {
      "fromDt": "07/2010",
      "toDt": "09/2013",
      "orgNm": "WELLS FARGO ADVISORS LLC",
      "city": "CHARLOTTESVILLE",
      "state": 47,
      "stateSpecified": true
    },
    {
      "fromDt": "09/2013",
      "toDt": null,
      "orgNm": "LPL FINANCIAL LLC",
      "city": "CHARLOTTESVILLE",
      "state": 47,
      "stateSpecified": true
    },
    {
      "fromDt": "09/2013",
      "toDt": null,
      "orgNm": "PRIVATE ADVISOR GROUP, LLC",
      "city": "MORRISTOWN",
      "state": 32,
      "stateSpecified": true
    }
  ],
  "OthrBuss": {
    "OthrBus": {
      "desc": "(1) 09/24/2013 - PIEDMONT WEALTH MANAGEMENT, LLC/ DBA ONLY/ 100%/ CHARLOTTESVILLE, VA (2) 09/24/2013 - FIXED INSURANCE SALES/ SALE OF NON-VARIABLE INSURANCE/ 5%/ CHARLOTTESVILLE, VA     (3) 10/24/2013 - PRIVATE ADVISOR GROUP LLC - REGISTERED INVESTMENT ADVISOR - PRIVATE ADVISOR GROUP LLC - REGIISTERED INVESTMENT ADVISOR - CHARLOTTESVILLE, VA.    (4) 10/2/2015: No Business Name - Investment Related - Charlottesville, VA - Real Estate Rental - Started 10/01/2015 - 1 Hour Per Month/0 Hours During Securities Trading - Cottage on our property that we will begin renting out.    (5). 04/05/2016; PWM Properties LLC; Real Estate Rental; NOT INV REL; AT REPORTED BUSINESS LOCATION(S); START DATE 03/24/2016; I am preparing to buy my current office condo.  The address is:  600 Peter Jefferson Parkway, Suite 370, Charlottesville, VA 22911.  The business will expect to NOT be a revenue producing entity; more of a pass through for rents and office building expenses.  Expected revenue will be zero from this OBA; 1 HR/MO; 0 HRS DURING SECS TRADING HRS."
    }
  },
  "DRPs": []
}