{
  "Info": {
    "lastNm": "MAUCIERI",
    "firstNm": "NICHOLAS",
    "midNm": "JOSEPH",
    "sufNm": null,
    "indvlPK": "1463910",
    "actvAGReg": 0,
    "link": "http://www.adviserinfo.sec.gov/IAPD/Individual/1463910"
  },
  "OthrNms": [
    {
      "lastNm": "MAUCIERI",
      "firstNm": "NICK",
      "midNm": null,
      "sufNm": null
    }
  ],
  "CrntEmps": [
    {
      "CrntRgstns": [
        {
          "regAuth": 15,
          "regCat": 0,
          "st": 2,
          "stDt": "2005-08-18T00:00:00"
        }
      ],
      "BrnchOfLocs": [
        {
          "str1": "3025 HIGHLAND PKWY",
          "str2": "STE 425",
          "city": "DOWNERS GROVE",
          "state": 15,
          "stateSpecified": true,
          "cntry": "United States",
          "postlCd": "60515"
        }
      ],
      "orgNm": "PRINCIPAL SECURITIES, INC.",
      "orgPK": "1137",
      "str1": "655 9TH STREET",
      "str2": null,
      "city": "DES MOINES",
      "state": 13,
      "stateSpecified": true,
      "cntry": "United States",
      "postlCd": "50309"
    }
  ],
  "Exms": [
    {
      "exmCd": 0,
      "exmNm": "Uniform Securities Agent State Law Examination",
      "exmDt": "1991-10-18T00:00:00",
      "exmDtSpecified": true
    },
    {
      "exmCd": 2,
      "exmNm": "Uniform Investment Adviser Law Examination",
      "exmDt": "1999-02-15T00:00:00",
      "exmDtSpecified": true
    }
  ],
  "Dsgntns": [],
  "PrevRgstns": [
    {
      "BrnchOfLocs": [
        {
          "city": "ADDISON",
          "state": 15,
          "stateSpecified": true
        }
      ],
      "orgNm": "COMMONWEALTH FINANCIAL NETWORK",
      "orgPK": "8032",
      "regBeginDt": "2000-01-26T00:00:00",
      "regBeginDtSpecified": true,
      "regEndDt": "2003-06-04T00:00:00",
      "regEndDtSpecified": true
    }
  ],
  "EmpHss": [
    {
      "fromDt": "05/2005",
      "toDt": null,
      "orgNm": "PRINCIPAL LIFE INSURANCE CO",
      "city": "LOMBARD",
      "state": 15,
      "stateSpecified": true
    },
    {
      "fromDt": "05/2005",
      "toDt": null,
      "orgNm": "PRINCOR FINANCIAL SERVICES CORP",
      "city": "LOMBARD",
      "state": 15,
      "stateSpecified": true
    }
  ],
  "OthrBuss": {
    "OthrBus": {
      "desc": "***REFEREE. 05/10/2011. REFEREE FOR FOOTBALL GAMES, WRESTLING, SOCCER."
    }
  },
  "DRPs": []
}