{
  "Info": {
    "lastNm": "CARMODY",
    "firstNm": "THOMAS",
    "midNm": "J",
    "sufNm": null,
    "indvlPK": "1465804",
    "actvAGReg": 0,
    "link": "http://www.adviserinfo.sec.gov/IAPD/Individual/1465804"
  },
  "OthrNms": [
    {
      "lastNm": "CARMODY",
      "firstNm": "THOMAS",
      "midNm": "J",
      "sufNm": "III"
    },
    {
      "lastNm": "CARMODY",
      "firstNm": "THOMAS",
      "midNm": "JOSEPH",
      "sufNm": null
    },
    {
      "lastNm": "CARMODY",
      "firstNm": "THOMAS",
      "midNm": "JOSEPH",
      "sufNm": null
    },
    {
      "lastNm": "CARMODY",
      "firstNm": "THOMAS",
      "midNm": "JOSEPH",
      "sufNm": "III"
    }
  ],
  "CrntEmps": [
    {
      "CrntRgstns": [
        {
          "regAuth": 10,
          "regCat": 0,
          "st": 2,
          "stDt": "2010-08-18T00:00:00"
        }
      ],
      "BrnchOfLocs": [
        {
          "str1": "SIX CONCOURSE PARKWAY",
          "str2": "SUITE 2600",
          "city": "ATLANTA",
          "state": 10,
          "stateSpecified": true,
          "cntry": "United States",
          "postlCd": "30328-6104"
        }
      ],
      "orgNm": "TIAA-CREF INDIVIDUAL & INSTITUTIONAL SERVICES, LLC",
      "orgPK": "20472",
      "str1": "730 THIRD AVENUE",
      "str2": null,
      "city": "NEW YORK",
      "state": 35,
      "stateSpecified": true,
      "cntry": "United States",
      "postlCd": "10017-3206"
    }
  ],
  "Exms": [
    {
      "exmCd": 0,
      "exmNm": "Uniform Securities Agent State Law Examination",
      "exmDt": "1986-05-06T00:00:00",
      "exmDtSpecified": true
    },
    {
      "exmCd": 2,
      "exmNm": "Uniform Investment Adviser Law Examination",
      "exmDt": "2010-04-13T00:00:00",
      "exmDtSpecified": true
    }
  ],
  "Dsgntns": [],
  "PrevRgstns": [
    {
      "BrnchOfLocs": [
        {
          "city": "ALPHARETTA",
          "state": 10,
          "stateSpecified": true
        }
      ],
      "orgNm": "PRUDENTIAL RETIREMENT BROKERAGE SERVICES, INC.",
      "orgPK": "40596",
      "regBeginDt": "2001-09-17T00:00:00",
      "regBeginDtSpecified": true,
      "regEndDt": "2003-04-09T00:00:00",
      "regEndDtSpecified": true
    },
    {
      "BrnchOfLocs": [
        {
          "city": "ROSWELL",
          "state": 10,
          "stateSpecified": true
        }
      ],
      "orgNm": "MIDSOUTH CAPITAL, INC.",
      "orgPK": "35039",
      "regBeginDt": "2003-06-12T00:00:00",
      "regBeginDtSpecified": true,
      "regEndDt": "2003-10-23T00:00:00",
      "regEndDtSpecified": true
    },
    {
      "BrnchOfLocs": [
        {
          "city": "CANTON",
          "state": 10,
          "stateSpecified": true
        }
      ],
      "orgNm": "RUSSELL INVESTMENTS",
      "orgPK": "105734",
      "regBeginDt": "2006-02-06T00:00:00",
      "regBeginDtSpecified": true,
      "regEndDt": "2006-08-16T00:00:00",
      "regEndDtSpecified": true
    },
    {
      "BrnchOfLocs": [
        {
          "city": "ALPHARETTA",
          "state": 10,
          "stateSpecified": true
        },
        {
          "city": "BELLEVUE",
          "state": 49,
          "stateSpecified": true
        },
        {
          "city": "TACOMA",
          "state": 49,
          "stateSpecified": true
        }
      ],
      "orgNm": "MERRILL LYNCH, PIERCE, FENNER & SMITH INCORPORATED",
      "orgPK": "7691",
      "regBeginDt": "2010-04-29T00:00:00",
      "regBeginDtSpecified": true,
      "regEndDt": "2010-07-06T00:00:00",
      "regEndDtSpecified": true
    }
  ],
  "EmpHss": [
    {
      "fromDt": "10/2003",
      "toDt": "04/2009",
      "orgNm": "FRANK RUSSELL COMPANY",
      "city": "CANTON",
      "state": 10,
      "stateSpecified": true
    },
    {
      "fromDt": "10/2003",
      "toDt": "04/2009",
      "orgNm": "RUSSELL INVESTMENTS",
      "city": "ALPHARETTA",
      "state": 10,
      "stateSpecified": true
    },
    {
      "fromDt": "01/2008",
      "toDt": "04/2009",
      "orgNm": "RUSSELL FUND DISTRIBUTORS, INC., PART OF RUSSELL INVESTMENTS",
      "city": "TACOMA",
      "state": 49,
      "stateSpecified": true
    },
    {
      "fromDt": "04/2009",
      "toDt": "03/2010",
      "orgNm": "UNEMPLOYED",
      "city": "CANTON",
      "state": 10,
      "stateSpecified": true
    },
    {
      "fromDt": "03/2010",
      "toDt": "07/2010",
      "orgNm": "MERRILL LYNCH",
      "city": "TACOMA",
      "state": 49,
      "stateSpecified": true
    },
    {
      "fromDt": "07/2010",
      "toDt": null,
      "orgNm": "TIAA",
      "city": "ATLANTA",
      "state": 10,
      "stateSpecified": true
    },
    {
      "fromDt": "07/2010",
      "toDt": null,
      "orgNm": "TIAA-CREF INDIVIDUAL & INSTITUTIONAL SERVICES LLC",
      "city": "ATLANTA",
      "state": 10,
      "stateSpecified": true
    },
    {
      "fromDt": "06/2014",
      "toDt": null,
      "orgNm": "TEACHERS PERSONAL INVESTORS SERVICES, INC.",
      "city": "ATLANTA",
      "state": 10,
      "stateSpecified": true
    }
  ],
  "OthrBuss": {
    "OthrBus": null
  },
  "DRPs": []
}