{
  "Info": {
    "lastNm": "NEVILLE",
    "firstNm": "MARC",
    "midNm": "ARTHUR",
    "sufNm": null,
    "indvlPK": "1479881",
    "actvAGReg": 0,
    "link": "http://www.adviserinfo.sec.gov/IAPD/Individual/1479881"
  },
  "OthrNms": [],
  "CrntEmps": [
    {
      "CrntRgstns": [
        {
          "regAuth": 23,
          "regCat": 0,
          "st": 2,
          "stDt": "2010-10-08T00:00:00"
        }
      ],
      "BrnchOfLocs": [
        {
          "str1": "37687 PEMBROKE",
          "str2": null,
          "city": "LIVONIA",
          "state": 23,
          "stateSpecified": true,
          "cntry": "United States",
          "postlCd": "48152"
        }
      ],
      "orgNm": "LPL FINANCIAL LLC",
      "orgPK": "6413",
      "str1": "75 STATE STREET, 22ND FLOOR",
      "str2": null,
      "city": "BOSTON",
      "state": 20,
      "stateSpecified": true,
      "cntry": "United States",
      "postlCd": "02109"
    }
  ],
  "Exms": [
    {
      "exmCd": 0,
      "exmNm": "Uniform Securities Agent State Law Examination",
      "exmDt": "1986-05-09T00:00:00",
      "exmDtSpecified": true
    },
    {
      "exmCd": 3,
      "exmNm": "Uniform Combined State Law Examination",
      "exmDt": "2010-08-26T00:00:00",
      "exmDtSpecified": true
    }
  ],
  "Dsgntns": [],
  "PrevRgstns": [],
  "EmpHss": [
    {
      "fromDt": "11/1998",
      "toDt": null,
      "orgNm": "LPL FINANCIAL, LLC",
      "city": "LIVONIA",
      "state": 23,
      "stateSpecified": true
    }
  ],
  "OthrBuss": {
    "OthrBus": {
      "desc": "1. 7/29/2002: NO BUSINESS NAME - DBA for LPL Business (entity for LPL business) - NEVILLE FINANCIAL GROUP - INV REL - AT REPORTED BUSINESS LOCATION(S)   2. 4/24/2006: Neville Financial Group - Tax Prep/Accounting/CPA - INV REL - AT REPORTED BUSINESS LOCATION(S) - Tax preparation, mailing and delivery of tax documents. - 1% TIME SPENT    3. 03/25/2013: Neville Financial Group - Non-Variable Insurance - INV REL - AT REPORTED BUSINESS LOCATION(S) - Selling life insurance with Protective Insurance Company directly. - 1% TIME SPENT"
    }
  },
  "DRPs": []
}