{
  "Info": {
    "lastNm": "DIEHL",
    "firstNm": "MARY",
    "midNm": "ELIZABETH",
    "sufNm": null,
    "indvlPK": "1482276",
    "actvAGReg": 0,
    "link": "http://www.adviserinfo.sec.gov/IAPD/Individual/1482276"
  },
  "OthrNms": [],
  "CrntEmps": [
    {
      "CrntRgstns": [
        {
          "regAuth": 13,
          "regCat": 0,
          "st": 2,
          "stDt": "2015-03-27T00:00:00"
        }
      ],
      "BrnchOfLocs": [
        {
          "str1": "5250 NORTH PARK PLACE NE",
          "str2": "SUITE 110",
          "city": "CEDAR RAPIDS",
          "state": 13,
          "stateSpecified": true,
          "cntry": "United States",
          "postlCd": "52402"
        }
      ],
      "orgNm": "PRUCO SECURITIES, LLC.",
      "orgPK": "5685",
      "str1": "751 BROAD STREET",
      "str2": null,
      "city": "NEWARK",
      "state": 32,
      "stateSpecified": true,
      "cntry": "United States",
      "postlCd": "07102-3777"
    }
  ],
  "Exms": [
    {
      "exmCd": 0,
      "exmNm": "Uniform Securities Agent State Law Examination",
      "exmDt": "2014-10-18T00:00:00",
      "exmDtSpecified": true
    },
    {
      "exmCd": 2,
      "exmNm": "Uniform Investment Adviser Law Examination",
      "exmDt": "2015-03-23T00:00:00",
      "exmDtSpecified": true
    }
  ],
  "Dsgntns": [],
  "PrevRgstns": [],
  "EmpHss": [
    {
      "fromDt": "09/2004",
      "toDt": "03/2008",
      "orgNm": "DIAMOND JO CASINO",
      "city": "DUBUQUE",
      "state": 13,
      "stateSpecified": true
    },
    {
      "fromDt": "04/2008",
      "toDt": "05/2008",
      "orgNm": "UNEMPLOYED",
      "city": "DUBUQUE",
      "state": 13,
      "stateSpecified": true
    },
    {
      "fromDt": "05/2008",
      "toDt": "06/2012",
      "orgNm": "MESKWAKI BINGO CASINO HOTEL",
      "city": "TAMA",
      "state": 13,
      "stateSpecified": true
    },
    {
      "fromDt": "07/2012",
      "toDt": "09/2012",
      "orgNm": "UNEMPLOYED",
      "city": "DUBUQUE",
      "state": 13,
      "stateSpecified": true
    },
    {
      "fromDt": "10/2012",
      "toDt": "09/2013",
      "orgNm": "BELLE OF BATON ROUGE CASINO HOTEL",
      "city": "BATON ROUGE",
      "state": 19,
      "stateSpecified": true
    },
    {
      "fromDt": "10/2013",
      "toDt": "08/2014",
      "orgNm": "UNEMPLOYED",
      "city": "DUBUQUE",
      "state": 13,
      "stateSpecified": true
    },
    {
      "fromDt": "09/2014",
      "toDt": null,
      "orgNm": "PRUCO SECURITIES, LLC",
      "city": "CEDAR RAPIDS",
      "state": 13,
      "stateSpecified": true
    },
    {
      "fromDt": "09/2014",
      "toDt": null,
      "orgNm": "THE PRUDENTIAL INSURANCE COMPANY OF AMERICA",
      "city": "CEDAR RAPIDS",
      "state": 13,
      "stateSpecified": true
    }
  ],
  "OthrBuss": {
    "OthrBus": {
      "desc": "Iowa Fin'l Partners~5250 North Park Place NE Suite 110, Cedar Rapids, Iowa 52402~full service DBA~Y~Affiliate~3/07/2016~1 hrs/mo~1 trading hrs/mo"
    }
  },
  "DRPs": []
}