{
  "Info": {
    "lastNm": "VAN SON",
    "firstNm": "CHRISTOPHER",
    "midNm": "LYNN",
    "sufNm": null,
    "indvlPK": "1483955",
    "actvAGReg": 0,
    "link": "http://www.adviserinfo.sec.gov/IAPD/Individual/1483955"
  },
  "OthrNms": [
    {
      "lastNm": "VANSON",
      "firstNm": "CHRISTOPHER",
      "midNm": "LYNN",
      "sufNm": null
    }
  ],
  "CrntEmps": [
    {
      "CrntRgstns": [
        {
          "regAuth": 32,
          "regCat": 0,
          "st": 2,
          "stDt": "2012-07-12T00:00:00"
        }
      ],
      "BrnchOfLocs": [
        {
          "str1": "3415 ORCHARD PARK ROAD",
          "str2": null,
          "city": "ORCHARD PARK",
          "state": 35,
          "stateSpecified": true,
          "cntry": "United States",
          "postlCd": "14127"
        },
        {
          "str1": "65 MADISON AVENUE, SUITE 300",
          "str2": null,
          "city": "MORRISTOWN",
          "state": 32,
          "stateSpecified": true,
          "cntry": "United States",
          "postlCd": "07960"
        }
      ],
      "orgNm": "PRIVATE ADVISOR GROUP, LLC",
      "orgPK": "155216",
      "str1": "65 MADISON AVENUE, SUITE 300",
      "str2": null,
      "city": "MORRISTOWN",
      "state": 32,
      "stateSpecified": true,
      "cntry": "United States",
      "postlCd": "07960"
    }
  ],
  "Exms": [
    {
      "exmCd": 0,
      "exmNm": "Uniform Securities Agent State Law Examination",
      "exmDt": "1986-06-18T00:00:00",
      "exmDtSpecified": true
    },
    {
      "exmCd": 3,
      "exmNm": "Uniform Combined State Law Examination",
      "exmDt": "2011-04-08T00:00:00",
      "exmDtSpecified": true
    }
  ],
  "Dsgntns": [],
  "PrevRgstns": [
    {
      "BrnchOfLocs": [
        {
          "city": "BEDMINSTER",
          "state": 32,
          "stateSpecified": true
        },
        {
          "city": "ORCHARD PARK",
          "state": 35,
          "stateSpecified": true
        }
      ],
      "orgNm": "IC ADVISORY SERVICES, INC.",
      "orgPK": "140190",
      "regBeginDt": "2011-04-12T00:00:00",
      "regBeginDtSpecified": true,
      "regEndDt": "2011-12-20T00:00:00",
      "regEndDtSpecified": true
    }
  ],
  "EmpHss": [
    {
      "fromDt": "03/1985",
      "toDt": "12/2011",
      "orgNm": "TRAVELERS INS",
      "city": "BUFFALO",
      "state": 35,
      "stateSpecified": true
    },
    {
      "fromDt": "07/1988",
      "toDt": "12/2011",
      "orgNm": "TRAVELERS INSURANCE GROUP",
      "city": "HARTFORD",
      "state": 6,
      "stateSpecified": true
    },
    {
      "fromDt": "04/1996",
      "toDt": "12/2011",
      "orgNm": "THE INVESTMENT CENTER, INC.",
      "city": "ORCHARD PARK",
      "state": 35,
      "stateSpecified": true
    },
    {
      "fromDt": "04/2011",
      "toDt": "12/2011",
      "orgNm": "IC ADVISORY SERVICES INC",
      "city": "ORCHARD PARK",
      "state": 35,
      "stateSpecified": true
    },
    {
      "fromDt": "12/2011",
      "toDt": null,
      "orgNm": "LPL FINANCIAL",
      "city": "ORCHARD PARK",
      "state": 35,
      "stateSpecified": true
    },
    {
      "fromDt": "12/2011",
      "toDt": null,
      "orgNm": "PRIVATE ADVISOR GROUP",
      "city": "ORCHARD PARK",
      "state": 35,
      "stateSpecified": true
    }
  ],
  "OthrBuss": {
    "OthrBus": {
      "desc": "(1) 12/20/2011 - NON-VARIABLE INSURANCE / SPECIFIC SOLUTIONS, INC / 1% OF TIME SPENT. (2) 12/20/2011 - DBA ONLY / ROBERT J. ELLIS FINANCIAL ADVISORS, LLC  (3) 12/30/2011 - REGISTERED INVESTMENT ADVISOR / PRIVATE ADVISOR GROUP, LLC / HYBRID / 80% OF TIME SPENT.  (4) 04/17/13 - COMMUNITY, CIVIC AND CHARITABLE BOARD - VILLAGE OF ATTICA - MAYOR FOR THE VILLAGE OF ATTICA, IT IS A PART TIME POSITION - 1% OF TIME SPENT - ATTICA, NY"
    }
  },
  "DRPs": []
}