{
  "Info": {
    "lastNm": "ALDERMAN",
    "firstNm": "ROBERT",
    "midNm": "BRUCE",
    "sufNm": "JR",
    "indvlPK": "1485908",
    "actvAGReg": 0,
    "link": "http://www.adviserinfo.sec.gov/IAPD/Individual/1485908"
  },
  "OthrNms": [
    {
      "lastNm": "ALDERMAN",
      "firstNm": "BRUCE",
      "midNm": null,
      "sufNm": null
    }
  ],
  "CrntEmps": [
    {
      "CrntRgstns": [
        {
          "regAuth": 21,
          "regCat": 0,
          "st": 2,
          "stDt": "2007-06-07T00:00:00"
        },
        {
          "regAuth": 15,
          "regCat": 0,
          "st": 2,
          "stDt": "2013-05-13T00:00:00"
        }
      ],
      "BrnchOfLocs": [
        {
          "str1": null,
          "str2": null,
          "city": "BEDFORD",
          "state": 47,
          "stateSpecified": true,
          "cntry": "United States",
          "postlCd": null
        },
        {
          "str1": "1340 SMITH AVE",
          "str2": "SUITE 200",
          "city": "BALTIMORE",
          "state": 21,
          "stateSpecified": true,
          "cntry": "United States",
          "postlCd": "21209"
        },
        {
          "str1": "2 VILLAGE SQUARE, SUITE 200",
          "str2": null,
          "city": "BALTIMORE",
          "state": 21,
          "stateSpecified": true,
          "cntry": "UNITED STATES",
          "postlCd": "21210"
        },
        {
          "str1": "2 VILLAGE SQUARE",
          "str2": "SUITE 200",
          "city": "BALTIMORE",
          "state": 21,
          "stateSpecified": true,
          "cntry": "United States",
          "postlCd": "21210"
        },
        {
          "str1": "8512 N. KNOXVILLE ROAD",
          "str2": null,
          "city": "PEORIA",
          "state": 15,
          "stateSpecified": true,
          "cntry": "United States",
          "postlCd": "61615"
        }
      ],
      "orgNm": "CHAPIN, DAVIS",
      "orgPK": "28116",
      "str1": "2 VILLAGE SQUARE",
      "str2": "SUITE 200",
      "city": "BALTIMORE",
      "state": 21,
      "stateSpecified": true,
      "cntry": "United States",
      "postlCd": "21210"
    }
  ],
  "Exms": [
    {
      "exmCd": 0,
      "exmNm": "Uniform Securities Agent State Law Examination",
      "exmDt": "1986-05-20T00:00:00",
      "exmDtSpecified": true
    },
    {
      "exmCd": 2,
      "exmNm": "Uniform Investment Adviser Law Examination",
      "exmDt": "2007-06-06T00:00:00",
      "exmDtSpecified": true
    }
  ],
  "Dsgntns": [],
  "PrevRgstns": [],
  "EmpHss": [
    {
      "fromDt": "03/1991",
      "toDt": null,
      "orgNm": "CHAPIN, DAVIS",
      "city": "BALTIMORE",
      "state": 21,
      "stateSpecified": true
    }
  ],
  "OthrBuss": {
    "OthrBus": null
  },
  "DRPs": []
}