{
  "Info": {
    "lastNm": "PHILLIPS",
    "firstNm": "D BRET",
    "midNm": null,
    "sufNm": null,
    "indvlPK": "1485926",
    "actvAGReg": 0,
    "link": "http://www.adviserinfo.sec.gov/IAPD/Individual/1485926"
  },
  "OthrNms": [
    {
      "lastNm": "PHILLIPS",
      "firstNm": "BRET",
      "midNm": null,
      "sufNm": null
    },
    {
      "lastNm": "PHILLIPS",
      "firstNm": "DAVID",
      "midNm": "BRET",
      "sufNm": null
    },
    {
      "lastNm": "PHILLIPS",
      "firstNm": "DAVID",
      "midNm": "BRET",
      "sufNm": null
    }
  ],
  "CrntEmps": [
    {
      "CrntRgstns": [
        {
          "regAuth": 5,
          "regCat": 0,
          "st": 2,
          "stDt": "2003-09-25T00:00:00"
        }
      ],
      "BrnchOfLocs": [
        {
          "str1": null,
          "str2": null,
          "city": "PARKER",
          "state": 5,
          "stateSpecified": true,
          "cntry": "United States",
          "postlCd": null
        }
      ],
      "orgNm": "SECURITIES AMERICA ADVISORS, INC.",
      "orgPK": "110518",
      "str1": "12325 PORT GRACE BLVD.",
      "str2": null,
      "city": "LA VISTA",
      "state": 30,
      "stateSpecified": true,
      "cntry": "United States",
      "postlCd": "68128-8204"
    }
  ],
  "Exms": [
    {
      "exmCd": 0,
      "exmNm": "Uniform Securities Agent State Law Examination",
      "exmDt": "1987-11-12T00:00:00",
      "exmDtSpecified": true
    },
    {
      "exmCd": 3,
      "exmNm": "Uniform Combined State Law Examination",
      "exmDt": "2003-08-29T00:00:00",
      "exmDtSpecified": true
    }
  ],
  "Dsgntns": [],
  "PrevRgstns": [],
  "EmpHss": [
    {
      "fromDt": "05/2003",
      "toDt": null,
      "orgNm": "D. BRET PHILLIPS FINANCIAL SERVICES",
      "city": "AURORA",
      "state": 5,
      "stateSpecified": true
    },
    {
      "fromDt": "05/2003",
      "toDt": null,
      "orgNm": "SECURITIES AMERICA, INC.",
      "city": "PARKER",
      "state": 5,
      "stateSpecified": true
    },
    {
      "fromDt": "09/2003",
      "toDt": null,
      "orgNm": "SECURITIES AMERICA ADVISORS, INC.",
      "city": "PARKER",
      "state": 5,
      "stateSpecified": true
    }
  ],
  "OthrBuss": {
    "OthrBus": {
      "desc": "DBP FINANCIAL SERVICES, LLC, INSURANCE SALES, PRESIDENT, INVESTMENT RELATED, 10% TIME SPENT, START DATE: 5/2003, LOCATED AT 6702 E PONDEROSA DR, PARKER, CO 80138-8023   SECURITIES AMERICA ADVISORS, INC. - INVESTMENT ADVISORY - INVESTMENT ADVISOR REPRESENTATIVE - INVESTMENT RELATED - START DATE: 9/2003 - LOCATED AT 6702 E PONDEROSA DR, PARKER, CO 80138-8023"
    }
  },
  "DRPs": []
}