{
  "Info": {
    "lastNm": "HANAS",
    "firstNm": "DAVID",
    "midNm": "EUGENE",
    "sufNm": null,
    "indvlPK": "1489092",
    "actvAGReg": 0,
    "link": "http://www.adviserinfo.sec.gov/IAPD/Individual/1489092"
  },
  "OthrNms": [],
  "CrntEmps": [
    {
      "CrntRgstns": [
        {
          "regAuth": 45,
          "regCat": 0,
          "st": 3,
          "stDt": "1994-05-31T00:00:00"
        },
        {
          "regAuth": 16,
          "regCat": 0,
          "st": 2,
          "stDt": "1998-12-15T00:00:00"
        }
      ],
      "BrnchOfLocs": [
        {
          "str1": "7300 EAGLE CREST BLVD",
          "str2": null,
          "city": "EVANSVILLE",
          "state": 16,
          "stateSpecified": true,
          "cntry": "United States",
          "postlCd": "47715"
        }
      ],
      "orgNm": "MERRILL LYNCH, PIERCE, FENNER & SMITH INCORPORATED",
      "orgPK": "7691",
      "str1": "ONE BRYANT PARK",
      "str2": null,
      "city": "NEW YORK",
      "state": 35,
      "stateSpecified": true,
      "cntry": "United States",
      "postlCd": "10036"
    }
  ],
  "Exms": [
    {
      "exmCd": 0,
      "exmNm": "Uniform Securities Agent State Law Examination",
      "exmDt": "1986-07-08T00:00:00",
      "exmDtSpecified": true
    },
    {
      "exmCd": 2,
      "exmNm": "Uniform Investment Adviser Law Examination",
      "exmDt": "1994-08-24T00:00:00",
      "exmDtSpecified": true
    }
  ],
  "Dsgntns": [],
  "PrevRgstns": [],
  "EmpHss": [
    {
      "fromDt": "05/1994",
      "toDt": null,
      "orgNm": "MERRILL LYNCH, PIERCE, FENNER & SMITH INCORPORATED",
      "city": "EVANSVILLE",
      "state": 16,
      "stateSpecified": true
    }
  ],
  "OthrBuss": {
    "OthrBus": null
  },
  "DRPs": []
}