{
  "Info": {
    "lastNm": "LAMBERT",
    "firstNm": "DARYLE",
    "midNm": "S",
    "sufNm": "II",
    "indvlPK": "1492953",
    "actvAGReg": 0,
    "link": "http://www.adviserinfo.sec.gov/IAPD/Individual/1492953"
  },
  "OthrNms": [
    {
      "lastNm": "LAMBERT",
      "firstNm": "DARYLE",
      "midNm": "S",
      "sufNm": null
    }
  ],
  "CrntEmps": [
    {
      "CrntRgstns": [
        {
          "regAuth": 44,
          "regCat": 0,
          "st": 2,
          "stDt": "2004-03-30T00:00:00"
        }
      ],
      "BrnchOfLocs": [
        {
          "str1": "3401 WEST END AVENUE SUITE 160",
          "str2": null,
          "city": "NASHVILLE",
          "state": 44,
          "stateSpecified": true,
          "cntry": "United States",
          "postlCd": "37203"
        }
      ],
      "orgNm": "J.J.B. HILLIARD, W.L. LYONS, LLC",
      "orgPK": "453",
      "str1": "500 WEST JEFFERSON STREET",
      "str2": null,
      "city": "LOUISVILLE",
      "state": 18,
      "stateSpecified": true,
      "cntry": "United States",
      "postlCd": "40202"
    }
  ],
  "Exms": [
    {
      "exmCd": 0,
      "exmNm": "Uniform Securities Agent State Law Examination",
      "exmDt": "1986-07-11T00:00:00",
      "exmDtSpecified": true
    }
  ],
  "Dsgntns": [],
  "PrevRgstns": [],
  "EmpHss": [
    {
      "fromDt": "04/1986",
      "toDt": null,
      "orgNm": "J.J.B. HILLIARD, W.L. LYONS, INC.",
      "city": "NASHVILLE",
      "state": 44,
      "stateSpecified": true
    }
  ],
  "OthrBuss": {
    "OthrBus": {
      "desc": "FAMILY TRUST, INVEST-RELATED, SUCCESSOR TRUSTEE, 5 HRS/MONTH WITH 0 HRS/MONTH DURING TRADING HRS, TRUSTEE DUTIES."
    }
  },
  "DRPs": []
}