{
  "Info": {
    "lastNm": "HOLBER",
    "firstNm": "STEPHEN",
    "midNm": "WILLIAM",
    "sufNm": null,
    "indvlPK": "1495393",
    "actvAGReg": 1,
    "link": "http://www.adviserinfo.sec.gov/IAPD/Individual/1495393"
  },
  "OthrNms": [],
  "CrntEmps": [
    {
      "CrntRgstns": [
        {
          "regAuth": 4,
          "regCat": 0,
          "st": 2,
          "stDt": "2011-03-30T00:00:00"
        }
      ],
      "BrnchOfLocs": [
        {
          "str1": null,
          "str2": null,
          "city": "CARMEL",
          "state": 4,
          "stateSpecified": true,
          "cntry": "United States",
          "postlCd": null
        }
      ],
      "orgNm": "GOLDEN TRIANGLE SECURTIES LLC",
      "orgPK": "45641",
      "str1": null,
      "str2": null,
      "city": "CARMEL",
      "state": 4,
      "stateSpecified": true,
      "cntry": "United States",
      "postlCd": null
    }
  ],
  "Exms": [
    {
      "exmCd": 0,
      "exmNm": "Uniform Securities Agent State Law Examination",
      "exmDt": "1986-06-17T00:00:00",
      "exmDtSpecified": true
    },
    {
      "exmCd": 2,
      "exmNm": "Uniform Investment Adviser Law Examination",
      "exmDt": "2011-03-25T00:00:00",
      "exmDtSpecified": true
    }
  ],
  "Dsgntns": [],
  "PrevRgstns": [
    {
      "BrnchOfLocs": [
        {
          "city": "CARMEL",
          "state": 4,
          "stateSpecified": true
        },
        {
          "city": "CARMEL",
          "state": 4,
          "stateSpecified": true
        },
        {
          "city": "SANTA ROSA",
          "state": 4,
          "stateSpecified": true
        }
      ],
      "orgNm": "GBS FINANCIAL CORP.",
      "orgPK": "16906",
      "regBeginDt": "2007-03-16T00:00:00",
      "regBeginDtSpecified": true,
      "regEndDt": "2007-03-20T00:00:00",
      "regEndDtSpecified": true
    }
  ],
  "EmpHss": [
    {
      "fromDt": "03/1999",
      "toDt": "11/2007",
      "orgNm": "GOLDEN TRIANGLE SECURITIES LLC",
      "city": "CARMEL",
      "state": 4,
      "stateSpecified": true
    },
    {
      "fromDt": "01/2000",
      "toDt": "07/2009",
      "orgNm": "STEPHEN W. HOLBER",
      "city": "CARMEL",
      "state": 4,
      "stateSpecified": true
    },
    {
      "fromDt": "03/2007",
      "toDt": "07/2009",
      "orgNm": "GBS FINANCIAL CORP",
      "city": "CARMEL",
      "state": 4,
      "stateSpecified": true
    },
    {
      "fromDt": "07/2009",
      "toDt": null,
      "orgNm": "GOLDEN TRIANGLE SECURITES LLC DBA HOLBER & ASSOCIATES",
      "city": "CARMEL",
      "state": 4,
      "stateSpecified": true
    }
  ],
  "OthrBuss": {
    "OthrBus": null
  },
  "DRPs": [
    {
      "hasRegAction": 1,
      "hasRegActionSpecified": true,
      "hasCriminal": 1,
      "hasCriminalSpecified": true,
      "hasBankrupt": 1,
      "hasBankruptSpecified": true,
      "hasCivilJudc": 1,
      "hasCivilJudcSpecified": true,
      "hasBond": 1,
      "hasBondSpecified": true,
      "hasJudgment": 1,
      "hasJudgmentSpecified": true,
      "hasInvstgn": 1,
      "hasInvstgnSpecified": true,
      "hasCustComp": 0,
      "hasCustCompSpecified": true,
      "hasTermination": 1,
      "hasTerminationSpecified": true
    }
  ]
}