{
  "Info": {
    "lastNm": "DERUSSO",
    "firstNm": "JAY",
    "midNm": "VINCENT",
    "sufNm": null,
    "indvlPK": "1504783",
    "actvAGReg": 0,
    "link": "http://www.adviserinfo.sec.gov/IAPD/Individual/1504783"
  },
  "OthrNms": [],
  "CrntEmps": [
    {
      "CrntRgstns": [
        {
          "regAuth": 4,
          "regCat": 0,
          "st": 2,
          "stDt": "2016-02-23T00:00:00"
        }
      ],
      "BrnchOfLocs": [
        {
          "str1": "111",
          "str2": "PINE STREET",
          "city": "SAN FRANCISCO",
          "state": 4,
          "stateSpecified": true,
          "cntry": "United States",
          "postlCd": "94111-5602"
        },
        {
          "str1": "3991 MacArthur Blvd",
          "str2": "Suite 300",
          "city": "Newport Beach",
          "state": 4,
          "stateSpecified": true,
          "cntry": "United States",
          "postlCd": "92660"
        }
      ],
      "orgNm": "FIRST REPUBLIC INVESTMENT MANAGEMENT, INC.",
      "orgPK": "108559",
      "str1": "111",
      "str2": "PINE STREET",
      "city": "SAN FRANCISCO",
      "state": 4,
      "stateSpecified": true,
      "cntry": "United States",
      "postlCd": "94111-5602"
    }
  ],
  "Exms": [
    {
      "exmCd": 0,
      "exmNm": "Uniform Securities Agent State Law Examination",
      "exmDt": "1986-05-03T00:00:00",
      "exmDtSpecified": true
    },
    {
      "exmCd": 2,
      "exmNm": "Uniform Investment Adviser Law Examination",
      "exmDt": "2016-06-22T00:00:00",
      "exmDtSpecified": true
    }
  ],
  "Dsgntns": [],
  "PrevRgstns": [
    {
      "BrnchOfLocs": [
        {
          "city": "IRVINE",
          "state": 4,
          "stateSpecified": true
        },
        {
          "city": "SARATOGA SPRINGS",
          "state": 35,
          "stateSpecified": true
        }
      ],
      "orgNm": "THE AYCO COMPANY,L.P.",
      "orgPK": "106693",
      "regBeginDt": "1997-12-11T00:00:00",
      "regBeginDtSpecified": true,
      "regEndDt": "2011-12-08T00:00:00",
      "regEndDtSpecified": true
    }
  ],
  "EmpHss": [
    {
      "fromDt": "07/2002",
      "toDt": "12/2011",
      "orgNm": "THE AYCO COMPANY, L.P./MERCER ALLIED",
      "city": "IRVINE",
      "state": 4,
      "stateSpecified": true
    },
    {
      "fromDt": "12/2011",
      "toDt": "10/2013",
      "orgNm": "UNEMPLOYED",
      "city": "TUSTINE",
      "state": 4,
      "stateSpecified": true
    },
    {
      "fromDt": "11/2013",
      "toDt": "02/2016",
      "orgNm": "UNION BANK",
      "city": "IRVINE",
      "state": 4,
      "stateSpecified": true
    },
    {
      "fromDt": "11/2013",
      "toDt": "02/2016",
      "orgNm": "UNIONBANC INVESTMENT SERVICES",
      "city": "IRVINE",
      "state": 4,
      "stateSpecified": true
    },
    {
      "fromDt": "02/2016",
      "toDt": null,
      "orgNm": "FIRST REPUBLIC INVESTMENT MANAGEMENT, INC",
      "city": "NEWPORT BEACH",
      "state": 4,
      "stateSpecified": true
    },
    {
      "fromDt": "02/2016",
      "toDt": null,
      "orgNm": "FIRST REPUBLIC SECURITIES COMPANY, LLC",
      "city": "NEWPORT BEACH",
      "state": 4,
      "stateSpecified": true
    }
  ],
  "OthrBuss": {
    "OthrBus": null
  },
  "DRPs": []
}