{
  "Info": {
    "lastNm": "MADDOCK",
    "firstNm": "BRADLY",
    "midNm": "CURTIS",
    "sufNm": "SR",
    "indvlPK": "1504900",
    "actvAGReg": 1,
    "link": "http://www.adviserinfo.sec.gov/IAPD/Individual/1504900"
  },
  "OthrNms": [
    {
      "lastNm": "Maddock",
      "firstNm": "Bradly",
      "midNm": "Curtis",
      "sufNm": null
    }
  ],
  "CrntEmps": [
    {
      "CrntRgstns": [
        {
          "regAuth": 5,
          "regCat": 0,
          "st": 2,
          "stDt": "1999-01-01T00:00:00"
        },
        {
          "regAuth": 4,
          "regCat": 0,
          "st": 2,
          "stDt": "2012-03-26T00:00:00"
        }
      ],
      "BrnchOfLocs": [
        {
          "str1": "8400 E PRENTICE AVE",
          "str2": "SUITE 1360",
          "city": "GREENWOOD VILLAGE",
          "state": 5,
          "stateSpecified": true,
          "cntry": "United States",
          "postlCd": "80111"
        }
      ],
      "orgNm": "MADDOCK FINANCIAL, LLC",
      "orgPK": "107122",
      "str1": "8400 E PRENTICE AVE,SUITE 1360",
      "str2": null,
      "city": "GREENWOOD VILLAGE",
      "state": 5,
      "stateSpecified": true,
      "cntry": "United States",
      "postlCd": "80111"
    },
    {
      "CrntRgstns": [
        {
          "regAuth": 5,
          "regCat": 0,
          "st": 2,
          "stDt": "2016-03-24T00:00:00"
        }
      ],
      "BrnchOfLocs": [
        {
          "str1": "8400 E. PRENTICE AVENUE",
          "str2": "SUITE 1360",
          "city": "GREENWOOD VILLAGE",
          "state": 5,
          "stateSpecified": true,
          "cntry": "United States",
          "postlCd": "80111"
        }
      ],
      "orgNm": "THIRD DAY CAPITAL MANAGEMENT, LLC",
      "orgPK": "148121",
      "str1": "8400 E. PRENTICE AVENUE",
      "str2": "SUITE 1360",
      "city": "GREENWOOD VILLAGE",
      "state": 5,
      "stateSpecified": true,
      "cntry": "United States",
      "postlCd": "80111"
    }
  ],
  "Exms": [
    {
      "exmCd": 0,
      "exmNm": "Uniform Securities Agent State Law Examination",
      "exmDt": "1988-10-07T00:00:00",
      "exmDtSpecified": true
    }
  ],
  "Dsgntns": [
    {
      "dsgntnNm": "Certified Financial Planner"
    }
  ],
  "PrevRgstns": [],
  "EmpHss": [
    {
      "fromDt": "02/2002",
      "toDt": null,
      "orgNm": "MADDOCK FINANCIAL LLC",
      "city": "GREENWOOD VILLAGE",
      "state": 5,
      "stateSpecified": true
    }
  ],
  "OthrBuss": {
    "OthrBus": null
  },
  "DRPs": [
    {
      "hasRegAction": 1,
      "hasRegActionSpecified": true,
      "hasCriminal": 1,
      "hasCriminalSpecified": true,
      "hasBankrupt": 1,
      "hasBankruptSpecified": true,
      "hasCivilJudc": 1,
      "hasCivilJudcSpecified": true,
      "hasBond": 1,
      "hasBondSpecified": true,
      "hasJudgment": 1,
      "hasJudgmentSpecified": true,
      "hasInvstgn": 1,
      "hasInvstgnSpecified": true,
      "hasCustComp": 0,
      "hasCustCompSpecified": true,
      "hasTermination": 1,
      "hasTerminationSpecified": true
    }
  ]
}