{
  "Info": {
    "lastNm": "ABENS",
    "firstNm": "ARNOLD",
    "midNm": "DEAN",
    "sufNm": "JR",
    "indvlPK": "1506077",
    "actvAGReg": 1,
    "link": "http://www.adviserinfo.sec.gov/IAPD/Individual/1506077"
  },
  "OthrNms": [
    {
      "lastNm": "ABENS",
      "firstNm": "A",
      "midNm": "D",
      "sufNm": null
    },
    {
      "lastNm": "ABENS",
      "firstNm": "ARNIE",
      "midNm": null,
      "sufNm": null
    },
    {
      "lastNm": "ABENS",
      "firstNm": "ARNOLD",
      "midNm": "D",
      "sufNm": "JR"
    },
    {
      "lastNm": "ABENS",
      "firstNm": "ARNOLD",
      "midNm": "DEAN JR",
      "sufNm": null
    }
  ],
  "CrntEmps": [
    {
      "CrntRgstns": [
        {
          "regAuth": 24,
          "regCat": 0,
          "st": 2,
          "stDt": "2013-12-04T00:00:00"
        }
      ],
      "BrnchOfLocs": [
        {
          "str1": "4926 LINCOLN DRIVE",
          "str2": null,
          "city": "EDINA",
          "state": 24,
          "stateSpecified": true,
          "cntry": "United States",
          "postlCd": "55436"
        }
      ],
      "orgNm": "ABENS FINANCIAL SERVICES INC",
      "orgPK": "106604",
      "str1": "4926 LINCOLN DRIVE",
      "str2": null,
      "city": "EDINA",
      "state": 24,
      "stateSpecified": true,
      "cntry": "United States",
      "postlCd": "55436"
    }
  ],
  "Exms": [
    {
      "exmCd": 0,
      "exmNm": "Uniform Securities Agent State Law Examination",
      "exmDt": "1986-09-09T00:00:00",
      "exmDtSpecified": true
    },
    {
      "exmCd": 2,
      "exmNm": "Uniform Investment Adviser Law Examination",
      "exmDt": "1994-05-10T00:00:00",
      "exmDtSpecified": true
    }
  ],
  "Dsgntns": [],
  "PrevRgstns": [
    {
      "BrnchOfLocs": [
        {
          "city": "EDINA",
          "state": 24,
          "stateSpecified": true
        }
      ],
      "orgNm": "ABENS FINANCIAL SERVICES INC",
      "orgPK": "106604",
      "regBeginDt": "1995-02-23T00:00:00",
      "regBeginDtSpecified": true,
      "regEndDt": "2009-12-31T00:00:00",
      "regEndDtSpecified": true
    }
  ],
  "EmpHss": [
    {
      "fromDt": "01/1997",
      "toDt": null,
      "orgNm": "ABENS FINANCIAL SERVICES, INC.",
      "city": "EDINA",
      "state": 24,
      "stateSpecified": true
    }
  ],
  "OthrBuss": {
    "OthrBus": {
      "desc": "DIRECTOR/SHAREHOLDER, AMERICAN INVESTORS BANK & MORTGAGE, 1/2004, 1 HR/MO DURING TRADING, INVESTMENT RELATED, 6385 OLD SHADY OAK RD SUITE 110, EDEN PRAIRIE, MN  55344  DIRECTOR/OWNER , NATIONAL FLOORING EQUIPMENT, INC., 1/2006, 5 HR/MO DURING TRADING, 9250 XYLON AVENUE NORTH, MINNEAPOLIS, MN  55445  DIRECTOR/OWNER, NEW PERSPECTIVES ASSISTED LIVING I-VI, 1/2006, 1 HR/MO DURING TRADING, 7625 GOLDEN TRIANGLE DRIVE, EDEN PRAIRIE, MN  55344  MANAGER, SILICA CAPITAL, LLC, INVESTMENT RELATED, 11/2012, 5 HR/MO DURING TRADING, 4926 LINCOLN DR., EDINA, MN  55436  DIRECTOR, SRC COMPUTERS, LLC, 2012, 3 HR/MO, 4240 N NEVADA AVE, COLORADO SPRINGS, CO  80907  OWNER/MANAGER, WATER'S EDGE FARM,  5/2008, 30 HR/MO, 3840 FARMHILL DR, MINNETRISTA, MN  55364  OWNER/LANDLORD, RENTAL REAL ESTATE, 1/1999, 1 HR/MO, EDINA (DBA KCF, LLC) AND MAPLE GROVE, MN  OWNER, AQUARIUS INTERNATIONAL LLC, 1/2007, NON-ACTIVE, 4926 LINCOLN DRIVE, EDINA, MN 55436  OWNER, WATERMARK FINANCIAL, LLC, 12/2012, NON-ACTUVE, 4926 LINCOLN DRIVE, EDINA, MN  55436  OWNER, 1ER AND TERRIOR, LLCS, NON-ACTIVE, 4926 LINCOLN DRIVE, EDINA, MN  55436"
    }
  },
  "DRPs": []
}