{
  "Info": {
    "lastNm": "WALCHER",
    "firstNm": "HOLLY",
    "midNm": "LOUISE",
    "sufNm": null,
    "indvlPK": "1512169",
    "actvAGReg": 0,
    "link": "http://www.adviserinfo.sec.gov/IAPD/Individual/1512169"
  },
  "OthrNms": [
    {
      "lastNm": "PENDLETON",
      "firstNm": "HOLLY",
      "midNm": "LOUISE",
      "sufNm": null
    },
    {
      "lastNm": "PENDLETON",
      "firstNm": "HOLLY",
      "midNm": "LOUSIE",
      "sufNm": null
    },
    {
      "lastNm": "WALCHER",
      "firstNm": "HOLLY",
      "midNm": "LOUSIE",
      "sufNm": null
    }
  ],
  "CrntEmps": [
    {
      "CrntRgstns": [
        {
          "regAuth": 45,
          "regCat": 0,
          "st": 3,
          "stDt": "2011-11-09T00:00:00"
        }
      ],
      "BrnchOfLocs": [
        {
          "str1": "5400 MEADOWS RD",
          "str2": "STES 200 AND 250",
          "city": "LAKE OSWEGO",
          "state": 38,
          "stateSpecified": true,
          "cntry": "United States",
          "postlCd": "97035"
        }
      ],
      "orgNm": "WELLS FARGO ADVISORS, LLC",
      "orgPK": "19616",
      "str1": "ONE NORTH JEFFERSON AVENUE",
      "str2": "MAIL CODE: H0004-050",
      "city": "ST. LOUIS",
      "state": 25,
      "stateSpecified": true,
      "cntry": "United States",
      "postlCd": "63103-2205"
    }
  ],
  "Exms": [
    {
      "exmCd": 0,
      "exmNm": "Uniform Securities Agent State Law Examination",
      "exmDt": "1991-07-16T00:00:00",
      "exmDtSpecified": true
    }
  ],
  "Dsgntns": [],
  "PrevRgstns": [],
  "EmpHss": [
    {
      "fromDt": "07/2006",
      "toDt": "05/2009",
      "orgNm": "WACHOVIA SECURITIES, LLC",
      "city": "LAKE OSWEGO",
      "state": 38,
      "stateSpecified": true
    },
    {
      "fromDt": "05/2009",
      "toDt": null,
      "orgNm": "WELLS FARGO ADVISORS LLC",
      "city": "LAKE OSWEGO",
      "state": 38,
      "stateSpecified": true
    }
  ],
  "OthrBuss": {
    "OthrBus": null
  },
  "DRPs": []
}