{
  "Info": {
    "lastNm": "COOPER",
    "firstNm": "WILLIAM",
    "midNm": "KING",
    "sufNm": null,
    "indvlPK": "1515165",
    "actvAGReg": 1,
    "link": "http://www.adviserinfo.sec.gov/IAPD/Individual/1515165"
  },
  "OthrNms": [
    {
      "lastNm": "COOPER",
      "firstNm": "BILL",
      "midNm": null,
      "sufNm": null
    }
  ],
  "CrntEmps": [
    {
      "CrntRgstns": [
        {
          "regAuth": 15,
          "regCat": 0,
          "st": 2,
          "stDt": "2000-11-28T00:00:00"
        }
      ],
      "BrnchOfLocs": [
        {
          "str1": "2504 GALEN DR. SUITE 108",
          "str2": null,
          "city": "CHAMPAIGN",
          "state": 15,
          "stateSpecified": true,
          "cntry": "United States",
          "postlCd": "61821"
        }
      ],
      "orgNm": "W.K. COOPER II ASSET MANAGEMENT CORPORATION",
      "orgPK": "123610",
      "str1": "3011 VILLAGE OFFICE PLACE",
      "str2": "SUITE B",
      "city": "CHAMPAIGN",
      "state": 15,
      "stateSpecified": true,
      "cntry": "United States",
      "postlCd": "61822"
    }
  ],
  "Exms": [
    {
      "exmCd": 0,
      "exmNm": "Uniform Securities Agent State Law Examination",
      "exmDt": "1986-07-30T00:00:00",
      "exmDtSpecified": true
    },
    {
      "exmCd": 2,
      "exmNm": "Uniform Investment Adviser Law Examination",
      "exmDt": "1992-12-09T00:00:00",
      "exmDtSpecified": true
    },
    {
      "exmCd": 3,
      "exmNm": "Uniform Combined State Law Examination",
      "exmDt": "1997-08-27T00:00:00",
      "exmDtSpecified": true
    }
  ],
  "Dsgntns": [],
  "PrevRgstns": [],
  "EmpHss": [
    {
      "fromDt": "05/1997",
      "toDt": null,
      "orgNm": "MERRILL LYNCH, PIERCE, FENNER & SMITH INCORPORATED",
      "city": "CHAMPAIGN",
      "state": 15,
      "stateSpecified": true
    }
  ],
  "OthrBuss": {
    "OthrBus": null
  },
  "DRPs": []
}