{
  "Info": {
    "lastNm": "TUNINK",
    "firstNm": "STEVEN",
    "midNm": "PAUL",
    "sufNm": null,
    "indvlPK": "1518960",
    "actvAGReg": 0,
    "link": "http://www.adviserinfo.sec.gov/IAPD/Individual/1518960"
  },
  "OthrNms": [
    {
      "lastNm": "TUNINK",
      "firstNm": "STEVE",
      "midNm": null,
      "sufNm": null
    }
  ],
  "CrntEmps": [
    {
      "CrntRgstns": [
        {
          "regAuth": 39,
          "regCat": 0,
          "st": 2,
          "stDt": "2008-01-22T00:00:00"
        }
      ],
      "BrnchOfLocs": [
        {
          "str1": "1730 PHILADELPHIA STREET",
          "str2": null,
          "city": "INDIANA",
          "state": 39,
          "stateSpecified": true,
          "cntry": "United States",
          "postlCd": "15701"
        },
        {
          "str1": "7 PARKWAY CENTER",
          "str2": "STE 650",
          "city": "PITTSBURGH",
          "state": 39,
          "stateSpecified": true,
          "cntry": "United States",
          "postlCd": "15220"
        }
      ],
      "orgNm": "AMERITAS INVESTMENT CORP.",
      "orgPK": "14869",
      "str1": "5900 \"O\" STREET",
      "str2": null,
      "city": "LINCOLN",
      "state": 30,
      "stateSpecified": true,
      "cntry": "United States",
      "postlCd": "68510"
    }
  ],
  "Exms": [
    {
      "exmCd": 0,
      "exmNm": "Uniform Securities Agent State Law Examination",
      "exmDt": "1994-01-03T00:00:00",
      "exmDtSpecified": true
    }
  ],
  "Dsgntns": [],
  "PrevRgstns": [],
  "EmpHss": [
    {
      "fromDt": "05/1986",
      "toDt": null,
      "orgNm": "AMERITAS INVESTMENT CORP.",
      "city": "LINCOLN",
      "state": 30,
      "stateSpecified": true
    },
    {
      "fromDt": "06/1988",
      "toDt": null,
      "orgNm": "AMERITAS LIFE INSURANCE CORP",
      "city": "LINCOLN",
      "state": 30,
      "stateSpecified": true
    },
    {
      "fromDt": "01/1999",
      "toDt": "12/2011",
      "orgNm": "ACACIA LIFE INSURANCE",
      "city": "BETHESDA",
      "state": 21,
      "stateSpecified": true
    },
    {
      "fromDt": "06/2006",
      "toDt": "12/2011",
      "orgNm": "UNION CENTRAL LIFE INSURANCE",
      "city": "CINCINNATI",
      "state": 36,
      "stateSpecified": true
    },
    {
      "fromDt": "04/2010",
      "toDt": null,
      "orgNm": "AMERITAS LIFE INSURANCE CORP OF NEW YORK",
      "city": "NEW YORK",
      "state": 35,
      "stateSpecified": true
    }
  ],
  "OthrBuss": {
    "OthrBus": {
      "desc": "*LICENSED AS AN INDEPENDENT INSURANCE AGENT FOR THE PURPOSE OF SELLING FIXED INSURANCE PRODUCTS. *WESTERN PA FIN CTR, DBA AMERITAS FIN SRVS OF WPA; 1730 PHILADELPHIA ST INDIANA PA 15701; INV REL; INSURANCE SALES TO CLIENTS; AGENT; START DATE = 07/2007; HRS/MO = N/A; TRADING HRS/MO = N/A; INSURANCE SALES."
    }
  },
  "DRPs": [
    {
      "hasRegAction": 1,
      "hasRegActionSpecified": true,
      "hasCriminal": 1,
      "hasCriminalSpecified": true,
      "hasBankrupt": 1,
      "hasBankruptSpecified": true,
      "hasCivilJudc": 1,
      "hasCivilJudcSpecified": true,
      "hasBond": 1,
      "hasBondSpecified": true,
      "hasJudgment": 1,
      "hasJudgmentSpecified": true,
      "hasInvstgn": 1,
      "hasInvstgnSpecified": true,
      "hasCustComp": 0,
      "hasCustCompSpecified": true,
      "hasTermination": 1,
      "hasTerminationSpecified": true
    }
  ]
}