{
  "Info": {
    "lastNm": "MORAND",
    "firstNm": "TIMOTHY",
    "midNm": "JAMES",
    "sufNm": null,
    "indvlPK": "1522403",
    "actvAGReg": 1,
    "link": "http://www.adviserinfo.sec.gov/IAPD/Individual/1522403"
  },
  "OthrNms": [
    {
      "lastNm": "MORAND",
      "firstNm": "TIM",
      "midNm": null,
      "sufNm": null
    }
  ],
  "CrntEmps": [
    {
      "CrntRgstns": [
        {
          "regAuth": 45,
          "regCat": 0,
          "st": 2,
          "stDt": "2009-12-03T00:00:00"
        }
      ],
      "BrnchOfLocs": [
        {
          "str1": "121 COUNTRYSIDE COURT",
          "str2": "SUITE 140",
          "city": "SOUTHLAKE",
          "state": 45,
          "stateSpecified": true,
          "cntry": "United States",
          "postlCd": "76092"
        },
        {
          "str1": "421 W. THIRD STREET",
          "str2": "STE 800",
          "city": "FORT WORTH",
          "state": 45,
          "stateSpecified": true,
          "cntry": "United States",
          "postlCd": "76102"
        }
      ],
      "orgNm": "TRINITY PORTFOLIO ADVISORS, LLC",
      "orgPK": "151721",
      "str1": "121 COUNTRYSIDE COURT",
      "str2": "SUITE 140",
      "city": "SOUTHLAKE",
      "state": 45,
      "stateSpecified": true,
      "cntry": "United States",
      "postlCd": "76092"
    }
  ],
  "Exms": [
    {
      "exmCd": 0,
      "exmNm": "Uniform Securities Agent State Law Examination",
      "exmDt": "1986-07-28T00:00:00",
      "exmDtSpecified": true
    },
    {
      "exmCd": 2,
      "exmNm": "Uniform Investment Adviser Law Examination",
      "exmDt": "2002-10-14T00:00:00",
      "exmDtSpecified": true
    }
  ],
  "Dsgntns": [],
  "PrevRgstns": [
    {
      "BrnchOfLocs": [
        {
          "city": "FT. WORTH",
          "state": 45,
          "stateSpecified": true
        }
      ],
      "orgNm": "MML INVESTORS SERVICES, LLC",
      "orgPK": "10409",
      "regBeginDt": "2002-11-06T00:00:00",
      "regBeginDtSpecified": true,
      "regEndDt": "2005-04-22T00:00:00",
      "regEndDtSpecified": true
    },
    {
      "BrnchOfLocs": [
        {
          "city": "FORT WORTH",
          "state": 45,
          "stateSpecified": true
        },
        {
          "city": "FORT WORTH",
          "state": 45,
          "stateSpecified": true
        },
        {
          "city": "FORT WORTH",
          "state": 45,
          "stateSpecified": true
        }
      ],
      "orgNm": "MML INVESTORS SERVICES, LLC",
      "orgPK": "10409",
      "regBeginDt": "2005-04-25T00:00:00",
      "regBeginDtSpecified": true,
      "regEndDt": "2009-12-03T00:00:00",
      "regEndDtSpecified": true
    }
  ],
  "EmpHss": [
    {
      "fromDt": "12/2001",
      "toDt": null,
      "orgNm": "MASS MUTUAL",
      "city": "SPRINGFIELD",
      "state": 20,
      "stateSpecified": true
    },
    {
      "fromDt": "12/2001",
      "toDt": "11/2009",
      "orgNm": "MML INVESTORS SERVICES",
      "city": "FT. WORTH",
      "state": 45,
      "stateSpecified": true
    },
    {
      "fromDt": "11/2009",
      "toDt": null,
      "orgNm": "TRINITY PORTFOLIO ADVISORS, LLC",
      "city": "FORT WORTH",
      "state": 45,
      "stateSpecified": true
    }
  ],
  "OthrBuss": {
    "OthrBus": {
      "desc": "NAME:BROKER W/ VARIOUS OUTSIDE CARRIERS INV REL:Y ADD:VARIES NATURE:SALES & SERVICE OF NEW AND/OR EXISTING FIXED LI,LTC,DI,HLTH & PROPERTY POSITION:AGENT START DATE:11/01 NO.HR/MO:80 NO.HR/MO DURING SEC TRADING:80 DUTIES:SALES & SERVICE  NAME: THE RIGG GROUP INV REL ADDRESS: 777 MAIN ST FT WORTH TX NATURE: FT WORTH TX GRP 1 INS SALES POSITION: AGENT START: 12/01/01 NO.HRS/MO: 40 NO.HRS/MO DURING TRADING: 20 DUTIES: SALES & SERVICES OF TRAD IN PRODUCRS NO VARIABLE"
    }
  },
  "DRPs": []
}