{
  "Info": {
    "lastNm": "DAZEY",
    "firstNm": "ANDREW",
    "midNm": "CHECK",
    "sufNm": null,
    "indvlPK": "1523036",
    "actvAGReg": 0,
    "link": "http://www.adviserinfo.sec.gov/IAPD/Individual/1523036"
  },
  "OthrNms": [],
  "CrntEmps": [
    {
      "CrntRgstns": [
        {
          "regAuth": 25,
          "regCat": 0,
          "st": 2,
          "stDt": "1995-10-13T00:00:00"
        },
        {
          "regAuth": 1,
          "regCat": 0,
          "st": 2,
          "stDt": "1996-06-24T00:00:00"
        },
        {
          "regAuth": 45,
          "regCat": 0,
          "st": 2,
          "stDt": "2003-01-06T00:00:00"
        },
        {
          "regAuth": 15,
          "regCat": 0,
          "st": 2,
          "stDt": "2008-06-20T00:00:00"
        },
        {
          "regAuth": 10,
          "regCat": 0,
          "st": 2,
          "stDt": "2015-07-10T00:00:00"
        }
      ],
      "BrnchOfLocs": [
        {
          "str1": "7800 FORSYTH AVENUE",
          "str2": "8TH FLOOR",
          "city": "ST. LOUIS",
          "state": 25,
          "stateSpecified": true,
          "cntry": "United States",
          "postlCd": "63105"
        }
      ],
      "orgNm": "ORION INVESTMENT CO",
      "orgPK": "110867",
      "str1": "7800 FORSYTH AVE",
      "str2": "SUITE 820",
      "city": "ST LOUIS",
      "state": 25,
      "stateSpecified": true,
      "cntry": "United States",
      "postlCd": "63105"
    }
  ],
  "Exms": [
    {
      "exmCd": 0,
      "exmNm": "Uniform Securities Agent State Law Examination",
      "exmDt": "1986-09-12T00:00:00",
      "exmDtSpecified": true
    }
  ],
  "Dsgntns": [],
  "PrevRgstns": [],
  "EmpHss": [
    {
      "fromDt": "06/1987",
      "toDt": null,
      "orgNm": "ORION INVESTMENT COMPANY",
      "city": "ST. LOUIS",
      "state": 25,
      "stateSpecified": true
    },
    {
      "fromDt": "06/1987",
      "toDt": null,
      "orgNm": "SAUER, DAZEY INVESTMENT COMPANY",
      "city": "ST. LOUIS",
      "state": 25,
      "stateSpecified": true
    }
  ],
  "OthrBuss": {
    "OthrBus": {
      "desc": "CAPITOL EXPORT CORP.,8825 PAGE BLVD.,ST. LOUIS, MO 63114, IMPORTER OF SOLID FUEL APPLIANCES,V.P. EXEC.,40 HRS/MON.,MY NOT DURING SECURITIES HOURS.,WALTS EXPRESS CO.,9512 THEODOSIA AVE., ST. LOUIS, MO 63114,LOCAL DRAYAGE, TREAS./INVESTOR,CON- SULTING, 1 HOUR/MONTH,NOT DURING SECURITIES HOURS.          "
    }
  },
  "DRPs": []
}