{
  "Info": {
    "lastNm": "ANDERSON",
    "firstNm": "JOE",
    "midNm": "LESLIE",
    "sufNm": null,
    "indvlPK": "1531270",
    "actvAGReg": 0,
    "link": "http://www.adviserinfo.sec.gov/IAPD/Individual/1531270"
  },
  "OthrNms": [],
  "CrntEmps": [
    {
      "CrntRgstns": [
        {
          "regAuth": 36,
          "regCat": 0,
          "st": 2,
          "stDt": "2012-05-08T00:00:00"
        }
      ],
      "BrnchOfLocs": [
        {
          "str1": "17200 PEARL RD.",
          "str2": null,
          "city": "STRONGSVILLE",
          "state": 36,
          "stateSpecified": true,
          "cntry": "United States",
          "postlCd": "44136-6061"
        }
      ],
      "orgNm": "PFS INVESTMENTS INC.",
      "orgPK": "10111",
      "str1": "1 PRIMERICA PARKWAY",
      "str2": null,
      "city": "DULUTH",
      "state": 10,
      "stateSpecified": true,
      "cntry": "United States",
      "postlCd": "30099-0001"
    }
  ],
  "Exms": [
    {
      "exmCd": 0,
      "exmNm": "Uniform Securities Agent State Law Examination",
      "exmDt": "1986-09-25T00:00:00",
      "exmDtSpecified": true
    }
  ],
  "Dsgntns": [],
  "PrevRgstns": [],
  "EmpHss": [
    {
      "fromDt": "06/1986",
      "toDt": null,
      "orgNm": "PFS INVESTMENTS INC.",
      "city": "STRONGSVILLE",
      "state": 36,
      "stateSpecified": true
    },
    {
      "fromDt": "02/1991",
      "toDt": null,
      "orgNm": "PRIMERICA FINANCIAL SERVICES",
      "city": "STRONGSVILLE",
      "state": 36,
      "stateSpecified": true
    },
    {
      "fromDt": "03/2015",
      "toDt": null,
      "orgNm": "OHIO GUIDESTONE",
      "city": "FAIRLAWN",
      "state": 36,
      "stateSpecified": true
    }
  ],
  "OthrBuss": {
    "OthrBus": {
      "desc": "SALES OF INVESTMENT-RELATED PRODUCTS, PART-TIME OR FULL-TIME, FOR COMPANIES AFFILIATED WITH PFS INVESTMENTS INC.  I MAY ALSO RECEIVE NON-INVESTMENT RELATED COMPENSATION FROM PRIMERICA CLIENT SERVICES, INC. (A CO-LOCATED AFFILIATE OF PFS INVESTMENTS INC.) FOR PART-TIME REFERRALS OF HOME SECURITY AND AUTOMATION PRODUCTS, AS WELL AS OTHER HOME RELATED SERVICES."
    }
  },
  "DRPs": []
}