{
  "Info": {
    "lastNm": "Odom",
    "firstNm": "Michael",
    "midNm": "Frank",
    "sufNm": null,
    "indvlPK": "1541220",
    "actvAGReg": 0,
    "link": "http://www.adviserinfo.sec.gov/IAPD/Individual/1541220"
  },
  "OthrNms": [
    {
      "lastNm": "ODOM",
      "firstNm": "MIKE",
      "midNm": null,
      "sufNm": null
    }
  ],
  "CrntEmps": [
    {
      "CrntRgstns": [
        {
          "regAuth": 26,
          "regCat": 0,
          "st": 2,
          "stDt": "2011-01-31T00:00:00"
        },
        {
          "regAuth": 45,
          "regCat": 0,
          "st": 3,
          "stDt": "2014-08-26T00:00:00"
        }
      ],
      "BrnchOfLocs": [
        {
          "str1": "1218 JACKSON AVE",
          "str2": null,
          "city": "PASCAGOULA",
          "state": 26,
          "stateSpecified": true,
          "cntry": "United States",
          "postlCd": "39567-4348"
        }
      ],
      "orgNm": "EDWARD JONES",
      "orgPK": "250",
      "str1": "12555 MANCHESTER RD",
      "str2": null,
      "city": "ST. LOUIS",
      "state": 25,
      "stateSpecified": true,
      "cntry": "United States",
      "postlCd": "63131"
    }
  ],
  "Exms": [
    {
      "exmCd": 0,
      "exmNm": "Uniform Securities Agent State Law Examination",
      "exmDt": "1986-10-28T00:00:00",
      "exmDtSpecified": true
    },
    {
      "exmCd": 2,
      "exmNm": "Uniform Investment Adviser Law Examination",
      "exmDt": "2005-02-22T00:00:00",
      "exmDtSpecified": true
    }
  ],
  "Dsgntns": [],
  "PrevRgstns": [
    {
      "BrnchOfLocs": [
        {
          "city": "PASCAGOULA",
          "state": 26,
          "stateSpecified": true
        },
        {
          "city": "ST. LOUIS",
          "state": 25,
          "stateSpecified": true
        }
      ],
      "orgNm": "A. G. EDWARDS & SONS, INC.",
      "orgPK": "4",
      "regBeginDt": "2005-02-23T00:00:00",
      "regBeginDtSpecified": true,
      "regEndDt": "2008-01-01T00:00:00",
      "regEndDtSpecified": true
    },
    {
      "BrnchOfLocs": [
        {
          "city": "MOBILE",
          "state": 1,
          "stateSpecified": true
        },
        {
          "city": "PASCAGOULA",
          "state": 26,
          "stateSpecified": true
        },
        {
          "city": "PASCAGOULA",
          "state": 26,
          "stateSpecified": true
        }
      ],
      "orgNm": "WELLS FARGO ADVISORS, LLC",
      "orgPK": "19616",
      "regBeginDt": "2008-01-01T00:00:00",
      "regBeginDtSpecified": true,
      "regEndDt": "2011-01-31T00:00:00",
      "regEndDtSpecified": true
    }
  ],
  "EmpHss": [
    {
      "fromDt": "03/1995",
      "toDt": "01/2011",
      "orgNm": "A. G. EDWARDS & SONS, INC.",
      "city": "PASCAGOULA",
      "state": 26,
      "stateSpecified": true
    },
    {
      "fromDt": "01/2008",
      "toDt": "01/2011",
      "orgNm": "WACHOVIA SECURITIES, LLC",
      "city": "PASCAGOULA",
      "state": 26,
      "stateSpecified": true
    },
    {
      "fromDt": "01/2008",
      "toDt": "01/2011",
      "orgNm": "WACHOVIA SECURITIES, LLC",
      "city": "PASCAGOULA",
      "state": 26,
      "stateSpecified": true
    },
    {
      "fromDt": "01/2011",
      "toDt": null,
      "orgNm": "EDWARD JONES",
      "city": "ST LOUIS",
      "state": 25,
      "stateSpecified": true
    }
  ],
  "OthrBuss": {
    "OthrBus": null
  },
  "DRPs": []
}