{
  "Info": {
    "lastNm": "FOWLER",
    "firstNm": "PATRICIA",
    "midNm": "MARY",
    "sufNm": null,
    "indvlPK": "1543546",
    "actvAGReg": 0,
    "link": "http://www.adviserinfo.sec.gov/IAPD/Individual/1543546"
  },
  "OthrNms": [
    {
      "lastNm": "BURNHAM",
      "firstNm": "PATRICIA",
      "midNm": null,
      "sufNm": null
    },
    {
      "lastNm": "FOWLER",
      "firstNm": "PATRICIA",
      "midNm": "MARY",
      "sufNm": null
    },
    {
      "lastNm": "JACOBS",
      "firstNm": "PATRICIA",
      "midNm": null,
      "sufNm": null
    },
    {
      "lastNm": "MEEHAN",
      "firstNm": "PATRICIA",
      "midNm": "MARY",
      "sufNm": null
    }
  ],
  "CrntEmps": [
    {
      "CrntRgstns": [
        {
          "regAuth": 37,
          "regCat": 0,
          "st": 2,
          "stDt": "2007-11-05T00:00:00"
        },
        {
          "regAuth": 45,
          "regCat": 0,
          "st": 3,
          "stDt": "2012-10-15T00:00:00"
        }
      ],
      "BrnchOfLocs": [
        {
          "str1": "3540 S BOULEVARD ST STE 110",
          "str2": null,
          "city": "EDMOND",
          "state": 37,
          "stateSpecified": true,
          "cntry": "United States",
          "postlCd": "73013"
        }
      ],
      "orgNm": "WELLS FARGO ADVISORS, LLC",
      "orgPK": "19616",
      "str1": "ONE NORTH JEFFERSON AVENUE",
      "str2": "MAIL CODE: H0004-050",
      "city": "ST. LOUIS",
      "state": 25,
      "stateSpecified": true,
      "cntry": "United States",
      "postlCd": "63103-2205"
    }
  ],
  "Exms": [
    {
      "exmCd": 0,
      "exmNm": "Uniform Securities Agent State Law Examination",
      "exmDt": "1999-10-04T00:00:00",
      "exmDtSpecified": true
    },
    {
      "exmCd": 2,
      "exmNm": "Uniform Investment Adviser Law Examination",
      "exmDt": "2007-01-23T00:00:00",
      "exmDtSpecified": true
    }
  ],
  "Dsgntns": [],
  "PrevRgstns": [
    {
      "BrnchOfLocs": [
        {
          "city": "OKLAHOMA CITY",
          "state": 37,
          "stateSpecified": true
        },
        {
          "city": "OKLAHOMA CITY",
          "state": 37,
          "stateSpecified": true
        }
      ],
      "orgNm": "CITIGROUP GLOBAL MARKETS INC.",
      "orgPK": "7059",
      "regBeginDt": "2006-03-30T00:00:00",
      "regBeginDtSpecified": true,
      "regEndDt": "2007-10-30T00:00:00",
      "regEndDtSpecified": true
    }
  ],
  "EmpHss": [
    {
      "fromDt": "10/2003",
      "toDt": "10/2007",
      "orgNm": "CITIGROUP GLOBAL MARKETS INC.",
      "city": "OKLAHOMA CITY",
      "state": 37,
      "stateSpecified": true
    },
    {
      "fromDt": "10/2007",
      "toDt": "05/2009",
      "orgNm": "WACHOVIA SECURITIES, LLC",
      "city": "OKLAHOMA CITY",
      "state": 37,
      "stateSpecified": true
    },
    {
      "fromDt": "05/2009",
      "toDt": null,
      "orgNm": "WELLS FARGO ADVISORS LLC",
      "city": "OKLAHOMA CITY",
      "state": 37,
      "stateSpecified": true
    }
  ],
  "OthrBuss": {
    "OthrBus": null
  },
  "DRPs": []
}