{
  "Info": {
    "lastNm": "HINDMAN",
    "firstNm": "MICHAEL",
    "midNm": "RONALD",
    "sufNm": null,
    "indvlPK": "1547811",
    "actvAGReg": 1,
    "link": "http://www.adviserinfo.sec.gov/IAPD/Individual/1547811"
  },
  "OthrNms": [
    {
      "lastNm": "HINDMAN",
      "firstNm": "MICHAEL",
      "midNm": null,
      "sufNm": null
    },
    {
      "lastNm": "HINDMAN",
      "firstNm": "MICHAEL",
      "midNm": "RONALD",
      "sufNm": null
    },
    {
      "lastNm": "HINDMAN",
      "firstNm": "MIKE",
      "midNm": null,
      "sufNm": null
    },
    {
      "lastNm": "HINDMAN",
      "firstNm": "MIKE",
      "midNm": "R",
      "sufNm": null
    }
  ],
  "CrntEmps": [
    {
      "CrntRgstns": [
        {
          "regAuth": 1,
          "regCat": 0,
          "st": 2,
          "stDt": "2016-05-19T00:00:00"
        }
      ],
      "BrnchOfLocs": [
        {
          "str1": null,
          "str2": null,
          "city": "Jacksonville",
          "state": 1,
          "stateSpecified": true,
          "cntry": "United States",
          "postlCd": null
        },
        {
          "str1": "125 GREENWICH AVE",
          "str2": null,
          "city": "GREENWICH",
          "state": 6,
          "stateSpecified": true,
          "cntry": "United States",
          "postlCd": "06830"
        }
      ],
      "orgNm": "BELPOINTE ASSET MANAGEMENT LLC",
      "orgPK": "143440",
      "str1": "125 GREENWICH AVE",
      "str2": null,
      "city": "GREENWICH",
      "state": 6,
      "stateSpecified": true,
      "cntry": "United States",
      "postlCd": "06830"
    }
  ],
  "Exms": [
    {
      "exmCd": 3,
      "exmNm": "Uniform Combined State Law Examination",
      "exmDt": "2007-10-01T00:00:00",
      "exmDtSpecified": true
    },
    {
      "exmCd": 0,
      "exmNm": "Uniform Securities Agent State Law Examination",
      "exmDt": "2012-03-27T00:00:00",
      "exmDtSpecified": true
    },
    {
      "exmCd": 2,
      "exmNm": "Uniform Investment Adviser Law Examination",
      "exmDt": "2012-04-10T00:00:00",
      "exmDtSpecified": true
    }
  ],
  "Dsgntns": [],
  "PrevRgstns": [
    {
      "BrnchOfLocs": [
        {
          "city": "GADSDEN",
          "state": 1,
          "stateSpecified": true
        }
      ],
      "orgNm": "A. G. EDWARDS & SONS, INC.",
      "orgPK": "4",
      "regBeginDt": "1999-07-07T00:00:00",
      "regBeginDtSpecified": true,
      "regEndDt": "2003-11-05T00:00:00",
      "regEndDtSpecified": true
    },
    {
      "BrnchOfLocs": [
        {
          "city": "ATTALLA",
          "state": 1,
          "stateSpecified": true
        },
        {
          "city": "BIRMINGHAM",
          "state": 1,
          "stateSpecified": true
        },
        {
          "city": "GADSDEN",
          "state": 1,
          "stateSpecified": true
        },
        {
          "city": "GADSDEN",
          "state": 1,
          "stateSpecified": true
        },
        {
          "city": "GADSEN",
          "state": 1,
          "stateSpecified": true
        },
        {
          "city": "RAINBOW CITY",
          "state": 1,
          "stateSpecified": true
        }
      ],
      "orgNm": "WELLS FARGO ADVISORS, LLC",
      "orgPK": "19616",
      "regBeginDt": "2007-10-02T00:00:00",
      "regBeginDtSpecified": true,
      "regEndDt": "2007-12-20T00:00:00",
      "regEndDtSpecified": true
    },
    {
      "BrnchOfLocs": [
        {
          "city": "BIRMINGHAM",
          "state": 1,
          "stateSpecified": true
        }
      ],
      "orgNm": "STERNE AGEE ASSET MANAGEMENT, INC.",
      "orgPK": "130888",
      "regBeginDt": "2009-02-18T00:00:00",
      "regBeginDtSpecified": true,
      "regEndDt": "2009-11-17T00:00:00",
      "regEndDtSpecified": true
    },
    {
      "BrnchOfLocs": [
        {
          "city": "BIRMINGHAM",
          "state": 1,
          "stateSpecified": true
        }
      ],
      "orgNm": "MML INVESTORS SERVICES, LLC",
      "orgPK": "10409",
      "regBeginDt": "2012-04-17T00:00:00",
      "regBeginDtSpecified": true,
      "regEndDt": "2012-07-27T00:00:00",
      "regEndDtSpecified": true
    },
    {
      "BrnchOfLocs": [
        {
          "city": "BYNUM",
          "state": 1,
          "stateSpecified": true
        },
        {
          "city": "OXFORD",
          "state": 1,
          "stateSpecified": true
        },
        {
          "city": "WAVERLY",
          "state": 13,
          "stateSpecified": true
        },
        {
          "city": "WAVERLY",
          "state": 13,
          "stateSpecified": true
        }
      ],
      "orgNm": "CUNA BROKERAGE SERVICES, INC.",
      "orgPK": "13941",
      "regBeginDt": "2012-08-06T00:00:00",
      "regBeginDtSpecified": true,
      "regEndDt": "2014-02-06T00:00:00",
      "regEndDtSpecified": true
    },
    {
      "BrnchOfLocs": [
        {
          "city": "BIRMINGHAM",
          "state": 1,
          "stateSpecified": true
        }
      ],
      "orgNm": "FIRST ADVISORS CAPITAL, INC.",
      "orgPK": "149832",
      "regBeginDt": "2014-05-14T00:00:00",
      "regBeginDtSpecified": true,
      "regEndDt": "2016-05-09T00:00:00",
      "regEndDtSpecified": true
    }
  ],
  "EmpHss": [
    {
      "fromDt": "04/2005",
      "toDt": "12/2007",
      "orgNm": "WACHOVIA SECURITIES",
      "city": "GADSDEN",
      "state": 1,
      "stateSpecified": true
    },
    {
      "fromDt": "12/2007",
      "toDt": "02/2009",
      "orgNm": "ALLSTATE FINANCIAL SERVICES, LLC",
      "city": "GADSDEN",
      "state": 1,
      "stateSpecified": true
    },
    {
      "fromDt": "02/2009",
      "toDt": "02/2012",
      "orgNm": "EMPLOYEE BENEFIT SERVICES",
      "city": "JACKSONVILLE",
      "state": 1,
      "stateSpecified": true
    },
    {
      "fromDt": "02/2009",
      "toDt": "02/2012",
      "orgNm": "STERNE AGEE FINANCIAL SERVICES",
      "city": "ANNISTON",
      "state": 1,
      "stateSpecified": true
    },
    {
      "fromDt": "02/2012",
      "toDt": "07/2012",
      "orgNm": "MASS MUTUAL",
      "city": "BIRMINGHAM",
      "state": 1,
      "stateSpecified": true
    },
    {
      "fromDt": "03/2012",
      "toDt": "07/2012",
      "orgNm": "MML INVESTORS SERVICES",
      "city": "BIRMINGHAM",
      "state": 1,
      "stateSpecified": true
    },
    {
      "fromDt": "07/2012",
      "toDt": "02/2014",
      "orgNm": "CUNA BROKERAGE SERVICES, INC.",
      "city": "OXFORD",
      "state": 1,
      "stateSpecified": true
    },
    {
      "fromDt": "07/2012",
      "toDt": "01/2014",
      "orgNm": "CUNA MUTUAL GROUP",
      "city": "OXFORD",
      "state": 1,
      "stateSpecified": true
    },
    {
      "fromDt": "05/2014",
      "toDt": "12/2015",
      "orgNm": "PROEQUITIES, INC",
      "city": "BIRMINGHAM",
      "state": 1,
      "stateSpecified": true
    },
    {
      "fromDt": "06/2014",
      "toDt": "05/2016",
      "orgNm": "FIRST ADVISORS CAPITAL, INC.",
      "city": "BIRMINGHAM",
      "state": 1,
      "stateSpecified": true
    },
    {
      "fromDt": "05/2016",
      "toDt": null,
      "orgNm": "BELPOINTE ASSET MANAGEMENT",
      "city": "Greenwich",
      "state": 6,
      "stateSpecified": true
    }
  ],
  "OthrBuss": {
    "OthrBus": {
      "desc": "1) EMPLOYEE BENEFIT SERVICES (EBS); INVESTMENT RELATED; 306 ASHTON DRIVE NE, JACKSONVILLE, AL 36265; SALES - EMPLOYEE BENEFITS; PRESIDENT/OWNER; START DATE 11/2009; ONE HOUR OR LESS PER MONTH WITH NO HOURS BEING DURING TRADING HOURS; RETAIN FOR TRAIL COMMISSIONS. 2). WESLEY FOUNDATION, STUDENT MINISTRY, JACKSONVILLE, ALABAMA,  SINCE 2013 NON PROFIT, BOARD CHAIRMAN, APPROX 4 HOURS PER MONTH.  3). INSTITUTE OF CLERGY EXCELLENCE, JACKSONVILLE, ALABAMA, SINCE 2015, NON PROFIT, TREASURER, APPROX 2 HOURS"
    }
  },
  "DRPs": []
}