{
  "Info": {
    "lastNm": "MARTIN",
    "firstNm": "MONTE",
    "midNm": "LEE",
    "sufNm": null,
    "indvlPK": "1549563",
    "actvAGReg": 0,
    "link": "http://www.adviserinfo.sec.gov/IAPD/Individual/1549563"
  },
  "OthrNms": [],
  "CrntEmps": [
    {
      "CrntRgstns": [
        {
          "regAuth": 49,
          "regCat": 0,
          "st": 2,
          "stDt": "1998-05-27T00:00:00"
        }
      ],
      "BrnchOfLocs": [
        {
          "str1": "1802 BLACK LAKE BOULEVARD SW",
          "str2": "SUITE 203",
          "city": "OLYMPIA",
          "state": 49,
          "stateSpecified": true,
          "cntry": "United States",
          "postlCd": "98512"
        }
      ],
      "orgNm": "PRUCO SECURITIES, LLC.",
      "orgPK": "5685",
      "str1": "751 BROAD STREET",
      "str2": null,
      "city": "NEWARK",
      "state": 32,
      "stateSpecified": true,
      "cntry": "United States",
      "postlCd": "07102-3777"
    }
  ],
  "Exms": [
    {
      "exmCd": 0,
      "exmNm": "Uniform Securities Agent State Law Examination",
      "exmDt": "1986-09-24T00:00:00",
      "exmDtSpecified": true
    },
    {
      "exmCd": 2,
      "exmNm": "Uniform Investment Adviser Law Examination",
      "exmDt": "1997-03-21T00:00:00",
      "exmDtSpecified": true
    }
  ],
  "Dsgntns": [],
  "PrevRgstns": [],
  "EmpHss": [
    {
      "fromDt": "07/1986",
      "toDt": null,
      "orgNm": "PRUCO SECURITIES ,LLC",
      "city": "Olympia",
      "state": 49,
      "stateSpecified": true
    },
    {
      "fromDt": "07/1986",
      "toDt": null,
      "orgNm": "THE PRUDENTIAL INSURANCE COMPANY OF AMERICA",
      "city": "Olympia",
      "state": 49,
      "stateSpecified": true
    }
  ],
  "OthrBuss": {
    "OthrBus": {
      "desc": "Monte Martin~201 South Shore Rd, Quinault, WA 98575~Wrestling Tournaments~N~Tournament Administrator - seeding, scoring & bracketing of wrestling tournaments~2/2012~6 hrs/mo~2 trading hrs/mo|Watson Watson Fin'l Services~1802 Black Lake Blvd SW, Suite 203, Olympia, WA 98575~Sales & Service of Ins & Fin'l Products~Y~Fin'l Planner~05/25/2016~160 hrs/mo~136.5 trading hrs/mo|Chase Ins life & Annuity Co|John Hancock Life Ins|Principal Life Ins|Provident Life & Casualty Ins Co|Unum Life Ins Co"
    }
  },
  "DRPs": []
}