{
  "Info": {
    "lastNm": "MEYERS",
    "firstNm": "PHILIP",
    "midNm": "JAY",
    "sufNm": null,
    "indvlPK": "1551522",
    "actvAGReg": 0,
    "link": "http://www.adviserinfo.sec.gov/IAPD/Individual/1551522"
  },
  "OthrNms": [],
  "CrntEmps": [
    {
      "CrntRgstns": [
        {
          "regAuth": 21,
          "regCat": 0,
          "st": 2,
          "stDt": "2000-04-12T00:00:00"
        }
      ],
      "BrnchOfLocs": [
        {
          "str1": "3206 TOWER OAKS BLVD",
          "str2": "4TH FLOOR",
          "city": "ROCKVILLE",
          "state": 21,
          "stateSpecified": true,
          "cntry": "United States",
          "postlCd": "20852"
        }
      ],
      "orgNm": "H. BECK, INC.",
      "orgPK": "1763",
      "str1": "6600 ROCKLEDGE DRIVE",
      "str2": "6TH FLOOR",
      "city": "BETHESDA",
      "state": 21,
      "stateSpecified": true,
      "cntry": "United States",
      "postlCd": "20817-1806"
    }
  ],
  "Exms": [
    {
      "exmCd": 0,
      "exmNm": "Uniform Securities Agent State Law Examination",
      "exmDt": "1988-03-29T00:00:00",
      "exmDtSpecified": true
    },
    {
      "exmCd": 2,
      "exmNm": "Uniform Investment Adviser Law Examination",
      "exmDt": "1999-05-11T00:00:00",
      "exmDtSpecified": true
    }
  ],
  "Dsgntns": [],
  "PrevRgstns": [],
  "EmpHss": [
    {
      "fromDt": "05/1987",
      "toDt": null,
      "orgNm": "H. BECK, INC.",
      "city": "ROCKVILLE",
      "state": 21,
      "stateSpecified": true
    }
  ],
  "OthrBuss": {
    "OthrBus": {
      "desc": "PHILIP MEYERS POSITION: AGENT NATURE: INSURANCE SALES INVESTMENT RELATED: YES NUMBER OF HOURS: 10 INVESTMENT RELATED HOURS: 10 START DATE: 03/06/1987  ADDRESS: 11140 ROCKVILE, PIKE, 4TH FLOOR, ROCKVILLE MD 20852  DESCRIPTION: INSURANCE SALES"
    }
  },
  "DRPs": [
    {
      "hasRegAction": 1,
      "hasRegActionSpecified": true,
      "hasCriminal": 0,
      "hasCriminalSpecified": true,
      "hasBankrupt": 1,
      "hasBankruptSpecified": true,
      "hasCivilJudc": 1,
      "hasCivilJudcSpecified": true,
      "hasBond": 1,
      "hasBondSpecified": true,
      "hasJudgment": 1,
      "hasJudgmentSpecified": true,
      "hasInvstgn": 1,
      "hasInvstgnSpecified": true,
      "hasCustComp": 1,
      "hasCustCompSpecified": true,
      "hasTermination": 1,
      "hasTerminationSpecified": true
    }
  ]
}