{
  "Info": {
    "lastNm": "MORRIS",
    "firstNm": "DONALD",
    "midNm": "MANNON",
    "sufNm": "JR",
    "indvlPK": "1562759",
    "actvAGReg": 1,
    "link": "http://www.adviserinfo.sec.gov/IAPD/Individual/1562759"
  },
  "OthrNms": [
    {
      "lastNm": "MORRIS",
      "firstNm": "CHIP",
      "midNm": null,
      "sufNm": null
    },
    {
      "lastNm": "MORRIS",
      "firstNm": "DONALD",
      "midNm": "MANNON",
      "sufNm": null
    },
    {
      "lastNm": "MORRIS",
      "firstNm": "DONALD",
      "midNm": "MANNON",
      "sufNm": null
    }
  ],
  "CrntEmps": [
    {
      "CrntRgstns": [
        {
          "regAuth": 10,
          "regCat": 0,
          "st": 2,
          "stDt": "2015-03-19T00:00:00"
        }
      ],
      "BrnchOfLocs": [
        {
          "str1": "SIX CONCOURSE PARKWAY",
          "str2": "SUITE 3300",
          "city": "ATLANTA",
          "state": 10,
          "stateSpecified": true,
          "cntry": "United States",
          "postlCd": "30328"
        }
      ],
      "orgNm": "LIQUID STRATEGIES, LLC",
      "orgPK": "170107",
      "str1": "SIX CONCOURSE PARKWAY",
      "str2": "SUITE 3300",
      "city": "ATLANTA",
      "state": 10,
      "stateSpecified": true,
      "cntry": "United States",
      "postlCd": "30328"
    }
  ],
  "Exms": [
    {
      "exmCd": 0,
      "exmNm": "Uniform Securities Agent State Law Examination",
      "exmDt": "1994-04-25T00:00:00",
      "exmDtSpecified": true
    },
    {
      "exmCd": 2,
      "exmNm": "Uniform Investment Adviser Law Examination",
      "exmDt": "2003-08-20T00:00:00",
      "exmDtSpecified": true
    },
    {
      "exmCd": 3,
      "exmNm": "Uniform Combined State Law Examination",
      "exmDt": "2011-11-11T00:00:00",
      "exmDtSpecified": true
    }
  ],
  "Dsgntns": [],
  "PrevRgstns": [
    {
      "BrnchOfLocs": [
        {
          "city": "ATLANTA",
          "state": 10,
          "stateSpecified": true
        }
      ],
      "orgNm": "SUNTRUST INVESTMENT SERVICES, INC.",
      "orgPK": "17499",
      "regBeginDt": "2003-03-14T00:00:00",
      "regBeginDtSpecified": true,
      "regEndDt": "2003-07-21T00:00:00",
      "regEndDtSpecified": true
    },
    {
      "BrnchOfLocs": [
        {
          "city": "ATLANTA",
          "state": 10,
          "stateSpecified": true
        }
      ],
      "orgNm": "MERRILL LYNCH, PIERCE, FENNER & SMITH INCORPORATED",
      "orgPK": "7691",
      "regBeginDt": "2003-07-17T00:00:00",
      "regBeginDtSpecified": true,
      "regEndDt": "2005-10-17T00:00:00",
      "regEndDtSpecified": true
    },
    {
      "BrnchOfLocs": [
        {
          "city": "ATLANTA",
          "state": 10,
          "stateSpecified": true
        },
        {
          "city": "ATLANTA",
          "state": 10,
          "stateSpecified": true
        }
      ],
      "orgNm": "BANC OF AMERICA INVESTMENT SERVICES, INC.",
      "orgPK": "16361",
      "regBeginDt": "2005-10-19T00:00:00",
      "regBeginDtSpecified": true,
      "regEndDt": "2007-08-29T00:00:00",
      "regEndDtSpecified": true
    },
    {
      "BrnchOfLocs": [
        {
          "city": "ATLANTA",
          "state": 10,
          "stateSpecified": true
        }
      ],
      "orgNm": "CITIGROUP GLOBAL MARKETS INC.",
      "orgPK": "7059",
      "regBeginDt": "2007-11-16T00:00:00",
      "regBeginDtSpecified": true,
      "regEndDt": "2008-07-29T00:00:00",
      "regEndDtSpecified": true
    },
    {
      "BrnchOfLocs": [
        {
          "city": "ATLANTA",
          "state": 10,
          "stateSpecified": true
        },
        {
          "city": "CHARLOTTE",
          "state": 28,
          "stateSpecified": true
        }
      ],
      "orgNm": "BB&T INVESTMENT SERVICES, INC.",
      "orgPK": "33856",
      "regBeginDt": "2011-11-17T00:00:00",
      "regBeginDtSpecified": true,
      "regEndDt": "2012-08-21T00:00:00",
      "regEndDtSpecified": true
    },
    {
      "BrnchOfLocs": [
        {
          "city": "ATLANTA",
          "state": 10,
          "stateSpecified": true
        }
      ],
      "orgNm": "RBC CAPITAL MARKETS, LLC",
      "orgPK": "31194",
      "regBeginDt": "2012-01-04T00:00:00",
      "regBeginDtSpecified": true,
      "regEndDt": "2013-10-28T00:00:00",
      "regEndDtSpecified": true
    }
  ],
  "EmpHss": [
    {
      "fromDt": "10/2005",
      "toDt": "09/2007",
      "orgNm": "BANC OF AMERICA INVESTMENT SERVICES, INC.",
      "city": "ATLANTA",
      "state": 10,
      "stateSpecified": true
    },
    {
      "fromDt": "09/2007",
      "toDt": "09/2011",
      "orgNm": "CITIGROUP GLOBAL MARKETS, INC.",
      "city": "ATLANTA",
      "state": 10,
      "stateSpecified": true
    },
    {
      "fromDt": "10/2011",
      "toDt": "08/2012",
      "orgNm": "BB&T BANK",
      "city": "ATLANTA",
      "state": 10,
      "stateSpecified": true
    },
    {
      "fromDt": "10/2011",
      "toDt": "08/2012",
      "orgNm": "BBTIS",
      "city": "CHARLOTTE",
      "state": 28,
      "stateSpecified": true
    },
    {
      "fromDt": "12/2012",
      "toDt": "10/2013",
      "orgNm": "RBC CAPITAL MARKETS, LLC",
      "city": "ATLANTA",
      "state": 10,
      "stateSpecified": true
    },
    {
      "fromDt": "11/2013",
      "toDt": "06/2014",
      "orgNm": "UNEMPLOYED",
      "city": "ATLANTA",
      "state": 10,
      "stateSpecified": true
    },
    {
      "fromDt": "07/2014",
      "toDt": "02/2015",
      "orgNm": "PERIMETER CAPITAL MANAGEMENT",
      "city": "ATLANTA",
      "state": 10,
      "stateSpecified": true
    },
    {
      "fromDt": "02/2015",
      "toDt": null,
      "orgNm": "IMST DISTRIBUTORS, LLC",
      "city": "ATLANTA",
      "state": 10,
      "stateSpecified": true
    },
    {
      "fromDt": "02/2015",
      "toDt": null,
      "orgNm": "LIQUID STRATEGIES, LLC",
      "city": "ATLANTA",
      "state": 10,
      "stateSpecified": true
    }
  ],
  "OthrBuss": {
    "OthrBus": {
      "desc": "1) LIQUID STRATEGIES, LLC; ATLANTA, GA; INVESTMENT RELATED; INSTITUTIONAL MONEY MANAGEMENT/HEDGE FUND; PARTNER; MARKETING; 160 HOURS PER MONTH WITH 130 HOURS DURING SECURITIES TRADING HOURS. 2) SHELTERING ARMS EARLY EDUCATION AND FAMILY CENTERS, ATLANTA, GA, NON-INVESTMENT RELATED, NON PROFIT ASSISTING SINGLE MOTHERS WITH FREE DAYCARE, MEMBER OF THE BOARD OF DIRECTORS, START DATE 03/2015, GENERAL BOARD DUTIES, 2-4 HOURS PER MONTH WITH 0 DURING SECURITIES TRADING HOURS."
    }
  },
  "DRPs": []
}