{
  "Info": {
    "lastNm": "LOEB",
    "firstNm": "NANCY",
    "midNm": "ELLEN",
    "sufNm": null,
    "indvlPK": "1564181",
    "actvAGReg": 0,
    "link": "http://www.adviserinfo.sec.gov/IAPD/Individual/1564181"
  },
  "OthrNms": [],
  "CrntEmps": [
    {
      "CrntRgstns": [
        {
          "regAuth": 45,
          "regCat": 0,
          "st": 3,
          "stDt": "1995-03-03T00:00:00"
        },
        {
          "regAuth": 15,
          "regCat": 0,
          "st": 2,
          "stDt": "1998-04-12T00:00:00"
        }
      ],
      "BrnchOfLocs": [
        {
          "str1": "33 W MONROE ST",
          "str2": null,
          "city": "CHICAGO",
          "state": 15,
          "stateSpecified": true,
          "cntry": "United States",
          "postlCd": "60603"
        }
      ],
      "orgNm": "MERRILL LYNCH, PIERCE, FENNER & SMITH INCORPORATED",
      "orgPK": "7691",
      "str1": "ONE BRYANT PARK",
      "str2": null,
      "city": "NEW YORK",
      "state": 35,
      "stateSpecified": true,
      "cntry": "United States",
      "postlCd": "10036"
    }
  ],
  "Exms": [
    {
      "exmCd": 0,
      "exmNm": "Uniform Securities Agent State Law Examination",
      "exmDt": "1986-11-18T00:00:00",
      "exmDtSpecified": true
    },
    {
      "exmCd": 2,
      "exmNm": "Uniform Investment Adviser Law Examination",
      "exmDt": "1994-11-22T00:00:00",
      "exmDtSpecified": true
    }
  ],
  "Dsgntns": [],
  "PrevRgstns": [],
  "EmpHss": [
    {
      "fromDt": "10/1990",
      "toDt": null,
      "orgNm": "MERRILL LYNCH, PIERCE, FENNER & SMITH INCORPORATED",
      "city": "CHICAGO",
      "state": 15,
      "stateSpecified": true
    },
    {
      "fromDt": "09/2009",
      "toDt": null,
      "orgNm": "BANK OF AMERICA, NA",
      "city": "CHICAGO",
      "state": 15,
      "stateSpecified": true
    }
  ],
  "OthrBuss": {
    "OthrBus": {
      "desc": "(1)OTHER BUSINESS:   ALEXANDER LOEB IRREVOCABLE LIFE INS TRUST INVESTMENT RELATED:   TRUST  ADDRESS:  MISSOURI  POSITION:  TRUSTEE  NATURE:  IRREVOCABLE LIFE INSURANCE TRUST  TIME SPENT:  MINIMAL  DURING TRADE HRS:  NO  OTHER:  DECEASED FATHERS INSURANCE TRUST  DUTIES:  TRUSTEE    (2)I*44243  FOR PROFIT OR NOT FOR PROFIT: FOR-PROFIT ORGANIZATION  NAME OF OUTSIDE BUSINESS ORGANIZATION: LOEB MANAGEMENT COMPANY LLC  INVESTMENT RELATED: Y  ADDRESS OF BUSINESS:   10 S BROADWAY, SUITE 600  ST LOUIS, MISSOURI 63102  NATURE OF BUSINESS: LLC,  POSITION, TITLE, ASSOCIATION: OTHER, LIMITED PARTNER  START DATE OF RELATIONSHIP: 10/19/2001  NUMBER OF HOURS DEVOTED: 0 HOUR(S) ANNUALLY  NUMBER OF HOURS DEVOTED DURING TRADING HOURS: 0  DUTIES: LLC WAS CREATED TO ACR AS GENERAL PARTNER FOR BENJAMIN LIMITED    (3)FOR PROFIT OR NOT FOR PROFIT: FOR-PROFIT ORGANIZATION  NAME OF OUTSIDE BUSINESS ORGANIZATION: BENJAMIN LIMITED  INVESTMENT RELATED: NO  ADDRESS OF BUSINESS:  ST. LOUIS, MISSOURI  NATURE OF BUSINESS: LIMITED PARTNERSHIP  POSITION, TITLE, ASSOCIATION: LIMITED PARTNER  START DATE OF RELATIONSHIP: 04/13/2006  NUMBER OF HOURS DEVOTED: 0 HOUR(S) MONTHLY  NUMBER OF HOURS DEVOTED DURING TRADING HOURS: 0 HOUR(S) MONTHLY  DUTIES: FAMILY PARTNERSHIP."
    }
  },
  "DRPs": []
}