{
  "Info": {
    "lastNm": "DAVIS",
    "firstNm": "JOSEPH",
    "midNm": "BLAIR",
    "sufNm": "JR",
    "indvlPK": "1569004",
    "actvAGReg": 0,
    "link": "http://www.adviserinfo.sec.gov/IAPD/Individual/1569004"
  },
  "OthrNms": [
    {
      "lastNm": "DAVIS",
      "firstNm": "JOE",
      "midNm": null,
      "sufNm": null
    }
  ],
  "CrntEmps": [
    {
      "CrntRgstns": [
        {
          "regAuth": 28,
          "regCat": 0,
          "st": 2,
          "stDt": "2007-07-20T00:00:00"
        }
      ],
      "BrnchOfLocs": [
        {
          "str1": "4500 CAMERON VALLEY PKWY",
          "str2": null,
          "city": "CHARLOTTE",
          "state": 28,
          "stateSpecified": true,
          "cntry": "United States",
          "postlCd": "28211"
        }
      ],
      "orgNm": "MERRILL LYNCH, PIERCE, FENNER & SMITH INCORPORATED",
      "orgPK": "7691",
      "str1": "ONE BRYANT PARK",
      "str2": null,
      "city": "NEW YORK",
      "state": 35,
      "stateSpecified": true,
      "cntry": "United States",
      "postlCd": "10036"
    }
  ],
  "Exms": [
    {
      "exmCd": 3,
      "exmNm": "Uniform Combined State Law Examination",
      "exmDt": "1998-12-28T00:00:00",
      "exmDtSpecified": true
    }
  ],
  "Dsgntns": [],
  "PrevRgstns": [
    {
      "BrnchOfLocs": [
        {
          "city": "CHARLOTTE",
          "state": 28,
          "stateSpecified": true
        },
        {
          "city": "CHARLOTTE",
          "state": 28,
          "stateSpecified": true
        }
      ],
      "orgNm": "CITIGROUP GLOBAL MARKETS INC.",
      "orgPK": "7059",
      "regBeginDt": "2001-12-31T00:00:00",
      "regBeginDtSpecified": true,
      "regEndDt": "2007-08-02T00:00:00",
      "regEndDtSpecified": true
    }
  ],
  "EmpHss": [
    {
      "fromDt": "08/1998",
      "toDt": "07/2007",
      "orgNm": "SELECT CAPITAL CORPORATION",
      "city": "SACRAMENTO",
      "state": 4,
      "stateSpecified": true
    },
    {
      "fromDt": "07/2007",
      "toDt": null,
      "orgNm": "MERRILL LYNCH, PIERCE, FENNER & SMITH INCORPORATED",
      "city": "CHARLOTTE",
      "state": 28,
      "stateSpecified": true
    },
    {
      "fromDt": "11/2009",
      "toDt": null,
      "orgNm": "BANK OF AMERICA, N.A.",
      "city": "CHARLOTTE",
      "state": 28,
      "stateSpecified": true
    }
  ],
  "OthrBuss": {
    "OthrBus": {
      "desc": "I*77598 FOR PROFIT OR NOT FOR PROFIT: NON-PROFIT ORGANIZATION  NAME OF OUTSIDE BUSINESS ORGANIZATION: CAROMONT HEATH FOUNDATION  INVESTMENT RELATED: N  ADDRESS OF BUSINESS:   2525 COURT DR.,   GASTONIA, NORTH CAROLINA 28053  NATURE OF BUSINESS: CHARITABLE ORGANIZATION,  POSITION, TITLE, ASSOCIATION: ADVISORY BOARD MEMBER,   START DATE OF RELATIONSHIP: 1/1/2015  NUMBER OF HOURS DEVOTED: 3 HOUR(S) MONTHLY  NUMBER OF HOURS DEVOTED DURING TRADING HOURS: 0  DUTIES: VOLUNTARY SERVICE ON BOARD OF DIRECTORS FOR THE FOUNDATION, PROVIDING OVERSIGHT AND FUNDRAISING ACTIVITIES    I*91967  FOR PROFIT OR NOT FOR PROFIT: NON-PROFIT ORGANIZATION  NAME OF OUTSIDE BUSINESS ORGANIZATION: CAROMONT HEALTH  INVESTMENT RELATED: N  ADDRESS OF BUSINESS:   2525 COURT DRIVE,   GASTONIA, NORTH CAROLINA 28054  NATURE OF BUSINESS: CORPORATION,  POSITION, TITLE, ASSOCIATION: ADVISORY BOARD MEMBER,   START DATE OF RELATIONSHIP: 2/22/2016  NUMBER OF HOURS DEVOTED: 7 HOUR(S) MONTHLY  NUMBER OF HOURS DEVOTED DURING TRADING HOURS: 0  DUTIES: APPOINTED TO THE BOARD OF DIRECTORS OF CAROMONT HEALTH, A 501(C)(3) HEALTH CARE ORGANIZATION SERVING COMM"
    }
  },
  "DRPs": [
    {
      "hasRegAction": 1,
      "hasRegActionSpecified": true,
      "hasCriminal": 1,
      "hasCriminalSpecified": true,
      "hasBankrupt": 1,
      "hasBankruptSpecified": true,
      "hasCivilJudc": 1,
      "hasCivilJudcSpecified": true,
      "hasBond": 1,
      "hasBondSpecified": true,
      "hasJudgment": 1,
      "hasJudgmentSpecified": true,
      "hasInvstgn": 1,
      "hasInvstgnSpecified": true,
      "hasCustComp": 0,
      "hasCustCompSpecified": true,
      "hasTermination": 1,
      "hasTerminationSpecified": true
    }
  ]
}