{
  "Info": {
    "lastNm": "COPELIN",
    "firstNm": "EVERETT",
    "midNm": "WAYNE",
    "sufNm": "JR",
    "indvlPK": "1570889",
    "actvAGReg": 0,
    "link": "http://www.adviserinfo.sec.gov/IAPD/Individual/1570889"
  },
  "OthrNms": [
    {
      "lastNm": "COPELIN",
      "firstNm": "EVERETT",
      "midNm": "WAYNE",
      "sufNm": null
    },
    {
      "lastNm": "COPELIN",
      "firstNm": "EVERETT",
      "midNm": "WAYNE",
      "sufNm": "JR"
    }
  ],
  "CrntEmps": [
    {
      "CrntRgstns": [
        {
          "regAuth": 45,
          "regCat": 0,
          "st": 2,
          "stDt": "1997-09-02T00:00:00"
        }
      ],
      "BrnchOfLocs": [
        {
          "str1": null,
          "str2": null,
          "city": "SUGAR LAND",
          "state": 45,
          "stateSpecified": true,
          "cntry": "United States",
          "postlCd": null
        }
      ],
      "orgNm": "PROEQUITIES, INC.",
      "orgPK": "15708",
      "str1": "2801 HIGHWAY 280 SOUTH",
      "str2": null,
      "city": "BIRMINGHAM",
      "state": 1,
      "stateSpecified": true,
      "cntry": "United States",
      "postlCd": "35223"
    },
    {
      "CrntRgstns": [
        {
          "regAuth": 45,
          "regCat": 0,
          "st": 2,
          "stDt": "2012-06-25T00:00:00"
        }
      ],
      "BrnchOfLocs": [
        {
          "str1": "1 TRANSAM PLAZA DRIVE",
          "str2": "SUITE 230",
          "city": "OAKBROOK TERRACE",
          "state": 15,
          "stateSpecified": true,
          "cntry": "United States",
          "postlCd": "60181-4285"
        }
      ],
      "orgNm": "HARVEST INVESTMENT SERVICES, LLC",
      "orgPK": "159390",
      "str1": "1 TRANSAM PLAZA DRIVE",
      "str2": "SUITE 230",
      "city": "OAKBROOK TERRACE",
      "state": 15,
      "stateSpecified": true,
      "cntry": "United States",
      "postlCd": "60181-4285"
    }
  ],
  "Exms": [
    {
      "exmCd": 0,
      "exmNm": "Uniform Securities Agent State Law Examination",
      "exmDt": "1986-10-23T00:00:00",
      "exmDtSpecified": true
    }
  ],
  "Dsgntns": [
    {
      "dsgntnNm": "Certified Financial Planner"
    }
  ],
  "PrevRgstns": [],
  "EmpHss": [
    {
      "fromDt": "09/1997",
      "toDt": null,
      "orgNm": "PROEQUITIES, INC.",
      "city": "HOUSTON",
      "state": 45,
      "stateSpecified": true
    },
    {
      "fromDt": "06/2012",
      "toDt": null,
      "orgNm": "HARVEST INVESTMENT SERVICES, LLC",
      "city": "SUGAR LAND",
      "state": 45,
      "stateSpecified": true
    }
  ],
  "OthrBuss": {
    "OthrBus": {
      "desc": "1.DBA: COPELIN FINANCIAL ADVISORS, INC,INVESTMENT RELATED, 514 BROOKS ST, SUGAR LAND TX 77478, FINANCIAL/FIXED INSURANCE SALES,PRESIDENT/OWNER,STARTED 07/1998, 200 HRS/MO. 2. REAL ESTATE; NOT INVESTMENT RELATED, 2 PROPERTIES LOCATED IN SUGAR LAND TX, RESIDENTIAL RENTALS, LANDLORD, STARTED 02/01/2005 AND 08/01/2007, 0 HR/MO.,  3. CHRIST'S HOPE AND RECONCILIATION MINISTRY, INC (CHARM, INC), NOT INVESTMENT RELATED, 1901 NORCREST DR., HOUSTON, TX 77055, ADVISORY CAPACITY,  MEMBER BOARD OF DIRECTORS, STARTED 10/01/2010, 2 HRS.MO.    HARVEST INVESTMENT SERVICES  POSITION: RR NATURE: RIA INVESTMENT RELATED: YES NUMBER OF HOURS: 10 INVESTMENT RELATED HOURS: 5 START DATE: 06/01/2012  ADDRESS: 1 TRANS AM PLAZA, S30, OAK BROOKS TERRACE IL 60181  DESCRIPTION: RIA ACCOUNTS AT TD AMERITRADE UNDER HARVEST    RETIREMENT PLANNING TODAY  POSITION: INSTRUCTOR NATURE: EDUCATION INVESTMENT RELATED: NO NUMBER OF HOURS: 2 INVESTMENT RELATED HOURS: 0 START DATE: 01/15/1999  ADDRESS: VARIOUS, SUGAR LAND TX 77479  DESCRIPTION: TEACHES GENERAL INFORMATION ABOUT RETIREMENT PLANNING"
    }
  },
  "DRPs": [
    {
      "hasRegAction": 1,
      "hasRegActionSpecified": true,
      "hasCriminal": 1,
      "hasCriminalSpecified": true,
      "hasBankrupt": 1,
      "hasBankruptSpecified": true,
      "hasCivilJudc": 1,
      "hasCivilJudcSpecified": true,
      "hasBond": 1,
      "hasBondSpecified": true,
      "hasJudgment": 0,
      "hasJudgmentSpecified": true,
      "hasInvstgn": 1,
      "hasInvstgnSpecified": true,
      "hasCustComp": 0,
      "hasCustCompSpecified": true,
      "hasTermination": 1,
      "hasTerminationSpecified": true
    }
  ]
}