{
  "Info": {
    "lastNm": "HUNTER",
    "firstNm": "STEPHANIE",
    "midNm": "ELISE",
    "sufNm": null,
    "indvlPK": "1573298",
    "actvAGReg": 0,
    "link": "http://www.adviserinfo.sec.gov/IAPD/Individual/1573298"
  },
  "OthrNms": [],
  "CrntEmps": [
    {
      "CrntRgstns": [
        {
          "regAuth": 4,
          "regCat": 0,
          "st": 2,
          "stDt": "2013-10-29T00:00:00"
        },
        {
          "regAuth": 45,
          "regCat": 0,
          "st": 3,
          "stDt": "2013-11-06T00:00:00"
        }
      ],
      "BrnchOfLocs": [
        {
          "str1": "433 N CAMDEN DR 12TH FL",
          "str2": "[RSC]",
          "city": "BEVERLY HILLS",
          "state": 4,
          "stateSpecified": true,
          "cntry": "United States",
          "postlCd": "90210"
        }
      ],
      "orgNm": "WELLS FARGO ADVISORS, LLC",
      "orgPK": "19616",
      "str1": "ONE NORTH JEFFERSON AVENUE",
      "str2": "MAIL CODE: H0004-050",
      "city": "ST. LOUIS",
      "state": 25,
      "stateSpecified": true,
      "cntry": "United States",
      "postlCd": "63103-2205"
    }
  ],
  "Exms": [
    {
      "exmCd": 0,
      "exmNm": "Uniform Securities Agent State Law Examination",
      "exmDt": "1997-05-09T00:00:00",
      "exmDtSpecified": true
    },
    {
      "exmCd": 3,
      "exmNm": "Uniform Combined State Law Examination",
      "exmDt": "2006-11-08T00:00:00",
      "exmDtSpecified": true
    }
  ],
  "Dsgntns": [],
  "PrevRgstns": [
    {
      "BrnchOfLocs": [
        {
          "city": "LOS ANGELES",
          "state": 4,
          "stateSpecified": true
        },
        {
          "city": "LOS ANGELES",
          "state": 4,
          "stateSpecified": true
        }
      ],
      "orgNm": "CITIGROUP GLOBAL MARKETS INC.",
      "orgPK": "7059",
      "regBeginDt": "2006-11-18T00:00:00",
      "regBeginDtSpecified": true,
      "regEndDt": "2009-04-08T00:00:00",
      "regEndDtSpecified": true
    },
    {
      "BrnchOfLocs": [
        {
          "city": "BEVERLY HILLS",
          "state": 4,
          "stateSpecified": true
        }
      ],
      "orgNm": "RBC CAPITAL MARKETS, LLC",
      "orgPK": "31194",
      "regBeginDt": "2009-03-20T00:00:00",
      "regBeginDtSpecified": true,
      "regEndDt": "2013-10-24T00:00:00",
      "regEndDtSpecified": true
    }
  ],
  "EmpHss": [
    {
      "fromDt": "06/2005",
      "toDt": "03/2009",
      "orgNm": "CITIGROUP GLOBAL MARKETS INC.",
      "city": "LOS ANGELES",
      "state": 4,
      "stateSpecified": true
    },
    {
      "fromDt": "03/2009",
      "toDt": "10/2013",
      "orgNm": "RBC CAPITAL MARKETS CORPORATION",
      "city": "BEVERY HILLS",
      "state": 4,
      "stateSpecified": true
    },
    {
      "fromDt": "10/2013",
      "toDt": null,
      "orgNm": "WELLS FARGO ADVISORS, LLC",
      "city": "BEVERLY HILLS",
      "state": 4,
      "stateSpecified": true
    }
  ],
  "OthrBuss": {
    "OthrBus": null
  },
  "DRPs": []
}