{
  "Info": {
    "lastNm": "RENBARGER",
    "firstNm": "PHILLIP",
    "midNm": "ARNOLD",
    "sufNm": null,
    "indvlPK": "1573792",
    "actvAGReg": 0,
    "link": "http://www.adviserinfo.sec.gov/IAPD/Individual/1573792"
  },
  "OthrNms": [
    {
      "lastNm": "RENBARGER",
      "firstNm": "PHIL",
      "midNm": null,
      "sufNm": null
    },
    {
      "lastNm": "RENBARGER",
      "firstNm": "PHILLIP",
      "midNm": "A",
      "sufNm": null
    }
  ],
  "CrntEmps": [
    {
      "CrntRgstns": [
        {
          "regAuth": 16,
          "regCat": 0,
          "st": 2,
          "stDt": "2006-06-16T00:00:00"
        }
      ],
      "BrnchOfLocs": [
        {
          "str1": "316 W 4TH ST",
          "str2": null,
          "city": "MARION",
          "state": 16,
          "stateSpecified": true,
          "cntry": "United States",
          "postlCd": "46952"
        },
        {
          "str1": "9229 DELEGATES ROW, SUITE 190",
          "str2": null,
          "city": "INDIANAPOLIS",
          "state": 16,
          "stateSpecified": true,
          "cntry": "United States",
          "postlCd": "46240"
        }
      ],
      "orgNm": "ONEAMERICA SECURITIES, INC.",
      "orgPK": "4173",
      "str1": "433 NORTH CAPITOL AVE",
      "str2": null,
      "city": "INDIANAPOLIS",
      "state": 16,
      "stateSpecified": true,
      "cntry": "United States",
      "postlCd": "46204"
    }
  ],
  "Exms": [
    {
      "exmCd": 0,
      "exmNm": "Uniform Securities Agent State Law Examination",
      "exmDt": "1986-10-29T00:00:00",
      "exmDtSpecified": true
    },
    {
      "exmCd": 2,
      "exmNm": "Uniform Investment Adviser Law Examination",
      "exmDt": "2000-10-30T00:00:00",
      "exmDtSpecified": true
    }
  ],
  "Dsgntns": [],
  "PrevRgstns": [],
  "EmpHss": [
    {
      "fromDt": "08/1987",
      "toDt": null,
      "orgNm": "AMERICAN UNITED LIFE",
      "city": "MARION",
      "state": 16,
      "stateSpecified": true
    },
    {
      "fromDt": "01/1989",
      "toDt": null,
      "orgNm": "ONEAMERICA SECURITIES",
      "city": "MARION",
      "state": 16,
      "stateSpecified": true
    }
  ],
  "OthrBuss": {
    "OthrBus": {
      "desc": "Non-variable insurance sales (fixed life, fixed annuities, health, P&C)**President: Renbarger Insurance and Financial Services, Inc., Marion, IN - P&C agency**Owner: PIC 1, Llc - rental properties in Marion and Noblesville, Indiana**Landlord: Farm property held by Phillip Renbarger**Owner: Rental Property - The Villages, Florida**Owner/President: PC Kids, Inc. - family farm rental properties**Owner: Renbarger Financial Services, LLC - life and health insurance sales"
    }
  },
  "DRPs": []
}