{
  "Info": {
    "lastNm": "MILEY",
    "firstNm": "JEFFREY",
    "midNm": "FRANCIS",
    "sufNm": null,
    "indvlPK": "1581153",
    "actvAGReg": 0,
    "link": "http://www.adviserinfo.sec.gov/IAPD/Individual/1581153"
  },
  "OthrNms": [],
  "CrntEmps": [
    {
      "CrntRgstns": [
        {
          "regAuth": 26,
          "regCat": 0,
          "st": 2,
          "stDt": "2013-02-13T00:00:00"
        }
      ],
      "BrnchOfLocs": [
        {
          "str1": "4266 I-55 NORTH, #200",
          "str2": null,
          "city": "JACKSON",
          "state": 26,
          "stateSpecified": true,
          "cntry": "United States",
          "postlCd": "39211"
        }
      ],
      "orgNm": "RAYMOND JAMES & ASSOCIATES, INC.",
      "orgPK": "705",
      "str1": "880 CARILLON PARKWAY",
      "str2": null,
      "city": "ST PETERSBURG",
      "state": 9,
      "stateSpecified": true,
      "cntry": "United States",
      "postlCd": "33716"
    }
  ],
  "Exms": [
    {
      "exmCd": 0,
      "exmNm": "Uniform Securities Agent State Law Examination",
      "exmDt": "1986-11-05T00:00:00",
      "exmDtSpecified": true
    },
    {
      "exmCd": 2,
      "exmNm": "Uniform Investment Adviser Law Examination",
      "exmDt": "1998-02-18T00:00:00",
      "exmDtSpecified": true
    }
  ],
  "Dsgntns": [],
  "PrevRgstns": [
    {
      "BrnchOfLocs": [
        {
          "city": "JACKSON",
          "state": 26,
          "stateSpecified": true
        }
      ],
      "orgNm": "PRUDENTIAL EQUITY GROUP, LLC",
      "orgPK": "7471",
      "regBeginDt": "1996-05-09T00:00:00",
      "regBeginDtSpecified": true,
      "regEndDt": "2003-03-28T00:00:00",
      "regEndDtSpecified": true
    },
    {
      "BrnchOfLocs": [
        {
          "city": "JACKSON",
          "state": 26,
          "stateSpecified": true
        }
      ],
      "orgNm": "UNION PLANTERS INVESTMENT ADVISORS, INC.",
      "orgPK": "111807",
      "regBeginDt": "2003-04-15T00:00:00",
      "regBeginDtSpecified": true,
      "regEndDt": "2004-08-05T00:00:00",
      "regEndDtSpecified": true
    },
    {
      "BrnchOfLocs": [
        {
          "city": "JACKSON",
          "state": 26,
          "stateSpecified": true
        },
        {
          "city": "JACKSON",
          "state": 26,
          "stateSpecified": true
        }
      ],
      "orgNm": "MORGAN KEEGAN & COMPANY, LLC",
      "orgPK": "4161",
      "regBeginDt": "2004-07-28T00:00:00",
      "regBeginDtSpecified": true,
      "regEndDt": "2013-02-13T00:00:00",
      "regEndDtSpecified": true
    }
  ],
  "EmpHss": [
    {
      "fromDt": "07/2004",
      "toDt": "02/2013",
      "orgNm": "MORGAN KEEGAN & COMPANY, INC.",
      "city": "JACKSON",
      "state": 26,
      "stateSpecified": true
    },
    {
      "fromDt": "02/2013",
      "toDt": null,
      "orgNm": "RAYMOND JAMES & ASSOCIATES, INC.",
      "city": "JACKSON",
      "state": 26,
      "stateSpecified": true
    }
  ],
  "OthrBuss": {
    "OthrBus": null
  },
  "DRPs": []
}