{
  "Info": {
    "lastNm": "RECKELL REINERS",
    "firstNm": "ANDREA",
    "midNm": "LYN",
    "sufNm": null,
    "indvlPK": "1596471",
    "actvAGReg": 0,
    "link": "http://www.adviserinfo.sec.gov/IAPD/Individual/1596471"
  },
  "OthrNms": [
    {
      "lastNm": "KEINERS",
      "firstNm": "ANDREA",
      "midNm": "LYN",
      "sufNm": null
    },
    {
      "lastNm": "RECKELL",
      "firstNm": "ANDREA",
      "midNm": "LYN",
      "sufNm": null
    },
    {
      "lastNm": "RECKELL",
      "firstNm": "ANDREA",
      "midNm": "LYN",
      "sufNm": null
    },
    {
      "lastNm": "REINERS",
      "firstNm": "ANDREA",
      "midNm": null,
      "sufNm": null
    },
    {
      "lastNm": "REINERS",
      "firstNm": "ANDREA",
      "midNm": "LYN",
      "sufNm": null
    }
  ],
  "CrntEmps": [
    {
      "CrntRgstns": [
        {
          "regAuth": 4,
          "regCat": 0,
          "st": 2,
          "stDt": "2006-02-02T00:00:00"
        }
      ],
      "BrnchOfLocs": [
        {
          "str1": "8585 E. HARTFORD DR. STE 103",
          "str2": null,
          "city": "SCOTTSDALE",
          "state": 3,
          "stateSpecified": true,
          "cntry": "United States",
          "postlCd": "85255"
        }
      ],
      "orgNm": "LPL FINANCIAL LLC",
      "orgPK": "6413",
      "str1": "75 STATE STREET, 22ND FLOOR",
      "str2": null,
      "city": "BOSTON",
      "state": 20,
      "stateSpecified": true,
      "cntry": "United States",
      "postlCd": "02109"
    }
  ],
  "Exms": [
    {
      "exmCd": 0,
      "exmNm": "Uniform Securities Agent State Law Examination",
      "exmDt": "1986-11-15T00:00:00",
      "exmDtSpecified": true
    },
    {
      "exmCd": 2,
      "exmNm": "Uniform Investment Adviser Law Examination",
      "exmDt": "1999-04-07T00:00:00",
      "exmDtSpecified": true
    },
    {
      "exmCd": 3,
      "exmNm": "Uniform Combined State Law Examination",
      "exmDt": "2003-09-09T00:00:00",
      "exmDtSpecified": true
    }
  ],
  "Dsgntns": [],
  "PrevRgstns": [
    {
      "BrnchOfLocs": [
        {
          "city": "PHOENIX",
          "state": 3,
          "stateSpecified": true
        }
      ],
      "orgNm": "CUNA BROKERAGE SERVICES, INC.",
      "orgPK": "13941",
      "regBeginDt": "2003-09-11T00:00:00",
      "regBeginDtSpecified": true,
      "regEndDt": "2006-02-02T00:00:00",
      "regEndDtSpecified": true
    }
  ],
  "EmpHss": [
    {
      "fromDt": "01/2006",
      "toDt": null,
      "orgNm": "LPL FINANCIAL LLC",
      "city": "SCOTTSDALE",
      "state": 3,
      "stateSpecified": true
    }
  ],
  "OthrBuss": {
    "OthrBus": {
      "desc": "1. 12/08/2006 - ALR Financial - INV REL - AT REPORTED LOCATION - DBA for LPL Business (entity for LPL business)    2. 10/30/2007 - Vista Financial Group :(tagline: Live Your Dreams) - INV REL - AT REPORTED LOCATION - DBA for LPL Business (entity for LPL business)      3. 10/03/2014 - NO BUSINESS NAME - INV REL - 8585 e Hartford #103  Scottsdale az 85255 - Non-Variable Insurance - START 10/01/14 - 5 HOURS PER MONTH, 0 DURING TRADING     4. 10/14/2015 - NO BUSINESS NAME - INV REL - 8585 e Hartford #103  Scottsdale az 85255 - Other - Notary - START 04/05/2015 - 1 HOURS PER MONTH, 1 DURING TRADING - Notary"
    }
  },
  "DRPs": [
    {
      "hasRegAction": 1,
      "hasRegActionSpecified": true,
      "hasCriminal": 1,
      "hasCriminalSpecified": true,
      "hasBankrupt": 1,
      "hasBankruptSpecified": true,
      "hasCivilJudc": 1,
      "hasCivilJudcSpecified": true,
      "hasBond": 1,
      "hasBondSpecified": true,
      "hasJudgment": 1,
      "hasJudgmentSpecified": true,
      "hasInvstgn": 1,
      "hasInvstgnSpecified": true,
      "hasCustComp": 0,
      "hasCustCompSpecified": true,
      "hasTermination": 1,
      "hasTerminationSpecified": true
    }
  ]
}