{
  "Info": {
    "lastNm": "MALLAHAN",
    "firstNm": "JAMES",
    "midNm": "EDWARD",
    "sufNm": null,
    "indvlPK": "1603483",
    "actvAGReg": 0,
    "link": "http://www.adviserinfo.sec.gov/IAPD/Individual/1603483"
  },
  "OthrNms": [
    {
      "lastNm": "MALLAHAN",
      "firstNm": "JAMES",
      "midNm": null,
      "sufNm": null
    }
  ],
  "CrntEmps": [
    {
      "CrntRgstns": [
        {
          "regAuth": 49,
          "regCat": 0,
          "st": 2,
          "stDt": "2000-06-01T00:00:00"
        },
        {
          "regAuth": 37,
          "regCat": 0,
          "st": 2,
          "stDt": "2003-04-23T00:00:00"
        }
      ],
      "BrnchOfLocs": [
        {
          "str1": "925 4TH AVE",
          "str2": null,
          "city": "SEATTLE",
          "state": 49,
          "stateSpecified": true,
          "cntry": "United States",
          "postlCd": "98104"
        },
        {
          "str1": "925 4TH AVENUE",
          "str2": "20TH AND 21ST FLOORS",
          "city": "SEATTLE",
          "state": 49,
          "stateSpecified": true,
          "cntry": "United States",
          "postlCd": "98104"
        }
      ],
      "orgNm": "UBS FINANCIAL SERVICES INC.",
      "orgPK": "8174",
      "str1": "1200 HARBOR BOULEVARD",
      "str2": null,
      "city": "WEEHAWKEN",
      "state": 32,
      "stateSpecified": true,
      "cntry": "United States",
      "postlCd": "07086"
    }
  ],
  "Exms": [
    {
      "exmCd": 0,
      "exmNm": "Uniform Securities Agent State Law Examination",
      "exmDt": "1987-01-26T00:00:00",
      "exmDtSpecified": true
    }
  ],
  "Dsgntns": [],
  "PrevRgstns": [],
  "EmpHss": [
    {
      "fromDt": "06/2006",
      "toDt": null,
      "orgNm": "UBS FINANCIAL SERVICES INC.",
      "city": "SEATTLE",
      "state": 49,
      "stateSpecified": true
    }
  ],
  "OthrBuss": {
    "OthrBus": {
      "desc": "1) STEP UP MOBILE LLC / 600 NORTH 36TH ST, SUITE 406 SEATTLE, WA 98103 / COMPANY / TELECOMMUNICATIONS   / RESELLER OF CONSUMER WIRELESS TELEPHONY AND BROADBAND SERVICES.  EQUITY INVESTMENT / OTHER BUYER OF SHARES IN THE COMPANY / START DATE 07/31/2012. 2) REEL SONAR / PO BOX 1326 BOTHELL,WA 98041 / COMPANY/ ELECTRONIC & ELECTRICAL EQUIPMENT  / FISHING SENSOR THAT HAS LINK TO IPHONE / PARTNER /  START DATE 5/1/2013"
    }
  },
  "DRPs": [
    {
      "hasRegAction": 1,
      "hasRegActionSpecified": true,
      "hasCriminal": 1,
      "hasCriminalSpecified": true,
      "hasBankrupt": 1,
      "hasBankruptSpecified": true,
      "hasCivilJudc": 1,
      "hasCivilJudcSpecified": true,
      "hasBond": 1,
      "hasBondSpecified": true,
      "hasJudgment": 1,
      "hasJudgmentSpecified": true,
      "hasInvstgn": 1,
      "hasInvstgnSpecified": true,
      "hasCustComp": 0,
      "hasCustCompSpecified": true,
      "hasTermination": 0,
      "hasTerminationSpecified": true
    }
  ]
}