{
  "Info": {
    "lastNm": "HUNTINGTON",
    "firstNm": "PATRICIA",
    "midNm": "ANNE",
    "sufNm": null,
    "indvlPK": "1610689",
    "actvAGReg": 1,
    "link": "http://www.adviserinfo.sec.gov/IAPD/Individual/1610689"
  },
  "OthrNms": [
    {
      "lastNm": "HUNTINGTON",
      "firstNm": "PATRICIA",
      "midNm": null,
      "sufNm": null
    },
    {
      "lastNm": "HUNTINGTON",
      "firstNm": "PATSY",
      "midNm": null,
      "sufNm": null
    }
  ],
  "CrntEmps": [
    {
      "CrntRgstns": [
        {
          "regAuth": 4,
          "regCat": 0,
          "st": 2,
          "stDt": "2003-05-09T00:00:00"
        },
        {
          "regAuth": 49,
          "regCat": 0,
          "st": 2,
          "stDt": "2003-05-09T00:00:00"
        }
      ],
      "BrnchOfLocs": [
        {
          "str1": "925 FOURTH AVENUE",
          "str2": "SUITE 3700",
          "city": "SEATTLE",
          "state": 49,
          "stateSpecified": true,
          "cntry": "United States",
          "postlCd": "98104"
        }
      ],
      "orgNm": "HUNTINGTON STEELE LLC",
      "orgPK": "126615",
      "str1": "1700 7TH AVENUE, SUITE 2210",
      "str2": null,
      "city": "SEATTLE",
      "state": 49,
      "stateSpecified": true,
      "cntry": "United States",
      "postlCd": "98101"
    }
  ],
  "Exms": [
    {
      "exmCd": 0,
      "exmNm": "Uniform Securities Agent State Law Examination",
      "exmDt": "1987-03-03T00:00:00",
      "exmDtSpecified": true
    },
    {
      "exmCd": 2,
      "exmNm": "Uniform Investment Adviser Law Examination",
      "exmDt": "1996-03-12T00:00:00",
      "exmDtSpecified": true
    }
  ],
  "Dsgntns": [],
  "PrevRgstns": [
    {
      "BrnchOfLocs": [
        {
          "city": "BELLEVUE",
          "state": 49,
          "stateSpecified": true
        }
      ],
      "orgNm": "BANC OF AMERICA SECURITIES LLC",
      "orgPK": "26091",
      "regBeginDt": "1999-12-29T00:00:00",
      "regBeginDtSpecified": true,
      "regEndDt": "2003-05-06T00:00:00",
      "regEndDtSpecified": true
    }
  ],
  "EmpHss": [
    {
      "fromDt": "05/2003",
      "toDt": null,
      "orgNm": "HUNTINGTON STEELE LLC",
      "city": "SEATTLE",
      "state": 49,
      "stateSpecified": true
    }
  ],
  "OthrBuss": {
    "OthrBus": null
  },
  "DRPs": []
}