{
  "Info": {
    "lastNm": "GANDHI",
    "firstNm": "AMIT",
    "midNm": "RASIKLAL",
    "sufNm": null,
    "indvlPK": "1611030",
    "actvAGReg": 0,
    "link": "http://www.adviserinfo.sec.gov/IAPD/Individual/1611030"
  },
  "OthrNms": [
    {
      "lastNm": "GANDHI",
      "firstNm": "AMIT",
      "midNm": "R",
      "sufNm": null
    }
  ],
  "CrntEmps": [
    {
      "CrntRgstns": [
        {
          "regAuth": 4,
          "regCat": 0,
          "st": 2,
          "stDt": "1999-03-05T00:00:00"
        }
      ],
      "BrnchOfLocs": [
        {
          "str1": "18500 PIONEER BOULEVARD",
          "str2": "SUITE 202",
          "city": "ARTESIA",
          "state": 4,
          "stateSpecified": true,
          "cntry": "United States",
          "postlCd": "90701"
        },
        {
          "str1": "3333 MICHELSON DRIVE",
          "str2": "SUITE 820-ALHA",
          "city": "IRVINE",
          "state": 4,
          "stateSpecified": true,
          "cntry": "United States",
          "postlCd": "92612"
        }
      ],
      "orgNm": "PRUCO SECURITIES, LLC.",
      "orgPK": "5685",
      "str1": "751 BROAD STREET",
      "str2": null,
      "city": "NEWARK",
      "state": 32,
      "stateSpecified": true,
      "cntry": "United States",
      "postlCd": "07102-3777"
    }
  ],
  "Exms": [
    {
      "exmCd": 0,
      "exmNm": "Uniform Securities Agent State Law Examination",
      "exmDt": "1996-10-03T00:00:00",
      "exmDtSpecified": true
    },
    {
      "exmCd": 2,
      "exmNm": "Uniform Investment Adviser Law Examination",
      "exmDt": "1998-12-09T00:00:00",
      "exmDtSpecified": true
    }
  ],
  "Dsgntns": [],
  "PrevRgstns": [],
  "EmpHss": [
    {
      "fromDt": "07/1986",
      "toDt": null,
      "orgNm": "PRUCO SECURITIES, LLC",
      "city": "ARTESIA",
      "state": 4,
      "stateSpecified": true
    },
    {
      "fromDt": "07/1986",
      "toDt": null,
      "orgNm": "THE PRUDENTIAL INSURANCE COMPANY OF AMERICA",
      "city": "ARTESIA",
      "state": 4,
      "stateSpecified": true
    }
  ],
  "OthrBuss": {
    "OthrBus": {
      "desc": "Amit R. Gandhi Ins & Fin'l Services~18500 Pioneer Blvd, Suite 202, Artesia, CA 90701~DBA~N~Owner~5/6/2002~15 hrs/mo~10 trading hrs/mo|Rental property~30541 Sierra Vista Dr, Menifee, CA 92584~Rental property~Y~Amit Gandhi & Rajula Gandhi HWJT~10/2011~0 hrs/mo~0 trading hrs/mo|Aetna Life Ins Co|American General Life Ins Co|AXA-Equitable|Banner Life|Berkshire Life Ins Co Of Amer|Blue Cross Life & Health Ins Co|Blue Shield of California Life & Health Ins Co|First Colony Life Ins Co|General American Life Ins Co|Genworth Life Ins Co|Guardian Life Ins Co of America (The)|Health Net Life Ins Co|Kaiser Permanente Ins Co|New York Life Ins Co|North American Co for Life & Health Ins|Park Ave Life Ins Co|Reliastar Life Ins Co|SCAN Medicare Health Ins|Standard Life Ins Co Of New York|Transamerica Occidental Life Ins Co"
    }
  },
  "DRPs": [
    {
      "hasRegAction": 0,
      "hasRegActionSpecified": true,
      "hasCriminal": 1,
      "hasCriminalSpecified": true,
      "hasBankrupt": 1,
      "hasBankruptSpecified": true,
      "hasCivilJudc": 1,
      "hasCivilJudcSpecified": true,
      "hasBond": 1,
      "hasBondSpecified": true,
      "hasJudgment": 1,
      "hasJudgmentSpecified": true,
      "hasInvstgn": 1,
      "hasInvstgnSpecified": true,
      "hasCustComp": 1,
      "hasCustCompSpecified": true,
      "hasTermination": 1,
      "hasTerminationSpecified": true
    }
  ]
}