{
  "Info": {
    "lastNm": "ZOLLER",
    "firstNm": "KAREN",
    "midNm": "ANN",
    "sufNm": null,
    "indvlPK": "1616930",
    "actvAGReg": 0,
    "link": "http://www.adviserinfo.sec.gov/IAPD/Individual/1616930"
  },
  "OthrNms": [],
  "CrntEmps": [
    {
      "CrntRgstns": [
        {
          "regAuth": 36,
          "regCat": 0,
          "st": 2,
          "stDt": "2010-08-10T00:00:00"
        }
      ],
      "BrnchOfLocs": [
        {
          "str1": "2570 EAST MAIN ST",
          "str2": null,
          "city": "COLUMBUS",
          "state": 36,
          "stateSpecified": true,
          "cntry": "United States",
          "postlCd": "43209"
        },
        {
          "str1": "3011 E. BROAD ST.",
          "str2": null,
          "city": "COLUMBUS",
          "state": 36,
          "stateSpecified": true,
          "cntry": "United States",
          "postlCd": "43209"
        },
        {
          "str1": "3460 S. HIGH STREET",
          "str2": null,
          "city": "COLUMBUS",
          "state": 36,
          "stateSpecified": true,
          "cntry": "United States",
          "postlCd": "43207"
        },
        {
          "str1": "6935 E MAIN ST",
          "str2": null,
          "city": "REYNOLDSBURG",
          "state": 36,
          "stateSpecified": true,
          "cntry": "United States",
          "postlCd": "43068"
        },
        {
          "str1": "850 SOUTH HAMILTON ROAD",
          "str2": null,
          "city": "COLUMBUS",
          "state": 36,
          "stateSpecified": true,
          "cntry": "United States",
          "postlCd": "43213"
        }
      ],
      "orgNm": "FIFTH THIRD SECURITIES, INC.",
      "orgPK": "628",
      "str1": "34 FOUNTAIN SQUARE PLAZA",
      "str2": "MD 10AT42",
      "city": "CINCINNATI",
      "state": 36,
      "stateSpecified": true,
      "cntry": "United States",
      "postlCd": "45263"
    }
  ],
  "Exms": [
    {
      "exmCd": 0,
      "exmNm": "Uniform Securities Agent State Law Examination",
      "exmDt": "2008-04-11T00:00:00",
      "exmDtSpecified": true
    },
    {
      "exmCd": 3,
      "exmNm": "Uniform Combined State Law Examination",
      "exmDt": "2010-08-09T00:00:00",
      "exmDtSpecified": true
    }
  ],
  "Dsgntns": [],
  "PrevRgstns": [],
  "EmpHss": [
    {
      "fromDt": "04/2002",
      "toDt": null,
      "orgNm": "FIFTH THIRD BANK",
      "city": "COLUMBUS",
      "state": 36,
      "stateSpecified": true
    },
    {
      "fromDt": "11/2002",
      "toDt": null,
      "orgNm": "FIFTH THIRD SECURITIES",
      "city": "COLUMBUS",
      "state": 36,
      "stateSpecified": true
    }
  ],
  "OthrBuss": {
    "OthrBus": null
  },
  "DRPs": []
}