{
  "Info": {
    "lastNm": "FEARON",
    "firstNm": "ROBERT",
    "midNm": "SCOTT",
    "sufNm": null,
    "indvlPK": "1642426",
    "actvAGReg": 1,
    "link": "http://www.adviserinfo.sec.gov/IAPD/Individual/1642426"
  },
  "OthrNms": [],
  "CrntEmps": [
    {
      "CrntRgstns": [
        {
          "regAuth": 4,
          "regCat": 0,
          "st": 2,
          "stDt": "1990-07-25T00:00:00"
        },
        {
          "regAuth": 45,
          "regCat": 0,
          "st": 2,
          "stDt": "2015-05-27T00:00:00"
        }
      ],
      "BrnchOfLocs": [
        {
          "str1": "100 DRAKE'S LANDING ROAD",
          "str2": "SUITE 125",
          "city": "GREENBRAE",
          "state": 4,
          "stateSpecified": true,
          "cntry": "United States",
          "postlCd": "94904"
        },
        {
          "str1": "1901 NORTH AKARD STREET",
          "str2": null,
          "city": "DALLAS",
          "state": 45,
          "stateSpecified": true,
          "cntry": "United States",
          "postlCd": "75201"
        }
      ],
      "orgNm": "CROWN ADVISORS MANAGEMENT, INC.",
      "orgPK": "109720",
      "str1": "1901 NORTH AKARD STREET",
      "str2": null,
      "city": "DALLAS",
      "state": 45,
      "stateSpecified": true,
      "cntry": "United States",
      "postlCd": "75201"
    }
  ],
  "Exms": [
    {
      "exmCd": 0,
      "exmNm": "Uniform Securities Agent State Law Examination",
      "exmDt": "1987-03-17T00:00:00",
      "exmDtSpecified": true
    }
  ],
  "Dsgntns": [
    {
      "dsgntnNm": "Chartered Financial Analyst"
    }
  ],
  "PrevRgstns": [],
  "EmpHss": [
    {
      "fromDt": "10/1990",
      "toDt": null,
      "orgNm": "CROWN ADVISORS MANAGEMENT, INC.",
      "city": "DALLAS",
      "state": 45,
      "stateSpecified": true
    }
  ],
  "OthrBuss": {
    "OthrBus": null
  },
  "DRPs": []
}