{
  "Info": {
    "lastNm": "WINN",
    "firstNm": "MICHAEL",
    "midNm": "PAUL",
    "sufNm": null,
    "indvlPK": "1650618",
    "actvAGReg": 0,
    "link": "http://www.adviserinfo.sec.gov/IAPD/Individual/1650618"
  },
  "OthrNms": [],
  "CrntEmps": [
    {
      "CrntRgstns": [
        {
          "regAuth": 45,
          "regCat": 0,
          "st": 3,
          "stDt": "2011-01-14T00:00:00"
        }
      ],
      "BrnchOfLocs": [
        {
          "str1": "1200 HARBOR BOULEVARD",
          "str2": null,
          "city": "WEEHAWKEN",
          "state": 32,
          "stateSpecified": true,
          "cntry": "UNITED STATES",
          "postlCd": "07086"
        },
        {
          "str1": "8 ESSEX CENTER DRIVE",
          "str2": null,
          "city": "PEABODY",
          "state": 20,
          "stateSpecified": true,
          "cntry": "United States",
          "postlCd": "01960"
        }
      ],
      "orgNm": "UBS FINANCIAL SERVICES INC.",
      "orgPK": "8174",
      "str1": "1200 HARBOR BOULEVARD",
      "str2": null,
      "city": "WEEHAWKEN",
      "state": 32,
      "stateSpecified": true,
      "cntry": "United States",
      "postlCd": "07086"
    }
  ],
  "Exms": [
    {
      "exmCd": 0,
      "exmNm": "Uniform Securities Agent State Law Examination",
      "exmDt": "1987-05-06T00:00:00",
      "exmDtSpecified": true
    },
    {
      "exmCd": 2,
      "exmNm": "Uniform Investment Adviser Law Examination",
      "exmDt": "1992-10-01T00:00:00",
      "exmDtSpecified": true
    }
  ],
  "Dsgntns": [],
  "PrevRgstns": [],
  "EmpHss": [
    {
      "fromDt": "07/1993",
      "toDt": "06/2009",
      "orgNm": "CITIGROUP GLOBAL MARKETS INC.",
      "city": "DANVERS",
      "state": 20,
      "stateSpecified": true
    },
    {
      "fromDt": "06/2009",
      "toDt": "09/2010",
      "orgNm": "MORGAN STANLEY SMITH BARNEY",
      "city": "DANVERS",
      "state": 20,
      "stateSpecified": true
    },
    {
      "fromDt": "09/2010",
      "toDt": null,
      "orgNm": "UBS FINANCIAL SERVICES INC",
      "city": "PEABODY",
      "state": 20,
      "stateSpecified": true
    }
  ],
  "OthrBuss": {
    "OthrBus": null
  },
  "DRPs": [
    {
      "hasRegAction": 1,
      "hasRegActionSpecified": true,
      "hasCriminal": 1,
      "hasCriminalSpecified": true,
      "hasBankrupt": 1,
      "hasBankruptSpecified": true,
      "hasCivilJudc": 1,
      "hasCivilJudcSpecified": true,
      "hasBond": 1,
      "hasBondSpecified": true,
      "hasJudgment": 1,
      "hasJudgmentSpecified": true,
      "hasInvstgn": 1,
      "hasInvstgnSpecified": true,
      "hasCustComp": 1,
      "hasCustCompSpecified": true,
      "hasTermination": 0,
      "hasTerminationSpecified": true
    }
  ]
}