{
  "Info": {
    "lastNm": "MORGAN",
    "firstNm": "KURT",
    "midNm": "EVAN",
    "sufNm": null,
    "indvlPK": "1652357",
    "actvAGReg": 0,
    "link": "http://www.adviserinfo.sec.gov/IAPD/Individual/1652357"
  },
  "OthrNms": [],
  "CrntEmps": [
    {
      "CrntRgstns": [
        {
          "regAuth": 38,
          "regCat": 0,
          "st": 2,
          "stDt": "2010-11-24T00:00:00"
        },
        {
          "regAuth": 3,
          "regCat": 0,
          "st": 2,
          "stDt": "2011-07-01T00:00:00"
        }
      ],
      "BrnchOfLocs": [
        {
          "str1": "14631 SW MILLIKAN WAY",
          "str2": "SUITE 3",
          "city": "BEAVERTON",
          "state": 38,
          "stateSpecified": true,
          "cntry": "United States",
          "postlCd": "97003-2999"
        }
      ],
      "orgNm": "THE MORGAN GROUP INC.",
      "orgPK": "155180",
      "str1": "14631 SW MILLIKAN WAY",
      "str2": "SUITE 3",
      "city": "BEAVERTON",
      "state": 38,
      "stateSpecified": true,
      "cntry": "United States",
      "postlCd": "97003-2999"
    }
  ],
  "Exms": [
    {
      "exmCd": 0,
      "exmNm": "Uniform Securities Agent State Law Examination",
      "exmDt": "1987-05-13T00:00:00",
      "exmDtSpecified": true
    },
    {
      "exmCd": 2,
      "exmNm": "Uniform Investment Adviser Law Examination",
      "exmDt": "2001-02-16T00:00:00",
      "exmDtSpecified": true
    }
  ],
  "Dsgntns": [],
  "PrevRgstns": [],
  "EmpHss": [
    {
      "fromDt": "03/2001",
      "toDt": null,
      "orgNm": "TRIAD ADVISORS, INC.",
      "city": "NORCROSS",
      "state": 10,
      "stateSpecified": true
    },
    {
      "fromDt": "01/2002",
      "toDt": "12/2006",
      "orgNm": "ADVISORY ASSOCIATES",
      "city": "SALEM",
      "state": 38,
      "stateSpecified": true
    },
    {
      "fromDt": "12/2002",
      "toDt": null,
      "orgNm": "THE MORGAN GROUP",
      "city": "PORTLAND",
      "state": 38,
      "stateSpecified": true
    },
    {
      "fromDt": "06/2007",
      "toDt": null,
      "orgNm": "DESERT RIVER CAPITAL LLC",
      "city": "Arvada",
      "state": 5,
      "stateSpecified": true
    },
    {
      "fromDt": "10/2010",
      "toDt": null,
      "orgNm": "DOMINATION FITNESS LLC",
      "city": "BEAVERTON",
      "state": 38,
      "stateSpecified": true
    },
    {
      "fromDt": "12/2011",
      "toDt": "11/2014",
      "orgNm": "MORGAN ADVISORS, INC.",
      "city": "CAREFREE",
      "state": 3,
      "stateSpecified": true
    },
    {
      "fromDt": "02/2012",
      "toDt": null,
      "orgNm": "VISALUS SCIENCES",
      "city": "TROY",
      "state": 23,
      "stateSpecified": true
    }
  ],
  "OthrBuss": {
    "OthrBus": {
      "desc": "1. THE MORGAN GROUP, INC.; INVESTMENT RELATED; 14631 SW Millikan Way #3, Beaverton, OR 97003; INSURANCE GENERAL AGENT; GENERAL AGENT; 12/2002/ 5HOURS/MO.;.25/TRADE DAY; COMMISSIONS; VARIABLE INSURANCE CARIERS.   2. THE MORGAN GROUP, INC.; INVESTMENT RELATED; 14631 SW Millikan Way #3, Beaverton, OR 97003; REGISTERED INVESTMENT ADVISORY FIRM; PRESIDENT/REGISTERED INVESTMENT ADVISOR; 12/2002; 160/MO; 4 HOURS/ TRAD DAY.; SALARY/AUM FEES; FINANCIAL & INVESTMENT PLANNING, ACCOUNT REVIEWS & ANALYSIS, PORTFOLIO ALLOCATIONS, IMPLEMENTATION STRATEGIES    3. DOMINATION FITNESS LLC; NOT INVESTMENT RELATED; 7921 SW Cirrus Dr. #27C, BEAVERTON, OR 97009' PRIVATE FITNESS GYM/STUDIO; CO-MEMBER; 10/2010; 0HRS/MO.; 0 HRS/TRADE DAY    4.DESERT RIVER CAPITAL LLC; INVESTMENT RELATED; 7085 GLADIOLA ST. ARVADA CO 80004; PRIVATE RESIDENTIAL REAL ESTATE RENTAL PROPERTIES; CO-MEMBER; 06/2007; 0HRS/MO; N/A HRS PER TRADE DAY; NO COMPENSATION;    5.VISALUS SCIENCES; NON-INVESTMENT RELATED; 1607 E. BIG BEAVER RD. SUITE 110, TROY, MI 48083; HEALTH & FITNESS PRODUCTS; PROMOTER; 02-2012; 0HRS/MO; N/A HOURS PER TRADE DAY"
    }
  },
  "DRPs": []
}