{
  "Info": {
    "lastNm": "MURPHY",
    "firstNm": "ROBERT",
    "midNm": "ANTHONY",
    "sufNm": null,
    "indvlPK": "1661046",
    "actvAGReg": 0,
    "link": "http://www.adviserinfo.sec.gov/IAPD/Individual/1661046"
  },
  "OthrNms": [
    {
      "lastNm": "MURPHY",
      "firstNm": "R.",
      "midNm": "ANTHONY",
      "sufNm": null
    },
    {
      "lastNm": "MURPHY",
      "firstNm": "R.",
      "midNm": "TONY",
      "sufNm": null
    },
    {
      "lastNm": "MURPHY",
      "firstNm": "TONY",
      "midNm": null,
      "sufNm": null
    }
  ],
  "CrntEmps": [
    {
      "CrntRgstns": [
        {
          "regAuth": 44,
          "regCat": 0,
          "st": 2,
          "stDt": "2013-03-22T00:00:00"
        }
      ],
      "BrnchOfLocs": [
        {
          "str1": "7926 WOLF RIVER BOULEVARD",
          "str2": null,
          "city": "GERMANTOWN",
          "state": 44,
          "stateSpecified": true,
          "cntry": "United States",
          "postlCd": "38138-1725"
        }
      ],
      "orgNm": "CHARLES SCHWAB & CO., INC.",
      "orgPK": "5393",
      "str1": "211 MAIN STREET",
      "str2": null,
      "city": "SAN FRANCISCO",
      "state": 4,
      "stateSpecified": true,
      "cntry": "United States",
      "postlCd": "94105"
    }
  ],
  "Exms": [
    {
      "exmCd": 0,
      "exmNm": "Uniform Securities Agent State Law Examination",
      "exmDt": "2000-12-22T00:00:00",
      "exmDtSpecified": true
    },
    {
      "exmCd": 3,
      "exmNm": "Uniform Combined State Law Examination",
      "exmDt": "2007-06-28T00:00:00",
      "exmDtSpecified": true
    }
  ],
  "Dsgntns": [],
  "PrevRgstns": [
    {
      "BrnchOfLocs": [
        {
          "city": "PHILADELPHIA",
          "state": 39,
          "stateSpecified": true
        }
      ],
      "orgNm": "TD AMERITRADE, INC.",
      "orgPK": "7870",
      "regBeginDt": "2007-06-29T00:00:00",
      "regBeginDtSpecified": true,
      "regEndDt": "2008-08-05T00:00:00",
      "regEndDtSpecified": true
    },
    {
      "BrnchOfLocs": [
        {
          "city": "PHILDELPHIA",
          "state": 39,
          "stateSpecified": true
        }
      ],
      "orgNm": "AMERIVEST INVESTMENT MANAGEMENT, LLC",
      "orgPK": "111514",
      "regBeginDt": "2007-06-29T00:00:00",
      "regBeginDtSpecified": true,
      "regEndDt": "2008-08-05T00:00:00",
      "regEndDtSpecified": true
    },
    {
      "BrnchOfLocs": [
        {
          "city": "BALTIMORE",
          "state": 21,
          "stateSpecified": true
        },
        {
          "city": "WEST CHESTER",
          "state": 39,
          "stateSpecified": true
        }
      ],
      "orgNm": "MSI FINANCIAL SERVICES, INC.",
      "orgPK": "14251",
      "regBeginDt": "2008-10-29T00:00:00",
      "regBeginDtSpecified": true,
      "regEndDt": "2011-08-18T00:00:00",
      "regEndDtSpecified": true
    },
    {
      "BrnchOfLocs": [
        {
          "city": "Franklin",
          "state": 44,
          "stateSpecified": true
        }
      ],
      "orgNm": "MSI FINANCIAL SERVICES, INC.",
      "orgPK": "14251",
      "regBeginDt": "2012-08-14T00:00:00",
      "regBeginDtSpecified": true,
      "regEndDt": "2012-11-29T00:00:00",
      "regEndDtSpecified": true
    },
    {
      "BrnchOfLocs": [
        {
          "city": "MEMPHIS",
          "state": 44,
          "stateSpecified": true
        }
      ],
      "orgNm": "LPL FINANCIAL LLC",
      "orgPK": "6413",
      "regBeginDt": "2012-12-12T00:00:00",
      "regBeginDtSpecified": true,
      "regEndDt": "2013-03-19T00:00:00",
      "regEndDtSpecified": true
    }
  ],
  "EmpHss": [
    {
      "fromDt": "11/2005",
      "toDt": "03/2007",
      "orgNm": "WACHOVIA BANK",
      "city": "NEWTOWN SQUARE",
      "state": 39,
      "stateSpecified": true
    },
    {
      "fromDt": "03/2007",
      "toDt": "08/2008",
      "orgNm": "TD AMERITRADE",
      "city": "PHILADELPHIA",
      "state": 39,
      "stateSpecified": true
    },
    {
      "fromDt": "08/2008",
      "toDt": "09/2008",
      "orgNm": "UNEMPLOYED",
      "city": "PHILADELPHIA",
      "state": 39,
      "stateSpecified": true
    },
    {
      "fromDt": "10/2008",
      "toDt": "08/2011",
      "orgNm": "METLIFE RESOURCES",
      "city": "PLYMOUTH MEETING",
      "state": 39,
      "stateSpecified": true
    },
    {
      "fromDt": "09/2011",
      "toDt": "12/2011",
      "orgNm": "UNEMPLOYED",
      "city": "MEMPHIS",
      "state": 44,
      "stateSpecified": true
    },
    {
      "fromDt": "12/2011",
      "toDt": "12/2012",
      "orgNm": "METLIFE SECURITIES, INC.",
      "city": "CORDOVA",
      "state": 44,
      "stateSpecified": true
    },
    {
      "fromDt": "12/2012",
      "toDt": "02/2013",
      "orgNm": "LPL FINANCIAL",
      "city": "MEMPHIS",
      "state": 44,
      "stateSpecified": true
    },
    {
      "fromDt": "02/2013",
      "toDt": null,
      "orgNm": "CHARLES SCHWAB & CO., INC",
      "city": "GERMANTOWN",
      "state": 44,
      "stateSpecified": true
    },
    {
      "fromDt": "02/2013",
      "toDt": null,
      "orgNm": "CHARLES SCHWAB BANK",
      "city": "GERMANTOWN",
      "state": 44,
      "stateSpecified": true
    }
  ],
  "OthrBuss": {
    "OthrBus": {
      "desc": "CHARLES SCHWAB BANK-INVESTMENT RELATED, BANK PRODUCTS, DUAL EMPLOYEE, 02/25/2013, GERMANTOWN, TN REFERRALS OF HELOC, MORTGAGES  AND  INVESTOR CHECKING PRODUCTS  FOR APPROXIMATELY 20 HOURS PER MONTH."
    }
  },
  "DRPs": []
}