{
  "Info": {
    "lastNm": "MENKE",
    "firstNm": "CAROLYN",
    "midNm": "K",
    "sufNm": null,
    "indvlPK": "1673684",
    "actvAGReg": 0,
    "link": "http://www.adviserinfo.sec.gov/IAPD/Individual/1673684"
  },
  "OthrNms": [],
  "CrntEmps": [
    {
      "CrntRgstns": [
        {
          "regAuth": 30,
          "regCat": 0,
          "st": 2,
          "stDt": "1997-12-31T00:00:00"
        }
      ],
      "BrnchOfLocs": [
        {
          "str1": "4009 6th Ave",
          "str2": "Ste 28",
          "city": "Kearney",
          "state": 30,
          "stateSpecified": true,
          "cntry": "United States",
          "postlCd": "68845"
        }
      ],
      "orgNm": "AMERIPRISE FINANCIAL SERVICES, INC.",
      "orgPK": "6363",
      "str1": "707 2ND AVENUE SOUTH",
      "str2": null,
      "city": "MINNEAPOLIS",
      "state": 24,
      "stateSpecified": true,
      "cntry": "United States",
      "postlCd": "55402"
    }
  ],
  "Exms": [
    {
      "exmCd": 0,
      "exmNm": "Uniform Securities Agent State Law Examination",
      "exmDt": "1988-05-07T00:00:00",
      "exmDtSpecified": true
    }
  ],
  "Dsgntns": [],
  "PrevRgstns": [],
  "EmpHss": [
    {
      "fromDt": "02/1977",
      "toDt": null,
      "orgNm": "KEARNEY STATE BANK AND TRUST COMPANY",
      "city": "KEARNEY",
      "state": 30,
      "stateSpecified": true
    },
    {
      "fromDt": "05/1987",
      "toDt": null,
      "orgNm": "AMERICAN EXPRESS FINANCIAL ADVISORS INC.",
      "city": "LINCOLN",
      "state": 30,
      "stateSpecified": true
    },
    {
      "fromDt": "05/1987",
      "toDt": null,
      "orgNm": "IDS LIFE INSURANCE COMPANY",
      "city": "MINNEAPOLIS",
      "state": 24,
      "stateSpecified": true
    }
  ],
  "OthrBuss": {
    "OthrBus": {
      "desc": "1.REAL ESTATE OWNERSHIP,LOT/LAND,LAWRENCE NE,INC:$1,000 TO $1,999/LOT/LAND,ALBION NE,INC:$5,000+. 2.BOARD OF DIRECTORS,CAMPUS HOUSE FOR GIRLS,GROUP HOME FOR GIRLS, WORK WITH GIRLS AGES 8-14   IN PRE-DELINGUENT STATUS,COMP:$0,HRS:1-9/GOOD SAMARITAN HOSP FOUNDATION,CHARITABLE FOUNDATION TO SERVE GOOD SAMARITAN HOSPITAL,COMP:$0,HRS:1-9/UNIVERSITY OF NEBRASKA- BOARD OF TRUSTEES,ANNUAL MEETING ONCE A YEAR. SERVES AS A GOVERNING BOARD.,COMP:$0,HRS:1-9/MERRYMAN PERFORMING ARTS CENTER,WORK WITH DIRECTOR IN IMPLEMENTING THE SEASON   PERFORMANCES AND MARKETING THE PROGRAM,COMP $0, HRS 10-19"
    }
  },
  "DRPs": []
}