{
  "Info": {
    "lastNm": "BECKER",
    "firstNm": "KEITH",
    "midNm": "LEE",
    "sufNm": null,
    "indvlPK": "1676269",
    "actvAGReg": 0,
    "link": "http://www.adviserinfo.sec.gov/IAPD/Individual/1676269"
  },
  "OthrNms": [],
  "CrntEmps": [
    {
      "CrntRgstns": [
        {
          "regAuth": 32,
          "regCat": 0,
          "st": 2,
          "stDt": "2012-09-20T00:00:00"
        },
        {
          "regAuth": 39,
          "regCat": 0,
          "st": 2,
          "stDt": "2014-02-19T00:00:00"
        }
      ],
      "BrnchOfLocs": [
        {
          "str1": "302 CARNEGIE CTR",
          "str2": "1ST & 2ND FLS",
          "city": "PRINCETON",
          "state": 32,
          "stateSpecified": true,
          "cntry": "United States",
          "postlCd": "08540"
        },
        {
          "str1": "600 W CUTHBERT BLVD",
          "str2": "[J6-RBO]",
          "city": "HADDON TOWNSHIP",
          "state": 32,
          "stateSpecified": true,
          "cntry": "United States",
          "postlCd": "08108"
        }
      ],
      "orgNm": "WELLS FARGO ADVISORS, LLC",
      "orgPK": "19616",
      "str1": "ONE NORTH JEFFERSON AVENUE",
      "str2": "MAIL CODE: H0004-050",
      "city": "ST. LOUIS",
      "state": 25,
      "stateSpecified": true,
      "cntry": "United States",
      "postlCd": "63103-2205"
    }
  ],
  "Exms": [
    {
      "exmCd": 0,
      "exmNm": "Uniform Securities Agent State Law Examination",
      "exmDt": "1987-06-18T00:00:00",
      "exmDtSpecified": true
    },
    {
      "exmCd": 3,
      "exmNm": "Uniform Combined State Law Examination",
      "exmDt": "2012-09-19T00:00:00",
      "exmDtSpecified": true
    }
  ],
  "Dsgntns": [],
  "PrevRgstns": [
    {
      "BrnchOfLocs": [
        {
          "city": "PRINCETON",
          "state": 32,
          "stateSpecified": true
        }
      ],
      "orgNm": "A. G. EDWARDS & SONS, INC.",
      "orgPK": "4",
      "regBeginDt": "2003-10-14T00:00:00",
      "regBeginDtSpecified": true,
      "regEndDt": "2003-12-19T00:00:00",
      "regEndDtSpecified": true
    }
  ],
  "EmpHss": [
    {
      "fromDt": "12/2003",
      "toDt": "04/2009",
      "orgNm": "CITIGROUP GLOBAL MARKETS INC.",
      "city": "PHILADELPHIA",
      "state": 39,
      "stateSpecified": true
    },
    {
      "fromDt": "04/2009",
      "toDt": "05/2009",
      "orgNm": "WACHOVIA SECURITIES LLC",
      "city": "PHILADELPHIA",
      "state": 39,
      "stateSpecified": true
    },
    {
      "fromDt": "05/2009",
      "toDt": null,
      "orgNm": "WELLS FARGO ADVISORS LLC",
      "city": "WAYNE",
      "state": 39,
      "stateSpecified": true
    }
  ],
  "OthrBuss": {
    "OthrBus": null
  },
  "DRPs": []
}