{
  "Info": {
    "lastNm": "HOLBERT",
    "firstNm": "DAVID",
    "midNm": "HARLAN",
    "sufNm": null,
    "indvlPK": "1689464",
    "actvAGReg": 0,
    "link": "http://www.adviserinfo.sec.gov/IAPD/Individual/1689464"
  },
  "OthrNms": [
    {
      "lastNm": "HOLBERT",
      "firstNm": "DAVID",
      "midNm": null,
      "sufNm": null
    },
    {
      "lastNm": "HOLBERT",
      "firstNm": "DAVID",
      "midNm": "HARLAN",
      "sufNm": null
    }
  ],
  "CrntEmps": [
    {
      "CrntRgstns": [
        {
          "regAuth": 1,
          "regCat": 0,
          "st": 2,
          "stDt": "2016-03-24T00:00:00"
        }
      ],
      "BrnchOfLocs": [
        {
          "str1": "2501 20TH PL S STE 350",
          "str2": null,
          "city": "BIRMINGHAM",
          "state": 1,
          "stateSpecified": true,
          "cntry": "United States",
          "postlCd": "35223"
        }
      ],
      "orgNm": "WELLS FARGO ADVISORS, LLC",
      "orgPK": "19616",
      "str1": "ONE NORTH JEFFERSON AVENUE",
      "str2": "MAIL CODE: H0004-050",
      "city": "ST. LOUIS",
      "state": 25,
      "stateSpecified": true,
      "cntry": "United States",
      "postlCd": "63103-2205"
    }
  ],
  "Exms": [
    {
      "exmCd": 0,
      "exmNm": "Uniform Securities Agent State Law Examination",
      "exmDt": "1991-08-16T00:00:00",
      "exmDtSpecified": true
    },
    {
      "exmCd": 3,
      "exmNm": "Uniform Combined State Law Examination",
      "exmDt": "2003-03-17T00:00:00",
      "exmDtSpecified": true
    }
  ],
  "Dsgntns": [],
  "PrevRgstns": [
    {
      "BrnchOfLocs": [
        {
          "city": "BIRMINGHAM",
          "state": 1,
          "stateSpecified": true
        }
      ],
      "orgNm": "AMERIPRISE FINANCIAL SERVICES, INC.",
      "orgPK": "6363",
      "regBeginDt": "2003-06-23T00:00:00",
      "regBeginDtSpecified": true,
      "regEndDt": "2004-01-28T00:00:00",
      "regEndDtSpecified": true
    },
    {
      "BrnchOfLocs": [
        {
          "city": "BIRMINGHAM",
          "state": 1,
          "stateSpecified": true
        }
      ],
      "orgNm": "AMSOUTH INVESTMENT MANAGEMENT COMPANY LLC",
      "orgPK": "111757",
      "regBeginDt": "2005-10-27T00:00:00",
      "regBeginDtSpecified": true,
      "regEndDt": "2006-07-21T00:00:00",
      "regEndDtSpecified": true
    },
    {
      "BrnchOfLocs": [
        {
          "city": "BIRMINGHAM",
          "state": 1,
          "stateSpecified": true
        },
        {
          "city": "PELHAM",
          "state": 1,
          "stateSpecified": true
        }
      ],
      "orgNm": "NBC SECURITIES, INC.",
      "orgPK": "17870",
      "regBeginDt": "2007-03-21T00:00:00",
      "regBeginDtSpecified": true,
      "regEndDt": "2008-01-03T00:00:00",
      "regEndDtSpecified": true
    },
    {
      "BrnchOfLocs": [
        {
          "city": "JASPER",
          "state": 1,
          "stateSpecified": true
        },
        {
          "city": "SUMITON",
          "state": 1,
          "stateSpecified": true
        }
      ],
      "orgNm": "BBVA COMPASS INVESTMENT SOLUTIONS, INC",
      "orgPK": "17086",
      "regBeginDt": "2008-04-02T00:00:00",
      "regBeginDtSpecified": true,
      "regEndDt": "2010-03-16T00:00:00",
      "regEndDtSpecified": true
    },
    {
      "BrnchOfLocs": [
        {
          "city": "JASPER",
          "state": 1,
          "stateSpecified": true
        }
      ],
      "orgNm": "ST JOHNS WEALTH MANAGEMENT",
      "orgPK": "105564",
      "regBeginDt": "2010-04-07T00:00:00",
      "regBeginDtSpecified": true,
      "regEndDt": "2010-10-15T00:00:00",
      "regEndDtSpecified": true
    },
    {
      "BrnchOfLocs": [
        {
          "city": "HOUSTON",
          "state": 45,
          "stateSpecified": true
        }
      ],
      "orgNm": "BBVA WEALTH SOLUTIONS INC.",
      "orgPK": "110476",
      "regBeginDt": "2010-10-15T00:00:00",
      "regBeginDtSpecified": true,
      "regEndDt": "2011-03-30T00:00:00",
      "regEndDtSpecified": true
    },
    {
      "BrnchOfLocs": [
        {
          "city": "BESSEMER",
          "state": 1,
          "stateSpecified": true
        },
        {
          "city": "BIRMINGHAM",
          "state": 1,
          "stateSpecified": true
        },
        {
          "city": "BIRMINGHAM",
          "state": 1,
          "stateSpecified": true
        },
        {
          "city": "CHARLOTTE",
          "state": 28,
          "stateSpecified": true
        },
        {
          "city": "IRONDALE",
          "state": 1,
          "stateSpecified": true
        },
        {
          "city": "NORTHPORT",
          "state": 1,
          "stateSpecified": true
        },
        {
          "city": "PLEASANT GROVE",
          "state": 1,
          "stateSpecified": true
        },
        {
          "city": "TUSCALOOSA",
          "state": 1,
          "stateSpecified": true
        }
      ],
      "orgNm": "BB&T INVESTMENT SERVICES, INC.",
      "orgPK": "33856",
      "regBeginDt": "2011-04-11T00:00:00",
      "regBeginDtSpecified": true,
      "regEndDt": "2013-01-03T00:00:00",
      "regEndDtSpecified": true
    },
    {
      "BrnchOfLocs": [
        {
          "city": "BIRMINGHAM",
          "state": 1,
          "stateSpecified": true
        }
      ],
      "orgNm": "RAYMOND JAMES FINANCIAL SERVICES ADVISORS, INC",
      "orgPK": "149018",
      "regBeginDt": "2014-09-30T00:00:00",
      "regBeginDtSpecified": true,
      "regEndDt": "2016-03-01T00:00:00",
      "regEndDtSpecified": true
    }
  ],
  "EmpHss": [
    {
      "fromDt": "07/2006",
      "toDt": "03/2007",
      "orgNm": "AMERIPRISE FINANCIAL SERVICES, INC.",
      "city": "BIRMINGHAM",
      "state": 1,
      "stateSpecified": true
    },
    {
      "fromDt": "03/2007",
      "toDt": "12/2007",
      "orgNm": "NBC SECURITIES, INC.",
      "city": "BIRMINGHAM",
      "state": 1,
      "stateSpecified": true
    },
    {
      "fromDt": "03/2008",
      "toDt": "03/2011",
      "orgNm": "BBVA COMPASS INVESTMENT SOLUTIONS, INC.",
      "city": "JASPER",
      "state": 1,
      "stateSpecified": true
    },
    {
      "fromDt": "04/2011",
      "toDt": "01/2013",
      "orgNm": "BB&T INVESTMENTS",
      "city": "BIRMINGHAM",
      "state": 1,
      "stateSpecified": true
    },
    {
      "fromDt": "01/2013",
      "toDt": "08/2013",
      "orgNm": "UNEMPLOYED",
      "city": "BIRMINGHAM",
      "state": 1,
      "stateSpecified": true
    },
    {
      "fromDt": "08/2013",
      "toDt": "03/2016",
      "orgNm": "BROWN & ASSOCIATES",
      "city": "BIRMINGHAM",
      "state": 1,
      "stateSpecified": true
    },
    {
      "fromDt": "08/2013",
      "toDt": "03/2016",
      "orgNm": "RAYMOND JAMES FINANCIAL SERVICES, INC.",
      "city": "BIRMINGHAM",
      "state": 1,
      "stateSpecified": true
    },
    {
      "fromDt": "09/2014",
      "toDt": "03/2016",
      "orgNm": "RAYMOND JAMES FINANCIAL SERVICES ADVISORS INC.",
      "city": "BIRMINGHAM",
      "state": 1,
      "stateSpecified": true
    },
    {
      "fromDt": "03/2016",
      "toDt": null,
      "orgNm": "Wells Fargo Advisors, LLC",
      "city": "Birmingham",
      "state": 1,
      "stateSpecified": true
    }
  ],
  "OthrBuss": {
    "OthrBus": {
      "desc": "FIREHOUSE SHELTER:NOT INVESTMENT RELATED:8/2013-PRESENT:BIRMINGHAM, AL:VICE PRESIDENT/BOARD MEMBER:CHARITABLE MEN'S HOMELESS SHELTER:4 HRS/WK:0 HRS DURING TRADING:ADMINISTRATIVE,FUND RAISING,CHARITABLE."
    }
  },
  "DRPs": []
}