{
  "Info": {
    "lastNm": "STAATS",
    "firstNm": "THEODORE",
    "midNm": "FRANCIS",
    "sufNm": "III",
    "indvlPK": "1691770",
    "actvAGReg": 0,
    "link": "http://www.adviserinfo.sec.gov/IAPD/Individual/1691770"
  },
  "OthrNms": [],
  "CrntEmps": [
    {
      "CrntRgstns": [
        {
          "regAuth": 39,
          "regCat": 0,
          "st": 2,
          "stDt": "2012-12-11T00:00:00"
        }
      ],
      "BrnchOfLocs": [
        {
          "str1": "101 WEST MAIN STREET #104",
          "str2": null,
          "city": "CARNEGIE",
          "state": 39,
          "stateSpecified": true,
          "cntry": "UNITED STATES",
          "postlCd": "15106-2427"
        }
      ],
      "orgNm": "SECURITIES BROKERAGE SERVICES",
      "orgPK": "119861",
      "str1": "101 WEST MAIN STREET #104",
      "str2": null,
      "city": "CARNEGIE",
      "state": 39,
      "stateSpecified": true,
      "cntry": "United States",
      "postlCd": "15106-2427"
    },
    {
      "CrntRgstns": [
        {
          "regAuth": 39,
          "regCat": 0,
          "st": 2,
          "stDt": "2013-09-03T00:00:00"
        }
      ],
      "BrnchOfLocs": [
        {
          "str1": "PINEBRIDGE COMMONS STE 218",
          "str2": "1580 MCLAUGHLIN RUN RD",
          "city": "PITTSBURGH",
          "state": 39,
          "stateSpecified": true,
          "cntry": "United States",
          "postlCd": "15241"
        }
      ],
      "orgNm": "CETERA ADVISOR NETWORKS LLC",
      "orgPK": "13572",
      "str1": "200 N. SEPULVEDA BLVD.",
      "str2": "SUITE 1300",
      "city": "EL SEGUNDO",
      "state": 4,
      "stateSpecified": true,
      "cntry": "United States",
      "postlCd": "90245-5672"
    }
  ],
  "Exms": [
    {
      "exmCd": 0,
      "exmNm": "Uniform Securities Agent State Law Examination",
      "exmDt": "1987-07-31T00:00:00",
      "exmDtSpecified": true
    },
    {
      "exmCd": 3,
      "exmNm": "Uniform Combined State Law Examination",
      "exmDt": "2004-04-22T00:00:00",
      "exmDtSpecified": true
    }
  ],
  "Dsgntns": [],
  "PrevRgstns": [
    {
      "BrnchOfLocs": [
        {
          "city": "STATE COLLGE",
          "state": 39,
          "stateSpecified": true
        }
      ],
      "orgNm": "VICUS CAPITAL, INC.",
      "orgPK": "116021",
      "regBeginDt": "2005-03-11T00:00:00",
      "regBeginDtSpecified": true,
      "regEndDt": "2007-02-16T00:00:00",
      "regEndDtSpecified": true
    },
    {
      "BrnchOfLocs": [
        {
          "city": "PITTSBURGH",
          "state": 39,
          "stateSpecified": true
        },
        {
          "city": "WARRENDALE",
          "state": 39,
          "stateSpecified": true
        }
      ],
      "orgNm": "WALNUT STREET SECURITIES, INC.",
      "orgPK": "15840",
      "regBeginDt": "2007-07-19T00:00:00",
      "regBeginDtSpecified": true,
      "regEndDt": "2013-09-03T00:00:00",
      "regEndDtSpecified": true
    }
  ],
  "EmpHss": [
    {
      "fromDt": "12/2003",
      "toDt": "08/2013",
      "orgNm": "WALNUT STREET SECURITIES",
      "city": "ST LOUIS",
      "state": 25,
      "stateSpecified": true
    },
    {
      "fromDt": "09/2013",
      "toDt": null,
      "orgNm": "CETERA ADVISOR NETWORKS LLC",
      "city": "EL SEGUNDO",
      "state": 4,
      "stateSpecified": true
    }
  ],
  "OthrBuss": {
    "OthrBus": {
      "desc": "INDEPENDENT INSURANCE AGENT-LIFE/ACCIDENT/HEALTH, LONG-TERM CARE MIDWAY FINANCIAL BEGAN 04/1999 2HRS/WKDY ONLY. WORKING AS FACULTY FOR CCAC COMMUNITY COLLEGE OF ALLEGHENY COUNTY (CCAC) WILL HAVE ME DO SOME NIGHTIME, NON CREDIT COURSES (SUBJECT TO REGISTRATIONS) ON INVESTMENT RELATED TOPICS 3 EVENING/WEEKEND HOURS STARTED 2/12.     IAR-SBS BROKERAGE -BUSINESS ADDRESS- 5 HOURS SECURITIES - SINCE 11/2012"
    }
  },
  "DRPs": []
}