{
  "Info": {
    "lastNm": "MOELL",
    "firstNm": "LAURETTA",
    "midNm": "CARLENE",
    "sufNm": null,
    "indvlPK": "1692649",
    "actvAGReg": 0,
    "link": "http://www.adviserinfo.sec.gov/IAPD/Individual/1692649"
  },
  "OthrNms": [
    {
      "lastNm": "MOELL",
      "firstNm": "LAURIE",
      "midNm": null,
      "sufNm": null
    }
  ],
  "CrntEmps": [
    {
      "CrntRgstns": [
        {
          "regAuth": 5,
          "regCat": 0,
          "st": 2,
          "stDt": "2008-01-01T00:00:00"
        }
      ],
      "BrnchOfLocs": [
        {
          "str1": "320 S TELLER ST STE 200",
          "str2": null,
          "city": "LAKEWOOD",
          "state": 5,
          "stateSpecified": true,
          "cntry": "United States",
          "postlCd": "80226"
        }
      ],
      "orgNm": "WELLS FARGO ADVISORS, LLC",
      "orgPK": "19616",
      "str1": "ONE NORTH JEFFERSON AVENUE",
      "str2": "MAIL CODE: H0004-050",
      "city": "ST. LOUIS",
      "state": 25,
      "stateSpecified": true,
      "cntry": "United States",
      "postlCd": "63103-2205"
    }
  ],
  "Exms": [
    {
      "exmCd": 0,
      "exmNm": "Uniform Securities Agent State Law Examination",
      "exmDt": "1990-03-26T00:00:00",
      "exmDtSpecified": true
    }
  ],
  "Dsgntns": [],
  "PrevRgstns": [
    {
      "BrnchOfLocs": [
        {
          "city": "LAKEWOOD",
          "state": 5,
          "stateSpecified": true
        },
        {
          "city": "LAKEWOOD",
          "state": 5,
          "stateSpecified": true
        },
        {
          "city": "ST. LOUIS",
          "state": 25,
          "stateSpecified": true
        }
      ],
      "orgNm": "A. G. EDWARDS & SONS, INC.",
      "orgPK": "4",
      "regBeginDt": "1999-01-01T00:00:00",
      "regBeginDtSpecified": true,
      "regEndDt": "2008-01-01T00:00:00",
      "regEndDtSpecified": true
    }
  ],
  "EmpHss": [
    {
      "fromDt": "02/1996",
      "toDt": "01/2008",
      "orgNm": "A.G. EDWARDS",
      "city": "LAKEWOOD",
      "state": 5,
      "stateSpecified": true
    },
    {
      "fromDt": "01/2008",
      "toDt": "05/2009",
      "orgNm": "WACHOVIA SECURITIES, LLC",
      "city": "LAKEWOOD",
      "state": 5,
      "stateSpecified": true
    },
    {
      "fromDt": "05/2009",
      "toDt": null,
      "orgNm": "WELLS FARGO ADVISORS LLC",
      "city": "LAKEWOOD",
      "state": 5,
      "stateSpecified": true
    }
  ],
  "OthrBuss": {
    "OthrBus": null
  },
  "DRPs": []
}