{
  "Info": {
    "lastNm": "PLATOU",
    "firstNm": "CARL",
    "midNm": "STOUD",
    "sufNm": null,
    "indvlPK": "1703138",
    "actvAGReg": 0,
    "link": "http://www.adviserinfo.sec.gov/IAPD/Individual/1703138"
  },
  "OthrNms": [],
  "CrntEmps": [
    {
      "CrntRgstns": [
        {
          "regAuth": 4,
          "regCat": 0,
          "st": 2,
          "stDt": "2013-08-23T00:00:00"
        }
      ],
      "BrnchOfLocs": [
        {
          "str1": "333 SOUTH HOPE STREET, 55TH FLOOR",
          "str2": null,
          "city": "LOS ANGELES",
          "state": 4,
          "stateSpecified": true,
          "cntry": "United States",
          "postlCd": "90071-1447"
        }
      ],
      "orgNm": "AMERICAN FUNDS DISTRIBUTORS, INC.",
      "orgPK": "6247",
      "str1": "333 SOUTH HOPE STREET",
      "str2": null,
      "city": "LOS ANGELES",
      "state": 4,
      "stateSpecified": true,
      "cntry": "United States",
      "postlCd": "90071"
    }
  ],
  "Exms": [
    {
      "exmCd": 0,
      "exmNm": "Uniform Securities Agent State Law Examination",
      "exmDt": "1989-01-12T00:00:00",
      "exmDtSpecified": true
    },
    {
      "exmCd": 2,
      "exmNm": "Uniform Investment Adviser Law Examination",
      "exmDt": "2013-08-23T00:00:00",
      "exmDtSpecified": true
    }
  ],
  "Dsgntns": [],
  "PrevRgstns": [],
  "EmpHss": [
    {
      "fromDt": "07/1994",
      "toDt": null,
      "orgNm": "AMERICAN FUNDS DISTRIBUTORS, INC.",
      "city": "LOS ANGELES",
      "state": 4,
      "stateSpecified": true
    }
  ],
  "OthrBuss": {
    "OthrBus": null
  },
  "DRPs": []
}