{
  "Info": {
    "lastNm": "KIMMEL",
    "firstNm": "SCOTT",
    "midNm": "ALAN",
    "sufNm": null,
    "indvlPK": "1707311",
    "actvAGReg": 0,
    "link": "http://www.adviserinfo.sec.gov/IAPD/Individual/1707311"
  },
  "OthrNms": [],
  "CrntEmps": [
    {
      "CrntRgstns": [
        {
          "regAuth": 45,
          "regCat": 0,
          "st": 2,
          "stDt": "1992-09-17T00:00:00"
        },
        {
          "regAuth": 19,
          "regCat": 0,
          "st": 2,
          "stDt": "2005-07-18T00:00:00"
        }
      ],
      "BrnchOfLocs": [
        {
          "str1": "6500 West Fwy",
          "str2": "Ste 555",
          "city": "Fort Worth",
          "state": 45,
          "stateSpecified": true,
          "cntry": "United States",
          "postlCd": "76116"
        }
      ],
      "orgNm": "PRINCIPAL SECURITIES, INC.",
      "orgPK": "1137",
      "str1": "655 9TH STREET",
      "str2": null,
      "city": "DES MOINES",
      "state": 13,
      "stateSpecified": true,
      "cntry": "United States",
      "postlCd": "50309"
    }
  ],
  "Exms": [
    {
      "exmCd": 0,
      "exmNm": "Uniform Securities Agent State Law Examination",
      "exmDt": "1987-08-27T00:00:00",
      "exmDtSpecified": true
    }
  ],
  "Dsgntns": [],
  "PrevRgstns": [],
  "EmpHss": [
    {
      "fromDt": "07/1987",
      "toDt": null,
      "orgNm": "PRINCOR FINANCIAL SERVICES CORPORATION",
      "city": "DES MOINES",
      "state": 13,
      "stateSpecified": true
    },
    {
      "fromDt": "07/1998",
      "toDt": null,
      "orgNm": "PRINCIPAL LIFE INSURANCE COMP",
      "city": "DES MOINES",
      "state": 13,
      "stateSpecified": true
    }
  ],
  "OthrBuss": {
    "OthrBus": {
      "desc": "***PRINCIPAL BANK,SELLING & SERVICING PRINCIPAL BK PRODUCTS, 1/10-PRESENT, TX, NOT INVESTMENT RELATED.  ***OUTSIDE INSURANCE. 01/06/2012. SELLING FIXED LIFE INSURANCE AND FIXED ANNUITIES THROUGH VARIOUS CARRIERS."
    }
  },
  "DRPs": [
    {
      "hasRegAction": 1,
      "hasRegActionSpecified": true,
      "hasCriminal": 1,
      "hasCriminalSpecified": true,
      "hasBankrupt": 1,
      "hasBankruptSpecified": true,
      "hasCivilJudc": 1,
      "hasCivilJudcSpecified": true,
      "hasBond": 1,
      "hasBondSpecified": true,
      "hasJudgment": 1,
      "hasJudgmentSpecified": true,
      "hasInvstgn": 1,
      "hasInvstgnSpecified": true,
      "hasCustComp": 0,
      "hasCustCompSpecified": true,
      "hasTermination": 1,
      "hasTerminationSpecified": true
    }
  ]
}