{
  "Info": {
    "lastNm": "DRAPER",
    "firstNm": "ROBERT",
    "midNm": "KEITH",
    "sufNm": null,
    "indvlPK": "1707864",
    "actvAGReg": 1,
    "link": "http://www.adviserinfo.sec.gov/IAPD/Individual/1707864"
  },
  "OthrNms": [
    {
      "lastNm": "DRAPER",
      "firstNm": "BERT",
      "midNm": null,
      "sufNm": null
    }
  ],
  "CrntEmps": [
    {
      "CrntRgstns": [
        {
          "regAuth": 17,
          "regCat": 0,
          "st": 2,
          "stDt": "2010-01-11T00:00:00"
        }
      ],
      "BrnchOfLocs": [
        {
          "str1": "11551 ASH STREET",
          "str2": "SUITE 210",
          "city": "LEAWOOD",
          "state": 17,
          "stateSpecified": true,
          "cntry": "United States",
          "postlCd": "66211"
        }
      ],
      "orgNm": "DEEDS SELECT ADVISORS INC.",
      "orgPK": "151416",
      "str1": "11551 ASH STREET",
      "str2": "SUITE 210",
      "city": "LEAWOOD",
      "state": 17,
      "stateSpecified": true,
      "cntry": "United States",
      "postlCd": "66211"
    }
  ],
  "Exms": [
    {
      "exmCd": 0,
      "exmNm": "Uniform Securities Agent State Law Examination",
      "exmDt": "2004-06-26T00:00:00",
      "exmDtSpecified": true
    },
    {
      "exmCd": 2,
      "exmNm": "Uniform Investment Adviser Law Examination",
      "exmDt": "2010-01-08T00:00:00",
      "exmDtSpecified": true
    }
  ],
  "Dsgntns": [],
  "PrevRgstns": [],
  "EmpHss": [
    {
      "fromDt": "02/2004",
      "toDt": "05/2008",
      "orgNm": "CHARLES SCHWAB & CO., INC.",
      "city": "ENGLEWOOD",
      "state": 5,
      "stateSpecified": true
    },
    {
      "fromDt": "05/2008",
      "toDt": null,
      "orgNm": "DEEDS SELECT ADVISORS, INC.",
      "city": "PRAIRIE VILLAGE",
      "state": 17,
      "stateSpecified": true
    }
  ],
  "OthrBuss": {
    "OthrBus": null
  },
  "DRPs": []
}