{
  "Info": {
    "lastNm": "WEBB",
    "firstNm": "CHARLES",
    "midNm": "HEMPHILL",
    "sufNm": null,
    "indvlPK": "1711187",
    "actvAGReg": 1,
    "link": "http://www.adviserinfo.sec.gov/IAPD/Individual/1711187"
  },
  "OthrNms": [],
  "CrntEmps": [
    {
      "CrntRgstns": [
        {
          "regAuth": 10,
          "regCat": 0,
          "st": 2,
          "stDt": "2003-01-30T00:00:00"
        },
        {
          "regAuth": 1,
          "regCat": 0,
          "st": 2,
          "stDt": "2012-07-13T00:00:00"
        }
      ],
      "BrnchOfLocs": [
        {
          "str1": "300 GALLERIA PKWY",
          "str2": "STE 1650",
          "city": "ATLANT",
          "state": 10,
          "stateSpecified": true,
          "cntry": "United States",
          "postlCd": "30339"
        }
      ],
      "orgNm": "ALDER FINANCIAL GROUP INC",
      "orgPK": "108837",
      "str1": "300 GALLERIA PKWY",
      "str2": "SUITE 1650",
      "city": "ATLANTA",
      "state": 10,
      "stateSpecified": true,
      "cntry": "United States",
      "postlCd": "30339"
    }
  ],
  "Exms": [
    {
      "exmCd": 0,
      "exmNm": "Uniform Securities Agent State Law Examination",
      "exmDt": "1987-07-30T00:00:00",
      "exmDtSpecified": true
    },
    {
      "exmCd": 2,
      "exmNm": "Uniform Investment Adviser Law Examination",
      "exmDt": "1995-06-26T00:00:00",
      "exmDtSpecified": true
    }
  ],
  "Dsgntns": [],
  "PrevRgstns": [],
  "EmpHss": [
    {
      "fromDt": "09/1995",
      "toDt": null,
      "orgNm": "ALDER FINANACIAL GROUP",
      "city": "ATLANTA",
      "state": 10,
      "stateSpecified": true
    }
  ],
  "OthrBuss": {
    "OthrBus": null
  },
  "DRPs": []
}