{
  "Info": {
    "lastNm": "SCHAYOT",
    "firstNm": "SCOTT",
    "midNm": "EDISON",
    "sufNm": null,
    "indvlPK": "1713399",
    "actvAGReg": 0,
    "link": "http://www.adviserinfo.sec.gov/IAPD/Individual/1713399"
  },
  "OthrNms": [],
  "CrntEmps": [
    {
      "CrntRgstns": [
        {
          "regAuth": 19,
          "regCat": 0,
          "st": 2,
          "stDt": "2009-01-02T00:00:00"
        },
        {
          "regAuth": 45,
          "regCat": 0,
          "st": 2,
          "stDt": "2012-05-07T00:00:00"
        }
      ],
      "BrnchOfLocs": [
        {
          "str1": "3838 N. CAUSEWAY BLVD",
          "str2": "SUITE 3020",
          "city": "METAIRIE",
          "state": 19,
          "stateSpecified": true,
          "cntry": "United States",
          "postlCd": "70002"
        }
      ],
      "orgNm": "RAYMOND JAMES FINANCIAL SERVICES ADVISORS, INC",
      "orgPK": "149018",
      "str1": "880 CARILLON PARKWAY",
      "str2": null,
      "city": "SAINT PETERSBURG",
      "state": 9,
      "stateSpecified": true,
      "cntry": "United States",
      "postlCd": "33716"
    }
  ],
  "Exms": [
    {
      "exmCd": 0,
      "exmNm": "Uniform Securities Agent State Law Examination",
      "exmDt": "1995-03-13T00:00:00",
      "exmDtSpecified": true
    }
  ],
  "Dsgntns": [
    {
      "dsgntnNm": "Certified Financial Planner"
    }
  ],
  "PrevRgstns": [
    {
      "BrnchOfLocs": [
        {
          "city": "METAIRIE",
          "state": 19,
          "stateSpecified": true
        }
      ],
      "orgNm": "COMMONWEALTH FINANCIAL NETWORK",
      "orgPK": "8032",
      "regBeginDt": "2002-07-24T00:00:00",
      "regBeginDtSpecified": true,
      "regEndDt": "2004-11-29T00:00:00",
      "regEndDtSpecified": true
    }
  ],
  "EmpHss": [
    {
      "fromDt": "09/1994",
      "toDt": null,
      "orgNm": "INSURANCE",
      "city": "METAIRIE",
      "state": 19,
      "stateSpecified": true
    },
    {
      "fromDt": "09/1994",
      "toDt": null,
      "orgNm": "SCOTT SCHAYOT",
      "city": "METAIRIE",
      "state": 19,
      "stateSpecified": true
    },
    {
      "fromDt": "12/1995",
      "toDt": null,
      "orgNm": "INDEPENDENT INSURANCE SALES AGENT",
      "city": "METAIRIE",
      "state": 19,
      "stateSpecified": true
    },
    {
      "fromDt": "11/2004",
      "toDt": null,
      "orgNm": "RAYMOND JAMES FINANCIAL SERVICES, INC.",
      "city": "METAIRIE",
      "state": 19,
      "stateSpecified": true
    },
    {
      "fromDt": "01/2005",
      "toDt": "12/2007",
      "orgNm": "CIVIC LEAGUE OF EAST JEFFERSON",
      "city": "METAIRIE",
      "state": 19,
      "stateSpecified": true
    },
    {
      "fromDt": "04/2005",
      "toDt": "01/2011",
      "orgNm": "JEFFERSON COUNCIL ON AGING, INC.",
      "city": "METAIRIE",
      "state": 19,
      "stateSpecified": true
    },
    {
      "fromDt": "08/2006",
      "toDt": "09/2011",
      "orgNm": "NEW ORLEANS CHAPTER SOCIETY OF FINANCIAL SERVICES PROFESSIONALS",
      "city": "METAIRIE",
      "state": 19,
      "stateSpecified": true
    },
    {
      "fromDt": "01/2009",
      "toDt": null,
      "orgNm": "RAYMOND JAMES FINANCIAL SERVICES ADVISORS, INC",
      "city": "METAIRIE",
      "state": 19,
      "stateSpecified": true
    },
    {
      "fromDt": "11/2009",
      "toDt": "12/2013",
      "orgNm": "FINANCIAL PLANNING ASSOCIATION OF GREATER NEW ORLEANS",
      "city": "METAIRIE",
      "state": 19,
      "stateSpecified": true
    }
  ],
  "OthrBuss": {
    "OthrBus": {
      "desc": "SCOTT SCHAYOT -  METAIRIE, LA. 09/1994 TO PRESENT. INVESTMENT RELATED. PROPRIETOR/OWNER. NON-VARIABLE INSURANCE. HEALTH INSURANCE. 1 HOUR MONTHLY, 0 HOURS DURING TRADING."
    }
  },
  "DRPs": []
}