{
  "Info": {
    "lastNm": "BRIODY",
    "firstNm": "PAUL",
    "midNm": "DAVID",
    "sufNm": null,
    "indvlPK": "1715024",
    "actvAGReg": 0,
    "link": "http://www.adviserinfo.sec.gov/IAPD/Individual/1715024"
  },
  "OthrNms": [],
  "CrntEmps": [
    {
      "CrntRgstns": [
        {
          "regAuth": 48,
          "regCat": 0,
          "st": 2,
          "stDt": "2008-01-01T00:00:00"
        },
        {
          "regAuth": 45,
          "regCat": 0,
          "st": 2,
          "stDt": "2015-02-20T00:00:00"
        },
        {
          "regAuth": 9,
          "regCat": 0,
          "st": 2,
          "stDt": "2016-02-23T00:00:00"
        }
      ],
      "BrnchOfLocs": [
        {
          "str1": "180 BATTERY ST STE 300",
          "str2": null,
          "city": "BURLINGTON",
          "state": 48,
          "stateSpecified": true,
          "cntry": "United States",
          "postlCd": "05401"
        }
      ],
      "orgNm": "WELLS FARGO ADVISORS, LLC",
      "orgPK": "19616",
      "str1": "ONE NORTH JEFFERSON AVENUE",
      "str2": "MAIL CODE: H0004-050",
      "city": "ST. LOUIS",
      "state": 25,
      "stateSpecified": true,
      "cntry": "United States",
      "postlCd": "63103-2205"
    }
  ],
  "Exms": [
    {
      "exmCd": 0,
      "exmNm": "Uniform Securities Agent State Law Examination",
      "exmDt": "1990-09-17T00:00:00",
      "exmDtSpecified": true
    },
    {
      "exmCd": 3,
      "exmNm": "Uniform Combined State Law Examination",
      "exmDt": "2005-08-31T00:00:00",
      "exmDtSpecified": true
    }
  ],
  "Dsgntns": [
    {
      "dsgntnNm": "Certified Financial Planner"
    }
  ],
  "PrevRgstns": [
    {
      "BrnchOfLocs": [
        {
          "city": "BURLINGTON",
          "state": 48,
          "stateSpecified": true
        },
        {
          "city": "BURLINGTON",
          "state": 48,
          "stateSpecified": true
        },
        {
          "city": "ST. LOUIS",
          "state": 25,
          "stateSpecified": true
        }
      ],
      "orgNm": "A. G. EDWARDS & SONS, INC.",
      "orgPK": "4",
      "regBeginDt": "2005-09-19T00:00:00",
      "regBeginDtSpecified": true,
      "regEndDt": "2008-01-01T00:00:00",
      "regEndDtSpecified": true
    }
  ],
  "EmpHss": [
    {
      "fromDt": "06/1990",
      "toDt": "01/2008",
      "orgNm": "A.G. EDWARDS",
      "city": "BURLINGTON",
      "state": 48,
      "stateSpecified": true
    },
    {
      "fromDt": "01/2008",
      "toDt": "05/2009",
      "orgNm": "WACHOVIA SECURITIES, LLC",
      "city": "BURLINGTON",
      "state": 48,
      "stateSpecified": true
    },
    {
      "fromDt": "05/2009",
      "toDt": null,
      "orgNm": "WELLS FARGO ADVISORS LLC",
      "city": "BURLINGTON",
      "state": 48,
      "stateSpecified": true
    }
  ],
  "OthrBuss": {
    "OthrBus": {
      "desc": "SUGARBUSH RESORT, NOT INVESTMENT RELATED, WARREN, VT, SKI RESORT, SKI INSTRUCTOR, START DATE 1/4/09, 25 HRS MONTH - 0 DURING TRADING, DUTIES - INSTRUCT A SEASONAL GROUP LESSON CO-TRUSTEE FOR MOTHER; INVESTMENT RELATED; START DATE 8/1992; SOUTH BURLINGTON, VT. RENTAL PROPERTY, INVESTMENT RELATED,SANIBEL, FL., OWNER, START: 2/1/2013, 5HRS/MONTH, 0 DURING TRADING, LANDLORD.    TEMPLE PLACE A-35, INV RELATED, SANIBEL, FL, 50% OWNER, START: 11/2015, 2 HOURS PER MONTH/0 DURING TRADING, DUTIES: RENTAL.    TURCO CAR RENTAL; NOT INV RELATED; SANIBEL, FL; CAR SHARING SERVICE; PARTICIPANT; START 1/1/2015; 1 HOUR PER MONTH, 0 DURING TRADING; RENTAL CAR LOCATED AT VACATION RENTAL PROPERTY."
    }
  },
  "DRPs": []
}