{
  "Info": {
    "lastNm": "MOORE",
    "firstNm": "WILLIAM",
    "midNm": "DAVID",
    "sufNm": null,
    "indvlPK": "1718373",
    "actvAGReg": 1,
    "link": "http://www.adviserinfo.sec.gov/IAPD/Individual/1718373"
  },
  "OthrNms": [],
  "CrntEmps": [
    {
      "CrntRgstns": [
        {
          "regAuth": 9,
          "regCat": 0,
          "st": 2,
          "stDt": "2014-01-02T00:00:00"
        }
      ],
      "BrnchOfLocs": [
        {
          "str1": "1700 S. BAYSHORE LANE, 4A",
          "str2": null,
          "city": "MIAMI",
          "state": 9,
          "stateSpecified": true,
          "cntry": "United States",
          "postlCd": "33133"
        }
      ],
      "orgNm": "FIDUCIARY GLOBAL ADVISORS",
      "orgPK": "167967",
      "str1": "1700 S. BAYSHORE LANE, 4A",
      "str2": null,
      "city": "MIAMI",
      "state": 9,
      "stateSpecified": true,
      "cntry": "United States",
      "postlCd": "33133"
    }
  ],
  "Exms": [
    {
      "exmCd": 2,
      "exmNm": "Uniform Investment Adviser Law Examination",
      "exmDt": "2013-09-25T00:00:00",
      "exmDtSpecified": true
    }
  ],
  "Dsgntns": [],
  "PrevRgstns": [],
  "EmpHss": [
    {
      "fromDt": "07/2003",
      "toDt": "12/2009",
      "orgNm": "CORAL GABLES TRUST COMPANY",
      "city": "CORAL GABLES",
      "state": 9,
      "stateSpecified": true
    },
    {
      "fromDt": "12/2009",
      "toDt": "09/2012",
      "orgNm": "GIBRALTAR PRIVATE BANK AND TRUST COMPANY",
      "city": "CORAL GABLES",
      "state": 9,
      "stateSpecified": true
    },
    {
      "fromDt": "09/2012",
      "toDt": "05/2013",
      "orgNm": "NONE",
      "city": "MIAMI",
      "state": 9,
      "stateSpecified": true
    },
    {
      "fromDt": "05/2013",
      "toDt": null,
      "orgNm": "FIDUCIARY GLOBAL ADVISORS",
      "city": "MIAMI",
      "state": 9,
      "stateSpecified": true
    }
  ],
  "OthrBuss": {
    "OthrBus": null
  },
  "DRPs": []
}