{
  "Info": {
    "lastNm": "MICHEL",
    "firstNm": "BETH",
    "midNm": "A",
    "sufNm": null,
    "indvlPK": "1723450",
    "actvAGReg": 0,
    "link": "http://www.adviserinfo.sec.gov/IAPD/Individual/1723450"
  },
  "OthrNms": [
    {
      "lastNm": "LANCASTER",
      "firstNm": "BETH",
      "midNm": null,
      "sufNm": null
    },
    {
      "lastNm": "LANCASTER",
      "firstNm": "BETH",
      "midNm": "A",
      "sufNm": null
    },
    {
      "lastNm": "LANCASTER",
      "firstNm": "BETH",
      "midNm": "ANN",
      "sufNm": null
    },
    {
      "lastNm": "LANCASTER",
      "firstNm": "BETH",
      "midNm": "ANN",
      "sufNm": null
    },
    {
      "lastNm": "LANCASTER",
      "firstNm": "BETH",
      "midNm": "ANNE",
      "sufNm": null
    },
    {
      "lastNm": "MICHEL",
      "firstNm": "BETH",
      "midNm": "ANN",
      "sufNm": null
    },
    {
      "lastNm": "MICHEL",
      "firstNm": "BETH",
      "midNm": "ANN",
      "sufNm": null
    },
    {
      "lastNm": "MICHEL",
      "firstNm": "BETH",
      "midNm": "ANN",
      "sufNm": null
    }
  ],
  "CrntEmps": [
    {
      "CrntRgstns": [
        {
          "regAuth": 36,
          "regCat": 0,
          "st": 2,
          "stDt": "2011-04-29T00:00:00"
        },
        {
          "regAuth": 45,
          "regCat": 0,
          "st": 3,
          "stDt": "2012-12-06T00:00:00"
        }
      ],
      "BrnchOfLocs": [
        {
          "str1": "30195 CHAGRIN BLVD",
          "str2": null,
          "city": "PEPPER PIKE",
          "state": 36,
          "stateSpecified": true,
          "cntry": "United States",
          "postlCd": "44124"
        }
      ],
      "orgNm": "MERRILL LYNCH, PIERCE, FENNER & SMITH INCORPORATED",
      "orgPK": "7691",
      "str1": "ONE BRYANT PARK",
      "str2": null,
      "city": "NEW YORK",
      "state": 35,
      "stateSpecified": true,
      "cntry": "United States",
      "postlCd": "10036"
    }
  ],
  "Exms": [
    {
      "exmCd": 0,
      "exmNm": "Uniform Securities Agent State Law Examination",
      "exmDt": "1990-03-02T00:00:00",
      "exmDtSpecified": true
    },
    {
      "exmCd": 2,
      "exmNm": "Uniform Investment Adviser Law Examination",
      "exmDt": "1995-03-02T00:00:00",
      "exmDtSpecified": true
    }
  ],
  "Dsgntns": [],
  "PrevRgstns": [
    {
      "BrnchOfLocs": [
        {
          "city": "CHAGRIN FALLS",
          "state": 36,
          "stateSpecified": true
        },
        {
          "city": "PEPPER PIKE",
          "state": 36,
          "stateSpecified": true
        }
      ],
      "orgNm": "CITIGROUP GLOBAL MARKETS INC.",
      "orgPK": "7059",
      "regBeginDt": "2003-01-14T00:00:00",
      "regBeginDtSpecified": true,
      "regEndDt": "2009-06-01T00:00:00",
      "regEndDtSpecified": true
    },
    {
      "BrnchOfLocs": [
        {
          "city": "PEPPER PIKE",
          "state": 36,
          "stateSpecified": true
        }
      ],
      "orgNm": "MORGAN STANLEY",
      "orgPK": "149777",
      "regBeginDt": "2009-06-01T00:00:00",
      "regBeginDtSpecified": true,
      "regEndDt": "2011-04-11T00:00:00",
      "regEndDtSpecified": true
    }
  ],
  "EmpHss": [
    {
      "fromDt": "01/2003",
      "toDt": "06/2009",
      "orgNm": "CITIGROUP GLOBAL MARKETS INC.",
      "city": "CHAGRIN FALLS",
      "state": 36,
      "stateSpecified": true
    },
    {
      "fromDt": "01/2003",
      "toDt": "04/2011",
      "orgNm": "CITIGROUP GLOBAL MARKETS INC.",
      "city": "CHAGRIN FALLS",
      "state": 36,
      "stateSpecified": true
    },
    {
      "fromDt": "06/2009",
      "toDt": "04/2011",
      "orgNm": "MORGAN STANLEY SMITH BARNEY",
      "city": "PEPPER PIKE",
      "state": 36,
      "stateSpecified": true
    },
    {
      "fromDt": "06/2009",
      "toDt": "04/2011",
      "orgNm": "MORGAN STANLEY SMITH BARNEY",
      "city": "PEPPER PIKE",
      "state": 36,
      "stateSpecified": true
    },
    {
      "fromDt": "04/2011",
      "toDt": null,
      "orgNm": "MERRILL LYNCH, PIERCE, FENNER & SMITH, INC.",
      "city": "PEPPER PIKE",
      "state": 36,
      "stateSpecified": true
    }
  ],
  "OthrBuss": {
    "OthrBus": null
  },
  "DRPs": []
}