{
  "Info": {
    "lastNm": "CANDLER",
    "firstNm": "ERIN",
    "midNm": "MURPHY",
    "sufNm": null,
    "indvlPK": "1734195",
    "actvAGReg": 0,
    "link": "http://www.adviserinfo.sec.gov/IAPD/Individual/1734195"
  },
  "OthrNms": [
    {
      "lastNm": "CANDLER",
      "firstNm": "ERIN",
      "midNm": "MAURA",
      "sufNm": null
    },
    {
      "lastNm": "MURPHY",
      "firstNm": "ERIN",
      "midNm": null,
      "sufNm": null
    },
    {
      "lastNm": "MURPHY",
      "firstNm": "ERIN",
      "midNm": "MAURA",
      "sufNm": null
    }
  ],
  "CrntEmps": [
    {
      "CrntRgstns": [
        {
          "regAuth": 6,
          "regCat": 0,
          "st": 2,
          "stDt": "2000-01-03T00:00:00"
        },
        {
          "regAuth": 39,
          "regCat": 0,
          "st": 2,
          "stDt": "2014-01-22T00:00:00"
        }
      ],
      "BrnchOfLocs": [
        {
          "str1": "40 QUALITY STREET",
          "str2": null,
          "city": "TRUMBULL",
          "state": 6,
          "stateSpecified": true,
          "cntry": "United States",
          "postlCd": "06611"
        }
      ],
      "orgNm": "PEOPLE'S SECURITIES, INC.",
      "orgPK": "13704",
      "str1": "850 MAIN STREET",
      "str2": null,
      "city": "BRIDGEPORT",
      "state": 6,
      "stateSpecified": true,
      "cntry": "United States",
      "postlCd": "06604"
    }
  ],
  "Exms": [
    {
      "exmCd": 0,
      "exmNm": "Uniform Securities Agent State Law Examination",
      "exmDt": "1988-05-26T00:00:00",
      "exmDtSpecified": true
    },
    {
      "exmCd": 2,
      "exmNm": "Uniform Investment Adviser Law Examination",
      "exmDt": "1995-07-10T00:00:00",
      "exmDtSpecified": true
    }
  ],
  "Dsgntns": [],
  "PrevRgstns": [],
  "EmpHss": [
    {
      "fromDt": "11/1990",
      "toDt": null,
      "orgNm": "PEOPLE'S SECURITIES, INC.",
      "city": "TRUMBULL",
      "state": 6,
      "stateSpecified": true
    }
  ],
  "OthrBuss": {
    "OthrBus": null
  },
  "DRPs": []
}