{
  "Info": {
    "lastNm": "OSHAUGHNESSEYIII",
    "firstNm": "WILLIAM",
    "midNm": "JOHN",
    "sufNm": "III",
    "indvlPK": "1739562",
    "actvAGReg": 0,
    "link": "http://www.adviserinfo.sec.gov/IAPD/Individual/1739562"
  },
  "OthrNms": [
    {
      "lastNm": "OSHAUGHNESSEY",
      "firstNm": "WILLIAM",
      "midNm": "JOHN",
      "sufNm": "III"
    },
    {
      "lastNm": "OSHAUGHNESSEY",
      "firstNm": "WILLIAM",
      "midNm": null,
      "sufNm": "III"
    },
    {
      "lastNm": "OSHAUGHNESSEYIII",
      "firstNm": "JOHN",
      "midNm": null,
      "sufNm": null
    }
  ],
  "CrntEmps": [
    {
      "CrntRgstns": [
        {
          "regAuth": 45,
          "regCat": 0,
          "st": 3,
          "stDt": "1997-10-21T00:00:00"
        },
        {
          "regAuth": 10,
          "regCat": 0,
          "st": 2,
          "stDt": "2004-04-08T00:00:00"
        }
      ],
      "BrnchOfLocs": [
        {
          "str1": "3920 ARKWRIGHT RD",
          "str2": null,
          "city": "MACON",
          "state": 10,
          "stateSpecified": true,
          "cntry": "United States",
          "postlCd": "31210"
        }
      ],
      "orgNm": "MERRILL LYNCH, PIERCE, FENNER & SMITH INCORPORATED",
      "orgPK": "7691",
      "str1": "ONE BRYANT PARK",
      "str2": null,
      "city": "NEW YORK",
      "state": 35,
      "stateSpecified": true,
      "cntry": "United States",
      "postlCd": "10036"
    }
  ],
  "Exms": [
    {
      "exmCd": 0,
      "exmNm": "Uniform Securities Agent State Law Examination",
      "exmDt": "1987-11-12T00:00:00",
      "exmDtSpecified": true
    },
    {
      "exmCd": 2,
      "exmNm": "Uniform Investment Adviser Law Examination",
      "exmDt": "1994-08-30T00:00:00",
      "exmDtSpecified": true
    }
  ],
  "Dsgntns": [],
  "PrevRgstns": [],
  "EmpHss": [
    {
      "fromDt": "08/1987",
      "toDt": null,
      "orgNm": "MERRILL LYNCH, PIERCE, FENNER & SMITH INCORPORATED",
      "city": "MACON",
      "state": 10,
      "stateSpecified": true
    },
    {
      "fromDt": "08/1987",
      "toDt": null,
      "orgNm": "MERRILL LYNCH, PIERCE, FENNER & SMITH INCORPORATED",
      "city": "MACON",
      "state": 10,
      "stateSpecified": true
    },
    {
      "fromDt": "11/2009",
      "toDt": null,
      "orgNm": "BANK OF AMERICA, NA",
      "city": "MACON",
      "state": 10,
      "stateSpecified": true
    }
  ],
  "OthrBuss": {
    "OthrBus": {
      "desc": "I*82057 FOR PROFIT OR NOT FOR PROFIT: FOR-PROFIT ORGANIZATION  NAME OF OUTSIDE BUSINESS ORGANIZATION: SKY VISTA, LLC  INVESTMENT RELATED: N  ADDRESS OF BUSINESS:   140 GLENEAGLES CIRCLE,   MACON, GEORGIA 31210  NATURE OF BUSINESS: LLC,  POSITION, TITLE, ASSOCIATION: PARTICIPANT,   START DATE OF RELATIONSHIP: 5/22/2015  NUMBER OF HOURS DEVOTED: 250 HOUR(S) ANNUALLY  NUMBER OF HOURS DEVOTED DURING TRADING HOURS: 0  DUTIES: I BOUGHT AN AIRPLANE AND THE LLC OWNS THE PLANE.  I AM THE OWNER AND THE PILOT. THE LLC IS FOR LIABILITY PROTECTION."
    }
  },
  "DRPs": [
    {
      "hasRegAction": 1,
      "hasRegActionSpecified": true,
      "hasCriminal": 1,
      "hasCriminalSpecified": true,
      "hasBankrupt": 1,
      "hasBankruptSpecified": true,
      "hasCivilJudc": 1,
      "hasCivilJudcSpecified": true,
      "hasBond": 1,
      "hasBondSpecified": true,
      "hasJudgment": 1,
      "hasJudgmentSpecified": true,
      "hasInvstgn": 1,
      "hasInvstgnSpecified": true,
      "hasCustComp": 0,
      "hasCustCompSpecified": true,
      "hasTermination": 1,
      "hasTerminationSpecified": true
    }
  ]
}