{
  "Info": {
    "lastNm": "BELL",
    "firstNm": "LAWRENCE",
    "midNm": "RAY",
    "sufNm": null,
    "indvlPK": "17432",
    "actvAGReg": 1,
    "link": "http://www.adviserinfo.sec.gov/IAPD/Individual/17432"
  },
  "OthrNms": [],
  "CrntEmps": [
    {
      "CrntRgstns": [
        {
          "regAuth": 45,
          "regCat": 0,
          "st": 2,
          "stDt": "2015-08-17T00:00:00"
        }
      ],
      "BrnchOfLocs": [
        {
          "str1": null,
          "str2": null,
          "city": "HOUSTON",
          "state": 45,
          "stateSpecified": true,
          "cntry": "United States",
          "postlCd": null
        }
      ],
      "orgNm": "ABLEMERE INVESTMENT ADVISORS",
      "orgPK": "269865",
      "str1": null,
      "str2": null,
      "city": "HOUSTON",
      "state": 45,
      "stateSpecified": true,
      "cntry": "United States",
      "postlCd": null
    }
  ],
  "Exms": [
    {
      "exmCd": 3,
      "exmNm": "Uniform Combined State Law Examination",
      "exmDt": "2008-04-24T00:00:00",
      "exmDtSpecified": true
    },
    {
      "exmCd": 2,
      "exmNm": "Uniform Investment Adviser Law Examination",
      "exmDt": "2015-07-20T00:00:00",
      "exmDtSpecified": true
    }
  ],
  "Dsgntns": [],
  "PrevRgstns": [
    {
      "BrnchOfLocs": [
        {
          "city": "AUSTIN",
          "state": 45,
          "stateSpecified": true
        },
        {
          "city": "HOUSTON",
          "state": 45,
          "stateSpecified": true
        }
      ],
      "orgNm": "NORTHWESTERN MUTUAL INVESTMENT SERVICES, LLC",
      "orgPK": "2881",
      "regBeginDt": "2008-05-21T00:00:00",
      "regBeginDtSpecified": true,
      "regEndDt": "2010-04-30T00:00:00",
      "regEndDtSpecified": true
    },
    {
      "BrnchOfLocs": [],
      "orgNm": "ASCENDANT ADVISORS, LLC",
      "orgPK": "151127",
      "regBeginDt": "2010-06-08T00:00:00",
      "regBeginDtSpecified": true,
      "regEndDt": "2010-12-20T00:00:00",
      "regEndDtSpecified": true
    }
  ],
  "EmpHss": [
    {
      "fromDt": "04/2003",
      "toDt": "04/2008",
      "orgNm": "NACQ PARTNERS,LLC.",
      "city": "HOUSTON",
      "state": 45,
      "stateSpecified": true
    },
    {
      "fromDt": "05/2008",
      "toDt": "04/2010",
      "orgNm": "NORTHWESTERN MUTUAL INVESTMENT SERVICES, LLC",
      "city": "HOUSTON",
      "state": 45,
      "stateSpecified": true
    },
    {
      "fromDt": "05/2010",
      "toDt": null,
      "orgNm": "AMERICAN BUSINESS PLANNING, LLC",
      "city": "HOUSTON",
      "state": 45,
      "stateSpecified": true
    },
    {
      "fromDt": "05/2010",
      "toDt": "12/2010",
      "orgNm": "ASCENDANT ADVISORS,LLC",
      "city": "HOUSTON",
      "state": 45,
      "stateSpecified": true
    },
    {
      "fromDt": "01/2011",
      "toDt": "10/2011",
      "orgNm": "SAMMONS SECURITIES COMPANY LLC",
      "city": "ANN ARBOR",
      "state": 23,
      "stateSpecified": true
    },
    {
      "fromDt": "06/2015",
      "toDt": null,
      "orgNm": "ABLEMERE, LLC",
      "city": "HOUSTON",
      "state": 45,
      "stateSpecified": true
    }
  ],
  "OthrBuss": {
    "OthrBus": {
      "desc": "1.  BELL COMMERCIAL REAL ESTATE, SOLE PROPRIETOR. INVESTMENT RELATED, 931 SHIRKMERE ROAD, HOUSTON, TX 77008, REAL ESTATE BROKERAGE, SOLE PROPRIETOR, 7/1975, 5 HOURS PER MONTH DURING TRADING HOURS."
    }
  },
  "DRPs": [
    {
      "hasRegAction": 1,
      "hasRegActionSpecified": true,
      "hasCriminal": 1,
      "hasCriminalSpecified": true,
      "hasBankrupt": 0,
      "hasBankruptSpecified": true,
      "hasCivilJudc": 1,
      "hasCivilJudcSpecified": true,
      "hasBond": 1,
      "hasBondSpecified": true,
      "hasJudgment": 1,
      "hasJudgmentSpecified": true,
      "hasInvstgn": 1,
      "hasInvstgnSpecified": true,
      "hasCustComp": 1,
      "hasCustCompSpecified": true,
      "hasTermination": 1,
      "hasTerminationSpecified": true
    }
  ]
}