{
  "Info": {
    "lastNm": "PEEL",
    "firstNm": "ROBERT",
    "midNm": "PERRY",
    "sufNm": null,
    "indvlPK": "1753640",
    "actvAGReg": 0,
    "link": "http://www.adviserinfo.sec.gov/IAPD/Individual/1753640"
  },
  "OthrNms": [
    {
      "lastNm": "PEEL",
      "firstNm": "ROB",
      "midNm": null,
      "sufNm": null
    }
  ],
  "CrntEmps": [
    {
      "CrntRgstns": [
        {
          "regAuth": 23,
          "regCat": 0,
          "st": 2,
          "stDt": "2010-02-01T00:00:00"
        }
      ],
      "BrnchOfLocs": [
        {
          "str1": "125 SOUTH KALAMAZOO MALL",
          "str2": "SUITE 302",
          "city": "KALAMAZOO",
          "state": 23,
          "stateSpecified": true,
          "cntry": "United States",
          "postlCd": "49007"
        },
        {
          "str1": "333 BRIDGE ST N.W.",
          "str2": "STE 1000",
          "city": "GRAND RAPIDS",
          "state": 23,
          "stateSpecified": true,
          "cntry": "United States",
          "postlCd": "49504"
        }
      ],
      "orgNm": "ROBERT W. BAIRD & CO. INCORPORATED",
      "orgPK": "8158",
      "str1": "777 E. WISCONSIN AVE",
      "str2": null,
      "city": "MILWAUKEE",
      "state": 50,
      "stateSpecified": true,
      "cntry": "United States",
      "postlCd": "53202-5391"
    }
  ],
  "Exms": [
    {
      "exmCd": 0,
      "exmNm": "Uniform Securities Agent State Law Examination",
      "exmDt": "1988-04-28T00:00:00",
      "exmDtSpecified": true
    },
    {
      "exmCd": 2,
      "exmNm": "Uniform Investment Adviser Law Examination",
      "exmDt": "1999-12-10T00:00:00",
      "exmDtSpecified": true
    }
  ],
  "Dsgntns": [],
  "PrevRgstns": [],
  "EmpHss": [
    {
      "fromDt": "01/2000",
      "toDt": null,
      "orgNm": "ROBERT W BAIRD & COMPANY",
      "city": "HOLLAND",
      "state": 50,
      "stateSpecified": true
    }
  ],
  "OthrBuss": {
    "OthrBus": {
      "desc": "PEEL BROS., LLC THIS IS A PRIVATE COMPANY AND I AM A LIMITED PARTNER WITH MY THREE BROTHERS. MY PARENTS ARE THE GENERAL PARTNERS. I CURRENTLY WORK 2 HOURS A YEAR AND NONE OF THESE HOURS ARE DURING SECURITIES TRADING HOURS."
    }
  },
  "DRPs": []
}