{
  "Info": {
    "lastNm": "ARTHUR",
    "firstNm": "KIM",
    "midNm": "DAVID",
    "sufNm": null,
    "indvlPK": "1754934",
    "actvAGReg": 1,
    "link": "http://www.adviserinfo.sec.gov/IAPD/Individual/1754934"
  },
  "OthrNms": [],
  "CrntEmps": [
    {
      "CrntRgstns": [
        {
          "regAuth": 4,
          "regCat": 0,
          "st": 2,
          "stDt": "2002-09-12T00:00:00"
        }
      ],
      "BrnchOfLocs": [
        {
          "str1": "655 MONTGOMERY STREET",
          "str2": "14TH FLOOR",
          "city": "SAN FRANCISCO",
          "state": 4,
          "stateSpecified": true,
          "cntry": "United States",
          "postlCd": "94111"
        }
      ],
      "orgNm": "MAIN MANAGEMENT, LLC",
      "orgPK": "120361",
      "str1": "601 CALIFORNIA STREET",
      "str2": "SUITE 620",
      "city": "SAN FRANCISCO",
      "state": 4,
      "stateSpecified": true,
      "cntry": "United States",
      "postlCd": "94108"
    }
  ],
  "Exms": [
    {
      "exmCd": 0,
      "exmNm": "Uniform Securities Agent State Law Examination",
      "exmDt": "1987-12-22T00:00:00",
      "exmDtSpecified": true
    }
  ],
  "Dsgntns": [],
  "PrevRgstns": [],
  "EmpHss": [
    {
      "fromDt": "08/2002",
      "toDt": null,
      "orgNm": "MAIN MANAGEMENT LLC",
      "city": "SAN FRANCISCO",
      "state": 4,
      "stateSpecified": true
    }
  ],
  "OthrBuss": {
    "OthrBus": null
  },
  "DRPs": []
}