{
  "Info": {
    "lastNm": "WAXLER",
    "firstNm": "JASON",
    "midNm": "DAVID",
    "sufNm": null,
    "indvlPK": "1756279",
    "actvAGReg": 0,
    "link": "http://www.adviserinfo.sec.gov/IAPD/Individual/1756279"
  },
  "OthrNms": [],
  "CrntEmps": [
    {
      "CrntRgstns": [
        {
          "regAuth": 32,
          "regCat": 0,
          "st": 2,
          "stDt": "2012-03-27T00:00:00"
        },
        {
          "regAuth": 6,
          "regCat": 0,
          "st": 2,
          "stDt": "2012-04-23T00:00:00"
        },
        {
          "regAuth": 9,
          "regCat": 0,
          "st": 2,
          "stDt": "2012-08-15T00:00:00"
        }
      ],
      "BrnchOfLocs": [
        {
          "str1": "80 BUSINESS PARK DRIVE, SUITE 304",
          "str2": null,
          "city": "ARMONK",
          "state": 35,
          "stateSpecified": true,
          "cntry": "United States",
          "postlCd": "10504"
        }
      ],
      "orgNm": "INCOME & ASSET ADVISORY, INC.",
      "orgPK": "124955",
      "str1": "80 BUSINESS PARK DRIVE, SUITE 304",
      "str2": null,
      "city": "ARMONK",
      "state": 35,
      "stateSpecified": true,
      "cntry": "United States",
      "postlCd": "10504"
    }
  ],
  "Exms": [
    {
      "exmCd": 0,
      "exmNm": "Uniform Securities Agent State Law Examination",
      "exmDt": "2000-08-18T00:00:00",
      "exmDtSpecified": true
    },
    {
      "exmCd": 2,
      "exmNm": "Uniform Investment Adviser Law Examination",
      "exmDt": "2001-01-04T00:00:00",
      "exmDtSpecified": true
    }
  ],
  "Dsgntns": [],
  "PrevRgstns": [
    {
      "BrnchOfLocs": [
        {
          "city": "WESTPORT",
          "state": 6,
          "stateSpecified": true
        }
      ],
      "orgNm": "LPL FINANCIAL LLC",
      "orgPK": "6413",
      "regBeginDt": "2001-01-17T00:00:00",
      "regBeginDtSpecified": true,
      "regEndDt": "2004-04-02T00:00:00",
      "regEndDtSpecified": true
    },
    {
      "BrnchOfLocs": [
        {
          "city": "HOLBROOK",
          "state": 35,
          "stateSpecified": true
        }
      ],
      "orgNm": "AMERICAN PORTFOLIOS ADVISORS, INC",
      "orgPK": "112697",
      "regBeginDt": "2008-12-24T00:00:00",
      "regBeginDtSpecified": true,
      "regEndDt": "2012-03-08T00:00:00",
      "regEndDtSpecified": true
    },
    {
      "BrnchOfLocs": [
        {
          "city": "NEW YORK",
          "state": 35,
          "stateSpecified": true
        }
      ],
      "orgNm": "FOGEL NEALE WEALTH MANAGEMENT, LLC",
      "orgPK": "149329",
      "regBeginDt": "2010-09-30T00:00:00",
      "regBeginDtSpecified": true,
      "regEndDt": "2012-04-23T00:00:00",
      "regEndDtSpecified": true
    }
  ],
  "EmpHss": [
    {
      "fromDt": "03/2004",
      "toDt": "12/2008",
      "orgNm": "ROYAL ALLIANCE ASSOCIATES, INC.",
      "city": "KATONAH",
      "state": 35,
      "stateSpecified": true
    },
    {
      "fromDt": "12/2008",
      "toDt": "09/2010",
      "orgNm": "AMERICAN PORTFOLIOS ADVISORS, INC.",
      "city": "KATONAH",
      "state": 35,
      "stateSpecified": true
    },
    {
      "fromDt": "12/2008",
      "toDt": null,
      "orgNm": "AMERICAN PORTFOLIOS FINANCIAL SERVICES, INC.",
      "city": "KATONAH",
      "state": 35,
      "stateSpecified": true
    },
    {
      "fromDt": "09/2010",
      "toDt": "02/2012",
      "orgNm": "FOGEL NEALE WEALTH MANAGEMENT, LLC",
      "city": "NEW YORK",
      "state": 35,
      "stateSpecified": true
    },
    {
      "fromDt": "02/2012",
      "toDt": null,
      "orgNm": "INCOME & ASSET ADVISORY, INC.",
      "city": "ARMONK",
      "state": 35,
      "stateSpecified": true
    }
  ],
  "OthrBuss": {
    "OthrBus": {
      "desc": "1. INDEPENDENT INSURANCE AGENT JASON WAXLER - I.E.GROUP HEALTH INS PLANS OR OTHER INS BENEFITS - GROUP LIFE, DISABLITY, LTC.  INDIVIDUAL LIFE, LTC, DISABLITY.  NO FORMAL NAME FOR BUSINESS. 134 HUNTVILLE ROAD, KATONAH, NY 10536, STARTED IN 2000. DEVOTES BETWEEN 0%-20% OF TIME TO THIS BUSINESS DURING TRADING HOURS.    2.KATONAH CAPITAL GROUP - PRINCIPAL/OWNER (100%); USED FOR INSURANCE PURPOSES & TO PAY EXPENSES. START DATE: 03/2012; DEVOTES 5 HRS PER MONTH, ONE HR DURING MARKET HRS. 10/31/13    3. FIFTH AVENUE FINANCIAL - FIXED INSURANCE PRODUCTS, PRODUCING AGENT. START DATE 1/2004. 8 HOURS DEVOTED PER MONTH, 3 HOURS DEVOTED PER MONTH DURING MARKET HOURS. NOT SECURITIES RELATED.    4. NEW YORK LIFE INSURANCE - FIXED ANNUITIES, PRODUCING AGENT. NOT SECURITIES RELATED. START DATE 1/2014. 2 HOURS DEVOTED PER MONTH, 1 HOUR DEVOTED PER MONTH DURING MARKET HOURS."
    }
  },
  "DRPs": []
}