{
  "Info": {
    "lastNm": "MCADOO",
    "firstNm": "CHRISTOPHER",
    "midNm": "EVANS",
    "sufNm": null,
    "indvlPK": "1757312",
    "actvAGReg": 0,
    "link": "http://www.adviserinfo.sec.gov/IAPD/Individual/1757312"
  },
  "OthrNms": [
    {
      "lastNm": "MCADOO",
      "firstNm": "CHRISTOPHER",
      "midNm": null,
      "sufNm": null
    }
  ],
  "CrntEmps": [
    {
      "CrntRgstns": [
        {
          "regAuth": 9,
          "regCat": 0,
          "st": 2,
          "stDt": "2006-09-01T00:00:00"
        },
        {
          "regAuth": 45,
          "regCat": 0,
          "st": 3,
          "stDt": "2006-10-03T00:00:00"
        }
      ],
      "BrnchOfLocs": [
        {
          "str1": "18167 US 19 NORTH",
          "str2": null,
          "city": "CLEARWATER",
          "state": 9,
          "stateSpecified": true,
          "cntry": "United States",
          "postlCd": "33764"
        }
      ],
      "orgNm": "UBS FINANCIAL SERVICES INC.",
      "orgPK": "8174",
      "str1": "1200 HARBOR BOULEVARD",
      "str2": null,
      "city": "WEEHAWKEN",
      "state": 32,
      "stateSpecified": true,
      "cntry": "United States",
      "postlCd": "07086"
    }
  ],
  "Exms": [
    {
      "exmCd": 0,
      "exmNm": "Uniform Securities Agent State Law Examination",
      "exmDt": "1988-04-27T00:00:00",
      "exmDtSpecified": true
    },
    {
      "exmCd": 2,
      "exmNm": "Uniform Investment Adviser Law Examination",
      "exmDt": "1994-02-24T00:00:00",
      "exmDtSpecified": true
    }
  ],
  "Dsgntns": [],
  "PrevRgstns": [
    {
      "BrnchOfLocs": [
        {
          "city": "CLEARWATER",
          "state": 9,
          "stateSpecified": true
        },
        {
          "city": "CLEARWATER",
          "state": 9,
          "stateSpecified": true
        }
      ],
      "orgNm": "CITIGROUP GLOBAL MARKETS INC.",
      "orgPK": "7059",
      "regBeginDt": "2001-07-31T00:00:00",
      "regBeginDtSpecified": true,
      "regEndDt": "2006-09-05T00:00:00",
      "regEndDtSpecified": true
    }
  ],
  "EmpHss": [
    {
      "fromDt": "07/2001",
      "toDt": "08/2006",
      "orgNm": "SALOMON SMITH BARNEY",
      "city": "CLEARWATER",
      "state": 9,
      "stateSpecified": true
    },
    {
      "fromDt": "08/2006",
      "toDt": null,
      "orgNm": "UBS FINANCIAL SERVICES INC",
      "city": "CLEARWATER",
      "state": 9,
      "stateSpecified": true
    }
  ],
  "OthrBuss": {
    "OthrBus": null
  },
  "DRPs": [
    {
      "hasRegAction": 1,
      "hasRegActionSpecified": true,
      "hasCriminal": 1,
      "hasCriminalSpecified": true,
      "hasBankrupt": 1,
      "hasBankruptSpecified": true,
      "hasCivilJudc": 1,
      "hasCivilJudcSpecified": true,
      "hasBond": 1,
      "hasBondSpecified": true,
      "hasJudgment": 1,
      "hasJudgmentSpecified": true,
      "hasInvstgn": 1,
      "hasInvstgnSpecified": true,
      "hasCustComp": 0,
      "hasCustCompSpecified": true,
      "hasTermination": 1,
      "hasTerminationSpecified": true
    }
  ]
}