{
  "Info": {
    "lastNm": "SCHULTZ",
    "firstNm": "STEVEN",
    "midNm": "DAVID",
    "sufNm": null,
    "indvlPK": "1764802",
    "actvAGReg": 0,
    "link": "http://www.adviserinfo.sec.gov/IAPD/Individual/1764802"
  },
  "OthrNms": [],
  "CrntEmps": [
    {
      "CrntRgstns": [
        {
          "regAuth": 9,
          "regCat": 0,
          "st": 2,
          "stDt": "2005-09-27T00:00:00"
        }
      ],
      "BrnchOfLocs": [
        {
          "str1": "2000 PGA BLVD.",
          "str2": "SUITE 2200",
          "city": "PALM BEACH GARDENS",
          "state": 9,
          "stateSpecified": true,
          "cntry": "United States",
          "postlCd": "33408"
        }
      ],
      "orgNm": "OPPENHEIMER & CO. INC.",
      "orgPK": "249",
      "str1": "85 BROAD STREET",
      "str2": "22ND FLOOR.",
      "city": "NEW YORK",
      "state": 35,
      "stateSpecified": true,
      "cntry": "United States",
      "postlCd": "10004"
    }
  ],
  "Exms": [
    {
      "exmCd": 0,
      "exmNm": "Uniform Securities Agent State Law Examination",
      "exmDt": "1998-07-03T00:00:00",
      "exmDtSpecified": true
    },
    {
      "exmCd": 2,
      "exmNm": "Uniform Investment Adviser Law Examination",
      "exmDt": "1998-07-15T00:00:00",
      "exmDtSpecified": true
    }
  ],
  "Dsgntns": [],
  "PrevRgstns": [
    {
      "BrnchOfLocs": [
        {
          "city": "BOCA RATON",
          "state": 9,
          "stateSpecified": true
        }
      ],
      "orgNm": "MERRILL LYNCH, PIERCE, FENNER & SMITH INCORPORATED",
      "orgPK": "7691",
      "regBeginDt": "2002-03-25T00:00:00",
      "regBeginDtSpecified": true,
      "regEndDt": "2005-09-28T00:00:00",
      "regEndDtSpecified": true
    }
  ],
  "EmpHss": [
    {
      "fromDt": "09/2005",
      "toDt": null,
      "orgNm": "OPPENHEIMER & CO. INC.",
      "city": "BOCA RATON",
      "state": 9,
      "stateSpecified": true
    }
  ],
  "OthrBuss": {
    "OthrBus": null
  },
  "DRPs": [
    {
      "hasRegAction": 1,
      "hasRegActionSpecified": true,
      "hasCriminal": 1,
      "hasCriminalSpecified": true,
      "hasBankrupt": 1,
      "hasBankruptSpecified": true,
      "hasCivilJudc": 1,
      "hasCivilJudcSpecified": true,
      "hasBond": 1,
      "hasBondSpecified": true,
      "hasJudgment": 1,
      "hasJudgmentSpecified": true,
      "hasInvstgn": 1,
      "hasInvstgnSpecified": true,
      "hasCustComp": 0,
      "hasCustCompSpecified": true,
      "hasTermination": 1,
      "hasTerminationSpecified": true
    }
  ]
}