{
  "Info": {
    "lastNm": "MYERS",
    "firstNm": "DAVID",
    "midNm": "STANLEY",
    "sufNm": null,
    "indvlPK": "1765383",
    "actvAGReg": 0,
    "link": "http://www.adviserinfo.sec.gov/IAPD/Individual/1765383"
  },
  "OthrNms": [
    {
      "lastNm": "MYERS",
      "firstNm": "ROCKY",
      "midNm": null,
      "sufNm": null
    }
  ],
  "CrntEmps": [
    {
      "CrntRgstns": [
        {
          "regAuth": 44,
          "regCat": 0,
          "st": 2,
          "stDt": "2012-10-01T00:00:00"
        }
      ],
      "BrnchOfLocs": [
        {
          "str1": "50 NORTH FRONT STREET",
          "str2": null,
          "city": "MEMPHIS",
          "state": 44,
          "stateSpecified": true,
          "cntry": "United States",
          "postlCd": "38103"
        },
        {
          "str1": "ONE BURTON HILLS BLVD",
          "str2": "SUITE 225",
          "city": "NASHVILLE",
          "state": 44,
          "stateSpecified": true,
          "cntry": "United States",
          "postlCd": "37215-6014"
        }
      ],
      "orgNm": "RAYMOND JAMES & ASSOCIATES, INC.",
      "orgPK": "705",
      "str1": "880 CARILLON PARKWAY",
      "str2": null,
      "city": "ST PETERSBURG",
      "state": 9,
      "stateSpecified": true,
      "cntry": "United States",
      "postlCd": "33716"
    }
  ],
  "Exms": [
    {
      "exmCd": 0,
      "exmNm": "Uniform Securities Agent State Law Examination",
      "exmDt": "1987-12-29T00:00:00",
      "exmDtSpecified": true
    }
  ],
  "Dsgntns": [],
  "PrevRgstns": [
    {
      "BrnchOfLocs": [
        {
          "city": "NASHVILLE",
          "state": 44,
          "stateSpecified": true
        },
        {
          "city": "NASHVILLE",
          "state": 44,
          "stateSpecified": true
        },
        {
          "city": "NASHVILLE",
          "state": 44,
          "stateSpecified": true
        }
      ],
      "orgNm": "MORGAN KEEGAN & COMPANY, LLC",
      "orgPK": "4161",
      "regBeginDt": "2004-01-23T00:00:00",
      "regBeginDtSpecified": true,
      "regEndDt": "2013-03-15T00:00:00",
      "regEndDtSpecified": true
    }
  ],
  "EmpHss": [
    {
      "fromDt": "07/2000",
      "toDt": "02/2013",
      "orgNm": "MORGAN KEEGAN & COMPANY, INC",
      "city": "NASHVILLE",
      "state": 44,
      "stateSpecified": true
    },
    {
      "fromDt": "10/2012",
      "toDt": null,
      "orgNm": "RAYMOND JAMES & ASSOCIATES, INC.",
      "city": "NASHVILLE",
      "state": 44,
      "stateSpecified": true
    }
  ],
  "OthrBuss": {
    "OthrBus": {
      "desc": "(1)OAK STREET HEALTH 327 WEST BELDEN STREET SUITE 3 CHICAGO, IL 60601  NATURE OF THE BUSINESS: OTHER (UNPAID)   POSITION/TITLE: OTHER (UNPAID)   INVESTMENT RELATED:YES   START DATE: 01/24/2013   HOURS PER MONTH DEVOTED TO THIS BUSINESS: 0   HOURS PER MONTH DEVOTED TO THIS BUSINESS DURING TRADING HOURS: 0   DESCRIPTION OF DUTIES: NO RESPONSIBILITIES. PASSIVE INVESTOR ONLY.     (2) BOULDER PROPERTIES LLC   ADDRESS: FRANKLIN, TN   NATURE OF THE BUSINESS: BUSINESS OWNER   POSITION/TITLE: PROPRIETOR/OWNER   INVESTMENT RELATED:YES   START DATE: 11/08/2013   HOURS PER MONTH DEVOTED TO THIS BUSINESS: 10   HOURS PER MONTH DEVOTED TO THIS BUSINESS DURING TRADING HOURS: 0   DESCRIPTION OF DUTIES: LLC OWNED 50/50% W/ MY SPOUSE. WE OCCASIONALLY BUY DEVELOPED LOTS THEN LATER SELL TO BUILDERS/HOMEOWNERS.     (3) THE GREETING PEN COMPANY   ADDRESS: FRANKLIN, TN   NATURE OF THE BUSINESS: PERSONAL/PRIVATE INVESTMENT   POSITION/TITLE:   INVESTMENT RELATED:YES   START DATE: 08/06/2012   HOURS PER MONTH DEVOTED TO THIS BUSINESS: 0   HOURS PER MONTH DEVOTED TO THIS BUSINESS DURING TRADING HOURS: 0   DESCRIPTION OF DUTIES: NONE    (4) DIATECH - PASSIVE INVESTOR.      (5) COMMERCE BANKSHARES - PASSIVE INVESTOR."
    }
  },
  "DRPs": []
}