{
  "Info": {
    "lastNm": "DOWNS",
    "firstNm": "KEVIN",
    "midNm": "THOMAS",
    "sufNm": null,
    "indvlPK": "1766764",
    "actvAGReg": 0,
    "link": "http://www.adviserinfo.sec.gov/IAPD/Individual/1766764"
  },
  "OthrNms": [],
  "CrntEmps": [
    {
      "CrntRgstns": [
        {
          "regAuth": 39,
          "regCat": 0,
          "st": 2,
          "stDt": "1997-03-21T00:00:00"
        }
      ],
      "BrnchOfLocs": [
        {
          "str1": "34 MAIN STREET",
          "str2": null,
          "city": "WYALUSING",
          "state": 39,
          "stateSpecified": true,
          "cntry": "United States",
          "postlCd": "18853"
        }
      ],
      "orgNm": "H.D. VEST ADVISORY SERVICES, INC",
      "orgPK": "104556",
      "str1": "6333 NORTH STATE HIGHWAY 161",
      "str2": "4TH FLOOR",
      "city": "IRVING",
      "state": 45,
      "stateSpecified": true,
      "cntry": "United States",
      "postlCd": "75038"
    }
  ],
  "Exms": [
    {
      "exmCd": 0,
      "exmNm": "Uniform Securities Agent State Law Examination",
      "exmDt": "1987-12-02T00:00:00",
      "exmDtSpecified": true
    }
  ],
  "Dsgntns": [],
  "PrevRgstns": [],
  "EmpHss": [
    {
      "fromDt": "07/1979",
      "toDt": null,
      "orgNm": "SELF-EMPLOYED",
      "city": "WYALUSING",
      "state": 39,
      "stateSpecified": true
    },
    {
      "fromDt": "10/1987",
      "toDt": null,
      "orgNm": "H.D. VEST INVESTMENT SERVICES",
      "city": "WYALUSING",
      "state": 39,
      "stateSpecified": true
    },
    {
      "fromDt": "04/1997",
      "toDt": null,
      "orgNm": "H.D. VEST ADVISORY SERVICES",
      "city": "WYALUSING",
      "state": 39,
      "stateSpecified": true
    },
    {
      "fromDt": "07/2014",
      "toDt": null,
      "orgNm": "HD VEST INSURANCE AGENCY INC",
      "city": "IRVING",
      "state": 45,
      "stateSpecified": true
    },
    {
      "fromDt": "09/2014",
      "toDt": null,
      "orgNm": "DOWNS & ALICIENE ACCOUNTANTS AND FINANCIAL",
      "city": "WYALUSING",
      "state": 39,
      "stateSpecified": true
    }
  ],
  "OthrBuss": {
    "OthrBus": {
      "desc": "DOWNS & ALICIENE ACCOUNTANTS A~'NIR'~34 MAIN STREET~PO BOX 309~WYALUSING~PA~18853~TAX PREPARATION/ACCOUNTING~TAX PREPARATION/ACCOUNTING~9/2014~20HRS~20HRS~TAX PREPARATION AND ACCOUNTING. NAME OF BUSINESS IS DOWNS & ALICIENE ACCOUNTANTS AND FINANCIAL SERVICES LLC~~FRANCIS WAYNE QUAIL AND LINDA ~'NIR'~34 MAIN STREET~PO BOX 309~WYALUSING~PA~18853~OTHER~OTHER~4/2012~1HRS~1HRS~TRUSTEE FOR THE TRUST.  MAINTAIN CHECKBOOK AND BANK (NON-BROKERED) CERTIFICATES OF DEPOSIT.~~HD VEST INSURANCE AGENCY INC~'NIR'~6333 N STATE HIGHWAY 161~ ~IRVING~TX~75038~INDEPENDENT INSURANCE AGENT~INSURANCE SALES AGENT~7/2014~1HRS~1HRS~INSURANCE THROUGH H D VEST~~KEVIN T. DOWNS FINANCIAL SERVI~'NIR'~34 MAIN STREET~PO BOX 309~WYALUSING~PA~18853~TAX PREPARATION/ACCOUNTING~OWNER/SOLE PROPRIETER~7/1979~60HRS~60HRS~TAX PREPARATION, ACCOUNTING, BUSINESS MANAGEMENT~~NARO - PA~'NIR'~34 MAIN STREET~PO BOX 309~WYALUSING~PA~18853~OTHER~TREASURER/COMPTROLLER~4/2012~2HRS~2HRS~UNPAID TREASURER FOR NON-PROFIT ORGANIZATION.  NATIONAL ASSOCIATION OF ROYALTY OWNERS - PA CHAPTER."
    }
  },
  "DRPs": []
}