{
  "Info": {
    "lastNm": "SEIWELL",
    "firstNm": "RICHARD",
    "midNm": "JOSLIN",
    "sufNm": null,
    "indvlPK": "1770496",
    "actvAGReg": 1,
    "link": "http://www.adviserinfo.sec.gov/IAPD/Individual/1770496"
  },
  "OthrNms": [],
  "CrntEmps": [
    {
      "CrntRgstns": [
        {
          "regAuth": 39,
          "regCat": 0,
          "st": 2,
          "stDt": "2003-03-13T00:00:00"
        }
      ],
      "BrnchOfLocs": [
        {
          "str1": null,
          "str2": null,
          "city": "WEST CHESTER",
          "state": 39,
          "stateSpecified": true,
          "cntry": "United States",
          "postlCd": null
        }
      ],
      "orgNm": "SEIWELL ADVISORS, LLC",
      "orgPK": "125045",
      "str1": null,
      "str2": null,
      "city": "WEST CHESTER",
      "state": 39,
      "stateSpecified": true,
      "cntry": "United States",
      "postlCd": null
    }
  ],
  "Exms": [
    {
      "exmCd": 2,
      "exmNm": "Uniform Investment Adviser Law Examination",
      "exmDt": "1992-10-13T00:00:00",
      "exmDtSpecified": true
    }
  ],
  "Dsgntns": [
    {
      "dsgntnNm": "Chartered Financial Analyst"
    }
  ],
  "PrevRgstns": [
    {
      "BrnchOfLocs": [
        {
          "city": "WEST CHESTER",
          "state": 39,
          "stateSpecified": true
        }
      ],
      "orgNm": "FARRELL CAPITAL MANAGEMENT, INC.",
      "orgPK": "118565",
      "regBeginDt": "1999-01-04T00:00:00",
      "regBeginDtSpecified": true,
      "regEndDt": "2003-12-08T00:00:00",
      "regEndDtSpecified": true
    }
  ],
  "EmpHss": [
    {
      "fromDt": "01/1999",
      "toDt": null,
      "orgNm": "FARRELL & SEIWELL, INC.",
      "city": "WEST CHESTER",
      "state": 39,
      "stateSpecified": true
    },
    {
      "fromDt": "01/2003",
      "toDt": null,
      "orgNm": "SEIWELL ADVISORS,LLC",
      "city": "WEST CHESTER",
      "state": 39,
      "stateSpecified": true
    }
  ],
  "OthrBuss": {
    "OthrBus": {
      "desc": "NCF INVESTMENT DEPT OF NEW COVENANT TRUST CO,N.A.(112029)  200 E. 12TH ST. SUITE B JEFFERSONVILLE, IN 47130  DIRECTOR, OCT., 2002  APPROXIMATELY 10 HOURS MONTH--VOLUNTEER WORK--CHAIR INVESTMENT COMMITTEE "
    }
  },
  "DRPs": []
}