{
  "Info": {
    "lastNm": "TRIEMSTRA",
    "firstNm": "JAY",
    "midNm": "L",
    "sufNm": null,
    "indvlPK": "1770447",
    "actvAGReg": 0,
    "link": "http://www.adviserinfo.sec.gov/IAPD/Individual/1770447"
  },
  "OthrNms": [
    {
      "lastNm": "TRIEMSTRA",
      "firstNm": "JAY",
      "midNm": "L",
      "sufNm": null
    }
  ],
  "CrntEmps": [
    {
      "CrntRgstns": [
        {
          "regAuth": 16,
          "regCat": 0,
          "st": 2,
          "stDt": "2008-08-08T00:00:00"
        }
      ],
      "BrnchOfLocs": [
        {
          "str1": "1001 Main Street",
          "str2": null,
          "city": "Dyer",
          "state": 16,
          "stateSpecified": true,
          "cntry": "United States",
          "postlCd": "46311"
        },
        {
          "str1": "11440 NORTH JOG ROAD",
          "str2": null,
          "city": "PALM BEACH GARDENS",
          "state": 9,
          "stateSpecified": true,
          "cntry": "UNITED STATES",
          "postlCd": "33418"
        },
        {
          "str1": "11440 NORTH JOG ROAD",
          "str2": null,
          "city": "PALM BEACH GARDENS",
          "state": 9,
          "stateSpecified": true,
          "cntry": "United States",
          "postlCd": "33418-3764"
        },
        {
          "str1": "7828 EAST 88TH STREET",
          "str2": null,
          "city": "INDIANAPOLIS",
          "state": 16,
          "stateSpecified": true,
          "cntry": "United States",
          "postlCd": "46256-1234"
        },
        {
          "str1": "7880 WICKER AVE",
          "str2": null,
          "city": "ST. JOHN",
          "state": 16,
          "stateSpecified": true,
          "cntry": "United States",
          "postlCd": "46373"
        },
        {
          "str1": "8230 HOHMAN AVE",
          "str2": null,
          "city": "MUNSTER",
          "state": 16,
          "stateSpecified": true,
          "cntry": "United States",
          "postlCd": "46373"
        }
      ],
      "orgNm": "MONEY CONCEPTS CAPITAL CORP",
      "orgPK": "12963",
      "str1": "11440 NORTH JOG ROAD",
      "str2": null,
      "city": "PALM BEACH GARDENS",
      "state": 9,
      "stateSpecified": true,
      "cntry": "United States",
      "postlCd": "33418-3764"
    }
  ],
  "Exms": [
    {
      "exmCd": 3,
      "exmNm": "Uniform Combined State Law Examination",
      "exmDt": "2001-12-05T00:00:00",
      "exmDtSpecified": true
    }
  ],
  "Dsgntns": [],
  "PrevRgstns": [
    {
      "BrnchOfLocs": [
        {
          "city": "CHICAGO",
          "state": 15,
          "stateSpecified": true
        }
      ],
      "orgNm": "GREAT LAKES ADVISORS, LLC",
      "orgPK": "110757",
      "regBeginDt": "2002-01-02T00:00:00",
      "regBeginDtSpecified": true,
      "regEndDt": "2004-01-27T00:00:00",
      "regEndDtSpecified": true
    },
    {
      "BrnchOfLocs": [
        {
          "city": "BISMARCK",
          "state": 29,
          "stateSpecified": true
        }
      ],
      "orgNm": "INVESTMENT CENTERS OF AMERICA, INC.",
      "orgPK": "16443",
      "regBeginDt": "2004-05-21T00:00:00",
      "regBeginDtSpecified": true,
      "regEndDt": "2004-08-25T00:00:00",
      "regEndDtSpecified": true
    },
    {
      "BrnchOfLocs": [
        {
          "city": "CHESTERTON",
          "state": 16,
          "stateSpecified": true
        },
        {
          "city": "LAPORTE",
          "state": 16,
          "stateSpecified": true
        },
        {
          "city": "LAPORTE",
          "state": 16,
          "stateSpecified": true
        },
        {
          "city": "LAPORTE",
          "state": 16,
          "stateSpecified": true
        },
        {
          "city": "LAPORTE",
          "state": 16,
          "stateSpecified": true
        },
        {
          "city": "LAPORTE",
          "state": 16,
          "stateSpecified": true
        },
        {
          "city": "MICHIGAN CITY",
          "state": 16,
          "stateSpecified": true
        }
      ],
      "orgNm": "INVEST FINANCIAL CORPORATION",
      "orgPK": "12984",
      "regBeginDt": "2004-09-13T00:00:00",
      "regBeginDtSpecified": true,
      "regEndDt": "2008-07-21T00:00:00",
      "regEndDtSpecified": true
    }
  ],
  "EmpHss": [
    {
      "fromDt": "09/2004",
      "toDt": "07/2008",
      "orgNm": "INVEST FINANCIAL CORP",
      "city": "LAPORTE",
      "state": 16,
      "stateSpecified": true
    },
    {
      "fromDt": "09/2004",
      "toDt": "07/2008",
      "orgNm": "LAPORTE SAVINGS BANK",
      "city": "LAPORTE",
      "state": 16,
      "stateSpecified": true
    },
    {
      "fromDt": "08/2008",
      "toDt": null,
      "orgNm": "MONEY CONCEPTS CAPITAL CORP",
      "city": "PALM BEACH GARDENS",
      "state": 9,
      "stateSpecified": true
    }
  ],
  "OthrBuss": {
    "OthrBus": null
  },
  "DRPs": []
}