{
  "Info": {
    "lastNm": "FRZOP",
    "firstNm": "CAROLYN",
    "midNm": "ANN",
    "sufNm": null,
    "indvlPK": "1778610",
    "actvAGReg": 0,
    "link": "http://www.adviserinfo.sec.gov/IAPD/Individual/1778610"
  },
  "OthrNms": [
    {
      "lastNm": "FRZOP",
      "firstNm": "CAROLYN",
      "midNm": null,
      "sufNm": null
    }
  ],
  "CrntEmps": [
    {
      "CrntRgstns": [
        {
          "regAuth": 6,
          "regCat": 0,
          "st": 2,
          "stDt": "1990-09-14T00:00:00"
        }
      ],
      "BrnchOfLocs": [
        {
          "str1": "800 POST ROAD",
          "str2": "2ND FLOOR",
          "city": "DARIEN",
          "state": 6,
          "stateSpecified": true,
          "cntry": "United States",
          "postlCd": "06820"
        }
      ],
      "orgNm": "JANNEY MONTGOMERY SCOTT LLC",
      "orgPK": "463",
      "str1": "1717 ARCH STREET",
      "str2": null,
      "city": "PHILADELPHIA",
      "state": 39,
      "stateSpecified": true,
      "cntry": "United States",
      "postlCd": "19103"
    }
  ],
  "Exms": [
    {
      "exmCd": 0,
      "exmNm": "Uniform Securities Agent State Law Examination",
      "exmDt": "1989-10-10T00:00:00",
      "exmDtSpecified": true
    }
  ],
  "Dsgntns": [],
  "PrevRgstns": [],
  "EmpHss": [
    {
      "fromDt": "11/1987",
      "toDt": null,
      "orgNm": "JANNEY MONTGOMERY SCOTT INC.",
      "city": "FAIRFIELD",
      "state": 6,
      "stateSpecified": true
    }
  ],
  "OthrBuss": {
    "OthrBus": null
  },
  "DRPs": [
    {
      "hasRegAction": 1,
      "hasRegActionSpecified": true,
      "hasCriminal": 1,
      "hasCriminalSpecified": true,
      "hasBankrupt": 1,
      "hasBankruptSpecified": true,
      "hasCivilJudc": 1,
      "hasCivilJudcSpecified": true,
      "hasBond": 1,
      "hasBondSpecified": true,
      "hasJudgment": 1,
      "hasJudgmentSpecified": true,
      "hasInvstgn": 1,
      "hasInvstgnSpecified": true,
      "hasCustComp": 0,
      "hasCustCompSpecified": true,
      "hasTermination": 1,
      "hasTerminationSpecified": true
    }
  ]
}