{
  "Info": {
    "lastNm": "DECARLO",
    "firstNm": "SANDRA",
    "midNm": "LYNN",
    "sufNm": null,
    "indvlPK": "1785168",
    "actvAGReg": 0,
    "link": "http://www.adviserinfo.sec.gov/IAPD/Individual/1785168"
  },
  "OthrNms": [
    {
      "lastNm": "DECARLO",
      "firstNm": "SANDRA",
      "midNm": null,
      "sufNm": null
    },
    {
      "lastNm": "DECARLO",
      "firstNm": "SANDY",
      "midNm": null,
      "sufNm": null
    },
    {
      "lastNm": "PATTON",
      "firstNm": "SANDRA",
      "midNm": "LYNN",
      "sufNm": null
    }
  ],
  "CrntEmps": [
    {
      "CrntRgstns": [
        {
          "regAuth": 45,
          "regCat": 0,
          "st": 3,
          "stDt": "2000-01-05T00:00:00"
        },
        {
          "regAuth": 23,
          "regCat": 0,
          "st": 2,
          "stDt": "2011-10-11T00:00:00"
        }
      ],
      "BrnchOfLocs": [
        {
          "str1": "250 MONROE AVE NW",
          "str2": null,
          "city": "GRAND RAPIDS",
          "state": 23,
          "stateSpecified": true,
          "cntry": "United States",
          "postlCd": "49503"
        }
      ],
      "orgNm": "MERRILL LYNCH, PIERCE, FENNER & SMITH INCORPORATED",
      "orgPK": "7691",
      "str1": "ONE BRYANT PARK",
      "str2": null,
      "city": "NEW YORK",
      "state": 35,
      "stateSpecified": true,
      "cntry": "United States",
      "postlCd": "10036"
    }
  ],
  "Exms": [
    {
      "exmCd": 0,
      "exmNm": "Uniform Securities Agent State Law Examination",
      "exmDt": "1990-02-02T00:00:00",
      "exmDtSpecified": true
    },
    {
      "exmCd": 3,
      "exmNm": "Uniform Combined State Law Examination",
      "exmDt": "2011-09-30T00:00:00",
      "exmDtSpecified": true
    }
  ],
  "Dsgntns": [],
  "PrevRgstns": [],
  "EmpHss": [
    {
      "fromDt": "06/1984",
      "toDt": null,
      "orgNm": "MERRILL LYNCH, PIERCE, FENNER & SMITH INCORPORATED",
      "city": "GRAND RAPIDS",
      "state": 23,
      "stateSpecified": true
    }
  ],
  "OthrBuss": {
    "OthrBus": {
      "desc": "I*21835 FOR PROFIT OR NOT FOR PROFIT: FOR-PROFIT ORGANIZATION  NAME OF OUTSIDE BUSINESS ORGANIZATION: SMITH OWEN SEWING CENTER  INVESTMENT RELATED: N  ADDRESS OF BUSINESS:   4051 PLAINFIELD NE,   GRAND RAPIDS, MICHIGAN 49525  NATURE OF BUSINESS: OTHER, TEACHER  POSITION, TITLE, ASSOCIATION: PART-TIME,   START DATE OF RELATIONSHIP: 4/24/2010  NUMBER OF HOURS DEVOTED: 10 HOUR(S) MONTHLY  NUMBER OF HOURS DEVOTED DURING TRADING HOURS: 0  DUTIES: TEACHING QUILT CLASSES"
    }
  },
  "DRPs": []
}