{
  "Info": {
    "lastNm": "REYES",
    "firstNm": "IDANIA",
    "midNm": "DANIELLE",
    "sufNm": null,
    "indvlPK": "1795959",
    "actvAGReg": 0,
    "link": "http://www.adviserinfo.sec.gov/IAPD/Individual/1795959"
  },
  "OthrNms": [
    {
      "lastNm": "FORSYTH",
      "firstNm": "IDANIA",
      "midNm": "REYES",
      "sufNm": null
    },
    {
      "lastNm": "REYES",
      "firstNm": "IDANIA",
      "midNm": null,
      "sufNm": null
    }
  ],
  "CrntEmps": [
    {
      "CrntRgstns": [
        {
          "regAuth": 45,
          "regCat": 0,
          "st": 2,
          "stDt": "2015-06-24T00:00:00"
        }
      ],
      "BrnchOfLocs": [
        {
          "str1": "4444 WESTHEIMER",
          "str2": "SUITE G500",
          "city": "HOUSTON",
          "state": 45,
          "stateSpecified": true,
          "cntry": "United States",
          "postlCd": "77027"
        }
      ],
      "orgNm": "USCA RIA LLC",
      "orgPK": "152170",
      "str1": "4444 WESTHEIMER",
      "str2": "SUITE G500",
      "city": "HOUSTON",
      "state": 45,
      "stateSpecified": true,
      "cntry": "United States",
      "postlCd": "77027"
    }
  ],
  "Exms": [
    {
      "exmCd": 3,
      "exmNm": "Uniform Combined State Law Examination",
      "exmDt": "2012-04-09T00:00:00",
      "exmDtSpecified": true
    }
  ],
  "Dsgntns": [],
  "PrevRgstns": [
    {
      "BrnchOfLocs": [
        {
          "city": "HOUSTON",
          "state": 45,
          "stateSpecified": true
        }
      ],
      "orgNm": "UBS FINANCIAL SERVICES INC.",
      "orgPK": "8174",
      "regBeginDt": "2012-04-10T00:00:00",
      "regBeginDtSpecified": true,
      "regEndDt": "2015-07-06T00:00:00",
      "regEndDtSpecified": true
    }
  ],
  "EmpHss": [
    {
      "fromDt": "01/1988",
      "toDt": "04/2008",
      "orgNm": "A I M DISTRIBUTORS, INC.",
      "city": "HOUSTON",
      "state": 45,
      "stateSpecified": true
    },
    {
      "fromDt": "01/2006",
      "toDt": null,
      "orgNm": "HMI GROUNDWATER",
      "city": "HOUSTON",
      "state": 45,
      "stateSpecified": true
    },
    {
      "fromDt": "02/2008",
      "toDt": null,
      "orgNm": "T2 ENVIRONMENTAL",
      "city": "HOUSTON",
      "state": 45,
      "stateSpecified": true
    },
    {
      "fromDt": "07/2008",
      "toDt": "06/2015",
      "orgNm": "UBS FINANCIAL SERVICES INC.",
      "city": "HOUSTON",
      "state": 45,
      "stateSpecified": true
    },
    {
      "fromDt": "06/2015",
      "toDt": null,
      "orgNm": "USCA SECURITIES LLC",
      "city": "HOUSTON",
      "state": 45,
      "stateSpecified": true
    }
  ],
  "OthrBuss": {
    "OthrBus": {
      "desc": "HMI GROUNDWATER; NOT INVESTMENT RELATED; 1919 W. SAM HOUSTON PKY, STE 203; PROVIDE GROUNDWATER MONITORING IMPLEMENTATIONS; AUTOCAD OPERATOR; START: 1/2006; 15-25HRS/MO NOT DURING TRADING HOURS; RESPONSIBLE FOR REVISIONS AND CORRECTIONS TO SITE DRAWINGS USING THE AUTOCAD SOFTWARE.####T2 ENVIRONMENTAL; NOT INVESTMENT RELATED; 10334 BRIAR DR, HOUSTON, 77042; ENVIRONMENTAL & GROUNDWATER MONTORING; AUTO CAD DRAFTER; START: 2/2008; 10-15HRS/PER MO; NOT DURING TRADING HOURS; PLOT, REVISE AND CORRECT SITE DRAWINGS USING AUTO CAD SOFTWARE.  ALFONZO NONES RESTAURANT GROUP, SPANISH RESTAURANT, SECRETARY, 5 HRS A MONTH; NOT DURING TRADING HOURS; UPDATE WEBSITE CONTENT WHEN APPLICABLE."
    }
  },
  "DRPs": []
}