{
  "Info": {
    "lastNm": "CHANOSKI",
    "firstNm": "JOHN",
    "midNm": "CARL",
    "sufNm": null,
    "indvlPK": "1796030",
    "actvAGReg": 0,
    "link": "http://www.adviserinfo.sec.gov/IAPD/Individual/1796030"
  },
  "OthrNms": [
    {
      "lastNm": "CHANOSKI",
      "firstNm": "JACK",
      "midNm": "CARL",
      "sufNm": null
    }
  ],
  "CrntEmps": [
    {
      "CrntRgstns": [
        {
          "regAuth": 21,
          "regCat": 0,
          "st": 2,
          "stDt": "2006-02-21T00:00:00"
        },
        {
          "regAuth": 9,
          "regCat": 0,
          "st": 2,
          "stDt": "2015-08-26T00:00:00"
        }
      ],
      "BrnchOfLocs": [
        {
          "str1": "205 EAST JOPPA ROAD",
          "str2": "SUITE 108",
          "city": "TOWSON",
          "state": 21,
          "stateSpecified": true,
          "cntry": "United States",
          "postlCd": "21286"
        },
        {
          "str1": "5811 ATLANTIC BOULEVARD",
          "str2": "UNIT # 95",
          "city": "JACKSONVILLE",
          "state": 9,
          "stateSpecified": true,
          "cntry": "United States",
          "postlCd": "32207"
        }
      ],
      "orgNm": "1ST GLOBAL ADVISORS INC",
      "orgPK": "111133",
      "str1": "12750 MERIT DRIVE",
      "str2": "SUITE 1200",
      "city": "DALLAS",
      "state": 45,
      "stateSpecified": true,
      "cntry": "United States",
      "postlCd": "75251"
    }
  ],
  "Exms": [
    {
      "exmCd": 2,
      "exmNm": "Uniform Investment Adviser Law Examination",
      "exmDt": "2003-04-02T00:00:00",
      "exmDtSpecified": true
    },
    {
      "exmCd": 0,
      "exmNm": "Uniform Securities Agent State Law Examination",
      "exmDt": "2004-10-29T00:00:00",
      "exmDtSpecified": true
    }
  ],
  "Dsgntns": [
    {
      "dsgntnNm": "Certified Financial Planner"
    }
  ],
  "PrevRgstns": [],
  "EmpHss": [
    {
      "fromDt": "05/1993",
      "toDt": null,
      "orgNm": "1ST GLOBAL CAPITAL CORP.",
      "city": "TOWSON",
      "state": 21,
      "stateSpecified": true
    },
    {
      "fromDt": "11/2002",
      "toDt": null,
      "orgNm": "CHANOSKI & ASSOCIATES",
      "city": "TOWSON",
      "state": 21,
      "stateSpecified": true
    },
    {
      "fromDt": "08/2004",
      "toDt": null,
      "orgNm": "1ST GLOBAL INSURANCE SERVICES",
      "city": "JACKSONVILLE",
      "state": 9,
      "stateSpecified": true
    },
    {
      "fromDt": "02/2006",
      "toDt": null,
      "orgNm": "1ST GLOBAL ADVISORS, INC.",
      "city": "JACKSONVILLE",
      "state": 9,
      "stateSpecified": true
    }
  ],
  "OthrBuss": {
    "OthrBus": {
      "desc": "1) BATEMAN'S GUEST HOME, LLC;NON INV REL; RESIDENTIAL RENTAL-SMALL ASSISTED LIVING HOME; 50% OWNER; 5/93; 20 HR/MO;GENERAL MGMT, HIRING/FIRING STAFF, MENU/FOOD ORDERING REVIEW, TAX & BUSINESS FILING & LICENSING COMPLIANCE  2) BOWLEYS CONDO MARINA, INC, 1/2 INTEREST IN 2 BOAT SLIPS IN MARINA, PURCHASED SLIPS IN 06/04, BEGAN RENTALS IN 2005, 0HR/MO  3) RENT OFFICE SPACE TO CPA/ATTORNEY OF BLDG 100% OWNED SINCE 1985, 0HR/MO  4) M.R. REVOCABLE TRUST; NON-INVESTMENT RELATED; TRUST COLLECTS MONEY AND GIVES INCOME TO BENEFICIARIES; CO-TRUSTEE  5) ESTATE OF ELIZABETH E. CHANOSKI, INVESTMENT RELATED, CHECK SIGNING, TOWSON, MD, CO-PERSONAL REP, MY MOTHER, ELIZABETH E. CHANOSKI, DIED AND MY BROTHER AND I ARE CO-P.R. OF ESTATE, 01/01/2015, 2 HRS/MO, 30 MIN A MO/TRADE, CO-P.R.  5) T.E.M. Special Needs Trust; investment related; Towson, MD; The trust ownes 2 mutual funds.  Dividends and capital gains are automatically reinvested.; Trustee; 07/16/2004; 1/12th of an hour; 5 trading minutes every other day; I file the annual federal and MD fiduciary tax returns.  The trust does not have any bank accounts.  About once every two years the grantor (father ) of Thomas Mason asks me for a check from one of the funds to pay/or reimburse him for some of Thomas's expenses."
    }
  },
  "DRPs": [
    {
      "hasRegAction": 1,
      "hasRegActionSpecified": true,
      "hasCriminal": 1,
      "hasCriminalSpecified": true,
      "hasBankrupt": 1,
      "hasBankruptSpecified": true,
      "hasCivilJudc": 1,
      "hasCivilJudcSpecified": true,
      "hasBond": 1,
      "hasBondSpecified": true,
      "hasJudgment": 0,
      "hasJudgmentSpecified": true,
      "hasInvstgn": 1,
      "hasInvstgnSpecified": true,
      "hasCustComp": 1,
      "hasCustCompSpecified": true,
      "hasTermination": 1,
      "hasTerminationSpecified": true
    }
  ]
}