{
  "Info": {
    "lastNm": "CHIASSON",
    "firstNm": "ANTHONY",
    "midNm": "LINCOLN",
    "sufNm": null,
    "indvlPK": "1798102",
    "actvAGReg": 0,
    "link": "http://www.adviserinfo.sec.gov/IAPD/Individual/1798102"
  },
  "OthrNms": [
    {
      "lastNm": "CHIASSON",
      "firstNm": "TONY",
      "midNm": null,
      "sufNm": null
    }
  ],
  "CrntEmps": [
    {
      "CrntRgstns": [
        {
          "regAuth": 4,
          "regCat": 0,
          "st": 2,
          "stDt": "2015-02-19T00:00:00"
        }
      ],
      "BrnchOfLocs": [
        {
          "str1": "27101 PUERTA REAL STE 160",
          "str2": null,
          "city": "MISSION VIEJO",
          "state": 4,
          "stateSpecified": true,
          "cntry": "United States",
          "postlCd": "92691"
        }
      ],
      "orgNm": "STRATEGIC ADVISERS, INC.",
      "orgPK": "104555",
      "str1": "245 SUMMER STREET, V10G",
      "str2": null,
      "city": "BOSTON",
      "state": 20,
      "stateSpecified": true,
      "cntry": "United States",
      "postlCd": "02210"
    }
  ],
  "Exms": [
    {
      "exmCd": 0,
      "exmNm": "Uniform Securities Agent State Law Examination",
      "exmDt": "1991-03-04T00:00:00",
      "exmDtSpecified": true
    },
    {
      "exmCd": 2,
      "exmNm": "Uniform Investment Adviser Law Examination",
      "exmDt": "2007-07-12T00:00:00",
      "exmDtSpecified": true
    }
  ],
  "Dsgntns": [],
  "PrevRgstns": [
    {
      "BrnchOfLocs": [
        {
          "city": "SAN DIEGO",
          "state": 4,
          "stateSpecified": true
        }
      ],
      "orgNm": "LPL FINANCIAL LLC",
      "orgPK": "6413",
      "regBeginDt": "2003-01-23T00:00:00",
      "regBeginDtSpecified": true,
      "regEndDt": "2005-03-10T00:00:00",
      "regEndDtSpecified": true
    },
    {
      "BrnchOfLocs": [
        {
          "city": "10616 S EASTERN AVE",
          "state": 34,
          "stateSpecified": true
        },
        {
          "city": "1260 E ONTARIO AVE",
          "state": 4,
          "stateSpecified": true
        },
        {
          "city": "ADELANTO",
          "state": 4,
          "stateSpecified": true
        },
        {
          "city": "AGOURA HILLS",
          "state": 4,
          "stateSpecified": true
        },
        {
          "city": "AGOURA HILLS",
          "state": 4,
          "stateSpecified": true
        },
        {
          "city": "ALISO VIEJO",
          "state": 4,
          "stateSpecified": true
        },
        {
          "city": "ANAHEIM",
          "state": 4,
          "stateSpecified": true
        },
        {
          "city": "ANAHEIM",
          "state": 4,
          "stateSpecified": true
        },
        {
          "city": "ANAHEIM HILLS",
          "state": 4,
          "stateSpecified": true
        },
        {
          "city": "APACHE JUNCTION",
          "state": 3,
          "stateSpecified": true
        },
        {
          "city": "APPLE VALLEY",
          "state": 4,
          "stateSpecified": true
        },
        {
          "city": "APPLE VALLEY",
          "state": 4,
          "stateSpecified": true
        },
        {
          "city": "APPLE VALLEY",
          "state": 4,
          "stateSpecified": true
        },
        {
          "city": "ARCADIA",
          "state": 4,
          "stateSpecified": true
        },
        {
          "city": "ARCADIA",
          "state": 4,
          "stateSpecified": true
        },
        {
          "city": "ARLETA",
          "state": 4,
          "stateSpecified": true
        },
        {
          "city": "ARROYO GRANDE",
          "state": 4,
          "stateSpecified": true
        },
        {
          "city": "ATASCADERO",
          "state": 4,
          "stateSpecified": true
        },
        {
          "city": "BAKERSFIELD",
          "state": 4,
          "stateSpecified": true
        },
        {
          "city": "BANNING",
          "state": 4,
          "stateSpecified": true
        },
        {
          "city": "BEAUMONT",
          "state": 4,
          "stateSpecified": true
        },
        {
          "city": "BELLFLOWER",
          "state": 4,
          "stateSpecified": true
        },
        {
          "city": "BERMUDA DUNES",
          "state": 4,
          "stateSpecified": true
        },
        {
          "city": "BREA",
          "state": 4,
          "stateSpecified": true
        },
        {
          "city": "BULLHEAD CITY",
          "state": 3,
          "stateSpecified": true
        },
        {
          "city": "BURBANK",
          "state": 4,
          "stateSpecified": true
        },
        {
          "city": "BURBANK",
          "state": 4,
          "stateSpecified": true
        },
        {
          "city": "BURBANK",
          "state": 4,
          "stateSpecified": true
        },
        {
          "city": "BURBANK",
          "state": 4,
          "stateSpecified": true
        },
        {
          "city": "CAMARILLO",
          "state": 4,
          "stateSpecified": true
        },
        {
          "city": "CAMPBELL",
          "state": 4,
          "stateSpecified": true
        },
        {
          "city": "CANOGA PARK",
          "state": 4,
          "stateSpecified": true
        },
        {
          "city": "CANOGA PARK",
          "state": 4,
          "stateSpecified": true
        },
        {
          "city": "CARLSBAD",
          "state": 4,
          "stateSpecified": true
        },
        {
          "city": "CARSON",
          "state": 4,
          "stateSpecified": true
        },
        {
          "city": "CARSON CITY",
          "state": 34,
          "stateSpecified": true
        },
        {
          "city": "CARSON CITY",
          "state": 34,
          "stateSpecified": true
        },
        {
          "city": "CASA GRANDE",
          "state": 3,
          "stateSpecified": true
        },
        {
          "city": "CASTAIC",
          "state": 4,
          "stateSpecified": true
        },
        {
          "city": "CATHEDRAL CITY",
          "state": 4,
          "stateSpecified": true
        },
        {
          "city": "CAVE CREEK",
          "state": 3,
          "stateSpecified": true
        },
        {
          "city": "CENTURY CITY",
          "state": 4,
          "stateSpecified": true
        },
        {
          "city": "CERRITOS",
          "state": 4,
          "stateSpecified": true
        },
        {
          "city": "CHANDLER",
          "state": 3,
          "stateSpecified": true
        },
        {
          "city": "CHANDLER",
          "state": 3,
          "stateSpecified": true
        },
        {
          "city": "CHANDLER",
          "state": 3,
          "stateSpecified": true
        },
        {
          "city": "CHANDLER",
          "state": 3,
          "stateSpecified": true
        },
        {
          "city": "CHINO",
          "state": 4,
          "stateSpecified": true
        },
        {
          "city": "CHINO",
          "state": 4,
          "stateSpecified": true
        },
        {
          "city": "CHINO",
          "state": 4,
          "stateSpecified": true
        },
        {
          "city": "CHINO",
          "state": 4,
          "stateSpecified": true
        },
        {
          "city": "CHINO HILLS",
          "state": 4,
          "stateSpecified": true
        },
        {
          "city": "CHULA VISTA",
          "state": 4,
          "stateSpecified": true
        },
        {
          "city": "CHULA VISTA",
          "state": 4,
          "stateSpecified": true
        },
        {
          "city": "CHULA VISTA",
          "state": 4,
          "stateSpecified": true
        },
        {
          "city": "CLAREMONT",
          "state": 4,
          "stateSpecified": true
        },
        {
          "city": "CLAREMONT",
          "state": 4,
          "stateSpecified": true
        },
        {
          "city": "CORONA",
          "state": 4,
          "stateSpecified": true
        },
        {
          "city": "CORONA",
          "state": 4,
          "stateSpecified": true
        },
        {
          "city": "CORONA",
          "state": 4,
          "stateSpecified": true
        },
        {
          "city": "CORONA",
          "state": 4,
          "stateSpecified": true
        },
        {
          "city": "COSTA MESA",
          "state": 4,
          "stateSpecified": true
        },
        {
          "city": "COSTA MESA",
          "state": 4,
          "stateSpecified": true
        },
        {
          "city": "COSTA MESA",
          "state": 4,
          "stateSpecified": true
        },
        {
          "city": "COVINA",
          "state": 4,
          "stateSpecified": true
        },
        {
          "city": "CUDAHY",
          "state": 4,
          "stateSpecified": true
        },
        {
          "city": "CUPERTINO",
          "state": 4,
          "stateSpecified": true
        },
        {
          "city": "DANA POINT",
          "state": 4,
          "stateSpecified": true
        },
        {
          "city": "DANA POINT",
          "state": 4,
          "stateSpecified": true
        },
        {
          "city": "DAYTON",
          "state": 34,
          "stateSpecified": true
        },
        {
          "city": "DIAMOND BAR",
          "state": 4,
          "stateSpecified": true
        },
        {
          "city": "DOWNEY",
          "state": 4,
          "stateSpecified": true
        },
        {
          "city": "DOWNEY",
          "state": 4,
          "stateSpecified": true
        },
        {
          "city": "EL CAJON",
          "state": 4,
          "stateSpecified": true
        },
        {
          "city": "EL CAJON",
          "state": 4,
          "stateSpecified": true
        },
        {
          "city": "EL CAJON",
          "state": 4,
          "stateSpecified": true
        },
        {
          "city": "ELK GROVE",
          "state": 4,
          "stateSpecified": true
        },
        {
          "city": "ELKO",
          "state": 34,
          "stateSpecified": true
        },
        {
          "city": "ENCINITAS",
          "state": 4,
          "stateSpecified": true
        },
        {
          "city": "ENCINITAS",
          "state": 4,
          "stateSpecified": true
        },
        {
          "city": "ENCINO",
          "state": 4,
          "stateSpecified": true
        },
        {
          "city": "ENCINO",
          "state": 4,
          "stateSpecified": true
        },
        {
          "city": "ESCONDIDO",
          "state": 4,
          "stateSpecified": true
        },
        {
          "city": "FALLBROOK",
          "state": 4,
          "stateSpecified": true
        },
        {
          "city": "FALLON",
          "state": 34,
          "stateSpecified": true
        },
        {
          "city": "FLORENCE",
          "state": 3,
          "stateSpecified": true
        },
        {
          "city": "FONTANA",
          "state": 4,
          "stateSpecified": true
        },
        {
          "city": "FOUNTAIN VALLEY",
          "state": 4,
          "stateSpecified": true
        },
        {
          "city": "FOUNTAIN VALLEY",
          "state": 4,
          "stateSpecified": true
        },
        {
          "city": "FREMONT",
          "state": 4,
          "stateSpecified": true
        },
        {
          "city": "FULLERTON",
          "state": 4,
          "stateSpecified": true
        },
        {
          "city": "FULLERTON",
          "state": 4,
          "stateSpecified": true
        },
        {
          "city": "FULLERTON",
          "state": 4,
          "stateSpecified": true
        },
        {
          "city": "GARDENA",
          "state": 4,
          "stateSpecified": true
        },
        {
          "city": "GARDNERVILLE",
          "state": 34,
          "stateSpecified": true
        },
        {
          "city": "GILBERT",
          "state": 3,
          "stateSpecified": true
        },
        {
          "city": "GILBERT",
          "state": 3,
          "stateSpecified": true
        },
        {
          "city": "GILBERT",
          "state": 3,
          "stateSpecified": true
        },
        {
          "city": "GLENDALE",
          "state": 4,
          "stateSpecified": true
        },
        {
          "city": "GLENDORA",
          "state": 4,
          "stateSpecified": true
        },
        {
          "city": "GOLETA",
          "state": 4,
          "stateSpecified": true
        },
        {
          "city": "GRANADA HILLS",
          "state": 4,
          "stateSpecified": true
        },
        {
          "city": "HACIENDA HEIGHTS",
          "state": 4,
          "stateSpecified": true
        },
        {
          "city": "HACIENDA HEIGHTS",
          "state": 4,
          "stateSpecified": true
        },
        {
          "city": "HACIENDA HEIGHTS",
          "state": 4,
          "stateSpecified": true
        },
        {
          "city": "HEMET",
          "state": 4,
          "stateSpecified": true
        },
        {
          "city": "HENDERSON",
          "state": 34,
          "stateSpecified": true
        },
        {
          "city": "HENDERSON",
          "state": 34,
          "stateSpecified": true
        },
        {
          "city": "HENDERSON",
          "state": 34,
          "stateSpecified": true
        },
        {
          "city": "HENDERSON",
          "state": 34,
          "stateSpecified": true
        },
        {
          "city": "HENDERSON",
          "state": 34,
          "stateSpecified": true
        },
        {
          "city": "HENDERSON",
          "state": 34,
          "stateSpecified": true
        },
        {
          "city": "HENDERSON",
          "state": 34,
          "stateSpecified": true
        },
        {
          "city": "HENDERSON",
          "state": 34,
          "stateSpecified": true
        },
        {
          "city": "HENDERSON",
          "state": 34,
          "stateSpecified": true
        },
        {
          "city": "HENDERSON",
          "state": 34,
          "stateSpecified": true
        },
        {
          "city": "HENDERSON",
          "state": 34,
          "stateSpecified": true
        },
        {
          "city": "HESPERIA",
          "state": 4,
          "stateSpecified": true
        },
        {
          "city": "HESPERIA",
          "state": 4,
          "stateSpecified": true
        },
        {
          "city": "HUNTINGTON BEACH",
          "state": 4,
          "stateSpecified": true
        },
        {
          "city": "HUNTINGTON BEACH",
          "state": 4,
          "stateSpecified": true
        },
        {
          "city": "HUNTINGTON BEACH",
          "state": 4,
          "stateSpecified": true
        },
        {
          "city": "HUNTINGTON BEACH",
          "state": 4,
          "stateSpecified": true
        },
        {
          "city": "INCLINE VILLAGE",
          "state": 34,
          "stateSpecified": true
        },
        {
          "city": "INDIO",
          "state": 4,
          "stateSpecified": true
        },
        {
          "city": "INDIO",
          "state": 4,
          "stateSpecified": true
        },
        {
          "city": "INGLEWOOD",
          "state": 4,
          "stateSpecified": true
        },
        {
          "city": "IRVINE",
          "state": 4,
          "stateSpecified": true
        },
        {
          "city": "IRVINE",
          "state": 4,
          "stateSpecified": true
        },
        {
          "city": "KINGMAN",
          "state": 3,
          "stateSpecified": true
        },
        {
          "city": "LA CRESCENTA",
          "state": 4,
          "stateSpecified": true
        },
        {
          "city": "LA HABRA",
          "state": 4,
          "stateSpecified": true
        },
        {
          "city": "LA MESA",
          "state": 4,
          "stateSpecified": true
        },
        {
          "city": "LA MESA",
          "state": 4,
          "stateSpecified": true
        },
        {
          "city": "LA QUINTA",
          "state": 4,
          "stateSpecified": true
        },
        {
          "city": "LA QUINTA",
          "state": 4,
          "stateSpecified": true
        },
        {
          "city": "LA VERNE",
          "state": 4,
          "stateSpecified": true
        },
        {
          "city": "LAGUNA NIGUEL",
          "state": 4,
          "stateSpecified": true
        },
        {
          "city": "LAGUNA WOODS",
          "state": 4,
          "stateSpecified": true
        },
        {
          "city": "LAKE ELSINORE",
          "state": 4,
          "stateSpecified": true
        },
        {
          "city": "LAKE ELSINORE",
          "state": 4,
          "stateSpecified": true
        },
        {
          "city": "LAKE FOREST",
          "state": 4,
          "stateSpecified": true
        },
        {
          "city": "LAKE HAVASU CITY",
          "state": 3,
          "stateSpecified": true
        },
        {
          "city": "LAKEWOOD",
          "state": 4,
          "stateSpecified": true
        },
        {
          "city": "LANCASTER",
          "state": 4,
          "stateSpecified": true
        },
        {
          "city": "LANCASTER",
          "state": 4,
          "stateSpecified": true
        },
        {
          "city": "LANCASTER",
          "state": 4,
          "stateSpecified": true
        },
        {
          "city": "LANCASTER",
          "state": 4,
          "stateSpecified": true
        },
        {
          "city": "LAS VEGAS",
          "state": 34,
          "stateSpecified": true
        },
        {
          "city": "LAS VEGAS",
          "state": 34,
          "stateSpecified": true
        },
        {
          "city": "LAS VEGAS",
          "state": 34,
          "stateSpecified": true
        },
        {
          "city": "LAS VEGAS",
          "state": 34,
          "stateSpecified": true
        },
        {
          "city": "LAS VEGAS",
          "state": 34,
          "stateSpecified": true
        },
        {
          "city": "LAS VEGAS",
          "state": 34,
          "stateSpecified": true
        },
        {
          "city": "LAS VEGAS",
          "state": 34,
          "stateSpecified": true
        },
        {
          "city": "LAS VEGAS",
          "state": 34,
          "stateSpecified": true
        },
        {
          "city": "LAS VEGAS",
          "state": 34,
          "stateSpecified": true
        },
        {
          "city": "LAS VEGAS",
          "state": 34,
          "stateSpecified": true
        },
        {
          "city": "LAS VEGAS",
          "state": 34,
          "stateSpecified": true
        },
        {
          "city": "LAS VEGAS",
          "state": 34,
          "stateSpecified": true
        },
        {
          "city": "LAS VEGAS",
          "state": 34,
          "stateSpecified": true
        },
        {
          "city": "LAS VEGAS",
          "state": 34,
          "stateSpecified": true
        },
        {
          "city": "LAS VEGAS",
          "state": 34,
          "stateSpecified": true
        },
        {
          "city": "LAS VEGAS",
          "state": 34,
          "stateSpecified": true
        },
        {
          "city": "LAS VEGAS",
          "state": 34,
          "stateSpecified": true
        },
        {
          "city": "LAS VEGAS",
          "state": 34,
          "stateSpecified": true
        },
        {
          "city": "LAS VEGAS",
          "state": 34,
          "stateSpecified": true
        },
        {
          "city": "LAS VEGAS",
          "state": 34,
          "stateSpecified": true
        },
        {
          "city": "LAS VEGAS",
          "state": 34,
          "stateSpecified": true
        },
        {
          "city": "LAS VEGAS",
          "state": 34,
          "stateSpecified": true
        },
        {
          "city": "LAS VEGAS",
          "state": 34,
          "stateSpecified": true
        },
        {
          "city": "LAS VEGAS",
          "state": 34,
          "stateSpecified": true
        },
        {
          "city": "LAS VEGAS",
          "state": 34,
          "stateSpecified": true
        },
        {
          "city": "LAS VEGAS",
          "state": 34,
          "stateSpecified": true
        },
        {
          "city": "LAS VEGAS",
          "state": 34,
          "stateSpecified": true
        },
        {
          "city": "LAS VEGAS",
          "state": 34,
          "stateSpecified": true
        },
        {
          "city": "LAS VEGAS",
          "state": 34,
          "stateSpecified": true
        },
        {
          "city": "LAS VEGAS",
          "state": 34,
          "stateSpecified": true
        },
        {
          "city": "LAS VEGAS",
          "state": 34,
          "stateSpecified": true
        },
        {
          "city": "LAS VEGAS",
          "state": 34,
          "stateSpecified": true
        },
        {
          "city": "LAS VEGAS",
          "state": 34,
          "stateSpecified": true
        },
        {
          "city": "LAS VEGAS",
          "state": 34,
          "stateSpecified": true
        },
        {
          "city": "LAS VEGAS",
          "state": 34,
          "stateSpecified": true
        },
        {
          "city": "LAS VEGAS",
          "state": 34,
          "stateSpecified": true
        },
        {
          "city": "LAS VEGAS",
          "state": 34,
          "stateSpecified": true
        },
        {
          "city": "LONG BEACH",
          "state": 4,
          "stateSpecified": true
        },
        {
          "city": "LONG BEACH",
          "state": 4,
          "stateSpecified": true
        },
        {
          "city": "LONG BEACH",
          "state": 4,
          "stateSpecified": true
        },
        {
          "city": "LONG BEACH",
          "state": 4,
          "stateSpecified": true
        },
        {
          "city": "LONG BEACH",
          "state": 4,
          "stateSpecified": true
        },
        {
          "city": "LONG BEACH",
          "state": 4,
          "stateSpecified": true
        },
        {
          "city": "LONG BEACH",
          "state": 4,
          "stateSpecified": true
        },
        {
          "city": "LOS ALAMITOS",
          "state": 4,
          "stateSpecified": true
        },
        {
          "city": "LOS ALTOS",
          "state": 4,
          "stateSpecified": true
        },
        {
          "city": "LOS ANGELES",
          "state": 4,
          "stateSpecified": true
        },
        {
          "city": "LOS ANGELES",
          "state": 4,
          "stateSpecified": true
        },
        {
          "city": "LOS ANGELES",
          "state": 4,
          "stateSpecified": true
        },
        {
          "city": "LOS ANGELES",
          "state": 4,
          "stateSpecified": true
        },
        {
          "city": "LOS ANGELES",
          "state": 4,
          "stateSpecified": true
        },
        {
          "city": "LOS GATOS",
          "state": 4,
          "stateSpecified": true
        },
        {
          "city": "LOS OSOS",
          "state": 4,
          "stateSpecified": true
        },
        {
          "city": "LYNWOOD",
          "state": 4,
          "stateSpecified": true
        },
        {
          "city": "MALIBU",
          "state": 4,
          "stateSpecified": true
        },
        {
          "city": "MARINA DEL REY",
          "state": 4,
          "stateSpecified": true
        },
        {
          "city": "MARINA DEL REY",
          "state": 4,
          "stateSpecified": true
        },
        {
          "city": "MESA",
          "state": 3,
          "stateSpecified": true
        },
        {
          "city": "MESA",
          "state": 3,
          "stateSpecified": true
        },
        {
          "city": "MESA",
          "state": 3,
          "stateSpecified": true
        },
        {
          "city": "MESA",
          "state": 3,
          "stateSpecified": true
        },
        {
          "city": "MESA",
          "state": 3,
          "stateSpecified": true
        },
        {
          "city": "MESA",
          "state": 3,
          "stateSpecified": true
        },
        {
          "city": "MISSION HILLS",
          "state": 4,
          "stateSpecified": true
        },
        {
          "city": "MISSION VIEJO",
          "state": 4,
          "stateSpecified": true
        },
        {
          "city": "MISSION VIEJO",
          "state": 4,
          "stateSpecified": true
        },
        {
          "city": "MISSION VIEJO",
          "state": 4,
          "stateSpecified": true
        },
        {
          "city": "MONTCLAIR",
          "state": 4,
          "stateSpecified": true
        },
        {
          "city": "MORENO VALLEY",
          "state": 4,
          "stateSpecified": true
        },
        {
          "city": "MOUNTAIN VIEW",
          "state": 4,
          "stateSpecified": true
        },
        {
          "city": "MURRIETA",
          "state": 4,
          "stateSpecified": true
        },
        {
          "city": "MURRIETA",
          "state": 4,
          "stateSpecified": true
        },
        {
          "city": "NEWBURY PARK",
          "state": 4,
          "stateSpecified": true
        },
        {
          "city": "NEWPORT BEACH",
          "state": 4,
          "stateSpecified": true
        },
        {
          "city": "NORTH LAS VEGAS",
          "state": 34,
          "stateSpecified": true
        },
        {
          "city": "NORTH LAS VEGAS",
          "state": 34,
          "stateSpecified": true
        },
        {
          "city": "NORTH LAS VEGAS",
          "state": 34,
          "stateSpecified": true
        },
        {
          "city": "NORTH LAS VEGAS",
          "state": 34,
          "stateSpecified": true
        },
        {
          "city": "NORTH LAS VEGAS",
          "state": 34,
          "stateSpecified": true
        },
        {
          "city": "NORTH LAS VEGAS",
          "state": 34,
          "stateSpecified": true
        },
        {
          "city": "NORTH LAS VEGAS",
          "state": 34,
          "stateSpecified": true
        },
        {
          "city": "NORWALK",
          "state": 4,
          "stateSpecified": true
        },
        {
          "city": "NORWALK",
          "state": 4,
          "stateSpecified": true
        },
        {
          "city": "OCEANSIDE",
          "state": 4,
          "stateSpecified": true
        },
        {
          "city": "ONTARIO",
          "state": 4,
          "stateSpecified": true
        },
        {
          "city": "ONTARIO",
          "state": 4,
          "stateSpecified": true
        },
        {
          "city": "ONTARIO",
          "state": 4,
          "stateSpecified": true
        },
        {
          "city": "OXNARD",
          "state": 4,
          "stateSpecified": true
        },
        {
          "city": "OXNARD",
          "state": 4,
          "stateSpecified": true
        },
        {
          "city": "OXNARD",
          "state": 4,
          "stateSpecified": true
        },
        {
          "city": "PACIFIC PALISADES",
          "state": 4,
          "stateSpecified": true
        },
        {
          "city": "PAHRUMP",
          "state": 34,
          "stateSpecified": true
        },
        {
          "city": "PALM DESERT",
          "state": 4,
          "stateSpecified": true
        },
        {
          "city": "PALM DESERT",
          "state": 4,
          "stateSpecified": true
        },
        {
          "city": "PALM DESERT",
          "state": 4,
          "stateSpecified": true
        },
        {
          "city": "PALM SPRINGS",
          "state": 4,
          "stateSpecified": true
        },
        {
          "city": "PALMDALE",
          "state": 4,
          "stateSpecified": true
        },
        {
          "city": "PALMDALE",
          "state": 4,
          "stateSpecified": true
        },
        {
          "city": "PARAMOUNT",
          "state": 4,
          "stateSpecified": true
        },
        {
          "city": "PASO ROBLES",
          "state": 4,
          "stateSpecified": true
        },
        {
          "city": "PHOENIX",
          "state": 3,
          "stateSpecified": true
        },
        {
          "city": "PHOENIX",
          "state": 3,
          "stateSpecified": true
        },
        {
          "city": "PLACENTIA",
          "state": 4,
          "stateSpecified": true
        },
        {
          "city": "POMONA",
          "state": 4,
          "stateSpecified": true
        },
        {
          "city": "POMONA",
          "state": 4,
          "stateSpecified": true
        },
        {
          "city": "POWAY",
          "state": 4,
          "stateSpecified": true
        },
        {
          "city": "POWAY",
          "state": 4,
          "stateSpecified": true
        },
        {
          "city": "PRESCOTT",
          "state": 3,
          "stateSpecified": true
        },
        {
          "city": "PRESCOTT",
          "state": 3,
          "stateSpecified": true
        },
        {
          "city": "QUEEN CREEK",
          "state": 3,
          "stateSpecified": true
        },
        {
          "city": "RANCHO CUCAMONGA",
          "state": 4,
          "stateSpecified": true
        },
        {
          "city": "RANCHO CUCAMONGA",
          "state": 4,
          "stateSpecified": true
        },
        {
          "city": "RANCHO CUCAMONGA",
          "state": 4,
          "stateSpecified": true
        },
        {
          "city": "RANCHO CUCAMONGA",
          "state": 4,
          "stateSpecified": true
        },
        {
          "city": "RANCHO CUCAMONGA",
          "state": 4,
          "stateSpecified": true
        },
        {
          "city": "RANCHO CUCAMONGA",
          "state": 4,
          "stateSpecified": true
        },
        {
          "city": "RANCHO SANTA MARGARITA",
          "state": 4,
          "stateSpecified": true
        },
        {
          "city": "REDLANDS",
          "state": 4,
          "stateSpecified": true
        },
        {
          "city": "REDWOOD CITY",
          "state": 4,
          "stateSpecified": true
        },
        {
          "city": "RENO",
          "state": 34,
          "stateSpecified": true
        },
        {
          "city": "RENO",
          "state": 34,
          "stateSpecified": true
        },
        {
          "city": "RENO",
          "state": 34,
          "stateSpecified": true
        },
        {
          "city": "RENO",
          "state": 34,
          "stateSpecified": true
        },
        {
          "city": "RENO",
          "state": 34,
          "stateSpecified": true
        },
        {
          "city": "RIALTO",
          "state": 4,
          "stateSpecified": true
        },
        {
          "city": "RICHMOND",
          "state": 4,
          "stateSpecified": true
        },
        {
          "city": "RIVERSIDE",
          "state": 4,
          "stateSpecified": true
        },
        {
          "city": "RIVERSIDE",
          "state": 4,
          "stateSpecified": true
        },
        {
          "city": "RIVERSIDE",
          "state": 4,
          "stateSpecified": true
        },
        {
          "city": "RIVERSIDE",
          "state": 4,
          "stateSpecified": true
        },
        {
          "city": "ROCKLIN",
          "state": 4,
          "stateSpecified": true
        },
        {
          "city": "ROLLING HILLS ESTATES",
          "state": 4,
          "stateSpecified": true
        },
        {
          "city": "SACRAMENTO",
          "state": 4,
          "stateSpecified": true
        },
        {
          "city": "SAN BERNARDINO",
          "state": 4,
          "stateSpecified": true
        },
        {
          "city": "SAN BRUNO",
          "state": 4,
          "stateSpecified": true
        },
        {
          "city": "SAN CLEMENTE",
          "state": 4,
          "stateSpecified": true
        },
        {
          "city": "SAN DIEGO",
          "state": 4,
          "stateSpecified": true
        },
        {
          "city": "SAN DIEGO",
          "state": 4,
          "stateSpecified": true
        },
        {
          "city": "SAN DIEGO",
          "state": 4,
          "stateSpecified": true
        },
        {
          "city": "SAN DIEGO",
          "state": 4,
          "stateSpecified": true
        },
        {
          "city": "SAN DIEGO",
          "state": 4,
          "stateSpecified": true
        },
        {
          "city": "SAN DIEGO",
          "state": 4,
          "stateSpecified": true
        },
        {
          "city": "SAN DIEGO",
          "state": 4,
          "stateSpecified": true
        },
        {
          "city": "SAN DIEGO",
          "state": 4,
          "stateSpecified": true
        },
        {
          "city": "SAN DIEGO",
          "state": 4,
          "stateSpecified": true
        },
        {
          "city": "SAN DIEGO",
          "state": 4,
          "stateSpecified": true
        },
        {
          "city": "SAN DIEGO",
          "state": 4,
          "stateSpecified": true
        },
        {
          "city": "SAN DIEGO",
          "state": 4,
          "stateSpecified": true
        },
        {
          "city": "SAN DIEGO",
          "state": 4,
          "stateSpecified": true
        },
        {
          "city": "SAN DIMAS",
          "state": 4,
          "stateSpecified": true
        },
        {
          "city": "SAN DIMAS",
          "state": 4,
          "stateSpecified": true
        },
        {
          "city": "SAN JACINTO",
          "state": 4,
          "stateSpecified": true
        },
        {
          "city": "SAN JOSE",
          "state": 4,
          "stateSpecified": true
        },
        {
          "city": "SAN JOSE",
          "state": 4,
          "stateSpecified": true
        },
        {
          "city": "SAN LUIS OBISPO",
          "state": 4,
          "stateSpecified": true
        },
        {
          "city": "SAN LUIS OBISPO",
          "state": 4,
          "stateSpecified": true
        },
        {
          "city": "SAN MARCOS",
          "state": 4,
          "stateSpecified": true
        },
        {
          "city": "SAN MARCOS",
          "state": 4,
          "stateSpecified": true
        },
        {
          "city": "SAN YSIDRO",
          "state": 4,
          "stateSpecified": true
        },
        {
          "city": "SAN YSIDRO",
          "state": 4,
          "stateSpecified": true
        },
        {
          "city": "SANTA CLARA",
          "state": 4,
          "stateSpecified": true
        },
        {
          "city": "SANTA CLARITA",
          "state": 4,
          "stateSpecified": true
        },
        {
          "city": "SANTA FE SPRINGS",
          "state": 4,
          "stateSpecified": true
        },
        {
          "city": "SANTA MARIA",
          "state": 4,
          "stateSpecified": true
        },
        {
          "city": "SANTA MONICA",
          "state": 4,
          "stateSpecified": true
        },
        {
          "city": "SANTA MONICA",
          "state": 4,
          "stateSpecified": true
        },
        {
          "city": "SANTA MONICA",
          "state": 4,
          "stateSpecified": true
        },
        {
          "city": "SANTA MONICA",
          "state": 4,
          "stateSpecified": true
        },
        {
          "city": "SANTA ROSA",
          "state": 4,
          "stateSpecified": true
        },
        {
          "city": "SANTA ROSA",
          "state": 4,
          "stateSpecified": true
        },
        {
          "city": "SANTEE",
          "state": 4,
          "stateSpecified": true
        },
        {
          "city": "SARATOGA",
          "state": 4,
          "stateSpecified": true
        },
        {
          "city": "SCOTTSDALE",
          "state": 3,
          "stateSpecified": true
        },
        {
          "city": "SEAL BEACH",
          "state": 4,
          "stateSpecified": true
        },
        {
          "city": "SHERMAN OAKS",
          "state": 4,
          "stateSpecified": true
        },
        {
          "city": "SHERMAN OAKS",
          "state": 4,
          "stateSpecified": true
        },
        {
          "city": "SHERMAN OAKS",
          "state": 4,
          "stateSpecified": true
        },
        {
          "city": "SIMI VALLEY",
          "state": 4,
          "stateSpecified": true
        },
        {
          "city": "SIMI VALLEY",
          "state": 4,
          "stateSpecified": true
        },
        {
          "city": "SIMI VALLEY",
          "state": 4,
          "stateSpecified": true
        },
        {
          "city": "SIMI VALLEY",
          "state": 4,
          "stateSpecified": true
        },
        {
          "city": "SIMI VALLEY",
          "state": 4,
          "stateSpecified": true
        },
        {
          "city": "SOUTH LAKE TAHOE",
          "state": 4,
          "stateSpecified": true
        },
        {
          "city": "SPARKS",
          "state": 34,
          "stateSpecified": true
        },
        {
          "city": "SPARKS",
          "state": 34,
          "stateSpecified": true
        },
        {
          "city": "SPARKS",
          "state": 34,
          "stateSpecified": true
        },
        {
          "city": "SPARKS",
          "state": 34,
          "stateSpecified": true
        },
        {
          "city": "SPARKS",
          "state": 34,
          "stateSpecified": true
        },
        {
          "city": "SPARKS",
          "state": 34,
          "stateSpecified": true
        },
        {
          "city": "SPARKS",
          "state": 34,
          "stateSpecified": true
        },
        {
          "city": "STEVENSON RANCH",
          "state": 4,
          "stateSpecified": true
        },
        {
          "city": "SUN CITY",
          "state": 4,
          "stateSpecified": true
        },
        {
          "city": "SUNNYVALE",
          "state": 4,
          "stateSpecified": true
        },
        {
          "city": "SURPRISE",
          "state": 3,
          "stateSpecified": true
        },
        {
          "city": "TAHOE CITY",
          "state": 4,
          "stateSpecified": true
        },
        {
          "city": "TEMECULA",
          "state": 4,
          "stateSpecified": true
        },
        {
          "city": "TEMPE",
          "state": 3,
          "stateSpecified": true
        },
        {
          "city": "TEMPE",
          "state": 3,
          "stateSpecified": true
        },
        {
          "city": "THOUSAND OAKS",
          "state": 4,
          "stateSpecified": true
        },
        {
          "city": "THOUSAND OAKS",
          "state": 4,
          "stateSpecified": true
        },
        {
          "city": "THOUSAND OAKS",
          "state": 4,
          "stateSpecified": true
        },
        {
          "city": "THOUSAND OAKS",
          "state": 4,
          "stateSpecified": true
        },
        {
          "city": "TORRANCE",
          "state": 4,
          "stateSpecified": true
        },
        {
          "city": "TORRANCE",
          "state": 4,
          "stateSpecified": true
        },
        {
          "city": "TRUCKEE",
          "state": 4,
          "stateSpecified": true
        },
        {
          "city": "TUCSON",
          "state": 3,
          "stateSpecified": true
        },
        {
          "city": "TUCSON",
          "state": 3,
          "stateSpecified": true
        },
        {
          "city": "TUCSON",
          "state": 3,
          "stateSpecified": true
        },
        {
          "city": "TUCSON",
          "state": 3,
          "stateSpecified": true
        },
        {
          "city": "TUCSON",
          "state": 3,
          "stateSpecified": true
        },
        {
          "city": "TUCSON",
          "state": 3,
          "stateSpecified": true
        },
        {
          "city": "TUCSON",
          "state": 3,
          "stateSpecified": true
        },
        {
          "city": "TUCSON",
          "state": 3,
          "stateSpecified": true
        },
        {
          "city": "TUCSON",
          "state": 3,
          "stateSpecified": true
        },
        {
          "city": "TUCSON",
          "state": 3,
          "stateSpecified": true
        },
        {
          "city": "TUSCON",
          "state": 3,
          "stateSpecified": true
        },
        {
          "city": "TUSTIN",
          "state": 4,
          "stateSpecified": true
        },
        {
          "city": "TWENTYNINE PALMS",
          "state": 4,
          "stateSpecified": true
        },
        {
          "city": "UPLAND",
          "state": 4,
          "stateSpecified": true
        },
        {
          "city": "UPLAND",
          "state": 4,
          "stateSpecified": true
        },
        {
          "city": "VALENCIA",
          "state": 4,
          "stateSpecified": true
        },
        {
          "city": "VAN NUYS",
          "state": 4,
          "stateSpecified": true
        },
        {
          "city": "VENTURA",
          "state": 4,
          "stateSpecified": true
        },
        {
          "city": "VENTURA",
          "state": 4,
          "stateSpecified": true
        },
        {
          "city": "VICTORVILLE",
          "state": 4,
          "stateSpecified": true
        },
        {
          "city": "VICTORVILLE",
          "state": 4,
          "stateSpecified": true
        },
        {
          "city": "VICTORVILLE",
          "state": 4,
          "stateSpecified": true
        },
        {
          "city": "WEST HILLS",
          "state": 4,
          "stateSpecified": true
        },
        {
          "city": "WEST LOS ANGELES",
          "state": 4,
          "stateSpecified": true
        },
        {
          "city": "WESTLAKE VILLAGE",
          "state": 4,
          "stateSpecified": true
        },
        {
          "city": "WHITTIER",
          "state": 4,
          "stateSpecified": true
        },
        {
          "city": "WHITTIER",
          "state": 4,
          "stateSpecified": true
        },
        {
          "city": "WINNEMUCCA",
          "state": 34,
          "stateSpecified": true
        },
        {
          "city": "WOODLAND HILLS",
          "state": 4,
          "stateSpecified": true
        },
        {
          "city": "WOODLAND HILLS",
          "state": 4,
          "stateSpecified": true
        },
        {
          "city": "YORBA LINDA",
          "state": 4,
          "stateSpecified": true
        },
        {
          "city": "YORBA LINDA",
          "state": 4,
          "stateSpecified": true
        },
        {
          "city": "YUCAIPA",
          "state": 4,
          "stateSpecified": true
        },
        {
          "city": "YUCCA VALLEY",
          "state": 4,
          "stateSpecified": true
        },
        {
          "city": "YUCCA VALLEY",
          "state": 4,
          "stateSpecified": true
        }
      ],
      "orgNm": "U.S. BANCORP INVESTMENTS, INC.",
      "orgPK": "17868",
      "regBeginDt": "2005-11-17T00:00:00",
      "regBeginDtSpecified": true,
      "regEndDt": "2009-04-03T00:00:00",
      "regEndDtSpecified": true
    },
    {
      "BrnchOfLocs": [
        {
          "city": "BREA",
          "state": 4,
          "stateSpecified": true
        }
      ],
      "orgNm": "WADDELL & REED",
      "orgPK": "866",
      "regBeginDt": "2009-10-23T00:00:00",
      "regBeginDtSpecified": true,
      "regEndDt": "2010-11-22T00:00:00",
      "regEndDtSpecified": true
    },
    {
      "BrnchOfLocs": [
        {
          "city": "TUSTIN",
          "state": 4,
          "stateSpecified": true
        },
        {
          "city": "TUSTIN",
          "state": 4,
          "stateSpecified": true
        }
      ],
      "orgNm": "CUNA BROKERAGE SERVICES, INC.",
      "orgPK": "13941",
      "regBeginDt": "2011-01-06T00:00:00",
      "regBeginDtSpecified": true,
      "regEndDt": "2011-09-07T00:00:00",
      "regEndDtSpecified": true
    },
    {
      "BrnchOfLocs": [
        {
          "city": "FULLERTON",
          "state": 4,
          "stateSpecified": true
        },
        {
          "city": "LAKE FOREST",
          "state": 4,
          "stateSpecified": true
        },
        {
          "city": "LAKE FOREST",
          "state": 4,
          "stateSpecified": true
        }
      ],
      "orgNm": "QUEST CAPITAL STRATEGIES, INC.",
      "orgPK": "16783",
      "regBeginDt": "2013-09-04T00:00:00",
      "regBeginDtSpecified": true,
      "regEndDt": "2014-12-31T00:00:00",
      "regEndDtSpecified": true
    }
  ],
  "EmpHss": [
    {
      "fromDt": "02/2005",
      "toDt": "04/2009",
      "orgNm": "U.S. BANCORP INVESTMENTS, INC.",
      "city": "HACIENDA HEIGHTS",
      "state": 4,
      "stateSpecified": true
    },
    {
      "fromDt": "04/2009",
      "toDt": "10/2009",
      "orgNm": "UNEMPLOYED",
      "city": "FULLERTON",
      "state": 4,
      "stateSpecified": true
    },
    {
      "fromDt": "10/2009",
      "toDt": "11/2010",
      "orgNm": "VARIOUS INSURANCE CARRIERS FOR W&AMP;R INSURANCE AGENCIES, INC",
      "city": "FULLERTON",
      "state": 4,
      "stateSpecified": true
    },
    {
      "fromDt": "10/2009",
      "toDt": "11/2010",
      "orgNm": "WADDELL &AMP; REED, INC",
      "city": "BREA",
      "state": 4,
      "stateSpecified": true
    },
    {
      "fromDt": "12/2010",
      "toDt": "08/2011",
      "orgNm": "CUNA BROKERAGE SERVICES, INC.",
      "city": "WAVERLY",
      "state": 13,
      "stateSpecified": true
    },
    {
      "fromDt": "12/2010",
      "toDt": "08/2011",
      "orgNm": "SCHOOLSFIRST FEDERAL CREDIT UNION",
      "city": "TUSTIN",
      "state": 4,
      "stateSpecified": true
    },
    {
      "fromDt": "09/2011",
      "toDt": "08/2013",
      "orgNm": "UNEMPLOYED",
      "city": "FULLERTON",
      "state": 4,
      "stateSpecified": true
    },
    {
      "fromDt": "09/2013",
      "toDt": "01/2015",
      "orgNm": "QUEST CAPITAL STRATEGIES, INC.",
      "city": "LAKE FOREST",
      "state": 4,
      "stateSpecified": true
    },
    {
      "fromDt": "02/2015",
      "toDt": null,
      "orgNm": "FIDELITY BROKERAGE SERVICES LLC",
      "city": "MISSION VIEJO",
      "state": 4,
      "stateSpecified": true
    }
  ],
  "OthrBuss": {
    "OthrBus": null
  },
  "DRPs": []
}