{
  "Info": {
    "lastNm": "OBRIEN",
    "firstNm": "DAVID",
    "midNm": "LYNN",
    "sufNm": null,
    "indvlPK": "1810286",
    "actvAGReg": 0,
    "link": "http://www.adviserinfo.sec.gov/IAPD/Individual/1810286"
  },
  "OthrNms": [],
  "CrntEmps": [
    {
      "CrntRgstns": [
        {
          "regAuth": 39,
          "regCat": 0,
          "st": 2,
          "stDt": "2010-08-30T00:00:00"
        }
      ],
      "BrnchOfLocs": [
        {
          "str1": "One Adams Place Suite 130",
          "str2": "310 Seven Fields Blvd",
          "city": "Seven Fields",
          "state": 39,
          "stateSpecified": true,
          "cntry": "United States",
          "postlCd": "16046"
        }
      ],
      "orgNm": "MML INVESTORS SERVICES, LLC",
      "orgPK": "10409",
      "str1": "1295 STATE STREET",
      "str2": null,
      "city": "SPRINGFIELD",
      "state": 20,
      "stateSpecified": true,
      "cntry": "United States",
      "postlCd": "01111-0001"
    }
  ],
  "Exms": [
    {
      "exmCd": 0,
      "exmNm": "Uniform Securities Agent State Law Examination",
      "exmDt": "1988-03-30T00:00:00",
      "exmDtSpecified": true
    }
  ],
  "Dsgntns": [
    {
      "dsgntnNm": "Chartered Financial Consultant"
    }
  ],
  "PrevRgstns": [],
  "EmpHss": [
    {
      "fromDt": "01/1988",
      "toDt": null,
      "orgNm": "MASSMUTUAL LIFE INSURANCE COMPANY",
      "city": "Seven Fields",
      "state": 39,
      "stateSpecified": true
    },
    {
      "fromDt": "03/1988",
      "toDt": null,
      "orgNm": "MML INVESTORS SERVICES",
      "city": "Seven Fields",
      "state": 39,
      "stateSpecified": true
    }
  ],
  "OthrBuss": {
    "OthrBus": null
  },
  "DRPs": []
}