{
  "Info": {
    "lastNm": "GLASS",
    "firstNm": "MARTHA",
    "midNm": "R",
    "sufNm": null,
    "indvlPK": "1813533",
    "actvAGReg": 0,
    "link": "http://www.adviserinfo.sec.gov/IAPD/Individual/1813533"
  },
  "OthrNms": [
    {
      "lastNm": "GLASS",
      "firstNm": "SUE",
      "midNm": null,
      "sufNm": null
    },
    {
      "lastNm": "GLASS",
      "firstNm": "SUE",
      "midNm": "REPPOND",
      "sufNm": null
    },
    {
      "lastNm": "HOBSON",
      "firstNm": "MARTHA",
      "midNm": "REPPOND",
      "sufNm": null
    },
    {
      "lastNm": "REPPOND",
      "firstNm": "MARTHA",
      "midNm": "SUE",
      "sufNm": null
    }
  ],
  "CrntEmps": [
    {
      "CrntRgstns": [
        {
          "regAuth": 2,
          "regCat": 0,
          "st": 2,
          "stDt": "2003-10-27T00:00:00"
        },
        {
          "regAuth": 45,
          "regCat": 0,
          "st": 3,
          "stDt": "2009-01-12T00:00:00"
        },
        {
          "regAuth": 19,
          "regCat": 0,
          "st": 2,
          "stDt": "2015-01-21T00:00:00"
        }
      ],
      "BrnchOfLocs": [
        {
          "str1": "1809 GLENMAR",
          "str2": null,
          "city": "MONROE",
          "state": 19,
          "stateSpecified": true,
          "cntry": "United States",
          "postlCd": "71201"
        }
      ],
      "orgNm": "MERRILL LYNCH, PIERCE, FENNER & SMITH INCORPORATED",
      "orgPK": "7691",
      "str1": "ONE BRYANT PARK",
      "str2": null,
      "city": "NEW YORK",
      "state": 35,
      "stateSpecified": true,
      "cntry": "United States",
      "postlCd": "10036"
    }
  ],
  "Exms": [
    {
      "exmCd": 0,
      "exmNm": "Uniform Securities Agent State Law Examination",
      "exmDt": "1999-08-24T00:00:00",
      "exmDtSpecified": true
    },
    {
      "exmCd": 2,
      "exmNm": "Uniform Investment Adviser Law Examination",
      "exmDt": "2003-10-22T00:00:00",
      "exmDtSpecified": true
    }
  ],
  "Dsgntns": [],
  "PrevRgstns": [],
  "EmpHss": [
    {
      "fromDt": "02/1987",
      "toDt": null,
      "orgNm": "MERRILL LYNCH, PIERCE, FENNER & SMITH INCORPORATED",
      "city": "MONROE",
      "state": 19,
      "stateSpecified": true
    }
  ],
  "OthrBuss": {
    "OthrBus": {
      "desc": "I*27981 FOR PROFIT OR NOT FOR PROFIT: NON-PROFIT ORGANIZATION  NAME OF OUTSIDE BUSINESS ORGANIZATION: MOREHOUSE HUMANE SOCIETY  INVESTMENT RELATED: N  ADDRESS OF BUSINESS:   PO BOX 87,   BASTROP, LOUISIANA 71221  NATURE OF BUSINESS: CHARITABLE ORGANIZATION,  POSITION, TITLE, ASSOCIATION: DIRECTOR,   START DATE OF RELATIONSHIP: 7/1/2010  NUMBER OF HOURS DEVOTED: 4 HOUR(S) MONTHLY  NUMBER OF HOURS DEVOTED DURING TRADING HOURS: 0  DUTIES: ANIMAL RESCUE AND PLACEMENT....I SERVE AS A BOARD MEMBER."
    }
  },
  "DRPs": []
}