{
  "Info": {
    "lastNm": "FISHER",
    "firstNm": "ROBERT",
    "midNm": "THOMAS",
    "sufNm": "III",
    "indvlPK": "1824547",
    "actvAGReg": 0,
    "link": "http://www.adviserinfo.sec.gov/IAPD/Individual/1824547"
  },
  "OthrNms": [
    {
      "lastNm": "FISHER",
      "firstNm": "ROB",
      "midNm": null,
      "sufNm": "III"
    },
    {
      "lastNm": "FISHER",
      "firstNm": "ROBERT",
      "midNm": "THOMAS",
      "sufNm": "II"
    },
    {
      "lastNm": "FISHER",
      "firstNm": "ROBERT",
      "midNm": "THOMAS",
      "sufNm": "III"
    },
    {
      "lastNm": "FISHER",
      "firstNm": "ROBERT",
      "midNm": "THOMAS",
      "sufNm": "III"
    },
    {
      "lastNm": "FISHER",
      "firstNm": "ROBERT",
      "midNm": "THOMAS",
      "sufNm": "JR"
    }
  ],
  "CrntEmps": [
    {
      "CrntRgstns": [
        {
          "regAuth": 28,
          "regCat": 0,
          "st": 2,
          "stDt": "2005-08-10T00:00:00"
        },
        {
          "regAuth": 45,
          "regCat": 0,
          "st": 3,
          "stDt": "2015-01-21T00:00:00"
        }
      ],
      "BrnchOfLocs": [
        {
          "str1": "200 MEADOWMONT VILLAGE CIR",
          "str2": null,
          "city": "CHAPEL HILL",
          "state": 28,
          "stateSpecified": true,
          "cntry": "United States",
          "postlCd": "27517"
        }
      ],
      "orgNm": "WELLS FARGO ADVISORS, LLC",
      "orgPK": "19616",
      "str1": "ONE NORTH JEFFERSON AVENUE",
      "str2": "MAIL CODE: H0004-050",
      "city": "ST. LOUIS",
      "state": 25,
      "stateSpecified": true,
      "cntry": "United States",
      "postlCd": "63103-2205"
    }
  ],
  "Exms": [
    {
      "exmCd": 0,
      "exmNm": "Uniform Securities Agent State Law Examination",
      "exmDt": "1988-06-15T00:00:00",
      "exmDtSpecified": true
    },
    {
      "exmCd": 3,
      "exmNm": "Uniform Combined State Law Examination",
      "exmDt": "2005-08-08T00:00:00",
      "exmDtSpecified": true
    }
  ],
  "Dsgntns": [],
  "PrevRgstns": [],
  "EmpHss": [
    {
      "fromDt": "12/2005",
      "toDt": "05/2009",
      "orgNm": "WACHOVIA SECURITIES, LLC",
      "city": "CHAPEL HILL",
      "state": 28,
      "stateSpecified": true
    },
    {
      "fromDt": "05/2009",
      "toDt": null,
      "orgNm": "WELLS FARGO ADVISORS LLC",
      "city": "CHAPEL HILL",
      "state": 28,
      "stateSpecified": true
    }
  ],
  "OthrBuss": {
    "OthrBus": {
      "desc": "TRUSTEE-JEAN L. DAVIS, YOUR MOTHER, 50004 BROGDEN, CHAPEL HILL, NC 27517, DAVIS RESIDUARY TRUST (START 3/94) AND C. RICHARD PARSONS TRUST (START 2/02), INVESTMENT RELATED, 15 MIN/MTH, NO TIME DURING BUSINESS HOURS. RENTAL PROPERTY; NON INVESTMENT RELATED; CHAPEL HILL, NC; 100% OWNERSHIP;START 9/81; 1 HR PER MONTH 0 DURING TRADING"
    }
  },
  "DRPs": []
}