{
  "Info": {
    "lastNm": "WINNETT",
    "firstNm": "JANIS",
    "midNm": "KIBBIE",
    "sufNm": null,
    "indvlPK": "1825185",
    "actvAGReg": 0,
    "link": "http://www.adviserinfo.sec.gov/IAPD/Individual/1825185"
  },
  "OthrNms": [
    {
      "lastNm": "KIBBIE",
      "firstNm": "JANIS",
      "midNm": "IRENE",
      "sufNm": null
    },
    {
      "lastNm": "KIBBIE",
      "firstNm": "JANIS",
      "midNm": "ROWE",
      "sufNm": null
    },
    {
      "lastNm": "WINNETT",
      "firstNm": "JANIS",
      "midNm": null,
      "sufNm": null
    },
    {
      "lastNm": "WINNETT",
      "firstNm": "JANIS",
      "midNm": "K",
      "sufNm": null
    }
  ],
  "CrntEmps": [
    {
      "CrntRgstns": [
        {
          "regAuth": 4,
          "regCat": 0,
          "st": 2,
          "stDt": "2004-05-07T00:00:00"
        }
      ],
      "BrnchOfLocs": [
        {
          "str1": "1216 STATE STREET",
          "str2": "STE 300",
          "city": "SANTA BARBARA",
          "state": 4,
          "stateSpecified": true,
          "cntry": "United States",
          "postlCd": "93101"
        },
        {
          "str1": "1885 THE ALAMEDA",
          "str2": "SUITE 100A",
          "city": "SAN JOSE",
          "state": 4,
          "stateSpecified": true,
          "cntry": "United States",
          "postlCd": "95126"
        }
      ],
      "orgNm": "PARTNERVEST ADVISORY SERVICES LLC",
      "orgPK": "113621",
      "str1": "1216 STATE STREET",
      "str2": "STE 300",
      "city": "SANTA BARBARA",
      "state": 4,
      "stateSpecified": true,
      "cntry": "United States",
      "postlCd": "93101"
    }
  ],
  "Exms": [
    {
      "exmCd": 0,
      "exmNm": "Uniform Securities Agent State Law Examination",
      "exmDt": "1993-11-10T00:00:00",
      "exmDtSpecified": true
    },
    {
      "exmCd": 2,
      "exmNm": "Uniform Investment Adviser Law Examination",
      "exmDt": "1993-12-10T00:00:00",
      "exmDtSpecified": true
    }
  ],
  "Dsgntns": [],
  "PrevRgstns": [
    {
      "BrnchOfLocs": [
        {
          "city": "SAN JOSE",
          "state": 4,
          "stateSpecified": true
        }
      ],
      "orgNm": "IFMG SECURITIES, INC.",
      "orgPK": "14416",
      "regBeginDt": "2002-07-08T00:00:00",
      "regBeginDtSpecified": true,
      "regEndDt": "2004-05-12T00:00:00",
      "regEndDtSpecified": true
    }
  ],
  "EmpHss": [
    {
      "fromDt": "05/2004",
      "toDt": null,
      "orgNm": "PARTNERVEST ADVISORY SERVICES, LLC",
      "city": "SAN JOSE",
      "state": 4,
      "stateSpecified": true
    },
    {
      "fromDt": "05/2004",
      "toDt": "07/2009",
      "orgNm": "PARTNERVEST SECURITIES, INC.",
      "city": "SAN JOSE",
      "state": 4,
      "stateSpecified": true
    },
    {
      "fromDt": "07/2009",
      "toDt": null,
      "orgNm": "SORRENTO PACIFIC FINANCIAL, LLC",
      "city": "SAN JOSE",
      "state": 4,
      "stateSpecified": true
    }
  ],
  "OthrBuss": {
    "OthrBus": {
      "desc": "NAME OF THE OTHER BUSINESS: USANA HEALTH SERVICES       INVESTMENT-RELATED: NO   ADDRESS OF THE OTHER BUSINESS: 4335 CLEARPARK PLACE, SAN JOSE, CA 95136   YOUR POSITION OR TITLE: DISTRIBUTER        NATURE OF THE OTHER BUSINESS: PRIVATE       START DATE: 08/3/2009  APPROXIMATE NUMBER OF HOURS/MONTH: 0  APPROXIMATE NUMBER OF HOURS DURING TRADING HOURS: 0  BRIEFLY DESCRIBE YOUR DUTIES RELATING TO THE OTHER BUSINESS: CONSUME VITAMINS AND SKIN CARE PRODUCTS (PERSONAL USE)   COMPENSATION: YES       NAME OF THE OTHER BUSINESS: PARTNERVEST Advisory Services   INVESTMENT-RELATED: YES   ADDRESS OF THE OTHER BUSINESS: 1885 THE ALAMEDA SUITE 100A, SAN JOSE, CA 95126   YOUR POSITION OR TITLE: INVESTMENT ADVISOR      NATURE OF THE OTHER BUSINESS: INVESTMENT RELATED      START DATE: 08/03/2009  APPROXIMATE NUMBER OF HOURS/MONTH: 5  APPROXIMATE NUMBER OF HOURS DURING TRADING HOURS: 5  BRIEFLY DESCRIBE YOUR DUTIES RELATING TO THE OTHER BUSINESS: MANAGE ADVISORY ACCTS, PRODUCE FINANCIAL PLANS   COMPENSATION: YES       NAME OF THE OTHER BUSINESS: PARTNERVEST INSURANCE SERVICES       INVESTMENT-RELATED: YES   ADDRESS OF THE OTHER BUSINESS: 1885 THE ALAMEDA SUITE 100A, SAN JOSE, CA 95126   YOUR POSITION OR TITLE: INSURANCE AGENT       NATURE OF THE OTHER BUSINESS: INVESTMENT RELATED      START DATE: 08/03/2009  APPROXIMATE NUMBER OF HOURS/MONTH: 1  APPROXIMATE NUMBER OF HOURS DURING TRADING HOURS: 0  BRIEFLY DESCRIBE YOUR DUTIES RELATING TO THE OTHER BUSINESS: SALES OF FIXED, INDEX, LIFE, HEALTH, P&C INSURANCE PRODUCTS   COMPENSATION: YES     NAME OF THE OTHER BUSINESS: FAMILY RENTALS    INVESTMENT-RELATED: NO   ADDRESS OF THE OTHER BUSINESS: 1629 ARRONWOOD, HERMITAGE, TN   YOUR POSITION OR TITLE: CO-OWNER     NATURE OF THE OTHER BUSINESS: PRIVATE BUSINESS    START DATE: 06/01/2013  APPROXIMATE NUMBER OF HOURS/MONTH: 0  APPROXIMATE NUMBER OF HOURS DURING TRADING HOURS: 0  BRIEFLY DESCRIBE YOUR DUTIES RELATING TO THE OTHER BUSINESS: CO-SIGN CHECKS TO PAY MORTGAGE AND EXPENSES    COMPENSATION: NO"
    }
  },
  "DRPs": []
}