{
  "Info": {
    "lastNm": "REID",
    "firstNm": "GAIL",
    "midNm": "DIANE",
    "sufNm": null,
    "indvlPK": "1826816",
    "actvAGReg": 0,
    "link": "http://www.adviserinfo.sec.gov/IAPD/Individual/1826816"
  },
  "OthrNms": [],
  "CrntEmps": [
    {
      "CrntRgstns": [
        {
          "regAuth": 4,
          "regCat": 0,
          "st": 2,
          "stDt": "1997-12-15T00:00:00"
        },
        {
          "regAuth": 45,
          "regCat": 0,
          "st": 3,
          "stDt": "2006-10-05T00:00:00"
        }
      ],
      "BrnchOfLocs": [
        {
          "str1": "535 N BRAND BLVD",
          "str2": "SUITE 101",
          "city": "GLENDALE",
          "state": 4,
          "stateSpecified": true,
          "cntry": "United States",
          "postlCd": "91203"
        },
        {
          "str1": "535 N BRAND BLVD",
          "str2": "SUITE 101",
          "city": "GLENDALE",
          "state": 4,
          "stateSpecified": true,
          "cntry": "United States",
          "postlCd": "91203"
        }
      ],
      "orgNm": "AMERIPRISE FINANCIAL SERVICES, INC.",
      "orgPK": "6363",
      "str1": "707 2ND AVENUE SOUTH",
      "str2": null,
      "city": "MINNEAPOLIS",
      "state": 24,
      "stateSpecified": true,
      "cntry": "United States",
      "postlCd": "55402"
    }
  ],
  "Exms": [
    {
      "exmCd": 0,
      "exmNm": "Uniform Securities Agent State Law Examination",
      "exmDt": "1998-08-31T00:00:00",
      "exmDtSpecified": true
    }
  ],
  "Dsgntns": [],
  "PrevRgstns": [],
  "EmpHss": [
    {
      "fromDt": "04/1988",
      "toDt": null,
      "orgNm": "AMERICAN EXPRESS FINANCIAL ADVISORS INC.",
      "city": "GLENDALE",
      "state": 4,
      "stateSpecified": true
    },
    {
      "fromDt": "04/1988",
      "toDt": null,
      "orgNm": "IDS LIFE INSURANCE COMPANY",
      "city": "MINNEAPOLIS",
      "state": 24,
      "stateSpecified": true
    }
  ],
  "OthrBuss": {
    "OthrBus": {
      "desc": "REAL ESTATE OWNERSHIP; SINGLE FAMILY ; CA 93546; not Investment Related; MAY 2004.   BUSINESS OWNERSHIP ; RGA ASSOCIATES LLC; CO-OWNER; PRACTICE MANAGEMENT; GLENDALE, CA 91203; not Investment Related; JANUARY 2003; 10-19 HOURS PER MONTH; 1-9 during trading hours.    OUTSIDE EMPLOYMENT ; RGA ASSOCIATES LLC; CONSULTANT; Consulting; GLENDALE, CA 91203; not Investment Related; JANUARY 2003; 10-19 HOURS PER MONTH; 1-9 during trading hours.    INDEPENDENT INSURANCE BROKERING; ANTHEM BLUE CROSS; April 1994.    INDEPENDENT INSURANCE BROKERING; UNION SECURITY; June 1989.    INDEPENDENT INSURANCE BROKERING; ALLSTATE LIFE INSURANCE COMPANY; April 2010.    INDEPENDENT INSURANCE BROKERING; INTEGRITY LIFE INSURANCE COMPANY; September 2010.    INDEPENDENT INSURANCE BROKERING; AMERICAN GENERAL LIFE INSURANCE COMPANY OF DELAWARE; APRIL 2001."
    }
  },
  "DRPs": []
}