{
  "Info": {
    "lastNm": "TYRRELL",
    "firstNm": "JOSEPH",
    "midNm": "JOHN",
    "sufNm": null,
    "indvlPK": "1846063",
    "actvAGReg": 0,
    "link": "http://www.adviserinfo.sec.gov/IAPD/Individual/1846063"
  },
  "OthrNms": [],
  "CrntEmps": [
    {
      "CrntRgstns": [
        {
          "regAuth": 6,
          "regCat": 0,
          "st": 2,
          "stDt": "2009-06-01T00:00:00"
        }
      ],
      "BrnchOfLocs": [
        {
          "str1": "ONE FAWCETT PLACE",
          "str2": "3RD FLOOR",
          "city": "GREENWICH",
          "state": 6,
          "stateSpecified": true,
          "cntry": "United States",
          "postlCd": "06830"
        }
      ],
      "orgNm": "MORGAN STANLEY",
      "orgPK": "149777",
      "str1": "2000 WESTCHESTER AVENUE",
      "str2": null,
      "city": "PURCHASE",
      "state": 35,
      "stateSpecified": true,
      "cntry": "United States",
      "postlCd": "10577-2530"
    }
  ],
  "Exms": [
    {
      "exmCd": 0,
      "exmNm": "Uniform Securities Agent State Law Examination",
      "exmDt": "1988-07-07T00:00:00",
      "exmDtSpecified": true
    },
    {
      "exmCd": 2,
      "exmNm": "Uniform Investment Adviser Law Examination",
      "exmDt": "2007-09-06T00:00:00",
      "exmDtSpecified": true
    }
  ],
  "Dsgntns": [],
  "PrevRgstns": [
    {
      "BrnchOfLocs": [
        {
          "city": "GREENWICH",
          "state": 6,
          "stateSpecified": true
        },
        {
          "city": "GREENWICH",
          "state": 6,
          "stateSpecified": true
        }
      ],
      "orgNm": "MORGAN STANLEY DW INC.",
      "orgPK": "7556",
      "regBeginDt": "1991-08-30T00:00:00",
      "regBeginDtSpecified": true,
      "regEndDt": "2007-04-02T00:00:00",
      "regEndDtSpecified": true
    },
    {
      "BrnchOfLocs": [
        {
          "city": "GREENWICH",
          "state": 6,
          "stateSpecified": true
        }
      ],
      "orgNm": "MORGAN STANLEY & CO. LLC",
      "orgPK": "8209",
      "regBeginDt": "2007-04-02T00:00:00",
      "regBeginDtSpecified": true,
      "regEndDt": "2009-06-01T00:00:00",
      "regEndDtSpecified": true
    }
  ],
  "EmpHss": [
    {
      "fromDt": "04/1988",
      "toDt": "04/2007",
      "orgNm": "MORGAN STANLEY DW INC.",
      "city": "GREENWICH",
      "state": 6,
      "stateSpecified": true
    },
    {
      "fromDt": "04/2007",
      "toDt": null,
      "orgNm": "MORGAN STANLEY & CO., INCORPORATED",
      "city": "GREENWICH",
      "state": 6,
      "stateSpecified": true
    },
    {
      "fromDt": "06/2009",
      "toDt": null,
      "orgNm": "MORGAN STANLEY SMITH BARNEY",
      "city": "GREENWICH",
      "state": 6,
      "stateSpecified": true
    },
    {
      "fromDt": "01/2015",
      "toDt": null,
      "orgNm": "MORGAN STANLEY PRIVATE BANK, NATIONAL ASSOCIATION",
      "city": "NEW YORK",
      "state": 35,
      "stateSpecified": true
    }
  ],
  "OthrBuss": {
    "OthrBus": {
      "desc": "BARTEND 1 NIGHT A WK AT THE LOWDOWN MOUNT VERNON, NY"
    }
  },
  "DRPs": []
}