{
  "Info": {
    "lastNm": "Lesnar",
    "firstNm": "James",
    "midNm": "Arthur",
    "sufNm": "Jr",
    "indvlPK": "1856113",
    "actvAGReg": 0,
    "link": "http://www.adviserinfo.sec.gov/IAPD/Individual/1856113"
  },
  "OthrNms": [
    {
      "lastNm": "LESNAR",
      "firstNm": "JAMES",
      "midNm": "ARTHUR",
      "sufNm": null
    },
    {
      "lastNm": "LESNAR",
      "firstNm": "JAMES",
      "midNm": "ARTHUR",
      "sufNm": "JR"
    },
    {
      "lastNm": "LESNAR",
      "firstNm": "JIM",
      "midNm": null,
      "sufNm": null
    }
  ],
  "CrntEmps": [
    {
      "CrntRgstns": [
        {
          "regAuth": 24,
          "regCat": 0,
          "st": 2,
          "stDt": "2013-12-10T00:00:00"
        }
      ],
      "BrnchOfLocs": [
        {
          "str1": "1016 OXFORD ST",
          "str2": null,
          "city": "WORTHINGTON",
          "state": 24,
          "stateSpecified": true,
          "cntry": "United States",
          "postlCd": "56187"
        }
      ],
      "orgNm": "EDWARD JONES",
      "orgPK": "250",
      "str1": "12555 MANCHESTER RD",
      "str2": null,
      "city": "ST. LOUIS",
      "state": 25,
      "stateSpecified": true,
      "cntry": "United States",
      "postlCd": "63131"
    }
  ],
  "Exms": [
    {
      "exmCd": 0,
      "exmNm": "Uniform Securities Agent State Law Examination",
      "exmDt": "1988-08-12T00:00:00",
      "exmDtSpecified": true
    }
  ],
  "Dsgntns": [],
  "PrevRgstns": [],
  "EmpHss": [
    {
      "fromDt": "03/1988",
      "toDt": null,
      "orgNm": "EDWARD D. JONES & CO., L.P.",
      "city": "WORTHINGTON",
      "state": 24,
      "stateSpecified": true
    }
  ],
  "OthrBuss": {
    "OthrBus": {
      "desc": "RENTAL WORTHINGTON, MN  START DATE: 10/1/2010  NONE  HOURS PER WEEK: 0  HOURS DURING TRADING: 0  I OWN AND RENT A BUILDING TO EDJ.    \"Rental Property  Worthington, MN  Start date: 1/1/2012  Owner  Hours per week: 0  Hours during trading: 0  Maintain Property\""
    }
  },
  "DRPs": [
    {
      "hasRegAction": 1,
      "hasRegActionSpecified": true,
      "hasCriminal": 1,
      "hasCriminalSpecified": true,
      "hasBankrupt": 1,
      "hasBankruptSpecified": true,
      "hasCivilJudc": 1,
      "hasCivilJudcSpecified": true,
      "hasBond": 1,
      "hasBondSpecified": true,
      "hasJudgment": 1,
      "hasJudgmentSpecified": true,
      "hasInvstgn": 1,
      "hasInvstgnSpecified": true,
      "hasCustComp": 0,
      "hasCustCompSpecified": true,
      "hasTermination": 1,
      "hasTerminationSpecified": true
    }
  ]
}