{
  "Info": {
    "lastNm": "OSBORNE",
    "firstNm": "WILLIAM",
    "midNm": "DOBY",
    "sufNm": null,
    "indvlPK": "1859501",
    "actvAGReg": 0,
    "link": "http://www.adviserinfo.sec.gov/IAPD/Individual/1859501"
  },
  "OthrNms": [],
  "CrntEmps": [
    {
      "CrntRgstns": [
        {
          "regAuth": 44,
          "regCat": 0,
          "st": 2,
          "stDt": "2011-10-11T00:00:00"
        },
        {
          "regAuth": 45,
          "regCat": 0,
          "st": 3,
          "stDt": "2013-05-10T00:00:00"
        }
      ],
      "BrnchOfLocs": [
        {
          "str1": "170 WENDOVER DRIVE",
          "str2": null,
          "city": "KINGSPORT",
          "state": 44,
          "stateSpecified": true,
          "cntry": "United States",
          "postlCd": "37663"
        },
        {
          "str1": "201 S. WILCOX DR.",
          "str2": null,
          "city": "KINGSPORT",
          "state": 44,
          "stateSpecified": true,
          "cntry": "United States",
          "postlCd": "37660-5146"
        }
      ],
      "orgNm": "LPL FINANCIAL LLC",
      "orgPK": "6413",
      "str1": "75 STATE STREET, 22ND FLOOR",
      "str2": null,
      "city": "BOSTON",
      "state": 20,
      "stateSpecified": true,
      "cntry": "United States",
      "postlCd": "02109"
    }
  ],
  "Exms": [
    {
      "exmCd": 0,
      "exmNm": "Uniform Securities Agent State Law Examination",
      "exmDt": "1988-09-19T00:00:00",
      "exmDtSpecified": true
    },
    {
      "exmCd": 2,
      "exmNm": "Uniform Investment Adviser Law Examination",
      "exmDt": "2007-02-12T00:00:00",
      "exmDtSpecified": true
    }
  ],
  "Dsgntns": [],
  "PrevRgstns": [
    {
      "BrnchOfLocs": [
        {
          "city": "KINGSPORT",
          "state": 44,
          "stateSpecified": true
        },
        {
          "city": "KINGSPORT",
          "state": 44,
          "stateSpecified": true
        }
      ],
      "orgNm": "UVEST FINANCIAL SERVICES GROUP, INC.",
      "orgPK": "13787",
      "regBeginDt": "2007-02-14T00:00:00",
      "regBeginDtSpecified": true,
      "regEndDt": "2011-10-11T00:00:00",
      "regEndDtSpecified": true
    }
  ],
  "EmpHss": [
    {
      "fromDt": "02/2001",
      "toDt": null,
      "orgNm": "UVEST INVESTMENT SERVICES",
      "city": "CHARLOTTE",
      "state": 28,
      "stateSpecified": true
    },
    {
      "fromDt": "10/2011",
      "toDt": null,
      "orgNm": "LPL FINANCIAL LLC",
      "city": "KINGSPORT",
      "state": 44,
      "stateSpecified": true
    }
  ],
  "OthrBuss": {
    "OthrBus": {
      "desc": "1. 10/19/2011 - DBA ONLY - ECU ASSET MANAGEMENT"
    }
  },
  "DRPs": []
}