{
  "Info": {
    "lastNm": "YASHAREL",
    "firstNm": "DANIEL",
    "midNm": "FARID",
    "sufNm": null,
    "indvlPK": "1871945",
    "actvAGReg": 0,
    "link": "http://www.adviserinfo.sec.gov/IAPD/Individual/1871945"
  },
  "OthrNms": [
    {
      "lastNm": "YASHAREL",
      "firstNm": "DANIEL",
      "midNm": "F",
      "sufNm": null
    },
    {
      "lastNm": "YASHAREL",
      "firstNm": "DANNY",
      "midNm": null,
      "sufNm": null
    },
    {
      "lastNm": "YASHAREL",
      "firstNm": "FARID",
      "midNm": "DANIEL",
      "sufNm": null
    },
    {
      "lastNm": "YASHAREL",
      "firstNm": "FARID",
      "midNm": "DANIEL",
      "sufNm": null
    }
  ],
  "CrntEmps": [
    {
      "CrntRgstns": [
        {
          "regAuth": 4,
          "regCat": 0,
          "st": 2,
          "stDt": "1997-07-08T00:00:00"
        }
      ],
      "BrnchOfLocs": [
        {
          "str1": "11835 W OLYMPIC BLVD",
          "str2": "SUITE 1150E",
          "city": "LOS ANGELES",
          "state": 4,
          "stateSpecified": true,
          "cntry": "United States",
          "postlCd": "90064"
        }
      ],
      "orgNm": "NWF ADVISORY SERVICES INC",
      "orgPK": "110410",
      "str1": "11835 W OLYMPIC BLVD",
      "str2": "STE 1155 E.",
      "city": "LOS ANGELES",
      "state": 4,
      "stateSpecified": true,
      "cntry": "United States",
      "postlCd": "90064"
    },
    {
      "CrntRgstns": [
        {
          "regAuth": 4,
          "regCat": 0,
          "st": 2,
          "stDt": "1997-07-08T00:00:00"
        },
        {
          "regAuth": 9,
          "regCat": 0,
          "st": 2,
          "stDt": "2016-02-17T00:00:00"
        }
      ],
      "BrnchOfLocs": [
        {
          "str1": "11835 W. OLYMPIC BLVD.",
          "str2": "SUITE 1155 E",
          "city": "LOS ANGELES",
          "state": 4,
          "stateSpecified": true,
          "cntry": "United States",
          "postlCd": "90064"
        }
      ],
      "orgNm": "ROYAL ALLIANCE ASSOCIATES, INC.",
      "orgPK": "23131",
      "str1": "ONE WORLD FINANCIAL CENTER",
      "str2": "15TH FLOOR",
      "city": "NEW YORK",
      "state": 35,
      "stateSpecified": true,
      "cntry": "United States",
      "postlCd": "10281"
    }
  ],
  "Exms": [
    {
      "exmCd": 0,
      "exmNm": "Uniform Securities Agent State Law Examination",
      "exmDt": "1991-02-28T00:00:00",
      "exmDtSpecified": true
    }
  ],
  "Dsgntns": [
    {
      "dsgntnNm": "Certified Financial Planner"
    }
  ],
  "PrevRgstns": [],
  "EmpHss": [
    {
      "fromDt": "10/1994",
      "toDt": null,
      "orgNm": "ROYAL ALLIANCE ASSOCIATES, INC.",
      "city": "LOS ANGELES",
      "state": 4,
      "stateSpecified": true
    },
    {
      "fromDt": "02/2005",
      "toDt": null,
      "orgNm": "NWF ADVISORY GROUP, INC.",
      "city": "LOS ANGELES",
      "state": 4,
      "stateSpecified": true
    },
    {
      "fromDt": "02/2005",
      "toDt": null,
      "orgNm": "NWF ADVISORY SERVICES, INC.",
      "city": "LOS ANGELES",
      "state": 4,
      "stateSpecified": true
    }
  ],
  "OthrBuss": {
    "OthrBus": {
      "desc": "(1) INVESTMENT ADVISOR REPRESENTATIVE WITH NWF ADVISORY SERVICES, INC AND WITH ROYAL ALLIANCE ADVISORY SERVICES, INC, INVESTMENT RELATED, ROYAL ALLIANCE ADVISORY SERVICES, INC. SINCE 7/1997, NWF SINCE 2/2005 SPEND 80 HOURS PER MONTH ON THE ACTIVITY AND 40 HOURS PER MONTH DURING TRADING HOURS, PROVIDE ADVISORY SERVICES SUCH AS WRAP, FEE ACCOUNTS AND FINANCIAL PLANS, 11835 W OLYMPIC BLVD, #1150E LOS ANGELES, CA 90064.  (2) NEW WORLD FINANCIAL & INSURANCE, NON INVESTMENT RELATED, 11835 W. OLYMPIC BLVD. #1150E LOS ANGELES, CA 90064, INDEPENDENT CONTRACTOR, STARTED 10/1/1994, 30 HOURS PER MONTH, 20 HOURS DURING TRADING HOURS,  INSURANCE SALES.   (3) AMERICAN YOUTH SOCCER ORGANIZATION, NON INVESTMENT RELATED, AYSO NATIONAL SUPPORT & TRAINING CENTER 12501 S. ISIS AVE. HAWTHORNE, CA 90250, VOLUNTEER SOCCER REFEREE, STARTED 9/26/2009, 2 HOURS PER SEASON, 0 HOURS DURING STH, SOCCER REFEREE.   (4) LINCOLN FINANCIAL GROUP, NON INVESTMENT RELATED, 11835 W OLYMPIC BLVD #1150E LOS ANGELES, CA 90064.  STATUTORY EMPLOYEE, STARTED 04/01/2013, 30 HOURS PER MONTH, 20 HOURS DURING TRADING HOURS, INSURANCE SALES.  (5) TOSSANCHI PROPERTY LLC POSITION: Member NATURE: LLC INVESTMENT RELATED: No NUMBER OF HOURS: 0 SECURITIES TRADING HOURS: 0 START DATE: 06/22/2015 ADDRESS: 3441 E. Avalon Dr, Pheonix AZ 85018 DESCRIPTION: I review the leases once a year."
    }
  },
  "DRPs": []
}