{
  "Info": {
    "lastNm": "BUCHE",
    "firstNm": "WILLIAM",
    "midNm": "BRADFORD",
    "sufNm": null,
    "indvlPK": "1873036",
    "actvAGReg": 0,
    "link": "http://www.adviserinfo.sec.gov/IAPD/Individual/1873036"
  },
  "OthrNms": [
    {
      "lastNm": "BUCHE",
      "firstNm": "BRAD",
      "midNm": null,
      "sufNm": null
    }
  ],
  "CrntEmps": [
    {
      "CrntRgstns": [
        {
          "regAuth": 43,
          "regCat": 0,
          "st": 2,
          "stDt": "2009-09-11T00:00:00"
        },
        {
          "regAuth": 45,
          "regCat": 0,
          "st": 3,
          "stDt": "2009-09-11T00:00:00"
        }
      ],
      "BrnchOfLocs": [
        {
          "str1": "2605 N. MAIN",
          "str2": null,
          "city": "MITCHELL",
          "state": 43,
          "stateSpecified": true,
          "cntry": "United States",
          "postlCd": "57301-1955"
        }
      ],
      "orgNm": "STIFEL, NICOLAUS & COMPANY, INCORPORATED",
      "orgPK": "793",
      "str1": "501 N BROADWAY",
      "str2": null,
      "city": "ST LOUIS",
      "state": 25,
      "stateSpecified": true,
      "cntry": "United States",
      "postlCd": "63102"
    }
  ],
  "Exms": [
    {
      "exmCd": 0,
      "exmNm": "Uniform Securities Agent State Law Examination",
      "exmDt": "1988-09-27T00:00:00",
      "exmDtSpecified": true
    },
    {
      "exmCd": 2,
      "exmNm": "Uniform Investment Adviser Law Examination",
      "exmDt": "1999-12-06T00:00:00",
      "exmDtSpecified": true
    }
  ],
  "Dsgntns": [],
  "PrevRgstns": [
    {
      "BrnchOfLocs": [
        {
          "city": "MINNEAPOLIS",
          "state": 24,
          "stateSpecified": true
        },
        {
          "city": "MITCHELL",
          "state": 43,
          "stateSpecified": true
        }
      ],
      "orgNm": "PIPER JAFFRAY & CO.",
      "orgPK": "665",
      "regBeginDt": "2000-08-25T00:00:00",
      "regBeginDtSpecified": true,
      "regEndDt": "2006-08-12T00:00:00",
      "regEndDtSpecified": true
    },
    {
      "BrnchOfLocs": [
        {
          "city": "MITCHELL",
          "state": 43,
          "stateSpecified": true
        },
        {
          "city": "WEEHAWKEN",
          "state": 32,
          "stateSpecified": true
        }
      ],
      "orgNm": "UBS FINANCIAL SERVICES INC.",
      "orgPK": "8174",
      "regBeginDt": "2006-08-12T00:00:00",
      "regBeginDtSpecified": true,
      "regEndDt": "2009-09-11T00:00:00",
      "regEndDtSpecified": true
    }
  ],
  "EmpHss": [
    {
      "fromDt": "07/1988",
      "toDt": null,
      "orgNm": "PIPER JAFFRAY INC.",
      "city": "MITCHELL",
      "state": 43,
      "stateSpecified": true
    },
    {
      "fromDt": "08/2006",
      "toDt": null,
      "orgNm": "UBS FINANCIAL SERVICES INC. ",
      "city": "MITCHELL",
      "state": 43,
      "stateSpecified": true
    },
    {
      "fromDt": "09/2009",
      "toDt": null,
      "orgNm": "STIFEL, NICOLAUS & COMPANY, INCORPORATED",
      "city": "MITCHELL",
      "state": 43,
      "stateSpecified": true
    }
  ],
  "OthrBuss": {
    "OthrBus": {
      "desc": "1. 50  ACRES OF LAND LEASED OUT SOUTH OF MITCHELL SD, NO HOURS ARE DEVOTED TO THE ACTIVITY/OWNERSHIP DURING REGULAR BUSINESS HOURS."
    }
  },
  "DRPs": []
}