{
  "Info": {
    "lastNm": "JOHNSTONE",
    "firstNm": "JAMES",
    "midNm": "LESTER",
    "sufNm": null,
    "indvlPK": "1879011",
    "actvAGReg": 0,
    "link": "http://www.adviserinfo.sec.gov/IAPD/Individual/1879011"
  },
  "OthrNms": [
    {
      "lastNm": "JOHNSTONE",
      "firstNm": "JIM",
      "midNm": null,
      "sufNm": null
    }
  ],
  "CrntEmps": [
    {
      "CrntRgstns": [
        {
          "regAuth": 44,
          "regCat": 0,
          "st": 2,
          "stDt": "2007-03-13T00:00:00"
        },
        {
          "regAuth": 10,
          "regCat": 0,
          "st": 2,
          "stDt": "2015-05-26T00:00:00"
        }
      ],
      "BrnchOfLocs": [
        {
          "str1": null,
          "str2": null,
          "city": "MILTON",
          "state": 10,
          "stateSpecified": true,
          "cntry": "United States",
          "postlCd": null
        },
        {
          "str1": "6075 POPLAR AVE SUITE 720",
          "str2": null,
          "city": "MEMPHIS",
          "state": 44,
          "stateSpecified": true,
          "cntry": "United States",
          "postlCd": "38119"
        }
      ],
      "orgNm": "CHICKASAW CAPITAL MANAGEMENT, LLC",
      "orgPK": "127398",
      "str1": "6075 POPLAR AVE SUITE 720",
      "str2": null,
      "city": "MEMPHIS",
      "state": 44,
      "stateSpecified": true,
      "cntry": "United States",
      "postlCd": "38119"
    }
  ],
  "Exms": [
    {
      "exmCd": 0,
      "exmNm": "Uniform Securities Agent State Law Examination",
      "exmDt": "1996-10-28T00:00:00",
      "exmDtSpecified": true
    },
    {
      "exmCd": 2,
      "exmNm": "Uniform Investment Adviser Law Examination",
      "exmDt": "2007-03-12T00:00:00",
      "exmDtSpecified": true
    }
  ],
  "Dsgntns": [],
  "PrevRgstns": [],
  "EmpHss": [
    {
      "fromDt": "04/2006",
      "toDt": "02/2007",
      "orgNm": "UNEMPLOYED",
      "city": "ALPHARETTA",
      "state": 10,
      "stateSpecified": true
    },
    {
      "fromDt": "02/2007",
      "toDt": null,
      "orgNm": "CHICKASAW CAPITAL MANAGEMENT LLC",
      "city": "MEMPHIS",
      "state": 44,
      "stateSpecified": true
    }
  ],
  "OthrBuss": {
    "OthrBus": null
  },
  "DRPs": [
    {
      "hasRegAction": 1,
      "hasRegActionSpecified": true,
      "hasCriminal": 1,
      "hasCriminalSpecified": true,
      "hasBankrupt": 0,
      "hasBankruptSpecified": true,
      "hasCivilJudc": 1,
      "hasCivilJudcSpecified": true,
      "hasBond": 1,
      "hasBondSpecified": true,
      "hasJudgment": 1,
      "hasJudgmentSpecified": true,
      "hasInvstgn": 1,
      "hasInvstgnSpecified": true,
      "hasCustComp": 1,
      "hasCustCompSpecified": true,
      "hasTermination": 1,
      "hasTerminationSpecified": true
    }
  ]
}