{
  "Info": {
    "lastNm": "WIGGINS",
    "firstNm": "JOSEPH",
    "midNm": "SAUNDERS",
    "sufNm": null,
    "indvlPK": "1883058",
    "actvAGReg": 1,
    "link": "http://www.adviserinfo.sec.gov/IAPD/Individual/1883058"
  },
  "OthrNms": [
    {
      "lastNm": "WIGGINS",
      "firstNm": "SANDY",
      "midNm": null,
      "sufNm": null
    }
  ],
  "CrntEmps": [
    {
      "CrntRgstns": [
        {
          "regAuth": 47,
          "regCat": 0,
          "st": 2,
          "stDt": "1993-10-20T00:00:00"
        },
        {
          "regAuth": 45,
          "regCat": 0,
          "st": 3,
          "stDt": "2002-01-09T00:00:00"
        }
      ],
      "BrnchOfLocs": [
        {
          "str1": "1640 HUGUENOT ROAD",
          "str2": null,
          "city": "MIDLOTHIAN",
          "state": 47,
          "stateSpecified": true,
          "cntry": "United States",
          "postlCd": "23113"
        }
      ],
      "orgNm": "ACG ADVISORY SERVICES INC",
      "orgPK": "106259",
      "str1": "1640 HUGUENOT ROAD",
      "str2": null,
      "city": "MIDLOTHIAN",
      "state": 47,
      "stateSpecified": true,
      "cntry": "United States",
      "postlCd": "23113"
    }
  ],
  "Exms": [
    {
      "exmCd": 0,
      "exmNm": "Uniform Securities Agent State Law Examination",
      "exmDt": "1993-07-13T00:00:00",
      "exmDtSpecified": true
    },
    {
      "exmCd": 2,
      "exmNm": "Uniform Investment Adviser Law Examination",
      "exmDt": "1993-10-19T00:00:00",
      "exmDtSpecified": true
    }
  ],
  "Dsgntns": [
    {
      "dsgntnNm": "Certified Financial Planner"
    }
  ],
  "PrevRgstns": [],
  "EmpHss": [
    {
      "fromDt": "05/1988",
      "toDt": null,
      "orgNm": "ACTUARIAL CONSULTING GROUP, INC.",
      "city": "RICHMOND",
      "state": 47,
      "stateSpecified": true
    },
    {
      "fromDt": "08/1993",
      "toDt": null,
      "orgNm": "#IA ACG ADVISORY SERVICES, INC.",
      "city": "RICHMOND",
      "state": 47,
      "stateSpecified": true
    },
    {
      "fromDt": "08/1994",
      "toDt": null,
      "orgNm": "ACG ADVISORY SERVICES, INC.",
      "city": "RICHMOND",
      "state": 47,
      "stateSpecified": true
    },
    {
      "fromDt": "12/1997",
      "toDt": "11/2012",
      "orgNm": "INVESTORS SECURITY COMPANY, INC.",
      "city": "RICHMOND",
      "state": 47,
      "stateSpecified": true
    }
  ],
  "OthrBuss": {
    "OthrBus": {
      "desc": "PRINCIPAL SINCE 1988 OF ACG ADVISORY SERICVES, 1640 HUGUENOT ROAD, MIDLOTHIAN, VA, GROUP ANNUITY CONSULTING AND SALES FOR QUALIFIED RETIREMENT PLANS, APPROXIMTELY 20 HOURS PER MONTH, ALL DURING TRADING HOURS, IT IS INVESTMENT RELATED.  ALSO HOLDER OF LIFE AND HEALTH INSURANCE LICENSE SINCE 1988, GROUP, FIXED, LIFE, HEALTH, DIS.  APPROXIMTLEY 2 HOURS PER MONTH, ALL DURING TRADING HOURS, DEVELOPING AND MANAGING CLIENT INSURANCE STRATEGIES, THIS IS INVESTMENT RELATED. OWNER OF CLOVER HOLDINGS, LLC, 1640 HUGUENOT ROAD, MIDLOTHIAN SINCE 2005, PERFORM BOOKING DUTIES APPROXIMATELY 2 HOURS PER MONTH, NONE DURING TRADING HOURS.  THIS IS NOT INVESTMENT RELATED.  PRINCIPAL OF ACTUARIAL CONSULTING GROUP, SINCE 1988, 1640 HUGUENOT ROAD, MIDLOTHIANM VA, CONSULTING ON QUALIFIED RETIREMENT PLANS, APPROXIMATELY 20 HOURS PER MONTH, ALL DURING TRADING HOURS. RENTAL PROP AS WLL"
    }
  },
  "DRPs": []
}