{
  "Info": {
    "lastNm": "GOODROAD",
    "firstNm": "WARREN",
    "midNm": "RICHARD",
    "sufNm": null,
    "indvlPK": "1893814",
    "actvAGReg": 0,
    "link": "http://www.adviserinfo.sec.gov/IAPD/Individual/1893814"
  },
  "OthrNms": [],
  "CrntEmps": [
    {
      "CrntRgstns": [
        {
          "regAuth": 24,
          "regCat": 0,
          "st": 2,
          "stDt": "2013-11-12T00:00:00"
        }
      ],
      "BrnchOfLocs": [
        {
          "str1": "60 BROAD STREET",
          "str2": "SUITE 3402",
          "city": "NEW YORK",
          "state": 35,
          "stateSpecified": true,
          "cntry": "United States",
          "postlCd": "10004"
        }
      ],
      "orgNm": "CL WEALTH MANAGEMENT LLC",
      "orgPK": "134922",
      "str1": "60 BROAD STREET",
      "str2": "SUITE 3402",
      "city": "NEW YORK",
      "state": 35,
      "stateSpecified": true,
      "cntry": "United States",
      "postlCd": "10004"
    }
  ],
  "Exms": [
    {
      "exmCd": 0,
      "exmNm": "Uniform Securities Agent State Law Examination",
      "exmDt": "1988-11-11T00:00:00",
      "exmDtSpecified": true
    }
  ],
  "Dsgntns": [
    {
      "dsgntnNm": "Certified Financial Planner"
    }
  ],
  "PrevRgstns": [],
  "EmpHss": [
    {
      "fromDt": "06/2002",
      "toDt": "10/2011",
      "orgNm": "WORKMAN SECURITIES CORP",
      "city": "MINNETONKA",
      "state": 24,
      "stateSpecified": true
    },
    {
      "fromDt": "10/2011",
      "toDt": "06/2013",
      "orgNm": "ALLIED BEACON PARTNERS, INC.",
      "city": "MINNETONKA",
      "state": 24,
      "stateSpecified": true
    },
    {
      "fromDt": "01/2012",
      "toDt": null,
      "orgNm": "ALLIED BEACON WEALTH MANAGEMENT, LLC",
      "city": "MINNETONKA",
      "state": 24,
      "stateSpecified": true
    },
    {
      "fromDt": "07/2013",
      "toDt": null,
      "orgNm": "CABOT LODGE SECURITIES",
      "city": "NEW YORK",
      "state": 35,
      "stateSpecified": true
    }
  ],
  "OthrBuss": {
    "OthrBus": {
      "desc": "1. CONDO RENTAL REAL ESTATE/MINNETONKA, MN 55435/ NON-INVESTMENT RELATED/OWNER/ SINCE 1985/4 HOURS DEVOTED PER MONTH/ 2. INSURANCE SALES/MINNETONKA, MN 55435/SINCE 1987/INVESTMENT RELATED/OWNER/INSURANCE AGENT/SALES AND SERVICE OF INSURANCE PRODUCTS/6 HOURS DEVOTED PER MONTH 3. INDEPENDENT SCHOOL DISTRICT 270/HOPKINS, MN 55305/NON INVESTMENT RELATED/SCHOOL BOARD MEMBER/SINCE 2010/50 HOURS A MONTH DEVOTED"
    }
  },
  "DRPs": []
}