{
  "Info": {
    "lastNm": "WITT",
    "firstNm": "MARVIN",
    "midNm": "ELMER",
    "sufNm": null,
    "indvlPK": "1904238",
    "actvAGReg": 0,
    "link": "http://www.adviserinfo.sec.gov/IAPD/Individual/1904238"
  },
  "OthrNms": [],
  "CrntEmps": [
    {
      "CrntRgstns": [
        {
          "regAuth": 43,
          "regCat": 0,
          "st": 2,
          "stDt": "1989-02-09T00:00:00"
        }
      ],
      "BrnchOfLocs": [
        {
          "str1": "108 8TH AVE SE",
          "str2": null,
          "city": "WATERTOWN",
          "state": 43,
          "stateSpecified": true,
          "cntry": "United States",
          "postlCd": "57201"
        }
      ],
      "orgNm": "AMERIPRISE FINANCIAL SERVICES, INC.",
      "orgPK": "6363",
      "str1": "707 2ND AVENUE SOUTH",
      "str2": null,
      "city": "MINNEAPOLIS",
      "state": 24,
      "stateSpecified": true,
      "cntry": "United States",
      "postlCd": "55402"
    }
  ],
  "Exms": [
    {
      "exmCd": 0,
      "exmNm": "Uniform Securities Agent State Law Examination",
      "exmDt": "1989-01-18T00:00:00",
      "exmDtSpecified": true
    }
  ],
  "Dsgntns": [],
  "PrevRgstns": [],
  "EmpHss": [
    {
      "fromDt": "11/1988",
      "toDt": null,
      "orgNm": "AMERICAN EXPRESS FINANCIAL ADVISORS INC.",
      "city": "SIOUX FALLS",
      "state": 43,
      "stateSpecified": true
    },
    {
      "fromDt": "11/1988",
      "toDt": null,
      "orgNm": "IDS LIFE INSURANCE COMPANY",
      "city": "SIOUX FALLS",
      "state": 43,
      "stateSpecified": true
    }
  ],
  "OthrBuss": {
    "OthrBus": {
      "desc": "FIDUCIARY ACTIVITIES ; MOTHER; NONE AT THIS TIME BUT POWERS ARE GENERAL FIDUCIARY POWERS; DECEMBER 2004."
    }
  },
  "DRPs": [
    {
      "hasRegAction": 1,
      "hasRegActionSpecified": true,
      "hasCriminal": 1,
      "hasCriminalSpecified": true,
      "hasBankrupt": 1,
      "hasBankruptSpecified": true,
      "hasCivilJudc": 1,
      "hasCivilJudcSpecified": true,
      "hasBond": 1,
      "hasBondSpecified": true,
      "hasJudgment": 1,
      "hasJudgmentSpecified": true,
      "hasInvstgn": 1,
      "hasInvstgnSpecified": true,
      "hasCustComp": 0,
      "hasCustCompSpecified": true,
      "hasTermination": 1,
      "hasTerminationSpecified": true
    }
  ]
}