{
  "Info": {
    "lastNm": "DIETZEL",
    "firstNm": "GEOFFREY",
    "midNm": "HERBERT",
    "sufNm": null,
    "indvlPK": "1909751",
    "actvAGReg": 0,
    "link": "http://www.adviserinfo.sec.gov/IAPD/Individual/1909751"
  },
  "OthrNms": [
    {
      "lastNm": "DIETZEL",
      "firstNm": "GEOFF",
      "midNm": null,
      "sufNm": null
    },
    {
      "lastNm": "DIETZEL",
      "firstNm": "GEOFFREY",
      "midNm": null,
      "sufNm": null
    }
  ],
  "CrntEmps": [
    {
      "CrntRgstns": [
        {
          "regAuth": 32,
          "regCat": 0,
          "st": 2,
          "stDt": "2004-05-18T00:00:00"
        }
      ],
      "BrnchOfLocs": [
        {
          "str1": "513 GEORGES ROAD",
          "str2": null,
          "city": "NORTH BRUNSWICK",
          "state": 32,
          "stateSpecified": true,
          "cntry": "United States",
          "postlCd": "08902"
        }
      ],
      "orgNm": "PRUCO SECURITIES, LLC.",
      "orgPK": "5685",
      "str1": "751 BROAD STREET",
      "str2": null,
      "city": "NEWARK",
      "state": 32,
      "stateSpecified": true,
      "cntry": "United States",
      "postlCd": "07102-3777"
    }
  ],
  "Exms": [
    {
      "exmCd": 0,
      "exmNm": "Uniform Securities Agent State Law Examination",
      "exmDt": "1989-02-01T00:00:00",
      "exmDtSpecified": true
    },
    {
      "exmCd": 2,
      "exmNm": "Uniform Investment Adviser Law Examination",
      "exmDt": "2001-08-21T00:00:00",
      "exmDtSpecified": true
    }
  ],
  "Dsgntns": [],
  "PrevRgstns": [],
  "EmpHss": [
    {
      "fromDt": "01/2003",
      "toDt": null,
      "orgNm": "BRUNSWICK FINANCIAL GROUP LLC",
      "city": "NORTH BRUNSWICK",
      "state": 32,
      "stateSpecified": true
    },
    {
      "fromDt": "01/2003",
      "toDt": null,
      "orgNm": "PRUCO SECURITIES, LLC",
      "city": "EAST BRUNSWICK",
      "state": 32,
      "stateSpecified": true
    }
  ],
  "OthrBuss": {
    "OthrBus": {
      "desc": "MCRCC- AMBASSADOR COMMITTEE~109 CHURCH ST., NEW BRUNSWICK, NJ 08901~CHAMBER OF COMMERCE~N~CO-CHAIR: AMBASSADOR COMMITTEE; WELCOME NEW & RENEWING MEMBERS, NO FINANCIAL RESPONSIBILITIES OR CHECK WRITING RESPONSIBILITIES~1/1/2011~4 HRS/MO~4 TRADING HRS/MO|HERBERT A. DIETZEL IRREVOCABLE TRUST AGREEMENT~395 FRANKLIN RD., NORTH BRUNSWICK, NJ 08902~TRUSTEE OF INS TRUST~N~TRUSTEE OF TRUST~12/31/2005~1 HRS/MO~0 TRADING HRS/MO|BRUNSWICK FIN'L GROUP, LLC~513 GEORGES RD., NORTH BRUNSWICK, NJ 08902~INS & FIN'L SERVICES~Y~DIRECTOR~2/2002~160 HRS/MO~132 TRADING HRS/MO|DISCLAIMER TRUST U/W EILEEN S. DIETZEL~395 FRANKLIN RD, NORTH BRUNSWICK, NJ 08902~ADMINISTRATIVE DUTIES~N~CO-TRUSTEE~12/2008~2 HRS/MO~0 TRADING HRS/MO"
    }
  },
  "DRPs": []
}