{
  "Info": {
    "lastNm": "PALMER",
    "firstNm": "MONA",
    "midNm": "M",
    "sufNm": "IV",
    "indvlPK": "1913070",
    "actvAGReg": 0,
    "link": "http://www.adviserinfo.sec.gov/IAPD/Individual/1913070"
  },
  "OthrNms": [
    {
      "lastNm": "HULTZ",
      "firstNm": "MONA",
      "midNm": "MARIE",
      "sufNm": null
    },
    {
      "lastNm": "MEADOWS",
      "firstNm": "MONA",
      "midNm": "MARIE",
      "sufNm": null
    },
    {
      "lastNm": "MEADOWS",
      "firstNm": "MONA",
      "midNm": "MARIE",
      "sufNm": null
    },
    {
      "lastNm": "MEYER",
      "firstNm": "MONA",
      "midNm": "MARIE",
      "sufNm": null
    }
  ],
  "CrntEmps": [
    {
      "CrntRgstns": [
        {
          "regAuth": 25,
          "regCat": 0,
          "st": 2,
          "stDt": "2012-05-24T00:00:00"
        }
      ],
      "BrnchOfLocs": [
        {
          "str1": "ONE NORTH JEFFERSON AVENUE",
          "str2": "MAIL CODE: H0004-050",
          "city": "ST. LOUIS",
          "state": 25,
          "stateSpecified": true,
          "cntry": "UNITED STATES",
          "postlCd": "63103"
        }
      ],
      "orgNm": "WELLS FARGO ADVISORS, LLC",
      "orgPK": "19616",
      "str1": "ONE NORTH JEFFERSON AVENUE",
      "str2": "MAIL CODE: H0004-050",
      "city": "ST. LOUIS",
      "state": 25,
      "stateSpecified": true,
      "cntry": "United States",
      "postlCd": "63103-2205"
    }
  ],
  "Exms": [
    {
      "exmCd": 3,
      "exmNm": "Uniform Combined State Law Examination",
      "exmDt": "2006-08-25T00:00:00",
      "exmDtSpecified": true
    }
  ],
  "Dsgntns": [],
  "PrevRgstns": [],
  "EmpHss": [
    {
      "fromDt": "12/1988",
      "toDt": "01/2008",
      "orgNm": "A.G. EDWARDS",
      "city": "ST. LOUIS",
      "state": 25,
      "stateSpecified": true
    },
    {
      "fromDt": "01/2008",
      "toDt": "05/2009",
      "orgNm": "WACHOVIA SECURITIES, LLC",
      "city": "ST. LOUIS",
      "state": 25,
      "stateSpecified": true
    },
    {
      "fromDt": "05/2009",
      "toDt": null,
      "orgNm": "WELLS FARGO ADVISORS LLC",
      "city": "SAINT LOUIS",
      "state": 25,
      "stateSpecified": true
    }
  ],
  "OthrBuss": {
    "OthrBus": null
  },
  "DRPs": []
}