{
  "Info": {
    "lastNm": "HAAS",
    "firstNm": "STEVEN",
    "midNm": "MICHAEL",
    "sufNm": null,
    "indvlPK": "1919057",
    "actvAGReg": 0,
    "link": "http://www.adviserinfo.sec.gov/IAPD/Individual/1919057"
  },
  "OthrNms": [],
  "CrntEmps": [
    {
      "CrntRgstns": [
        {
          "regAuth": 6,
          "regCat": 0,
          "st": 2,
          "stDt": "1989-03-14T00:00:00"
        },
        {
          "regAuth": 45,
          "regCat": 0,
          "st": 3,
          "stDt": "2011-09-26T00:00:00"
        }
      ],
      "BrnchOfLocs": [
        {
          "str1": "124 NEW MILFORD TPKE",
          "str2": "STE 2",
          "city": "NEW PRESTON",
          "state": 6,
          "stateSpecified": true,
          "cntry": "United States",
          "postlCd": "06777-1705"
        },
        {
          "str1": "900 MAIN ST S",
          "str2": "STE 201",
          "city": "SOUTHBURY",
          "state": 6,
          "stateSpecified": true,
          "cntry": "United States",
          "postlCd": "06488"
        },
        {
          "str1": "900 MAIN ST S",
          "str2": "STE 201",
          "city": "SOUTHBURY",
          "state": 6,
          "stateSpecified": true,
          "cntry": "United States",
          "postlCd": "06488"
        }
      ],
      "orgNm": "AMERIPRISE FINANCIAL SERVICES, INC.",
      "orgPK": "6363",
      "str1": "707 2ND AVENUE SOUTH",
      "str2": null,
      "city": "MINNEAPOLIS",
      "state": 24,
      "stateSpecified": true,
      "cntry": "United States",
      "postlCd": "55402"
    }
  ],
  "Exms": [
    {
      "exmCd": 0,
      "exmNm": "Uniform Securities Agent State Law Examination",
      "exmDt": "1990-09-25T00:00:00",
      "exmDtSpecified": true
    }
  ],
  "Dsgntns": [],
  "PrevRgstns": [],
  "EmpHss": [
    {
      "fromDt": "04/1981",
      "toDt": null,
      "orgNm": "DURACELL USA",
      "city": "BETHEL",
      "state": 6,
      "stateSpecified": true
    },
    {
      "fromDt": "05/1989",
      "toDt": null,
      "orgNm": "AMERICAN EXPRESS FINANCIAL ADVISORS INC.",
      "city": "WATERBURY",
      "state": 6,
      "stateSpecified": true
    },
    {
      "fromDt": "05/1989",
      "toDt": null,
      "orgNm": "IDS LIFE INSURANCE COMPANY",
      "city": "WATERBURY",
      "state": 6,
      "stateSpecified": true
    }
  ],
  "OthrBuss": {
    "OthrBus": {
      "desc": "REAL ESTATE OWNERSHIP; SINGLE FAMILY ; CHARLESTOWN RI.   REAL ESTATE OWNERSHIP; SINGLE FAMILY ; CHARLESTOWN RI.    REAL ESTATE OWNERSHIP; SINGLE FAMILY ; PALM BEACH FL.    REAL ESTATE OWNERSHIP; LOT/LAND ; WASHINGTON CT.    REAL ESTATE OWNERSHIP; CONDO; ROLLINSFORD,NH 03669; APRIL 2013.    REAL ESTATE OWNERSHIP; SINGLE FAMILY ;WASHINGTON CT 06794;NOT Investment Related;DECEMBER 2014.    Fiduciary Activities; Named or act in a fiduciary capacity; such as attorney-in-fact, trustee, conservator, guardian, executor or personal representative."
    }
  },
  "DRPs": [
    {
      "hasRegAction": 1,
      "hasRegActionSpecified": true,
      "hasCriminal": 1,
      "hasCriminalSpecified": true,
      "hasBankrupt": 1,
      "hasBankruptSpecified": true,
      "hasCivilJudc": 1,
      "hasCivilJudcSpecified": true,
      "hasBond": 1,
      "hasBondSpecified": true,
      "hasJudgment": 1,
      "hasJudgmentSpecified": true,
      "hasInvstgn": 1,
      "hasInvstgnSpecified": true,
      "hasCustComp": 0,
      "hasCustCompSpecified": true,
      "hasTermination": 1,
      "hasTerminationSpecified": true
    }
  ]
}