{
  "Info": {
    "lastNm": "SPORS",
    "firstNm": "JONATHAN",
    "midNm": "WESLEY",
    "sufNm": null,
    "indvlPK": "1923272",
    "actvAGReg": 0,
    "link": "http://www.adviserinfo.sec.gov/IAPD/Individual/1923272"
  },
  "OthrNms": [
    {
      "lastNm": "SPORS",
      "firstNm": "JONATHAN",
      "midNm": "WESLEY",
      "sufNm": null
    }
  ],
  "CrntEmps": [
    {
      "CrntRgstns": [
        {
          "regAuth": 5,
          "regCat": 0,
          "st": 2,
          "stDt": "2006-08-17T00:00:00"
        }
      ],
      "BrnchOfLocs": [
        {
          "str1": "1670 BROADWAY",
          "str2": "SUITE 2200, DENVER HUB",
          "city": "DENVER",
          "state": 5,
          "stateSpecified": true,
          "cntry": "United States",
          "postlCd": "80202-5602"
        }
      ],
      "orgNm": "TIAA-CREF INDIVIDUAL & INSTITUTIONAL SERVICES, LLC",
      "orgPK": "20472",
      "str1": "730 THIRD AVENUE",
      "str2": null,
      "city": "NEW YORK",
      "state": 35,
      "stateSpecified": true,
      "cntry": "United States",
      "postlCd": "10017-3206"
    }
  ],
  "Exms": [
    {
      "exmCd": 0,
      "exmNm": "Uniform Securities Agent State Law Examination",
      "exmDt": "1989-10-02T00:00:00",
      "exmDtSpecified": true
    },
    {
      "exmCd": 3,
      "exmNm": "Uniform Combined State Law Examination",
      "exmDt": "2005-04-13T00:00:00",
      "exmDtSpecified": true
    }
  ],
  "Dsgntns": [],
  "PrevRgstns": [
    {
      "BrnchOfLocs": [
        {
          "city": "DENVER",
          "state": 5,
          "stateSpecified": true
        },
        {
          "city": "DENVER",
          "state": 5,
          "stateSpecified": true
        }
      ],
      "orgNm": "UBS FINANCIAL SERVICES INC.",
      "orgPK": "8174",
      "regBeginDt": "2005-04-14T00:00:00",
      "regBeginDtSpecified": true,
      "regEndDt": "2006-08-10T00:00:00",
      "regEndDtSpecified": true
    }
  ],
  "EmpHss": [
    {
      "fromDt": "08/2006",
      "toDt": null,
      "orgNm": "TIAA",
      "city": "DENVER",
      "state": 5,
      "stateSpecified": true
    },
    {
      "fromDt": "08/2006",
      "toDt": null,
      "orgNm": "TIAA-CREF INDIVIDUAL & INSTITUTIONAL SERVICES, LLC",
      "city": "DENVER",
      "state": 5,
      "stateSpecified": true
    }
  ],
  "OthrBuss": {
    "OthrBus": {
      "desc": "DUPLEX, NOT INVESTMENT RELATED, ENGLEWOOD, CO, RENTAL PROPERTY, OWNER SINCE 7/05 TO PRESENT, DEVOTE 1/HR MO AND 0/HRS DURING TRADE HRS AS LANDLORD. COMPENSATED IN MONTHLY RENT."
    }
  },
  "DRPs": []
}