{
  "Info": {
    "lastNm": "MAIS",
    "firstNm": "MICHAEL",
    "midNm": "THOMAS",
    "sufNm": "MR",
    "indvlPK": "1927076",
    "actvAGReg": 1,
    "link": "http://www.adviserinfo.sec.gov/IAPD/Individual/1927076"
  },
  "OthrNms": [
    {
      "lastNm": "MAIS",
      "firstNm": "MICHAEL",
      "midNm": "THOMAS",
      "sufNm": null
    },
    {
      "lastNm": "MAIS",
      "firstNm": "MIKE",
      "midNm": null,
      "sufNm": null
    }
  ],
  "CrntEmps": [
    {
      "CrntRgstns": [
        {
          "regAuth": 23,
          "regCat": 0,
          "st": 2,
          "stDt": "2011-09-29T00:00:00"
        }
      ],
      "BrnchOfLocs": [
        {
          "str1": null,
          "str2": null,
          "city": "GRAND RAPIDS",
          "state": 23,
          "stateSpecified": true,
          "cntry": "United States",
          "postlCd": null
        },
        {
          "str1": "2687 44TH STREET SE",
          "str2": null,
          "city": "KENTWOOD",
          "state": 23,
          "stateSpecified": true,
          "cntry": "United States",
          "postlCd": "49512"
        }
      ],
      "orgNm": "REGAL INVESTMENT ADVISORS LLC",
      "orgPK": "125004",
      "str1": "2687 44TH STREET SE",
      "str2": null,
      "city": "KENTWOOD",
      "state": 23,
      "stateSpecified": true,
      "cntry": "United States",
      "postlCd": "49512"
    }
  ],
  "Exms": [
    {
      "exmCd": 0,
      "exmNm": "Uniform Securities Agent State Law Examination",
      "exmDt": "1991-01-31T00:00:00",
      "exmDtSpecified": true
    },
    {
      "exmCd": 3,
      "exmNm": "Uniform Combined State Law Examination",
      "exmDt": "2005-07-25T00:00:00",
      "exmDtSpecified": true
    }
  ],
  "Dsgntns": [],
  "PrevRgstns": [
    {
      "BrnchOfLocs": [
        {
          "city": "GRAND RAPIDS",
          "state": 23,
          "stateSpecified": true
        },
        {
          "city": "GRAND RAPIDS",
          "state": 23,
          "stateSpecified": true
        }
      ],
      "orgNm": "VALIC FINANCIAL ADVISORS, INC.",
      "orgPK": "42803",
      "regBeginDt": "2005-07-26T00:00:00",
      "regBeginDtSpecified": true,
      "regEndDt": "2011-01-27T00:00:00",
      "regEndDtSpecified": true
    }
  ],
  "EmpHss": [
    {
      "fromDt": "06/1993",
      "toDt": "01/2011",
      "orgNm": "THE VARIABLE ANNUITY MARKETING COMPANY",
      "city": "TROY",
      "state": 23,
      "stateSpecified": true
    },
    {
      "fromDt": "07/1993",
      "toDt": "01/2011",
      "orgNm": "VALIC",
      "city": "DETROIT",
      "state": 23,
      "stateSpecified": true
    },
    {
      "fromDt": "07/1998",
      "toDt": "01/2011",
      "orgNm": "VALIC INVESTMENT SERVICES COMPANY",
      "city": "TROY",
      "state": 23,
      "stateSpecified": true
    },
    {
      "fromDt": "01/2011",
      "toDt": null,
      "orgNm": "SELF EMPLOYED",
      "city": "GRAND RAPIDS",
      "state": 23,
      "stateSpecified": true
    },
    {
      "fromDt": "09/2011",
      "toDt": null,
      "orgNm": "REGAL INVESTMENT ADVISORS LLC",
      "city": "KENTWOOD",
      "state": 23,
      "stateSpecified": true
    },
    {
      "fromDt": "05/2012",
      "toDt": null,
      "orgNm": "AMERICAN PORTFOLIOS FINANCIAL SERVICES INC.",
      "city": "HOLBROOK",
      "state": 35,
      "stateSpecified": true
    }
  ],
  "OthrBuss": {
    "OthrBus": {
      "desc": "I HAVE A LIFE LISENCE WITH JACKSON NATIONAL LIFE OF MICHIGAN JACKSON NATIONAL LIFE OF MICHIGAN REPRESENTATIVE LIFE INSURANCE PLACE REJECTED BUSINESS ONLY FROM LIFE CASES REJECTED FROM PRUDENTIAL I DONT SPEND ANYTIME TO JACKSON NATIONAL LIFE PROMOTING THEIR BUSINESS NOTHING DURING SECURITIES HOURS   IAR - REGAL INVESTMENT ADVISORS, FINANCIAL PLANNING. STARTED IN SEPT 2011, DEVOTES 100 HRS PER MONTH; 90 HRS DURING MARKET HRS.    YA YA HOMES - RENTAL INCOME, OWNER OF A RENTAL PROPERTY. STARTED IN OCT 2010 AND DEVOTES 5 HRS PER MONTH."
    }
  },
  "DRPs": [
    {
      "hasRegAction": 1,
      "hasRegActionSpecified": true,
      "hasCriminal": 1,
      "hasCriminalSpecified": true,
      "hasBankrupt": 1,
      "hasBankruptSpecified": true,
      "hasCivilJudc": 1,
      "hasCivilJudcSpecified": true,
      "hasBond": 1,
      "hasBondSpecified": true,
      "hasJudgment": 1,
      "hasJudgmentSpecified": true,
      "hasInvstgn": 1,
      "hasInvstgnSpecified": true,
      "hasCustComp": 0,
      "hasCustCompSpecified": true,
      "hasTermination": 0,
      "hasTerminationSpecified": true
    }
  ]
}