{
  "Info": {
    "lastNm": "CREPS",
    "firstNm": "MICHAEL",
    "midNm": "RAYMOND",
    "sufNm": null,
    "indvlPK": "1930449",
    "actvAGReg": 0,
    "link": "http://www.adviserinfo.sec.gov/IAPD/Individual/1930449"
  },
  "OthrNms": [],
  "CrntEmps": [
    {
      "CrntRgstns": [
        {
          "regAuth": 36,
          "regCat": 0,
          "st": 2,
          "stDt": "2014-02-28T00:00:00"
        },
        {
          "regAuth": 45,
          "regCat": 0,
          "st": 3,
          "stDt": "2014-03-05T00:00:00"
        }
      ],
      "BrnchOfLocs": [
        {
          "str1": "4908 WHITEFORD RD",
          "str2": null,
          "city": "TOLEDO",
          "state": 36,
          "stateSpecified": true,
          "cntry": "United States",
          "postlCd": "43623"
        }
      ],
      "orgNm": "MERRILL LYNCH, PIERCE, FENNER & SMITH INCORPORATED",
      "orgPK": "7691",
      "str1": "ONE BRYANT PARK",
      "str2": null,
      "city": "NEW YORK",
      "state": 35,
      "stateSpecified": true,
      "cntry": "United States",
      "postlCd": "10036"
    }
  ],
  "Exms": [
    {
      "exmCd": 0,
      "exmNm": "Uniform Securities Agent State Law Examination",
      "exmDt": "1989-04-11T00:00:00",
      "exmDtSpecified": true
    },
    {
      "exmCd": 2,
      "exmNm": "Uniform Investment Adviser Law Examination",
      "exmDt": "1992-01-21T00:00:00",
      "exmDtSpecified": true
    }
  ],
  "Dsgntns": [],
  "PrevRgstns": [
    {
      "BrnchOfLocs": [
        {
          "city": "SYLVANIA",
          "state": 36,
          "stateSpecified": true
        },
        {
          "city": "TOLEDO",
          "state": 36,
          "stateSpecified": true
        }
      ],
      "orgNm": "UBS FINANCIAL SERVICES INC.",
      "orgPK": "8174",
      "regBeginDt": "1999-08-18T00:00:00",
      "regBeginDtSpecified": true,
      "regEndDt": "2014-03-10T00:00:00",
      "regEndDtSpecified": true
    }
  ],
  "EmpHss": [
    {
      "fromDt": "01/1995",
      "toDt": "02/2014",
      "orgNm": "UBS FINANCIAL SERVICES INC.",
      "city": "TOLEDO",
      "state": 36,
      "stateSpecified": true
    },
    {
      "fromDt": "02/2014",
      "toDt": null,
      "orgNm": "MERRILL LYNCH, PIERCE, FENNER & SMITH INCORPORATED",
      "city": "TOLEDO",
      "state": 36,
      "stateSpecified": true
    },
    {
      "fromDt": "04/2014",
      "toDt": null,
      "orgNm": "BANK OF AMERICA, N.A.",
      "city": "TOLEDO",
      "state": 36,
      "stateSpecified": true
    }
  ],
  "OthrBuss": {
    "OthrBus": {
      "desc": "FOR PROFIT OR NOT FOR PROFIT: FOR-PROFIT ORGANIZATION NAME OF OUTSIDE BUSINESS ORGANIZATION: HORSES FOR RACING AND BREEDING  DISCLOSURE ID: 70227  INVESTMENT RELATED: N  ADDRESS OF BUSINESS:   PERRYSBURG, OHIO 43551  NATURE OF BUSINESS: SOLE PROPRIETORSHIP,  POSITION, TITLE, ASSOCIATION: OWNER,   START DATE OF RELATIONSHIP: 6/15/1989  NUMBER OF HOURS DEVOTED: 3 HOUR(S) MONTHLY  NUMBER OF HOURS DEVOTED DURING TRADING HOURS: 0  DUTIES: I HAVE NO RESONSIBILITIES DAY TO DAY. A FRIEND AND I HAVE OWNED STANDARDBRED MARESSINCE 1989. WE BREED THEM AND TRY TO SELL THE OFFSPRING..OCCASSIONALLY WE KEEP THEM TO RACE.. NORMALLY WE LOSE A LITTLE."
    }
  },
  "DRPs": []
}