{
  "Info": {
    "lastNm": "HOLTZ",
    "firstNm": "LOUISE",
    "midNm": "DOROTHY",
    "sufNm": null,
    "indvlPK": "1942041",
    "actvAGReg": 0,
    "link": "http://www.adviserinfo.sec.gov/IAPD/Individual/1942041"
  },
  "OthrNms": [
    {
      "lastNm": "KREKELER",
      "firstNm": "LOUISE",
      "midNm": null,
      "sufNm": null
    }
  ],
  "CrntEmps": [
    {
      "CrntRgstns": [
        {
          "regAuth": 13,
          "regCat": 0,
          "st": 2,
          "stDt": "2008-09-29T00:00:00"
        }
      ],
      "BrnchOfLocs": [
        {
          "str1": "230 2ND STREET SE",
          "str2": "SUITE 200",
          "city": "CEDAR RAPIDS",
          "state": 13,
          "stateSpecified": true,
          "cntry": "United States",
          "postlCd": "52401"
        }
      ],
      "orgNm": "ADVANTAGE INVESTMENT MANAGEMENT, LLC",
      "orgPK": "146236",
      "str1": "230 2ND STREET SE",
      "str2": "SUITE 200",
      "city": "CEDAR RAPIDS",
      "state": 13,
      "stateSpecified": true,
      "cntry": "United States",
      "postlCd": "52401"
    }
  ],
  "Exms": [
    {
      "exmCd": 0,
      "exmNm": "Uniform Securities Agent State Law Examination",
      "exmDt": "1990-07-09T00:00:00",
      "exmDtSpecified": true
    },
    {
      "exmCd": 2,
      "exmNm": "Uniform Investment Adviser Law Examination",
      "exmDt": "1999-05-24T00:00:00",
      "exmDtSpecified": true
    },
    {
      "exmCd": 3,
      "exmNm": "Uniform Combined State Law Examination",
      "exmDt": "2003-10-08T00:00:00",
      "exmDtSpecified": true
    }
  ],
  "Dsgntns": [],
  "PrevRgstns": [
    {
      "BrnchOfLocs": [
        {
          "city": "CEDAR RAPIDS",
          "state": 13,
          "stateSpecified": true
        },
        {
          "city": "CEDAR RAPIDS",
          "state": 13,
          "stateSpecified": true
        }
      ],
      "orgNm": "NATIONAL PLANNING CORPORATION",
      "orgPK": "29604",
      "regBeginDt": "2003-10-09T00:00:00",
      "regBeginDtSpecified": true,
      "regEndDt": "2012-07-31T00:00:00",
      "regEndDtSpecified": true
    },
    {
      "BrnchOfLocs": [
        {
          "city": "CEDAR RAPIDS",
          "state": 13,
          "stateSpecified": true
        }
      ],
      "orgNm": "J.R. RUSSO INVESTMENT ADVISORS",
      "orgPK": "117320",
      "regBeginDt": "2006-03-09T00:00:00",
      "regBeginDtSpecified": true,
      "regEndDt": "2009-01-15T00:00:00",
      "regEndDtSpecified": true
    }
  ],
  "EmpHss": [
    {
      "fromDt": "04/2003",
      "toDt": "07/2012",
      "orgNm": "NATIONAL PLANNING CORPORATION",
      "city": "CEDAR RAPIDS",
      "state": 13,
      "stateSpecified": true
    },
    {
      "fromDt": "09/2008",
      "toDt": null,
      "orgNm": "ADVANTAGE INVESTMENT MANAGEMENT LLC",
      "city": "CEDAR RAPIDS",
      "state": 13,
      "stateSpecified": true
    },
    {
      "fromDt": "07/2012",
      "toDt": null,
      "orgNm": "LPL FINANCIAL LLC",
      "city": "CEDAR RAPIDS",
      "state": 13,
      "stateSpecified": true
    }
  ],
  "OthrBuss": {
    "OthrBus": {
      "desc": "1. 7/31/2012: MIDAMERICA MARKETING NETWORK - OTHER - INV REL - AT REPORTED BUSINESS LOCATION - MARKETING/RECRUITING ENTITY FOR SECURITIES BUSINESS.   2. 7/31/2012: ADVANTAGE FINANCIAL GROUP INC (AFG) - DBA for LPL Business (entity for LPL business) - INV REL - AT REPORTED BUSINESS LOCATION - SHAREHOLDER/REP.    3. 08/13/2012: ADVANTAGE INVESTMENT MANAGEMENT LLC (AIM) - Registered Investment Advisor - INV REL - AT REPORTED BUSINESS LOCATION - IAR, Asset Management - 60% TIME SPENT."
    }
  },
  "DRPs": []
}