{
  "Info": {
    "lastNm": "BONEM",
    "firstNm": "STEWART",
    "midNm": "J",
    "sufNm": null,
    "indvlPK": "1945956",
    "actvAGReg": 0,
    "link": "http://www.adviserinfo.sec.gov/IAPD/Individual/1945956"
  },
  "OthrNms": [],
  "CrntEmps": [
    {
      "CrntRgstns": [
        {
          "regAuth": 36,
          "regCat": 0,
          "st": 2,
          "stDt": "2013-08-16T00:00:00"
        }
      ],
      "BrnchOfLocs": [
        {
          "str1": "7450 JAGER CT",
          "str2": null,
          "city": "CINCINNATI",
          "state": 36,
          "stateSpecified": true,
          "cntry": "United States",
          "postlCd": "45230"
        }
      ],
      "orgNm": "INVEST FINANCIAL CORPORATION",
      "orgPK": "12984",
      "str1": "12750 CITRUS PARK LANE",
      "str2": "SUITE 300",
      "city": "TAMPA",
      "state": 9,
      "stateSpecified": true,
      "cntry": "United States",
      "postlCd": "33625"
    }
  ],
  "Exms": [
    {
      "exmCd": 0,
      "exmNm": "Uniform Securities Agent State Law Examination",
      "exmDt": "1998-11-24T00:00:00",
      "exmDtSpecified": true
    }
  ],
  "Dsgntns": [],
  "PrevRgstns": [
    {
      "BrnchOfLocs": [
        {
          "city": "CINCINNATI",
          "state": 36,
          "stateSpecified": true
        }
      ],
      "orgNm": "SIMPLY MONEY ADVISORS",
      "orgPK": "106619",
      "regBeginDt": "2002-01-10T00:00:00",
      "regBeginDtSpecified": true,
      "regEndDt": "2013-06-17T00:00:00",
      "regEndDtSpecified": true
    }
  ],
  "EmpHss": [
    {
      "fromDt": "03/2000",
      "toDt": "06/2013",
      "orgNm": "ROYAL ALLIANCE ASSOCIATES, INC.",
      "city": "CINCINATTI",
      "state": 36,
      "stateSpecified": true
    },
    {
      "fromDt": "01/2002",
      "toDt": "06/2013",
      "orgNm": "FINANCIAL NETWORK GROUP, LTD",
      "city": "CINCINNATI",
      "state": 36,
      "stateSpecified": true
    },
    {
      "fromDt": "06/2013",
      "toDt": null,
      "orgNm": "INVEST FINANCIAL CORPORTION",
      "city": "CINCINNATI",
      "state": 36,
      "stateSpecified": true
    }
  ],
  "OthrBuss": {
    "OthrBus": {
      "desc": "1)STEWART BONEM - FIXED INSURANCE SALES, INVESTMENT RELATED, 337 THRALL ST CINCINNATI OH 45220, INSURANCE SALES/OWNER, START DATE 01/01/13, 5-20 HRS MO, 1 HR DURING SECURITIES TRADING, I MARKET LIFE, HEALTH, LONG-TERM CARE INSURANCE.   2)STEWART BONEM, INVESTMENT-RELATED, 337 THRALL ST CINCINNATI OH 45220, RENTAL PROPERTY/OWNER, START DATE: 10/1/1983, 5-10 HRS MO, 2-4 HRS DURING SECURITIES TRADING, I HAVE ONE RENTAL UNIT."
    }
  },
  "DRPs": []
}