{
  "Info": {
    "lastNm": "JOHNSTON",
    "firstNm": "JEFFREY",
    "midNm": "ANDREW",
    "sufNm": null,
    "indvlPK": "1977021",
    "actvAGReg": 0,
    "link": "http://www.adviserinfo.sec.gov/IAPD/Individual/1977021"
  },
  "OthrNms": [
    {
      "lastNm": "JOHNSTON",
      "firstNm": "JEFF",
      "midNm": null,
      "sufNm": null
    },
    {
      "lastNm": "JOHNSTON",
      "firstNm": "JEFFREY",
      "midNm": "ANDREW",
      "sufNm": null
    }
  ],
  "CrntEmps": [
    {
      "CrntRgstns": [
        {
          "regAuth": 13,
          "regCat": 0,
          "st": 2,
          "stDt": "2008-06-16T00:00:00"
        },
        {
          "regAuth": 45,
          "regCat": 0,
          "st": 2,
          "stDt": "2016-01-04T00:00:00"
        }
      ],
      "BrnchOfLocs": [
        {
          "str1": "3600 1ST AVE NE",
          "str2": "STE 100",
          "city": "CEDAR RAPIDS",
          "state": 13,
          "stateSpecified": true,
          "cntry": "United States",
          "postlCd": "52402"
        }
      ],
      "orgNm": "CAMBRIDGE INVESTMENT RESEARCH ADVISORS, INC.",
      "orgPK": "134139",
      "str1": "1776 PLEASANT PLAIN RD.",
      "str2": null,
      "city": "FAIRFIELD",
      "state": 13,
      "stateSpecified": true,
      "cntry": "United States",
      "postlCd": "52556-8757"
    }
  ],
  "Exms": [
    {
      "exmCd": 0,
      "exmNm": "Uniform Securities Agent State Law Examination",
      "exmDt": "1989-08-25T00:00:00",
      "exmDtSpecified": true
    },
    {
      "exmCd": 3,
      "exmNm": "Uniform Combined State Law Examination",
      "exmDt": "2002-01-14T00:00:00",
      "exmDtSpecified": true
    }
  ],
  "Dsgntns": [
    {
      "dsgntnNm": "Chartered Financial Consultant"
    }
  ],
  "PrevRgstns": [
    {
      "BrnchOfLocs": [
        {
          "city": "CEDAR RAPIDS",
          "state": 13,
          "stateSpecified": true
        }
      ],
      "orgNm": "NATIONAL PLANNING CORPORATION",
      "orgPK": "29604",
      "regBeginDt": "2002-02-12T00:00:00",
      "regBeginDtSpecified": true,
      "regEndDt": "2008-06-16T00:00:00",
      "regEndDtSpecified": true
    }
  ],
  "EmpHss": [
    {
      "fromDt": "01/1990",
      "toDt": null,
      "orgNm": "PREMIER INVESTMENTS OF IOWA",
      "city": "CEDAR RAPIDS",
      "state": 13,
      "stateSpecified": true
    },
    {
      "fromDt": "11/2001",
      "toDt": "06/2008",
      "orgNm": "NATIONAL PLANNING CORP",
      "city": "CEDAR RAPIDS",
      "state": 13,
      "stateSpecified": true
    },
    {
      "fromDt": "06/2008",
      "toDt": null,
      "orgNm": "CAMBRIDGE INVESTMENT RESEARCH ADVISORS, INC",
      "city": "FAIRFIELD",
      "state": 13,
      "stateSpecified": true
    },
    {
      "fromDt": "06/2008",
      "toDt": null,
      "orgNm": "CAMBRIDGE INVESTMENT RESEARCH, INC",
      "city": "FAIRFIELD",
      "state": 13,
      "stateSpecified": true
    }
  ],
  "OthrBuss": {
    "OthrBus": {
      "desc": "1)INDEPENDENT INSURANCE AGENT FOR VARIOUS INDEPENDENT INSURANCE COMPANIES. 2)TRIAD - BOARD MEMBER - <1% TIME SPENT. - 3)DR. DAVID AND GERRY JOHNSTON (PARENTS) - EXECUTOR UPON PARENTS' DEATH. 4)HERITAGE AGENCY ON AGING, 6301 KIRKWOOD BLVD SW, CEDAR RAPIDS, IA 52406. BEGAN 1/02 SERVING ON SENIOR CITIZENS ADVOCACY COMMITTEE. NOT INVESTMENT RELATED. DEVOTES 1 HR/MNTH, 1 HR/MNTH DURING TRADING. 5)CEDAR RAPIDS ROTARY, ELMCREST COUNTRY CLUB, CEDAR RAPIDS, IA 52338. BEGAN 1/01 AS MEMBER. NOT INVESTMENT RELATED. DEVOTES 1 HR/WK, NONE DURING TRADING."
    }
  },
  "DRPs": [
    {
      "hasRegAction": 1,
      "hasRegActionSpecified": true,
      "hasCriminal": 1,
      "hasCriminalSpecified": true,
      "hasBankrupt": 1,
      "hasBankruptSpecified": true,
      "hasCivilJudc": 1,
      "hasCivilJudcSpecified": true,
      "hasBond": 1,
      "hasBondSpecified": true,
      "hasJudgment": 1,
      "hasJudgmentSpecified": true,
      "hasInvstgn": 1,
      "hasInvstgnSpecified": true,
      "hasCustComp": 0,
      "hasCustCompSpecified": true,
      "hasTermination": 1,
      "hasTerminationSpecified": true
    }
  ]
}