{
  "Info": {
    "lastNm": "GUINCHARD",
    "firstNm": "JEAN-LOUIS",
    "midNm": null,
    "sufNm": null,
    "indvlPK": "1983431",
    "actvAGReg": 0,
    "link": "http://www.adviserinfo.sec.gov/IAPD/Individual/1983431"
  },
  "OthrNms": [
    {
      "lastNm": "GUINCHARD",
      "firstNm": "JEAN",
      "midNm": "LOUIS",
      "sufNm": null
    },
    {
      "lastNm": "GUINCHARD",
      "firstNm": "JEANLOUIS",
      "midNm": null,
      "sufNm": null
    }
  ],
  "CrntEmps": [
    {
      "CrntRgstns": [
        {
          "regAuth": 4,
          "regCat": 0,
          "st": 2,
          "stDt": "2015-01-09T00:00:00"
        }
      ],
      "BrnchOfLocs": [
        {
          "str1": "12265 EL CAMINO REAL",
          "str2": "SUITE 230",
          "city": "SAN DIEGO",
          "state": 4,
          "stateSpecified": true,
          "cntry": "United States",
          "postlCd": "92130"
        }
      ],
      "orgNm": "SILVER PORTAL CAPITAL ADVISORS, LLC",
      "orgPK": "170463",
      "str1": "12265 EL CAMINO REAL",
      "str2": "SUITE 230",
      "city": "SAN DIEGO",
      "state": 4,
      "stateSpecified": true,
      "cntry": "United States",
      "postlCd": "92130"
    }
  ],
  "Exms": [
    {
      "exmCd": 3,
      "exmNm": "Uniform Combined State Law Examination",
      "exmDt": "2005-06-14T00:00:00",
      "exmDtSpecified": true
    },
    {
      "exmCd": 0,
      "exmNm": "Uniform Securities Agent State Law Examination",
      "exmDt": "2013-01-28T00:00:00",
      "exmDtSpecified": true
    },
    {
      "exmCd": 2,
      "exmNm": "Uniform Investment Adviser Law Examination",
      "exmDt": "2014-10-27T00:00:00",
      "exmDtSpecified": true
    }
  ],
  "Dsgntns": [],
  "PrevRgstns": [
    {
      "BrnchOfLocs": [
        {
          "city": "SAN DIEGO",
          "state": 4,
          "stateSpecified": true
        },
        {
          "city": "SAN DIEGO",
          "state": 4,
          "stateSpecified": true
        }
      ],
      "orgNm": "BANC OF AMERICA INVESTMENT SERVICES, INC.",
      "orgPK": "16361",
      "regBeginDt": "2003-04-21T00:00:00",
      "regBeginDtSpecified": true,
      "regEndDt": "2007-05-29T00:00:00",
      "regEndDtSpecified": true
    },
    {
      "BrnchOfLocs": [
        {
          "city": "SAN DIEGO",
          "state": 4,
          "stateSpecified": true
        }
      ],
      "orgNm": "SILVER PORTAL CAPITAL ADVISORS, LLC",
      "orgPK": "170463",
      "regBeginDt": "2014-10-27T00:00:00",
      "regBeginDtSpecified": true,
      "regEndDt": "2014-12-31T00:00:00",
      "regEndDtSpecified": true
    }
  ],
  "EmpHss": [
    {
      "fromDt": "03/2003",
      "toDt": "06/2007",
      "orgNm": "BANC OF AMERICA INVESTMENT SERVICES, INC.",
      "city": "SAN DIEGO",
      "state": 4,
      "stateSpecified": true
    },
    {
      "fromDt": "03/2003",
      "toDt": "06/2007",
      "orgNm": "BANK OF AMERICA, N.A.",
      "city": "SAN DIEGO",
      "state": 4,
      "stateSpecified": true
    },
    {
      "fromDt": "07/2007",
      "toDt": null,
      "orgNm": "O&A REAL ESTATE DEVELOPMENT PARTNERS",
      "city": "SAN DIEGO",
      "state": 4,
      "stateSpecified": true
    },
    {
      "fromDt": "07/2007",
      "toDt": "08/2009",
      "orgNm": "O'CONNOR CAPITAL PARTNERS",
      "city": "SAN DIEGO",
      "state": 4,
      "stateSpecified": true
    },
    {
      "fromDt": "02/2012",
      "toDt": "07/2013",
      "orgNm": "SILVER PORTAL CAPITAL LLC",
      "city": "SAN DIEGO",
      "state": 4,
      "stateSpecified": true
    },
    {
      "fromDt": "07/2013",
      "toDt": null,
      "orgNm": "SILVER PORTAL CAPITAL LLC",
      "city": "SAN DIEGO",
      "state": 4,
      "stateSpecified": true
    },
    {
      "fromDt": "02/2014",
      "toDt": null,
      "orgNm": "SILVER PORTAL CAPITAL ADVISORS, LLC",
      "city": "SAN DIEGO",
      "state": 4,
      "stateSpecified": true
    }
  ],
  "OthrBuss": {
    "OthrBus": {
      "desc": "O&A REAL ESTATE DEVELOPMENT PARTNERS; NON-INVESTMENT RELATED; 12265 EL CAMINO REAL, SAN DIEGO, CALIFORNIA 92130; PRESIDENT/CEO; START DATE:07/2007; 10 HRS/WEEK; REAL ESTATE DEVELOPMENT.  JLG REAL ESTATE VENTURES, LLC; NON-INVESTMENT RELATED; 306 W. 7TH ST., SUITE 500, FORT WORTH, TEXAS 76102; MANAGING MEMBER; 2 HRS/WEEK; REAL ESTATE DEVELOPMENT.  PENINSULA MAYA DEVELOPMENTS, S.A.DE CV.; CALLE 8 # 101 X5Y7, FRAC MONTECRISTO, MEMDA, YUCATAN, MEXICO 97133; INVESTMENT RELATED; START DATE: JULY 2008; CONSULTANT; 20HRS/MONTH; 10 HRS DURING TRADING; REAL ESTATE DEVELOPMENT/LARGE MASTER PLANNED RESORT DESTINATION; DUTIES INCLUDE COORDINATING CONSULTANTS AND PREPARING REAL ESTATE COMPANY FOR SALE."
    }
  },
  "DRPs": []
}