{
  "Info": {
    "lastNm": "ROUGHTON",
    "firstNm": "MICHAEL",
    "midNm": "GENE",
    "sufNm": null,
    "indvlPK": "1986946",
    "actvAGReg": 0,
    "link": "http://www.adviserinfo.sec.gov/IAPD/Individual/1986946"
  },
  "OthrNms": [],
  "CrntEmps": [
    {
      "CrntRgstns": [
        {
          "regAuth": 25,
          "regCat": 0,
          "st": 2,
          "stDt": "2002-04-11T00:00:00"
        },
        {
          "regAuth": 2,
          "regCat": 0,
          "st": 2,
          "stDt": "2011-01-24T00:00:00"
        }
      ],
      "BrnchOfLocs": [
        {
          "str1": "2914 EAST 32ND STREET",
          "str2": "SUITE 207",
          "city": "JOPLIN",
          "state": 25,
          "stateSpecified": true,
          "cntry": "United States",
          "postlCd": "64804"
        }
      ],
      "orgNm": "PRUCO SECURITIES, LLC.",
      "orgPK": "5685",
      "str1": "751 BROAD STREET",
      "str2": null,
      "city": "NEWARK",
      "state": 32,
      "stateSpecified": true,
      "cntry": "United States",
      "postlCd": "07102-3777"
    }
  ],
  "Exms": [
    {
      "exmCd": 0,
      "exmNm": "Uniform Securities Agent State Law Examination",
      "exmDt": "1989-10-05T00:00:00",
      "exmDtSpecified": true
    },
    {
      "exmCd": 2,
      "exmNm": "Uniform Investment Adviser Law Examination",
      "exmDt": "1999-12-22T00:00:00",
      "exmDtSpecified": true
    }
  ],
  "Dsgntns": [],
  "PrevRgstns": [],
  "EmpHss": [
    {
      "fromDt": "08/1989",
      "toDt": null,
      "orgNm": "PRUCO SECURITIES,LLC",
      "city": "JOPLIN",
      "state": 25,
      "stateSpecified": true
    },
    {
      "fromDt": "08/1989",
      "toDt": null,
      "orgNm": "THE PRUDENTIAL INSURANCE COMPANY OF AMERICA",
      "city": "JOPLIN",
      "state": 25,
      "stateSpecified": true
    }
  ],
  "OthrBuss": {
    "OthrBus": {
      "desc": "GOLDEN RULE|HARTFORD|ILLINOIS MUTUAL LIFE INS|MEDICO LIFE INS CO|MUTUAL OF OMAHA|STARMARK|UNITED HEALTH CARE"
    }
  },
  "DRPs": []
}