{
  "Info": {
    "lastNm": "ERB",
    "firstNm": "KEVIN",
    "midNm": "M",
    "sufNm": null,
    "indvlPK": "1989417",
    "actvAGReg": 0,
    "link": "http://www.adviserinfo.sec.gov/IAPD/Individual/1989417"
  },
  "OthrNms": [],
  "CrntEmps": [
    {
      "CrntRgstns": [
        {
          "regAuth": 39,
          "regCat": 0,
          "st": 2,
          "stDt": "2007-09-18T00:00:00"
        }
      ],
      "BrnchOfLocs": [
        {
          "str1": "820 ROHRERSTOWN RD. SUITE 5",
          "str2": null,
          "city": "LANCASTER",
          "state": 39,
          "stateSpecified": true,
          "cntry": "United States",
          "postlCd": "17601"
        }
      ],
      "orgNm": "MSI FINANCIAL SERVICES, INC.",
      "orgPK": "14251",
      "str1": "1095 AVENUE OF THE AMERICAS",
      "str2": null,
      "city": "NEW YORK",
      "state": 35,
      "stateSpecified": true,
      "cntry": "United States",
      "postlCd": "10036"
    }
  ],
  "Exms": [
    {
      "exmCd": 0,
      "exmNm": "Uniform Securities Agent State Law Examination",
      "exmDt": "1990-05-30T00:00:00",
      "exmDtSpecified": true
    }
  ],
  "Dsgntns": [],
  "PrevRgstns": [],
  "EmpHss": [
    {
      "fromDt": "10/1989",
      "toDt": null,
      "orgNm": "METLIFE SECURITIES INC.",
      "city": "LANCASTER",
      "state": 39,
      "stateSpecified": true
    },
    {
      "fromDt": "10/1989",
      "toDt": null,
      "orgNm": "METROPOLITAN LIFE INSURANCE COMPANY",
      "city": "LANCASTER",
      "state": 39,
      "stateSpecified": true
    }
  ],
  "OthrBuss": {
    "OthrBus": {
      "desc": "INDEPENDENT INSURANCE AGENT - FROM BUSINESS ADDRESS- FIXED ANNUITIES - 1 HOUR SECURITIES - SINCE 9/2012"
    }
  },
  "DRPs": []
}