{
  "Info": {
    "lastNm": "MACKIMM",
    "firstNm": "JOHN",
    "midNm": "WILLIAM",
    "sufNm": "II",
    "indvlPK": "1999164",
    "actvAGReg": 0,
    "link": "http://www.adviserinfo.sec.gov/IAPD/Individual/1999164"
  },
  "OthrNms": [],
  "CrntEmps": [
    {
      "CrntRgstns": [
        {
          "regAuth": 45,
          "regCat": 0,
          "st": 3,
          "stDt": "2012-08-09T00:00:00"
        },
        {
          "regAuth": 24,
          "regCat": 0,
          "st": 2,
          "stDt": "2014-01-30T00:00:00"
        }
      ],
      "BrnchOfLocs": [
        {
          "str1": "701 XENIA AVE S",
          "str2": "SUITE 250",
          "city": "MINNEAPOLIS",
          "state": 24,
          "stateSpecified": true,
          "cntry": "United States",
          "postlCd": "55416-1029"
        }
      ],
      "orgNm": "EVEREST FINANCIAL GROUP",
      "orgPK": "137260",
      "str1": "701 XENIA AVE S",
      "str2": "SUITE 250",
      "city": "MINNEAPOLIS",
      "state": 24,
      "stateSpecified": true,
      "cntry": "United States",
      "postlCd": "55416-1029"
    }
  ],
  "Exms": [
    {
      "exmCd": 0,
      "exmNm": "Uniform Securities Agent State Law Examination",
      "exmDt": "1989-10-27T00:00:00",
      "exmDtSpecified": true
    },
    {
      "exmCd": 3,
      "exmNm": "Uniform Combined State Law Examination",
      "exmDt": "2005-11-21T00:00:00",
      "exmDtSpecified": true
    }
  ],
  "Dsgntns": [],
  "PrevRgstns": [],
  "EmpHss": [
    {
      "fromDt": "06/1993",
      "toDt": null,
      "orgNm": "THE MACKIMM COMPANY",
      "city": "ST. PAUL",
      "state": 24,
      "stateSpecified": true
    },
    {
      "fromDt": "11/2005",
      "toDt": null,
      "orgNm": "SECURITIES AMERICA, INC.",
      "city": "MINNEAPOLIS",
      "state": 24,
      "stateSpecified": true
    },
    {
      "fromDt": "12/2005",
      "toDt": null,
      "orgNm": "EVEREST FINANCIAL GROUP, LLC",
      "city": "GOLDEN VALLEY",
      "state": 24,
      "stateSpecified": true
    }
  ],
  "OthrBuss": {
    "OthrBus": {
      "desc": "1) SKI SALES - MINNEAPOLIS, MN - BEGINNING SEPTEMBER 1995 - 20% TIME SPENT   2) EVEREST FINANCIAL GROUP LLC - Investment Advisory - INVESTMENT ADVISOR REP - Investment Related - Start Date: 1/2006 - Located at 701 XENIA AVE S SUITE 250, MINNEAPOLIS, MN 55416 - 60% TIME SPENT    3) INSURANCE SALES - AGENT - Investment Related - Start Date: 1/1990 - Located at 701 XENIA AVE S SUITE 250, MINNEAPOLIS, MN 55416 - 10% TIME SPENT    4) NOTARY - LESS THAN 1% TIME SPENT"
    }
  },
  "DRPs": [
    {
      "hasRegAction": 1,
      "hasRegActionSpecified": true,
      "hasCriminal": 1,
      "hasCriminalSpecified": true,
      "hasBankrupt": 1,
      "hasBankruptSpecified": true,
      "hasCivilJudc": 1,
      "hasCivilJudcSpecified": true,
      "hasBond": 1,
      "hasBondSpecified": true,
      "hasJudgment": 1,
      "hasJudgmentSpecified": true,
      "hasInvstgn": 1,
      "hasInvstgnSpecified": true,
      "hasCustComp": 0,
      "hasCustCompSpecified": true,
      "hasTermination": 1,
      "hasTerminationSpecified": true
    }
  ]
}