{
  "Info": {
    "lastNm": "CLOUTIER",
    "firstNm": "PATRICK",
    "midNm": "JOSEPH",
    "sufNm": null,
    "indvlPK": "2001475",
    "actvAGReg": 0,
    "link": "http://www.adviserinfo.sec.gov/IAPD/Individual/2001475"
  },
  "OthrNms": [],
  "CrntEmps": [
    {
      "CrntRgstns": [
        {
          "regAuth": 45,
          "regCat": 0,
          "st": 2,
          "stDt": "2015-12-10T00:00:00"
        }
      ],
      "BrnchOfLocs": [
        {
          "str1": "119 W VIRGINIA STREET",
          "str2": "STE 201",
          "city": "MCKINNEY",
          "state": 45,
          "stateSpecified": true,
          "cntry": "United States",
          "postlCd": "75069"
        }
      ],
      "orgNm": "WOODBURY FINANCIAL SERVICES, INC.",
      "orgPK": "421",
      "str1": "7755 3RD STREET NORTH",
      "str2": null,
      "city": "OAKDALE",
      "state": 24,
      "stateSpecified": true,
      "cntry": "United States",
      "postlCd": "55128"
    }
  ],
  "Exms": [
    {
      "exmCd": 0,
      "exmNm": "Uniform Securities Agent State Law Examination",
      "exmDt": "1989-11-22T00:00:00",
      "exmDtSpecified": true
    },
    {
      "exmCd": 2,
      "exmNm": "Uniform Investment Adviser Law Examination",
      "exmDt": "1999-12-15T00:00:00",
      "exmDtSpecified": true
    }
  ],
  "Dsgntns": [],
  "PrevRgstns": [
    {
      "BrnchOfLocs": [
        {
          "city": "MCKINNEY",
          "state": 45,
          "stateSpecified": true
        }
      ],
      "orgNm": "LINCOLN FINANCIAL ADVISORS CORPORATION",
      "orgPK": "3978",
      "regBeginDt": "2000-08-03T00:00:00",
      "regBeginDtSpecified": true,
      "regEndDt": "2005-02-09T00:00:00",
      "regEndDtSpecified": true
    },
    {
      "BrnchOfLocs": [
        {
          "city": "DALLAS",
          "state": 45,
          "stateSpecified": true
        },
        {
          "city": "MCKINNEY",
          "state": 45,
          "stateSpecified": true
        }
      ],
      "orgNm": "LINCOLN FINANCIAL SECURITIES CORPORATION",
      "orgPK": "3870",
      "regBeginDt": "2005-03-02T00:00:00",
      "regBeginDtSpecified": true,
      "regEndDt": "2015-12-11T00:00:00",
      "regEndDtSpecified": true
    },
    {
      "BrnchOfLocs": [
        {
          "city": "DALLAS",
          "state": 45,
          "stateSpecified": true
        },
        {
          "city": "FORT WAYNE",
          "state": 16,
          "stateSpecified": true
        },
        {
          "city": "MCKINNEY",
          "state": 45,
          "stateSpecified": true
        },
        {
          "city": "MCKINNEY",
          "state": 45,
          "stateSpecified": true
        }
      ],
      "orgNm": "LINCOLN FINANCIAL ADVISORS CORPORATION",
      "orgPK": "3978",
      "regBeginDt": "2008-01-10T00:00:00",
      "regBeginDtSpecified": true,
      "regEndDt": "2011-09-19T00:00:00",
      "regEndDtSpecified": true
    }
  ],
  "EmpHss": [
    {
      "fromDt": "02/2005",
      "toDt": "07/2008",
      "orgNm": "JEFFERSON PILOT SECURITIES CORPORATION",
      "city": "MCKINNEY",
      "state": 45,
      "stateSpecified": true
    },
    {
      "fromDt": "01/2008",
      "toDt": "12/2015",
      "orgNm": "LINCOLN FINANCIAL ADVISORS",
      "city": "MCKINNEY",
      "state": 45,
      "stateSpecified": true
    },
    {
      "fromDt": "07/2008",
      "toDt": "12/2015",
      "orgNm": "LINCOLN FINANCIAL SECURITIES CORPORATION",
      "city": "MCKINNEY",
      "state": 45,
      "stateSpecified": true
    },
    {
      "fromDt": "12/2015",
      "toDt": null,
      "orgNm": "WOODBURY FINANCIAL SERVICES INC",
      "city": "MCKINNEY",
      "state": 45,
      "stateSpecified": true
    }
  ],
  "OthrBuss": {
    "OthrBus": {
      "desc": "1. FIXED LIFE ANNUITY SALES POSITION: agent NATURE: I sell and service fixed life insurance , annuities , and fiexed index annuities to my clients. many of those are clients of my investment or IAR business. INVESTMENT RELATED: No NUMBER OF HOURS: 20 SECURITIES TRADING HOURS: 20 START DATE: 11/01/1987 ADDRESS: 119 W. Virginia Street, Ste 201, Mckinney TX 75069 DESCRIPTION: I sell and service fixed life insurance and annuities.  2. PATRICK J CLOUTIER POSITION: board member NATURE: I am on the Zoning Board of Adjustments for the City of Mckinney. INVESTMENT RELATED: No NUMBER OF HOURS: 1 SECURITIES TRADING HOURS: 0 START DATE: 09/03/2014 ADDRESS: 222 N Tennesee st, Mckinney TX 75069 DESCRIPTION: citizens who want a variance from Mckinney's zoning or building codes must come before our board. there are 5 members. It takes 4 to grant a variance."
    }
  },
  "DRPs": []
}