{
  "Info": {
    "lastNm": "PERRY",
    "firstNm": "DEBRA",
    "midNm": "CHARLENE",
    "sufNm": null,
    "indvlPK": "2012450",
    "actvAGReg": 0,
    "link": "http://www.adviserinfo.sec.gov/IAPD/Individual/2012450"
  },
  "OthrNms": [
    {
      "lastNm": "QUICK",
      "firstNm": "DEBRA",
      "midNm": "CHARLENE",
      "sufNm": null
    }
  ],
  "CrntEmps": [
    {
      "CrntRgstns": [
        {
          "regAuth": 45,
          "regCat": 0,
          "st": 2,
          "stDt": "2015-01-05T00:00:00"
        }
      ],
      "BrnchOfLocs": [
        {
          "str1": "LEGACY TOWER",
          "str2": "7250 DALLAS PARKWAY, 12TH FLOOR",
          "city": "PLANO",
          "state": 45,
          "stateSpecified": true,
          "cntry": "United States",
          "postlCd": "75024"
        }
      ],
      "orgNm": "UBS FINANCIAL SERVICES INC.",
      "orgPK": "8174",
      "str1": "1200 HARBOR BOULEVARD",
      "str2": null,
      "city": "WEEHAWKEN",
      "state": 32,
      "stateSpecified": true,
      "cntry": "United States",
      "postlCd": "07086"
    }
  ],
  "Exms": [
    {
      "exmCd": 0,
      "exmNm": "Uniform Securities Agent State Law Examination",
      "exmDt": "1996-04-11T00:00:00",
      "exmDtSpecified": true
    },
    {
      "exmCd": 3,
      "exmNm": "Uniform Combined State Law Examination",
      "exmDt": "2015-01-05T00:00:00",
      "exmDtSpecified": true
    }
  ],
  "Dsgntns": [],
  "PrevRgstns": [
    {
      "BrnchOfLocs": [
        {
          "city": "LEWISVILLE",
          "state": 45,
          "stateSpecified": true
        }
      ],
      "orgNm": "A. G. EDWARDS & SONS, INC.",
      "orgPK": "4",
      "regBeginDt": "2000-04-14T00:00:00",
      "regBeginDtSpecified": true,
      "regEndDt": "2002-05-13T00:00:00",
      "regEndDtSpecified": true
    },
    {
      "BrnchOfLocs": [
        {
          "city": "DALLAS",
          "state": 45,
          "stateSpecified": true
        }
      ],
      "orgNm": "HORNOR, TOWNSEND & KENT, INC.",
      "orgPK": "4031",
      "regBeginDt": "2002-05-21T00:00:00",
      "regBeginDtSpecified": true,
      "regEndDt": "2004-06-21T00:00:00",
      "regEndDtSpecified": true
    },
    {
      "BrnchOfLocs": [
        {
          "city": "PLANO",
          "state": 45,
          "stateSpecified": true
        },
        {
          "city": "PLANO",
          "state": 45,
          "stateSpecified": true
        }
      ],
      "orgNm": "MORGAN STANLEY DW INC.",
      "orgPK": "7556",
      "regBeginDt": "2004-07-13T00:00:00",
      "regBeginDtSpecified": true,
      "regEndDt": "2007-04-02T00:00:00",
      "regEndDtSpecified": true
    },
    {
      "BrnchOfLocs": [
        {
          "city": "PLANO",
          "state": 45,
          "stateSpecified": true
        }
      ],
      "orgNm": "MORGAN STANLEY & CO. LLC",
      "orgPK": "8209",
      "regBeginDt": "2007-04-02T00:00:00",
      "regBeginDtSpecified": true,
      "regEndDt": "2007-06-13T00:00:00",
      "regEndDtSpecified": true
    }
  ],
  "EmpHss": [
    {
      "fromDt": "06/2004",
      "toDt": "06/2007",
      "orgNm": "MORGAN STANLEY DEAN WITTER INC.",
      "city": "PLANO",
      "state": 45,
      "stateSpecified": true
    },
    {
      "fromDt": "07/2007",
      "toDt": "03/2009",
      "orgNm": "TRINITY CREDIT SERVICES",
      "city": "MCKINNEY",
      "state": 45,
      "stateSpecified": true
    },
    {
      "fromDt": "04/2009",
      "toDt": "04/2009",
      "orgNm": "UNEMPLOYED",
      "city": "APO AP",
      "stateSpecified": false
    },
    {
      "fromDt": "05/2009",
      "toDt": "02/2012",
      "orgNm": "U.S. ARMY GARRISON JAPAN",
      "city": "APO AP",
      "stateSpecified": false
    },
    {
      "fromDt": "03/2012",
      "toDt": "06/2012",
      "orgNm": "UNEMPLOYED",
      "city": "LAWTON",
      "state": 37,
      "stateSpecified": true
    },
    {
      "fromDt": "07/2012",
      "toDt": "04/2013",
      "orgNm": "HATCH, CROKE & ASSOCIATES, P.C.",
      "city": "LAWTON",
      "state": 37,
      "stateSpecified": true
    },
    {
      "fromDt": "08/2012",
      "toDt": "08/2014",
      "orgNm": "STUDENT",
      "city": "LAWTON",
      "state": 37,
      "stateSpecified": true
    },
    {
      "fromDt": "09/2014",
      "toDt": null,
      "orgNm": "UBS FINANCIAL SERVICES",
      "city": "PLANO",
      "state": 45,
      "stateSpecified": true
    }
  ],
  "OthrBuss": {
    "OthrBus": null
  },
  "DRPs": []
}