{
  "Info": {
    "lastNm": "SCHULTE",
    "firstNm": "GREGORY",
    "midNm": "JOSEPH",
    "sufNm": null,
    "indvlPK": "2013712",
    "actvAGReg": 0,
    "link": "http://www.adviserinfo.sec.gov/IAPD/Individual/2013712"
  },
  "OthrNms": [
    {
      "lastNm": "SCHULTE",
      "firstNm": "GREG",
      "midNm": null,
      "sufNm": null
    }
  ],
  "CrntEmps": [
    {
      "CrntRgstns": [
        {
          "regAuth": 3,
          "regCat": 0,
          "st": 2,
          "stDt": "2010-03-04T00:00:00"
        }
      ],
      "BrnchOfLocs": [
        {
          "str1": "36800 N. SIDEWINDER",
          "str2": "STE A-7",
          "city": "CAREFREE",
          "state": 3,
          "stateSpecified": true,
          "cntry": "United States",
          "postlCd": "85377-3555"
        }
      ],
      "orgNm": "BERTHEL, FISHER & COMPANY FINANCIAL SERVICES, INC.",
      "orgPK": "13609",
      "str1": "4201 42ND STREET NE",
      "str2": "SUITE 100",
      "city": "CEDAR RAPIDS",
      "state": 13,
      "stateSpecified": true,
      "cntry": "United States",
      "postlCd": "52402"
    }
  ],
  "Exms": [
    {
      "exmCd": 0,
      "exmNm": "Uniform Securities Agent State Law Examination",
      "exmDt": "1990-04-12T00:00:00",
      "exmDtSpecified": true
    },
    {
      "exmCd": 2,
      "exmNm": "Uniform Investment Adviser Law Examination",
      "exmDt": "1998-04-09T00:00:00",
      "exmDtSpecified": true
    }
  ],
  "Dsgntns": [],
  "PrevRgstns": [
    {
      "BrnchOfLocs": [
        {
          "city": "SCOTTSDALE",
          "state": 3,
          "stateSpecified": true
        },
        {
          "city": "SCOTTSDALE",
          "state": 3,
          "stateSpecified": true
        },
        {
          "city": "SCOTTSDALE",
          "state": 3,
          "stateSpecified": true
        }
      ],
      "orgNm": "BANC OF AMERICA INVESTMENT SERVICES, INC.",
      "orgPK": "16361",
      "regBeginDt": "2002-08-15T00:00:00",
      "regBeginDtSpecified": true,
      "regEndDt": "2008-05-20T00:00:00",
      "regEndDtSpecified": true
    },
    {
      "BrnchOfLocs": [
        {
          "city": "GLENDALE",
          "state": 3,
          "stateSpecified": true
        }
      ],
      "orgNm": "WELLS FARGO ADVISORS, LLC",
      "orgPK": "19616",
      "regBeginDt": "2008-05-27T00:00:00",
      "regBeginDtSpecified": true,
      "regEndDt": "2010-02-26T00:00:00",
      "regEndDtSpecified": true
    }
  ],
  "EmpHss": [
    {
      "fromDt": "07/1999",
      "toDt": "05/2008",
      "orgNm": "BANC OF AMERICA INSURANCE SERVICES, INC.",
      "city": "SCOTTSDALE",
      "state": 3,
      "stateSpecified": true
    },
    {
      "fromDt": "07/1999",
      "toDt": "05/2008",
      "orgNm": "BANC OF AMERICA INVESTMENT SERVICES, INC.",
      "city": "SCOTTSDALE",
      "state": 3,
      "stateSpecified": true
    },
    {
      "fromDt": "05/2008",
      "toDt": "02/2010",
      "orgNm": "WACHOVIA SECURITIES, LLC",
      "city": "PHOENIX",
      "state": 3,
      "stateSpecified": true
    },
    {
      "fromDt": "02/2010",
      "toDt": null,
      "orgNm": "BERTHEL FISHER & COMPANY FINANCIAL SERVICES, INC.",
      "city": "CAREFREE",
      "state": 3,
      "stateSpecified": true
    }
  ],
  "OthrBuss": {
    "OthrBus": {
      "desc": "1.BLACK MOUNTAIN WEALTH ADVISORS, LLC-Y-CAREFREE, AZ-FINANCIAL SERVICES-PRESIDENT-02/2010-160-160-HELP CLIENTS REACH THEIR INDIVIDUAL FINANCIAL GOALS 2.RARE COINS OF NEW HAMPSHIRE-N-CAREFREE, AZ-PURCHASE GOLD/SILVER COINS-SALES REP-02/2010-1-0-HELP CLIENTS PURCHASE GOLD/SILVER COINS."
    }
  },
  "DRPs": [
    {
      "hasRegAction": 1,
      "hasRegActionSpecified": true,
      "hasCriminal": 1,
      "hasCriminalSpecified": true,
      "hasBankrupt": 1,
      "hasBankruptSpecified": true,
      "hasCivilJudc": 1,
      "hasCivilJudcSpecified": true,
      "hasBond": 1,
      "hasBondSpecified": true,
      "hasJudgment": 1,
      "hasJudgmentSpecified": true,
      "hasInvstgn": 1,
      "hasInvstgnSpecified": true,
      "hasCustComp": 0,
      "hasCustCompSpecified": true,
      "hasTermination": 1,
      "hasTerminationSpecified": true
    }
  ]
}