{
  "Info": {
    "lastNm": "PELOQUIN",
    "firstNm": "PHILIP",
    "midNm": "ANDRE",
    "sufNm": null,
    "indvlPK": "2026151",
    "actvAGReg": 0,
    "link": "http://www.adviserinfo.sec.gov/IAPD/Individual/2026151"
  },
  "OthrNms": [
    {
      "lastNm": "PELOQUIN",
      "firstNm": "PHILP",
      "midNm": "ANDRE",
      "sufNm": null
    }
  ],
  "CrntEmps": [
    {
      "CrntRgstns": [
        {
          "regAuth": 20,
          "regCat": 0,
          "st": 2,
          "stDt": "2016-02-23T00:00:00"
        }
      ],
      "BrnchOfLocs": [
        {
          "str1": "28 State Street, 40th Floor",
          "str2": "SUITE A",
          "city": "BOSTON",
          "state": 20,
          "stateSpecified": true,
          "cntry": "United States",
          "postlCd": "02109"
        }
      ],
      "orgNm": "CANTELLA & CO., INC.",
      "orgPK": "13905",
      "str1": "28 STATE STREET",
      "str2": "40TH FLOOR",
      "city": "BOSTON",
      "state": 20,
      "stateSpecified": true,
      "cntry": "United States",
      "postlCd": "02109"
    }
  ],
  "Exms": [
    {
      "exmCd": 0,
      "exmNm": "Uniform Securities Agent State Law Examination",
      "exmDt": "1990-02-06T00:00:00",
      "exmDtSpecified": true
    },
    {
      "exmCd": 2,
      "exmNm": "Uniform Investment Adviser Law Examination",
      "exmDt": "1991-10-23T00:00:00",
      "exmDtSpecified": true
    }
  ],
  "Dsgntns": [
    {
      "dsgntnNm": "Certified Financial Planner"
    }
  ],
  "PrevRgstns": [],
  "EmpHss": [
    {
      "fromDt": "07/1993",
      "toDt": "12/2008",
      "orgNm": "CITIGROUP GLOBAL MARKETS INC.",
      "city": "BOSTON",
      "state": 20,
      "stateSpecified": true
    },
    {
      "fromDt": "12/2008",
      "toDt": "02/2016",
      "orgNm": "UBS FINANCIAL SERVICES INC",
      "city": "BOSTON",
      "state": 20,
      "stateSpecified": true
    },
    {
      "fromDt": "02/2016",
      "toDt": null,
      "orgNm": "Cantella & Co., Inc.",
      "city": "Boston",
      "state": 20,
      "stateSpecified": true
    }
  ],
  "OthrBuss": {
    "OthrBus": {
      "desc": "Insurance sales- agent. He sells non-securities life insurance and fixed annuities. About 5 hours a month are devoted to this, all during trading hours. Start date: 2/12/16."
    }
  },
  "DRPs": [
    {
      "hasRegAction": 1,
      "hasRegActionSpecified": true,
      "hasCriminal": 1,
      "hasCriminalSpecified": true,
      "hasBankrupt": 1,
      "hasBankruptSpecified": true,
      "hasCivilJudc": 1,
      "hasCivilJudcSpecified": true,
      "hasBond": 1,
      "hasBondSpecified": true,
      "hasJudgment": 1,
      "hasJudgmentSpecified": true,
      "hasInvstgn": 1,
      "hasInvstgnSpecified": true,
      "hasCustComp": 0,
      "hasCustCompSpecified": true,
      "hasTermination": 1,
      "hasTerminationSpecified": true
    }
  ]
}