{
  "Info": {
    "lastNm": "DORMAN",
    "firstNm": "HARRY",
    "midNm": "PAUL",
    "sufNm": null,
    "indvlPK": "2027308",
    "actvAGReg": 0,
    "link": "http://www.adviserinfo.sec.gov/IAPD/Individual/2027308"
  },
  "OthrNms": [
    {
      "lastNm": "DORMAN",
      "firstNm": "HARRY",
      "midNm": "P",
      "sufNm": null
    }
  ],
  "CrntEmps": [
    {
      "CrntRgstns": [
        {
          "regAuth": 50,
          "regCat": 0,
          "st": 2,
          "stDt": "2013-05-23T00:00:00"
        }
      ],
      "BrnchOfLocs": [
        {
          "str1": "1500 N CASALOMA DRIVE",
          "str2": "STE 411",
          "city": "APPLETON",
          "state": 50,
          "stateSpecified": true,
          "cntry": "United States",
          "postlCd": "54913"
        }
      ],
      "orgNm": "SII INVESTMENTS, INC.",
      "orgPK": "2225",
      "str1": "5555 W GRANDE MARKET DRIVE",
      "str2": null,
      "city": "APPLETON",
      "state": 50,
      "stateSpecified": true,
      "cntry": "United States",
      "postlCd": "54913-8403"
    }
  ],
  "Exms": [
    {
      "exmCd": 0,
      "exmNm": "Uniform Securities Agent State Law Examination",
      "exmDt": "1990-03-05T00:00:00",
      "exmDtSpecified": true
    },
    {
      "exmCd": 2,
      "exmNm": "Uniform Investment Adviser Law Examination",
      "exmDt": "1990-03-26T00:00:00",
      "exmDtSpecified": true
    }
  ],
  "Dsgntns": [],
  "PrevRgstns": [
    {
      "BrnchOfLocs": [
        {
          "city": "APPLETON",
          "state": 50,
          "stateSpecified": true
        },
        {
          "city": "APPLETON",
          "state": 50,
          "stateSpecified": true
        },
        {
          "city": "NEENAH",
          "state": 50,
          "stateSpecified": true
        },
        {
          "city": "NEENAH",
          "state": 50,
          "stateSpecified": true
        }
      ],
      "orgNm": "MML INVESTORS SERVICES, LLC",
      "orgPK": "10409",
      "regBeginDt": "2004-06-07T00:00:00",
      "regBeginDtSpecified": true,
      "regEndDt": "2013-05-22T00:00:00",
      "regEndDtSpecified": true
    }
  ],
  "EmpHss": [
    {
      "fromDt": "06/2004",
      "toDt": "05/2013",
      "orgNm": "MASSMUTUAL",
      "city": "SPRINGFIELD",
      "state": 20,
      "stateSpecified": true
    },
    {
      "fromDt": "06/2004",
      "toDt": "05/2013",
      "orgNm": "MML INVESTORS SERVICES INC",
      "city": "SPRINGFIELD",
      "state": 20,
      "stateSpecified": true
    },
    {
      "fromDt": "05/2013",
      "toDt": null,
      "orgNm": "SII INVESTMENTS, INC.",
      "city": "APPLETON",
      "state": 50,
      "stateSpecified": true
    }
  ],
  "OthrBuss": {
    "OthrBus": {
      "desc": "1) AFFORDABLE HEALTH INSURANCE ADVOCATES, LLC - OWNER AND INSURANCE AGENT OFFERING FIXED INSURANCE PRODUCTS. 2) MEDICARE MASTER, LLC - OWNER AND INSURANCE AGENT OFFERING FIXED INSURANCE PRODUCTS."
    }
  },
  "DRPs": [
    {
      "hasRegAction": 1,
      "hasRegActionSpecified": true,
      "hasCriminal": 1,
      "hasCriminalSpecified": true,
      "hasBankrupt": 1,
      "hasBankruptSpecified": true,
      "hasCivilJudc": 1,
      "hasCivilJudcSpecified": true,
      "hasBond": 1,
      "hasBondSpecified": true,
      "hasJudgment": 1,
      "hasJudgmentSpecified": true,
      "hasInvstgn": 1,
      "hasInvstgnSpecified": true,
      "hasCustComp": 0,
      "hasCustCompSpecified": true,
      "hasTermination": 1,
      "hasTerminationSpecified": true
    }
  ]
}