{
  "Info": {
    "lastNm": "MARTINEZ",
    "firstNm": "FLORENCE",
    "midNm": "PAULINO",
    "sufNm": null,
    "indvlPK": "2033797",
    "actvAGReg": 1,
    "link": "http://www.adviserinfo.sec.gov/IAPD/Individual/2033797"
  },
  "OthrNms": [
    {
      "lastNm": "PAULINO",
      "firstNm": "FLORENCE",
      "midNm": "MARIE",
      "sufNm": null
    }
  ],
  "CrntEmps": [
    {
      "CrntRgstns": [
        {
          "regAuth": 12,
          "regCat": 0,
          "st": 2,
          "stDt": "2015-12-09T00:00:00"
        }
      ],
      "BrnchOfLocs": [
        {
          "str1": "173 ASPINALL AVE, STE 205A",
          "str2": null,
          "city": "HAGATNA",
          "stateSpecified": false,
          "cntry": "Guam",
          "postlCd": "96910"
        }
      ],
      "orgNm": "ADVISORS UNLIMITED",
      "orgPK": "281474",
      "str1": "173 ASPINALL AVE, STE 205A",
      "str2": null,
      "city": "HAGATNA",
      "stateSpecified": false,
      "cntry": "Guam",
      "postlCd": "96910"
    }
  ],
  "Exms": [
    {
      "exmCd": 3,
      "exmNm": "Uniform Combined State Law Examination",
      "exmDt": "2005-10-10T00:00:00",
      "exmDtSpecified": true
    },
    {
      "exmCd": 2,
      "exmNm": "Uniform Investment Adviser Law Examination",
      "exmDt": "2015-10-07T00:00:00",
      "exmDtSpecified": true
    }
  ],
  "Dsgntns": [],
  "PrevRgstns": [
    {
      "BrnchOfLocs": [
        {
          "city": "HAGATNA",
          "stateSpecified": false
        }
      ],
      "orgNm": "ADVISORS UNLIMITED",
      "orgPK": "120315",
      "regBeginDt": "2012-11-13T00:00:00",
      "regBeginDtSpecified": true,
      "regEndDt": "2013-12-31T00:00:00",
      "regEndDtSpecified": true
    }
  ],
  "EmpHss": [
    {
      "fromDt": "10/2000",
      "toDt": "06/2012",
      "orgNm": "ADVISORS UNLIMITED",
      "city": "HAGATNA",
      "stateSpecified": false
    },
    {
      "fromDt": "05/2010",
      "toDt": "08/2010",
      "orgNm": "ASIA PACIFIC FINANCIAL MANAGEMENT GROUP",
      "city": "HAGATNA",
      "stateSpecified": false
    },
    {
      "fromDt": "07/2012",
      "toDt": null,
      "orgNm": "ADVISORS UNLIMITED",
      "city": "HAGATNA",
      "stateSpecified": false
    }
  ],
  "OthrBuss": {
    "OthrBus": {
      "desc": "________________________________ JOHN & FLORENCE MARTINEZ  NOT INVESTMENT RELATED  15 SABANA DR, TALOFOFO, GU 96915  RENTAL PROPERTY  OWNER  01/1998  DO NOT DEVOTE HOURS TO THE BUSINESS DURING SECURITIES TRADING HOURS.  MAINTAIN RESIDENTIAL PROPERTY."
    }
  },
  "DRPs": []
}