{
  "Info": {
    "lastNm": "MCDONALD",
    "firstNm": "ERIC",
    "midNm": "CRAIG",
    "sufNm": null,
    "indvlPK": "2035500",
    "actvAGReg": 1,
    "link": "http://www.adviserinfo.sec.gov/IAPD/Individual/2035500"
  },
  "OthrNms": [],
  "CrntEmps": [
    {
      "CrntRgstns": [
        {
          "regAuth": 45,
          "regCat": 0,
          "st": 2,
          "stDt": "2005-06-01T00:00:00"
        }
      ],
      "BrnchOfLocs": [
        {
          "str1": "1655 MAIN STREET",
          "str2": "SUITE 203",
          "city": "LUBBOCK",
          "state": 45,
          "stateSpecified": true,
          "cntry": "United States",
          "postlCd": "79401"
        }
      ],
      "orgNm": "MCDONALD CAPITAL MANAGEMENT",
      "orgPK": "114531",
      "str1": "8001 QUAKER AVENUE",
      "str2": "SUITE J",
      "city": "LUBBOCK",
      "state": 45,
      "stateSpecified": true,
      "cntry": "United States",
      "postlCd": "79424"
    }
  ],
  "Exms": [],
  "Dsgntns": [
    {
      "dsgntnNm": "Chartered Financial Analyst"
    }
  ],
  "PrevRgstns": [],
  "EmpHss": [
    {
      "fromDt": "03/2005",
      "toDt": null,
      "orgNm": "ISLAY CAPITAL MANAGEMENT, LLC",
      "city": "LUBBOCK",
      "state": 45,
      "stateSpecified": true
    }
  ],
  "OthrBuss": {
    "OthrBus": null
  },
  "DRPs": []
}