{
  "Info": {
    "lastNm": "MONTGOMERY",
    "firstNm": "ARTHUR",
    "midNm": "SCOTT",
    "sufNm": null,
    "indvlPK": "2044949",
    "actvAGReg": 0,
    "link": "http://www.adviserinfo.sec.gov/IAPD/Individual/2044949"
  },
  "OthrNms": [
    {
      "lastNm": "MONTGOMERY",
      "firstNm": "ARTHUR",
      "midNm": "SCOT",
      "sufNm": null
    },
    {
      "lastNm": "MONTGOMERY",
      "firstNm": "SCOOT",
      "midNm": null,
      "sufNm": null
    }
  ],
  "CrntEmps": [
    {
      "CrntRgstns": [
        {
          "regAuth": 25,
          "regCat": 0,
          "st": 2,
          "stDt": "2009-11-06T00:00:00"
        },
        {
          "regAuth": 37,
          "regCat": 0,
          "st": 2,
          "stDt": "2014-04-01T00:00:00"
        }
      ],
      "BrnchOfLocs": [
        {
          "str1": "11600 MANCHESTER ROAD",
          "str2": "SUITE 100",
          "city": "ST. LOUIS",
          "state": 25,
          "stateSpecified": true,
          "cntry": "United States",
          "postlCd": "63131"
        }
      ],
      "orgNm": "PARAMOUNT FINANCIAL LLC",
      "orgPK": "113500",
      "str1": "11600 MANCHESTER ROAD",
      "str2": "SUITE 100",
      "city": "ST. LOUIS",
      "state": 25,
      "stateSpecified": true,
      "cntry": "United States",
      "postlCd": "63131"
    },
    {
      "CrntRgstns": [
        {
          "regAuth": 25,
          "regCat": 0,
          "st": 2,
          "stDt": "2016-03-29T00:00:00"
        }
      ],
      "BrnchOfLocs": [
        {
          "str1": "11600 MANCHESTER RD STE 100",
          "str2": null,
          "city": "ST LOUIS",
          "state": 25,
          "stateSpecified": true,
          "cntry": "United States",
          "postlCd": "63131"
        }
      ],
      "orgNm": "CETERA ADVISOR NETWORKS LLC",
      "orgPK": "13572",
      "str1": "200 N. SEPULVEDA BLVD.",
      "str2": "SUITE 1300",
      "city": "EL SEGUNDO",
      "state": 4,
      "stateSpecified": true,
      "cntry": "United States",
      "postlCd": "90245-5672"
    }
  ],
  "Exms": [
    {
      "exmCd": 0,
      "exmNm": "Uniform Securities Agent State Law Examination",
      "exmDt": "1990-03-26T00:00:00",
      "exmDtSpecified": true
    },
    {
      "exmCd": 3,
      "exmNm": "Uniform Combined State Law Examination",
      "exmDt": "2001-06-15T00:00:00",
      "exmDtSpecified": true
    }
  ],
  "Dsgntns": [],
  "PrevRgstns": [
    {
      "BrnchOfLocs": [
        {
          "city": "ST. LOUIS",
          "state": 25,
          "stateSpecified": true
        }
      ],
      "orgNm": "PARAMOUNT FINANCIAL LLC",
      "orgPK": "113500",
      "regBeginDt": "2003-07-07T00:00:00",
      "regBeginDtSpecified": true,
      "regEndDt": "2008-12-31T00:00:00",
      "regEndDtSpecified": true
    },
    {
      "BrnchOfLocs": [
        {
          "city": "CAPE GIRARDEAU",
          "state": 25,
          "stateSpecified": true
        },
        {
          "city": "DAVENPORT",
          "state": 13,
          "stateSpecified": true
        },
        {
          "city": "NEW YORK",
          "state": 35,
          "stateSpecified": true
        },
        {
          "city": "ROCK ISLAND",
          "state": 15,
          "stateSpecified": true
        },
        {
          "city": "ST LOUIS",
          "state": 25,
          "stateSpecified": true
        },
        {
          "city": "ST. LOUIS",
          "state": 25,
          "stateSpecified": true
        }
      ],
      "orgNm": "WALNUT STREET SECURITIES, INC.",
      "orgPK": "15840",
      "regBeginDt": "2007-03-15T00:00:00",
      "regBeginDtSpecified": true,
      "regEndDt": "2013-09-05T00:00:00",
      "regEndDtSpecified": true
    },
    {
      "BrnchOfLocs": [
        {
          "city": "ST. LOUIS",
          "state": 25,
          "stateSpecified": true
        }
      ],
      "orgNm": "PARAMOUNT FINANCIAL LLC",
      "orgPK": "113500",
      "regBeginDt": "2009-04-17T00:00:00",
      "regBeginDtSpecified": true,
      "regEndDt": "2009-04-28T00:00:00",
      "regEndDtSpecified": true
    }
  ],
  "EmpHss": [
    {
      "fromDt": "02/1992",
      "toDt": "08/2013",
      "orgNm": "WALNUT STREET SECURITIES",
      "city": "ST LOUIS",
      "state": 25,
      "stateSpecified": true
    },
    {
      "fromDt": "06/2001",
      "toDt": null,
      "orgNm": "PARAMOUNT FINANCIAL LLC",
      "city": "ST. LOUIS",
      "state": 25,
      "stateSpecified": true
    },
    {
      "fromDt": "09/2013",
      "toDt": null,
      "orgNm": "CETERA ADVISOR NETWORKS LLC",
      "city": "EL SEGUNDO",
      "state": 4,
      "stateSpecified": true
    }
  ],
  "OthrBuss": {
    "OthrBus": {
      "desc": "1.INDEPENDENT INSURANCE AGENT -FIXED ANNUITIES, LIFE/ACCIDENT/HEALTH, LONG-TERM CARE FOR 1HR/WK SINCE 1992 2.PRESIDENT AND AN INVESTMENT ADVISER,PARAMOUNT FINANCIAL LLC, BEGAN 03/2001, 15HRS/WKDY,2HRS/WKEND 3.AUTHOR WRITER OF BOOK TITLED \"SO YOU WANT TO RETIRE\",BEGAN 12/2009,5HRS/WKDY,5HRS/WKEND   4.) ELECTED TO THE ALUMNI BOARD MISSOURI WESTERN STATE UNIVERSITY 0 HOURS WEEKLY, START DATE 9/2012"
    }
  },
  "DRPs": []
}