{
  "Info": {
    "lastNm": "THORN",
    "firstNm": "GERARD",
    "midNm": "HOWARD",
    "sufNm": null,
    "indvlPK": "2047267",
    "actvAGReg": 0,
    "link": "http://www.adviserinfo.sec.gov/IAPD/Individual/2047267"
  },
  "OthrNms": [
    {
      "lastNm": "THORN",
      "firstNm": "JERRY",
      "midNm": null,
      "sufNm": null
    }
  ],
  "CrntEmps": [
    {
      "CrntRgstns": [
        {
          "regAuth": 9,
          "regCat": 0,
          "st": 2,
          "stDt": "2016-02-08T00:00:00"
        }
      ],
      "BrnchOfLocs": [
        {
          "str1": "SMITH BARNEY FINANCIAL CENTER",
          "str2": "595 SOUTH FEDERAL HIGHWAY",
          "city": "BOCA RATON",
          "state": 9,
          "stateSpecified": true,
          "cntry": "United States",
          "postlCd": "33432"
        }
      ],
      "orgNm": "MORGAN STANLEY",
      "orgPK": "149777",
      "str1": "2000 WESTCHESTER AVENUE",
      "str2": null,
      "city": "PURCHASE",
      "state": 35,
      "stateSpecified": true,
      "cntry": "United States",
      "postlCd": "10577-2530"
    }
  ],
  "Exms": [
    {
      "exmCd": 0,
      "exmNm": "Uniform Securities Agent State Law Examination",
      "exmDt": "1994-09-26T00:00:00",
      "exmDtSpecified": true
    },
    {
      "exmCd": 2,
      "exmNm": "Uniform Investment Adviser Law Examination",
      "exmDt": "2005-05-10T00:00:00",
      "exmDtSpecified": true
    }
  ],
  "Dsgntns": [],
  "PrevRgstns": [
    {
      "BrnchOfLocs": [
        {
          "city": "BOCA RATON",
          "state": 9,
          "stateSpecified": true
        },
        {
          "city": "BOCA RATON",
          "state": 9,
          "stateSpecified": true
        }
      ],
      "orgNm": "JANNEY MONTGOMERY SCOTT LLC",
      "orgPK": "463",
      "regBeginDt": "2005-05-18T00:00:00",
      "regBeginDtSpecified": true,
      "regEndDt": "2007-10-17T00:00:00",
      "regEndDtSpecified": true
    },
    {
      "BrnchOfLocs": [
        {
          "city": "BOCA RATON",
          "state": 9,
          "stateSpecified": true
        },
        {
          "city": "PALM BEACH GARDENS",
          "state": 9,
          "stateSpecified": true
        }
      ],
      "orgNm": "AMERIPRISE FINANCIAL SERVICES, INC.",
      "orgPK": "6363",
      "regBeginDt": "2007-10-02T00:00:00",
      "regBeginDtSpecified": true,
      "regEndDt": "2016-02-08T00:00:00",
      "regEndDtSpecified": true
    }
  ],
  "EmpHss": [
    {
      "fromDt": "01/2000",
      "toDt": "09/2007",
      "orgNm": "JANNEY MONTGOMERY SCOTT LLC",
      "city": "FT LAUDERDALE",
      "state": 9,
      "stateSpecified": true
    },
    {
      "fromDt": "10/2007",
      "toDt": "01/2016",
      "orgNm": "AMERIPRISE FINANCIAL SERVICES INC",
      "city": "BOCA RATON",
      "state": 9,
      "stateSpecified": true
    },
    {
      "fromDt": "01/2016",
      "toDt": null,
      "orgNm": "MORGAN STANLEY",
      "city": "BOCA RATON",
      "state": 9,
      "stateSpecified": true
    }
  ],
  "OthrBuss": {
    "OthrBus": {
      "desc": "1. RENTAL PROPERTY, OWNER; INVESTMENT RELATED; DURING BUSINESS HOURS- 0, AFTER BUSINESS HOURS- .15; DELRAY BEACH, FL; START DATE: 10/2001"
    }
  },
  "DRPs": []
}