{
  "Info": {
    "lastNm": "THOEMKE",
    "firstNm": "GREGORY",
    "midNm": "JAMES",
    "sufNm": null,
    "indvlPK": "2050430",
    "actvAGReg": 0,
    "link": "http://www.adviserinfo.sec.gov/IAPD/Individual/2050430"
  },
  "OthrNms": [
    {
      "lastNm": "THOEMKE",
      "firstNm": "GREG",
      "midNm": null,
      "sufNm": null
    }
  ],
  "CrntEmps": [
    {
      "CrntRgstns": [
        {
          "regAuth": 50,
          "regCat": 0,
          "st": 2,
          "stDt": "1990-05-09T00:00:00"
        }
      ],
      "BrnchOfLocs": [
        {
          "str1": "1110 Fourier Dr",
          "str2": "Ste 100",
          "city": "Madison",
          "state": 50,
          "stateSpecified": true,
          "cntry": "United States",
          "postlCd": "53717-1949"
        }
      ],
      "orgNm": "AMERIPRISE FINANCIAL SERVICES, INC.",
      "orgPK": "6363",
      "str1": "707 2ND AVENUE SOUTH",
      "str2": null,
      "city": "MINNEAPOLIS",
      "state": 24,
      "stateSpecified": true,
      "cntry": "United States",
      "postlCd": "55402"
    }
  ],
  "Exms": [
    {
      "exmCd": 0,
      "exmNm": "Uniform Securities Agent State Law Examination",
      "exmDt": "1990-04-30T00:00:00",
      "exmDtSpecified": true
    }
  ],
  "Dsgntns": [],
  "PrevRgstns": [],
  "EmpHss": [
    {
      "fromDt": "04/1990",
      "toDt": null,
      "orgNm": "AMERICAN EXPRESS FINANCIAL ADVISORS INC.",
      "city": "MADISON",
      "state": 50,
      "stateSpecified": true
    },
    {
      "fromDt": "04/1990",
      "toDt": null,
      "orgNm": "IDS LIFE INSURANCE COMPANY",
      "city": "MADISON",
      "state": 50,
      "stateSpecified": true
    }
  ],
  "OthrBuss": {
    "OthrBus": {
      "desc": "BOARDS OF DIRECTORS: MADISON NEW GLARUS LIONS CLUB,COMMUNITY SERVICE,PAST PRESIDENT,SEPTEMBER 2011;1-9 HRS/VILLAGE BOARD, NEW GLARUS, WI;MUNICIPALITY;TRUSTEE, CHAIRMAN OF PARKS AND RECREATION COMMITTEE, CHAIRMAN OF COMMUNITY DEVELOPMENT AUTHORITY, CHAIRMAN OF TREE BOARD;GLARUS, WI 53574;NO;MAY 2010;10-19 HRS;1-9 DURING TRADING HOURS."
    }
  },
  "DRPs": [
    {
      "hasRegAction": 1,
      "hasRegActionSpecified": true,
      "hasCriminal": 1,
      "hasCriminalSpecified": true,
      "hasBankrupt": 1,
      "hasBankruptSpecified": true,
      "hasCivilJudc": 1,
      "hasCivilJudcSpecified": true,
      "hasBond": 1,
      "hasBondSpecified": true,
      "hasJudgment": 0,
      "hasJudgmentSpecified": true,
      "hasInvstgn": 1,
      "hasInvstgnSpecified": true,
      "hasCustComp": 1,
      "hasCustCompSpecified": true,
      "hasTermination": 1,
      "hasTerminationSpecified": true
    }
  ]
}