{
  "Info": {
    "lastNm": "HARDIMAN",
    "firstNm": "ELBERT",
    "midNm": "LAMONT",
    "sufNm": "JR",
    "indvlPK": "2051382",
    "actvAGReg": 1,
    "link": "http://www.adviserinfo.sec.gov/IAPD/Individual/2051382"
  },
  "OthrNms": [
    {
      "lastNm": "HARDIMAN",
      "firstNm": "ELBERT",
      "midNm": "LAMONT",
      "sufNm": null
    },
    {
      "lastNm": "HARDIMAN",
      "firstNm": "ELBERT",
      "midNm": "LAMONT",
      "sufNm": "JR"
    }
  ],
  "CrntEmps": [
    {
      "CrntRgstns": [
        {
          "regAuth": 36,
          "regCat": 0,
          "st": 2,
          "stDt": "2014-01-10T00:00:00"
        }
      ],
      "BrnchOfLocs": [
        {
          "str1": null,
          "str2": null,
          "city": "PICKERINGTON",
          "state": 36,
          "stateSpecified": true,
          "cntry": "United States",
          "postlCd": null
        }
      ],
      "orgNm": "HARDIMAN INVESTMENT MANAGEMENT, INC.",
      "orgPK": "169861",
      "str1": null,
      "str2": null,
      "city": "PICKERINGTON",
      "state": 36,
      "stateSpecified": true,
      "cntry": "United States",
      "postlCd": null
    }
  ],
  "Exms": [
    {
      "exmCd": 0,
      "exmNm": "Uniform Securities Agent State Law Examination",
      "exmDt": "2005-07-08T00:00:00",
      "exmDtSpecified": true
    }
  ],
  "Dsgntns": [],
  "PrevRgstns": [
    {
      "BrnchOfLocs": [
        {
          "city": "DUBLIN",
          "state": 36,
          "stateSpecified": true
        }
      ],
      "orgNm": "WADDELL & REED",
      "orgPK": "866",
      "regBeginDt": "2005-11-09T00:00:00",
      "regBeginDtSpecified": true,
      "regEndDt": "2006-08-25T00:00:00",
      "regEndDtSpecified": true
    },
    {
      "BrnchOfLocs": [
        {
          "city": "CHARLOTTE",
          "state": 28,
          "stateSpecified": true
        },
        {
          "city": "MANSFIELD",
          "state": 36,
          "stateSpecified": true
        }
      ],
      "orgNm": "UVEST FINANCIAL SERVICES GROUP, INC.",
      "orgPK": "13787",
      "regBeginDt": "2006-09-25T00:00:00",
      "regBeginDtSpecified": true,
      "regEndDt": "2007-01-31T00:00:00",
      "regEndDtSpecified": true
    },
    {
      "BrnchOfLocs": [
        {
          "city": "CHARLOTTE",
          "state": 28,
          "stateSpecified": true
        },
        {
          "city": "COLUMBUS",
          "state": 36,
          "stateSpecified": true
        },
        {
          "city": "COLUMBUS",
          "state": 36,
          "stateSpecified": true
        },
        {
          "city": "HOUSTON",
          "state": 45,
          "stateSpecified": true
        },
        {
          "city": "WESTERVILLE",
          "state": 36,
          "stateSpecified": true
        }
      ],
      "orgNm": "LPL FINANCIAL LLC",
      "orgPK": "6413",
      "regBeginDt": "2007-02-12T00:00:00",
      "regBeginDtSpecified": true,
      "regEndDt": "2007-06-12T00:00:00",
      "regEndDtSpecified": true
    },
    {
      "BrnchOfLocs": [
        {
          "city": "REYNOLDSBURG",
          "state": 36,
          "stateSpecified": true
        }
      ],
      "orgNm": "CAMBRIDGE INVESTMENT RESEARCH ADVISORS, INC.",
      "orgPK": "134139",
      "regBeginDt": "2011-02-08T00:00:00",
      "regBeginDtSpecified": true,
      "regEndDt": "2014-02-28T00:00:00",
      "regEndDtSpecified": true
    }
  ],
  "EmpHss": [
    {
      "fromDt": "03/1993",
      "toDt": "02/2007",
      "orgNm": "VARIOUS INSURANCE CARRIERS FOR W & R INSURANCE AGENCIES",
      "city": "COLUMBUS",
      "state": 36,
      "stateSpecified": true
    },
    {
      "fromDt": "01/1996",
      "toDt": "02/2007",
      "orgNm": "ELH & ASSOCIATES",
      "city": "COLUMBUS",
      "state": 36,
      "stateSpecified": true
    },
    {
      "fromDt": "11/2005",
      "toDt": "02/2007",
      "orgNm": "WADDELL & REED, INC",
      "city": "DUBLIN",
      "state": 36,
      "stateSpecified": true
    },
    {
      "fromDt": "09/2006",
      "toDt": "02/2007",
      "orgNm": "BANKERS LIFE & CASUALTY",
      "city": "MANSFIELD",
      "state": 36,
      "stateSpecified": true
    },
    {
      "fromDt": "09/2006",
      "toDt": "02/2007",
      "orgNm": "UVEST FINANCIAL SERVICES GROUP, INC.",
      "city": "MANSFIELD",
      "state": 36,
      "stateSpecified": true
    },
    {
      "fromDt": "02/2007",
      "toDt": "06/2007",
      "orgNm": "LINSCO PRIVATE LEDGER",
      "city": "COLUMBUS",
      "state": 36,
      "stateSpecified": true
    },
    {
      "fromDt": "06/2007",
      "toDt": "06/2008",
      "orgNm": "GUARDIAN LIFE INSURANCE COMPANY",
      "city": "WORTHINGTON",
      "state": 36,
      "stateSpecified": true
    },
    {
      "fromDt": "09/2007",
      "toDt": "06/2008",
      "orgNm": "PARK AVENUE SECURITIES",
      "city": "WORTHINGTON",
      "state": 36,
      "stateSpecified": true
    },
    {
      "fromDt": "06/2008",
      "toDt": null,
      "orgNm": "GUARDIAN LIFE INSURANCE CO OF AMERICA",
      "city": "COLUMBUS",
      "state": 36,
      "stateSpecified": true
    },
    {
      "fromDt": "06/2008",
      "toDt": "12/2010",
      "orgNm": "PARK AVENUE SECURITIES LLC",
      "city": "COLUMBUS",
      "state": 36,
      "stateSpecified": true
    },
    {
      "fromDt": "02/2011",
      "toDt": null,
      "orgNm": "CAMBRIDGE INVESTMENT RESEARCH ADVISORS, INC.",
      "city": "FAIRFIELD",
      "state": 13,
      "stateSpecified": true
    },
    {
      "fromDt": "02/2011",
      "toDt": null,
      "orgNm": "CAMBRIDGE INVESTMENT RESEARCH, INC",
      "city": "FAIRFIELD",
      "state": 13,
      "stateSpecified": true
    },
    {
      "fromDt": "09/2013",
      "toDt": null,
      "orgNm": "HARDIMAN INVESTMENT MANAGEMENT, INC.",
      "city": "PICKERINGTON",
      "state": 36,
      "stateSpecified": true
    }
  ],
  "OthrBuss": {
    "OthrBus": {
      "desc": "1)INDEPENDENT INSURANCE AGENT FOR VARIOUS INDEPENDENT INSURANCE COMPANIES. 2)EVERBANK 6687 EAST BROAD STREET REYNOLDSBURG, OH 43068. BEGAN 01/26/2012 AS BANKING ADVISOR, PROVIDING BANKING SERVICES TO POTENTIAL BUSINESS AND INDIVIDUAL CLIENTS. NOT INVESTMENT RELATED. DEVOTES 5 HRS/MNTH. 1 HR/WK DURING TRADING."
    }
  },
  "DRPs": [
    {
      "hasRegAction": 0,
      "hasRegActionSpecified": true,
      "hasCriminal": 1,
      "hasCriminalSpecified": true,
      "hasBankrupt": 1,
      "hasBankruptSpecified": true,
      "hasCivilJudc": 1,
      "hasCivilJudcSpecified": true,
      "hasBond": 1,
      "hasBondSpecified": true,
      "hasJudgment": 0,
      "hasJudgmentSpecified": true,
      "hasInvstgn": 1,
      "hasInvstgnSpecified": true,
      "hasCustComp": 1,
      "hasCustCompSpecified": true,
      "hasTermination": 1,
      "hasTerminationSpecified": true
    }
  ]
}