{
  "Info": {
    "lastNm": "REINDERS",
    "firstNm": "DANIEL",
    "midNm": "LEONARD",
    "sufNm": null,
    "indvlPK": "2051461",
    "actvAGReg": 0,
    "link": "http://www.adviserinfo.sec.gov/IAPD/Individual/2051461"
  },
  "OthrNms": [],
  "CrntEmps": [
    {
      "CrntRgstns": [
        {
          "regAuth": 43,
          "regCat": 0,
          "st": 2,
          "stDt": "2016-04-04T00:00:00"
        }
      ],
      "BrnchOfLocs": [
        {
          "str1": "280 DAKOTA AVENUE SOUTH",
          "str2": null,
          "city": "HURON",
          "state": 43,
          "stateSpecified": true,
          "cntry": "United States",
          "postlCd": "57350"
        }
      ],
      "orgNm": "RAYMOND JAMES FINANCIAL SERVICES ADVISORS, INC",
      "orgPK": "149018",
      "str1": "880 CARILLON PARKWAY",
      "str2": null,
      "city": "SAINT PETERSBURG",
      "state": 9,
      "stateSpecified": true,
      "cntry": "United States",
      "postlCd": "33716"
    }
  ],
  "Exms": [
    {
      "exmCd": 0,
      "exmNm": "Uniform Securities Agent State Law Examination",
      "exmDt": "1990-04-24T00:00:00",
      "exmDtSpecified": true
    },
    {
      "exmCd": 3,
      "exmNm": "Uniform Combined State Law Examination",
      "exmDt": "2007-03-09T00:00:00",
      "exmDtSpecified": true
    }
  ],
  "Dsgntns": [],
  "PrevRgstns": [
    {
      "BrnchOfLocs": [
        {
          "city": "HURON",
          "state": 43,
          "stateSpecified": true
        },
        {
          "city": "ST. LOUIS",
          "state": 25,
          "stateSpecified": true
        }
      ],
      "orgNm": "A. G. EDWARDS & SONS, INC.",
      "orgPK": "4",
      "regBeginDt": "2007-03-12T00:00:00",
      "regBeginDtSpecified": true,
      "regEndDt": "2008-01-01T00:00:00",
      "regEndDtSpecified": true
    },
    {
      "BrnchOfLocs": [
        {
          "city": "HURON",
          "state": 43,
          "stateSpecified": true
        }
      ],
      "orgNm": "WELLS FARGO ADVISORS, LLC",
      "orgPK": "19616",
      "regBeginDt": "2008-01-01T00:00:00",
      "regBeginDtSpecified": true,
      "regEndDt": "2009-06-01T00:00:00",
      "regEndDtSpecified": true
    },
    {
      "BrnchOfLocs": [
        {
          "city": "DALLAS",
          "state": 45,
          "stateSpecified": true
        },
        {
          "city": "HURON",
          "state": 43,
          "stateSpecified": true
        }
      ],
      "orgNm": "HILLTOP SECURITIES INDEPENDENT NETWORK INC.",
      "orgPK": "17587",
      "regBeginDt": "2009-05-29T00:00:00",
      "regBeginDtSpecified": true,
      "regEndDt": "2016-03-30T00:00:00",
      "regEndDtSpecified": true
    }
  ],
  "EmpHss": [
    {
      "fromDt": "08/1995",
      "toDt": "05/2009",
      "orgNm": "A. G. EDWARDS & SONS, INC.",
      "city": "HURON",
      "state": 43,
      "stateSpecified": true
    },
    {
      "fromDt": "01/2008",
      "toDt": "05/2009",
      "orgNm": "WACHOVIA SECURITIES, LLC",
      "city": "HURON",
      "state": 43,
      "stateSpecified": true
    },
    {
      "fromDt": "01/2008",
      "toDt": "05/2009",
      "orgNm": "WACHOVIA SECURITIES, LLC",
      "city": "HURON",
      "state": 43,
      "stateSpecified": true
    },
    {
      "fromDt": "06/2009",
      "toDt": "03/2016",
      "orgNm": "SWS/HILLTOP FINANCIAL SERVICES, INC.",
      "city": "HURON",
      "state": 43,
      "stateSpecified": true
    },
    {
      "fromDt": "04/2016",
      "toDt": null,
      "orgNm": "RAYMOND JAMES FINANCIAL SERVICES ADVISORS INC.",
      "city": "HURON",
      "state": 43,
      "stateSpecified": true
    }
  ],
  "OthrBuss": {
    "OthrBus": {
      "desc": "1) AROMA COFFEE AND CAFE - COFFEE SHOP - NOT INVESTMENT RELATED - COFFEE SHOP AND LUNCH RESTAURANT - OWNER - HURON, SD - 0 HOURS DEVOTED PER MONTH - 0 HOURS DEVOTED DURING TRADING HOURS- STARTED 09/2014  2) TEAM NATIONAL - NOT INVESTMENT RELATED - HURON, SD - MULTI-LEVEL BUYING GROUP - MEMBER - STARTED 06/2015 - 0 HOURS DEVOTED - 0 HOURS DEVOTED DURING TRADING - ORDER/BUY ITEMS AND INTRODUCE OTHERS TO THE OPPORTUNITY. 3) CORNERSTONE FINANCIAL SOLUTIONS - DBA - NOT INVESTMENT RELATED - FINANCIAL ADVISOR/SALES - STARTED 03/2016 - 0 HOURS DEVOTED PER MONTH - 0 HOURS DEVOTED DURING TRADING HOURS - FINANCIAL ADVISOR"
    }
  },
  "DRPs": []
}