{
  "Info": {
    "lastNm": "LEWIS",
    "firstNm": "SUSAN",
    "midNm": "KAY",
    "sufNm": null,
    "indvlPK": "2052187",
    "actvAGReg": 0,
    "link": "http://www.adviserinfo.sec.gov/IAPD/Individual/2052187"
  },
  "OthrNms": [
    {
      "lastNm": "HENDERSON",
      "firstNm": "SUSAN",
      "midNm": "KAY",
      "sufNm": null
    },
    {
      "lastNm": "WALKER",
      "firstNm": "SUSAN",
      "midNm": "KAY",
      "sufNm": null
    },
    {
      "lastNm": "WALKER",
      "firstNm": "SUSAN",
      "midNm": "KAY",
      "sufNm": null
    }
  ],
  "CrntEmps": [
    {
      "CrntRgstns": [
        {
          "regAuth": 10,
          "regCat": 0,
          "st": 2,
          "stDt": "2010-07-26T00:00:00"
        }
      ],
      "BrnchOfLocs": [
        {
          "str1": "2475 NORTHWINDS PARKWAY",
          "str2": "SUITE 175",
          "city": "ALPHARETTA",
          "state": 10,
          "stateSpecified": true,
          "cntry": "United States",
          "postlCd": "30009"
        },
        {
          "str1": "ONE NORTH BRENTWOOD BOULEVARD",
          "str2": "SUITE 850",
          "city": "ST. LOUIS",
          "state": 25,
          "stateSpecified": true,
          "cntry": "United States",
          "postlCd": "63105"
        }
      ],
      "orgNm": "BENJAMIN F. EDWARDS & COMPANY, INC.",
      "orgPK": "146936",
      "str1": "ONE NORTH BRENTWOOD BOULEVARD",
      "str2": "SUITE 850",
      "city": "ST. LOUIS",
      "state": 25,
      "stateSpecified": true,
      "cntry": "United States",
      "postlCd": "63105"
    }
  ],
  "Exms": [
    {
      "exmCd": 0,
      "exmNm": "Uniform Securities Agent State Law Examination",
      "exmDt": "1996-04-08T00:00:00",
      "exmDtSpecified": true
    },
    {
      "exmCd": 3,
      "exmNm": "Uniform Combined State Law Examination",
      "exmDt": "2003-05-16T00:00:00",
      "exmDtSpecified": true
    }
  ],
  "Dsgntns": [
    {
      "dsgntnNm": "Certified Financial Planner"
    }
  ],
  "PrevRgstns": [
    {
      "BrnchOfLocs": [
        {
          "city": "DULUTH",
          "state": 10,
          "stateSpecified": true
        },
        {
          "city": "DULUTH",
          "state": 10,
          "stateSpecified": true
        },
        {
          "city": "ST. LOUIS",
          "state": 25,
          "stateSpecified": true
        }
      ],
      "orgNm": "A. G. EDWARDS & SONS, INC.",
      "orgPK": "4",
      "regBeginDt": "2003-06-13T00:00:00",
      "regBeginDtSpecified": true,
      "regEndDt": "2008-01-01T00:00:00",
      "regEndDtSpecified": true
    },
    {
      "BrnchOfLocs": [
        {
          "city": "DULUTH",
          "state": 10,
          "stateSpecified": true
        }
      ],
      "orgNm": "WELLS FARGO ADVISORS, LLC",
      "orgPK": "19616",
      "regBeginDt": "2008-01-01T00:00:00",
      "regBeginDtSpecified": true,
      "regEndDt": "2009-10-26T00:00:00",
      "regEndDtSpecified": true
    }
  ],
  "EmpHss": [
    {
      "fromDt": "03/1990",
      "toDt": "10/2009",
      "orgNm": "A. G. EDWARDS & SONS, INC.",
      "city": "DULUTH",
      "state": 10,
      "stateSpecified": true
    },
    {
      "fromDt": "01/2008",
      "toDt": "10/2009",
      "orgNm": "WACHOVIA SECURITIES, LLC",
      "city": "DULUTH",
      "state": 10,
      "stateSpecified": true
    },
    {
      "fromDt": "01/2008",
      "toDt": "10/2009",
      "orgNm": "WACHOVIA SECURITIES, LLC",
      "city": "DULUTH",
      "state": 10,
      "stateSpecified": true
    },
    {
      "fromDt": "10/2009",
      "toDt": "07/2010",
      "orgNm": "RETIREMENT/SEVERENCE",
      "city": "ALPHARETTA",
      "state": 10,
      "stateSpecified": true
    },
    {
      "fromDt": "07/2010",
      "toDt": null,
      "orgNm": "BENJAMIN F EDWARDS & CO.",
      "city": "ALPHARETTA",
      "state": 10,
      "stateSpecified": true
    }
  ],
  "OthrBuss": {
    "OthrBus": null
  },
  "DRPs": []
}