{
  "Info": {
    "lastNm": "MILNER",
    "firstNm": "STEPHANIE",
    "midNm": "ELIZABETH",
    "sufNm": null,
    "indvlPK": "2053525",
    "actvAGReg": 0,
    "link": "http://www.adviserinfo.sec.gov/IAPD/Individual/2053525"
  },
  "OthrNms": [
    {
      "lastNm": "VILLA",
      "firstNm": "STEPHANIE",
      "midNm": "ELIZABETH",
      "sufNm": null
    }
  ],
  "CrntEmps": [
    {
      "CrntRgstns": [
        {
          "regAuth": 4,
          "regCat": 0,
          "st": 2,
          "stDt": "1997-12-15T00:00:00"
        }
      ],
      "BrnchOfLocs": [
        {
          "str1": "6355 TOPANGA CANYON BLVD",
          "str2": "STE 505",
          "city": "WOODLAND HILLS",
          "state": 4,
          "stateSpecified": true,
          "cntry": "United States",
          "postlCd": "91367"
        }
      ],
      "orgNm": "AMERIPRISE FINANCIAL SERVICES, INC.",
      "orgPK": "6363",
      "str1": "707 2ND AVENUE SOUTH",
      "str2": null,
      "city": "MINNEAPOLIS",
      "state": 24,
      "stateSpecified": true,
      "cntry": "United States",
      "postlCd": "55402"
    }
  ],
  "Exms": [
    {
      "exmCd": 0,
      "exmNm": "Uniform Securities Agent State Law Examination",
      "exmDt": "1992-05-15T00:00:00",
      "exmDtSpecified": true
    }
  ],
  "Dsgntns": [],
  "PrevRgstns": [],
  "EmpHss": [
    {
      "fromDt": "01/1989",
      "toDt": null,
      "orgNm": "MIDGE STORK, CFP.",
      "city": "OXNARD",
      "state": 4,
      "stateSpecified": true
    },
    {
      "fromDt": "04/1991",
      "toDt": null,
      "orgNm": "AMERICAN EXPRESS FINANCIAL ADVISORS INC.",
      "city": "OXNARD",
      "state": 4,
      "stateSpecified": true
    },
    {
      "fromDt": "04/1991",
      "toDt": null,
      "orgNm": "IDS LIFE INSURANCE COMPANY",
      "city": "OXNARD",
      "state": 4,
      "stateSpecified": true
    }
  ],
  "OthrBuss": {
    "OthrBus": {
      "desc": "OUTSIDE EMPLOYMENT;SELF; Artist; Ventura, CA 93004; July 2000; 10-19 hours per month.   Other Business Activities; Rose Parade Float Decorating; LLC; Serving as part of a crew chief team that manages and supervises the decorating of Tournament of Roses Parade floats; Assistant Crew Chief/Decorating Supervisor/Florist Assistant; Pasadena; not investment related; October 2016; 1-9 hours per month; 1-9 during trading hours."
    }
  },
  "DRPs": []
}