{
  "Info": {
    "lastNm": "PAPANDREA",
    "firstNm": "ROCCO",
    "midNm": null,
    "sufNm": null,
    "indvlPK": "2057390",
    "actvAGReg": 0,
    "link": "http://www.adviserinfo.sec.gov/IAPD/Individual/2057390"
  },
  "OthrNms": [],
  "CrntEmps": [
    {
      "CrntRgstns": [
        {
          "regAuth": 45,
          "regCat": 0,
          "st": 2,
          "stDt": "2007-01-24T00:00:00"
        }
      ],
      "BrnchOfLocs": [
        {
          "str1": "114 W 47TH ST",
          "str2": null,
          "city": "NEW YORK",
          "state": 35,
          "stateSpecified": true,
          "cntry": "United States",
          "postlCd": "10036"
        }
      ],
      "orgNm": "MERRILL LYNCH, PIERCE, FENNER & SMITH INCORPORATED",
      "orgPK": "7691",
      "str1": "ONE BRYANT PARK",
      "str2": null,
      "city": "NEW YORK",
      "state": 35,
      "stateSpecified": true,
      "cntry": "United States",
      "postlCd": "10036"
    }
  ],
  "Exms": [
    {
      "exmCd": 0,
      "exmNm": "Uniform Securities Agent State Law Examination",
      "exmDt": "1990-06-01T00:00:00",
      "exmDtSpecified": true
    },
    {
      "exmCd": 2,
      "exmNm": "Uniform Investment Adviser Law Examination",
      "exmDt": "1992-06-23T00:00:00",
      "exmDtSpecified": true
    }
  ],
  "Dsgntns": [],
  "PrevRgstns": [],
  "EmpHss": [
    {
      "fromDt": "01/1995",
      "toDt": null,
      "orgNm": "MERRILL LYNCH, PIERCE, FENNER & SMITH INCORPORATED",
      "city": "NEW YORK",
      "state": 35,
      "stateSpecified": true
    },
    {
      "fromDt": "01/2011",
      "toDt": null,
      "orgNm": "BANK OF AMERICA, N.A.",
      "city": "NEW YORK",
      "state": 35,
      "stateSpecified": true
    }
  ],
  "OthrBuss": {
    "OthrBus": {
      "desc": "BUSINESS OR ACTIVITY NAME: SFDS DEVELOPMENT CORP. DBA LOTT COMMUNITY DEVELOPMENT CORP FOR PROFIT OR NOT FOR PROFIT: NOT FOR PROFIT  INVESTMENT RELATED: (YES OR NO) NO  ADDRESS OF BUSINESS: 1261 5TH AVE., NY, NY 10029  NATURE OF BUSINESS: NOT FOR PROFIT AFFORDABLE HOUSING DEVELOPER AND MANAGEMENT CO.  YOUR POSITION, TITLE, ASSOCIATION: SECRETARY START DATE OF RELATIONSHIP: 1/15/2011  NUMBER OF HOURS DEVOTED PER MONTH: 2   NUMBER OF HOURS DEVOTED DURING SECURITIES TRADING HOURS: 0  YOUR DUTIES: SERVE AS A BOARD MEMBER AND SECRETARY FOR ORGANIZATION. DO NOT HAVE ANY FINANCIAL SIGNATORY AUTHORITY. THE SFDS COMMUNITY DEVELOPMENT CORPORATION WAS FOUNDED ON A SINGLE MISSION: TO BUILD A BETTER QUALITY OF LIFE FOR NEW YORK'S ELDERLY, THOSE WHO WERE FORMERLY HOMELESS, AND INDIVIDUALS OF LOW TO MODERATE INCOME, BY PROVIDING THEM WITH CLEAN, SAFE HOUSING AND SUPPORTIVE SERVICES THAT HELP THEM LEAD INDEPENDENT AND FULFILLING LIVES. SINCE OPENING ITS FIRST SITE IN 1988, SFDS CDC HAS GROWN TO BECOME A LEADING FORCE IN REVITALIZING THE CHANGING EAST HARLEM COMMUNITY, HELPING THOUSANDS OF NEW YORKERS LIVE WITH DIGNITY AND RESPECT.    2.I*1455  FOR PROFIT OR NOT FOR PROFIT: GOVERNMENTAL OR PUBLIC PURPOSE ENTITY  NAME OF OUTSIDE BUSINESS ORGANIZATION: ADVOCATE COMMUNITY PROVIDERS  INVESTMENT RELATED: N  ADDRESS OF BUSINESS:   5030 BROADWAY, SUITE 804  NEW YORK, NEW YORK 10034  NATURE OF BUSINESS: NYS DSRIP,  POSITION, TITLE, ASSOCIATION: FINANCE COMMITTEE,   START DATE OF RELATIONSHIP: 11/2/2015  NUMBER OF HOURS DEVOTED: 2 HOUR(S) QUARTERLY  NUMBER OF HOURS DEVOTED DURING TRADING HOURS: 0  DUTIES: MEMBER OF THE FINANCE COMMITTEE"
    }
  },
  "DRPs": [
    {
      "hasRegAction": 1,
      "hasRegActionSpecified": true,
      "hasCriminal": 1,
      "hasCriminalSpecified": true,
      "hasBankrupt": 1,
      "hasBankruptSpecified": true,
      "hasCivilJudc": 1,
      "hasCivilJudcSpecified": true,
      "hasBond": 1,
      "hasBondSpecified": true,
      "hasJudgment": 1,
      "hasJudgmentSpecified": true,
      "hasInvstgn": 1,
      "hasInvstgnSpecified": true,
      "hasCustComp": 0,
      "hasCustCompSpecified": true,
      "hasTermination": 1,
      "hasTerminationSpecified": true
    }
  ]
}