{
  "Info": {
    "lastNm": "METCALF",
    "firstNm": "GREGORY",
    "midNm": "RALPH",
    "sufNm": null,
    "indvlPK": "2078821",
    "actvAGReg": 0,
    "link": "http://www.adviserinfo.sec.gov/IAPD/Individual/2078821"
  },
  "OthrNms": [
    {
      "lastNm": "METCALF",
      "firstNm": "GREG",
      "midNm": null,
      "sufNm": null
    }
  ],
  "CrntEmps": [
    {
      "CrntRgstns": [
        {
          "regAuth": 36,
          "regCat": 0,
          "st": 2,
          "stDt": "2013-09-04T00:00:00"
        }
      ],
      "BrnchOfLocs": [
        {
          "str1": "626 N. 4TH STREET",
          "str2": "SUITE 101",
          "city": "STEUBENVILLE",
          "state": 36,
          "stateSpecified": true,
          "cntry": "United States",
          "postlCd": "43952"
        }
      ],
      "orgNm": "FIRST ALLIED ADVISORY SERVICES, INC.",
      "orgPK": "137888",
      "str1": "655 W. BROADWAY",
      "str2": "12TH FLOOR",
      "city": "SAN DIEGO",
      "state": 4,
      "stateSpecified": true,
      "cntry": "United States",
      "postlCd": "92101"
    }
  ],
  "Exms": [
    {
      "exmCd": 0,
      "exmNm": "Uniform Securities Agent State Law Examination",
      "exmDt": "1993-12-23T00:00:00",
      "exmDtSpecified": true
    },
    {
      "exmCd": 2,
      "exmNm": "Uniform Investment Adviser Law Examination",
      "exmDt": "1999-12-15T00:00:00",
      "exmDtSpecified": true
    }
  ],
  "Dsgntns": [],
  "PrevRgstns": [
    {
      "BrnchOfLocs": [
        {
          "city": "WEIRTON",
          "state": 51,
          "stateSpecified": true
        },
        {
          "city": "WEIRTON",
          "state": 51,
          "stateSpecified": true
        }
      ],
      "orgNm": "ROYAL ALLIANCE ASSOCIATES, INC.",
      "orgPK": "23131",
      "regBeginDt": "2002-11-25T00:00:00",
      "regBeginDtSpecified": true,
      "regEndDt": "2013-09-06T00:00:00",
      "regEndDtSpecified": true
    }
  ],
  "EmpHss": [
    {
      "fromDt": "09/1999",
      "toDt": "09/2013",
      "orgNm": "ROYAL ALLIANCE ASSOCIATES INC",
      "city": "WEIRTON",
      "state": 51,
      "stateSpecified": true
    },
    {
      "fromDt": "09/2013",
      "toDt": null,
      "orgNm": "FIRST ALLIED SECURITIES. INC.",
      "city": "SAN DIEGO",
      "state": 4,
      "stateSpecified": true
    }
  ],
  "OthrBuss": {
    "OthrBus": {
      "desc": "1. CARDINAL WEALTH MANAGEMENT; DBA, PARTNER, FULL TIME, 160 HOURS/MONTH. 2. THERESA S METCALF REVOCABLE TRUST; TRUSTEE; FIDUCIARY POSITION; START DATE 01/30/1998; 4 HOURS PER MONTH."
    }
  },
  "DRPs": []
}