{
  "Info": {
    "lastNm": "MAIERHOFER",
    "firstNm": "JOHN",
    "midNm": "HOWARD",
    "sufNm": null,
    "indvlPK": "2078728",
    "actvAGReg": 1,
    "link": "http://www.adviserinfo.sec.gov/IAPD/Individual/2078728"
  },
  "OthrNms": [],
  "CrntEmps": [
    {
      "CrntRgstns": [
        {
          "regAuth": 4,
          "regCat": 0,
          "st": 2,
          "stDt": "2016-01-20T00:00:00"
        }
      ],
      "BrnchOfLocs": [
        {
          "str1": "1324 Capuchino Ave.",
          "str2": null,
          "city": "Burlingame",
          "state": 4,
          "stateSpecified": true,
          "cntry": "United States",
          "postlCd": "94010"
        }
      ],
      "orgNm": "MAIERHOFER WEALTH MANAGEMENT, LLC",
      "orgPK": "166716",
      "str1": null,
      "str2": null,
      "city": "BURLINGAME",
      "state": 4,
      "stateSpecified": true,
      "cntry": "United States",
      "postlCd": null
    }
  ],
  "Exms": [
    {
      "exmCd": 2,
      "exmNm": "Uniform Investment Adviser Law Examination",
      "exmDt": "1999-02-02T00:00:00",
      "exmDtSpecified": true
    },
    {
      "exmCd": 0,
      "exmNm": "Uniform Securities Agent State Law Examination",
      "exmDt": "2006-09-18T00:00:00",
      "exmDtSpecified": true
    }
  ],
  "Dsgntns": [],
  "PrevRgstns": [
    {
      "BrnchOfLocs": [
        {
          "city": "SAN FRANCISCO ",
          "state": 4,
          "stateSpecified": true
        }
      ],
      "orgNm": "DEUTSCHE BANK SECURITIES INC.",
      "orgPK": "2525",
      "regBeginDt": "2001-06-18T00:00:00",
      "regBeginDtSpecified": true,
      "regEndDt": "2004-02-05T00:00:00",
      "regEndDtSpecified": true
    },
    {
      "BrnchOfLocs": [
        {
          "city": "SAN FRANCISCO",
          "state": 4,
          "stateSpecified": true
        }
      ],
      "orgNm": "ARATE CAPITAL LLC",
      "orgPK": "131496",
      "regBeginDt": "2004-06-21T00:00:00",
      "regBeginDtSpecified": true,
      "regEndDt": "2006-05-04T00:00:00",
      "regEndDtSpecified": true
    },
    {
      "BrnchOfLocs": [
        {
          "city": "SAN FRANCISCO",
          "state": 4,
          "stateSpecified": true
        }
      ],
      "orgNm": "CHARLES SCHWAB & CO., INC.",
      "orgPK": "5393",
      "regBeginDt": "2006-06-02T00:00:00",
      "regBeginDtSpecified": true,
      "regEndDt": "2009-02-13T00:00:00",
      "regEndDtSpecified": true
    },
    {
      "BrnchOfLocs": [
        {
          "city": "BURLINGAME",
          "state": 4,
          "stateSpecified": true
        },
        {
          "city": "BURLINGAME",
          "state": 4,
          "stateSpecified": true
        },
        {
          "city": "SAN DIEGO",
          "state": 4,
          "stateSpecified": true
        }
      ],
      "orgNm": "LPL FINANCIAL LLC",
      "orgPK": "6413",
      "regBeginDt": "2009-07-01T00:00:00",
      "regBeginDtSpecified": true,
      "regEndDt": "2015-03-13T00:00:00",
      "regEndDtSpecified": true
    },
    {
      "BrnchOfLocs": [
        {
          "city": "BURLINGAME",
          "state": 4,
          "stateSpecified": true
        }
      ],
      "orgNm": "MAIERHOFER WEALTH MANAGEMENT, LLC",
      "orgPK": "166716",
      "regBeginDt": "2013-04-02T00:00:00",
      "regBeginDtSpecified": true,
      "regEndDt": "2015-12-31T00:00:00",
      "regEndDtSpecified": true
    }
  ],
  "EmpHss": [
    {
      "fromDt": "05/2006",
      "toDt": "03/2009",
      "orgNm": "CHARLES SCHWAB & CO., INC.",
      "city": "SAN FRANCISCO",
      "state": 4,
      "stateSpecified": true
    },
    {
      "fromDt": "04/2009",
      "toDt": "06/2009",
      "orgNm": "unemployed",
      "city": "Burlingame",
      "state": 4,
      "stateSpecified": true
    },
    {
      "fromDt": "07/2009",
      "toDt": "03/2015",
      "orgNm": "LPL FINANCIAL",
      "city": "BURLINGAME",
      "state": 4,
      "stateSpecified": true
    },
    {
      "fromDt": "07/2009",
      "toDt": null,
      "orgNm": "MAIERHOFER WEALTH MANAGEMENT, LLC",
      "city": "BURLINGAME",
      "state": 4,
      "stateSpecified": true
    }
  ],
  "OthrBuss": {
    "OthrBus": {
      "desc": "1. 07/01/09 - DBA / MAIERHOFER WEALTH MANAGEMENT, LLC.  2. 2/25/2013: REGISTERED INVESTMENT ADVISOR - MAIERHOFER WEALTH MANAGEMENT, LLC - PROVIDE CUSTOMIZED FINANCIAL CONSULTING SERVICES TO CLIENT(S), FINANCIAL PLANS, RETIREMENT PLANNING, AND BUSINESS EXIT PLANNING. THIS WILL BE DONE ON AN HOURLY FEE - $2,500 MIN (10HRS) UP TO $25,000 MAX. - TIME SPENT 15% - BURLINGAME, CA"
    }
  },
  "DRPs": []
}