{
  "Info": {
    "lastNm": "BLANCHARD",
    "firstNm": "THOMAS",
    "midNm": "G",
    "sufNm": null,
    "indvlPK": "2078771",
    "actvAGReg": 0,
    "link": "http://www.adviserinfo.sec.gov/IAPD/Individual/2078771"
  },
  "OthrNms": [
    {
      "lastNm": "BLANCHARD",
      "firstNm": "TOM",
      "midNm": "G",
      "sufNm": null
    }
  ],
  "CrntEmps": [
    {
      "CrntRgstns": [
        {
          "regAuth": 4,
          "regCat": 0,
          "st": 2,
          "stDt": "2009-06-01T00:00:00"
        }
      ],
      "BrnchOfLocs": [
        {
          "str1": "7175 North Pima Canyon Drive",
          "str2": null,
          "city": "TUCSON",
          "state": 3,
          "stateSpecified": true,
          "cntry": "United States",
          "postlCd": "85718"
        }
      ],
      "orgNm": "MORGAN STANLEY",
      "orgPK": "149777",
      "str1": "2000 WESTCHESTER AVENUE",
      "str2": null,
      "city": "PURCHASE",
      "state": 35,
      "stateSpecified": true,
      "cntry": "United States",
      "postlCd": "10577-2530"
    }
  ],
  "Exms": [
    {
      "exmCd": 0,
      "exmNm": "Uniform Securities Agent State Law Examination",
      "exmDt": "1990-09-27T00:00:00",
      "exmDtSpecified": true
    }
  ],
  "Dsgntns": [],
  "PrevRgstns": [
    {
      "BrnchOfLocs": [
        {
          "city": "TUCSON",
          "state": 3,
          "stateSpecified": true
        },
        {
          "city": "TUCSON",
          "state": 3,
          "stateSpecified": true
        }
      ],
      "orgNm": "MORGAN STANLEY & CO. LLC",
      "orgPK": "8209",
      "regBeginDt": "2007-06-15T00:00:00",
      "regBeginDtSpecified": true,
      "regEndDt": "2009-06-01T00:00:00",
      "regEndDtSpecified": true
    }
  ],
  "EmpHss": [
    {
      "fromDt": "10/1998",
      "toDt": "06/2007",
      "orgNm": "SALOMON SMITH BARNEY INC.",
      "city": "N TUCSON",
      "state": 3,
      "stateSpecified": true
    },
    {
      "fromDt": "06/2007",
      "toDt": null,
      "orgNm": "MORGAN STANLEY & CO., INC.",
      "city": "TUCSON NORTHWEST",
      "state": 3,
      "stateSpecified": true
    },
    {
      "fromDt": "06/2009",
      "toDt": null,
      "orgNm": "MORGAN STANLEY SMITH BARNEY",
      "city": "TUCSON",
      "state": 3,
      "stateSpecified": true
    },
    {
      "fromDt": "01/2015",
      "toDt": null,
      "orgNm": "MORGAN STANLEY PRIVATE BANK, NATIONAL ASSOCIATION",
      "city": "NEW YORK",
      "state": 35,
      "stateSpecified": true
    }
  ],
  "OthrBuss": {
    "OthrBus": {
      "desc": "SITEX REALTY GROUP LLC COMMERCIAL / INDUSTRIAL REAL ESTATE"
    }
  },
  "DRPs": []
}