{
  "Info": {
    "lastNm": "RODRIGUEZ",
    "firstNm": "LAWRENCE",
    "midNm": "B",
    "sufNm": "II",
    "indvlPK": "2080711",
    "actvAGReg": 0,
    "link": "http://www.adviserinfo.sec.gov/IAPD/Individual/2080711"
  },
  "OthrNms": [
    {
      "lastNm": "RODRIGUEZ",
      "firstNm": "LAWRENCE",
      "midNm": null,
      "sufNm": null
    },
    {
      "lastNm": "RODRIGUEZ",
      "firstNm": "LAWRENCE",
      "midNm": "B",
      "sufNm": null
    },
    {
      "lastNm": "RODRIGUEZ",
      "firstNm": "LAWRENCE",
      "midNm": "B",
      "sufNm": null
    },
    {
      "lastNm": "RODRIGUEZ",
      "firstNm": "LAWRENCE",
      "midNm": "B",
      "sufNm": "II"
    },
    {
      "lastNm": "RODRIGUEZ",
      "firstNm": "LAWRENCE",
      "midNm": "B",
      "sufNm": "II"
    },
    {
      "lastNm": "RODRIGUEZ",
      "firstNm": "LAWRENCE",
      "midNm": "B.",
      "sufNm": "II"
    }
  ],
  "CrntEmps": [
    {
      "CrntRgstns": [
        {
          "regAuth": 45,
          "regCat": 0,
          "st": 2,
          "stDt": "2014-10-14T00:00:00"
        }
      ],
      "BrnchOfLocs": [
        {
          "str1": "125 SAWDUST RD",
          "str2": null,
          "city": "SPRING",
          "state": 45,
          "stateSpecified": true,
          "cntry": "United States",
          "postlCd": "77380"
        }
      ],
      "orgNm": "MERRILL LYNCH, PIERCE, FENNER & SMITH INCORPORATED",
      "orgPK": "7691",
      "str1": "ONE BRYANT PARK",
      "str2": null,
      "city": "NEW YORK",
      "state": 35,
      "stateSpecified": true,
      "cntry": "United States",
      "postlCd": "10036"
    }
  ],
  "Exms": [
    {
      "exmCd": 0,
      "exmNm": "Uniform Securities Agent State Law Examination",
      "exmDt": "1994-03-22T00:00:00",
      "exmDtSpecified": true
    },
    {
      "exmCd": 2,
      "exmNm": "Uniform Investment Adviser Law Examination",
      "exmDt": "1994-04-22T00:00:00",
      "exmDtSpecified": true
    }
  ],
  "Dsgntns": [],
  "PrevRgstns": [
    {
      "BrnchOfLocs": [
        {
          "city": "THE WOODLANDS",
          "state": 45,
          "stateSpecified": true
        }
      ],
      "orgNm": "MORGAN STANLEY DW INC.",
      "orgPK": "7556",
      "regBeginDt": "2001-11-09T00:00:00",
      "regBeginDtSpecified": true,
      "regEndDt": "2002-12-06T00:00:00",
      "regEndDtSpecified": true
    },
    {
      "BrnchOfLocs": [
        {
          "city": "THE WOODLANDS",
          "state": 45,
          "stateSpecified": true
        },
        {
          "city": "THE WOODLANDS",
          "state": 45,
          "stateSpecified": true
        }
      ],
      "orgNm": "CHARLES SCHWAB & CO., INC.",
      "orgPK": "5393",
      "regBeginDt": "2003-12-11T00:00:00",
      "regBeginDtSpecified": true,
      "regEndDt": "2010-08-04T00:00:00",
      "regEndDtSpecified": true
    },
    {
      "BrnchOfLocs": [
        {
          "city": "THE WOODLANDS",
          "state": 45,
          "stateSpecified": true
        }
      ],
      "orgNm": "TD AMERITRADE, INC.",
      "orgPK": "7870",
      "regBeginDt": "2010-08-11T00:00:00",
      "regBeginDtSpecified": true,
      "regEndDt": "2014-03-19T00:00:00",
      "regEndDtSpecified": true
    },
    {
      "BrnchOfLocs": [
        {
          "city": "THE WOODLANDS",
          "state": 45,
          "stateSpecified": true
        },
        {
          "city": "THE WOODLANDS",
          "state": 45,
          "stateSpecified": true
        }
      ],
      "orgNm": "AMERIVEST INVESTMENT MANAGEMENT, LLC",
      "orgPK": "111514",
      "regBeginDt": "2010-08-11T00:00:00",
      "regBeginDtSpecified": true,
      "regEndDt": "2014-03-19T00:00:00",
      "regEndDtSpecified": true
    }
  ],
  "EmpHss": [
    {
      "fromDt": "02/2003",
      "toDt": "08/2010",
      "orgNm": "CHARLES SCHWAB & CO., INC.",
      "city": "HOUSTON",
      "state": 45,
      "stateSpecified": true
    },
    {
      "fromDt": "02/2005",
      "toDt": "08/2010",
      "orgNm": "CHARLES SCHWAB BANK",
      "city": "THE WOODLANDS",
      "state": 45,
      "stateSpecified": true
    },
    {
      "fromDt": "08/2010",
      "toDt": "03/2014",
      "orgNm": "TD AMERITRADE",
      "city": "THE WOODLANDS",
      "state": 45,
      "stateSpecified": true
    },
    {
      "fromDt": "03/2014",
      "toDt": "10/2014",
      "orgNm": "UNEMPLOYED",
      "city": "CONROE",
      "state": 45,
      "stateSpecified": true
    },
    {
      "fromDt": "10/2014",
      "toDt": null,
      "orgNm": "BANK OF AMERICA, N.A.",
      "city": "SPRING",
      "state": 45,
      "stateSpecified": true
    },
    {
      "fromDt": "10/2014",
      "toDt": null,
      "orgNm": "MERRILL LYNCH, PIERCE, FENNER & SMITH INCORPORATED",
      "city": "SPRING",
      "state": 45,
      "stateSpecified": true
    }
  ],
  "OthrBuss": {
    "OthrBus": null
  },
  "DRPs": []
}