{
  "Info": {
    "lastNm": "COOPER",
    "firstNm": "THOMAS",
    "midNm": "GREGORY",
    "sufNm": null,
    "indvlPK": "2081981",
    "actvAGReg": 0,
    "link": "http://www.adviserinfo.sec.gov/IAPD/Individual/2081981"
  },
  "OthrNms": [
    {
      "lastNm": "COOPER",
      "firstNm": "GREG",
      "midNm": null,
      "sufNm": null
    },
    {
      "lastNm": "COOPER",
      "firstNm": "T",
      "midNm": "GREGORY",
      "sufNm": null
    }
  ],
  "CrntEmps": [
    {
      "CrntRgstns": [
        {
          "regAuth": 28,
          "regCat": 0,
          "st": 2,
          "stDt": "2016-06-10T00:00:00"
        }
      ],
      "BrnchOfLocs": [
        {
          "str1": "113-B MARINE BLVD N",
          "str2": null,
          "city": "JACKSONVILLE",
          "state": 28,
          "stateSpecified": true,
          "cntry": "United States",
          "postlCd": "28540"
        }
      ],
      "orgNm": "WOODBURY FINANCIAL SERVICES, INC.",
      "orgPK": "421",
      "str1": "7755 3RD STREET NORTH",
      "str2": null,
      "city": "OAKDALE",
      "state": 24,
      "stateSpecified": true,
      "cntry": "United States",
      "postlCd": "55128"
    }
  ],
  "Exms": [
    {
      "exmCd": 0,
      "exmNm": "Uniform Securities Agent State Law Examination",
      "exmDt": "1990-11-05T00:00:00",
      "exmDtSpecified": true
    },
    {
      "exmCd": 3,
      "exmNm": "Uniform Combined State Law Examination",
      "exmDt": "2016-05-05T00:00:00",
      "exmDtSpecified": true
    }
  ],
  "Dsgntns": [],
  "PrevRgstns": [],
  "EmpHss": [
    {
      "fromDt": "01/1990",
      "toDt": null,
      "orgNm": "COOPER INVESTMENT COMPANY",
      "city": "JACKSONVILLE",
      "state": 28,
      "stateSpecified": true
    },
    {
      "fromDt": "03/2009",
      "toDt": null,
      "orgNm": "WOODBURY FINANCIAL SERVICES",
      "city": "JACKSONVILLE",
      "state": 28,
      "stateSpecified": true
    }
  ],
  "OthrBuss": {
    "OthrBus": {
      "desc": "1) COOPER INVESTMENT CO; 113-B MARINE BLVD N, JACKSONVILLE NC 28540l; SECURITIES RELATED; PRESIDENT BROKER DEALER-REG; STARTED 01/1990; APPROX 160 HOURS/MONTH; 125 HOURS/MONTH DURING TRADING HOURS; NO OWNERSHIP INTEREST.  2) JACKSONVILLE/ONSLOW SPORTS COMMISSION; NONINV REL; GUM BRANCH RD, JACKSONVILLE NC 28540; NON-PROFIT ORG; CHAIRMAN; STARTED 07/2010; 5 HRS/MO; 0 HRS DURING TRADING HRS; CHAIRMAN OF BOARD OF DIRECTORS.  3) COOPER INVESTMENT CO; INV REL; 113-B MARINE BLVD N, JACKSONVILLE NC 28540; SECURITIES, STOCKS, MUTUAL FUNDS, VARIABLE ANNUITIES; BD/REGISTERED REP; STARTED 01/1990; 160 HRS/MO; 125 DURING TRADING HRS; REGISTERED REP.  4) COASTAL CAROLINA FOUNDATION BOARD; NONINV RELATED; WESTERN BLVD; BOARD MEMEBR; 02/01/2011; 1 HR/MON; 0 HR/MON; ADVISORY TO BOARD.  5) GREG COOPER INSURANCE; NONINV RELATED; 113 B MARINE BLVD N, JACKSONVILLE NC 28540; INS SALES/SERVICES; AGENT; 08/01/1989; 2 HR/MON; 2 HR/MON; INS SALES/SERVICES.  6) RENTAL HOUSE; NONINV RELATED; 104 LYDIA DR, SWANSBORO NC 28584; RENTAL; OWNER; 11/01/2011; 2 HR/MON; 0 HR/MON; OWNER OF HOME FOR RENTAL.    7) WACHOVIA BOARD OF DIRECTORS; NON INV RELATED; 900 HENDERSON DR, JACKSONVILLE NC 28540; BOARD MEMBER; 09/01/2011; 1 HR/MON; 0 HR/MON; QUARTERLY MEETING.   8) ALCOHOL BEVERAGE CONTROL BOARD; POSITION: Board Member; NATURE: County Board for the State of NC ABC commission; INVESTMENT RELATED: No; NUMBER OF HOURS: 2; SECURITIES TRADING HOURS: 0; START DATE: 10/01/2015; ADDRESS: 409 Center Street, Jacksonville NC 28546; DESCRIPTION: Attend Monthly Meeting and advise on store issues and policy. more of an advisory board."
    }
  },
  "DRPs": []
}