{
  "Info": {
    "lastNm": "LANE",
    "firstNm": "CHERYL",
    "midNm": "ANNE",
    "sufNm": null,
    "indvlPK": "2085428",
    "actvAGReg": 0,
    "link": "http://www.adviserinfo.sec.gov/IAPD/Individual/2085428"
  },
  "OthrNms": [
    {
      "lastNm": "BURGER",
      "firstNm": "CHERYL",
      "midNm": "ANNE",
      "sufNm": null
    },
    {
      "lastNm": "HUBBARD",
      "firstNm": "CHERYL",
      "midNm": "ANNE",
      "sufNm": null
    },
    {
      "lastNm": "LANE",
      "firstNm": "CHERYL",
      "midNm": "BURGER",
      "sufNm": null
    }
  ],
  "CrntEmps": [
    {
      "CrntRgstns": [
        {
          "regAuth": 4,
          "regCat": 0,
          "st": 2,
          "stDt": "2000-04-12T00:00:00"
        }
      ],
      "BrnchOfLocs": [
        {
          "str1": "1 MARKET STREET",
          "str2": "3600 SPEAR TOWER",
          "city": "SAN FRANCISCO",
          "state": 4,
          "stateSpecified": true,
          "cntry": "United States",
          "postlCd": "94105"
        }
      ],
      "orgNm": "WORLD WIDE WEALTH LLC",
      "orgPK": "111501",
      "str1": "131 FRANKLIN STREET",
      "str2": null,
      "city": "SAN FRANCISCO",
      "state": 4,
      "stateSpecified": true,
      "cntry": "United States",
      "postlCd": "94102"
    }
  ],
  "Exms": [
    {
      "exmCd": 0,
      "exmNm": "Uniform Securities Agent State Law Examination",
      "exmDt": "1990-08-30T00:00:00",
      "exmDtSpecified": true
    },
    {
      "exmCd": 2,
      "exmNm": "Uniform Investment Adviser Law Examination",
      "exmDt": "1996-09-18T00:00:00",
      "exmDtSpecified": true
    }
  ],
  "Dsgntns": [],
  "PrevRgstns": [
    {
      "BrnchOfLocs": [
        {
          "city": "SAN FRANCISCO",
          "state": 4,
          "stateSpecified": true
        }
      ],
      "orgNm": "LPL FINANCIAL LLC",
      "orgPK": "6413",
      "regBeginDt": "1997-12-31T00:00:00",
      "regBeginDtSpecified": true,
      "regEndDt": "2004-01-23T00:00:00",
      "regEndDtSpecified": true
    },
    {
      "BrnchOfLocs": [
        {
          "city": "SAN FRANCISCO",
          "state": 4,
          "stateSpecified": true
        }
      ],
      "orgNm": "ROYAL ALLIANCE ASSOCIATES, INC.",
      "orgPK": "23131",
      "regBeginDt": "2004-01-26T00:00:00",
      "regBeginDtSpecified": true,
      "regEndDt": "2004-03-26T00:00:00",
      "regEndDtSpecified": true
    },
    {
      "BrnchOfLocs": [
        {
          "city": "SAN FRANCISCO",
          "state": 4,
          "stateSpecified": true
        }
      ],
      "orgNm": "FIRST ALLIED SECURITIES, INC.",
      "orgPK": "32444",
      "regBeginDt": "2004-03-26T00:00:00",
      "regBeginDtSpecified": true,
      "regEndDt": "2005-03-21T00:00:00",
      "regEndDtSpecified": true
    }
  ],
  "EmpHss": [
    {
      "fromDt": "01/1989",
      "toDt": null,
      "orgNm": "CHERYL A. LANE, CPA - SELF EMPLOYED",
      "city": "UKIAH",
      "state": 4,
      "stateSpecified": true
    },
    {
      "fromDt": "11/1994",
      "toDt": null,
      "orgNm": "HARMON LANE & POSEY INC.",
      "city": "SAN FRANCISCO",
      "state": 4,
      "stateSpecified": true
    },
    {
      "fromDt": "03/2000",
      "toDt": null,
      "orgNm": "THE LANE GROUP, LLC.",
      "city": "SAN FRANCISCO",
      "state": 4,
      "stateSpecified": true
    },
    {
      "fromDt": "03/2004",
      "toDt": null,
      "orgNm": "FIRST ALLIED SECURITITES INC.",
      "city": "SAN FRANCISCO",
      "state": 4,
      "stateSpecified": true
    },
    {
      "fromDt": "12/2004",
      "toDt": null,
      "orgNm": "LANE INSURANCE SERVICES LLC",
      "city": "SAN FRANCISCO",
      "state": 4,
      "stateSpecified": true
    },
    {
      "fromDt": "05/2005",
      "toDt": null,
      "orgNm": "WORLD WIDE WEALTH, LLC",
      "city": "SAN FRANCISCO",
      "state": 4,
      "stateSpecified": true
    }
  ],
  "OthrBuss": {
    "OthrBus": {
      "desc": "1)CHERYL A. LANE - CPA, CPA, SINCE APR 1980.Not investment related. 120 hours per month, 40 during trading hours.  2)Cheryl A. Lane, Insurance Agent, since 1993 not investment related.  1 hour per month 0 during trading hours.  3) 131 FRANKLIN STREET, LLC,  -  BUILDING MANAGER, SINCE JANUARY 2010,not investment related, 20 hours per month, 0 during trading hours 4)WORLD WIDE WEALTH LLC - RIA, SINCE FEB 1993, investment related,4 hours per month,0 during trading hours   5) PORTE D'OR FINANCIAL LTD - BUSINESS & REAL ESTATE BROKERAGE, REAL ESTATE BROKER, SINCE APR 2005, 5 HOURS PER MONTH 0 DURING TRADING HOURS.  ALL ARE LOCATED AT 131 FRANKLIN STREET LLC, SAN FRANCISCO CA 94102."
    }
  },
  "DRPs": []
}