{
  "Info": {
    "lastNm": "KYLE",
    "firstNm": "ROBERT",
    "midNm": "VINCENT",
    "sufNm": "III",
    "indvlPK": "2095480",
    "actvAGReg": 0,
    "link": "http://www.adviserinfo.sec.gov/IAPD/Individual/2095480"
  },
  "OthrNms": [
    {
      "lastNm": "KYLE",
      "firstNm": "ROBERT",
      "midNm": "VINCENT",
      "sufNm": null
    }
  ],
  "CrntEmps": [
    {
      "CrntRgstns": [
        {
          "regAuth": 39,
          "regCat": 0,
          "st": 2,
          "stDt": "2015-05-11T00:00:00"
        }
      ],
      "BrnchOfLocs": [
        {
          "str1": "100 FRONT STREET, SUITE 600",
          "str2": "ONE TOWER BRIDGE",
          "city": "WEST  CONSHOHOCKEN",
          "state": 39,
          "stateSpecified": true,
          "cntry": "United States",
          "postlCd": "19428"
        }
      ],
      "orgNm": "MORGAN STANLEY",
      "orgPK": "149777",
      "str1": "2000 WESTCHESTER AVENUE",
      "str2": null,
      "city": "PURCHASE",
      "state": 35,
      "stateSpecified": true,
      "cntry": "United States",
      "postlCd": "10577-2530"
    }
  ],
  "Exms": [
    {
      "exmCd": 0,
      "exmNm": "Uniform Securities Agent State Law Examination",
      "exmDt": "1990-11-29T00:00:00",
      "exmDtSpecified": true
    },
    {
      "exmCd": 2,
      "exmNm": "Uniform Investment Adviser Law Examination",
      "exmDt": "1993-10-14T00:00:00",
      "exmDtSpecified": true
    },
    {
      "exmCd": 3,
      "exmNm": "Uniform Combined State Law Examination",
      "exmDt": "2010-11-08T00:00:00",
      "exmDtSpecified": true
    }
  ],
  "Dsgntns": [],
  "PrevRgstns": [
    {
      "BrnchOfLocs": [
        {
          "city": "BLUE BELL",
          "state": 39,
          "stateSpecified": true
        }
      ],
      "orgNm": "MORGAN STANLEY DW INC.",
      "orgPK": "7556",
      "regBeginDt": "1996-01-25T00:00:00",
      "regBeginDtSpecified": true,
      "regEndDt": "2004-11-01T00:00:00",
      "regEndDtSpecified": true
    },
    {
      "BrnchOfLocs": [
        {
          "city": "BRYN MAWR",
          "state": 39,
          "stateSpecified": true
        }
      ],
      "orgNm": "WELLS FARGO ADVISORS, LLC",
      "orgPK": "19616",
      "regBeginDt": "2004-11-04T00:00:00",
      "regBeginDtSpecified": true,
      "regEndDt": "2005-12-31T00:00:00",
      "regEndDtSpecified": true
    },
    {
      "BrnchOfLocs": [
        {
          "city": "CONSHOHOCKEN",
          "state": 39,
          "stateSpecified": true
        },
        {
          "city": "PHILADELPHIA",
          "state": 39,
          "stateSpecified": true
        },
        {
          "city": "WASHINGTON",
          "state": 7,
          "stateSpecified": true
        },
        {
          "city": "WASHINGTON",
          "state": 7,
          "stateSpecified": true
        }
      ],
      "orgNm": "CITIGROUP GLOBAL MARKETS INC.",
      "orgPK": "7059",
      "regBeginDt": "2010-11-10T00:00:00",
      "regBeginDtSpecified": true,
      "regEndDt": "2015-05-28T00:00:00",
      "regEndDtSpecified": true
    }
  ],
  "EmpHss": [
    {
      "fromDt": "01/2006",
      "toDt": "08/2008",
      "orgNm": "WACHOVIA BANK,N.A.",
      "city": "PHILADELPHIA",
      "state": 39,
      "stateSpecified": true
    },
    {
      "fromDt": "09/2008",
      "toDt": "06/2010",
      "orgNm": "WELLS FARGO, N.A.",
      "city": "PHILADLEPHIA",
      "state": 39,
      "stateSpecified": true
    },
    {
      "fromDt": "07/2010",
      "toDt": "05/2015",
      "orgNm": "CITI GROUP",
      "city": "PHILADELPHIA",
      "state": 39,
      "stateSpecified": true
    },
    {
      "fromDt": "05/2015",
      "toDt": null,
      "orgNm": "MORGAN STANLEY",
      "city": "WEST CONSHOHOCKEN",
      "state": 39,
      "stateSpecified": true
    },
    {
      "fromDt": "06/2015",
      "toDt": null,
      "orgNm": "MORGAN STANLEY PRIVATE BANK, NATIONAL ASSOCIATION",
      "city": "NEW YORK",
      "state": 35,
      "stateSpecified": true
    }
  ],
  "OthrBuss": {
    "OthrBus": null
  },
  "DRPs": []
}