{
  "Info": {
    "lastNm": "MIKHAIL",
    "firstNm": "IBRAHIM",
    "midNm": "FAHMY",
    "sufNm": null,
    "indvlPK": "2097382",
    "actvAGReg": 0,
    "link": "http://www.adviserinfo.sec.gov/IAPD/Individual/2097382"
  },
  "OthrNms": [],
  "CrntEmps": [
    {
      "CrntRgstns": [
        {
          "regAuth": 4,
          "regCat": 0,
          "st": 2,
          "stDt": "2015-01-02T00:00:00"
        }
      ],
      "BrnchOfLocs": [
        {
          "str1": null,
          "str2": null,
          "city": "LAGUNA NIGUEL",
          "state": 4,
          "stateSpecified": true,
          "cntry": "United States",
          "postlCd": null
        }
      ],
      "orgNm": "CETERA ADVISOR NETWORKS LLC",
      "orgPK": "13572",
      "str1": "200 N. SEPULVEDA BLVD.",
      "str2": "SUITE 1300",
      "city": "EL SEGUNDO",
      "state": 4,
      "stateSpecified": true,
      "cntry": "United States",
      "postlCd": "90245-5672"
    }
  ],
  "Exms": [
    {
      "exmCd": 0,
      "exmNm": "Uniform Securities Agent State Law Examination",
      "exmDt": "1991-01-18T00:00:00",
      "exmDtSpecified": true
    }
  ],
  "Dsgntns": [
    {
      "dsgntnNm": "Certified Financial Planner"
    }
  ],
  "PrevRgstns": [
    {
      "BrnchOfLocs": [
        {
          "city": "LAGUAN NIGUEL",
          "state": 4,
          "stateSpecified": true
        },
        {
          "city": "LAGUNA NIGUEL",
          "state": 4,
          "stateSpecified": true
        }
      ],
      "orgNm": "PROEQUITIES, INC.",
      "orgPK": "15708",
      "regBeginDt": "2000-07-27T00:00:00",
      "regBeginDtSpecified": true,
      "regEndDt": "2014-12-31T00:00:00",
      "regEndDtSpecified": true
    }
  ],
  "EmpHss": [
    {
      "fromDt": "02/2000",
      "toDt": "12/2014",
      "orgNm": "PROEQUITIES, INC.",
      "city": "LAGUNA NIGUEL",
      "state": 4,
      "stateSpecified": true
    },
    {
      "fromDt": "01/2015",
      "toDt": null,
      "orgNm": "CETERA ADVISOR NETWORKS LLC",
      "city": "EL SEGUNDO",
      "state": 4,
      "stateSpecified": true
    }
  ],
  "OthrBuss": {
    "OthrBus": {
      "desc": "1. NAME OF OTHER BUSINESS: FIXED INSURANCE WITH VARIOUS COMPANIES  INVESTMENT RELATED: YES   ADDRESS: SAME AS REGISTERED LOCATION   NATURE OF BUSINESS: FIXED INSURANCE  START DATE: 12/2014  APX NUMBER OF HOURS PER WEEK: VARIES  APX NUMBER OF HOURS DURING TRADING HOURS: VARIES  POSITION/TITLE/RELATIONSHIP: INSURANCE AGENT   BRIEF DESCRIPTION OF DUTIES: SELLS LIFE AND ANNUITIES              2. NAME OF OTHER BUSINESS: LIFE PRO    INVESTMENT RELATED: YES   ADDRESS: SAME AS REGISTERED LOCATION   NATURE OF BUSINESS: FINANCIAL SERVICES  START DATE: 04/2004   APX NUMBER OF HOURS PER WEEK: 40  APX NUMBER OF HOURS DURING TRADING HOURS: 40  BRIEF DESCRIPTION OF DUTIES: INSURANCE BROKER - OWNER, PROVIDE FINANCIAL SERVICES"
    }
  },
  "DRPs": []
}