{
  "Info": {
    "lastNm": "JAICKS",
    "firstNm": "JOHN",
    "midNm": "DAVID",
    "sufNm": null,
    "indvlPK": "2100233",
    "actvAGReg": 0,
    "link": "http://www.adviserinfo.sec.gov/IAPD/Individual/2100233"
  },
  "OthrNms": [],
  "CrntEmps": [
    {
      "CrntRgstns": [
        {
          "regAuth": 4,
          "regCat": 0,
          "st": 2,
          "stDt": "2015-05-12T00:00:00"
        },
        {
          "regAuth": 14,
          "regCat": 0,
          "st": 2,
          "stDt": "2015-05-12T00:00:00"
        },
        {
          "regAuth": 45,
          "regCat": 0,
          "st": 3,
          "stDt": "2015-05-12T00:00:00"
        },
        {
          "regAuth": 46,
          "regCat": 0,
          "st": 2,
          "stDt": "2015-05-12T00:00:00"
        },
        {
          "regAuth": 26,
          "regCat": 0,
          "st": 2,
          "stDt": "2015-05-14T00:00:00"
        },
        {
          "regAuth": 34,
          "regCat": 0,
          "st": 2,
          "stDt": "2015-05-14T00:00:00"
        },
        {
          "regAuth": 49,
          "regCat": 0,
          "st": 2,
          "stDt": "2015-05-15T00:00:00"
        },
        {
          "regAuth": 38,
          "regCat": 0,
          "st": 2,
          "stDt": "2015-05-19T00:00:00"
        },
        {
          "regAuth": 3,
          "regCat": 0,
          "st": 2,
          "stDt": "2015-05-20T00:00:00"
        }
      ],
      "BrnchOfLocs": [
        {
          "str1": "2323 FOOTHILL DR., SUITE 100",
          "str2": null,
          "city": "SALT LAKE CITY",
          "state": 46,
          "stateSpecified": true,
          "cntry": "United States",
          "postlCd": "84109"
        }
      ],
      "orgNm": "LEFAVI WEALTH MANAGEMENT",
      "orgPK": "104961",
      "str1": "2323 FOOTHILL DR., SUITE 100",
      "str2": null,
      "city": "SALT LAKE CITY",
      "state": 46,
      "stateSpecified": true,
      "cntry": "United States",
      "postlCd": "84109"
    }
  ],
  "Exms": [
    {
      "exmCd": 0,
      "exmNm": "Uniform Securities Agent State Law Examination",
      "exmDt": "1991-06-25T00:00:00",
      "exmDtSpecified": true
    },
    {
      "exmCd": 2,
      "exmNm": "Uniform Investment Adviser Law Examination",
      "exmDt": "2003-01-02T00:00:00",
      "exmDtSpecified": true
    }
  ],
  "Dsgntns": [
    {
      "dsgntnNm": "Chartered Financial Consultant"
    }
  ],
  "PrevRgstns": [
    {
      "BrnchOfLocs": [
        {
          "city": "PARK CITY",
          "state": 46,
          "stateSpecified": true
        }
      ],
      "orgNm": "CENTURY SECURITIES ASSOCIATES, INC.",
      "orgPK": "28218",
      "regBeginDt": "2003-01-14T00:00:00",
      "regBeginDtSpecified": true,
      "regEndDt": "2004-11-16T00:00:00",
      "regEndDtSpecified": true
    },
    {
      "BrnchOfLocs": [
        {
          "city": "MIDVALE",
          "state": 46,
          "stateSpecified": true
        },
        {
          "city": "SALT LAKE CITY",
          "state": 46,
          "stateSpecified": true
        }
      ],
      "orgNm": "AMERIPRISE ADVISOR SERVICES, INC.",
      "orgPK": "5979",
      "regBeginDt": "2004-11-16T00:00:00",
      "regBeginDtSpecified": true,
      "regEndDt": "2007-08-20T00:00:00",
      "regEndDtSpecified": true
    },
    {
      "BrnchOfLocs": [
        {
          "city": "SALT LAKE CITY",
          "state": 46,
          "stateSpecified": true
        }
      ],
      "orgNm": "LEFAVI WEALTH MANAGEMENT",
      "orgPK": "104961",
      "regBeginDt": "2007-08-27T00:00:00",
      "regBeginDtSpecified": true,
      "regEndDt": "2013-12-31T00:00:00",
      "regEndDtSpecified": true
    }
  ],
  "EmpHss": [
    {
      "fromDt": "11/2004",
      "toDt": "08/2007",
      "orgNm": "H&R BLOCK FINANCIAL ADVISORS, INC.",
      "city": "SALT LAKE CITY",
      "state": 46,
      "stateSpecified": true
    },
    {
      "fromDt": "08/2007",
      "toDt": null,
      "orgNm": "BRUCE A. LEFAVI SECURITIES, INC.",
      "city": "SALT LAKE CITY",
      "state": 46,
      "stateSpecified": true
    },
    {
      "fromDt": "01/2014",
      "toDt": null,
      "orgNm": "BRUCE A. LEFAVI ANNUITIES, INC DBA LEFAVI WEALTH MANAGEMENT",
      "city": "SALT LAKE CITY",
      "state": 46,
      "stateSpecified": true
    }
  ],
  "OthrBuss": {
    "OthrBus": {
      "desc": "JOHN IS AN INVESTMENT ADVISOR WITH LEFAVI WEALTH MANAGMENT.  HE PROVIDES INVESTMENT ADVISORY SERVICES AND FINANCIAL PLANNING TO CLIENTS.  HE IS ALSO APPOINTED WITH NUMEROUS LIFE INSURANCE CARRIERS AND A LICENSED LIFE/HEALTH AGENT. JOHN IS A REGISTERED REPRESENTATIVE OF BRUCE A LEFAVI SECURITIES, INC."
    }
  },
  "DRPs": [
    {
      "hasRegAction": 1,
      "hasRegActionSpecified": true,
      "hasCriminal": 1,
      "hasCriminalSpecified": true,
      "hasBankrupt": 1,
      "hasBankruptSpecified": true,
      "hasCivilJudc": 1,
      "hasCivilJudcSpecified": true,
      "hasBond": 1,
      "hasBondSpecified": true,
      "hasJudgment": 1,
      "hasJudgmentSpecified": true,
      "hasInvstgn": 1,
      "hasInvstgnSpecified": true,
      "hasCustComp": 0,
      "hasCustCompSpecified": true,
      "hasTermination": 1,
      "hasTerminationSpecified": true
    }
  ]
}