{
  "Info": {
    "lastNm": "DERBY",
    "firstNm": "SANDY",
    "midNm": "KAYE",
    "sufNm": null,
    "indvlPK": "2102710",
    "actvAGReg": 0,
    "link": "http://www.adviserinfo.sec.gov/IAPD/Individual/2102710"
  },
  "OthrNms": [
    {
      "lastNm": "BRISTOL",
      "firstNm": "SANDY",
      "midNm": "KAYE",
      "sufNm": null
    },
    {
      "lastNm": "DERBY",
      "firstNm": "SANDY",
      "midNm": "KAY",
      "sufNm": null
    },
    {
      "lastNm": "STROUP",
      "firstNm": "SANDY",
      "midNm": "KAYE",
      "sufNm": null
    }
  ],
  "CrntEmps": [
    {
      "CrntRgstns": [
        {
          "regAuth": 23,
          "regCat": 0,
          "st": 2,
          "stDt": "2016-03-16T00:00:00"
        }
      ],
      "BrnchOfLocs": [
        {
          "str1": "118 N KALAMAZOO ST",
          "str2": null,
          "city": "PAW PAW",
          "state": 23,
          "stateSpecified": true,
          "cntry": "United States",
          "postlCd": "49079"
        },
        {
          "str1": "220 N. DRAKE RD",
          "str2": null,
          "city": "KALAMAZOO",
          "state": 23,
          "stateSpecified": true,
          "cntry": "United States",
          "postlCd": "49009"
        },
        {
          "str1": "318 W. MICHIGAN",
          "str2": null,
          "city": "KALAMAZOO",
          "state": 23,
          "stateSpecified": true,
          "cntry": "United States",
          "postlCd": "49007"
        },
        {
          "str1": "3201 PORTAGE ROAD",
          "str2": null,
          "city": "KALAMAZOO",
          "state": 23,
          "stateSpecified": true,
          "cntry": "United States",
          "postlCd": "49001"
        },
        {
          "str1": "4431 W. CENTRE AVE",
          "str2": null,
          "city": "PORTAGE",
          "state": 23,
          "stateSpecified": true,
          "cntry": "United States",
          "postlCd": "49024"
        },
        {
          "str1": "5810 GULL RD",
          "str2": null,
          "city": "KALAMAZOO",
          "state": 23,
          "stateSpecified": true,
          "cntry": "United States",
          "postlCd": "49048"
        },
        {
          "str1": "6338 STADIUM DRIVE",
          "str2": null,
          "city": "KALAMAZOO",
          "state": 23,
          "stateSpecified": true,
          "cntry": "United States",
          "postlCd": "49009"
        },
        {
          "str1": "6660 S. WESTNEDGE AVE",
          "str2": null,
          "city": "PORTAGE",
          "state": 23,
          "stateSpecified": true,
          "cntry": "United States",
          "postlCd": "49002"
        },
        {
          "str1": "940 N. 10TH STREET SUITE 200",
          "str2": null,
          "city": "KALAMAZOO",
          "state": 23,
          "stateSpecified": true,
          "cntry": "United States",
          "postlCd": "49009"
        }
      ],
      "orgNm": "LPL FINANCIAL LLC",
      "orgPK": "6413",
      "str1": "75 STATE STREET, 22ND FLOOR",
      "str2": null,
      "city": "BOSTON",
      "state": 20,
      "stateSpecified": true,
      "cntry": "United States",
      "postlCd": "02109"
    }
  ],
  "Exms": [
    {
      "exmCd": 0,
      "exmNm": "Uniform Securities Agent State Law Examination",
      "exmDt": "1990-11-06T00:00:00",
      "exmDtSpecified": true
    }
  ],
  "Dsgntns": [],
  "PrevRgstns": [
    {
      "BrnchOfLocs": [
        {
          "city": "CARMEL",
          "state": 16,
          "stateSpecified": true
        },
        {
          "city": "PORTAGE",
          "state": 23,
          "stateSpecified": true
        },
        {
          "city": "PORTAGE",
          "state": 23,
          "stateSpecified": true
        }
      ],
      "orgNm": "WOODBURY FINANCIAL SERVICES, INC.",
      "orgPK": "421",
      "regBeginDt": "2010-08-26T00:00:00",
      "regBeginDtSpecified": true,
      "regEndDt": "2012-09-14T00:00:00",
      "regEndDtSpecified": true
    },
    {
      "BrnchOfLocs": [
        {
          "city": "BRAINTREE",
          "state": 20,
          "stateSpecified": true
        },
        {
          "city": "DES MOINES",
          "state": 13,
          "stateSpecified": true
        },
        {
          "city": "PORTAGE",
          "state": 23,
          "stateSpecified": true
        }
      ],
      "orgNm": "VOYA FINANCIAL ADVISORS, INC.",
      "orgPK": "2882",
      "regBeginDt": "2012-09-19T00:00:00",
      "regBeginDtSpecified": true,
      "regEndDt": "2016-03-15T00:00:00",
      "regEndDtSpecified": true
    }
  ],
  "EmpHss": [
    {
      "fromDt": "01/2005",
      "toDt": "01/2008",
      "orgNm": "KANSAS CITY LIFE INSURANCE",
      "city": "KANSAS CITY",
      "state": 25,
      "stateSpecified": true
    },
    {
      "fromDt": "01/2005",
      "toDt": "01/2008",
      "orgNm": "SUNSET FINANCIAL SERVICES",
      "city": "KANSAS CITY",
      "state": 25,
      "stateSpecified": true
    },
    {
      "fromDt": "01/2008",
      "toDt": "09/2012",
      "orgNm": "WOODBURY FINANCIAL SERVICES",
      "city": "PORTAGE",
      "state": 23,
      "stateSpecified": true
    },
    {
      "fromDt": "09/2012",
      "toDt": "08/2014",
      "orgNm": "ING FINANCIAL PARTNERS INC",
      "city": "PORTAGE",
      "state": 23,
      "stateSpecified": true
    },
    {
      "fromDt": "09/2014",
      "toDt": "03/2016",
      "orgNm": "VOYA FINANCIAL ADVISORS",
      "city": "PORTAGE",
      "state": 23,
      "stateSpecified": true
    },
    {
      "fromDt": "03/2016",
      "toDt": null,
      "orgNm": "LPL Financial",
      "city": "Kalamazoo",
      "state": 23,
      "stateSpecified": true
    },
    {
      "fromDt": "03/2016",
      "toDt": null,
      "orgNm": "OLD NATIONAL BANK",
      "city": "PORTAGE",
      "state": 50,
      "stateSpecified": true
    }
  ],
  "OthrBuss": {
    "OthrBus": {
      "desc": "(1) 05/02/2016 * Old National Investments * DBA for LPL Business (entity for LPL business) * INV REL * AT REPORTED BUSINESS LOCATION(S) * START 03/11/2016 * 160 HRS/MO DURING SECS TRDG HRS."
    }
  },
  "DRPs": [
    {
      "hasRegAction": 1,
      "hasRegActionSpecified": true,
      "hasCriminal": 1,
      "hasCriminalSpecified": true,
      "hasBankrupt": 1,
      "hasBankruptSpecified": true,
      "hasCivilJudc": 1,
      "hasCivilJudcSpecified": true,
      "hasBond": 1,
      "hasBondSpecified": true,
      "hasJudgment": 1,
      "hasJudgmentSpecified": true,
      "hasInvstgn": 1,
      "hasInvstgnSpecified": true,
      "hasCustComp": 0,
      "hasCustCompSpecified": true,
      "hasTermination": 1,
      "hasTerminationSpecified": true
    }
  ]
}