{
  "Info": {
    "lastNm": "HANSON",
    "firstNm": "MARK",
    "midNm": "ROBERT",
    "sufNm": null,
    "indvlPK": "2104475",
    "actvAGReg": 0,
    "link": "http://www.adviserinfo.sec.gov/IAPD/Individual/2104475"
  },
  "OthrNms": [],
  "CrntEmps": [
    {
      "CrntRgstns": [
        {
          "regAuth": 15,
          "regCat": 0,
          "st": 2,
          "stDt": "2003-05-08T00:00:00"
        }
      ],
      "BrnchOfLocs": [
        {
          "str1": "507 FAIRWAY DR",
          "str2": "STE 143",
          "city": "NAPERVILLE",
          "state": 15,
          "stateSpecified": true,
          "cntry": "United States",
          "postlCd": "60563"
        }
      ],
      "orgNm": "PRINCIPAL SECURITIES, INC.",
      "orgPK": "1137",
      "str1": "655 9TH STREET",
      "str2": null,
      "city": "DES MOINES",
      "state": 13,
      "stateSpecified": true,
      "cntry": "United States",
      "postlCd": "50309"
    }
  ],
  "Exms": [
    {
      "exmCd": 0,
      "exmNm": "Uniform Securities Agent State Law Examination",
      "exmDt": "1990-11-09T00:00:00",
      "exmDtSpecified": true
    }
  ],
  "Dsgntns": [
    {
      "dsgntnNm": "Chartered Financial Consultant"
    }
  ],
  "PrevRgstns": [],
  "EmpHss": [
    {
      "fromDt": "10/1990",
      "toDt": null,
      "orgNm": "PRINCOR FINANCIAL SERVICES CORPORATION",
      "city": "DES MOINES",
      "state": 13,
      "stateSpecified": true
    },
    {
      "fromDt": "07/1998",
      "toDt": null,
      "orgNm": "PRINCIPAL LIFE INSURANCE COMPANY",
      "city": "DES MOINES",
      "state": 13,
      "stateSpecified": true
    },
    {
      "fromDt": "04/2000",
      "toDt": null,
      "orgNm": "HANSON FINANCIAL SERVICES LLC",
      "city": "NAPERVILLE",
      "state": 15,
      "stateSpecified": true
    }
  ],
  "OthrBuss": {
    "OthrBus": {
      "desc": "***OUTSIDE INSURANCE - VARIOUS COMPANIES.  ROLE: BROKER.  EFFECTIVE - 01/25/10.  NOT INVESTMENT RELATED.  % INCOME - NA.  HOURS PER MONTH - NA. ***LTC INSURANCE.  ROLE: SPLIT COMMISSION ON REFERRALS TO KEY FINANCIAL.  EFFECTIVE DATE - 11/03/10.  NOT INVESTMENT RELATED.  *OUTSIDE INSURANCE; SELLING FIXED LIFE INSURANCE, FIXED ANNUITIES, DISABILITY, LONG TERM CARE INSURANCE AND HEALTH INSURANCE THROUGH VARIOUS CARRIERS; 04/09/2013. ***HESED HOUSE, BOARD MEMBER, 10/01/14."
    }
  },
  "DRPs": []
}