{
  "Info": {
    "lastNm": "ALON",
    "firstNm": "REVITAL",
    "midNm": null,
    "sufNm": null,
    "indvlPK": "2106361",
    "actvAGReg": 0,
    "link": "http://www.adviserinfo.sec.gov/IAPD/Individual/2106361"
  },
  "OthrNms": [
    {
      "lastNm": "ALON",
      "firstNm": "TALI",
      "midNm": null,
      "sufNm": null
    }
  ],
  "CrntEmps": [
    {
      "CrntRgstns": [
        {
          "regAuth": 4,
          "regCat": 0,
          "st": 2,
          "stDt": "2009-04-30T00:00:00"
        }
      ],
      "BrnchOfLocs": [
        {
          "str1": "255 SHORELINE DR",
          "str2": "STE 400",
          "city": "REDWOOD CITY",
          "state": 4,
          "stateSpecified": true,
          "cntry": "United States",
          "postlCd": "94065"
        }
      ],
      "orgNm": "AMERIPRISE FINANCIAL SERVICES, INC.",
      "orgPK": "6363",
      "str1": "707 2ND AVENUE SOUTH",
      "str2": null,
      "city": "MINNEAPOLIS",
      "state": 24,
      "stateSpecified": true,
      "cntry": "United States",
      "postlCd": "55402"
    }
  ],
  "Exms": [
    {
      "exmCd": 3,
      "exmNm": "Uniform Combined State Law Examination",
      "exmDt": "2002-10-30T00:00:00",
      "exmDtSpecified": true
    }
  ],
  "Dsgntns": [],
  "PrevRgstns": [
    {
      "BrnchOfLocs": [
        {
          "city": "MENLO PARK",
          "state": 4,
          "stateSpecified": true
        },
        {
          "city": "MENLO PARK",
          "state": 4,
          "stateSpecified": true
        },
        {
          "city": "PALO ALTO",
          "state": 4,
          "stateSpecified": true
        },
        {
          "city": "WEEHAWKEN",
          "state": 32,
          "stateSpecified": true
        }
      ],
      "orgNm": "UBS FINANCIAL SERVICES INC.",
      "orgPK": "8174",
      "regBeginDt": "2002-10-31T00:00:00",
      "regBeginDtSpecified": true,
      "regEndDt": "2009-05-13T00:00:00",
      "regEndDtSpecified": true
    }
  ],
  "EmpHss": [
    {
      "fromDt": "08/2002",
      "toDt": "04/2009",
      "orgNm": "UBS FINANCIAL SERVICES INC.",
      "city": "MENLO PARK",
      "state": 4,
      "stateSpecified": true
    },
    {
      "fromDt": "04/2009",
      "toDt": null,
      "orgNm": "AMERIPRISE FINANCIAL SERVICES INC",
      "city": "REDWOOD CITY",
      "state": 4,
      "stateSpecified": true
    }
  ],
  "OthrBuss": {
    "OthrBus": null
  },
  "DRPs": []
}