{
  "Info": {
    "lastNm": "MUENZENMAY",
    "firstNm": "DOUGLAS",
    "midNm": "PAUL",
    "sufNm": null,
    "indvlPK": "2115817",
    "actvAGReg": 1,
    "link": "http://www.adviserinfo.sec.gov/IAPD/Individual/2115817"
  },
  "OthrNms": [
    {
      "lastNm": "MUENZENMAY",
      "firstNm": "DOUG",
      "midNm": null,
      "sufNm": null
    }
  ],
  "CrntEmps": [
    {
      "CrntRgstns": [
        {
          "regAuth": 26,
          "regCat": 0,
          "st": 2,
          "stDt": "2010-04-28T00:00:00"
        }
      ],
      "BrnchOfLocs": [],
      "orgNm": "MEDLEY & BROWN",
      "orgPK": "133587",
      "str1": "795 WOODLANDS PARKWAY SUITE 104",
      "str2": null,
      "city": "RIDGELAND",
      "state": 26,
      "stateSpecified": true,
      "cntry": "United States",
      "postlCd": "39157"
    }
  ],
  "Exms": [
    {
      "exmCd": 0,
      "exmNm": "Uniform Securities Agent State Law Examination",
      "exmDt": "1991-02-11T00:00:00",
      "exmDtSpecified": true
    },
    {
      "exmCd": 2,
      "exmNm": "Uniform Investment Adviser Law Examination",
      "exmDt": "2001-05-22T00:00:00",
      "exmDtSpecified": true
    }
  ],
  "Dsgntns": [
    {
      "dsgntnNm": "Chartered Financial Analyst"
    }
  ],
  "PrevRgstns": [
    {
      "BrnchOfLocs": [
        {
          "city": "JACKSON",
          "state": 26,
          "stateSpecified": true
        }
      ],
      "orgNm": "TRUSTMARK INVESTMENT ADVISORS, INC.",
      "orgPK": "118826",
      "regBeginDt": "2002-08-27T00:00:00",
      "regBeginDtSpecified": true,
      "regEndDt": "2007-06-18T00:00:00",
      "regEndDtSpecified": true
    }
  ],
  "EmpHss": [
    {
      "fromDt": "05/2002",
      "toDt": "05/2007",
      "orgNm": "TRUSTMARK INVESTMENT ADVISORS, INC.",
      "city": "JACKSON",
      "state": 26,
      "stateSpecified": true
    },
    {
      "fromDt": "05/2007",
      "toDt": "04/2010",
      "orgNm": "MORGAN ASSET MANAGEMENT",
      "city": "JACKSON",
      "state": 26,
      "stateSpecified": true
    },
    {
      "fromDt": "04/2010",
      "toDt": null,
      "orgNm": "MEDLEY & BROWN, LLC",
      "city": "RIDGELAND",
      "state": 26,
      "stateSpecified": true
    }
  ],
  "OthrBuss": {
    "OthrBus": null
  },
  "DRPs": []
}