{
  "Info": {
    "lastNm": "FOSTER",
    "firstNm": "DONALD",
    "midNm": "RALPH",
    "sufNm": null,
    "indvlPK": "211719",
    "actvAGReg": 0,
    "link": "http://www.adviserinfo.sec.gov/IAPD/Individual/211719"
  },
  "OthrNms": [
    {
      "lastNm": "FOSTER",
      "firstNm": "DONALD",
      "midNm": "R",
      "sufNm": null
    }
  ],
  "CrntEmps": [
    {
      "CrntRgstns": [
        {
          "regAuth": 4,
          "regCat": 0,
          "st": 2,
          "stDt": "2007-11-15T00:00:00"
        }
      ],
      "BrnchOfLocs": [
        {
          "str1": "7860 MISSION CENTER DRIVE",
          "str2": "SUITE 208",
          "city": "SAN DIEGO",
          "state": 4,
          "stateSpecified": true,
          "cntry": "United States",
          "postlCd": "92108"
        },
        {
          "str1": "9560 WAPLES STREET",
          "str2": "SUITE B",
          "city": "SAN DIEGO",
          "state": 4,
          "stateSpecified": true,
          "cntry": "UNITED STATES",
          "postlCd": "92121"
        }
      ],
      "orgNm": "GIRARD SECURITIES, INC.",
      "orgPK": "18697",
      "str1": "9560 WAPLES STREET",
      "str2": "SUITE B",
      "city": "SAN DIEGO",
      "state": 4,
      "stateSpecified": true,
      "cntry": "United States",
      "postlCd": "92121"
    }
  ],
  "Exms": [
    {
      "exmCd": 0,
      "exmNm": "Uniform Securities Agent State Law Examination",
      "exmDt": "1989-12-05T00:00:00",
      "exmDtSpecified": true
    }
  ],
  "Dsgntns": [],
  "PrevRgstns": [
    {
      "BrnchOfLocs": [
        {
          "city": "SAN DIEGO",
          "state": 4,
          "stateSpecified": true
        },
        {
          "city": "SAN DIEGO",
          "state": 4,
          "stateSpecified": true
        }
      ],
      "orgNm": "FOSTER SECURITIES",
      "orgPK": "22113",
      "regBeginDt": "1997-07-08T00:00:00",
      "regBeginDtSpecified": true,
      "regEndDt": "2008-12-31T00:00:00",
      "regEndDtSpecified": true
    }
  ],
  "EmpHss": [
    {
      "fromDt": "03/1988",
      "toDt": "11/2007",
      "orgNm": "FOSTER SECURITIES",
      "city": "SAN DIEGO",
      "state": 4,
      "stateSpecified": true
    },
    {
      "fromDt": "11/2007",
      "toDt": null,
      "orgNm": "GIRARD SECURITIES INC.",
      "city": "SAN DIEGO",
      "state": 4,
      "stateSpecified": true
    }
  ],
  "OthrBuss": {
    "OthrBus": {
      "desc": "FOSTER SECURITIES, DBA"
    }
  },
  "DRPs": [
    {
      "hasRegAction": 0,
      "hasRegActionSpecified": true,
      "hasCriminal": 1,
      "hasCriminalSpecified": true,
      "hasBankrupt": 1,
      "hasBankruptSpecified": true,
      "hasCivilJudc": 1,
      "hasCivilJudcSpecified": true,
      "hasBond": 1,
      "hasBondSpecified": true,
      "hasJudgment": 1,
      "hasJudgmentSpecified": true,
      "hasInvstgn": 1,
      "hasInvstgnSpecified": true,
      "hasCustComp": 1,
      "hasCustCompSpecified": true,
      "hasTermination": 0,
      "hasTerminationSpecified": true
    }
  ]
}