{
  "Info": {
    "lastNm": "CUNDARI",
    "firstNm": "WENDY",
    "midNm": "MARIE",
    "sufNm": null,
    "indvlPK": "2118351",
    "actvAGReg": 0,
    "link": "http://www.adviserinfo.sec.gov/IAPD/Individual/2118351"
  },
  "OthrNms": [
    {
      "lastNm": "DELL",
      "firstNm": "WENDY",
      "midNm": "MARIE",
      "sufNm": null
    }
  ],
  "CrntEmps": [
    {
      "CrntRgstns": [
        {
          "regAuth": 4,
          "regCat": 0,
          "st": 2,
          "stDt": "2009-06-15T00:00:00"
        }
      ],
      "BrnchOfLocs": [
        {
          "str1": "119 FLETCHER PKWY",
          "str2": null,
          "city": "EL CAJON",
          "state": 4,
          "stateSpecified": true,
          "cntry": "United States",
          "postlCd": "92020"
        },
        {
          "str1": "17045 VIA DEL CAMPO",
          "str2": null,
          "city": "SAN DIEGO",
          "state": 4,
          "stateSpecified": true,
          "cntry": "United States",
          "postlCd": "92127"
        },
        {
          "str1": "320 B ST",
          "str2": null,
          "city": "SAN DIEGO",
          "state": 4,
          "stateSpecified": true,
          "cntry": "United States",
          "postlCd": "92101"
        },
        {
          "str1": "344 F ST",
          "str2": null,
          "city": "CHULA VISTA",
          "state": 4,
          "stateSpecified": true,
          "cntry": "United States",
          "postlCd": "91910"
        },
        {
          "str1": "9494 Miramar Road",
          "str2": null,
          "city": "San Diego",
          "state": 4,
          "stateSpecified": true,
          "cntry": "United States",
          "postlCd": "92126"
        }
      ],
      "orgNm": "CUNA BROKERAGE SERVICES, INC.",
      "orgPK": "13941",
      "str1": "2000 HERITAGE WAY",
      "str2": null,
      "city": "WAVERLY",
      "state": 13,
      "stateSpecified": true,
      "cntry": "United States",
      "postlCd": "50677"
    }
  ],
  "Exms": [
    {
      "exmCd": 0,
      "exmNm": "Uniform Securities Agent State Law Examination",
      "exmDt": "1991-11-20T00:00:00",
      "exmDtSpecified": true
    },
    {
      "exmCd": 3,
      "exmNm": "Uniform Combined State Law Examination",
      "exmDt": "2003-02-12T00:00:00",
      "exmDtSpecified": true
    }
  ],
  "Dsgntns": [],
  "PrevRgstns": [
    {
      "BrnchOfLocs": [
        {
          "city": "SAN DIEGO",
          "state": 4,
          "stateSpecified": true
        },
        {
          "city": "SAN DIEGO",
          "state": 4,
          "stateSpecified": true
        },
        {
          "city": "SAN DIEGO",
          "state": 4,
          "stateSpecified": true
        },
        {
          "city": "SAN DIEGO",
          "state": 4,
          "stateSpecified": true
        },
        {
          "city": "WAVERLY",
          "state": 13,
          "stateSpecified": true
        }
      ],
      "orgNm": "CUNA BROKERAGE SERVICES, INC.",
      "orgPK": "13941",
      "regBeginDt": "2003-06-16T00:00:00",
      "regBeginDtSpecified": true,
      "regEndDt": "2009-02-17T00:00:00",
      "regEndDtSpecified": true
    },
    {
      "BrnchOfLocs": [
        {
          "city": "SAN DIEGO",
          "state": 4,
          "stateSpecified": true
        },
        {
          "city": "SAN DIEGO",
          "state": 4,
          "stateSpecified": true
        }
      ],
      "orgNm": "LPL FINANCIAL LLC",
      "orgPK": "6413",
      "regBeginDt": "2009-02-06T00:00:00",
      "regBeginDtSpecified": true,
      "regEndDt": "2009-06-04T00:00:00",
      "regEndDtSpecified": true
    }
  ],
  "EmpHss": [
    {
      "fromDt": "12/1999",
      "toDt": "02/2009",
      "orgNm": "CUNA BROKERAGE SERVICES INC",
      "city": "PHEONIX",
      "state": 3,
      "stateSpecified": true
    },
    {
      "fromDt": "02/2009",
      "toDt": "06/2009",
      "orgNm": "CALIFORNIA COAST CREDIT",
      "city": "SAN DIEGO",
      "state": 4,
      "stateSpecified": true
    },
    {
      "fromDt": "02/2009",
      "toDt": "06/2009",
      "orgNm": "LPL FINANCIAL",
      "city": "SAN DIEGO",
      "state": 4,
      "stateSpecified": true
    },
    {
      "fromDt": "06/2009",
      "toDt": null,
      "orgNm": "CUNA BROKERAGE SERVICES.INC",
      "city": "WAVERLY",
      "state": 13,
      "stateSpecified": true
    },
    {
      "fromDt": "06/2009",
      "toDt": null,
      "orgNm": "CUNA MUTUAL GROUP",
      "city": "WAVERLY",
      "state": 13,
      "stateSpecified": true
    }
  ],
  "OthrBuss": {
    "OthrBus": null
  },
  "DRPs": [
    {
      "hasRegAction": 1,
      "hasRegActionSpecified": true,
      "hasCriminal": 1,
      "hasCriminalSpecified": true,
      "hasBankrupt": 1,
      "hasBankruptSpecified": true,
      "hasCivilJudc": 1,
      "hasCivilJudcSpecified": true,
      "hasBond": 1,
      "hasBondSpecified": true,
      "hasJudgment": 1,
      "hasJudgmentSpecified": true,
      "hasInvstgn": 1,
      "hasInvstgnSpecified": true,
      "hasCustComp": 0,
      "hasCustCompSpecified": true,
      "hasTermination": 1,
      "hasTerminationSpecified": true
    }
  ]
}