{
  "Info": {
    "lastNm": "DEVINE",
    "firstNm": "STACY",
    "midNm": "G",
    "sufNm": null,
    "indvlPK": "2118754",
    "actvAGReg": 0,
    "link": "http://www.adviserinfo.sec.gov/IAPD/Individual/2118754"
  },
  "OthrNms": [
    {
      "lastNm": "BURCH",
      "firstNm": "STACY",
      "midNm": "LYN",
      "sufNm": null
    },
    {
      "lastNm": "DEVINE",
      "firstNm": "STACY",
      "midNm": null,
      "sufNm": null
    },
    {
      "lastNm": "DEVINE",
      "firstNm": "STACY",
      "midNm": "GRAY",
      "sufNm": null
    },
    {
      "lastNm": "GRAY",
      "firstNm": "STACY",
      "midNm": "LYN",
      "sufNm": null
    },
    {
      "lastNm": "GRAY",
      "firstNm": "STACY",
      "midNm": "LYN",
      "sufNm": null
    },
    {
      "lastNm": "GRAY",
      "firstNm": "STACY",
      "midNm": "LYN",
      "sufNm": null
    }
  ],
  "CrntEmps": [
    {
      "CrntRgstns": [
        {
          "regAuth": 15,
          "regCat": 0,
          "st": 2,
          "stDt": "2010-06-22T00:00:00"
        }
      ],
      "BrnchOfLocs": [
        {
          "str1": "CITI PRIVATE BANK",
          "str2": "153 EAST 53RD ST., 23RD FLOOR, SUITE L",
          "city": "NEW YORK",
          "state": 35,
          "stateSpecified": true,
          "cntry": "United States",
          "postlCd": "10022"
        },
        {
          "str1": "CITI PRIVATE BANK",
          "str2": "227 WEST MONROE, SUITE 200",
          "city": "CHICAGO",
          "state": 15,
          "stateSpecified": true,
          "cntry": "United States",
          "postlCd": "60606"
        }
      ],
      "orgNm": "CITIGROUP GLOBAL MARKETS INC.",
      "orgPK": "7059",
      "str1": "153 EAST 53RD STREET",
      "str2": null,
      "city": "NEW YORK",
      "state": 35,
      "stateSpecified": true,
      "cntry": "United States",
      "postlCd": "10022"
    }
  ],
  "Exms": [
    {
      "exmCd": 0,
      "exmNm": "Uniform Securities Agent State Law Examination",
      "exmDt": "1991-04-23T00:00:00",
      "exmDtSpecified": true
    },
    {
      "exmCd": 3,
      "exmNm": "Uniform Combined State Law Examination",
      "exmDt": "2007-12-11T00:00:00",
      "exmDtSpecified": true
    }
  ],
  "Dsgntns": [],
  "PrevRgstns": [
    {
      "BrnchOfLocs": [
        {
          "city": "CHICAGO",
          "state": 15,
          "stateSpecified": true
        },
        {
          "city": "NEW YORK",
          "state": 35,
          "stateSpecified": true
        }
      ],
      "orgNm": "LEHMAN BROTHERS INC.",
      "orgPK": "7506",
      "regBeginDt": "2007-12-12T00:00:00",
      "regBeginDtSpecified": true,
      "regEndDt": "2008-10-15T00:00:00",
      "regEndDtSpecified": true
    },
    {
      "BrnchOfLocs": [
        {
          "city": "CHICAGO",
          "state": 15,
          "stateSpecified": true
        }
      ],
      "orgNm": "BARCLAYS CAPITAL INC.",
      "orgPK": "19714",
      "regBeginDt": "2009-01-21T00:00:00",
      "regBeginDtSpecified": true,
      "regEndDt": "2010-03-12T00:00:00",
      "regEndDtSpecified": true
    }
  ],
  "EmpHss": [
    {
      "fromDt": "09/2005",
      "toDt": "12/2007",
      "orgNm": "GOLDMAN SACHS & CO.",
      "city": "CHICAGO",
      "state": 15,
      "stateSpecified": true
    },
    {
      "fromDt": "12/2007",
      "toDt": "09/2008",
      "orgNm": "LEHMAN BROTHERS INC",
      "city": "CHICAGO",
      "state": 15,
      "stateSpecified": true
    },
    {
      "fromDt": "09/2008",
      "toDt": "03/2010",
      "orgNm": "BARCLAYS CAPITAL INC.",
      "city": "CHICAGO",
      "state": 15,
      "stateSpecified": true
    },
    {
      "fromDt": "03/2010",
      "toDt": "06/2010",
      "orgNm": "NONE",
      "city": "CHICAGO",
      "state": 15,
      "stateSpecified": true
    },
    {
      "fromDt": "06/2010",
      "toDt": null,
      "orgNm": "CITIGROUP",
      "city": "CHICAGO",
      "state": 15,
      "stateSpecified": true
    }
  ],
  "OthrBuss": {
    "OthrBus": null
  },
  "DRPs": []
}