{
  "Info": {
    "lastNm": "WRIGHT",
    "firstNm": "JULIANNE",
    "midNm": null,
    "sufNm": null,
    "indvlPK": "2126845",
    "actvAGReg": 0,
    "link": "http://www.adviserinfo.sec.gov/IAPD/Individual/2126845"
  },
  "OthrNms": [
    {
      "lastNm": "KRAMER",
      "firstNm": "JULIANNE",
      "midNm": null,
      "sufNm": null
    },
    {
      "lastNm": "KRAMER",
      "firstNm": "JULIE",
      "midNm": null,
      "sufNm": null
    },
    {
      "lastNm": "ROSSINI",
      "firstNm": "JULIANNE",
      "midNm": null,
      "sufNm": null
    },
    {
      "lastNm": "ROSSINI",
      "firstNm": "JULIE",
      "midNm": null,
      "sufNm": null
    },
    {
      "lastNm": "WRIGHT",
      "firstNm": "JULIANNE",
      "midNm": "NONE",
      "sufNm": null
    }
  ],
  "CrntEmps": [
    {
      "CrntRgstns": [
        {
          "regAuth": 24,
          "regCat": 0,
          "st": 2,
          "stDt": "2014-01-31T00:00:00"
        }
      ],
      "BrnchOfLocs": [
        {
          "str1": "707 2nd Ave South",
          "str2": null,
          "city": "Minneapolis",
          "state": 24,
          "stateSpecified": true,
          "cntry": "United States",
          "postlCd": "55402-2405"
        }
      ],
      "orgNm": "AMERIPRISE FINANCIAL SERVICES, INC.",
      "orgPK": "6363",
      "str1": "707 2ND AVENUE SOUTH",
      "str2": null,
      "city": "MINNEAPOLIS",
      "state": 24,
      "stateSpecified": true,
      "cntry": "United States",
      "postlCd": "55402"
    }
  ],
  "Exms": [
    {
      "exmCd": 0,
      "exmNm": "Uniform Securities Agent State Law Examination",
      "exmDt": "1992-08-18T00:00:00",
      "exmDtSpecified": true
    }
  ],
  "Dsgntns": [],
  "PrevRgstns": [],
  "EmpHss": [
    {
      "fromDt": "10/2004",
      "toDt": "12/2008",
      "orgNm": "CITIGROUP GLOBAL MARKETS INC.",
      "city": "ST. PAUL",
      "state": 24,
      "stateSpecified": true
    },
    {
      "fromDt": "01/2009",
      "toDt": "03/2010",
      "orgNm": "VSR FINANCIAL SERVICES, INC.",
      "city": "OVERLAND PARK",
      "state": 17,
      "stateSpecified": true
    },
    {
      "fromDt": "03/2010",
      "toDt": "10/2010",
      "orgNm": "UNEMPLOYED",
      "city": "FOREST LAKE",
      "state": 24,
      "stateSpecified": true
    },
    {
      "fromDt": "11/2010",
      "toDt": "03/2011",
      "orgNm": "WELLS FARGO INVESTMENTS, LLC",
      "city": "MINNEAPOLIS",
      "state": 24,
      "stateSpecified": true
    },
    {
      "fromDt": "01/2011",
      "toDt": "03/2011",
      "orgNm": "WELLS FARGO ADVISORS, LLC",
      "city": "MINNEAPOLIS",
      "state": 24,
      "stateSpecified": true
    },
    {
      "fromDt": "03/2011",
      "toDt": null,
      "orgNm": "AMERIPRISE FINANCIAL SERVICES INC",
      "city": "MINNEAPOLIS",
      "state": 24,
      "stateSpecified": true
    }
  ],
  "OthrBuss": {
    "OthrBus": {
      "desc": "NAME OF ACTIVITY: FIDUCIARY/CUSTODIAN; DATE ACTIVITY STARTED: 05/01/2014; TRUSTEE/FIDUCIARY; TOTAL HOURS PER MONTH 0-20, TOTAL HOURS DURING TRADING HOURS PER MONTH 0-20; NO INCOME; MANAGING MONEY FOR MOTHER; DOES NOT INVOLVE AMERIPRISE CLIENTS; WILL NOT INTERFERE WITH RESPONSIBILITIES TO THE COMPANY AND ITS CLIENTS; NOT AN AMERIPRISE ACTIVITY."
    }
  },
  "DRPs": []
}