{
  "Info": {
    "lastNm": "LANKAU",
    "firstNm": "PAUL",
    "midNm": "ALLAN",
    "sufNm": null,
    "indvlPK": "2132113",
    "actvAGReg": 0,
    "link": "http://www.adviserinfo.sec.gov/IAPD/Individual/2132113"
  },
  "OthrNms": [
    {
      "lastNm": "LANKAU",
      "firstNm": "PAUL",
      "midNm": "ALLAN",
      "sufNm": null
    },
    {
      "lastNm": "LANKAU",
      "firstNm": "PAUL",
      "midNm": "ALLAN",
      "sufNm": "JR"
    }
  ],
  "CrntEmps": [
    {
      "CrntRgstns": [
        {
          "regAuth": 42,
          "regCat": 0,
          "st": 2,
          "stDt": "2014-10-09T00:00:00"
        }
      ],
      "BrnchOfLocs": [
        {
          "str1": "1012 EWALL ST",
          "str2": null,
          "city": "MT PLEASANT",
          "state": 42,
          "stateSpecified": true,
          "cntry": "United States",
          "postlCd": "29464"
        }
      ],
      "orgNm": "PRINCIPAL SECURITIES, INC.",
      "orgPK": "1137",
      "str1": "655 9TH STREET",
      "str2": null,
      "city": "DES MOINES",
      "state": 13,
      "stateSpecified": true,
      "cntry": "United States",
      "postlCd": "50309"
    }
  ],
  "Exms": [
    {
      "exmCd": 0,
      "exmNm": "Uniform Securities Agent State Law Examination",
      "exmDt": "1991-04-03T00:00:00",
      "exmDtSpecified": true
    },
    {
      "exmCd": 2,
      "exmNm": "Uniform Investment Adviser Law Examination",
      "exmDt": "2006-01-10T00:00:00",
      "exmDtSpecified": true
    }
  ],
  "Dsgntns": [
    {
      "dsgntnNm": "Certified Financial Planner"
    }
  ],
  "PrevRgstns": [
    {
      "BrnchOfLocs": [
        {
          "city": "CHARLESTON",
          "state": 42,
          "stateSpecified": true
        },
        {
          "city": "MT PLEASANT",
          "state": 42,
          "stateSpecified": true
        }
      ],
      "orgNm": "PRINCIPAL SECURITIES, INC.",
      "orgPK": "1137",
      "regBeginDt": "2006-01-11T00:00:00",
      "regBeginDtSpecified": true,
      "regEndDt": "2011-01-13T00:00:00",
      "regEndDtSpecified": true
    }
  ],
  "EmpHss": [
    {
      "fromDt": "01/2004",
      "toDt": "12/2010",
      "orgNm": "PRINCIPAL FINANCIAL",
      "city": "CHARLESTON",
      "state": 42,
      "stateSpecified": true
    },
    {
      "fromDt": "01/2004",
      "toDt": "12/2010",
      "orgNm": "PRINCOR",
      "city": "CHARLESTON",
      "state": 42,
      "stateSpecified": true
    },
    {
      "fromDt": "01/2011",
      "toDt": "12/2013",
      "orgNm": "NATIONWIDE FINANCIAL",
      "city": "DUBLIN",
      "state": 36,
      "stateSpecified": true
    },
    {
      "fromDt": "01/2011",
      "toDt": "12/2013",
      "orgNm": "NATIONWIDE SECURITIES, LLC",
      "city": "DUBLIN",
      "state": 36,
      "stateSpecified": true
    },
    {
      "fromDt": "12/2013",
      "toDt": null,
      "orgNm": "PRINCIPAL LIFE INSURANCE COMPANY",
      "city": "MOUNT PLEASANT",
      "state": 42,
      "stateSpecified": true
    },
    {
      "fromDt": "12/2013",
      "toDt": null,
      "orgNm": "PRINCOR FINANCIAL SERVICES CORPORATION",
      "city": "MOUNT PLEASANT",
      "state": 42,
      "stateSpecified": true
    },
    {
      "fromDt": "04/2016",
      "toDt": null,
      "orgNm": "GOLDSTEIN, LANKAU & MYERS",
      "city": "MT PLEASANT",
      "state": 42,
      "stateSpecified": true
    }
  ],
  "OthrBuss": {
    "OthrBus": {
      "desc": "***PRINCIPAL BANK. 03/14/2014. SELLING PRINCIPAL BANK PRODUCTS. ***OUTSIDE INSURANCE. 03/14/14. SELLING FIXED LIFE, DISABILITY, LONG TERM CARE INSURANCE, FIXED ANNUITIES THROUGH VARIOUS CARRIERS.  **Patriots Point Foundation, board member, 12/27/13."
    }
  },
  "DRPs": []
}