{
  "Info": {
    "lastNm": "BUSH",
    "firstNm": "TRACY",
    "midNm": "STEVEN",
    "sufNm": null,
    "indvlPK": "2133258",
    "actvAGReg": 0,
    "link": "http://www.adviserinfo.sec.gov/IAPD/Individual/2133258"
  },
  "OthrNms": [],
  "CrntEmps": [
    {
      "CrntRgstns": [
        {
          "regAuth": 21,
          "regCat": 0,
          "st": 2,
          "stDt": "2002-01-22T00:00:00"
        }
      ],
      "BrnchOfLocs": [
        {
          "str1": "149 W. PATRICK STREET",
          "str2": null,
          "city": "FREDERICK",
          "state": 21,
          "stateSpecified": true,
          "cntry": "United States",
          "postlCd": "21701"
        }
      ],
      "orgNm": "H. BECK, INC.",
      "orgPK": "1763",
      "str1": "6600 ROCKLEDGE DRIVE",
      "str2": "6TH FLOOR",
      "city": "BETHESDA",
      "state": 21,
      "stateSpecified": true,
      "cntry": "United States",
      "postlCd": "20817-1806"
    }
  ],
  "Exms": [
    {
      "exmCd": 0,
      "exmNm": "Uniform Securities Agent State Law Examination",
      "exmDt": "1993-12-31T00:00:00",
      "exmDtSpecified": true
    },
    {
      "exmCd": 2,
      "exmNm": "Uniform Investment Adviser Law Examination",
      "exmDt": "1998-01-26T00:00:00",
      "exmDtSpecified": true
    }
  ],
  "Dsgntns": [],
  "PrevRgstns": [],
  "EmpHss": [
    {
      "fromDt": "01/2002",
      "toDt": null,
      "orgNm": "H. BECK, INC.",
      "city": "ROCKVILLE",
      "state": 21,
      "stateSpecified": true
    }
  ],
  "OthrBuss": {
    "OthrBus": {
      "desc": "LEGACY FINANCIAL ASSOCIATES POSITION: PRESIDENT NATURE: INSURANCE SALES INVESTMENT RELATED: YES HOURS: 10 INVESTMENT RELATED HOURS: 10 START DATE: 12/12/1994 ADDRESS: 149 WEST PATRICK ST, FREDERICK MD 21701 DESCRIPTION: SALE OF INSURANCE PRODUCTS WHEN APPROPRIATE FOR CLIENT NEEDS  SENIOR RESOURCE ALLIANCE (STUDY GROUP) POSITION: ORGANIZER/MEMBER NATURE: BUSINESS, MARKETING, OTHER INVESTMENT RELATED: NO NUMBER OF HOURS: 3 INVESTMENT RELATED HOURS: 1 START DATE: 01/01/2012 ADDRESS: 149 WEST PATRICK STREET, FREDERICK MD 21701 DESCRIPTION: GROUP OF PROFESSIONALS SHARING CHALLENGES OF SENIOR CITIZENS AND RESOURCES AVAILABLE TO THEM FCC ILR CLASS POSITION: INSTRUCTOR NATURE: BUSINESS, MARKETING, OTHER INVESTMENT RELATED: YES NUMBER OF HOURS: 6 INVESTMENT RELATED HOURS: 4 START DATE: 10/07/2013 ADDRESS: 7932 OPOSSUMTOWN PIKE, FREDERICK MD 21702 DESCRIPTION: FCC INSTITUTE FOR LEARNING IN RETIREMENT CLASS TITLED GETTING YOUR FINANCIAL HOUSE IN ORDER WITH WISE RETIREMENT SOLUTIONS.  WISE INSURANCE SOLUTIONS, LLC POSITION: OWNER NATURE: INSURANCE SALES (INVESTMENT-RELATED OBA) INVESTMENT RELATED: YES NUMBER OF HOURS: 10 SECURITIES TRADING HOURS: 4 START DATE: 12/01/2014 ADDRESS: 127 E PATRICK STREET, FREDERICK MD 21701 DESCRIPTION: BUILD A GROUP OF INSURANCE AGENTS TO PROVIDE SPECIALIZE INSURANCE SOLUTIONS IN A SUPERVISORY CAPACITY, ALONG WITH PERSONAL PRODUCTION.  WISE RENTAL PROPERTIES POSITION: president NATURE: Other OBA INVESTMENT RELATED: No NUMBER OF HOURS: 10 SECURITIES TRADING HOURS: 2 START DATE: 01/08/2016 ADDRESS: 127 E. Patrick Street, Frederick MD 21701 DESCRIPTION: Manage Properties"
    }
  },
  "DRPs": []
}