{
  "Info": {
    "lastNm": "BEAM",
    "firstNm": "CHRIS",
    "midNm": "JENNINGS",
    "sufNm": null,
    "indvlPK": "2134186",
    "actvAGReg": 0,
    "link": "http://www.adviserinfo.sec.gov/IAPD/Individual/2134186"
  },
  "OthrNms": [
    {
      "lastNm": "BEAM",
      "firstNm": "CHRISTOPHER",
      "midNm": "JENNINGS",
      "sufNm": null
    }
  ],
  "CrntEmps": [
    {
      "CrntRgstns": [
        {
          "regAuth": 9,
          "regCat": 0,
          "st": 2,
          "stDt": "1991-04-16T00:00:00"
        },
        {
          "regAuth": 45,
          "regCat": 0,
          "st": 3,
          "stDt": "1998-02-23T00:00:00"
        }
      ],
      "BrnchOfLocs": [
        {
          "str1": "45 EGLIN PKWY",
          "str2": null,
          "city": "FORT WALTON BEACH",
          "state": 9,
          "stateSpecified": true,
          "cntry": "United States",
          "postlCd": "32548"
        }
      ],
      "orgNm": "MERRILL LYNCH, PIERCE, FENNER & SMITH INCORPORATED",
      "orgPK": "7691",
      "str1": "ONE BRYANT PARK",
      "str2": null,
      "city": "NEW YORK",
      "state": 35,
      "stateSpecified": true,
      "cntry": "United States",
      "postlCd": "10036"
    }
  ],
  "Exms": [
    {
      "exmCd": 0,
      "exmNm": "Uniform Securities Agent State Law Examination",
      "exmDt": "1991-04-09T00:00:00",
      "exmDtSpecified": true
    },
    {
      "exmCd": 2,
      "exmNm": "Uniform Investment Adviser Law Examination",
      "exmDt": "1996-01-02T00:00:00",
      "exmDtSpecified": true
    }
  ],
  "Dsgntns": [],
  "PrevRgstns": [],
  "EmpHss": [
    {
      "fromDt": "02/1991",
      "toDt": null,
      "orgNm": "MERRILL LYNCH, PIERCE, FENNER & SMITH INCORPORATED",
      "city": "FORT WALTON BEACH",
      "state": 9,
      "stateSpecified": true
    },
    {
      "fromDt": "12/2009",
      "toDt": null,
      "orgNm": "BANK OF AMERICA, NA",
      "city": "FORT WALTON BEACH",
      "state": 9,
      "stateSpecified": true
    }
  ],
  "OthrBuss": {
    "OthrBus": {
      "desc": "1.FOR PROFIT OR NOT FOR PROFIT: NON-PROFIT 2.NAME OF OUTSIDE BUSINESS ORGANIZATION: INVESTMENT MANAGEMENT CONSULTANTS ASSOCIATION  3.INVESTMENT RELATED: (YES OR NO) NO  4.ADDRESS OF BUSINESS: 5619 DTC PKY, STE 500, GREENWOOD VILLAGE, COLORADO 80111  5.NATURE OF BUSINESS: CORPORATION  6.YOUR POSITION, TITLE, ASSOCIATION: MEMBER  7.START DATE OF RELATIONSHIP: 10/21/2002  8.NUMBER OF HOURS DEVOTED PER MONTH:  36 ANNUALLY  9.NUMBER OF HOURS DEVOTED DURING SECURITIES TRADING HOURS: 21  10.YOUR DUTIES: PROFESSIONAL ASSOCIATION. MEMBER DUE TO CIMA CERTIFICATION."
    }
  },
  "DRPs": []
}