{
  "Info": {
    "lastNm": "ERTEL",
    "firstNm": "FRANCIS",
    "midNm": "DANIEL",
    "sufNm": null,
    "indvlPK": "2136249",
    "actvAGReg": 0,
    "link": "http://www.adviserinfo.sec.gov/IAPD/Individual/2136249"
  },
  "OthrNms": [
    {
      "lastNm": "ERTEL",
      "firstNm": "FRANK",
      "midNm": null,
      "sufNm": null
    }
  ],
  "CrntEmps": [
    {
      "CrntRgstns": [
        {
          "regAuth": 4,
          "regCat": 0,
          "st": 2,
          "stDt": "2012-06-27T00:00:00"
        },
        {
          "regAuth": 10,
          "regCat": 0,
          "st": 2,
          "stDt": "2012-09-14T00:00:00"
        },
        {
          "regAuth": 47,
          "regCat": 0,
          "st": 2,
          "stDt": "2012-09-14T00:00:00"
        },
        {
          "regAuth": 19,
          "regCat": 0,
          "st": 2,
          "stDt": "2012-10-01T00:00:00"
        }
      ],
      "BrnchOfLocs": [
        {
          "str1": null,
          "str2": null,
          "city": "ATLANTA",
          "state": 10,
          "stateSpecified": true,
          "cntry": "United States",
          "postlCd": null
        },
        {
          "str1": null,
          "str2": null,
          "city": "BLACKBURH",
          "state": 47,
          "stateSpecified": true,
          "cntry": "United States",
          "postlCd": null
        },
        {
          "str1": null,
          "str2": null,
          "city": "LULING",
          "state": 19,
          "stateSpecified": true,
          "cntry": "United States",
          "postlCd": null
        },
        {
          "str1": "2090 MARINA AVENUE",
          "str2": null,
          "city": "PETALUMA",
          "state": 4,
          "stateSpecified": true,
          "cntry": "United States",
          "postlCd": "94954"
        }
      ],
      "orgNm": "ONPOINTE ADVISORY AND FINANCIAL SERVICES, LLC",
      "orgPK": "162143",
      "str1": "2090 MARINA AVENUE",
      "str2": null,
      "city": "PETALUMA",
      "state": 4,
      "stateSpecified": true,
      "cntry": "United States",
      "postlCd": "94954"
    }
  ],
  "Exms": [
    {
      "exmCd": 0,
      "exmNm": "Uniform Securities Agent State Law Examination",
      "exmDt": "1992-03-20T00:00:00",
      "exmDtSpecified": true
    },
    {
      "exmCd": 2,
      "exmNm": "Uniform Investment Adviser Law Examination",
      "exmDt": "1995-01-09T00:00:00",
      "exmDtSpecified": true
    },
    {
      "exmCd": 3,
      "exmNm": "Uniform Combined State Law Examination",
      "exmDt": "2007-07-06T00:00:00",
      "exmDtSpecified": true
    }
  ],
  "Dsgntns": [],
  "PrevRgstns": [
    {
      "BrnchOfLocs": [
        {
          "city": "PETALUMA",
          "state": 4,
          "stateSpecified": true
        }
      ],
      "orgNm": "LEGACY ADVISORY SERVICES, INC.",
      "orgPK": "111027",
      "regBeginDt": "2007-07-09T00:00:00",
      "regBeginDtSpecified": true,
      "regEndDt": "2007-07-18T00:00:00",
      "regEndDtSpecified": true
    },
    {
      "BrnchOfLocs": [
        {
          "city": "DENVER",
          "state": 5,
          "stateSpecified": true
        },
        {
          "city": "PETALUMA",
          "state": 4,
          "stateSpecified": true
        }
      ],
      "orgNm": "CETERA ADVISORS LLC",
      "orgPK": "10299",
      "regBeginDt": "2007-07-18T00:00:00",
      "regBeginDtSpecified": true,
      "regEndDt": "2007-08-10T00:00:00",
      "regEndDtSpecified": true
    },
    {
      "BrnchOfLocs": [
        {
          "city": "WESTBOROUGH",
          "state": 20,
          "stateSpecified": true
        },
        {
          "city": "WORCESTER",
          "state": 20,
          "stateSpecified": true
        }
      ],
      "orgNm": "SII INVESTMENTS, INC.",
      "orgPK": "2225",
      "regBeginDt": "2007-08-21T00:00:00",
      "regBeginDtSpecified": true,
      "regEndDt": "2010-07-12T00:00:00",
      "regEndDtSpecified": true
    },
    {
      "BrnchOfLocs": [
        {
          "city": "AGAWAM",
          "state": 20,
          "stateSpecified": true
        },
        {
          "city": "GREENFIELD",
          "state": 20,
          "stateSpecified": true
        },
        {
          "city": "HADLEY",
          "state": 20,
          "stateSpecified": true
        },
        {
          "city": "HOLYOKE",
          "state": 20,
          "stateSpecified": true
        },
        {
          "city": "HOLYOKE",
          "state": 20,
          "stateSpecified": true
        },
        {
          "city": "HOLYOKE",
          "state": 20,
          "stateSpecified": true
        },
        {
          "city": "NORTH ADAMS",
          "state": 20,
          "stateSpecified": true
        },
        {
          "city": "NORTHAMPTON",
          "state": 20,
          "stateSpecified": true
        },
        {
          "city": "PITTSFIELD",
          "state": 20,
          "stateSpecified": true
        },
        {
          "city": "PITTSFIELD",
          "state": 20,
          "stateSpecified": true
        },
        {
          "city": "WEST SPRINGFIELD",
          "state": 20,
          "stateSpecified": true
        },
        {
          "city": "WESTFIELD",
          "state": 20,
          "stateSpecified": true
        }
      ],
      "orgNm": "CITIZENS SECURITIES, INC.",
      "orgPK": "39550",
      "regBeginDt": "2010-07-14T00:00:00",
      "regBeginDtSpecified": true,
      "regEndDt": "2012-03-20T00:00:00",
      "regEndDtSpecified": true
    }
  ],
  "EmpHss": [
    {
      "fromDt": "03/2000",
      "toDt": "08/2007",
      "orgNm": "LEGACY FINANCIAL SERVICES, INC.",
      "city": "PETALUMA",
      "state": 4,
      "stateSpecified": true
    },
    {
      "fromDt": "03/2000",
      "toDt": "08/2007",
      "orgNm": "LEGACY MARKETING",
      "city": "PETALUMA",
      "state": 4,
      "stateSpecified": true
    },
    {
      "fromDt": "08/2007",
      "toDt": "07/2010",
      "orgNm": "SII INVESTMENTS, INC.",
      "city": "MILFORD",
      "state": 20,
      "stateSpecified": true
    },
    {
      "fromDt": "07/2010",
      "toDt": "03/2012",
      "orgNm": "CCO INVESTMENT SERVICES CORP",
      "city": "HOLYOKE",
      "state": 20,
      "stateSpecified": true
    },
    {
      "fromDt": "02/2012",
      "toDt": null,
      "orgNm": "LEGACY MARKETING GROUP",
      "city": "PETALUMA",
      "state": 4,
      "stateSpecified": true
    },
    {
      "fromDt": "03/2012",
      "toDt": null,
      "orgNm": "ONPOINTE ADVISORY AND FINANCIAL SERVICES, LLC",
      "city": "PETALUMA",
      "state": 4,
      "stateSpecified": true
    },
    {
      "fromDt": "05/2012",
      "toDt": null,
      "orgNm": "GWN SECURITIES INC.",
      "city": "PALM BEACH GARDENS",
      "state": 9,
      "stateSpecified": true
    }
  ],
  "OthrBuss": {
    "OthrBus": {
      "desc": "LEGACY MARKETING GROUP SALES MANAGER  2090 MARINA AVE., PETALUMA CA 94954  START DATE 2-27-2012  THE COMPANY MARKETS FIXED INSURANCE PRODUCTS TO INSURANCE PRODUCER. I ANSWER PRODUCER QUESTIONS ON THE COMPANY PRODUCT OFFERINGS AND HELP BUILD TRAINING MATERIAL. SPEND ABOUT 100 HRS A MONTH IN THIS BUSINESS    INSURANCE BUSINESS  POSITION: FINANCIAL ADVISOR NATURE: FINANCIAL PLANNING INVESTMENT RELATED: YES NUMBER OF HOURS: 5 INVESTMENT RELATED HOURS: 30 START DATE: 10/22/2012  ADDRESS: 92 RICE CORNER RD, BROOKFIELD MA 01506  DESCRIPTION: ADVISE CLIENTS ON LIFE INSURANCE AND ANNUITIES    INVESTMENT ADVISOR  POSITION: VP OF SALES NATURE: WE ARE A RIA INVESTMENT RELATED: YES NUMBER OF HOURS: 120 INVESTMENT RELATED HOURS: 30 START DATE: 06/22/2008  ADDRESS: 2090 MARINA AVE, PETALUMA CA 94954  DESCRIPTION: RECRUITE IAR'S TO ONPOINTE OUR RIA"
    }
  },
  "DRPs": []
}