{
  "Info": {
    "lastNm": "BARESH",
    "firstNm": "KAREN",
    "midNm": "AMMERMAN",
    "sufNm": null,
    "indvlPK": "2144356",
    "actvAGReg": 0,
    "link": "http://www.adviserinfo.sec.gov/IAPD/Individual/2144356"
  },
  "OthrNms": [
    {
      "lastNm": "AMMERMAN",
      "firstNm": "KAREN",
      "midNm": "JANE",
      "sufNm": null
    },
    {
      "lastNm": "BARESH",
      "firstNm": "KAREN",
      "midNm": null,
      "sufNm": null
    },
    {
      "lastNm": "PARKHURST",
      "firstNm": "KAREN",
      "midNm": "JANE",
      "sufNm": null
    }
  ],
  "CrntEmps": [
    {
      "CrntRgstns": [
        {
          "regAuth": 45,
          "regCat": 0,
          "st": 2,
          "stDt": "2010-02-26T00:00:00"
        },
        {
          "regAuth": 24,
          "regCat": 0,
          "st": 2,
          "stDt": "2014-01-13T00:00:00"
        }
      ],
      "BrnchOfLocs": [
        {
          "str1": "26 EAST SUPERIOR STREET",
          "str2": "SUITE 500",
          "city": "DULUTH",
          "state": 24,
          "stateSpecified": true,
          "cntry": "United States",
          "postlCd": "55802"
        }
      ],
      "orgNm": "RAYMOND JAMES & ASSOCIATES, INC.",
      "orgPK": "705",
      "str1": "880 CARILLON PARKWAY",
      "str2": null,
      "city": "ST PETERSBURG",
      "state": 9,
      "stateSpecified": true,
      "cntry": "United States",
      "postlCd": "33716"
    }
  ],
  "Exms": [
    {
      "exmCd": 0,
      "exmNm": "Uniform Securities Agent State Law Examination",
      "exmDt": "1991-07-05T00:00:00",
      "exmDtSpecified": true
    },
    {
      "exmCd": 2,
      "exmNm": "Uniform Investment Adviser Law Examination",
      "exmDt": "1996-12-09T00:00:00",
      "exmDtSpecified": true
    }
  ],
  "Dsgntns": [],
  "PrevRgstns": [
    {
      "BrnchOfLocs": [
        {
          "city": "DULUTH",
          "state": 24,
          "stateSpecified": true
        },
        {
          "city": "DULUTH",
          "state": 24,
          "stateSpecified": true
        },
        {
          "city": "DULUTH",
          "state": 24,
          "stateSpecified": true
        }
      ],
      "orgNm": "UBS FINANCIAL SERVICES INC.",
      "orgPK": "8174",
      "regBeginDt": "2002-10-11T00:00:00",
      "regBeginDtSpecified": true,
      "regEndDt": "2010-03-03T00:00:00",
      "regEndDtSpecified": true
    }
  ],
  "EmpHss": [
    {
      "fromDt": "04/1991",
      "toDt": "02/2010",
      "orgNm": "UBS FINANCIAL SERVICES INC.",
      "city": "DULUTH",
      "state": 24,
      "stateSpecified": true
    },
    {
      "fromDt": "02/2010",
      "toDt": null,
      "orgNm": "RAYMOND JAMES & ASSOCIATES, INC.",
      "city": "DULUTH",
      "state": 24,
      "stateSpecified": true
    }
  ],
  "OthrBuss": {
    "OthrBus": null
  },
  "DRPs": []
}