{
  "Info": {
    "lastNm": "MUSSER",
    "firstNm": "STEVEN",
    "midNm": "JOSEPH",
    "sufNm": null,
    "indvlPK": "2152088",
    "actvAGReg": 0,
    "link": "http://www.adviserinfo.sec.gov/IAPD/Individual/2152088"
  },
  "OthrNms": [],
  "CrntEmps": [
    {
      "CrntRgstns": [
        {
          "regAuth": 4,
          "regCat": 0,
          "st": 2,
          "stDt": "2011-12-20T00:00:00"
        }
      ],
      "BrnchOfLocs": [
        {
          "str1": "9710 SCRANTON ROAD",
          "str2": "SUITE 340",
          "city": "SAN DIEGO",
          "state": 4,
          "stateSpecified": true,
          "cntry": "United States",
          "postlCd": "92121"
        }
      ],
      "orgNm": "ATS WEALTH MANAGEMENT",
      "orgPK": "137705",
      "str1": "9710 SCRANTON ROAD",
      "str2": "SUITE 340",
      "city": "SAN DIEGO",
      "state": 4,
      "stateSpecified": true,
      "cntry": "United States",
      "postlCd": "92121"
    },
    {
      "CrntRgstns": [
        {
          "regAuth": 47,
          "regCat": 0,
          "st": 2,
          "stDt": "2015-10-20T00:00:00"
        },
        {
          "regAuth": 4,
          "regCat": 0,
          "st": 2,
          "stDt": "2015-10-21T00:00:00"
        },
        {
          "regAuth": 45,
          "regCat": 0,
          "st": 2,
          "stDt": "2015-11-19T00:00:00"
        },
        {
          "regAuth": 20,
          "regCat": 0,
          "st": 2,
          "stDt": "2016-03-22T00:00:00"
        }
      ],
      "BrnchOfLocs": [
        {
          "str1": "1162 CHESTNUT STREET",
          "str2": null,
          "city": "MENLO PARK",
          "state": 4,
          "stateSpecified": true,
          "cntry": "United States",
          "postlCd": "94025"
        },
        {
          "str1": "9710 SCRANTON ROAD",
          "str2": "SUITE 340",
          "city": "SAN DIEGO",
          "state": 4,
          "stateSpecified": true,
          "cntry": "United States",
          "postlCd": "92121"
        }
      ],
      "orgNm": "FSC SECURITIES CORPORATION",
      "orgPK": "7461",
      "str1": "2300 WINDY RIDGE PKWY, STE 1100",
      "str2": null,
      "city": "ATLANTA",
      "state": 10,
      "stateSpecified": true,
      "cntry": "United States",
      "postlCd": "30339"
    }
  ],
  "Exms": [
    {
      "exmCd": 0,
      "exmNm": "Uniform Securities Agent State Law Examination",
      "exmDt": "1991-07-11T00:00:00",
      "exmDtSpecified": true
    },
    {
      "exmCd": 2,
      "exmNm": "Uniform Investment Adviser Law Examination",
      "exmDt": "1999-06-09T00:00:00",
      "exmDtSpecified": true
    }
  ],
  "Dsgntns": [],
  "PrevRgstns": [
    {
      "BrnchOfLocs": [
        {
          "city": "MENLO PARK",
          "state": 4,
          "stateSpecified": true
        },
        {
          "city": "NEWPORT BEACH",
          "state": 4,
          "stateSpecified": true
        },
        {
          "city": "SAN DIEGO",
          "state": 4,
          "stateSpecified": true
        }
      ],
      "orgNm": "LPL FINANCIAL LLC",
      "orgPK": "6413",
      "regBeginDt": "2000-05-31T00:00:00",
      "regBeginDtSpecified": true,
      "regEndDt": "2015-11-17T00:00:00",
      "regEndDtSpecified": true
    }
  ],
  "EmpHss": [
    {
      "fromDt": "05/2000",
      "toDt": "10/2015",
      "orgNm": "LINSCO PRIVATE LEDGER",
      "city": "NEWPORT BEACH",
      "state": 4,
      "stateSpecified": true
    },
    {
      "fromDt": "07/2008",
      "toDt": null,
      "orgNm": "SANDEEP VARMA WEALTH STRATEGIES",
      "city": "SAN DIEGO",
      "state": 4,
      "stateSpecified": true
    },
    {
      "fromDt": "10/2015",
      "toDt": null,
      "orgNm": "FSC SECURITIES CORP",
      "city": "ATLANTA",
      "state": 10,
      "stateSpecified": true
    }
  ],
  "OthrBuss": {
    "OthrBus": {
      "desc": "1. ATS ADVANCED TRUSTEE STRATEGIES POSITION: Registered Representative NATURE: Corporation INVESTMENT RELATED: Yes NUMBER OF HOURS: 120 SECURITIES TRADING HOURS: 80 START DATE: 02/06/2009 ADDRESS: 9710 Scranton Rd, Suite 340, San Diego CA 92121 DESCRIPTION: Doing business as a registered rep of FSC Securities under a DBA.  2. ATS WEALTH MANAGEMENT POSITION: Investment Advisor Representative NATURE: Registered Invesment Advisory Firm INVESTMENT RELATED: Yes NUMBER OF HOURS: 2 SECURITIES TRADING HOURS: 2 START DATE: 01/04/2016 ADDRESS: 9710 Scranton Rd, Suite 340, San Diego CA 92121 DESCRIPTION: Investment Advisor Representative registered under the RIA \"ATS Wealth Management\"  3. STEVEN MUSSER POSITION: Insurance Agent NATURE: Sole Propietership INVESTMENT RELATED: Yes NUMBER OF HOURS: 1 SECURITIES TRADING HOURS: 1 START DATE: 02/20/1991 ADDRESS: 9710 Scranton Rd, Suite 340, San Diego CA 92121 DESCRIPTION: Licensed to sell fixed insurance, fixed annuities, health, Long Term Care and disability insurance"
    }
  },
  "DRPs": [
    {
      "hasRegAction": 1,
      "hasRegActionSpecified": true,
      "hasCriminal": 1,
      "hasCriminalSpecified": true,
      "hasBankrupt": 1,
      "hasBankruptSpecified": true,
      "hasCivilJudc": 1,
      "hasCivilJudcSpecified": true,
      "hasBond": 1,
      "hasBondSpecified": true,
      "hasJudgment": 1,
      "hasJudgmentSpecified": true,
      "hasInvstgn": 1,
      "hasInvstgnSpecified": true,
      "hasCustComp": 0,
      "hasCustCompSpecified": true,
      "hasTermination": 1,
      "hasTerminationSpecified": true
    }
  ]
}