{
  "Info": {
    "lastNm": "LOVITT",
    "firstNm": "ROBERT",
    "midNm": "EARL",
    "sufNm": null,
    "indvlPK": "2153959",
    "actvAGReg": 0,
    "link": "http://www.adviserinfo.sec.gov/IAPD/Individual/2153959"
  },
  "OthrNms": [
    {
      "lastNm": "LOVITT",
      "firstNm": "ROBERT",
      "midNm": "E",
      "sufNm": null
    }
  ],
  "CrntEmps": [
    {
      "CrntRgstns": [
        {
          "regAuth": 4,
          "regCat": 0,
          "st": 2,
          "stDt": "1999-09-21T00:00:00"
        },
        {
          "regAuth": 45,
          "regCat": 0,
          "st": 3,
          "stDt": "2003-02-07T00:00:00"
        }
      ],
      "BrnchOfLocs": [
        {
          "str1": "200 S LOS ROBLES AVENUE",
          "str2": "SUITE 600",
          "city": "PASADENA",
          "state": 4,
          "stateSpecified": true,
          "cntry": "United States",
          "postlCd": "91101"
        },
        {
          "str1": "200 SOUTH LOS ROBLES AVE STE #600",
          "str2": null,
          "city": "PASADENA",
          "state": 4,
          "stateSpecified": true,
          "cntry": "United States",
          "postlCd": "91101"
        }
      ],
      "orgNm": "UBS FINANCIAL SERVICES INC.",
      "orgPK": "8174",
      "str1": "1200 HARBOR BOULEVARD",
      "str2": null,
      "city": "WEEHAWKEN",
      "state": 32,
      "stateSpecified": true,
      "cntry": "United States",
      "postlCd": "07086"
    }
  ],
  "Exms": [
    {
      "exmCd": 0,
      "exmNm": "Uniform Securities Agent State Law Examination",
      "exmDt": "1991-08-02T00:00:00",
      "exmDtSpecified": true
    },
    {
      "exmCd": 2,
      "exmNm": "Uniform Investment Adviser Law Examination",
      "exmDt": "1995-03-20T00:00:00",
      "exmDtSpecified": true
    }
  ],
  "Dsgntns": [],
  "PrevRgstns": [],
  "EmpHss": [
    {
      "fromDt": "08/1999",
      "toDt": null,
      "orgNm": "UBS FINANCIAL SERVICES INC.",
      "city": "PASADENA",
      "state": 4,
      "stateSpecified": true
    }
  ],
  "OthrBuss": {
    "OthrBus": {
      "desc": "GLENDORA COUNTRY CLUB, 310 SOUTH AMELIA AVENUE, GLENDORA, CALIFORNIA 91741-4005. I HAVE BEEN ASKED TO SERVE ON THE FIANCE COMMITTEE FOR GLENDORA COUNTRY CLUB FOR FISCAL YEAR 2006-2007. SPECIFIC DUTIES INCLUDES A MONTHLY REVIEW OF THE CLUB'S FINANCIAL CONDITION, AND MAKING RECOMMENDATIONS TO THE BOARD WITH REGARD TO SPENDING POLICIES.  6/20/06, MEMBER OF THE COUNTRY CLUB FINANCE COMMITTEE, 1 HOUR PER MONTH."
    }
  },
  "DRPs": [
    {
      "hasRegAction": 1,
      "hasRegActionSpecified": true,
      "hasCriminal": 1,
      "hasCriminalSpecified": true,
      "hasBankrupt": 1,
      "hasBankruptSpecified": true,
      "hasCivilJudc": 1,
      "hasCivilJudcSpecified": true,
      "hasBond": 1,
      "hasBondSpecified": true,
      "hasJudgment": 1,
      "hasJudgmentSpecified": true,
      "hasInvstgn": 1,
      "hasInvstgnSpecified": true,
      "hasCustComp": 0,
      "hasCustCompSpecified": true,
      "hasTermination": 1,
      "hasTerminationSpecified": true
    }
  ]
}