{
  "Info": {
    "lastNm": "MCCLELLAND",
    "firstNm": "PATRICK",
    "midNm": "EUGENE",
    "sufNm": null,
    "indvlPK": "2156148",
    "actvAGReg": 0,
    "link": "http://www.adviserinfo.sec.gov/IAPD/Individual/2156148"
  },
  "OthrNms": [
    {
      "lastNm": "MCCLELLAND",
      "firstNm": "PAT",
      "midNm": null,
      "sufNm": null
    }
  ],
  "CrntEmps": [
    {
      "CrntRgstns": [
        {
          "regAuth": 49,
          "regCat": 0,
          "st": 2,
          "stDt": "2012-03-23T00:00:00"
        },
        {
          "regAuth": 3,
          "regCat": 0,
          "st": 2,
          "stDt": "2012-05-09T00:00:00"
        },
        {
          "regAuth": 50,
          "regCat": 0,
          "st": 2,
          "stDt": "2012-06-20T00:00:00"
        },
        {
          "regAuth": 38,
          "regCat": 0,
          "st": 2,
          "stDt": "2012-06-28T00:00:00"
        },
        {
          "regAuth": 4,
          "regCat": 0,
          "st": 2,
          "stDt": "2012-09-12T00:00:00"
        }
      ],
      "BrnchOfLocs": [
        {
          "str1": "2401 BRISTOL CT SW",
          "str2": "STE D-101",
          "city": "OLYMPIA",
          "state": 49,
          "stateSpecified": true,
          "cntry": "United States",
          "postlCd": "98502"
        }
      ],
      "orgNm": "CAPSTONE INVESTMENT GROUP",
      "orgPK": "159918",
      "str1": "2401 BRISTOL CT SW",
      "str2": "STE D-101",
      "city": "OLYMPIA",
      "state": 49,
      "stateSpecified": true,
      "cntry": "United States",
      "postlCd": "98502"
    }
  ],
  "Exms": [
    {
      "exmCd": 0,
      "exmNm": "Uniform Securities Agent State Law Examination",
      "exmDt": "1991-08-12T00:00:00",
      "exmDtSpecified": true
    },
    {
      "exmCd": 2,
      "exmNm": "Uniform Investment Adviser Law Examination",
      "exmDt": "1998-07-16T00:00:00",
      "exmDtSpecified": true
    }
  ],
  "Dsgntns": [],
  "PrevRgstns": [
    {
      "BrnchOfLocs": [
        {
          "city": "OLYMPIA",
          "state": 49,
          "stateSpecified": true
        }
      ],
      "orgNm": "DFC INVESTOR SERVICES",
      "orgPK": "18558",
      "regBeginDt": "2004-02-20T00:00:00",
      "regBeginDtSpecified": true,
      "regEndDt": "2004-05-03T00:00:00",
      "regEndDtSpecified": true
    },
    {
      "BrnchOfLocs": [
        {
          "city": "SPOKANE",
          "state": 49,
          "stateSpecified": true
        }
      ],
      "orgNm": "SECURITIES AMERICA ADVISORS, INC.",
      "orgPK": "110518",
      "regBeginDt": "2004-06-09T00:00:00",
      "regBeginDtSpecified": true,
      "regEndDt": "2006-08-21T00:00:00",
      "regEndDtSpecified": true
    },
    {
      "BrnchOfLocs": [
        {
          "city": "RENTON",
          "state": 49,
          "stateSpecified": true
        }
      ],
      "orgNm": "PACIFIC WEST FINANCIAL CONSULTANTS INC",
      "orgPK": "108728",
      "regBeginDt": "2006-08-21T00:00:00",
      "regBeginDtSpecified": true,
      "regEndDt": "2012-02-28T00:00:00",
      "regEndDtSpecified": true
    },
    {
      "BrnchOfLocs": [
        {
          "city": "OLYMPIA",
          "state": 49,
          "stateSpecified": true
        }
      ],
      "orgNm": "CETERA ADVISORS LLC",
      "orgPK": "10299",
      "regBeginDt": "2012-02-28T00:00:00",
      "regBeginDtSpecified": true,
      "regEndDt": "2016-01-06T00:00:00",
      "regEndDtSpecified": true
    },
    {
      "BrnchOfLocs": [
        {
          "city": "RENTON",
          "state": 49,
          "stateSpecified": true
        }
      ],
      "orgNm": "PACIFIC WEST FINANCIAL CONSULTANTS INC",
      "orgPK": "108728",
      "regBeginDt": "2012-03-02T00:00:00",
      "regBeginDtSpecified": true,
      "regEndDt": "2012-03-16T00:00:00",
      "regEndDtSpecified": true
    }
  ],
  "EmpHss": [
    {
      "fromDt": "05/2004",
      "toDt": null,
      "orgNm": "CAPSTONE INVESTMENT GROUP, LLC",
      "city": "OLYMPIA",
      "state": 49,
      "stateSpecified": true
    },
    {
      "fromDt": "05/2004",
      "toDt": "08/2006",
      "orgNm": "SECURITIES AMERICA, INC",
      "city": "SPOKANE",
      "state": 49,
      "stateSpecified": true
    },
    {
      "fromDt": "06/2004",
      "toDt": "08/2006",
      "orgNm": "SECURITIES AMERICA ADVISORS, INC.",
      "city": "SPOKANE",
      "state": 49,
      "stateSpecified": true
    },
    {
      "fromDt": "08/2006",
      "toDt": "02/2012",
      "orgNm": "PACIFIC WEST FINANCIAL CONSULTANTS, INC.",
      "city": "RENTON",
      "state": 49,
      "stateSpecified": true
    },
    {
      "fromDt": "08/2006",
      "toDt": "02/2012",
      "orgNm": "PACIFIC WEST SECURITIES, INC.",
      "city": "RENTON",
      "state": 49,
      "stateSpecified": true
    },
    {
      "fromDt": "02/2012",
      "toDt": "12/2012",
      "orgNm": "MULTI-FINANCIAL SECURITIES CORPORATION",
      "city": "EL SEGUNDO",
      "state": 4,
      "stateSpecified": true
    },
    {
      "fromDt": "01/2013",
      "toDt": "01/2016",
      "orgNm": "CETERA ADVISORS LLC",
      "city": "EL SEGUNDO",
      "state": 4,
      "stateSpecified": true
    },
    {
      "fromDt": "01/2016",
      "toDt": null,
      "orgNm": "Private Client Services",
      "city": "Louisville",
      "state": 18,
      "stateSpecified": true
    }
  ],
  "OthrBuss": {
    "OthrBus": {
      "desc": "1. CAPSTONE INVESTMENT GROUP, RIA OFFERING ADVISORY SERVICES, ALSO DBA FOR FIXED INSURANCE AND SECURITIES BUSINESS.  2. Capstone Trust, 2401 Bristol Ct Suite D-102, Olympia, WA 98502. Director/Secretary,  Washington-state registered trust company. Start date 10/2015, 20 hours per month.  3. Capstone Asia, 181 QRC, Hong Kong. Board member - marketing entity for Capstone Trust. 2 hrs/month, 0 during trading hrs."
    }
  },
  "DRPs": []
}