{
  "Info": {
    "lastNm": "BRUNO",
    "firstNm": "MICHAEL",
    "midNm": "PAUL",
    "sufNm": null,
    "indvlPK": "2158144",
    "actvAGReg": 0,
    "link": "http://www.adviserinfo.sec.gov/IAPD/Individual/2158144"
  },
  "OthrNms": [],
  "CrntEmps": [
    {
      "CrntRgstns": [
        {
          "regAuth": 9,
          "regCat": 0,
          "st": 2,
          "stDt": "2015-09-24T00:00:00"
        }
      ],
      "BrnchOfLocs": [
        {
          "str1": "711 E HENDERON AVENUE",
          "str2": null,
          "city": "TAMPA",
          "state": 9,
          "stateSpecified": true,
          "cntry": "United States",
          "postlCd": "33602"
        }
      ],
      "orgNm": "CETERA INVESTMENT ADVISERS LLC",
      "orgPK": "105644",
      "str1": "200 NORTH MARTINGALE ROAD",
      "str2": null,
      "city": "SCHAUMBURG",
      "state": 15,
      "stateSpecified": true,
      "cntry": "United States",
      "postlCd": "60173-2096"
    }
  ],
  "Exms": [
    {
      "exmCd": 3,
      "exmNm": "Uniform Combined State Law Examination",
      "exmDt": "2000-07-31T00:00:00",
      "exmDtSpecified": true
    }
  ],
  "Dsgntns": [
    {
      "dsgntnNm": "Certified Financial Planner"
    }
  ],
  "PrevRgstns": [
    {
      "BrnchOfLocs": [
        {
          "city": "TAMPA",
          "state": 9,
          "stateSpecified": true
        }
      ],
      "orgNm": "UBS FINANCIAL SERVICES INC.",
      "orgPK": "8174",
      "regBeginDt": "2000-07-17T00:00:00",
      "regBeginDtSpecified": true,
      "regEndDt": "2002-10-10T00:00:00",
      "regEndDtSpecified": true
    },
    {
      "BrnchOfLocs": [
        {
          "city": "TAMPA",
          "state": 9,
          "stateSpecified": true
        }
      ],
      "orgNm": "T. ROWE PRICE ADVISORY SERVICES, INC.",
      "orgPK": "108958",
      "regBeginDt": "2004-07-28T00:00:00",
      "regBeginDtSpecified": true,
      "regEndDt": "2012-10-05T00:00:00",
      "regEndDtSpecified": true
    },
    {
      "BrnchOfLocs": [
        {
          "city": "BRANDON",
          "state": 9,
          "stateSpecified": true
        },
        {
          "city": "CLEARWATER",
          "state": 9,
          "stateSpecified": true
        },
        {
          "city": "CRYSTAL RIVER",
          "state": 9,
          "stateSpecified": true
        },
        {
          "city": "HUDSON",
          "state": 9,
          "stateSpecified": true
        },
        {
          "city": "LAKELAND",
          "state": 9,
          "stateSpecified": true
        },
        {
          "city": "LAND'O LAKES",
          "state": 9,
          "stateSpecified": true
        },
        {
          "city": "NEW PORT RICHEY",
          "state": 9,
          "stateSpecified": true
        },
        {
          "city": "OCALA",
          "state": 9,
          "stateSpecified": true
        },
        {
          "city": "PLANT CITY",
          "state": 9,
          "stateSpecified": true
        },
        {
          "city": "SARASOTA",
          "state": 9,
          "stateSpecified": true
        },
        {
          "city": "SEFFNER",
          "state": 9,
          "stateSpecified": true
        },
        {
          "city": "SEMINOLE",
          "state": 9,
          "stateSpecified": true
        },
        {
          "city": "ST PETERSBURG",
          "state": 9,
          "stateSpecified": true
        },
        {
          "city": "ST PETERSBURG",
          "state": 9,
          "stateSpecified": true
        },
        {
          "city": "TAMPA",
          "state": 9,
          "stateSpecified": true
        },
        {
          "city": "TAMPA",
          "state": 9,
          "stateSpecified": true
        },
        {
          "city": "TAMPA",
          "state": 9,
          "stateSpecified": true
        },
        {
          "city": "TAMPA",
          "state": 9,
          "stateSpecified": true
        },
        {
          "city": "TAMPA",
          "state": 9,
          "stateSpecified": true
        },
        {
          "city": "TAMPA",
          "state": 9,
          "stateSpecified": true
        },
        {
          "city": "TAMPA",
          "state": 9,
          "stateSpecified": true
        },
        {
          "city": "TEMPLE TERRACE",
          "state": 9,
          "stateSpecified": true
        }
      ],
      "orgNm": "INVESTMENT CENTERS OF AMERICA, INC.",
      "orgPK": "16443",
      "regBeginDt": "2012-10-30T00:00:00",
      "regBeginDtSpecified": true,
      "regEndDt": "2015-09-21T00:00:00",
      "regEndDtSpecified": true
    }
  ],
  "EmpHss": [
    {
      "fromDt": "07/2004",
      "toDt": "01/2008",
      "orgNm": "T. ROWE PRICE",
      "city": "TAMPA",
      "state": 9,
      "stateSpecified": true
    },
    {
      "fromDt": "01/2008",
      "toDt": "10/2012",
      "orgNm": "T. ROWE PRICE INVESTMENT SERVICES, INC.",
      "city": "TAMPA",
      "state": 9,
      "stateSpecified": true
    },
    {
      "fromDt": "10/2012",
      "toDt": "09/2015",
      "orgNm": "INVESTMENT CENTERS OF AMERICA",
      "city": "TAMPA",
      "state": 9,
      "stateSpecified": true
    },
    {
      "fromDt": "09/2015",
      "toDt": null,
      "orgNm": "CETERA INVESTMENT ADVISERS LLC",
      "city": "TAMPA",
      "state": 9,
      "stateSpecified": true
    },
    {
      "fromDt": "09/2015",
      "toDt": null,
      "orgNm": "CETERA INVESTMENT SERVICES LLC",
      "city": "ST.CLOUD",
      "state": 24,
      "stateSpecified": true
    },
    {
      "fromDt": "09/2015",
      "toDt": null,
      "orgNm": "GTE FEDERAL CREDIT UNION",
      "city": "TAMPA",
      "state": 9,
      "stateSpecified": true
    }
  ],
  "OthrBuss": {
    "OthrBus": {
      "desc": "NEW: DIRECTOR, PASCO-HERNANDO STATE COLLEGE FOUNDATION, INC. ATTENDS BOARD MEETINGS AND OTHER FOUNDATION FUNCTIONS, HELP PROMOTE THE FOUNDATION AND THE COLLEGE IN THE COMMUNITY-NO COMPENSATION-1-2 HRS PER WEEK-NO SECURITIES CLIENTS."
    }
  },
  "DRPs": []
}