{
  "Info": {
    "lastNm": "COLSON",
    "firstNm": "STEVEN",
    "midNm": "CRAIG",
    "sufNm": null,
    "indvlPK": "2161994",
    "actvAGReg": 0,
    "link": "http://www.adviserinfo.sec.gov/IAPD/Individual/2161994"
  },
  "OthrNms": [],
  "CrntEmps": [
    {
      "CrntRgstns": [
        {
          "regAuth": 45,
          "regCat": 0,
          "st": 2,
          "stDt": "2003-02-28T00:00:00"
        }
      ],
      "BrnchOfLocs": [
        {
          "str1": "302 HOLLEMAN DRIVE EAST",
          "str2": "SUITE 200",
          "city": "COLLEGE STATION",
          "state": 45,
          "stateSpecified": true,
          "cntry": "United States",
          "postlCd": "77840"
        },
        {
          "str1": "TOWNSITE PLAZA #2, SUITE 105",
          "str2": "120 SE 6TH AVENUE",
          "city": "TOPEKA",
          "state": 17,
          "stateSpecified": true,
          "cntry": "United States",
          "postlCd": "66603-3515"
        }
      ],
      "orgNm": "OFG FINANCIAL SERVICES, INC.",
      "orgPK": "23940",
      "str1": "120 SE 6TH AVENUE",
      "str2": "TOWNSITE PLAZA #2, SUITE 105",
      "city": "TOPEKA",
      "state": 17,
      "stateSpecified": true,
      "cntry": "United States",
      "postlCd": "66603-3515"
    }
  ],
  "Exms": [
    {
      "exmCd": 0,
      "exmNm": "Uniform Securities Agent State Law Examination",
      "exmDt": "1991-07-16T00:00:00",
      "exmDtSpecified": true
    },
    {
      "exmCd": 2,
      "exmNm": "Uniform Investment Adviser Law Examination",
      "exmDt": "2000-09-14T00:00:00",
      "exmDtSpecified": true
    }
  ],
  "Dsgntns": [
    {
      "dsgntnNm": "Chartered Financial Consultant"
    }
  ],
  "PrevRgstns": [],
  "EmpHss": [
    {
      "fromDt": "11/1998",
      "toDt": null,
      "orgNm": "INDEPENDENT AGENT-SELF EMPLOYED",
      "city": "COLLEGE STATION",
      "state": 45,
      "stateSpecified": true
    },
    {
      "fromDt": "02/1999",
      "toDt": null,
      "orgNm": "OFG FINANCIAL SERVICES, INC.",
      "city": "TOPEKA",
      "state": 17,
      "stateSpecified": true
    }
  ],
  "OthrBuss": {
    "OthrBus": {
      "desc": "D/B/A EXECUTIVE FINANCIAL SERVICES- SELLING LIFE & HEALTH INSURANCE & FIXED ANNUITIES WITH VARIOUS COMPANIES - COMMISSIONS - 30% OF TIME SPENT ON THIS;  STICK FAMILY LIMITED PARTNERSHIP-REAL ESTATE FARMING, RANCHING, TIMBER - LIMITED PARTNER - SHARE OF SALES / PROFITS& LOSSES-10% OF TIME SPENT."
    }
  },
  "DRPs": []
}