{
  "Info": {
    "lastNm": "LEMPE",
    "firstNm": "GLENN",
    "midNm": "JOSEPH",
    "sufNm": null,
    "indvlPK": "2162929",
    "actvAGReg": 0,
    "link": "http://www.adviserinfo.sec.gov/IAPD/Individual/2162929"
  },
  "OthrNms": [
    {
      "lastNm": "LEMPE",
      "firstNm": "G",
      "midNm": "J",
      "sufNm": null
    }
  ],
  "CrntEmps": [
    {
      "CrntRgstns": [
        {
          "regAuth": 5,
          "regCat": 0,
          "st": 2,
          "stDt": "2006-07-17T00:00:00"
        },
        {
          "regAuth": 45,
          "regCat": 0,
          "st": 3,
          "stDt": "2010-08-18T00:00:00"
        },
        {
          "regAuth": 24,
          "regCat": 0,
          "st": 2,
          "stDt": "2013-12-23T00:00:00"
        }
      ],
      "BrnchOfLocs": [
        {
          "str1": "1650 W. 82ND STREET, STE 1090",
          "str2": "SOUTHPOINT OFFICE CENTER",
          "city": "BLOOMINGTON",
          "state": 24,
          "stateSpecified": true,
          "cntry": "United States",
          "postlCd": "55431"
        }
      ],
      "orgNm": "LPL FINANCIAL LLC",
      "orgPK": "6413",
      "str1": "75 STATE STREET, 22ND FLOOR",
      "str2": null,
      "city": "BOSTON",
      "state": 20,
      "stateSpecified": true,
      "cntry": "United States",
      "postlCd": "02109"
    }
  ],
  "Exms": [
    {
      "exmCd": 0,
      "exmNm": "Uniform Securities Agent State Law Examination",
      "exmDt": "1991-07-29T00:00:00",
      "exmDtSpecified": true
    }
  ],
  "Dsgntns": [
    {
      "dsgntnNm": "Certified Financial Planner"
    }
  ],
  "PrevRgstns": [],
  "EmpHss": [
    {
      "fromDt": "07/2006",
      "toDt": null,
      "orgNm": "LPL FINANCIAL LLC",
      "city": "BLOOMINGTON",
      "state": 24,
      "stateSpecified": true
    }
  ],
  "OthrBuss": {
    "OthrBus": {
      "desc": "(1) 7/17/2006: SUPERIOR WEALTH MANAGEMENT GROUP / DBA / BLOOMINGTON, MN.     (2) 5/9/2012: GLENN J. LEMPE, INC. / NON-VARIABLE INSURANCE DBA / DBA FOR MY S-CORP - INSURANCE SALES (DI, LIFE, HEALTH, LTC) - ALL FINANCIAL PLANNING SERVICES, INVESTMENT COUNSELING SERVICES OFFERED THROUGH LPL FINANCIAL / 100% TIME SPENT / BLOOMINGTON, MN.   (3) 07/12/2013 - SUPERIOR WEALTH MANAGEMENT - LOAN - I AM REQUESTING PERMISSION TO TAKE OUT A LOAN TO CLEAR UP MY OUTSTANDING FEDERAL TAX OBLIGATIONS FOR 2006 AND 2007 THAT HAS BEEN REGISTERED ON MY U4.  I WILL BE INITIATING A LOAN OF $180,000 AT 3%  REPAYABLE  OVER 5 YEARS FROM JOHN M. SOUKUP (6YFB) - 1% OF TIME SPENT  (4) 03/05/2015 - NON-VARIABLE INSURANCE - TIME SPENT 15 HOURS PER MONTH - BLOOMINGTON, MN."
    }
  },
  "DRPs": []
}