{
  "Info": {
    "lastNm": "DICKSON",
    "firstNm": "MICHAEL",
    "midNm": "WILLIAM",
    "sufNm": null,
    "indvlPK": "2163991",
    "actvAGReg": 0,
    "link": "http://www.adviserinfo.sec.gov/IAPD/Individual/2163991"
  },
  "OthrNms": [
    {
      "lastNm": "DICKSON",
      "firstNm": "MICHAEL",
      "midNm": "W",
      "sufNm": null
    }
  ],
  "CrntEmps": [
    {
      "CrntRgstns": [
        {
          "regAuth": 20,
          "regCat": 0,
          "st": 2,
          "stDt": "2009-12-08T00:00:00"
        }
      ],
      "BrnchOfLocs": [
        {
          "str1": "ONE FINANCIAL CENTER",
          "str2": null,
          "city": "BOSTON",
          "state": 20,
          "stateSpecified": true,
          "cntry": "United States",
          "postlCd": "02111-2621"
        }
      ],
      "orgNm": "LOOMIS, SAYLES & COMPANY, L.P.",
      "orgPK": "105377",
      "str1": "ONE FINANCIAL CENTER",
      "str2": null,
      "city": "BOSTON",
      "state": 20,
      "stateSpecified": true,
      "cntry": "United States",
      "postlCd": "02111-2621"
    }
  ],
  "Exms": [
    {
      "exmCd": 0,
      "exmNm": "Uniform Securities Agent State Law Examination",
      "exmDt": "1991-10-03T00:00:00",
      "exmDtSpecified": true
    },
    {
      "exmCd": 2,
      "exmNm": "Uniform Investment Adviser Law Examination",
      "exmDt": "2007-01-16T00:00:00",
      "exmDtSpecified": true
    }
  ],
  "Dsgntns": [],
  "PrevRgstns": [
    {
      "BrnchOfLocs": [
        {
          "city": "BEDFORD",
          "state": 31,
          "stateSpecified": true
        },
        {
          "city": "FAIRPORT",
          "state": 35,
          "stateSpecified": true
        }
      ],
      "orgNm": "MANNING & NAPIER ADVISORY ADVANTAGE COMPANY, LLC",
      "orgPK": "106652",
      "regBeginDt": "2007-01-17T00:00:00",
      "regBeginDtSpecified": true,
      "regEndDt": "2008-10-24T00:00:00",
      "regEndDtSpecified": true
    }
  ],
  "EmpHss": [
    {
      "fromDt": "09/2003",
      "toDt": "12/2006",
      "orgNm": "ING FUNDS DISTRIBUTOR, LLC",
      "city": "SCOTTSDALE",
      "state": 3,
      "stateSpecified": true
    },
    {
      "fromDt": "01/2007",
      "toDt": "10/2008",
      "orgNm": "M&N ADVISORY ADVANTAGE",
      "city": "FAIRPORT",
      "state": 35,
      "stateSpecified": true
    },
    {
      "fromDt": "01/2007",
      "toDt": "10/2008",
      "orgNm": "M&N INVESTOR SERVICES, INC",
      "city": "FAIRPORT",
      "state": 35,
      "stateSpecified": true
    },
    {
      "fromDt": "11/2008",
      "toDt": "04/2009",
      "orgNm": "UNEMPLOYED",
      "city": "MANCHESTER",
      "state": 31,
      "stateSpecified": true
    },
    {
      "fromDt": "05/2009",
      "toDt": "06/2009",
      "orgNm": "SIGNATOR INVESTORS INC",
      "city": "WESTBOROUGH",
      "state": 20,
      "stateSpecified": true
    },
    {
      "fromDt": "06/2009",
      "toDt": "11/2009",
      "orgNm": "NEW YORK LIFE",
      "city": "MANCHESTER",
      "state": 31,
      "stateSpecified": true
    },
    {
      "fromDt": "08/2009",
      "toDt": "11/2009",
      "orgNm": "NEW YORK LIFE INSURANCE COMPANY",
      "city": "MANCHESTER",
      "state": 31,
      "stateSpecified": true
    },
    {
      "fromDt": "08/2009",
      "toDt": "11/2009",
      "orgNm": "NYLIFE SECURITIES",
      "city": "MANCHESTER",
      "state": 31,
      "stateSpecified": true
    },
    {
      "fromDt": "11/2009",
      "toDt": null,
      "orgNm": "LOOMIS SAYLES",
      "city": "BOSTON",
      "state": 20,
      "stateSpecified": true
    }
  ],
  "OthrBuss": {
    "OthrBus": null
  },
  "DRPs": []
}