{
  "Info": {
    "lastNm": "LEE",
    "firstNm": "LESTER",
    "midNm": "HUGHES",
    "sufNm": "JR",
    "indvlPK": "2165724",
    "actvAGReg": 0,
    "link": "http://www.adviserinfo.sec.gov/IAPD/Individual/2165724"
  },
  "OthrNms": [
    {
      "lastNm": "LEE",
      "firstNm": "LESTER",
      "midNm": "HUGHES",
      "sufNm": null
    },
    {
      "lastNm": "LEE",
      "firstNm": "LESTER",
      "midNm": "HUGHES",
      "sufNm": "JR"
    }
  ],
  "CrntEmps": [
    {
      "CrntRgstns": [
        {
          "regAuth": 19,
          "regCat": 0,
          "st": 2,
          "stDt": "2003-11-05T00:00:00"
        },
        {
          "regAuth": 45,
          "regCat": 0,
          "st": 2,
          "stDt": "2012-07-02T00:00:00"
        }
      ],
      "BrnchOfLocs": [
        {
          "str1": "203 N. BRYAN AVE STE. B",
          "str2": null,
          "city": "GONZALES",
          "state": 19,
          "stateSpecified": true,
          "cntry": "United States",
          "postlCd": "70737"
        },
        {
          "str1": "4611 BLUEBONNET BLVD, STE A",
          "str2": null,
          "city": "BATON ROUGE",
          "state": 19,
          "stateSpecified": true,
          "cntry": "United States",
          "postlCd": "70809"
        }
      ],
      "orgNm": "LPL FINANCIAL LLC",
      "orgPK": "6413",
      "str1": "75 STATE STREET, 22ND FLOOR",
      "str2": null,
      "city": "BOSTON",
      "state": 20,
      "stateSpecified": true,
      "cntry": "United States",
      "postlCd": "02109"
    }
  ],
  "Exms": [
    {
      "exmCd": 0,
      "exmNm": "Uniform Securities Agent State Law Examination",
      "exmDt": "1991-08-26T00:00:00",
      "exmDtSpecified": true
    }
  ],
  "Dsgntns": [
    {
      "dsgntnNm": "Certified Financial Planner"
    }
  ],
  "PrevRgstns": [],
  "EmpHss": [
    {
      "fromDt": "09/2003",
      "toDt": null,
      "orgNm": "LPL FINANCIAL LLC  (FORMERLY: LINSCO/PRIVATE LEDGER)",
      "city": "BATON ROUGE",
      "state": 19,
      "stateSpecified": true
    }
  ],
  "OthrBuss": {
    "OthrBus": {
      "desc": "(1) 05/13/2005: NO BUSINESS NAME - INV REL - 4611 BLUEBONNET BLVD, STE A, BATON ROUGE, LA 70809 - NON-VARIABLE INSURANCE       (2) 02/01/2006: LEE, DOUGHERTY & FERRARA INVESTMENT MANAGEMENT LLC - DBA FOR LPL BUSINESS (ENTITY FOR LPL BUSINESS) - INV REL - 4611 BLUEBONNET BLVD, STE A, BATON ROUGE, LA 70809       (3) 12/17/2010: G-4 PROPERTIES - INV REL - 4611 BLUEBONNET BLVD SUITE A, BATON ROUGE, LA 70809 - REAL ESTATE RENTAL - 2% OF TIME SPENT - ONE OFFICE CONDO       (4) 08/09/2011: LEE WEALTH MANAGEMENT LLC - DBA FOR LPL BUSINESS (ENTITY FOR LPL BUSINESS) - INV REL - 4611 BLUEBONNET BLVD, STE A, BATON ROUGE, LA 70809        (5)  10/31/2012: LDF INSURANCE AGENCY LLC - INV REL - 4611 BLUEBONNET BLVD, STE A, BATON ROUGE, LA 70809 - NON-VARIABLE INSURANCE - 5% OF TIME SPENT - SELL INSURANCE: LIFE, HEALTH, DISABILITY, LONG-TERM CARE"
    }
  },
  "DRPs": [
    {
      "hasRegAction": 1,
      "hasRegActionSpecified": true,
      "hasCriminal": 1,
      "hasCriminalSpecified": true,
      "hasBankrupt": 1,
      "hasBankruptSpecified": true,
      "hasCivilJudc": 1,
      "hasCivilJudcSpecified": true,
      "hasBond": 1,
      "hasBondSpecified": true,
      "hasJudgment": 1,
      "hasJudgmentSpecified": true,
      "hasInvstgn": 1,
      "hasInvstgnSpecified": true,
      "hasCustComp": 0,
      "hasCustCompSpecified": true,
      "hasTermination": 1,
      "hasTerminationSpecified": true
    }
  ]
}