{
  "Info": {
    "lastNm": "WOOD",
    "firstNm": "DAVID",
    "midNm": "JAMES",
    "sufNm": null,
    "indvlPK": "2165606",
    "actvAGReg": 0,
    "link": "http://www.adviserinfo.sec.gov/IAPD/Individual/2165606"
  },
  "OthrNms": [
    {
      "lastNm": "WOOD",
      "firstNm": "DAVE",
      "midNm": null,
      "sufNm": null
    },
    {
      "lastNm": "WOOD",
      "firstNm": "DAVID",
      "midNm": "J",
      "sufNm": null
    }
  ],
  "CrntEmps": [
    {
      "CrntRgstns": [
        {
          "regAuth": 39,
          "regCat": 0,
          "st": 2,
          "stDt": "2007-10-15T00:00:00"
        }
      ],
      "BrnchOfLocs": [
        {
          "str1": "460 S. LEWIS RD",
          "str2": "STE. 101",
          "city": "ROYERSFORD",
          "state": 39,
          "stateSpecified": true,
          "cntry": "United States",
          "postlCd": "19468"
        }
      ],
      "orgNm": "NATIONAL PLANNING CORPORATION",
      "orgPK": "29604",
      "str1": "100 NORTH SEPULVEDA BLVD",
      "str2": "SUITE 1800",
      "city": "EL SEGUNDO",
      "state": 4,
      "stateSpecified": true,
      "cntry": "United States",
      "postlCd": "90245"
    }
  ],
  "Exms": [
    {
      "exmCd": 0,
      "exmNm": "Uniform Securities Agent State Law Examination",
      "exmDt": "1994-02-18T00:00:00",
      "exmDtSpecified": true
    }
  ],
  "Dsgntns": [],
  "PrevRgstns": [],
  "EmpHss": [
    {
      "fromDt": "07/2000",
      "toDt": "10/2007",
      "orgNm": "CAPITAL ANALYSTS INC",
      "city": "RADNOR",
      "state": 39,
      "stateSpecified": true
    },
    {
      "fromDt": "10/2007",
      "toDt": null,
      "orgNm": "NATIONAL PLANNING CORPORATION",
      "city": "ROYERSFORD",
      "state": 39,
      "stateSpecified": true
    }
  ],
  "OthrBuss": {
    "OthrBus": {
      "desc": "LIFE INSURANCE, 460 S LEWIS RD STE 101 ROYERSFORD PA 19468-2731, AGENT, 8/13/2007, 30 HOURS TOTAL, 30 DURING TRADING HOURS, FIXED INSURANCE. --   EXECUTOR ON FAMILY ACCOUNT, 5 THISTLE STREET FLEMINGTON NJ 08822, EXECUTOR, 6/18/2015, 1 HOURS TOTAL, 1 DURING TRADING HOURS, EXECUTOR.--    St. Pedro & Associates, 460 S Lewis Rd Ste 101 Royersford PA 19468-2731, Vice President, 11/7/2007, 160 hours total, 160 during trading hours, DBA used for NPC business only."
    }
  },
  "DRPs": []
}