{
  "Info": {
    "lastNm": "CHAZE",
    "firstNm": "KRISTINE",
    "midNm": "DUWAR",
    "sufNm": null,
    "indvlPK": "2166658",
    "actvAGReg": 0,
    "link": "http://www.adviserinfo.sec.gov/IAPD/Individual/2166658"
  },
  "OthrNms": [
    {
      "lastNm": "DUWAR",
      "firstNm": "KRIS",
      "midNm": null,
      "sufNm": null
    },
    {
      "lastNm": "DUWAR",
      "firstNm": "KRISTINE",
      "midNm": null,
      "sufNm": null
    }
  ],
  "CrntEmps": [
    {
      "CrntRgstns": [
        {
          "regAuth": 47,
          "regCat": 0,
          "st": 2,
          "stDt": "1998-10-06T00:00:00"
        },
        {
          "regAuth": 45,
          "regCat": 0,
          "st": 3,
          "stDt": "2007-08-31T00:00:00"
        }
      ],
      "BrnchOfLocs": [
        {
          "str1": "4000 LEGATO ROAD",
          "str2": "9TH FLOOR",
          "city": "FAIRFAX",
          "state": 47,
          "stateSpecified": true,
          "cntry": "United States",
          "postlCd": "22033"
        }
      ],
      "orgNm": "EDELMAN FINANCIAL SERVICES, LLC",
      "orgPK": "113299",
      "str1": "4000 LEGATO ROAD",
      "str2": "9TH FLOOR",
      "city": "FAIRFAX",
      "state": 47,
      "stateSpecified": true,
      "cntry": "United States",
      "postlCd": "22033-2892"
    }
  ],
  "Exms": [
    {
      "exmCd": 0,
      "exmNm": "Uniform Securities Agent State Law Examination",
      "exmDt": "1994-05-13T00:00:00",
      "exmDtSpecified": true
    },
    {
      "exmCd": 2,
      "exmNm": "Uniform Investment Adviser Law Examination",
      "exmDt": "1998-04-15T00:00:00",
      "exmDtSpecified": true
    }
  ],
  "Dsgntns": [],
  "PrevRgstns": [],
  "EmpHss": [
    {
      "fromDt": "08/1993",
      "toDt": null,
      "orgNm": "EDELMAN FINANCIAL SERVICES LLC",
      "city": "FAIRFAX",
      "state": 47,
      "stateSpecified": true
    },
    {
      "fromDt": "12/2005",
      "toDt": "04/2016",
      "orgNm": "SANDERS MORRIS HARRIS INC.",
      "city": "HOUSTON",
      "state": 45,
      "stateSpecified": true
    },
    {
      "fromDt": "04/2016",
      "toDt": null,
      "orgNm": "EF LEGACY SECURITIES, LLC",
      "city": "HENRICO",
      "state": 47,
      "stateSpecified": true
    }
  ],
  "OthrBuss": {
    "OthrBus": {
      "desc": "AGENT FOR VARIOUS INSURANCE COMPANIES (NON-INVESTMENT RELATED: LIFE, DISABILITY, LONG TERM CARE, FIXED ANNUITY). INSURANCE SERVICES ARE OFFERED TO CLIENTS AS NECESSARY. GENERALLY ONE HOUR OR LESS DEVOTED DURING SECURITIES TRADING HOURS. 1) EFS 2) INVESTMENT RELATED 3) FAIRFAX VA 4) REGISTERED INVESTMENT ADVISOR 5) INVESTMENT ADVISORY REP 6) INDEFINITE TO PRESENT 7) 40 8) 40"
    }
  },
  "DRPs": []
}