{
  "Info": {
    "lastNm": "DIBBLE",
    "firstNm": "SWEYDEN",
    "midNm": "ERNEST",
    "sufNm": null,
    "indvlPK": "2168885",
    "actvAGReg": 0,
    "link": "http://www.adviserinfo.sec.gov/IAPD/Individual/2168885"
  },
  "OthrNms": [],
  "CrntEmps": [
    {
      "CrntRgstns": [
        {
          "regAuth": 6,
          "regCat": 0,
          "st": 2,
          "stDt": "2012-10-26T00:00:00"
        }
      ],
      "BrnchOfLocs": [
        {
          "str1": "211 MAIN STREET",
          "str2": null,
          "city": "SAN FRANCISCO",
          "state": 4,
          "stateSpecified": true,
          "cntry": "United States",
          "postlCd": "94105"
        },
        {
          "str1": "83 EVERGREEN WAY, SUITE 220",
          "str2": null,
          "city": "SOUTH WINDSOR",
          "state": 6,
          "stateSpecified": true,
          "cntry": "United States",
          "postlCd": "06074"
        }
      ],
      "orgNm": "CHARLES SCHWAB & CO., INC.",
      "orgPK": "5393",
      "str1": "211 MAIN STREET",
      "str2": null,
      "city": "SAN FRANCISCO",
      "state": 4,
      "stateSpecified": true,
      "cntry": "United States",
      "postlCd": "94105"
    }
  ],
  "Exms": [
    {
      "exmCd": 0,
      "exmNm": "Uniform Securities Agent State Law Examination",
      "exmDt": "1991-09-04T00:00:00",
      "exmDtSpecified": true
    },
    {
      "exmCd": 2,
      "exmNm": "Uniform Investment Adviser Law Examination",
      "exmDt": "1997-10-07T00:00:00",
      "exmDtSpecified": true
    }
  ],
  "Dsgntns": [
    {
      "dsgntnNm": "Certified Financial Planner"
    }
  ],
  "PrevRgstns": [
    {
      "BrnchOfLocs": [
        {
          "city": "MARIETTA",
          "state": 10,
          "stateSpecified": true
        }
      ],
      "orgNm": "SPELMAN & CO., INC.",
      "orgPK": "10232",
      "regBeginDt": "2000-11-10T00:00:00",
      "regBeginDtSpecified": true,
      "regEndDt": "2005-06-24T00:00:00",
      "regEndDtSpecified": true
    },
    {
      "BrnchOfLocs": [
        {
          "city": "ELLINGTON",
          "state": 6,
          "stateSpecified": true
        },
        {
          "city": "NEW YORK",
          "state": 35,
          "stateSpecified": true
        },
        {
          "city": "NEW YORK",
          "state": 35,
          "stateSpecified": true
        },
        {
          "city": "VERNON",
          "state": 6,
          "stateSpecified": true
        }
      ],
      "orgNm": "ROYAL ALLIANCE ASSOCIATES, INC.",
      "orgPK": "23131",
      "regBeginDt": "2005-08-23T00:00:00",
      "regBeginDtSpecified": true,
      "regEndDt": "2012-10-19T00:00:00",
      "regEndDtSpecified": true
    }
  ],
  "EmpHss": [
    {
      "fromDt": "08/2002",
      "toDt": null,
      "orgNm": "ILLINOIS MUTUAL",
      "city": "PEORIA",
      "state": 15,
      "stateSpecified": true
    },
    {
      "fromDt": "06/2005",
      "toDt": "10/2012",
      "orgNm": "ROYAL ALLIANCE ASSOCIATES, INC.",
      "city": "VERNON",
      "state": 6,
      "stateSpecified": true
    },
    {
      "fromDt": "01/2011",
      "toDt": null,
      "orgNm": "EBAY (SELLER)",
      "city": "MANHCESTER",
      "state": 6,
      "stateSpecified": true
    },
    {
      "fromDt": "10/2012",
      "toDt": null,
      "orgNm": "CHARLES SCHWAB & CO., INC.",
      "city": "MANCHESTER",
      "state": 6,
      "stateSpecified": true
    }
  ],
  "OthrBuss": {
    "OthrBus": {
      "desc": "ILLINOIS MUTUAL/NOT INVESTMENT-RELATED/30 SW ADAMS ST., PEORIA, IL  61634.  INSURANCE AGENCY/VESTED AGENT FOR TRAILS ONLY/STARTED 8/2002/0 HOURS PER MONTH AND 0 HOURS DURING SECURITIES TRADING HOURS.  I RECEIVE TRAILS ONLY.     (2)EBAY.  NOT INVESTMENT RELATED.  MANCHESTER, CT.  10 HOURS PER MONTH/ 0 HOURS DURING SECURITIES TRADING HOURS.  SALES OF KEYLESS REMOTE ENTRY FOBS TO THE EXTENT OF LIQUIDATING EXISTING INVENTORY.  (3) START DATE 10/01/2014, SOUTH WINDSOR, CT SOUTH WINDSOR CHAMBER OF COMMERCE, BOARD OF DIRECTORS - MEMBER, ATTEND BOARD MEETINGS, VOTE ON ISSUES RELATED TO CHAMBER OF COMMERCE CONCERNS, FUNCTION AS AMBASSADOR FOR COMMUNITY AND CHAMBER. HOURS PER MONTH LESS THAN 20.  (4) WOOD MEMORIAL LIBRARY AND MUSEUM, 06/25/2015. BOARD MEMBER. SOUTH WINDSOR, CT.SERVE ON BOARD. WILL LIKELY ASSIST WITH SECURING ENDOWMENTS FOR THE ORGANIZATION. HOURS PER MONTH LESS THAN 20."
    }
  },
  "DRPs": []
}