{
  "Info": {
    "lastNm": "HORNE",
    "firstNm": "KERRY",
    "midNm": "MAYO",
    "sufNm": null,
    "indvlPK": "2171532",
    "actvAGReg": 0,
    "link": "http://www.adviserinfo.sec.gov/IAPD/Individual/2171532"
  },
  "OthrNms": [
    {
      "lastNm": "HORNE",
      "firstNm": "KERRY",
      "midNm": "PRATT",
      "sufNm": null
    },
    {
      "lastNm": "MUSIAL",
      "firstNm": "KERRY",
      "midNm": "M",
      "sufNm": null
    }
  ],
  "CrntEmps": [
    {
      "CrntRgstns": [
        {
          "regAuth": 9,
          "regCat": 0,
          "st": 2,
          "stDt": "2009-09-21T00:00:00"
        }
      ],
      "BrnchOfLocs": [
        {
          "str1": "6150 DIAMOND CENTRE CT",
          "str2": "UNIT 800, SUITE 2",
          "city": "FT MYERS",
          "state": 9,
          "stateSpecified": true,
          "cntry": "United States",
          "postlCd": "33912"
        }
      ],
      "orgNm": "RAYMOND JAMES FINANCIAL SERVICES ADVISORS, INC",
      "orgPK": "149018",
      "str1": "880 CARILLON PARKWAY",
      "str2": null,
      "city": "SAINT PETERSBURG",
      "state": 9,
      "stateSpecified": true,
      "cntry": "United States",
      "postlCd": "33716"
    }
  ],
  "Exms": [
    {
      "exmCd": 0,
      "exmNm": "Uniform Securities Agent State Law Examination",
      "exmDt": "1991-10-29T00:00:00",
      "exmDtSpecified": true
    }
  ],
  "Dsgntns": [],
  "PrevRgstns": [
    {
      "BrnchOfLocs": [
        {
          "city": "FORT MYERS",
          "state": 9,
          "stateSpecified": true
        },
        {
          "city": "FORT MYERS",
          "state": 9,
          "stateSpecified": true
        },
        {
          "city": "FORT MYERS",
          "state": 9,
          "stateSpecified": true
        },
        {
          "city": "FORT MYERS",
          "state": 9,
          "stateSpecified": true
        },
        {
          "city": "FORT MYERS",
          "state": 9,
          "stateSpecified": true
        },
        {
          "city": "FORT MYERS",
          "state": 9,
          "stateSpecified": true
        },
        {
          "city": "FORT MYERS",
          "state": 9,
          "stateSpecified": true
        },
        {
          "city": "FORT MYERS",
          "state": 9,
          "stateSpecified": true
        },
        {
          "city": "FORT MYERS",
          "state": 9,
          "stateSpecified": true
        },
        {
          "city": "FORT MYERS",
          "state": 9,
          "stateSpecified": true
        },
        {
          "city": "NAPLES",
          "state": 9,
          "stateSpecified": true
        }
      ],
      "orgNm": "WELLS FARGO ADVISORS, LLC",
      "orgPK": "19616",
      "regBeginDt": "2001-09-24T00:00:00",
      "regBeginDtSpecified": true,
      "regEndDt": "2009-08-10T00:00:00",
      "regEndDtSpecified": true
    }
  ],
  "EmpHss": [
    {
      "fromDt": "06/2002",
      "toDt": "08/2009",
      "orgNm": "WELLS FARGO ADV./WACHOVIA SECURITIES, INC. - ISG",
      "city": "FORT MYERS",
      "state": 9,
      "stateSpecified": true
    },
    {
      "fromDt": "08/2009",
      "toDt": null,
      "orgNm": "RAYMOND JAMES FINANCIAL SERVICES, INC",
      "city": "FT MYERS",
      "state": 9,
      "stateSpecified": true
    },
    {
      "fromDt": "09/2009",
      "toDt": null,
      "orgNm": "RAYMOND JAMES FINANCIAL SERVICES ADVISORS, INC",
      "city": "FORT MYERS",
      "state": 9,
      "stateSpecified": true
    },
    {
      "fromDt": "01/2010",
      "toDt": null,
      "orgNm": "KERRY HORNE HOUSE OF FEATHERS",
      "city": "FORT MYERS",
      "state": 9,
      "stateSpecified": true
    },
    {
      "fromDt": "01/2012",
      "toDt": null,
      "orgNm": "TRUSTEE",
      "city": "FORT MYERS",
      "state": 9,
      "stateSpecified": true
    }
  ],
  "OthrBuss": {
    "OthrBus": {
      "desc": "KERRY HORNE HOUSE OF FEATHERS. IT IS NOT INVESTMENT RELATED. THE ADDRESS WILL BE MY HOME ADDRESS: 15468 BRIAR RIDGE CR. FORT MYERS, FL  33912. IT IS AN EXOTIC BIRD BREEDING BUSINESS, OF WHICH I WILL BE THE SOLE PROPRIETOR. THIS IS A HOBBY WE ARE TURNING INTO A BUSINESS, WITH REALLY NO CHANGES FROM WHAT MY HUSBAND AND I ARE DOING.  I WILL SPEND ABOUT 10-15 HRS A WEEK ON IT, AFTER BUSINESS HOURS AND BEFORE ONLY. MY DUTIES WILL BE FEEDING BIRDS, CLEANING CAGES, SELLING BIRDS AT BIRD SHOWS (WEEKENDS ONLY) AND ALL OTHER BUSINESS DUTIES. 2. TRUSTEE - FORT MYERS, FL - 01/2012 TO PRESENT - SUCCESSOR TRUSTEE OF 2 FAMILY TRUSTS - 40 HOURS PER MONTH - 8 HOURS DURING TRADING HOURS - INVESTMENT RELATED"
    }
  },
  "DRPs": []
}