{
  "Info": {
    "lastNm": "JACOBS",
    "firstNm": "JEFFREY",
    "midNm": "ALAN",
    "sufNm": null,
    "indvlPK": "2173892",
    "actvAGReg": 0,
    "link": "http://www.adviserinfo.sec.gov/IAPD/Individual/2173892"
  },
  "OthrNms": [
    {
      "lastNm": "JACOBS",
      "firstNm": "JEFF",
      "midNm": null,
      "sufNm": null
    }
  ],
  "CrntEmps": [
    {
      "CrntRgstns": [
        {
          "regAuth": 45,
          "regCat": 0,
          "st": 3,
          "stDt": "2004-08-06T00:00:00"
        }
      ],
      "BrnchOfLocs": [
        {
          "str1": "ONE BRYANT PARK",
          "str2": "NY PBIG MIDTOWN",
          "city": "NEW YORK",
          "state": 35,
          "stateSpecified": true,
          "cntry": "United States",
          "postlCd": "10036"
        }
      ],
      "orgNm": "MERRILL LYNCH, PIERCE, FENNER & SMITH INCORPORATED",
      "orgPK": "7691",
      "str1": "ONE BRYANT PARK",
      "str2": null,
      "city": "NEW YORK",
      "state": 35,
      "stateSpecified": true,
      "cntry": "United States",
      "postlCd": "10036"
    }
  ],
  "Exms": [
    {
      "exmCd": 0,
      "exmNm": "Uniform Securities Agent State Law Examination",
      "exmDt": "1991-11-01T00:00:00",
      "exmDtSpecified": true
    },
    {
      "exmCd": 2,
      "exmNm": "Uniform Investment Adviser Law Examination",
      "exmDt": "1996-06-14T00:00:00",
      "exmDtSpecified": true
    }
  ],
  "Dsgntns": [],
  "PrevRgstns": [],
  "EmpHss": [
    {
      "fromDt": "07/1991",
      "toDt": null,
      "orgNm": "MERRILL LYNCH, PIERCE, FENNER & SMITH INCORPORATED",
      "city": "NEW YORK",
      "state": 35,
      "stateSpecified": true
    },
    {
      "fromDt": "08/2011",
      "toDt": null,
      "orgNm": "BANK OF AMERICA, N.A.",
      "city": "NEW YORK",
      "state": 35,
      "stateSpecified": true
    }
  ],
  "OthrBuss": {
    "OthrBus": {
      "desc": "I*28222 FOR PROFIT OR NOT FOR PROFIT: FOR-PROFIT ORGANIZATION  NAME OF OUTSIDE BUSINESS ORGANIZATION: JEFF & JORDANA JACOBS OWNER OCCUPIED BROWNSTONE  INVESTMENT RELATED: Y  ADDRESS OF BUSINESS:   336 WEST 89TH STREET,   NEW YORK, NEW YORK 10024  NATURE OF BUSINESS: SOLE PROPRIETORSHIP,  POSITION, TITLE, ASSOCIATION: OWNER,   START DATE OF RELATIONSHIP: 2/28/2001  NUMBER OF HOURS DEVOTED: 4 HOUR(S) MONTHLY  NUMBER OF HOURS DEVOTED DURING TRADING HOURS: 0  DUTIES: OWNER OCCUPIED BROWNSTONE"
    }
  },
  "DRPs": []
}