{
  "Info": {
    "lastNm": "LARRINAGA",
    "firstNm": "JERILEE",
    "midNm": null,
    "sufNm": null,
    "indvlPK": "2179171",
    "actvAGReg": 0,
    "link": "http://www.adviserinfo.sec.gov/IAPD/Individual/2179171"
  },
  "OthrNms": [
    {
      "lastNm": "LARRINAGA KENNEDY",
      "firstNm": "JERILEE",
      "midNm": null,
      "sufNm": null
    },
    {
      "lastNm": "LARRINAGA",
      "firstNm": "JERILEE",
      "midNm": null,
      "sufNm": null
    },
    {
      "lastNm": "LARRINAGA",
      "firstNm": "JERILEE",
      "midNm": null,
      "sufNm": null
    },
    {
      "lastNm": "SMITH",
      "firstNm": "JERILEE",
      "midNm": null,
      "sufNm": null
    }
  ],
  "CrntEmps": [
    {
      "CrntRgstns": [
        {
          "regAuth": 5,
          "regCat": 0,
          "st": 2,
          "stDt": "1999-01-01T00:00:00"
        },
        {
          "regAuth": 45,
          "regCat": 0,
          "st": 3,
          "stDt": "2015-02-05T00:00:00"
        }
      ],
      "BrnchOfLocs": [
        {
          "str1": "601 NORTH MAIN ST",
          "str2": "SUITE 101",
          "city": "PUEBLO",
          "state": 5,
          "stateSpecified": true,
          "cntry": "United States",
          "postlCd": "81003-4513"
        }
      ],
      "orgNm": "RBC CAPITAL MARKETS, LLC",
      "orgPK": "31194",
      "str1": "3 WORLD FINANCIAL CENTER",
      "str2": "200 VESEY ST.",
      "city": "NEW YORK",
      "state": 35,
      "stateSpecified": true,
      "cntry": "United States",
      "postlCd": "10281"
    }
  ],
  "Exms": [
    {
      "exmCd": 0,
      "exmNm": "Uniform Securities Agent State Law Examination",
      "exmDt": "1997-11-14T00:00:00",
      "exmDtSpecified": true
    },
    {
      "exmCd": 3,
      "exmNm": "Uniform Combined State Law Examination",
      "exmDt": "2007-11-06T00:00:00",
      "exmDtSpecified": true
    }
  ],
  "Dsgntns": [],
  "PrevRgstns": [],
  "EmpHss": [
    {
      "fromDt": "03/1998",
      "toDt": "03/2008",
      "orgNm": "RBC DAIN RAUSCHER INC.",
      "city": "PUEBLO",
      "state": 5,
      "stateSpecified": true
    },
    {
      "fromDt": "03/2008",
      "toDt": null,
      "orgNm": "RBC CAPITAL MARKETS CORPORATION",
      "city": "PUEBLO",
      "state": 5,
      "stateSpecified": true
    }
  ],
  "OthrBuss": {
    "OthrBus": null
  },
  "DRPs": []
}