{
  "Info": {
    "lastNm": "ANDRE",
    "firstNm": "KEITH",
    "midNm": "WESLEY",
    "sufNm": null,
    "indvlPK": "2181366",
    "actvAGReg": 0,
    "link": "http://www.adviserinfo.sec.gov/IAPD/Individual/2181366"
  },
  "OthrNms": [],
  "CrntEmps": [
    {
      "CrntRgstns": [
        {
          "regAuth": 45,
          "regCat": 0,
          "st": 2,
          "stDt": "2015-10-02T00:00:00"
        }
      ],
      "BrnchOfLocs": [
        {
          "str1": "4695 W. University Dr",
          "str2": "Ste 100",
          "city": "McKinney",
          "state": 45,
          "stateSpecified": true,
          "cntry": "United States",
          "postlCd": "75071"
        }
      ],
      "orgNm": "H.D. VEST ADVISORY SERVICES, INC",
      "orgPK": "104556",
      "str1": "6333 NORTH STATE HIGHWAY 161",
      "str2": "4TH FLOOR",
      "city": "IRVING",
      "state": 45,
      "stateSpecified": true,
      "cntry": "United States",
      "postlCd": "75038"
    }
  ],
  "Exms": [
    {
      "exmCd": 0,
      "exmNm": "Uniform Securities Agent State Law Examination",
      "exmDt": "1991-10-21T00:00:00",
      "exmDtSpecified": true
    }
  ],
  "Dsgntns": [
    {
      "dsgntnNm": "Certified Financial Planner"
    }
  ],
  "PrevRgstns": [],
  "EmpHss": [
    {
      "fromDt": "01/1998",
      "toDt": null,
      "orgNm": "ANDRE + ASSOCIATES PC",
      "city": "MCKINNEY",
      "state": 45,
      "stateSpecified": true
    },
    {
      "fromDt": "01/2002",
      "toDt": null,
      "orgNm": "CORNERSTONE JOINT VENTURE LTD",
      "city": "MCKINNEY",
      "state": 45,
      "stateSpecified": true
    },
    {
      "fromDt": "11/2002",
      "toDt": "07/2015",
      "orgNm": "SWS FINANCIAL SERVICES",
      "city": "MCKINNEY",
      "state": 45,
      "stateSpecified": true
    },
    {
      "fromDt": "07/2015",
      "toDt": null,
      "orgNm": "HD VEST INSURANCE AGENCY",
      "city": "IRVING",
      "state": 45,
      "stateSpecified": true
    },
    {
      "fromDt": "07/2015",
      "toDt": null,
      "orgNm": "HD VEST INVESTMENT SERVICES",
      "city": "MCKINNEY",
      "state": 45,
      "stateSpecified": true
    }
  ],
  "OthrBuss": {
    "OthrBus": {
      "desc": "ANDRE + ASSOCIATES PC~'NIR'~4695 W. UNIVERSITY DR~STE 100~MCKINNEY~TX~75071~ACCOUNTING~PRESIDENT~1/1998~120HRS~80HRS~ACCOUNTING, BOOKKEEPING, TAXES PREPARATION AND PAYROLL~~CORNERSTONE JOINT VENTURE LTD~'NIR'~4695 W. UNIVERSITY DR~STE 100~MCKINNEY~TX~75071~OTHER~REAL ESTATE SALES ASSOCIATE~1/2002~40HRS~0HRS~RENTAL PROPERTY OWNER~~HD VEST INSURANCE AGENCY~'NIR'~6333 NORTH STATE HWY 161~ ~IRVING~TX~75038~INSURANCE AGENT~INSURANCE SALES AGENT~7/2015~40HRS~10HRS~LIFE, LTC, DISABILITY AND ANNUITY SALES"
    }
  },
  "DRPs": []
}