{
  "Info": {
    "lastNm": "KIMMEL",
    "firstNm": "TIMOTHY",
    "midNm": "ROSS",
    "sufNm": null,
    "indvlPK": "2182004",
    "actvAGReg": 0,
    "link": "http://www.adviserinfo.sec.gov/IAPD/Individual/2182004"
  },
  "OthrNms": [],
  "CrntEmps": [
    {
      "CrntRgstns": [
        {
          "regAuth": 49,
          "regCat": 0,
          "st": 2,
          "stDt": "1995-02-10T00:00:00"
        }
      ],
      "BrnchOfLocs": [
        {
          "str1": "10801 MAIN ST STE 201",
          "str2": null,
          "city": "BELLEVUE",
          "state": 49,
          "stateSpecified": true,
          "cntry": "United States",
          "postlCd": "98004"
        }
      ],
      "orgNm": "CETERA ADVISOR NETWORKS LLC",
      "orgPK": "13572",
      "str1": "200 N. SEPULVEDA BLVD.",
      "str2": "SUITE 1300",
      "city": "EL SEGUNDO",
      "state": 4,
      "stateSpecified": true,
      "cntry": "United States",
      "postlCd": "90245-5672"
    }
  ],
  "Exms": [
    {
      "exmCd": 0,
      "exmNm": "Uniform Securities Agent State Law Examination",
      "exmDt": "1991-11-14T00:00:00",
      "exmDtSpecified": true
    },
    {
      "exmCd": 2,
      "exmNm": "Uniform Investment Adviser Law Examination",
      "exmDt": "1993-11-24T00:00:00",
      "exmDtSpecified": true
    }
  ],
  "Dsgntns": [
    {
      "dsgntnNm": "Certified Financial Planner"
    }
  ],
  "PrevRgstns": [],
  "EmpHss": [
    {
      "fromDt": "07/1993",
      "toDt": null,
      "orgNm": "PAUL R. RIED",
      "city": "BELLEVUE",
      "state": 49,
      "stateSpecified": true
    },
    {
      "fromDt": "10/1993",
      "toDt": "12/2012",
      "orgNm": "FINANCIAL NETWORK INVESTMENT CORPORATION",
      "city": "EL SEGUNDO",
      "state": 4,
      "stateSpecified": true
    },
    {
      "fromDt": "01/2013",
      "toDt": null,
      "orgNm": "CETERA ADVISOR NETWORKS LLC",
      "city": "EL SEGUNDO",
      "state": 4,
      "stateSpecified": true
    }
  ],
  "OthrBuss": {
    "OthrBus": {
      "desc": "1. FIXED INSURANCE WITH VARIOUS COMPANIES, INVESTMENT RELATED,  SAME AS REGISTERED ADDRESS,  FIXED INSURANCE,  START 2001,  <1HR/WK (TRADING HOURS),  INSURANCE AGENT - SELLS LIFE, ANNUITIES, AND LONG-TERM CARE;    2. TIMOTHY R. KIMMEL,  NOT INVESTMENT RELATED,  10520 NE 125TH PLACE, KIRKLAND, WA 98034,  RENTAL PROPERTY,  START 09/22/2010,  0HRS/WK (NON-TRADING HOURS),  OWNER;    3. PAUL R. RIED FINANCIAL GROUP, LLC,  INVESTMENT RELATED,  SAME AS REGISTERED ADDRESS,  DBA NAME FOR FINANCIAL SERVICES & INSURANCE BROKERAGE,  START 05/2003,  40HRS/WK (32.5 TRADING HOURS),  FINANCIAL ADVISOR;"
    }
  },
  "DRPs": []
}