{
  "Info": {
    "lastNm": "KREMER",
    "firstNm": "KATHRYN",
    "midNm": "F",
    "sufNm": null,
    "indvlPK": "2182301",
    "actvAGReg": 0,
    "link": "http://www.adviserinfo.sec.gov/IAPD/Individual/2182301"
  },
  "OthrNms": [],
  "CrntEmps": [
    {
      "CrntRgstns": [
        {
          "regAuth": 45,
          "regCat": 0,
          "st": 2,
          "stDt": "1992-01-14T00:00:00"
        },
        {
          "regAuth": 37,
          "regCat": 0,
          "st": 2,
          "stDt": "2012-05-15T00:00:00"
        }
      ],
      "BrnchOfLocs": [
        {
          "str1": "3200 SOUTHWEST FRWY",
          "str2": "#1800",
          "city": "HOUSTON",
          "state": 45,
          "stateSpecified": true,
          "cntry": "United States",
          "postlCd": "77027"
        }
      ],
      "orgNm": "AXA ADVISORS, LLC",
      "orgPK": "6627",
      "str1": "1290 AVENUE OF THE AMERICAS",
      "str2": null,
      "city": "NEW YORK",
      "state": 35,
      "stateSpecified": true,
      "cntry": "United States",
      "postlCd": "10104"
    }
  ],
  "Exms": [
    {
      "exmCd": 0,
      "exmNm": "Uniform Securities Agent State Law Examination",
      "exmDt": "1991-12-02T00:00:00",
      "exmDtSpecified": true
    },
    {
      "exmCd": 2,
      "exmNm": "Uniform Investment Adviser Law Examination",
      "exmDt": "1999-04-08T00:00:00",
      "exmDtSpecified": true
    }
  ],
  "Dsgntns": [],
  "PrevRgstns": [],
  "EmpHss": [
    {
      "fromDt": "09/1999",
      "toDt": null,
      "orgNm": "AXA ADVISORS, LLC",
      "city": "NEW YORK",
      "state": 35,
      "stateSpecified": true
    }
  ],
  "OthrBuss": {
    "OthrBus": {
      "desc": "VARIOUS OUTSIDE INSURANCE  BROKERAGE BUSINESS  10/1/05 LANDLORD; NORTH POST OAK LANE TOWNHOME ASSOCIATION HOUSTON TX; LEASE A TOWNHOUSE"
    }
  },
  "DRPs": [
    {
      "hasRegAction": 1,
      "hasRegActionSpecified": true,
      "hasCriminal": 1,
      "hasCriminalSpecified": true,
      "hasBankrupt": 1,
      "hasBankruptSpecified": true,
      "hasCivilJudc": 1,
      "hasCivilJudcSpecified": true,
      "hasBond": 1,
      "hasBondSpecified": true,
      "hasJudgment": 1,
      "hasJudgmentSpecified": true,
      "hasInvstgn": 1,
      "hasInvstgnSpecified": true,
      "hasCustComp": 0,
      "hasCustCompSpecified": true,
      "hasTermination": 1,
      "hasTerminationSpecified": true
    }
  ]
}