{
  "Info": {
    "lastNm": "FALK",
    "firstNm": "DAVID",
    "midNm": "FROST",
    "sufNm": null,
    "indvlPK": "2185870",
    "actvAGReg": 0,
    "link": "http://www.adviserinfo.sec.gov/IAPD/Individual/2185870"
  },
  "OthrNms": [],
  "CrntEmps": [
    {
      "CrntRgstns": [
        {
          "regAuth": 4,
          "regCat": 0,
          "st": 2,
          "stDt": "2016-05-19T00:00:00"
        }
      ],
      "BrnchOfLocs": [
        {
          "str1": "555 CALIFORNIA STREET",
          "str2": "32ND FLOOR/ SUITE 3200",
          "city": "SAN FRANCISCO",
          "state": 4,
          "stateSpecified": true,
          "cntry": "United States",
          "postlCd": "94104"
        }
      ],
      "orgNm": "UBS FINANCIAL SERVICES INC.",
      "orgPK": "8174",
      "str1": "1200 HARBOR BOULEVARD",
      "str2": null,
      "city": "WEEHAWKEN",
      "state": 32,
      "stateSpecified": true,
      "cntry": "United States",
      "postlCd": "07086"
    }
  ],
  "Exms": [
    {
      "exmCd": 0,
      "exmNm": "Uniform Securities Agent State Law Examination",
      "exmDt": "1992-01-08T00:00:00",
      "exmDtSpecified": true
    },
    {
      "exmCd": 2,
      "exmNm": "Uniform Investment Adviser Law Examination",
      "exmDt": "2003-03-27T00:00:00",
      "exmDtSpecified": true
    }
  ],
  "Dsgntns": [],
  "PrevRgstns": [
    {
      "BrnchOfLocs": [
        {
          "city": "SAN FRANCISCO",
          "state": 4,
          "stateSpecified": true
        },
        {
          "city": "SAN FRANCISCO",
          "state": 4,
          "stateSpecified": true
        }
      ],
      "orgNm": "CITIGROUP GLOBAL MARKETS INC.",
      "orgPK": "7059",
      "regBeginDt": "2005-10-27T00:00:00",
      "regBeginDtSpecified": true,
      "regEndDt": "2009-06-01T00:00:00",
      "regEndDtSpecified": true
    },
    {
      "BrnchOfLocs": [
        {
          "city": "SAN FRANCISCO",
          "state": 4,
          "stateSpecified": true
        }
      ],
      "orgNm": "MORGAN STANLEY",
      "orgPK": "149777",
      "regBeginDt": "2009-06-01T00:00:00",
      "regBeginDtSpecified": true,
      "regEndDt": "2009-11-11T00:00:00",
      "regEndDtSpecified": true
    },
    {
      "BrnchOfLocs": [
        {
          "city": "SAN FRANCISCO",
          "state": 4,
          "stateSpecified": true
        }
      ],
      "orgNm": "CREDIT SUISSE SECURITIES (USA) LLC",
      "orgPK": "816",
      "regBeginDt": "2009-10-22T00:00:00",
      "regBeginDtSpecified": true,
      "regEndDt": "2016-05-10T00:00:00",
      "regEndDtSpecified": true
    }
  ],
  "EmpHss": [
    {
      "fromDt": "05/2002",
      "toDt": "06/2009",
      "orgNm": "CITIGROUP GLOBAL MARKETS INC.",
      "city": "SAN FRANCISCO",
      "state": 4,
      "stateSpecified": true
    },
    {
      "fromDt": "06/2009",
      "toDt": "10/2009",
      "orgNm": "MORGAN STANLEY SMITH BARNEY",
      "city": "SAN FRANCISCO",
      "state": 4,
      "stateSpecified": true
    },
    {
      "fromDt": "10/2009",
      "toDt": "05/2016",
      "orgNm": "CREDIT SUISSE SECURITIES (USA) LLC",
      "city": "SAN FRANCISCO",
      "state": 4,
      "stateSpecified": true
    },
    {
      "fromDt": "06/2014",
      "toDt": "05/2016",
      "orgNm": "CREDIT SUISSE LENDING LLC",
      "city": "SAN FRANSICO",
      "state": 4,
      "stateSpecified": true
    },
    {
      "fromDt": "05/2016",
      "toDt": null,
      "orgNm": "UBS FINANCIAL SERVICES INC",
      "city": "SAN FRANCISCO",
      "state": 4,
      "stateSpecified": true
    }
  ],
  "OthrBuss": {
    "OthrBus": {
      "desc": "Dave Falk / 1982 Rainier Circle Petaluma,CA 94954 / No/  Privately Held / USD / No / No /  / Start Date 5/1/12 /"
    }
  },
  "DRPs": [
    {
      "hasRegAction": 1,
      "hasRegActionSpecified": true,
      "hasCriminal": 1,
      "hasCriminalSpecified": true,
      "hasBankrupt": 1,
      "hasBankruptSpecified": true,
      "hasCivilJudc": 1,
      "hasCivilJudcSpecified": true,
      "hasBond": 1,
      "hasBondSpecified": true,
      "hasJudgment": 1,
      "hasJudgmentSpecified": true,
      "hasInvstgn": 1,
      "hasInvstgnSpecified": true,
      "hasCustComp": 0,
      "hasCustCompSpecified": true,
      "hasTermination": 1,
      "hasTerminationSpecified": true
    }
  ]
}