{
  "Info": {
    "lastNm": "SIMS",
    "firstNm": "KEVIN",
    "midNm": "JOSEPH",
    "sufNm": null,
    "indvlPK": "2188196",
    "actvAGReg": 0,
    "link": "http://www.adviserinfo.sec.gov/IAPD/Individual/2188196"
  },
  "OthrNms": [
    {
      "lastNm": "SIMS",
      "firstNm": "KEVIN",
      "midNm": "JOE",
      "sufNm": null
    },
    {
      "lastNm": "SIMS",
      "firstNm": "KEVIN",
      "midNm": "JOE",
      "sufNm": null
    }
  ],
  "CrntEmps": [
    {
      "CrntRgstns": [
        {
          "regAuth": 23,
          "regCat": 0,
          "st": 2,
          "stDt": "2015-04-09T00:00:00"
        }
      ],
      "BrnchOfLocs": [
        {
          "str1": "4208 SIX FORKS RD",
          "str2": "SUITE 1700",
          "city": "RALEIGH",
          "state": 28,
          "stateSpecified": true,
          "cntry": "United States",
          "postlCd": "27609"
        }
      ],
      "orgNm": "CAPTRUST",
      "orgPK": "175112",
      "str1": "4208 SIX FORKS RD",
      "str2": "SUITE 1700",
      "city": "RALEIGH",
      "state": 28,
      "stateSpecified": true,
      "cntry": "United States",
      "postlCd": "27609"
    }
  ],
  "Exms": [
    {
      "exmCd": 0,
      "exmNm": "Uniform Securities Agent State Law Examination",
      "exmDt": "1993-11-16T00:00:00",
      "exmDtSpecified": true
    },
    {
      "exmCd": 2,
      "exmNm": "Uniform Investment Adviser Law Examination",
      "exmDt": "2007-05-17T00:00:00",
      "exmDtSpecified": true
    }
  ],
  "Dsgntns": [],
  "PrevRgstns": [
    {
      "BrnchOfLocs": [
        {
          "city": "BRIDGEPORT",
          "state": 23,
          "stateSpecified": true
        },
        {
          "city": "HEMLOCK",
          "state": 23,
          "stateSpecified": true
        },
        {
          "city": "SAGINAW",
          "state": 23,
          "stateSpecified": true
        }
      ],
      "orgNm": "CHASE INVESTMENT SERVICES CORP.",
      "orgPK": "25574",
      "regBeginDt": "2009-09-25T00:00:00",
      "regBeginDtSpecified": true,
      "regEndDt": "2010-08-17T00:00:00",
      "regEndDtSpecified": true
    },
    {
      "BrnchOfLocs": [
        {
          "city": "AUBURN HILLS",
          "state": 23,
          "stateSpecified": true
        }
      ],
      "orgNm": "VALIC FINANCIAL ADVISORS, INC.",
      "orgPK": "42803",
      "regBeginDt": "2010-09-02T00:00:00",
      "regBeginDtSpecified": true,
      "regEndDt": "2013-04-18T00:00:00",
      "regEndDtSpecified": true
    }
  ],
  "EmpHss": [
    {
      "fromDt": "01/2005",
      "toDt": "03/2007",
      "orgNm": "METLIFE RESOURCES",
      "city": "GRAND RAPIDS",
      "state": 23,
      "stateSpecified": true
    },
    {
      "fromDt": "03/2007",
      "toDt": "09/2009",
      "orgNm": "CITIGROUP GLOBAL MARKETS INC.",
      "city": "SAGINAW",
      "state": 23,
      "stateSpecified": true
    },
    {
      "fromDt": "06/2009",
      "toDt": "09/2009",
      "orgNm": "MORGAN STANLEY SMITH BARNEY",
      "city": "SAGINAW",
      "state": 23,
      "stateSpecified": true
    },
    {
      "fromDt": "09/2009",
      "toDt": "08/2010",
      "orgNm": "CHASE INVESTMENT SERVICES CORP.",
      "city": "SAGINAW",
      "state": 23,
      "stateSpecified": true
    },
    {
      "fromDt": "08/2010",
      "toDt": "04/2013",
      "orgNm": "VALIC FINANCIAL ADVISORS",
      "city": "AUBURN HILLS",
      "state": 23,
      "stateSpecified": true
    },
    {
      "fromDt": "05/2013",
      "toDt": null,
      "orgNm": "CAPTRUST FINANCIAL ADVISORS",
      "city": "RALEIGH",
      "state": 28,
      "stateSpecified": true
    },
    {
      "fromDt": "04/2015",
      "toDt": null,
      "orgNm": "CAPTRUST",
      "city": "RALEIGH",
      "state": 28,
      "stateSpecified": true
    }
  ],
  "OthrBuss": {
    "OthrBus": null
  },
  "DRPs": []
}