{
  "Info": {
    "lastNm": "PISCIOTTA",
    "firstNm": "JASON",
    "midNm": "MICHAEL",
    "sufNm": null,
    "indvlPK": "2191028",
    "actvAGReg": 0,
    "link": "http://www.adviserinfo.sec.gov/IAPD/Individual/2191028"
  },
  "OthrNms": [],
  "CrntEmps": [
    {
      "CrntRgstns": [
        {
          "regAuth": 20,
          "regCat": 0,
          "st": 2,
          "stDt": "2012-01-06T00:00:00"
        },
        {
          "regAuth": 31,
          "regCat": 0,
          "st": 2,
          "stDt": "2012-01-24T00:00:00"
        },
        {
          "regAuth": 22,
          "regCat": 0,
          "st": 2,
          "stDt": "2012-03-26T00:00:00"
        }
      ],
      "BrnchOfLocs": [
        {
          "str1": "121 BOSTON POST ROAD",
          "str2": null,
          "city": "SUDBURY",
          "state": 20,
          "stateSpecified": true,
          "cntry": "United States",
          "postlCd": "01776"
        },
        {
          "str1": "801 CAMBRIDGE STREET",
          "str2": null,
          "city": "CAMBRIDGE",
          "state": 20,
          "stateSpecified": true,
          "cntry": "United States",
          "postlCd": "02141"
        }
      ],
      "orgNm": "DAVINCI CAPITAL MANAGEMENT INC.",
      "orgPK": "46897",
      "str1": "801 CAMBRIDGE STREET",
      "str2": null,
      "city": "CAMBRIDGE",
      "state": 20,
      "stateSpecified": true,
      "cntry": "United States",
      "postlCd": "02141"
    }
  ],
  "Exms": [
    {
      "exmCd": 0,
      "exmNm": "Uniform Securities Agent State Law Examination",
      "exmDt": "1992-01-17T00:00:00",
      "exmDtSpecified": true
    },
    {
      "exmCd": 2,
      "exmNm": "Uniform Investment Adviser Law Examination",
      "exmDt": "2003-04-01T00:00:00",
      "exmDtSpecified": true
    }
  ],
  "Dsgntns": [],
  "PrevRgstns": [
    {
      "BrnchOfLocs": [
        {
          "city": "BRIGHTON",
          "state": 20,
          "stateSpecified": true
        }
      ],
      "orgNm": "QUICK & REILLY, INC.",
      "orgPK": "11217",
      "regBeginDt": "2003-04-14T00:00:00",
      "regBeginDtSpecified": true,
      "regEndDt": "2004-10-20T00:00:00",
      "regEndDtSpecified": true
    },
    {
      "BrnchOfLocs": [
        {
          "city": "WAYLAND",
          "state": 20,
          "stateSpecified": true
        }
      ],
      "orgNm": "BANC OF AMERICA INVESTMENT SERVICES, INC.",
      "orgPK": "16361",
      "regBeginDt": "2004-10-20T00:00:00",
      "regBeginDtSpecified": true,
      "regEndDt": "2005-09-13T00:00:00",
      "regEndDtSpecified": true
    },
    {
      "BrnchOfLocs": [
        {
          "city": "QUINCY",
          "state": 20,
          "stateSpecified": true
        }
      ],
      "orgNm": "FIRST ALLIED SECURITIES, INC.",
      "orgPK": "32444",
      "regBeginDt": "2008-03-26T00:00:00",
      "regBeginDtSpecified": true,
      "regEndDt": "2012-01-04T00:00:00",
      "regEndDtSpecified": true
    }
  ],
  "EmpHss": [
    {
      "fromDt": "09/2005",
      "toDt": "02/2008",
      "orgNm": "MASSMUTUAL",
      "city": "QUINCY",
      "state": 20,
      "stateSpecified": true
    },
    {
      "fromDt": "09/2005",
      "toDt": "02/2008",
      "orgNm": "MML INVESTORS SERVICES, INC.",
      "city": "QUINCY",
      "state": 20,
      "stateSpecified": true
    },
    {
      "fromDt": "02/2008",
      "toDt": "01/2012",
      "orgNm": "FIRST ALLIED SECURITIES, INC.",
      "city": "SAN DIEGO",
      "state": 4,
      "stateSpecified": true
    },
    {
      "fromDt": "01/2012",
      "toDt": null,
      "orgNm": "DAVINCI CAPITAL MANAGEMENT INC.",
      "city": "SUDBURY",
      "state": 20,
      "stateSpecified": true
    }
  ],
  "OthrBuss": {
    "OthrBus": {
      "desc": "1.)  FINANCIAL PARTNERS,INC. SUDBURY, MA; INVESTMENT RELATED; MANAGING DIRECTOR; INSURANCE SALES (FIXED/LIFE/HEALTH/P&C); START DATE 11/01/2011; 20 HRS/WEEK."
    }
  },
  "DRPs": []
}