{
  "Info": {
    "lastNm": "STROTHER",
    "firstNm": "JOHN",
    "midNm": "DAVID",
    "sufNm": null,
    "indvlPK": "2201472",
    "actvAGReg": 0,
    "link": "http://www.adviserinfo.sec.gov/IAPD/Individual/2201472"
  },
  "OthrNms": [
    {
      "lastNm": "STROTHER",
      "firstNm": "DAVID",
      "midNm": null,
      "sufNm": null
    },
    {
      "lastNm": "STROTHER",
      "firstNm": "J",
      "midNm": "DAVID",
      "sufNm": null
    }
  ],
  "CrntEmps": [
    {
      "CrntRgstns": [
        {
          "regAuth": 19,
          "regCat": 0,
          "st": 2,
          "stDt": "2002-10-07T00:00:00"
        }
      ],
      "BrnchOfLocs": [
        {
          "str1": "2000 KALISTE SALOOM ROAD",
          "str2": "SUITE 300",
          "city": "LAFAYETTE",
          "state": 19,
          "stateSpecified": true,
          "cntry": "United States",
          "postlCd": "70508"
        }
      ],
      "orgNm": "1ST GLOBAL ADVISORS INC",
      "orgPK": "111133",
      "str1": "12750 MERIT DRIVE",
      "str2": "SUITE 1200",
      "city": "DALLAS",
      "state": 45,
      "stateSpecified": true,
      "cntry": "United States",
      "postlCd": "75251"
    }
  ],
  "Exms": [
    {
      "exmCd": 0,
      "exmNm": "Uniform Securities Agent State Law Examination",
      "exmDt": "1992-01-16T00:00:00",
      "exmDtSpecified": true
    },
    {
      "exmCd": 3,
      "exmNm": "Uniform Combined State Law Examination",
      "exmDt": "2001-04-27T00:00:00",
      "exmDtSpecified": true
    }
  ],
  "Dsgntns": [
    {
      "dsgntnNm": "Certified Financial Planner"
    }
  ],
  "PrevRgstns": [
    {
      "BrnchOfLocs": [
        {
          "city": "LAFAYETTE",
          "state": 19,
          "stateSpecified": true
        }
      ],
      "orgNm": "WEALTH CARE GROUP ASSET MANAGEMENT, LLC",
      "orgPK": "124464",
      "regBeginDt": "2005-03-31T00:00:00",
      "regBeginDtSpecified": true,
      "regEndDt": "2006-12-06T00:00:00",
      "regEndDtSpecified": true
    }
  ],
  "EmpHss": [
    {
      "fromDt": "01/2001",
      "toDt": null,
      "orgNm": "1ST GLOBAL CAPITAL CORP ",
      "city": "LAFAYETTE",
      "state": 19,
      "stateSpecified": true
    },
    {
      "fromDt": "10/2002",
      "toDt": null,
      "orgNm": "1ST GLOBAL ADVISORS, INC.",
      "city": "LAFAYETTE",
      "state": 19,
      "stateSpecified": true
    },
    {
      "fromDt": "01/2004",
      "toDt": "12/2006",
      "orgNm": "WEALTH CARE GROUP ASSET MANAGEMENT, LLC",
      "city": "LAFAYETTE",
      "state": 19,
      "stateSpecified": true
    },
    {
      "fromDt": "01/2005",
      "toDt": null,
      "orgNm": "1ST GLOBAL INSURANCE SERVICES, INC",
      "city": "LAFAYETTE",
      "state": 19,
      "stateSpecified": true
    }
  ],
  "OthrBuss": {
    "OthrBus": {
      "desc": "1)DARNALL SIKES GARDES & FREDERICK REAL ESTATE LLC; LAFAYETTE, LA; NOT INVESTMENT RELATED; MEMBER; 9% OWNER; 7/2007; LESS THAN 1 HOUR/MONTH; NO HOURS DURING TRADING; OWNERSHIP IN BUILDING  2)DSF WEALTH MANAGEMENT LLC; LAFAYETTE, LA; INVESTMENT RELATED; DIRECTOR OF FINANCIAL SERVICES; 9% OWNER; 6/06; 200 HOURS/MONTH; FULL TIME DURING TRADING; FINANCIAL SERVICES ENTITY  3)LOUISIANA CAPITAL CERIFIED DEVELOPMENT CO.; LAFAYETTE, LA; NOT INVESTMENT RELATED; CHAIRMAN; 1987; 1-2 HOURS/MONTH; NO HOURS DURING TRADING; NON-PROFIT ECONOMIC DEVELOPMENT GROUP  4)STROTHER AND ASSOCIATES, INC.;LAFAYETTE, LA; NOT INVESTMENT RELATED;IT WAS RECOMMENDED BY MY TAX AND LEGAL ADVISOR TO HOLD SOME OF MY INVESTMENTS IN, THAT WERE NOT MORE APPROPRIATELY HELD PERSONALLY;100% OWNERSHIP; PRESIDENT AND OWNER; 1/1/1990; HRS/MO-N/A; TRADING HRS- N/A;I OWN AND CONTROL ALL ASPECTS OF THE ENTITY. EXAMPLE MY OWNERSHIP IN DSF WEALTH MANAGEMENT IS THROUGH STROTHER AND ASSOCIATES. MY OWNERSHIP IN OUR BUILDING HERE WHERE DSF RESIDES IS THROUGH STROTHER AND ASSOCIATES  5) FIXED INSURANCE SALES; INVESTMENT RELATED; LAFAYETTE, LA; I WANT TO OFFER TO SELECT / QUALIFIED CLIENTS FIXED INDEXED ANNUITIES AS A PART OF FINANCIAL PLANNING FOR THE MENTIONED COMPANIES; POSITION - N/A; 2/9/2015; MINIMIAL - 4 HRS/MO; MINIMAL - 1 TRADING HR/WEEK; WORK WITH 1ST GLOBAL AND CORE GROUP USA TO HELP IN THE SELECTING OF INDEXED FIXED ANNUITIES WHEN APPROPRIATE TO SELECTED CLIENTS"
    }
  },
  "DRPs": []
}