{
  "Info": {
    "lastNm": "MURPHY",
    "firstNm": "WILLIAM",
    "midNm": "JOSEPH",
    "sufNm": null,
    "indvlPK": "2202808",
    "actvAGReg": 0,
    "link": "http://www.adviserinfo.sec.gov/IAPD/Individual/2202808"
  },
  "OthrNms": [
    {
      "lastNm": "MURPHY",
      "firstNm": "BILL",
      "midNm": null,
      "sufNm": null
    },
    {
      "lastNm": "MURPHY",
      "firstNm": "WILLIAM",
      "midNm": "J",
      "sufNm": null
    }
  ],
  "CrntEmps": [
    {
      "CrntRgstns": [
        {
          "regAuth": 32,
          "regCat": 0,
          "st": 2,
          "stDt": "2012-05-07T00:00:00"
        }
      ],
      "BrnchOfLocs": [
        {
          "str1": "COLTS NECK",
          "str2": "330 ROUTE 34",
          "city": "COLTS NECK",
          "state": 32,
          "stateSpecified": true,
          "cntry": "United States",
          "postlCd": "07722"
        },
        {
          "str1": "MILLSTONE",
          "str2": "591 HIGHWAY 33 & MILLSTONE ROAD",
          "city": "MILLSTONE TWP.",
          "state": 32,
          "stateSpecified": true,
          "cntry": "United States",
          "postlCd": "08535"
        },
        {
          "str1": "MONROE( HUB)",
          "str2": "304 APPLEGARTH ROAD",
          "city": "MONROE",
          "state": 32,
          "stateSpecified": true,
          "cntry": "United States",
          "postlCd": "08831"
        },
        {
          "str1": "TWIN RIVERS",
          "str2": "620  ROUTE  33 EAST",
          "city": "HIGHTSTOWN",
          "state": 32,
          "stateSpecified": true,
          "cntry": "United States",
          "postlCd": "08520"
        }
      ],
      "orgNm": "PNC INVESTMENTS",
      "orgPK": "129052",
      "str1": "300 FIFTH AVENUE",
      "str2": "26TH FLOOR",
      "city": "PITTSBURGH",
      "state": 39,
      "stateSpecified": true,
      "cntry": "United States",
      "postlCd": "15222-2722"
    }
  ],
  "Exms": [
    {
      "exmCd": 0,
      "exmNm": "Uniform Securities Agent State Law Examination",
      "exmDt": "1992-01-29T00:00:00",
      "exmDtSpecified": true
    },
    {
      "exmCd": 3,
      "exmNm": "Uniform Combined State Law Examination",
      "exmDt": "2012-04-30T00:00:00",
      "exmDtSpecified": true
    }
  ],
  "Dsgntns": [],
  "PrevRgstns": [],
  "EmpHss": [
    {
      "fromDt": "12/2003",
      "toDt": "12/2008",
      "orgNm": "GUNNALLEN FINANCIAL, INC.",
      "city": "TAMPA",
      "state": 9,
      "stateSpecified": true
    },
    {
      "fromDt": "12/2008",
      "toDt": "03/2012",
      "orgNm": "VIEWTRADE SECURITIES, INC.",
      "city": "BOCA RATON",
      "state": 9,
      "stateSpecified": true
    },
    {
      "fromDt": "03/2012",
      "toDt": null,
      "orgNm": "PNC INVESTMENTS",
      "city": "RED BANK",
      "state": 32,
      "stateSpecified": true
    }
  ],
  "OthrBuss": {
    "OthrBus": {
      "desc": "CRUMP LIFE INSURANCE, 4135 NORTH FRONT STREET, HARRISBURG, PA 17110.  LIFE, LONG TERM CARE AND DISABILITY INSURANCE SALES AND MARKETING AGENT.  NUMBER OF HOURS PER MONTH WILL VARY. SALES OF  VARIABLE AND TRADITIONAL LIFE INSURANCE, LONG-TERM CARE AND DISABILITY INSURANCE  TO PNC INVESTMENTS' CUSTOMERS. THERE IS AN AGREEMENT BETWEEN CRUMP AND PNC INSURANCE SERVICES, LLC."
    }
  },
  "DRPs": [
    {
      "hasRegAction": 1,
      "hasRegActionSpecified": true,
      "hasCriminal": 1,
      "hasCriminalSpecified": true,
      "hasBankrupt": 1,
      "hasBankruptSpecified": true,
      "hasCivilJudc": 1,
      "hasCivilJudcSpecified": true,
      "hasBond": 1,
      "hasBondSpecified": true,
      "hasJudgment": 1,
      "hasJudgmentSpecified": true,
      "hasInvstgn": 1,
      "hasInvstgnSpecified": true,
      "hasCustComp": 0,
      "hasCustCompSpecified": true,
      "hasTermination": 1,
      "hasTerminationSpecified": true
    }
  ]
}