{
  "Info": {
    "lastNm": "PETERSON",
    "firstNm": "RYAN",
    "midNm": "GARY",
    "sufNm": null,
    "indvlPK": "2206897",
    "actvAGReg": 1,
    "link": "http://www.adviserinfo.sec.gov/IAPD/Individual/2206897"
  },
  "OthrNms": [],
  "CrntEmps": [
    {
      "CrntRgstns": [
        {
          "regAuth": 28,
          "regCat": 0,
          "st": 2,
          "stDt": "2004-03-24T00:00:00"
        }
      ],
      "BrnchOfLocs": [
        {
          "str1": "5904 SIX FORKS ROAD",
          "str2": "SUITE 201",
          "city": "RALEIGH",
          "state": 28,
          "stateSpecified": true,
          "cntry": "United States",
          "postlCd": "27609"
        }
      ],
      "orgNm": "COPPERLEAF CAPITAL, LLC",
      "orgPK": "117823",
      "str1": "5904 SIX FORKS ROAD",
      "str2": "SUITE 201",
      "city": "RALEIGH",
      "state": 28,
      "stateSpecified": true,
      "cntry": "United States",
      "postlCd": "27609"
    }
  ],
  "Exms": [
    {
      "exmCd": 2,
      "exmNm": "Uniform Investment Adviser Law Examination",
      "exmDt": "1998-04-27T00:00:00",
      "exmDtSpecified": true
    },
    {
      "exmCd": 0,
      "exmNm": "Uniform Securities Agent State Law Examination",
      "exmDt": "2006-11-25T00:00:00",
      "exmDtSpecified": true
    }
  ],
  "Dsgntns": [
    {
      "dsgntnNm": "Certified Financial Planner"
    },
    {
      "dsgntnNm": "Chartered Financial Consultant"
    }
  ],
  "PrevRgstns": [
    {
      "BrnchOfLocs": [
        {
          "city": "LAFAYETTE",
          "state": 4,
          "stateSpecified": true
        }
      ],
      "orgNm": "MSI FINANCIAL SERVICES, INC.",
      "orgPK": "14251",
      "regBeginDt": "2001-11-20T00:00:00",
      "regBeginDtSpecified": true,
      "regEndDt": "2004-01-23T00:00:00",
      "regEndDtSpecified": true
    }
  ],
  "EmpHss": [
    {
      "fromDt": "01/2004",
      "toDt": null,
      "orgNm": "WISDOM & WEALTH SOLUTIONS, INC.",
      "city": "RALEIGH",
      "state": 28,
      "stateSpecified": true
    },
    {
      "fromDt": "11/2006",
      "toDt": "12/2010",
      "orgNm": "FIRST ALLIED SECURITIES,INC",
      "city": "SAN DIEGO",
      "state": 4,
      "stateSpecified": true
    }
  ],
  "OthrBuss": {
    "OthrBus": null
  },
  "DRPs": [
    {
      "hasRegAction": 1,
      "hasRegActionSpecified": true,
      "hasCriminal": 0,
      "hasCriminalSpecified": true,
      "hasBankrupt": 1,
      "hasBankruptSpecified": true,
      "hasCivilJudc": 1,
      "hasCivilJudcSpecified": true,
      "hasBond": 1,
      "hasBondSpecified": true,
      "hasJudgment": 1,
      "hasJudgmentSpecified": true,
      "hasInvstgn": 1,
      "hasInvstgnSpecified": true,
      "hasCustComp": 1,
      "hasCustCompSpecified": true,
      "hasTermination": 1,
      "hasTerminationSpecified": true
    }
  ]
}