{
  "Info": {
    "lastNm": "IGLEHART",
    "firstNm": "ROBERT",
    "midNm": "LOUIS",
    "sufNm": null,
    "indvlPK": "2212056",
    "actvAGReg": 0,
    "link": "http://www.adviserinfo.sec.gov/IAPD/Individual/2212056"
  },
  "OthrNms": [
    {
      "lastNm": "IGLEHART",
      "firstNm": "ROBERT",
      "midNm": "LOUIS",
      "sufNm": null
    },
    {
      "lastNm": "INGLEHART",
      "firstNm": "ROBERT",
      "midNm": "LOUIS",
      "sufNm": null
    },
    {
      "lastNm": "INGLEHART",
      "firstNm": "ROBERT",
      "midNm": "LOUIS",
      "sufNm": null
    }
  ],
  "CrntEmps": [
    {
      "CrntRgstns": [
        {
          "regAuth": 4,
          "regCat": 0,
          "st": 2,
          "stDt": "2011-08-26T00:00:00"
        }
      ],
      "BrnchOfLocs": [
        {
          "str1": "74-199 EL PASEO DRIVE",
          "str2": "SUITE 102",
          "city": "PALM DESERT",
          "state": 4,
          "stateSpecified": true,
          "cntry": "United States",
          "postlCd": "92260-4148"
        }
      ],
      "orgNm": "RBC CAPITAL MARKETS, LLC",
      "orgPK": "31194",
      "str1": "3 WORLD FINANCIAL CENTER",
      "str2": "200 VESEY ST.",
      "city": "NEW YORK",
      "state": 35,
      "stateSpecified": true,
      "cntry": "United States",
      "postlCd": "10281"
    }
  ],
  "Exms": [
    {
      "exmCd": 0,
      "exmNm": "Uniform Securities Agent State Law Examination",
      "exmDt": "1992-02-14T00:00:00",
      "exmDtSpecified": true
    },
    {
      "exmCd": 2,
      "exmNm": "Uniform Investment Adviser Law Examination",
      "exmDt": "1998-02-20T00:00:00",
      "exmDtSpecified": true
    }
  ],
  "Dsgntns": [],
  "PrevRgstns": [
    {
      "BrnchOfLocs": [
        {
          "city": "COVINA",
          "state": 4,
          "stateSpecified": true
        }
      ],
      "orgNm": "WELLS FARGO INVESTMENTS, LLC",
      "orgPK": "10582",
      "regBeginDt": "2001-05-15T00:00:00",
      "regBeginDtSpecified": true,
      "regEndDt": "2002-06-27T00:00:00",
      "regEndDtSpecified": true
    },
    {
      "BrnchOfLocs": [
        {
          "city": "PALM DESERT",
          "state": 4,
          "stateSpecified": true
        },
        {
          "city": "PALM SPRINGS",
          "state": 4,
          "stateSpecified": true
        },
        {
          "city": "PALM SPRINGS",
          "state": 4,
          "stateSpecified": true
        },
        {
          "city": "RIVERSIDE",
          "state": 4,
          "stateSpecified": true
        },
        {
          "city": "RIVERSIDE",
          "state": 4,
          "stateSpecified": true
        }
      ],
      "orgNm": "BANC OF AMERICA INVESTMENT SERVICES, INC.",
      "orgPK": "16361",
      "regBeginDt": "2003-01-27T00:00:00",
      "regBeginDtSpecified": true,
      "regEndDt": "2009-10-23T00:00:00",
      "regEndDtSpecified": true
    },
    {
      "BrnchOfLocs": [
        {
          "city": "PALM DESERT",
          "state": 4,
          "stateSpecified": true
        },
        {
          "city": "PALM SPRINGS",
          "state": 4,
          "stateSpecified": true
        },
        {
          "city": "PALM SPRINGS",
          "state": 4,
          "stateSpecified": true
        },
        {
          "city": "RANCHO MIRAGE",
          "state": 4,
          "stateSpecified": true
        },
        {
          "city": "RIVERSIDE",
          "state": 4,
          "stateSpecified": true
        },
        {
          "city": "RIVERSIDE",
          "state": 4,
          "stateSpecified": true
        }
      ],
      "orgNm": "MERRILL LYNCH, PIERCE, FENNER & SMITH INCORPORATED",
      "orgPK": "7691",
      "regBeginDt": "2009-10-23T00:00:00",
      "regBeginDtSpecified": true,
      "regEndDt": "2011-08-29T00:00:00",
      "regEndDtSpecified": true
    }
  ],
  "EmpHss": [
    {
      "fromDt": "06/2002",
      "toDt": "10/2009",
      "orgNm": "BANC OF AMERICA INSURANCE SERVICES, INC.",
      "city": "PALM DESERT",
      "state": 4,
      "stateSpecified": true
    },
    {
      "fromDt": "06/2002",
      "toDt": "10/2009",
      "orgNm": "BANC OF AMERICA INVESTMENT SERVICES, INC.",
      "city": "PALM DESERT",
      "state": 4,
      "stateSpecified": true
    },
    {
      "fromDt": "10/2009",
      "toDt": "08/2011",
      "orgNm": "MERRILL LYNCH, PIERCE, FENNER & SMITH INCORPORATED",
      "city": "PALM SPRINGS",
      "state": 4,
      "stateSpecified": true
    },
    {
      "fromDt": "08/2011",
      "toDt": null,
      "orgNm": "RBC CAPITAL MARKETS, LLC",
      "city": "PALM DESERT",
      "state": 4,
      "stateSpecified": true
    }
  ],
  "OthrBuss": {
    "OthrBus": {
      "desc": "BIG BROTHER BIG SISTER OF THE DESERT; 42-600 COOK STREET, SUITE 110 PALM DESERT, CA 92211; NON-PROFIT; START DATE:8/1/14; PROJECTED END DATE: 8/1/18; BOARD OF DIRECTORS;FUNDRAISING, ORGANIZING GOLF TOURNAMENT;HOURS PER MONTH:2 ; HOURS DURING TRADING HOURS:0   Name of Entity: Restoring Wings in the Desert  Address of Business: 73480 Encelia Place Palm Desert, CA 92260   Business Descriptions: Non Profit  Is investment-related: No  Projected Start Date: 10/01/15  Projected End Date: None  Capacity: Officer  Duties Performed: fund raising and events.   8 hours devoted to this OBA per month  0 hours devoted during security trading hours per month"
    }
  },
  "DRPs": [
    {
      "hasRegAction": 1,
      "hasRegActionSpecified": true,
      "hasCriminal": 1,
      "hasCriminalSpecified": true,
      "hasBankrupt": 0,
      "hasBankruptSpecified": true,
      "hasCivilJudc": 1,
      "hasCivilJudcSpecified": true,
      "hasBond": 1,
      "hasBondSpecified": true,
      "hasJudgment": 1,
      "hasJudgmentSpecified": true,
      "hasInvstgn": 1,
      "hasInvstgnSpecified": true,
      "hasCustComp": 0,
      "hasCustCompSpecified": true,
      "hasTermination": 1,
      "hasTerminationSpecified": true
    }
  ]
}