{
  "Info": {
    "lastNm": "STEIDLE",
    "firstNm": "KEITH",
    "midNm": "JOSEPH",
    "sufNm": null,
    "indvlPK": "2212700",
    "actvAGReg": 0,
    "link": "http://www.adviserinfo.sec.gov/IAPD/Individual/2212700"
  },
  "OthrNms": [],
  "CrntEmps": [
    {
      "CrntRgstns": [
        {
          "regAuth": 32,
          "regCat": 0,
          "st": 3,
          "stDt": "2007-09-17T00:00:00"
        },
        {
          "regAuth": 39,
          "regCat": 0,
          "st": 2,
          "stDt": "2007-10-15T00:00:00"
        },
        {
          "regAuth": 6,
          "regCat": 0,
          "st": 2,
          "stDt": "2011-08-12T00:00:00"
        },
        {
          "regAuth": 45,
          "regCat": 0,
          "st": 3,
          "stDt": "2014-11-21T00:00:00"
        },
        {
          "regAuth": 17,
          "regCat": 0,
          "st": 2,
          "stDt": "2015-02-20T00:00:00"
        },
        {
          "regAuth": 4,
          "regCat": 0,
          "st": 2,
          "stDt": "2015-03-13T00:00:00"
        },
        {
          "regAuth": 41,
          "regCat": 0,
          "st": 2,
          "stDt": "2016-05-18T00:00:00"
        }
      ],
      "BrnchOfLocs": [
        {
          "str1": "115 WEST CENTURY ROAD",
          "str2": "SUITE 360",
          "city": "PARAMUS",
          "state": 32,
          "stateSpecified": true,
          "cntry": "United States",
          "postlCd": "07652"
        },
        {
          "str1": "128 MAIN ST",
          "str2": null,
          "city": "LEBANON",
          "state": 32,
          "stateSpecified": true,
          "cntry": "United States",
          "postlCd": "08833"
        }
      ],
      "orgNm": "NPA ASSET MANAGEMENT, LLC",
      "orgPK": "131534",
      "str1": "115 WEST CENTURY ROAD",
      "str2": "SUITE 360",
      "city": "PARAMUS",
      "state": 32,
      "stateSpecified": true,
      "cntry": "United States",
      "postlCd": "07652"
    }
  ],
  "Exms": [
    {
      "exmCd": 0,
      "exmNm": "Uniform Securities Agent State Law Examination",
      "exmDt": "1992-03-16T00:00:00",
      "exmDtSpecified": true
    },
    {
      "exmCd": 2,
      "exmNm": "Uniform Investment Adviser Law Examination",
      "exmDt": "2006-01-09T00:00:00",
      "exmDtSpecified": true
    }
  ],
  "Dsgntns": [],
  "PrevRgstns": [
    {
      "BrnchOfLocs": [
        {
          "city": "SPRINGFIELD",
          "state": 32,
          "stateSpecified": true
        }
      ],
      "orgNm": "NATIONAL PLANNING CORPORATION",
      "orgPK": "29604",
      "regBeginDt": "2003-10-15T00:00:00",
      "regBeginDtSpecified": true,
      "regEndDt": "2004-03-29T00:00:00",
      "regEndDtSpecified": true
    },
    {
      "BrnchOfLocs": [
        {
          "city": "SPRINGFIELD",
          "state": 32,
          "stateSpecified": true
        }
      ],
      "orgNm": "OBSIDIAN FINANCIAL GROUP, LLC",
      "orgPK": "104255",
      "regBeginDt": "2004-04-07T00:00:00",
      "regBeginDtSpecified": true,
      "regEndDt": "2007-09-12T00:00:00",
      "regEndDtSpecified": true
    }
  ],
  "EmpHss": [
    {
      "fromDt": "06/1994",
      "toDt": null,
      "orgNm": "THE STEIDLE FINANCIAL GROUP, LLC",
      "city": "LEBANON",
      "state": 32,
      "stateSpecified": true
    },
    {
      "fromDt": "08/2007",
      "toDt": null,
      "orgNm": "NATIONWIDE PLANNING ASSOCIATES",
      "city": "PARAMUS",
      "state": 32,
      "stateSpecified": true
    }
  ],
  "OthrBuss": {
    "OthrBus": {
      "desc": "STEIDLE PENSION SOLUTIONS, INVESTMENT-RELATED, 128 MAIN STREET, LEBANON, NJ 08833, INSTALLATION & ADMINISTRATION SERVICES FOR 401K, DB AND PROFIT SHARING PLANS, OWNER/MANAGING MEMBER, 20 HOURS/MONTH, 15 HOURS/MONTH DURING TRADING HOURS.    STEIDLE BROKERAGE SERVICES, LLC, NON INVESTMENT-RELATED, 128 MAIN STREET, LEBANON, NJ 08833, SALE OF NON-VARIABLE INDIVIDUAL & GROUP LIFE, DISABILITY, LTC AND HEALTH INSURANCE, OWNER/MANAGING MEMBER LLC, 20 HOURS/MONTH, 15 HOURS/MONTH DURING TRADING HOURS. DUALLY REGISTERED WITH NPA ASSET MANAGEMENT (RIA) AND NATIONWIDE PLANNING ASSOCIATES INC. (AFFILIATED B/D), 115 WEST CENTURY RD, SUITE 360, PARAMUS, NJ 07652, INVESTMENT RELATED, START DATE: 4/17/2006. LEBANON PROPERTIES, LLC, NON-INVESTMENT RELATED, 128 MAIN ST LEBANON NJ 08833, OWN COMMERCIAL OFFICE BUILDING, MANAGING MEMBER & OWNER, START DATE: 9/1/08, 5 HOURS/MONTH NOT DURING BUSINESS HOURS, DUTIES: MANAGE BUILDING."
    }
  },
  "DRPs": [
    {
      "hasRegAction": 1,
      "hasRegActionSpecified": true,
      "hasCriminal": 1,
      "hasCriminalSpecified": true,
      "hasBankrupt": 1,
      "hasBankruptSpecified": true,
      "hasCivilJudc": 1,
      "hasCivilJudcSpecified": true,
      "hasBond": 1,
      "hasBondSpecified": true,
      "hasJudgment": 1,
      "hasJudgmentSpecified": true,
      "hasInvstgn": 1,
      "hasInvstgnSpecified": true,
      "hasCustComp": 0,
      "hasCustCompSpecified": true,
      "hasTermination": 0,
      "hasTerminationSpecified": true
    }
  ]
}