{
  "Info": {
    "lastNm": "PLON",
    "firstNm": "WILLIAM",
    "midNm": "FRANK",
    "sufNm": null,
    "indvlPK": "2214892",
    "actvAGReg": 0,
    "link": "http://www.adviserinfo.sec.gov/IAPD/Individual/2214892"
  },
  "OthrNms": [],
  "CrntEmps": [
    {
      "CrntRgstns": [
        {
          "regAuth": 5,
          "regCat": 0,
          "st": 2,
          "stDt": "2016-06-16T00:00:00"
        }
      ],
      "BrnchOfLocs": [
        {
          "str1": null,
          "str2": null,
          "city": "Boulder",
          "state": 5,
          "stateSpecified": true,
          "cntry": "United States",
          "postlCd": null
        }
      ],
      "orgNm": "H.D. VEST ADVISORY SERVICES, INC",
      "orgPK": "104556",
      "str1": "6333 NORTH STATE HIGHWAY 161",
      "str2": "4TH FLOOR",
      "city": "IRVING",
      "state": 45,
      "stateSpecified": true,
      "cntry": "United States",
      "postlCd": "75038"
    }
  ],
  "Exms": [
    {
      "exmCd": 0,
      "exmNm": "Uniform Securities Agent State Law Examination",
      "exmDt": "1992-03-13T00:00:00",
      "exmDtSpecified": true
    },
    {
      "exmCd": 3,
      "exmNm": "Uniform Combined State Law Examination",
      "exmDt": "2010-01-29T00:00:00",
      "exmDtSpecified": true
    }
  ],
  "Dsgntns": [],
  "PrevRgstns": [
    {
      "BrnchOfLocs": [
        {
          "city": "BEDMINSTER",
          "state": 32,
          "stateSpecified": true
        },
        {
          "city": "BRIDGEWATER",
          "state": 32,
          "stateSpecified": true
        }
      ],
      "orgNm": "IC ADVISORY SERVICES, INC.",
      "orgPK": "140190",
      "regBeginDt": "2010-02-01T00:00:00",
      "regBeginDtSpecified": true,
      "regEndDt": "2011-02-28T00:00:00",
      "regEndDtSpecified": true
    }
  ],
  "EmpHss": [
    {
      "fromDt": "02/2004",
      "toDt": "03/2007",
      "orgNm": "MEAD WESTVACO CORP.",
      "city": "STAMFORD",
      "state": 6,
      "stateSpecified": true
    },
    {
      "fromDt": "03/2007",
      "toDt": "09/2007",
      "orgNm": "SIBLING ENTERTAINMENT GRP.",
      "city": "NEW YORK",
      "state": 35,
      "stateSpecified": true
    },
    {
      "fromDt": "09/2007",
      "toDt": "09/2008",
      "orgNm": "PATRIACH PARTNERS",
      "city": "NEW YORK",
      "state": 35,
      "stateSpecified": true
    },
    {
      "fromDt": "09/2008",
      "toDt": "04/2009",
      "orgNm": "TRANSITIONING",
      "city": "UPPER BLACK EDDY",
      "state": 39,
      "stateSpecified": true
    },
    {
      "fromDt": "04/2009",
      "toDt": null,
      "orgNm": "TAMMANY ENTERPRISE CO.",
      "city": "UPPER BLACK EDDY",
      "state": 39,
      "stateSpecified": true
    },
    {
      "fromDt": "11/2009",
      "toDt": "03/2011",
      "orgNm": "THE INVESTMENT CENTER, INC.",
      "city": "BRIDGEWATER",
      "state": 32,
      "stateSpecified": true
    },
    {
      "fromDt": "02/2010",
      "toDt": "03/2011",
      "orgNm": "IC ADVISORY SERVICES INC.",
      "city": "BRIDGEWATER",
      "state": 32,
      "stateSpecified": true
    },
    {
      "fromDt": "02/2010",
      "toDt": null,
      "orgNm": "WILLIAM PLON",
      "city": "UPPER BLACK EDDY",
      "state": 39,
      "stateSpecified": true
    },
    {
      "fromDt": "03/2011",
      "toDt": null,
      "orgNm": "H.D. VEST ADVISORY SERVICES",
      "city": "UPPER BLACK EDDY",
      "state": 39,
      "stateSpecified": true
    },
    {
      "fromDt": "03/2011",
      "toDt": null,
      "orgNm": "H.D. VEST INVESTMENT SERVICES",
      "city": "UPPER BLACK EDDY",
      "state": 39,
      "stateSpecified": true
    },
    {
      "fromDt": "03/2011",
      "toDt": null,
      "orgNm": "HD VEST INSURANCE SERVICES",
      "city": "UPPER BLACK EDDY",
      "state": 39,
      "stateSpecified": true
    },
    {
      "fromDt": "10/2013",
      "toDt": "10/2015",
      "orgNm": "VERIZON",
      "city": "BASKING RIDGE",
      "state": 32,
      "stateSpecified": true
    },
    {
      "fromDt": "11/2015",
      "toDt": null,
      "orgNm": "Crocs",
      "city": "Niwot",
      "state": 5,
      "stateSpecified": true
    }
  ],
  "OthrBuss": {
    "OthrBus": {
      "desc": "Crocs~'NIR'~East Dry Creek Pkw~ ~Niwot~CO~80544~Accounting~Other~11/2015~75hrs~75hrs~Treasury~~H.D Vest Insurance Services~'NIR'~64 Tammany Rd.~ ~Upper Black Eddy~PA~18972~Independent Insurance Agent~Insurance Sales Agent~3/2011~20hrs~20hrs~Provide insurance services to clients through H.D. Vest~~Tammany Enterprises Co.~'NIR'~64 Tammany Rd.~~Upper Black Eddy~PA~18972~Business/Management Consulting~Owner/Sole Proprieter~4/2009~10hrs~10hrs~Consult with businesses related to accounting, marketing, and advertising~~William Plon~'NIR'~64 Tammany Rd.~ ~Upper Black Eddy~PA~18972~Tax Preparation/Accounting~Owner/Sole Proprieter~2/2010~200hrs~130hrs~Provide tax preparation services"
    }
  },
  "DRPs": []
}