{
  "Info": {
    "lastNm": "FOLEY",
    "firstNm": "THOMAS",
    "midNm": "FRANCIS",
    "sufNm": "JR",
    "indvlPK": "2214817",
    "actvAGReg": 0,
    "link": "http://www.adviserinfo.sec.gov/IAPD/Individual/2214817"
  },
  "OthrNms": [],
  "CrntEmps": [
    {
      "CrntRgstns": [
        {
          "regAuth": 32,
          "regCat": 0,
          "st": 2,
          "stDt": "2002-09-17T00:00:00"
        },
        {
          "regAuth": 39,
          "regCat": 0,
          "st": 2,
          "stDt": "2013-11-08T00:00:00"
        }
      ],
      "BrnchOfLocs": [
        {
          "str1": "333 THORNALL STREET",
          "str2": null,
          "city": "EDISON",
          "state": 32,
          "stateSpecified": true,
          "cntry": "United States",
          "postlCd": "08837"
        }
      ],
      "orgNm": "AXA ADVISORS, LLC",
      "orgPK": "6627",
      "str1": "1290 AVENUE OF THE AMERICAS",
      "str2": null,
      "city": "NEW YORK",
      "state": 35,
      "stateSpecified": true,
      "cntry": "United States",
      "postlCd": "10104"
    }
  ],
  "Exms": [
    {
      "exmCd": 0,
      "exmNm": "Uniform Securities Agent State Law Examination",
      "exmDt": "1992-03-12T00:00:00",
      "exmDtSpecified": true
    },
    {
      "exmCd": 2,
      "exmNm": "Uniform Investment Adviser Law Examination",
      "exmDt": "1999-08-12T00:00:00",
      "exmDtSpecified": true
    }
  ],
  "Dsgntns": [],
  "PrevRgstns": [],
  "EmpHss": [
    {
      "fromDt": "09/1999",
      "toDt": null,
      "orgNm": "AXA ADVISORS, LLC",
      "city": "NEW YORK",
      "state": 35,
      "stateSpecified": true
    }
  ],
  "OthrBuss": {
    "OthrBus": {
      "desc": "OBA-  GOVERNMENTAL  U.S. NAVAL RESERVE-  CAPTAIN, UNITED STATES NAVY,  UNIT COMMANDING OFFICER.  APPROX 35 HOURS PER MONTH"
    }
  },
  "DRPs": []
}