{
  "Info": {
    "lastNm": "EADY",
    "firstNm": "LISA",
    "midNm": "K",
    "sufNm": null,
    "indvlPK": "2216156",
    "actvAGReg": 0,
    "link": "http://www.adviserinfo.sec.gov/IAPD/Individual/2216156"
  },
  "OthrNms": [],
  "CrntEmps": [
    {
      "CrntRgstns": [
        {
          "regAuth": 45,
          "regCat": 0,
          "st": 2,
          "stDt": "1992-04-02T00:00:00"
        }
      ],
      "BrnchOfLocs": [
        {
          "str1": "502 S KOENINGHEIM",
          "str2": "SUITE 3A",
          "city": "SAN ANGELO",
          "state": 45,
          "stateSpecified": true,
          "cntry": "United States",
          "postlCd": "76903"
        }
      ],
      "orgNm": "INVESTMENT CENTERS OF AMERICA, INC.",
      "orgPK": "16443",
      "str1": "5555 W GRANDE MARKET DRIVE",
      "str2": null,
      "city": "APPLETON",
      "state": 50,
      "stateSpecified": true,
      "cntry": "United States",
      "postlCd": "54913-8403"
    }
  ],
  "Exms": [
    {
      "exmCd": 0,
      "exmNm": "Uniform Securities Agent State Law Examination",
      "exmDt": "1992-03-24T00:00:00",
      "exmDtSpecified": true
    }
  ],
  "Dsgntns": [
    {
      "dsgntnNm": "Certified Financial Planner"
    }
  ],
  "PrevRgstns": [],
  "EmpHss": [
    {
      "fromDt": "02/1992",
      "toDt": null,
      "orgNm": "INVESTMENT CENTERS OF AMERICA, INC.",
      "city": "SAN ANGELO",
      "state": 45,
      "stateSpecified": true
    }
  ],
  "OthrBuss": {
    "OthrBus": {
      "desc": "1) UNITED WAY - DIRECTOR.  2) SOUTHLAND BAPTIST CHURCH - FINANCE CHAIR.   3) COURT APPOINTED SPECIAL ADVOCATES -  FUNDRAISING COMMITTEE   4) UNIDAD PARK - TREASURER."
    }
  },
  "DRPs": []
}