{
  "Info": {
    "lastNm": "DIXON",
    "firstNm": "REUBEN",
    "midNm": null,
    "sufNm": null,
    "indvlPK": "2218813",
    "actvAGReg": 0,
    "link": "http://www.adviserinfo.sec.gov/IAPD/Individual/2218813"
  },
  "OthrNms": [
    {
      "lastNm": "DIXON",
      "firstNm": "R",
      "midNm": "T",
      "sufNm": null
    },
    {
      "lastNm": "DIXON",
      "firstNm": "REUBEN",
      "midNm": null,
      "sufNm": null
    },
    {
      "lastNm": "DIXON",
      "firstNm": "REUBEN",
      "midNm": "TROWBRIDGE",
      "sufNm": null
    }
  ],
  "CrntEmps": [
    {
      "CrntRgstns": [
        {
          "regAuth": 45,
          "regCat": 0,
          "st": 2,
          "stDt": "2007-07-05T00:00:00"
        }
      ],
      "BrnchOfLocs": [
        {
          "str1": "525 NOLANA AVENUE",
          "str2": null,
          "city": "MCALLEN",
          "state": 45,
          "stateSpecified": true,
          "cntry": "United States",
          "postlCd": "78504-3029"
        }
      ],
      "orgNm": "EDWARD JONES",
      "orgPK": "250",
      "str1": "12555 MANCHESTER RD",
      "str2": null,
      "city": "ST. LOUIS",
      "state": 25,
      "stateSpecified": true,
      "cntry": "United States",
      "postlCd": "63131"
    }
  ],
  "Exms": [
    {
      "exmCd": 0,
      "exmNm": "Uniform Securities Agent State Law Examination",
      "exmDt": "1992-03-26T00:00:00",
      "exmDtSpecified": true
    },
    {
      "exmCd": 3,
      "exmNm": "Uniform Combined State Law Examination",
      "exmDt": "2007-07-02T00:00:00",
      "exmDtSpecified": true
    }
  ],
  "Dsgntns": [],
  "PrevRgstns": [],
  "EmpHss": [
    {
      "fromDt": "12/1991",
      "toDt": null,
      "orgNm": "EDWARD D. JONES & CO., L.P.",
      "city": "MCALLEN",
      "state": 45,
      "stateSpecified": true
    }
  ],
  "OthrBuss": {
    "OthrBus": null
  },
  "DRPs": [
    {
      "hasRegAction": 1,
      "hasRegActionSpecified": true,
      "hasCriminal": 1,
      "hasCriminalSpecified": true,
      "hasBankrupt": 1,
      "hasBankruptSpecified": true,
      "hasCivilJudc": 1,
      "hasCivilJudcSpecified": true,
      "hasBond": 1,
      "hasBondSpecified": true,
      "hasJudgment": 1,
      "hasJudgmentSpecified": true,
      "hasInvstgn": 1,
      "hasInvstgnSpecified": true,
      "hasCustComp": 0,
      "hasCustCompSpecified": true,
      "hasTermination": 1,
      "hasTerminationSpecified": true
    }
  ]
}