{
  "Info": {
    "lastNm": "BAKAYSA",
    "firstNm": "BRIAN",
    "midNm": "PAUL",
    "sufNm": null,
    "indvlPK": "2229118",
    "actvAGReg": 0,
    "link": "http://www.adviserinfo.sec.gov/IAPD/Individual/2229118"
  },
  "OthrNms": [
    {
      "lastNm": "BAKAYSA",
      "firstNm": "BRIAN",
      "midNm": "P",
      "sufNm": null
    }
  ],
  "CrntEmps": [
    {
      "CrntRgstns": [
        {
          "regAuth": 16,
          "regCat": 0,
          "st": 2,
          "stDt": "2002-08-16T00:00:00"
        }
      ],
      "BrnchOfLocs": [
        {
          "str1": "8332 WOODFIELD CROSSING BLVD",
          "str2": null,
          "city": "INDIANAPOLIS",
          "state": 16,
          "stateSpecified": true,
          "cntry": "United States",
          "postlCd": "46240-2482"
        }
      ],
      "orgNm": "CHARLES SCHWAB & CO., INC.",
      "orgPK": "5393",
      "str1": "211 MAIN STREET",
      "str2": null,
      "city": "SAN FRANCISCO",
      "state": 4,
      "stateSpecified": true,
      "cntry": "United States",
      "postlCd": "94105"
    }
  ],
  "Exms": [
    {
      "exmCd": 0,
      "exmNm": "Uniform Securities Agent State Law Examination",
      "exmDt": "1993-03-19T00:00:00",
      "exmDtSpecified": true
    },
    {
      "exmCd": 3,
      "exmNm": "Uniform Combined State Law Examination",
      "exmDt": "2002-08-02T00:00:00",
      "exmDtSpecified": true
    }
  ],
  "Dsgntns": [],
  "PrevRgstns": [],
  "EmpHss": [
    {
      "fromDt": "06/2002",
      "toDt": null,
      "orgNm": "CHARLES SCHWAB & CO., INC.",
      "city": "INDIANAPOLIS",
      "state": 16,
      "stateSpecified": true
    },
    {
      "fromDt": "02/2005",
      "toDt": "10/2008",
      "orgNm": "CHARLES SCHWAB BANK",
      "city": "FISHERS (INDIANAPOLIS)",
      "state": 16,
      "stateSpecified": true
    },
    {
      "fromDt": "09/2014",
      "toDt": "09/2014",
      "orgNm": "CHARLES SCHWAB BANK",
      "city": "INDIANAPOLIS",
      "state": 16,
      "stateSpecified": true
    }
  ],
  "OthrBuss": {
    "OthrBus": null
  },
  "DRPs": []
}