{
  "Info": {
    "lastNm": "ZUBOW",
    "firstNm": "EDWARD",
    "midNm": "ALLEN",
    "sufNm": null,
    "indvlPK": "2233925",
    "actvAGReg": 0,
    "link": "http://www.adviserinfo.sec.gov/IAPD/Individual/2233925"
  },
  "OthrNms": [],
  "CrntEmps": [
    {
      "CrntRgstns": [
        {
          "regAuth": 3,
          "regCat": 0,
          "st": 2,
          "stDt": "2006-08-23T00:00:00"
        }
      ],
      "BrnchOfLocs": [
        {
          "str1": "1000 WILSHIRE BLVD",
          "str2": "STE 900",
          "city": "LOS ANGELES",
          "state": 4,
          "stateSpecified": true,
          "cntry": "United States",
          "postlCd": "90017"
        },
        {
          "str1": "7975 N. HAYDEN RD",
          "str2": "STE D-241",
          "city": "SCOTTSDALE",
          "state": 3,
          "stateSpecified": true,
          "cntry": "United States",
          "postlCd": "85258"
        }
      ],
      "orgNm": "WEDBUSH SECURITIES INC.",
      "orgPK": "877",
      "str1": "ATTN: BUSINESS CONDUCT",
      "str2": "1000 WILSHIRE BLVD. SUITE 900",
      "city": "LOS ANGELES",
      "state": 4,
      "stateSpecified": true,
      "cntry": "United States",
      "postlCd": "90017"
    }
  ],
  "Exms": [
    {
      "exmCd": 0,
      "exmNm": "Uniform Securities Agent State Law Examination",
      "exmDt": "1992-05-26T00:00:00",
      "exmDtSpecified": true
    },
    {
      "exmCd": 2,
      "exmNm": "Uniform Investment Adviser Law Examination",
      "exmDt": "2006-08-07T00:00:00",
      "exmDtSpecified": true
    }
  ],
  "Dsgntns": [],
  "PrevRgstns": [],
  "EmpHss": [
    {
      "fromDt": "02/2004",
      "toDt": null,
      "orgNm": "WEDBUSH MORGAN SECURITIES",
      "city": "SCOTTSDALE",
      "state": 3,
      "stateSpecified": true
    }
  ],
  "OthrBuss": {
    "OthrBus": {
      "desc": "SHALLOW WATER MUSIC LLC, 2012 E RUBY LANE PHOENIX, AZ. 85024, MUSICIAN-TRUMPET PLAYER, PARTNER, TIME SPENT IS 5%. DUTIES, PLAYING THE TRUMPET."
    }
  },
  "DRPs": []
}