{
  "Info": {
    "lastNm": "HADDAWAY",
    "firstNm": "MICHAEL",
    "midNm": "SHANNON",
    "sufNm": null,
    "indvlPK": "2242912",
    "actvAGReg": 0,
    "link": "http://www.adviserinfo.sec.gov/IAPD/Individual/2242912"
  },
  "OthrNms": [
    {
      "lastNm": "HADDAWAY",
      "firstNm": "M.",
      "midNm": "SHANNON",
      "sufNm": null
    }
  ],
  "CrntEmps": [
    {
      "CrntRgstns": [
        {
          "regAuth": 36,
          "regCat": 0,
          "st": 2,
          "stDt": "2016-01-26T00:00:00"
        }
      ],
      "BrnchOfLocs": [
        {
          "str1": "44 S. Kitner Parkway",
          "str2": "Suite D",
          "city": "Sunbury",
          "state": 36,
          "stateSpecified": true,
          "cntry": "United States",
          "postlCd": "43074"
        }
      ],
      "orgNm": "REGIS ASSET MANAGEMENT LLC",
      "orgPK": "125872",
      "str1": null,
      "str2": null,
      "city": "WESTERVILLE",
      "state": 36,
      "stateSpecified": true,
      "cntry": "United States",
      "postlCd": null
    }
  ],
  "Exms": [
    {
      "exmCd": 0,
      "exmNm": "Uniform Securities Agent State Law Examination",
      "exmDt": "2004-08-04T00:00:00",
      "exmDtSpecified": true
    }
  ],
  "Dsgntns": [
    {
      "dsgntnNm": "Chartered Financial Consultant"
    }
  ],
  "PrevRgstns": [
    {
      "BrnchOfLocs": [
        {
          "city": "SUNBURY",
          "state": 36,
          "stateSpecified": true
        }
      ],
      "orgNm": "CINCINNATI ANALYSTS, INC.",
      "orgPK": "5478",
      "regBeginDt": "2002-09-27T00:00:00",
      "regBeginDtSpecified": true,
      "regEndDt": "2003-06-20T00:00:00",
      "regEndDtSpecified": true
    },
    {
      "BrnchOfLocs": [
        {
          "city": "SUNBURY",
          "state": 36,
          "stateSpecified": true
        }
      ],
      "orgNm": "REGIS ASSET MANAGEMENT LLC",
      "orgPK": "125872",
      "regBeginDt": "2003-07-07T00:00:00",
      "regBeginDtSpecified": true,
      "regEndDt": "2015-12-31T00:00:00",
      "regEndDtSpecified": true
    }
  ],
  "EmpHss": [
    {
      "fromDt": "06/2003",
      "toDt": "08/2008",
      "orgNm": "REGIS SECURITIES CORPORATION",
      "city": "WESTERVILLE",
      "state": 36,
      "stateSpecified": true
    },
    {
      "fromDt": "06/2003",
      "toDt": null,
      "orgNm": "Regis Asset Management, LLC",
      "city": "Westerville",
      "state": 36,
      "stateSpecified": true
    },
    {
      "fromDt": "07/2008",
      "toDt": null,
      "orgNm": "CAPITAL CITY SECURITIES, LLC",
      "city": "COLUMBUS",
      "state": 36,
      "stateSpecified": true
    }
  ],
  "OthrBuss": {
    "OthrBus": {
      "desc": "SOLE PROPRIETOR OF HADDAWAY FINANCIAL SERVICES GROUP AND LTC INSURANCE ALLIANCE SELLING TRADITIONAL LIFE, LTC, DI, HEALTH INSURANCE. Investment Adviser Representative for Regis Asset Management, LLC, hours concurrent with daily activity   44 SOUTH KINTNER PKWY., SUNBURY, OH LIFE INSURANCE SALES, 40% OF NORMAL WORK WEEK.  REGIS ASSET MANAGEMENT, WESTERVILLE, OH.  MANAGES EQUITY ACCOUNTS, DELIVERS ADVICE AND FINANCIAL PLANNING.  15% OF WORK WEEK.  Hondros College, Westerville OH. Adjunct Teaching Instructor. Non investment related. Not during trading hours."
    }
  },
  "DRPs": []
}