{
  "Info": {
    "lastNm": "WEIGAND",
    "firstNm": "GREGORY",
    "midNm": "JAMES",
    "sufNm": null,
    "indvlPK": "2245415",
    "actvAGReg": 0,
    "link": "http://www.adviserinfo.sec.gov/IAPD/Individual/2245415"
  },
  "OthrNms": [],
  "CrntEmps": [
    {
      "CrntRgstns": [
        {
          "regAuth": 4,
          "regCat": 0,
          "st": 2,
          "stDt": "2009-03-27T00:00:00"
        },
        {
          "regAuth": 45,
          "regCat": 0,
          "st": 3,
          "stDt": "2009-04-30T00:00:00"
        }
      ],
      "BrnchOfLocs": [
        {
          "str1": "7790 N ORACLE RD STE 180",
          "str2": null,
          "city": "TUCSON",
          "state": 3,
          "stateSpecified": true,
          "cntry": "United States",
          "postlCd": "85704"
        }
      ],
      "orgNm": "LPL FINANCIAL LLC",
      "orgPK": "6413",
      "str1": "75 STATE STREET, 22ND FLOOR",
      "str2": null,
      "city": "BOSTON",
      "state": 20,
      "stateSpecified": true,
      "cntry": "United States",
      "postlCd": "02109"
    }
  ],
  "Exms": [
    {
      "exmCd": 0,
      "exmNm": "Uniform Securities Agent State Law Examination",
      "exmDt": "1992-08-14T00:00:00",
      "exmDtSpecified": true
    },
    {
      "exmCd": 3,
      "exmNm": "Uniform Combined State Law Examination",
      "exmDt": "2006-11-14T00:00:00",
      "exmDtSpecified": true
    }
  ],
  "Dsgntns": [],
  "PrevRgstns": [
    {
      "BrnchOfLocs": [
        {
          "city": "TUCSON",
          "state": 3,
          "stateSpecified": true
        },
        {
          "city": "TUCSON",
          "state": 3,
          "stateSpecified": true
        }
      ],
      "orgNm": "A. G. EDWARDS & SONS, INC.",
      "orgPK": "4",
      "regBeginDt": "2006-11-15T00:00:00",
      "regBeginDtSpecified": true,
      "regEndDt": "2006-12-20T00:00:00",
      "regEndDtSpecified": true
    },
    {
      "BrnchOfLocs": [
        {
          "city": "ORO VALLEY",
          "state": 3,
          "stateSpecified": true
        },
        {
          "city": "TUCSON",
          "state": 3,
          "stateSpecified": true
        },
        {
          "city": "TUCSON",
          "state": 3,
          "stateSpecified": true
        }
      ],
      "orgNm": "BANC OF AMERICA INVESTMENT SERVICES, INC.",
      "orgPK": "16361",
      "regBeginDt": "2007-01-04T00:00:00",
      "regBeginDtSpecified": true,
      "regEndDt": "2009-03-27T00:00:00",
      "regEndDtSpecified": true
    }
  ],
  "EmpHss": [
    {
      "fromDt": "05/1992",
      "toDt": "12/2006",
      "orgNm": "A. G. EDWARDS & SONS, INC.",
      "city": "TUCSON",
      "state": 3,
      "stateSpecified": true
    },
    {
      "fromDt": "12/2006",
      "toDt": "03/2009",
      "orgNm": "BANC OF AMERICA INSURANCE SERVICES, INC.",
      "city": "TUCSON",
      "state": 3,
      "stateSpecified": true
    },
    {
      "fromDt": "12/2006",
      "toDt": "03/2009",
      "orgNm": "BANC OF AMERICA INVESTMENT SERVICES, INC.",
      "city": "TUCSON",
      "state": 3,
      "stateSpecified": true
    },
    {
      "fromDt": "03/2009",
      "toDt": null,
      "orgNm": "LPL FINANCIAL LLC",
      "city": "TUCSON",
      "state": 3,
      "stateSpecified": true
    }
  ],
  "OthrBuss": {
    "OthrBus": {
      "desc": "1. 03/26/2009: Weigand Financial Group - Investment Related - At Reported Business Location(s) - DBA for LPL Business (entity for LPL business).     2. 2/25/2016: No Business Name - Not Investment Related - Other-Author - Started 02/19/2016 - 20 Hours Per Month/0 Hours During Securities Trading."
    }
  },
  "DRPs": [
    {
      "hasRegAction": 1,
      "hasRegActionSpecified": true,
      "hasCriminal": 1,
      "hasCriminalSpecified": true,
      "hasBankrupt": 1,
      "hasBankruptSpecified": true,
      "hasCivilJudc": 1,
      "hasCivilJudcSpecified": true,
      "hasBond": 1,
      "hasBondSpecified": true,
      "hasJudgment": 1,
      "hasJudgmentSpecified": true,
      "hasInvstgn": 1,
      "hasInvstgnSpecified": true,
      "hasCustComp": 0,
      "hasCustCompSpecified": true,
      "hasTermination": 1,
      "hasTerminationSpecified": true
    }
  ]
}