{
  "Info": {
    "lastNm": "DISHMAN",
    "firstNm": "WILLIAM",
    "midNm": "JAMES",
    "sufNm": null,
    "indvlPK": "2249134",
    "actvAGReg": 0,
    "link": "http://www.adviserinfo.sec.gov/IAPD/Individual/2249134"
  },
  "OthrNms": [
    {
      "lastNm": "DISHMAN",
      "firstNm": "JIM",
      "midNm": null,
      "sufNm": null
    }
  ],
  "CrntEmps": [
    {
      "CrntRgstns": [
        {
          "regAuth": 46,
          "regCat": 0,
          "st": 2,
          "stDt": "2009-01-02T00:00:00"
        },
        {
          "regAuth": 33,
          "regCat": 0,
          "st": 2,
          "stDt": "2012-09-14T00:00:00"
        },
        {
          "regAuth": 45,
          "regCat": 0,
          "st": 2,
          "stDt": "2013-10-11T00:00:00"
        }
      ],
      "BrnchOfLocs": [
        {
          "str1": "2795 E. COTTONWOOD PKWY",
          "str2": "STE. 600",
          "city": "SALT LAKE CITY",
          "state": 46,
          "stateSpecified": true,
          "cntry": "United States",
          "postlCd": "84121"
        }
      ],
      "orgNm": "RAYMOND JAMES FINANCIAL SERVICES ADVISORS, INC",
      "orgPK": "149018",
      "str1": "880 CARILLON PARKWAY",
      "str2": null,
      "city": "SAINT PETERSBURG",
      "state": 9,
      "stateSpecified": true,
      "cntry": "United States",
      "postlCd": "33716"
    }
  ],
  "Exms": [
    {
      "exmCd": 0,
      "exmNm": "Uniform Securities Agent State Law Examination",
      "exmDt": "1992-07-01T00:00:00",
      "exmDtSpecified": true
    },
    {
      "exmCd": 2,
      "exmNm": "Uniform Investment Adviser Law Examination",
      "exmDt": "1994-11-15T00:00:00",
      "exmDtSpecified": true
    }
  ],
  "Dsgntns": [
    {
      "dsgntnNm": "Certified Financial Planner"
    },
    {
      "dsgntnNm": "Chartered Financial Consultant"
    }
  ],
  "PrevRgstns": [
    {
      "BrnchOfLocs": [
        {
          "city": "SALT LAKE CITY",
          "state": 46,
          "stateSpecified": true
        }
      ],
      "orgNm": "MERRILL LYNCH, PIERCE, FENNER & SMITH INCORPORATED",
      "orgPK": "7691",
      "regBeginDt": "2000-01-21T00:00:00",
      "regBeginDtSpecified": true,
      "regEndDt": "2005-05-31T00:00:00",
      "regEndDtSpecified": true
    }
  ],
  "EmpHss": [
    {
      "fromDt": "05/2005",
      "toDt": null,
      "orgNm": "RAYMOND JAMES FINANCIAL SERVICES",
      "city": "SALT LAKE CITY",
      "state": 46,
      "stateSpecified": true
    },
    {
      "fromDt": "01/2009",
      "toDt": null,
      "orgNm": "RAYMOND JAMES FINANCIAL SERVICES ADVISORS, INC",
      "city": "SALT LAKE CITY",
      "state": 46,
      "stateSpecified": true
    },
    {
      "fromDt": "02/2009",
      "toDt": "10/2010",
      "orgNm": "JORDAN, UT SCHOOL DISTRICT",
      "city": "SALT LAKE CITY",
      "state": 46,
      "stateSpecified": true
    },
    {
      "fromDt": "02/2010",
      "toDt": null,
      "orgNm": "DISHMAN & PETERSEN, INC.",
      "city": "SALT LAKE CITY",
      "state": 46,
      "stateSpecified": true
    },
    {
      "fromDt": "07/2011",
      "toDt": null,
      "orgNm": "INSURANCE-NON VARIABLE",
      "city": "SALT LAKE CITY",
      "state": 46,
      "stateSpecified": true
    },
    {
      "fromDt": "12/2011",
      "toDt": null,
      "orgNm": "DPD ADVISORS,INC.",
      "city": "SALT LAKE CITY",
      "state": 46,
      "stateSpecified": true
    }
  ],
  "OthrBuss": {
    "OthrBus": {
      "desc": "1.DISHMAN & PETERSEN, INC.:INVESTMENT RELATED:2/2010-PRESENT:SALT LAKE CITY, UT:PRESIDENT/DIRECTOR:SUPPORT CO.:1/4 HRS/WK:1/4 HRS DURING TRADING:S-CORP. FOR RAYMOND JAMES BUSINESS.   2. INSURANCE-NON VARIABLE - SALT LAKE CITY, UT. INSURANCE SALES - LIFE, ANNUITY, DIABILITY TRAIL COMMISSIONS - STARTED 7/1/2011 TO PRESENT. 0.4 HOURS WEEKLY, 0.4 DURING TRADING HOURS.  4. DPD ADVISORS, INC. - SALT LAKE CITY, UT. CO-OWNER OF IAD COMPANY. STARTED 12/2/2011 TO PRESENT. 0 HOURS WEEKLY, 0 DURING TRADING HOURS. NOT INVESTMENT RELATED."
    }
  },
  "DRPs": []
}