{
  "Info": {
    "lastNm": "WATKINS",
    "firstNm": "MARTIN",
    "midNm": "ARTHUR",
    "sufNm": null,
    "indvlPK": "2251777",
    "actvAGReg": 1,
    "link": "http://www.adviserinfo.sec.gov/IAPD/Individual/2251777"
  },
  "OthrNms": [
    {
      "lastNm": "WATKINS",
      "firstNm": "ARTHUR",
      "midNm": null,
      "sufNm": null
    },
    {
      "lastNm": "WATKINS",
      "firstNm": "MARTIN",
      "midNm": "A",
      "sufNm": null
    },
    {
      "lastNm": "WATKINS",
      "firstNm": "MARTY",
      "midNm": null,
      "sufNm": null
    }
  ],
  "CrntEmps": [
    {
      "CrntRgstns": [
        {
          "regAuth": 46,
          "regCat": 0,
          "st": 2,
          "stDt": "2006-12-11T00:00:00"
        },
        {
          "regAuth": 14,
          "regCat": 0,
          "st": 2,
          "stDt": "2009-02-03T00:00:00"
        }
      ],
      "BrnchOfLocs": [
        {
          "str1": "1935 VINE STREET, SUITE 120",
          "str2": null,
          "city": "SALT LAKE CITY",
          "state": 46,
          "stateSpecified": true,
          "cntry": "United States",
          "postlCd": "84121"
        }
      ],
      "orgNm": "TRUENORTH WEALTH",
      "orgPK": "142205",
      "str1": "1935 VINE STREET, SUITE 120",
      "str2": null,
      "city": "SALT LAKE CITY",
      "state": 46,
      "stateSpecified": true,
      "cntry": "United States",
      "postlCd": "84121"
    }
  ],
  "Exms": [
    {
      "exmCd": 0,
      "exmNm": "Uniform Securities Agent State Law Examination",
      "exmDt": "1992-07-09T00:00:00",
      "exmDtSpecified": true
    },
    {
      "exmCd": 2,
      "exmNm": "Uniform Investment Adviser Law Examination",
      "exmDt": "1995-02-24T00:00:00",
      "exmDtSpecified": true
    }
  ],
  "Dsgntns": [
    {
      "dsgntnNm": "Certified Financial Planner"
    }
  ],
  "PrevRgstns": [
    {
      "BrnchOfLocs": [
        {
          "city": "SALT LAKE CITY",
          "state": 46,
          "stateSpecified": true
        }
      ],
      "orgNm": "UMA FINANCIAL SERVICES INC",
      "orgPK": "106043",
      "regBeginDt": "2001-11-05T00:00:00",
      "regBeginDtSpecified": true,
      "regEndDt": "2006-10-20T00:00:00",
      "regEndDtSpecified": true
    }
  ],
  "EmpHss": [
    {
      "fromDt": "09/1993",
      "toDt": "10/2006",
      "orgNm": "UMA FINANCIAL AND INSURANCE SERVICES",
      "city": "SALT LAKE CITY",
      "state": 46,
      "stateSpecified": true
    },
    {
      "fromDt": "10/2006",
      "toDt": null,
      "orgNm": "ASSOCIATION FINANCIAL SERVICES INC",
      "city": "SOUTH JORDAN",
      "state": 46,
      "stateSpecified": true
    }
  ],
  "OthrBuss": {
    "OthrBus": null
  },
  "DRPs": []
}