{
  "Info": {
    "lastNm": "HATREL",
    "firstNm": "BRYON",
    "midNm": "JOHN",
    "sufNm": null,
    "indvlPK": "2254535",
    "actvAGReg": 0,
    "link": "http://www.adviserinfo.sec.gov/IAPD/Individual/2254535"
  },
  "OthrNms": [
    {
      "lastNm": "HATREL",
      "firstNm": "BRYON",
      "midNm": null,
      "sufNm": null
    }
  ],
  "CrntEmps": [
    {
      "CrntRgstns": [
        {
          "regAuth": 19,
          "regCat": 0,
          "st": 2,
          "stDt": "2006-10-03T00:00:00"
        },
        {
          "regAuth": 45,
          "regCat": 0,
          "st": 2,
          "stDt": "2014-08-19T00:00:00"
        }
      ],
      "BrnchOfLocs": [
        {
          "str1": "3547 N HULLEN ST SUITE K",
          "str2": null,
          "city": "METAIRIE",
          "state": 19,
          "stateSpecified": true,
          "cntry": "United States",
          "postlCd": "70002-3416"
        }
      ],
      "orgNm": "EDWARD JONES",
      "orgPK": "250",
      "str1": "12555 MANCHESTER RD",
      "str2": null,
      "city": "ST. LOUIS",
      "state": 25,
      "stateSpecified": true,
      "cntry": "United States",
      "postlCd": "63131"
    }
  ],
  "Exms": [
    {
      "exmCd": 0,
      "exmNm": "Uniform Securities Agent State Law Examination",
      "exmDt": "1992-07-31T00:00:00",
      "exmDtSpecified": true
    }
  ],
  "Dsgntns": [
    {
      "dsgntnNm": "Certified Financial Planner"
    }
  ],
  "PrevRgstns": [],
  "EmpHss": [
    {
      "fromDt": "05/1992",
      "toDt": null,
      "orgNm": "EDWARD D. JONES & CO., L.P.",
      "city": "METAIRI",
      "state": 19,
      "stateSpecified": true
    }
  ],
  "OthrBuss": {
    "OthrBus": {
      "desc": "\"rental house  Chattanooga, OK  Start date: 8/1/2014  owner  Hours per week: 0  Hours during trading: 0  I am responsible for maintaining the property.    \"Russo/Hatrel LLC  General Partner  River Ridge, LA  Start date: 11/30/2010  LPT  Hours per week: 0  Hours during trading: 0"
    }
  },
  "DRPs": []
}