{
  "Info": {
    "lastNm": "MCCARTY-WOODS",
    "firstNm": "MICHELE",
    "midNm": "MARIE",
    "sufNm": null,
    "indvlPK": "2261080",
    "actvAGReg": 0,
    "link": "http://www.adviserinfo.sec.gov/IAPD/Individual/2261080"
  },
  "OthrNms": [
    {
      "lastNm": "MCCARTY",
      "firstNm": "MICHELE",
      "midNm": "MARIE",
      "sufNm": null
    },
    {
      "lastNm": "MCCARTY-WOODS",
      "firstNm": "MICHELLE",
      "midNm": "MARIE",
      "sufNm": null
    }
  ],
  "CrntEmps": [
    {
      "CrntRgstns": [
        {
          "regAuth": 13,
          "regCat": 0,
          "st": 2,
          "stDt": "2014-09-09T00:00:00"
        }
      ],
      "BrnchOfLocs": [
        {
          "str1": "102 SOUTH EAST 13TH STREET",
          "str2": null,
          "city": "PANORA",
          "state": 13,
          "stateSpecified": true,
          "cntry": "United States",
          "postlCd": "50216"
        },
        {
          "str1": "5370 CHIMRA RD",
          "str2": "PO BOX 636",
          "city": "PANORA",
          "state": 13,
          "stateSpecified": true,
          "cntry": "United States",
          "postlCd": "50216"
        }
      ],
      "orgNm": "BROKERS INTERNATIONAL FINANCIAL SERVICES, LLC.",
      "orgPK": "139627",
      "str1": "102 SE 13TH STREET",
      "str2": null,
      "city": "PANORA",
      "state": 13,
      "stateSpecified": true,
      "cntry": "United States",
      "postlCd": "50216"
    }
  ],
  "Exms": [
    {
      "exmCd": 0,
      "exmNm": "Uniform Securities Agent State Law Examination",
      "exmDt": "2007-12-17T00:00:00",
      "exmDtSpecified": true
    },
    {
      "exmCd": 2,
      "exmNm": "Uniform Investment Adviser Law Examination",
      "exmDt": "2014-09-08T00:00:00",
      "exmDtSpecified": true
    }
  ],
  "Dsgntns": [],
  "PrevRgstns": [],
  "EmpHss": [
    {
      "fromDt": "01/2000",
      "toDt": null,
      "orgNm": "RETIREMENT RESOURCES, INC",
      "city": "PANORA",
      "state": 13,
      "stateSpecified": true
    },
    {
      "fromDt": "07/2007",
      "toDt": "02/2011",
      "orgNm": "BROKERS INTERNATIONAL FINANCIAL SERVICES",
      "city": "PANORA",
      "state": 13,
      "stateSpecified": true
    },
    {
      "fromDt": "03/2011",
      "toDt": null,
      "orgNm": "BROKERS INTERNATIONAL FINANCIAL SERVICES LLC",
      "city": "PANORA",
      "state": 13,
      "stateSpecified": true
    }
  ],
  "OthrBuss": {
    "OthrBus": {
      "desc": "INDEPENDENT INSURANCE AGENT;YES;5370 CHIMRA ROAD, PANORA, IOWA 50216;FIXED INSURANCE SALES;INDEPENDENT INSURANCE AGENT;1/2008;157;157;SALES OF FIXED INSURANCE PRODUCTS  2.RETIREMENT RESOURCES USA, INC.;YES;5370 CHIMRA ROAD PANORA, IOWA 50216;DBA;OWNER;1/2000;160;160;DBA FOR INSURANCE AND SECURITIES SALES 3. MCCARTY LAND COMPANY M LLC, 2332 ELM AVENUE GUTHRIE CENTER IA  50115 11/15/2011 MANAGER OF MCCARTY LAND COMPANY M LLC SET UP BY FATHER AFTER HE PASSED AWAY.  NO COMPENSATION"
    }
  },
  "DRPs": []
}