{
  "Info": {
    "lastNm": "ROYAL",
    "firstNm": "JONATHAN",
    "midNm": "ROB",
    "sufNm": null,
    "indvlPK": "2267373",
    "actvAGReg": 0,
    "link": "http://www.adviserinfo.sec.gov/IAPD/Individual/2267373"
  },
  "OthrNms": [
    {
      "lastNm": "ROYAL",
      "firstNm": "J.",
      "midNm": "ROB",
      "sufNm": null
    }
  ],
  "CrntEmps": [
    {
      "CrntRgstns": [
        {
          "regAuth": 4,
          "regCat": 0,
          "st": 2,
          "stDt": "2007-05-23T00:00:00"
        },
        {
          "regAuth": 45,
          "regCat": 0,
          "st": 3,
          "stDt": "2010-02-19T00:00:00"
        }
      ],
      "BrnchOfLocs": [
        {
          "str1": "6700 EAST PACIFIC COAST HIGHWAY",
          "str2": "SUITE 280",
          "city": "LONG BEACH",
          "state": 4,
          "stateSpecified": true,
          "cntry": "United States",
          "postlCd": "90803-4291"
        }
      ],
      "orgNm": "RBC CAPITAL MARKETS, LLC",
      "orgPK": "31194",
      "str1": "3 WORLD FINANCIAL CENTER",
      "str2": "200 VESEY ST.",
      "city": "NEW YORK",
      "state": 35,
      "stateSpecified": true,
      "cntry": "United States",
      "postlCd": "10281"
    }
  ],
  "Exms": [
    {
      "exmCd": 0,
      "exmNm": "Uniform Securities Agent State Law Examination",
      "exmDt": "1992-09-16T00:00:00",
      "exmDtSpecified": true
    },
    {
      "exmCd": 3,
      "exmNm": "Uniform Combined State Law Examination",
      "exmDt": "2007-12-17T00:00:00",
      "exmDtSpecified": true
    }
  ],
  "Dsgntns": [],
  "PrevRgstns": [
    {
      "BrnchOfLocs": [
        {
          "city": "LONG BEACH",
          "state": 4,
          "stateSpecified": true
        },
        {
          "city": "SEAL BEACH",
          "state": 4,
          "stateSpecified": true
        }
      ],
      "orgNm": "UBS FINANCIAL SERVICES INC.",
      "orgPK": "8174",
      "regBeginDt": "1998-10-16T00:00:00",
      "regBeginDtSpecified": true,
      "regEndDt": "2007-06-11T00:00:00",
      "regEndDtSpecified": true
    }
  ],
  "EmpHss": [
    {
      "fromDt": "10/1998",
      "toDt": "05/2007",
      "orgNm": "UBS FINANCIAL SERVICES INC.",
      "city": "LONG BEACH",
      "state": 4,
      "stateSpecified": true
    },
    {
      "fromDt": "05/2007",
      "toDt": "03/2008",
      "orgNm": "RBC DAIN RAUSCHER",
      "city": "LONG BEACH",
      "state": 4,
      "stateSpecified": true
    },
    {
      "fromDt": "03/2008",
      "toDt": null,
      "orgNm": "RBC CAPITAL MARKETS CORPORATION",
      "city": "LONG BEACH",
      "state": 4,
      "stateSpecified": true
    }
  ],
  "OthrBuss": {
    "OthrBus": {
      "desc": "I AM THE TREASURER FOR THE CALIFORNIA SCHOOL EDUCATION FOUNDATION FROM 2007 TO PRESENT.  I CURRENTLY WORK 3 HOURS A MONTH"
    }
  },
  "DRPs": []
}