{
  "Info": {
    "lastNm": "HATTENDORF",
    "firstNm": "BRIAN",
    "midNm": "SEAN",
    "sufNm": null,
    "indvlPK": "2267913",
    "actvAGReg": 1,
    "link": "http://www.adviserinfo.sec.gov/IAPD/Individual/2267913"
  },
  "OthrNms": [],
  "CrntEmps": [
    {
      "CrntRgstns": [
        {
          "regAuth": 45,
          "regCat": 0,
          "st": 2,
          "stDt": "2010-11-22T00:00:00"
        }
      ],
      "BrnchOfLocs": [
        {
          "str1": "8401 N. CENTRAL EXPWY",
          "str2": "SUITE 300",
          "city": "DALLAS",
          "state": 45,
          "stateSpecified": true,
          "cntry": "United States",
          "postlCd": "75225"
        }
      ],
      "orgNm": "FRONTIER INVESTMENT MANAGEMENT CO",
      "orgPK": "110430",
      "str1": "8401 N. CENTRAL EXPWY",
      "str2": "SUITE 300",
      "city": "DALLAS",
      "state": 45,
      "stateSpecified": true,
      "cntry": "United States",
      "postlCd": "75225"
    }
  ],
  "Exms": [
    {
      "exmCd": 2,
      "exmNm": "Uniform Investment Adviser Law Examination",
      "exmDt": "2010-11-17T00:00:00",
      "exmDtSpecified": true
    }
  ],
  "Dsgntns": [],
  "PrevRgstns": [],
  "EmpHss": [
    {
      "fromDt": "05/2000",
      "toDt": null,
      "orgNm": "FRONTIER INVESTMENT MANAGEMENT CO.",
      "city": "DALLAS",
      "state": 45,
      "stateSpecified": true
    }
  ],
  "OthrBuss": {
    "OthrBus": null
  },
  "DRPs": []
}