{
  "Info": {
    "lastNm": "CONOVER",
    "firstNm": "DAVID",
    "midNm": "LAWRENCE",
    "sufNm": null,
    "indvlPK": "2270362",
    "actvAGReg": 0,
    "link": "http://www.adviserinfo.sec.gov/IAPD/Individual/2270362"
  },
  "OthrNms": [
    {
      "lastNm": "CONOVER",
      "firstNm": "DAVID",
      "midNm": "L",
      "sufNm": null
    }
  ],
  "CrntEmps": [
    {
      "CrntRgstns": [
        {
          "regAuth": 9,
          "regCat": 0,
          "st": 2,
          "stDt": "2011-04-28T00:00:00"
        },
        {
          "regAuth": 25,
          "regCat": 0,
          "st": 2,
          "stDt": "2011-05-16T00:00:00"
        }
      ],
      "BrnchOfLocs": [
        {
          "str1": "301 WEST BAY STREET",
          "str2": null,
          "city": "JACKSONVILLE",
          "state": 9,
          "stateSpecified": true,
          "cntry": "United States",
          "postlCd": "32202"
        }
      ],
      "orgNm": "EVERBANK WEALTH MANAGEMENT",
      "orgPK": "154237",
      "str1": "301 W. BAY STREET",
      "str2": null,
      "city": "JACKSONVILLE",
      "state": 9,
      "stateSpecified": true,
      "cntry": "United States",
      "postlCd": "32202"
    }
  ],
  "Exms": [
    {
      "exmCd": 0,
      "exmNm": "Uniform Securities Agent State Law Examination",
      "exmDt": "1992-09-03T00:00:00",
      "exmDtSpecified": true
    },
    {
      "exmCd": 2,
      "exmNm": "Uniform Investment Adviser Law Examination",
      "exmDt": "1998-11-02T00:00:00",
      "exmDtSpecified": true
    },
    {
      "exmCd": 3,
      "exmNm": "Uniform Combined State Law Examination",
      "exmDt": "2011-03-09T00:00:00",
      "exmDtSpecified": true
    }
  ],
  "Dsgntns": [],
  "PrevRgstns": [
    {
      "BrnchOfLocs": [
        {
          "city": "FORT WAYNE",
          "state": 16,
          "stateSpecified": true
        }
      ],
      "orgNm": "MERRILL LYNCH, PIERCE, FENNER & SMITH INCORPORATED",
      "orgPK": "7691",
      "regBeginDt": "1998-12-15T00:00:00",
      "regBeginDtSpecified": true,
      "regEndDt": "2003-09-08T00:00:00",
      "regEndDtSpecified": true
    },
    {
      "BrnchOfLocs": [
        {
          "city": "JACKSONVILLE",
          "state": 9,
          "stateSpecified": true
        }
      ],
      "orgNm": "WELLS FARGO ADVISORS, LLC",
      "orgPK": "19616",
      "regBeginDt": "2004-06-21T00:00:00",
      "regBeginDtSpecified": true,
      "regEndDt": "2004-06-28T00:00:00",
      "regEndDtSpecified": true
    }
  ],
  "EmpHss": [
    {
      "fromDt": "04/2004",
      "toDt": null,
      "orgNm": "WACHOVIA BANK, N.A.",
      "city": "JACKSONVILLE",
      "state": 9,
      "stateSpecified": true
    },
    {
      "fromDt": "05/2004",
      "toDt": null,
      "orgNm": "WACHOVIA SECURITIES LLC",
      "city": "JACKSONVILLE",
      "state": 9,
      "stateSpecified": true
    },
    {
      "fromDt": "12/2004",
      "toDt": null,
      "orgNm": "EVERBANK",
      "city": "ST. LOUIS",
      "state": 25,
      "stateSpecified": true
    }
  ],
  "OthrBuss": {
    "OthrBus": {
      "desc": "Non-public arbitrator for FINRA dispute resolutions, One Liberty Plaza, New York, NY 10006,beginning 1/2/2016"
    }
  },
  "DRPs": []
}