{
  "Info": {
    "lastNm": "THOMPSON",
    "firstNm": "RICHARD",
    "midNm": "H. P.",
    "sufNm": null,
    "indvlPK": "2275744",
    "actvAGReg": 1,
    "link": "http://www.adviserinfo.sec.gov/IAPD/Individual/2275744"
  },
  "OthrNms": [
    {
      "lastNm": "THOMPSON",
      "firstNm": "RICHARD",
      "midNm": null,
      "sufNm": null
    },
    {
      "lastNm": "THOMPSON",
      "firstNm": "RICHARD",
      "midNm": "HOUGHTON PIXLEY",
      "sufNm": null
    },
    {
      "lastNm": "THOMPSON",
      "firstNm": "RICHARD",
      "midNm": "HP",
      "sufNm": null
    }
  ],
  "CrntEmps": [
    {
      "CrntRgstns": [
        {
          "regAuth": 20,
          "regCat": 0,
          "st": 2,
          "stDt": "2014-09-02T00:00:00"
        }
      ],
      "BrnchOfLocs": [
        {
          "str1": "250 1ST AVENUE",
          "str2": "SUITE 101",
          "city": "NEEDHAM",
          "state": 20,
          "stateSpecified": true,
          "cntry": "United States",
          "postlCd": "02494"
        }
      ],
      "orgNm": "BEAUMONT FINANCIAL PARTNERS LLC",
      "orgPK": "108345",
      "str1": "250 1ST AVENUE",
      "str2": "SUITE 101",
      "city": "NEEDHAM",
      "state": 20,
      "stateSpecified": true,
      "cntry": "United States",
      "postlCd": "02494"
    }
  ],
  "Exms": [
    {
      "exmCd": 0,
      "exmNm": "Uniform Securities Agent State Law Examination",
      "exmDt": "1993-05-25T00:00:00",
      "exmDtSpecified": true
    },
    {
      "exmCd": 3,
      "exmNm": "Uniform Combined State Law Examination",
      "exmDt": "2005-09-16T00:00:00",
      "exmDtSpecified": true
    }
  ],
  "Dsgntns": [],
  "PrevRgstns": [
    {
      "BrnchOfLocs": [
        {
          "city": "BOSTON",
          "state": 20,
          "stateSpecified": true
        }
      ],
      "orgNm": "PIONEER INVESTMENT MANAGEMENT, INC.",
      "orgPK": "107719",
      "regBeginDt": "2005-09-19T00:00:00",
      "regBeginDtSpecified": true,
      "regEndDt": "2006-04-20T00:00:00",
      "regEndDtSpecified": true
    },
    {
      "BrnchOfLocs": [
        {
          "city": "BOSTON",
          "state": 20,
          "stateSpecified": true
        }
      ],
      "orgNm": "PIONEER INSTITUTIONAL ASSET MANAGEMENT, INC.",
      "orgPK": "138756",
      "regBeginDt": "2006-04-20T00:00:00",
      "regBeginDtSpecified": true,
      "regEndDt": "2010-11-11T00:00:00",
      "regEndDtSpecified": true
    }
  ],
  "EmpHss": [
    {
      "fromDt": "06/2005",
      "toDt": "11/2010",
      "orgNm": "PIONEER FUNDS DISTRIBUTOR, INC.",
      "city": "BOSTON",
      "state": 20,
      "stateSpecified": true
    },
    {
      "fromDt": "04/2006",
      "toDt": "11/2010",
      "orgNm": "PIONEER INSTITUTIONAL ASSET MANAGEMENT, INC.",
      "city": "BOSTON",
      "state": 20,
      "stateSpecified": true
    },
    {
      "fromDt": "12/2010",
      "toDt": "01/2011",
      "orgNm": "GRUBB & ELLIS EQUITY ADVISORS",
      "city": "SANTA ANA",
      "state": 4,
      "stateSpecified": true
    },
    {
      "fromDt": "12/2010",
      "toDt": "01/2011",
      "orgNm": "GRUBB & ELLIS SECURITIES, INC.",
      "city": "SANTA ANA",
      "state": 4,
      "stateSpecified": true
    },
    {
      "fromDt": "01/2011",
      "toDt": "06/2011",
      "orgNm": "UNEMPLOYED",
      "city": "BOSTON",
      "state": 20,
      "stateSpecified": true
    },
    {
      "fromDt": "06/2011",
      "toDt": "06/2013",
      "orgNm": "REALTY CAPITAL SECURITIES, LLC.",
      "city": "BOSTON",
      "state": 20,
      "stateSpecified": true
    },
    {
      "fromDt": "07/2013",
      "toDt": "01/2014",
      "orgNm": "ATLANTIC SEMICONDUCTOR",
      "city": "PEABODY",
      "state": 20,
      "stateSpecified": true
    },
    {
      "fromDt": "02/2014",
      "toDt": "08/2014",
      "orgNm": "BANKERS LIFE",
      "city": "FRAMINGHAM",
      "state": 20,
      "stateSpecified": true
    },
    {
      "fromDt": "08/2014",
      "toDt": null,
      "orgNm": "BEAUMONT FINANCIAL PARTNERS, LLC",
      "city": "NEEDHAM",
      "state": 20,
      "stateSpecified": true
    }
  ],
  "OthrBuss": {
    "OthrBus": null
  },
  "DRPs": []
}