{
  "Info": {
    "lastNm": "RUBEY",
    "firstNm": "CHARLES",
    "midNm": "CHESTERS",
    "sufNm": null,
    "indvlPK": "2275951",
    "actvAGReg": 1,
    "link": "http://www.adviserinfo.sec.gov/IAPD/Individual/2275951"
  },
  "OthrNms": [],
  "CrntEmps": [
    {
      "CrntRgstns": [
        {
          "regAuth": 4,
          "regCat": 0,
          "st": 2,
          "stDt": "2016-03-01T00:00:00"
        }
      ],
      "BrnchOfLocs": [
        {
          "str1": "2528 ALAMO COUNTRY CIRCLE",
          "str2": null,
          "city": "ALAMO",
          "state": 4,
          "stateSpecified": true,
          "cntry": "United States",
          "postlCd": "94507"
        }
      ],
      "orgNm": "RUBEY & RUST CAPITAL MANAGEMENT, LLC",
      "orgPK": "282776",
      "str1": "2528 ALAMO COUNTRY CIRCLE",
      "str2": null,
      "city": "ALAMO",
      "state": 4,
      "stateSpecified": true,
      "cntry": "United States",
      "postlCd": "94507"
    }
  ],
  "Exms": [
    {
      "exmCd": 0,
      "exmNm": "Uniform Securities Agent State Law Examination",
      "exmDt": "1992-11-25T00:00:00",
      "exmDtSpecified": true
    },
    {
      "exmCd": 2,
      "exmNm": "Uniform Investment Adviser Law Examination",
      "exmDt": "1998-12-29T00:00:00",
      "exmDtSpecified": true
    }
  ],
  "Dsgntns": [
    {
      "dsgntnNm": "Chartered Financial Analyst"
    }
  ],
  "PrevRgstns": [
    {
      "BrnchOfLocs": [
        {
          "city": "ALAMO",
          "state": 4,
          "stateSpecified": true
        },
        {
          "city": "WALNUT CREEK",
          "state": 4,
          "stateSpecified": true
        }
      ],
      "orgNm": "PROTECTED INVESTORS OF AMERICA",
      "orgPK": "6082",
      "regBeginDt": "1997-07-08T00:00:00",
      "regBeginDtSpecified": true,
      "regEndDt": "2015-12-31T00:00:00",
      "regEndDtSpecified": true
    },
    {
      "BrnchOfLocs": [
        {
          "city": "WALNUT CREEK",
          "state": 4,
          "stateSpecified": true
        }
      ],
      "orgNm": "RUBEY & RUST CAPITAL MANAGEMENT",
      "orgPK": "109652",
      "regBeginDt": "2002-10-09T00:00:00",
      "regBeginDtSpecified": true,
      "regEndDt": "2012-01-19T00:00:00",
      "regEndDtSpecified": true
    }
  ],
  "EmpHss": [
    {
      "fromDt": "08/1992",
      "toDt": null,
      "orgNm": "PROTECTED INVESTORS OF AMERICA",
      "city": "WALNUT CREEK",
      "state": 4,
      "stateSpecified": true
    },
    {
      "fromDt": "03/2016",
      "toDt": null,
      "orgNm": "RUBEY & RUST CAPITAL MANAGEMENT LLC",
      "city": "WALNUT CREEK",
      "state": 4,
      "stateSpecified": true
    }
  ],
  "OthrBuss": {
    "OthrBus": null
  },
  "DRPs": []
}