{
  "Info": {
    "lastNm": "PERRY",
    "firstNm": "KEVIN",
    "midNm": "JOSEPH",
    "sufNm": null,
    "indvlPK": "2285406",
    "actvAGReg": 1,
    "link": "http://www.adviserinfo.sec.gov/IAPD/Individual/2285406"
  },
  "OthrNms": [],
  "CrntEmps": [
    {
      "CrntRgstns": [
        {
          "regAuth": 45,
          "regCat": 0,
          "st": 3,
          "stDt": "2006-01-05T00:00:00"
        }
      ],
      "BrnchOfLocs": [
        {
          "str1": "ONE FINANCIAL CENTER",
          "str2": null,
          "city": "BOSTON",
          "state": 20,
          "stateSpecified": true,
          "cntry": "United States",
          "postlCd": "02111-2621"
        }
      ],
      "orgNm": "LOOMIS, SAYLES & COMPANY, L.P.",
      "orgPK": "105377",
      "str1": "ONE FINANCIAL CENTER",
      "str2": null,
      "city": "BOSTON",
      "state": 20,
      "stateSpecified": true,
      "cntry": "United States",
      "postlCd": "02111-2621"
    }
  ],
  "Exms": [],
  "Dsgntns": [],
  "PrevRgstns": [],
  "EmpHss": [
    {
      "fromDt": "07/2001",
      "toDt": null,
      "orgNm": "LOOMIS, SAYLES & COMPANY, L.P.",
      "city": "BOSTON",
      "state": 20,
      "stateSpecified": true
    }
  ],
  "OthrBuss": {
    "OthrBus": null
  },
  "DRPs": []
}