{
  "Info": {
    "lastNm": "SCHABACKER",
    "firstNm": "DAVID",
    "midNm": "M",
    "sufNm": null,
    "indvlPK": "2318670",
    "actvAGReg": 0,
    "link": "http://www.adviserinfo.sec.gov/IAPD/Individual/2318670"
  },
  "OthrNms": [
    {
      "lastNm": "SCHABACKER",
      "firstNm": "DAVID",
      "midNm": "MARTIN",
      "sufNm": null
    },
    {
      "lastNm": "SCHABACKER",
      "firstNm": "DAVID",
      "midNm": "MARTIN",
      "sufNm": "III"
    }
  ],
  "CrntEmps": [
    {
      "CrntRgstns": [
        {
          "regAuth": 23,
          "regCat": 0,
          "st": 2,
          "stDt": "2011-04-14T00:00:00"
        }
      ],
      "BrnchOfLocs": [
        {
          "str1": "1527 HANCOCK",
          "str2": null,
          "city": "PORT HURON",
          "state": 23,
          "stateSpecified": true,
          "cntry": "United States",
          "postlCd": "48060"
        },
        {
          "str1": "2015 GRATIOT BLVD",
          "str2": null,
          "city": "MARYSVILLE",
          "state": 23,
          "stateSpecified": true,
          "cntry": "United States",
          "postlCd": "48040"
        },
        {
          "str1": "210 S. PARKER ST",
          "str2": null,
          "city": "MARINE CITY",
          "state": 23,
          "stateSpecified": true,
          "cntry": "United States",
          "postlCd": "48039"
        },
        {
          "str1": "270 CLINTON AVE",
          "str2": null,
          "city": "ST CLAIR",
          "state": 23,
          "stateSpecified": true,
          "cntry": "United States",
          "postlCd": "48079"
        },
        {
          "str1": "2855 WADHAMS RD",
          "str2": null,
          "city": "KIMBALL TOWNSHIP",
          "state": 23,
          "stateSpecified": true,
          "cntry": "United States",
          "postlCd": "48074"
        },
        {
          "str1": "301 SUMMER ST",
          "str2": null,
          "city": "ALGONAC",
          "state": 23,
          "stateSpecified": true,
          "cntry": "United States",
          "postlCd": "48001"
        },
        {
          "str1": "3136 LAPEER RD",
          "str2": null,
          "city": "PORT HURON TOWNSHIP",
          "state": 23,
          "stateSpecified": true,
          "cntry": "United States",
          "postlCd": "48060"
        },
        {
          "str1": "4778 24TH AVE",
          "str2": null,
          "city": "FORT GRATIOT",
          "state": 23,
          "stateSpecified": true,
          "cntry": "United States",
          "postlCd": "48059"
        },
        {
          "str1": "50787 CORPORATE DR",
          "str2": null,
          "city": "SHELBY TOWNSHIP",
          "state": 23,
          "stateSpecified": true,
          "cntry": "United States",
          "postlCd": "48315-3138"
        },
        {
          "str1": "525 WATER STREET",
          "str2": null,
          "city": "PORT HURON",
          "state": 23,
          "stateSpecified": true,
          "cntry": "United States",
          "postlCd": "48060"
        },
        {
          "str1": "567 E. GENESEE ST",
          "str2": null,
          "city": "LAPEER",
          "state": 23,
          "stateSpecified": true,
          "cntry": "United States",
          "postlCd": "48446"
        },
        {
          "str1": "715 S CEDAR ST",
          "str2": null,
          "city": "IMLAY CITY",
          "state": 23,
          "stateSpecified": true,
          "cntry": "United States",
          "postlCd": "48444-1341"
        }
      ],
      "orgNm": "LPL FINANCIAL LLC",
      "orgPK": "6413",
      "str1": "75 STATE STREET, 22ND FLOOR",
      "str2": null,
      "city": "BOSTON",
      "state": 20,
      "stateSpecified": true,
      "cntry": "United States",
      "postlCd": "02109"
    }
  ],
  "Exms": [
    {
      "exmCd": 0,
      "exmNm": "Uniform Securities Agent State Law Examination",
      "exmDt": "1993-06-11T00:00:00",
      "exmDtSpecified": true
    },
    {
      "exmCd": 2,
      "exmNm": "Uniform Investment Adviser Law Examination",
      "exmDt": "2000-04-26T00:00:00",
      "exmDtSpecified": true
    }
  ],
  "Dsgntns": [],
  "PrevRgstns": [
    {
      "BrnchOfLocs": [
        {
          "city": "STERLING HEIGHTS",
          "state": 23,
          "stateSpecified": true
        }
      ],
      "orgNm": "BANC ONE SECURITIES CORPORATION",
      "orgPK": "16999",
      "regBeginDt": "2005-01-25T00:00:00",
      "regBeginDtSpecified": true,
      "regEndDt": "2005-03-29T00:00:00",
      "regEndDtSpecified": true
    },
    {
      "BrnchOfLocs": [
        {
          "city": "FARMINGTON",
          "state": 23,
          "stateSpecified": true
        },
        {
          "city": "WARREN",
          "state": 23,
          "stateSpecified": true
        }
      ],
      "orgNm": "COMERICA SECURITIES",
      "orgPK": "17079",
      "regBeginDt": "2005-07-18T00:00:00",
      "regBeginDtSpecified": true,
      "regEndDt": "2006-10-31T00:00:00",
      "regEndDtSpecified": true
    }
  ],
  "EmpHss": [
    {
      "fromDt": "04/2005",
      "toDt": "10/2006",
      "orgNm": "COMERICA BANK",
      "city": "DETROIT",
      "state": 23,
      "stateSpecified": true
    },
    {
      "fromDt": "05/2005",
      "toDt": "10/2006",
      "orgNm": "COMERICA SECURITIES",
      "city": "DETROIT",
      "state": 23,
      "stateSpecified": true
    },
    {
      "fromDt": "10/2006",
      "toDt": "02/2007",
      "orgNm": "SIGMA FINANCIAL",
      "city": "ANN ARBOR",
      "state": 23,
      "stateSpecified": true
    },
    {
      "fromDt": "11/2006",
      "toDt": "02/2007",
      "orgNm": "SIGMA FINANCIAL CORPORATION",
      "city": "ANN ARBOR",
      "state": 23,
      "stateSpecified": true
    },
    {
      "fromDt": "03/2007",
      "toDt": "01/2009",
      "orgNm": "AIG FINANCIAL ADVISORS, INC.",
      "city": "LAPEER",
      "state": 23,
      "stateSpecified": true
    },
    {
      "fromDt": "03/2007",
      "toDt": "03/2011",
      "orgNm": "CITIZENS FIRST BANK",
      "city": "PORT HURON",
      "state": 23,
      "stateSpecified": true
    },
    {
      "fromDt": "01/2009",
      "toDt": "03/2011",
      "orgNm": "SAGEPOINT FINANCIAL, INC.",
      "city": "PHOENIX",
      "state": 3,
      "stateSpecified": true
    },
    {
      "fromDt": "03/2011",
      "toDt": "05/2011",
      "orgNm": "FIRST MICHIGAN BANK",
      "city": "SHELBY TWP",
      "state": 23,
      "stateSpecified": true
    },
    {
      "fromDt": "03/2011",
      "toDt": null,
      "orgNm": "LPL FINANCIAL",
      "city": "IMLAY CITY",
      "state": 23,
      "stateSpecified": true
    },
    {
      "fromDt": "05/2011",
      "toDt": null,
      "orgNm": "TALMER  BANK AND TRUST",
      "city": "IMLAY CITY",
      "state": 23,
      "stateSpecified": true
    }
  ],
  "OthrBuss": {
    "OthrBus": {
      "desc": "1. 6/28/2011: DBA ONLY - TALMER FINANCIAL LOCATED AT TALMER BANK & TRUST - IMLAY CITY, MI.      2. 11/14/2011: NON-VARIABLE INSURANCE - SELLING FIXED ANNUITIES - 10% OF TIME SPENT - IMLAY CITY, MI"
    }
  },
  "DRPs": [
    {
      "hasRegAction": 1,
      "hasRegActionSpecified": true,
      "hasCriminal": 1,
      "hasCriminalSpecified": true,
      "hasBankrupt": 1,
      "hasBankruptSpecified": true,
      "hasCivilJudc": 1,
      "hasCivilJudcSpecified": true,
      "hasBond": 1,
      "hasBondSpecified": true,
      "hasJudgment": 1,
      "hasJudgmentSpecified": true,
      "hasInvstgn": 1,
      "hasInvstgnSpecified": true,
      "hasCustComp": 0,
      "hasCustCompSpecified": true,
      "hasTermination": 1,
      "hasTerminationSpecified": true
    }
  ]
}