{
  "Info": {
    "lastNm": "CONNAUGHTON",
    "firstNm": "STEPHEN",
    "midNm": "JAMES",
    "sufNm": null,
    "indvlPK": "2321690",
    "actvAGReg": 0,
    "link": "http://www.adviserinfo.sec.gov/IAPD/Individual/2321690"
  },
  "OthrNms": [
    {
      "lastNm": "CONNAUGHTON",
      "firstNm": "STEPHEN",
      "midNm": "JAMES",
      "sufNm": null
    }
  ],
  "CrntEmps": [
    {
      "CrntRgstns": [
        {
          "regAuth": 41,
          "regCat": 0,
          "st": 2,
          "stDt": "2006-02-23T00:00:00"
        }
      ],
      "BrnchOfLocs": [
        {
          "str1": "1 FINANCIAL PLAZA",
          "str2": "SUITE 2110",
          "city": "PROVIDENCE",
          "state": 41,
          "stateSpecified": true,
          "cntry": "United States",
          "postlCd": "02903"
        }
      ],
      "orgNm": "OPPENHEIMER & CO. INC.",
      "orgPK": "249",
      "str1": "85 BROAD STREET",
      "str2": "22ND FLOOR.",
      "city": "NEW YORK",
      "state": 35,
      "stateSpecified": true,
      "cntry": "United States",
      "postlCd": "10004"
    }
  ],
  "Exms": [
    {
      "exmCd": 0,
      "exmNm": "Uniform Securities Agent State Law Examination",
      "exmDt": "1993-03-26T00:00:00",
      "exmDtSpecified": true
    },
    {
      "exmCd": 2,
      "exmNm": "Uniform Investment Adviser Law Examination",
      "exmDt": "2006-02-22T00:00:00",
      "exmDtSpecified": true
    }
  ],
  "Dsgntns": [],
  "PrevRgstns": [],
  "EmpHss": [
    {
      "fromDt": "06/2004",
      "toDt": null,
      "orgNm": "OPPENHEIMER & CO.",
      "city": "NEW YORK",
      "state": 35,
      "stateSpecified": true
    }
  ],
  "OthrBuss": {
    "OthrBus": {
      "desc": "EXECUTER FOR FATHER RICHARD CONNAUGHTON'S ESTATE. 41 OLD NORTH TRAIL MANSFIELD MA. 02048.EFFECTIVE 03/23/2016. 1 HR PER MONTH."
    }
  },
  "DRPs": [
    {
      "hasRegAction": 1,
      "hasRegActionSpecified": true,
      "hasCriminal": 1,
      "hasCriminalSpecified": true,
      "hasBankrupt": 1,
      "hasBankruptSpecified": true,
      "hasCivilJudc": 1,
      "hasCivilJudcSpecified": true,
      "hasBond": 1,
      "hasBondSpecified": true,
      "hasJudgment": 1,
      "hasJudgmentSpecified": true,
      "hasInvstgn": 1,
      "hasInvstgnSpecified": true,
      "hasCustComp": 0,
      "hasCustCompSpecified": true,
      "hasTermination": 1,
      "hasTerminationSpecified": true
    }
  ]
}