{
  "Info": {
    "lastNm": "REGAN",
    "firstNm": "ROBERT",
    "midNm": "JOSEPH",
    "sufNm": null,
    "indvlPK": "2322096",
    "actvAGReg": 1,
    "link": "http://www.adviserinfo.sec.gov/IAPD/Individual/2322096"
  },
  "OthrNms": [
    {
      "lastNm": "REGAN",
      "firstNm": "ROB",
      "midNm": null,
      "sufNm": null
    }
  ],
  "CrntEmps": [
    {
      "CrntRgstns": [
        {
          "regAuth": 4,
          "regCat": 0,
          "st": 2,
          "stDt": "2016-01-11T00:00:00"
        }
      ],
      "BrnchOfLocs": [
        {
          "str1": "145 TOWN AND COUNTRY ROAD",
          "str2": "SUITE 101",
          "city": "DANVILLE",
          "state": 4,
          "stateSpecified": true,
          "cntry": "United States",
          "postlCd": "94526"
        }
      ],
      "orgNm": "REGAN FINANCIAL GROUP, LLC",
      "orgPK": "168939",
      "str1": "145 TOWN AND COUNTRY ROAD",
      "str2": "SUITE 101",
      "city": "DANVILLE",
      "state": 4,
      "stateSpecified": true,
      "cntry": "United States",
      "postlCd": "94526"
    }
  ],
  "Exms": [
    {
      "exmCd": 0,
      "exmNm": "Uniform Securities Agent State Law Examination",
      "exmDt": "1993-02-19T00:00:00",
      "exmDtSpecified": true
    },
    {
      "exmCd": 2,
      "exmNm": "Uniform Investment Adviser Law Examination",
      "exmDt": "2001-10-08T00:00:00",
      "exmDtSpecified": true
    }
  ],
  "Dsgntns": [
    {
      "dsgntnNm": "Certified Financial Planner"
    }
  ],
  "PrevRgstns": [
    {
      "BrnchOfLocs": [
        {
          "city": "SAN FRANCISCO",
          "state": 4,
          "stateSpecified": true
        }
      ],
      "orgNm": "BPM WEALTH MANAGEMENT, LLC",
      "orgPK": "126494",
      "regBeginDt": "2001-10-31T00:00:00",
      "regBeginDtSpecified": true,
      "regEndDt": "2004-03-02T00:00:00",
      "regEndDtSpecified": true
    },
    {
      "BrnchOfLocs": [
        {
          "city": "DANVILLE",
          "state": 4,
          "stateSpecified": true
        }
      ],
      "orgNm": "VALMARK ADVISERS, INC.",
      "orgPK": "108050",
      "regBeginDt": "2004-02-20T00:00:00",
      "regBeginDtSpecified": true,
      "regEndDt": "2005-09-27T00:00:00",
      "regEndDtSpecified": true
    },
    {
      "BrnchOfLocs": [
        {
          "city": "DANVILLE",
          "state": 4,
          "stateSpecified": true
        }
      ],
      "orgNm": "KESTRA INVESTMENT SERVICES, LLC",
      "orgPK": "42046",
      "regBeginDt": "2005-09-27T00:00:00",
      "regBeginDtSpecified": true,
      "regEndDt": "2016-01-07T00:00:00",
      "regEndDtSpecified": true
    }
  ],
  "EmpHss": [
    {
      "fromDt": "09/2005",
      "toDt": "12/2015",
      "orgNm": "NFP SECURITIES, INC",
      "city": "DANVILLE",
      "state": 4,
      "stateSpecified": true
    },
    {
      "fromDt": "09/2005",
      "toDt": null,
      "orgNm": "REGAN FINANCIAL GROUP",
      "city": "DANVILLE",
      "state": 4,
      "stateSpecified": true
    }
  ],
  "OthrBuss": {
    "OthrBus": {
      "desc": "1) \"BUSINESS NAME: PARTNERS IN SUCCESS A CHAPTER OF BUSINESS NETWORKING INTERNATIONAL INVESTMENT RELATED: NO ADDRESS: MEET AT ELKS CLUB LODGE 1475 CREEKSIDE DR WALNUT CREEK CA 94596 NATURE OF BUSINESS: OTHER OTHER/NONE OF THE ABOVE NONE OF THE ABOVE POSITION, TITLE OR RELATIONSHIP: SECRETARY/TREASURER AND MEMBER START DATE: 10/3/2013 HOURS PER MONTH: 0% - 10% (0 - 16 HOURS) HOURS PER MONTH DURING TRADING HOURS: 0% - 10% (0 - 14 HOURS) DUTIES: MEMBER OBLIGATIONS- ATTEND ONCE A WEEK & PASS REFERRALS.  SEC/TREASURER OBLIGATIONS- PRODUCE QUARTERLY DUES NOTICES, COLLECT AND DEPOSIT CHECKS AND PAY BILLS.\"    2) BUSINESS NAME: FINANCIAL PLANNING ASSOCIATION INVESTMENT RELATED: YES ADDRESS: 7535 E. HAMPDEN AVE STE 600 DENVER CO 80231 NATURE OF BUSINESS: OTHER OTHER/NONE OF THE ABOVE NONE POSITION, TITLE OR RELATIONSHIP: MEMBER START DATE: 4/1/2015 HOURS PER MONTH: 0% - 10% (0 - 16 HOURS) HOURS PER MONTH DURING TRADING HOURS: 0% - 10% (0 - 14 HOURS) DUTIES: VOLUNTARY ATTENDANCE AT MEETINGS AND SOCIAL GATHERINGS. ANNUAL DUES."
    }
  },
  "DRPs": [
    {
      "hasRegAction": 0,
      "hasRegActionSpecified": true,
      "hasCriminal": 1,
      "hasCriminalSpecified": true,
      "hasBankrupt": 1,
      "hasBankruptSpecified": true,
      "hasCivilJudc": 1,
      "hasCivilJudcSpecified": true,
      "hasBond": 1,
      "hasBondSpecified": true,
      "hasJudgment": 1,
      "hasJudgmentSpecified": true,
      "hasInvstgn": 1,
      "hasInvstgnSpecified": true,
      "hasCustComp": 0,
      "hasCustCompSpecified": true,
      "hasTermination": 1,
      "hasTerminationSpecified": true
    }
  ]
}