{
  "Info": {
    "lastNm": "MOURADIAN",
    "firstNm": "GEORGE",
    "midNm": "KEVIN",
    "sufNm": null,
    "indvlPK": "2324371",
    "actvAGReg": 0,
    "link": "http://www.adviserinfo.sec.gov/IAPD/Individual/2324371"
  },
  "OthrNms": [
    {
      "lastNm": "MOURADIAN",
      "firstNm": "GEORGE",
      "midNm": "K",
      "sufNm": null
    }
  ],
  "CrntEmps": [
    {
      "CrntRgstns": [
        {
          "regAuth": 32,
          "regCat": 0,
          "st": 2,
          "stDt": "2014-08-15T00:00:00"
        }
      ],
      "BrnchOfLocs": [
        {
          "str1": "525 Old Country Rd",
          "str2": null,
          "city": "Plainview",
          "state": 35,
          "stateSpecified": true,
          "cntry": "United States",
          "postlCd": "11803"
        },
        {
          "str1": "5455 MERRICK RD",
          "str2": null,
          "city": "MASSAPEQUA",
          "state": 35,
          "stateSpecified": true,
          "cntry": "United States",
          "postlCd": "11758"
        }
      ],
      "orgNm": "CUNA BROKERAGE SERVICES, INC.",
      "orgPK": "13941",
      "str1": "2000 HERITAGE WAY",
      "str2": null,
      "city": "WAVERLY",
      "state": 13,
      "stateSpecified": true,
      "cntry": "United States",
      "postlCd": "50677"
    }
  ],
  "Exms": [
    {
      "exmCd": 0,
      "exmNm": "Uniform Securities Agent State Law Examination",
      "exmDt": "1993-11-16T00:00:00",
      "exmDtSpecified": true
    },
    {
      "exmCd": 2,
      "exmNm": "Uniform Investment Adviser Law Examination",
      "exmDt": "2003-06-25T00:00:00",
      "exmDtSpecified": true
    }
  ],
  "Dsgntns": [],
  "PrevRgstns": [
    {
      "BrnchOfLocs": [
        {
          "city": "WHITESTONE",
          "state": 35,
          "stateSpecified": true
        }
      ],
      "orgNm": "IFMG SECURITIES, INC.",
      "orgPK": "14416",
      "regBeginDt": "2003-07-21T00:00:00",
      "regBeginDtSpecified": true,
      "regEndDt": "2004-04-12T00:00:00",
      "regEndDtSpecified": true
    },
    {
      "BrnchOfLocs": [
        {
          "city": "ASTORIA",
          "state": 35,
          "stateSpecified": true
        },
        {
          "city": "ASTORIA",
          "state": 35,
          "stateSpecified": true
        }
      ],
      "orgNm": "TD WEALTH MANAGEMENT SERVICES INC.",
      "orgPK": "6940",
      "regBeginDt": "2005-08-24T00:00:00",
      "regBeginDtSpecified": true,
      "regEndDt": "2006-12-19T00:00:00",
      "regEndDtSpecified": true
    },
    {
      "BrnchOfLocs": [
        {
          "city": "FLUSHING",
          "state": 35,
          "stateSpecified": true
        },
        {
          "city": "MASPETH",
          "state": 35,
          "stateSpecified": true
        }
      ],
      "orgNm": "HSBC SECURITIES (USA) INC.",
      "orgPK": "19585",
      "regBeginDt": "2006-12-20T00:00:00",
      "regBeginDtSpecified": true,
      "regEndDt": "2008-05-12T00:00:00",
      "regEndDtSpecified": true
    },
    {
      "BrnchOfLocs": [
        {
          "city": "FLUSHING",
          "state": 35,
          "stateSpecified": true
        }
      ],
      "orgNm": "HSBC SECURITIES (USA) INC.",
      "orgPK": "19585",
      "regBeginDt": "2009-08-25T00:00:00",
      "regBeginDtSpecified": true,
      "regEndDt": "2010-08-18T00:00:00",
      "regEndDtSpecified": true
    },
    {
      "BrnchOfLocs": [
        {
          "city": "BETHPAGE",
          "state": 35,
          "stateSpecified": true
        }
      ],
      "orgNm": "UVEST FINANCIAL SERVICES GROUP, INC.",
      "orgPK": "13787",
      "regBeginDt": "2010-09-09T00:00:00",
      "regBeginDtSpecified": true,
      "regEndDt": "2011-08-10T00:00:00",
      "regEndDtSpecified": true
    },
    {
      "BrnchOfLocs": [
        {
          "city": "BETHPAGE",
          "state": 35,
          "stateSpecified": true
        },
        {
          "city": "LEVITTOWN",
          "state": 35,
          "stateSpecified": true
        }
      ],
      "orgNm": "INVEST FINANCIAL CORPORATION",
      "orgPK": "12984",
      "regBeginDt": "2011-08-10T00:00:00",
      "regBeginDtSpecified": true,
      "regEndDt": "2014-08-07T00:00:00",
      "regEndDtSpecified": true
    }
  ],
  "EmpHss": [
    {
      "fromDt": "08/2005",
      "toDt": "12/2006",
      "orgNm": "COMMERCE CAPITAL MARKETS, INC.",
      "city": "ASTORIA",
      "state": 35,
      "stateSpecified": true
    },
    {
      "fromDt": "12/2006",
      "toDt": "04/2008",
      "orgNm": "HSBC SECURITIES (USA) INC.",
      "city": "FLUSHING",
      "state": 35,
      "stateSpecified": true
    },
    {
      "fromDt": "05/2008",
      "toDt": "08/2009",
      "orgNm": "DAVID LERNER ASSOCIATES, INC.",
      "city": "SYOSSET",
      "state": 35,
      "stateSpecified": true
    },
    {
      "fromDt": "08/2009",
      "toDt": "08/2010",
      "orgNm": "HSBC SECURITIES (USA) INC.",
      "city": "FLUSHING",
      "state": 35,
      "stateSpecified": true
    },
    {
      "fromDt": "09/2010",
      "toDt": "08/2014",
      "orgNm": "BETHPAGE FINANCIAL SERVICES",
      "city": "BETHPAGE",
      "state": 35,
      "stateSpecified": true
    },
    {
      "fromDt": "09/2010",
      "toDt": "08/2011",
      "orgNm": "UVEST FINANCIAL SERVICES GROUP, INC.",
      "city": "CHARLOTTE",
      "state": 28,
      "stateSpecified": true
    },
    {
      "fromDt": "08/2011",
      "toDt": "08/2014",
      "orgNm": "INVEST FINANCIAL CORPORATION",
      "city": "BETHPAGE",
      "state": 35,
      "stateSpecified": true
    },
    {
      "fromDt": "08/2014",
      "toDt": null,
      "orgNm": "CUNA BROKERAGE SERVICES, INC.",
      "city": "WAVERLY",
      "state": 13,
      "stateSpecified": true
    },
    {
      "fromDt": "08/2014",
      "toDt": null,
      "orgNm": "CUNA MUTUAL GROUP",
      "city": "WAVERLY",
      "state": 13,
      "stateSpecified": true
    }
  ],
  "OthrBuss": {
    "OthrBus": null
  },
  "DRPs": [
    {
      "hasRegAction": 1,
      "hasRegActionSpecified": true,
      "hasCriminal": 1,
      "hasCriminalSpecified": true,
      "hasBankrupt": 1,
      "hasBankruptSpecified": true,
      "hasCivilJudc": 1,
      "hasCivilJudcSpecified": true,
      "hasBond": 1,
      "hasBondSpecified": true,
      "hasJudgment": 1,
      "hasJudgmentSpecified": true,
      "hasInvstgn": 1,
      "hasInvstgnSpecified": true,
      "hasCustComp": 0,
      "hasCustCompSpecified": true,
      "hasTermination": 1,
      "hasTerminationSpecified": true
    }
  ]
}