{
  "Info": {
    "lastNm": "HAUSERMAN",
    "firstNm": "JOHN",
    "midNm": "DALE",
    "sufNm": null,
    "indvlPK": "2327246",
    "actvAGReg": 0,
    "link": "http://www.adviserinfo.sec.gov/IAPD/Individual/2327246"
  },
  "OthrNms": [],
  "CrntEmps": [
    {
      "CrntRgstns": [
        {
          "regAuth": 21,
          "regCat": 0,
          "st": 2,
          "stDt": "2008-08-27T00:00:00"
        }
      ],
      "BrnchOfLocs": [
        {
          "str1": "100 WEST ROAD",
          "str2": "SUITE 504",
          "city": "TOWSON",
          "state": 21,
          "stateSpecified": true,
          "cntry": "United States",
          "postlCd": "21204"
        }
      ],
      "orgNm": "FINANCIAL COUNCIL ASSET MANAGEMENT INC",
      "orgPK": "110748",
      "str1": "100 WEST ROAD",
      "str2": "SUITE 504",
      "city": "TOWSON",
      "state": 21,
      "stateSpecified": true,
      "cntry": "United States",
      "postlCd": "21204"
    },
    {
      "CrntRgstns": [
        {
          "regAuth": 21,
          "regCat": 0,
          "st": 2,
          "stDt": "2009-04-16T00:00:00"
        }
      ],
      "BrnchOfLocs": [
        {
          "str1": "100 WEST ROAD",
          "str2": "SUITE 504",
          "city": "TOWSON",
          "state": 21,
          "stateSpecified": true,
          "cntry": "United States",
          "postlCd": "21204"
        }
      ],
      "orgNm": "COMMONWEALTH FINANCIAL NETWORK",
      "orgPK": "8032",
      "str1": "29 SAWYER ROAD",
      "str2": null,
      "city": "WALTHAM",
      "state": 20,
      "stateSpecified": true,
      "cntry": "United States",
      "postlCd": "02453-3483"
    }
  ],
  "Exms": [
    {
      "exmCd": 2,
      "exmNm": "Uniform Investment Adviser Law Examination",
      "exmDt": "1994-05-27T00:00:00",
      "exmDtSpecified": true
    },
    {
      "exmCd": 0,
      "exmNm": "Uniform Securities Agent State Law Examination",
      "exmDt": "1998-09-10T00:00:00",
      "exmDtSpecified": true
    }
  ],
  "Dsgntns": [
    {
      "dsgntnNm": "Certified Financial Planner"
    }
  ],
  "PrevRgstns": [
    {
      "BrnchOfLocs": [
        {
          "city": "TOWSON",
          "state": 21,
          "stateSpecified": true
        },
        {
          "city": "TOWSON",
          "state": 21,
          "stateSpecified": true
        }
      ],
      "orgNm": "ADVANTAGE CAPITAL CORPORATION",
      "orgPK": "146",
      "regBeginDt": "1995-01-17T00:00:00",
      "regBeginDtSpecified": true,
      "regEndDt": "2009-02-27T00:00:00",
      "regEndDtSpecified": true
    },
    {
      "BrnchOfLocs": [
        {
          "city": "TOWSON",
          "state": 21,
          "stateSpecified": true
        }
      ],
      "orgNm": "FSC SECURITIES CORPORATION",
      "orgPK": "7461",
      "regBeginDt": "2009-02-27T00:00:00",
      "regBeginDtSpecified": true,
      "regEndDt": "2009-04-20T00:00:00",
      "regEndDtSpecified": true
    }
  ],
  "EmpHss": [
    {
      "fromDt": "09/1993",
      "toDt": "02/2009",
      "orgNm": "ADVANTAGE CAPITAL CORPORATION",
      "city": "TOWSON",
      "state": 21,
      "stateSpecified": true
    },
    {
      "fromDt": "01/1996",
      "toDt": null,
      "orgNm": "FINANCIAL COUNCIL ASSET MGMNT",
      "city": "TOWSON",
      "state": 21,
      "stateSpecified": true
    },
    {
      "fromDt": "02/2009",
      "toDt": "04/2009",
      "orgNm": "FSC SECURITIES CORPORATION",
      "city": "TOWSON",
      "state": 21,
      "stateSpecified": true
    },
    {
      "fromDt": "04/2009",
      "toDt": null,
      "orgNm": "COMMONWEALTH FINANCIAL NETWORK",
      "city": "WALTHAM",
      "state": 20,
      "stateSpecified": true
    }
  ],
  "OthrBuss": {
    "OthrBus": {
      "desc": "1. FIXED INSURANCE SALES AT BRANCH LOCATION, INVESTMENT RELATED. 2. RETIREMENT JOURNEY, INC. - PRESIDENT AND CEO OF ENTITY CREATED FOR SECURITIES, ADVISORY AND INSURANCE BUSINESS, INVESTMENT RELATED.  3. IAR OF RIA FINANCIAL COUNCIL ASST MANAGEMENT SPENDING APPROXIMATELY 20% OF HIS TIME PROVIDING ASSET MANAGEMENT SERVICES TO CLIENTS - INVESTMENT RELATED.  4. AUTHOR OF BOOK CONCERNING FINANCIAL PLANNING; INVESTMENT RELATED.  5. RENTAL PROPERTY, OWNER, NOT INVESTMENT RELATED, NOT CONDUCTED AT BRANCH."
    }
  },
  "DRPs": []
}