{
  "Info": {
    "lastNm": "ARDOLINO",
    "firstNm": "PETER",
    "midNm": "DANIEL",
    "sufNm": null,
    "indvlPK": "2333136",
    "actvAGReg": 0,
    "link": "http://www.adviserinfo.sec.gov/IAPD/Individual/2333136"
  },
  "OthrNms": [
    {
      "lastNm": "ARDOLINO",
      "firstNm": "PETER",
      "midNm": "DANIE",
      "sufNm": null
    }
  ],
  "CrntEmps": [
    {
      "CrntRgstns": [
        {
          "regAuth": 32,
          "regCat": 0,
          "st": 2,
          "stDt": "2010-05-13T00:00:00"
        },
        {
          "regAuth": 45,
          "regCat": 0,
          "st": 3,
          "stDt": "2010-12-01T00:00:00"
        }
      ],
      "BrnchOfLocs": [
        {
          "str1": "77 BROAD ST",
          "str2": null,
          "city": "RED BANK",
          "state": 32,
          "stateSpecified": true,
          "cntry": "United States",
          "postlCd": "07701"
        }
      ],
      "orgNm": "MERRILL LYNCH, PIERCE, FENNER & SMITH INCORPORATED",
      "orgPK": "7691",
      "str1": "ONE BRYANT PARK",
      "str2": null,
      "city": "NEW YORK",
      "state": 35,
      "stateSpecified": true,
      "cntry": "United States",
      "postlCd": "10036"
    }
  ],
  "Exms": [
    {
      "exmCd": 0,
      "exmNm": "Uniform Securities Agent State Law Examination",
      "exmDt": "1993-04-23T00:00:00",
      "exmDtSpecified": true
    },
    {
      "exmCd": 2,
      "exmNm": "Uniform Investment Adviser Law Examination",
      "exmDt": "1993-04-23T00:00:00",
      "exmDtSpecified": true
    }
  ],
  "Dsgntns": [],
  "PrevRgstns": [
    {
      "BrnchOfLocs": [
        {
          "city": "SHREWSBURY",
          "state": 32,
          "stateSpecified": true
        }
      ],
      "orgNm": "CITIGROUP GLOBAL MARKETS INC.",
      "orgPK": "7059",
      "regBeginDt": "1999-09-09T00:00:00",
      "regBeginDtSpecified": true,
      "regEndDt": "2009-06-01T00:00:00",
      "regEndDtSpecified": true
    },
    {
      "BrnchOfLocs": [
        {
          "city": "BERWYN",
          "state": 39,
          "stateSpecified": true
        },
        {
          "city": "SHREWSBURY",
          "state": 32,
          "stateSpecified": true
        }
      ],
      "orgNm": "MORGAN STANLEY",
      "orgPK": "149777",
      "regBeginDt": "2009-06-01T00:00:00",
      "regBeginDtSpecified": true,
      "regEndDt": "2010-05-07T00:00:00",
      "regEndDtSpecified": true
    }
  ],
  "EmpHss": [
    {
      "fromDt": "07/1993",
      "toDt": "06/2009",
      "orgNm": "CITIGROUP GLOBAL MARKETS INC",
      "city": "SHREWSBURY",
      "state": 32,
      "stateSpecified": true
    },
    {
      "fromDt": "07/1993",
      "toDt": "06/2009",
      "orgNm": "CITIGROUP GLOBAL MARKETS INC.",
      "city": "SHREWSBURY",
      "state": 32,
      "stateSpecified": true
    },
    {
      "fromDt": "06/2009",
      "toDt": "04/2010",
      "orgNm": "MORGAN STANLEY SMITH BARNEY",
      "city": "BERWYN",
      "state": 39,
      "stateSpecified": true
    },
    {
      "fromDt": "06/2009",
      "toDt": "04/2010",
      "orgNm": "MORGAN STANLEY SMITH BARNEY",
      "city": "SHREWSBURY",
      "state": 32,
      "stateSpecified": true
    },
    {
      "fromDt": "04/2010",
      "toDt": null,
      "orgNm": "MERRILL LYNCH",
      "city": "PRINCETON",
      "state": 32,
      "stateSpecified": true
    }
  ],
  "OthrBuss": {
    "OthrBus": null
  },
  "DRPs": []
}