{
  "Info": {
    "lastNm": "KING",
    "firstNm": "CHARLES",
    "midNm": "GEORGE",
    "sufNm": null,
    "indvlPK": "2345920",
    "actvAGReg": 1,
    "link": "http://www.adviserinfo.sec.gov/IAPD/Individual/2345920"
  },
  "OthrNms": [],
  "CrntEmps": [
    {
      "CrntRgstns": [
        {
          "regAuth": 4,
          "regCat": 0,
          "st": 2,
          "stDt": "2009-05-26T00:00:00"
        }
      ],
      "BrnchOfLocs": [
        {
          "str1": "SUITE 200",
          "str2": "238 NORTH CEDROS AVENUE",
          "city": "SOLANA BEACH",
          "state": 4,
          "stateSpecified": true,
          "cntry": "United States",
          "postlCd": "92075"
        }
      ],
      "orgNm": "DLK INVESTMENT MANAGEMENT",
      "orgPK": "149096",
      "str1": "SUITE 200",
      "str2": "238 NORTH CEDROS AVENUE",
      "city": "SOLANA BEACH",
      "state": 4,
      "stateSpecified": true,
      "cntry": "United States",
      "postlCd": "92075"
    }
  ],
  "Exms": [
    {
      "exmCd": 2,
      "exmNm": "Uniform Investment Adviser Law Examination",
      "exmDt": "1993-09-10T00:00:00",
      "exmDtSpecified": true
    }
  ],
  "Dsgntns": [],
  "PrevRgstns": [
    {
      "BrnchOfLocs": [
        {
          "city": "SAN DIEGO",
          "state": 4,
          "stateSpecified": true
        }
      ],
      "orgNm": "RICE HALL JAMES & ASSOCIATES",
      "orgPK": "104697",
      "regBeginDt": "1997-07-08T00:00:00",
      "regBeginDtSpecified": true,
      "regEndDt": "2003-03-27T00:00:00",
      "regEndDtSpecified": true
    },
    {
      "BrnchOfLocs": [
        {
          "city": "SAN DIEGO",
          "state": 4,
          "stateSpecified": true
        }
      ],
      "orgNm": "RICE HALL JAMES & ASSOCIATES LLC",
      "orgPK": "125410",
      "regBeginDt": "2003-03-28T00:00:00",
      "regBeginDtSpecified": true,
      "regEndDt": "2009-06-03T00:00:00",
      "regEndDtSpecified": true
    }
  ],
  "EmpHss": [
    {
      "fromDt": "02/1975",
      "toDt": "02/2009",
      "orgNm": "RICE HALL JAMES INVESTMENT MANAGEMENT",
      "city": "SAN DIEGO",
      "state": 4,
      "stateSpecified": true
    },
    {
      "fromDt": "03/2009",
      "toDt": null,
      "orgNm": "DLK INVESTMENT MANAGEMENT",
      "city": "SAN DIEGO",
      "state": 4,
      "stateSpecified": true
    }
  ],
  "OthrBuss": {
    "OthrBus": null
  },
  "DRPs": []
}