{
  "Info": {
    "lastNm": "STALEY",
    "firstNm": "RUSSELL",
    "midNm": "STEVEN",
    "sufNm": null,
    "indvlPK": "2351188",
    "actvAGReg": 0,
    "link": "http://www.adviserinfo.sec.gov/IAPD/Individual/2351188"
  },
  "OthrNms": [
    {
      "lastNm": "STALEY",
      "firstNm": "STEVE",
      "midNm": null,
      "sufNm": null
    }
  ],
  "CrntEmps": [
    {
      "CrntRgstns": [
        {
          "regAuth": 21,
          "regCat": 0,
          "st": 2,
          "stDt": "2000-02-08T00:00:00"
        },
        {
          "regAuth": 45,
          "regCat": 0,
          "st": 3,
          "stDt": "2005-07-08T00:00:00"
        },
        {
          "regAuth": 1,
          "regCat": 0,
          "st": 2,
          "stDt": "2006-04-06T00:00:00"
        },
        {
          "regAuth": 47,
          "regCat": 0,
          "st": 2,
          "stDt": "2010-08-27T00:00:00"
        },
        {
          "regAuth": 3,
          "regCat": 0,
          "st": 2,
          "stDt": "2010-08-30T00:00:00"
        },
        {
          "regAuth": 9,
          "regCat": 0,
          "st": 2,
          "stDt": "2010-08-31T00:00:00"
        },
        {
          "regAuth": 39,
          "regCat": 0,
          "st": 2,
          "stDt": "2010-08-31T00:00:00"
        },
        {
          "regAuth": 10,
          "regCat": 0,
          "st": 2,
          "stDt": "2011-05-19T00:00:00"
        },
        {
          "regAuth": 7,
          "regCat": 0,
          "st": 2,
          "stDt": "2012-02-21T00:00:00"
        },
        {
          "regAuth": 51,
          "regCat": 0,
          "st": 2,
          "stDt": "2012-11-21T00:00:00"
        },
        {
          "regAuth": 42,
          "regCat": 0,
          "st": 2,
          "stDt": "2013-07-30T00:00:00"
        },
        {
          "regAuth": 34,
          "regCat": 0,
          "st": 2,
          "stDt": "2014-08-27T00:00:00"
        },
        {
          "regAuth": 8,
          "regCat": 0,
          "st": 2,
          "stDt": "2014-09-25T00:00:00"
        },
        {
          "regAuth": 18,
          "regCat": 0,
          "st": 2,
          "stDt": "2015-03-09T00:00:00"
        },
        {
          "regAuth": 28,
          "regCat": 0,
          "st": 2,
          "stDt": "2016-04-06T00:00:00"
        }
      ],
      "BrnchOfLocs": [
        {
          "str1": "6200 OLD DOBBIN LANE",
          "str2": "SUITE 100",
          "city": "COLUMBIA",
          "state": 21,
          "stateSpecified": true,
          "cntry": "United States",
          "postlCd": "21045"
        }
      ],
      "orgNm": "AXA ADVISORS, LLC",
      "orgPK": "6627",
      "str1": "1290 AVENUE OF THE AMERICAS",
      "str2": null,
      "city": "NEW YORK",
      "state": 35,
      "stateSpecified": true,
      "cntry": "United States",
      "postlCd": "10104"
    }
  ],
  "Exms": [
    {
      "exmCd": 0,
      "exmNm": "Uniform Securities Agent State Law Examination",
      "exmDt": "1993-06-18T00:00:00",
      "exmDtSpecified": true
    },
    {
      "exmCd": 2,
      "exmNm": "Uniform Investment Adviser Law Examination",
      "exmDt": "1999-07-16T00:00:00",
      "exmDtSpecified": true
    }
  ],
  "Dsgntns": [],
  "PrevRgstns": [],
  "EmpHss": [
    {
      "fromDt": "09/1999",
      "toDt": null,
      "orgNm": "AXA ADVISORS, LLC",
      "city": "NEW YORK",
      "state": 35,
      "stateSpecified": true
    }
  ],
  "OthrBuss": {
    "OthrBus": {
      "desc": "OUTSIDE INSURANCE BROKERAGE BUSINESS.        CORNERSTONE ADVISORY, LLP, 1 E FRANKLIN ST., BALTIMORE, MD 21202, CASH SOLICITOR/PARTICIPATE IN QUARTERLY CLIENT REVIEWS, START DATE 2/1/10, 5 HRS MONTH, $45000 ANNUAL COMPENSATION.     NEW EMAIL ADDRESS BEING USED IS SSTALEY@WEALTHBRIDGEFP.COM  Notary Public in state of Maryland, Howard County, unpaid notary used only with assisting our producer group documentation, start date 5/25/2006, 1 hour per month, no compensation."
    }
  },
  "DRPs": [
    {
      "hasRegAction": 1,
      "hasRegActionSpecified": true,
      "hasCriminal": 1,
      "hasCriminalSpecified": true,
      "hasBankrupt": 1,
      "hasBankruptSpecified": true,
      "hasCivilJudc": 1,
      "hasCivilJudcSpecified": true,
      "hasBond": 1,
      "hasBondSpecified": true,
      "hasJudgment": 1,
      "hasJudgmentSpecified": true,
      "hasInvstgn": 1,
      "hasInvstgnSpecified": true,
      "hasCustComp": 0,
      "hasCustCompSpecified": true,
      "hasTermination": 1,
      "hasTerminationSpecified": true
    }
  ]
}