{
  "Info": {
    "lastNm": "FORDYCE",
    "firstNm": "STEPHEN",
    "midNm": "THOMAS",
    "sufNm": null,
    "indvlPK": "2354982",
    "actvAGReg": 0,
    "link": "http://www.adviserinfo.sec.gov/IAPD/Individual/2354982"
  },
  "OthrNms": [
    {
      "lastNm": "FORDYCE",
      "firstNm": "STEPHEN",
      "midNm": null,
      "sufNm": null
    },
    {
      "lastNm": "FORDYCE",
      "firstNm": "STEVE",
      "midNm": null,
      "sufNm": null
    }
  ],
  "CrntEmps": [
    {
      "CrntRgstns": [
        {
          "regAuth": 4,
          "regCat": 0,
          "st": 2,
          "stDt": "2015-01-09T00:00:00"
        },
        {
          "regAuth": 6,
          "regCat": 0,
          "st": 2,
          "stDt": "2015-01-09T00:00:00"
        },
        {
          "regAuth": 20,
          "regCat": 0,
          "st": 2,
          "stDt": "2015-01-26T00:00:00"
        },
        {
          "regAuth": 9,
          "regCat": 0,
          "st": 2,
          "stDt": "2015-05-13T00:00:00"
        },
        {
          "regAuth": 48,
          "regCat": 0,
          "st": 2,
          "stDt": "2015-07-10T00:00:00"
        },
        {
          "regAuth": 32,
          "regCat": 0,
          "st": 2,
          "stDt": "2015-07-15T00:00:00"
        },
        {
          "regAuth": 31,
          "regCat": 0,
          "st": 2,
          "stDt": "2015-10-20T00:00:00"
        },
        {
          "regAuth": 47,
          "regCat": 0,
          "st": 2,
          "stDt": "2015-10-20T00:00:00"
        },
        {
          "regAuth": 21,
          "regCat": 0,
          "st": 2,
          "stDt": "2015-10-22T00:00:00"
        },
        {
          "regAuth": 39,
          "regCat": 0,
          "st": 2,
          "stDt": "2015-10-22T00:00:00"
        },
        {
          "regAuth": 5,
          "regCat": 0,
          "st": 2,
          "stDt": "2016-07-05T00:00:00"
        }
      ],
      "BrnchOfLocs": [
        {
          "str1": "265 CHURCH STREET",
          "str2": "SUITE 1004",
          "city": "NEW HAVEN",
          "state": 6,
          "stateSpecified": true,
          "cntry": "United States",
          "postlCd": "06510"
        },
        {
          "str1": "540 MADISON AVE.",
          "str2": "9TH FLOOR",
          "city": "NEW YORK",
          "state": 35,
          "stateSpecified": true,
          "cntry": "United States",
          "postlCd": "10022"
        }
      ],
      "orgNm": "SNOWDEN CAPITAL ADVISORS LLC",
      "orgPK": "157299",
      "str1": "540 MADISON AVE.",
      "str2": "9TH FLOOR",
      "city": "NEW YORK",
      "state": 35,
      "stateSpecified": true,
      "cntry": "United States",
      "postlCd": "10022"
    }
  ],
  "Exms": [
    {
      "exmCd": 0,
      "exmNm": "Uniform Securities Agent State Law Examination",
      "exmDt": "1993-07-14T00:00:00",
      "exmDtSpecified": true
    },
    {
      "exmCd": 2,
      "exmNm": "Uniform Investment Adviser Law Examination",
      "exmDt": "1993-07-29T00:00:00",
      "exmDtSpecified": true
    }
  ],
  "Dsgntns": [],
  "PrevRgstns": [
    {
      "BrnchOfLocs": [
        {
          "city": "NEW HAVEN",
          "state": 6,
          "stateSpecified": true
        },
        {
          "city": "NEW HAVEN",
          "state": 6,
          "stateSpecified": true
        }
      ],
      "orgNm": "MERRILL LYNCH, PIERCE, FENNER & SMITH INCORPORATED",
      "orgPK": "7691",
      "regBeginDt": "1994-02-25T00:00:00",
      "regBeginDtSpecified": true,
      "regEndDt": "2013-09-19T00:00:00",
      "regEndDtSpecified": true
    },
    {
      "BrnchOfLocs": [
        {
          "city": "NEW HAVEN",
          "state": 6,
          "stateSpecified": true
        },
        {
          "city": "NEW YORK",
          "state": 35,
          "stateSpecified": true
        }
      ],
      "orgNm": "SNOWDEN CAPITAL ADVISORS LLC",
      "orgPK": "157299",
      "regBeginDt": "2013-12-12T00:00:00",
      "regBeginDtSpecified": true,
      "regEndDt": "2014-12-31T00:00:00",
      "regEndDtSpecified": true
    }
  ],
  "EmpHss": [
    {
      "fromDt": "05/1993",
      "toDt": "09/2013",
      "orgNm": "MERRILL LYNCH, PIERCE, FENNER & SMITH INCORPORATED",
      "city": "NEW HAVEN",
      "state": 6,
      "stateSpecified": true
    },
    {
      "fromDt": "09/2013",
      "toDt": null,
      "orgNm": "SNOWDEN ACCOUNT SERVICES, INC.",
      "city": "NEW YORK",
      "state": 35,
      "stateSpecified": true
    },
    {
      "fromDt": "09/2013",
      "toDt": null,
      "orgNm": "SNOWDEN CAPITAL ADVISORS LLC",
      "city": "NEW YORK",
      "state": 35,
      "stateSpecified": true
    }
  ],
  "OthrBuss": {
    "OthrBus": {
      "desc": "1) SNOWDEN CAPITAL ADVISORS LLC; INVESTMENT RELATED; 540 MADISON AVENUE, 9TH FL, NEW YORK, NY 10022; WEALTH MANAGEMENT, INVESTMENT ADVISORY; PARTNER, MANAGING DIRECTOR; 09/16/2013; 160 HRS/MONTH; 130 HRS DURING TRADING; PARTNER, MANAGING  DIRECTOR, PRIVATE WEALTH ADVISOR 2) SUSAN FORDYCE DELL IRREVOCABLE INSURANCE TRUST; NOT INVESTMENT RELATED; 90 CARTER  HILL ROAD CLINTON CT 06413; INSURANCE TRUST ; FINANCIAL ADVISOR, ASSISTANT VP; 12/7/05; 0 HRS/MONTH; 0 HRS DURING TRADING;  PAY ANNUAL PREMIUM, SEND ANNUAL LETTERS, DISBURSE FUNDS IN THE FUTURE 3) SAINT BERNARD HIGH SCHOOL; NOT INVESTMENT  RELATED; 1593 NORWICH-NEW LONDON TURNPIKE, MONTVILLE, CT 06382; EDUCATION; TRUSTEE; 09/2010 2 HRS/MONTH; 0 HRS DURING  TRADING; ADVISORY; SNOWDEN INSURANCE SERVICES LLC;INVESTMENT RELATED;540 MADISON AVE,9TH FLOOR,NEW YORK,NY 10022 INSURANCE AGENCY; INSURANCE AGENT;03/15; 5 HRS/MONTH;5 HRS DURING TRADING; INSURANCE AGENT SELLING INSURANCE PRODUCTS"
    }
  },
  "DRPs": []
}