{
  "Info": {
    "lastNm": "GAMMON",
    "firstNm": "CHRISTOPHER",
    "midNm": "DAVID",
    "sufNm": null,
    "indvlPK": "2354523",
    "actvAGReg": 0,
    "link": "http://www.adviserinfo.sec.gov/IAPD/Individual/2354523"
  },
  "OthrNms": [
    {
      "lastNm": "GAMMON",
      "firstNm": "CHRIS",
      "midNm": null,
      "sufNm": null
    }
  ],
  "CrntEmps": [
    {
      "CrntRgstns": [
        {
          "regAuth": 45,
          "regCat": 0,
          "st": 2,
          "stDt": "2004-05-13T00:00:00"
        },
        {
          "regAuth": 34,
          "regCat": 0,
          "st": 2,
          "stDt": "2007-07-18T00:00:00"
        }
      ],
      "BrnchOfLocs": [
        {
          "str1": "10205 WESTHEIMER",
          "str2": "SUITE 500",
          "city": "HOUSTON",
          "state": 45,
          "stateSpecified": true,
          "cntry": "United States",
          "postlCd": "77042"
        }
      ],
      "orgNm": "IMS FINANCIAL ADVISORS, INC.",
      "orgPK": "130914",
      "str1": "WEST8 TOWER",
      "str2": "10205 WESTHEIMER, SUITE 500",
      "city": "HOUSTON",
      "state": 45,
      "stateSpecified": true,
      "cntry": "United States",
      "postlCd": "77042"
    }
  ],
  "Exms": [
    {
      "exmCd": 0,
      "exmNm": "Uniform Securities Agent State Law Examination",
      "exmDt": "1993-06-03T00:00:00",
      "exmDtSpecified": true
    }
  ],
  "Dsgntns": [],
  "PrevRgstns": [],
  "EmpHss": [
    {
      "fromDt": "11/1999",
      "toDt": null,
      "orgNm": "IMS SECURITIES, INC",
      "city": "HOUSTON",
      "state": 45,
      "stateSpecified": true
    },
    {
      "fromDt": "01/2000",
      "toDt": null,
      "orgNm": "IMS FINANCIAL ADVISORS, INC.",
      "city": "HOUSTON",
      "state": 45,
      "stateSpecified": true
    },
    {
      "fromDt": "02/2010",
      "toDt": "08/2011",
      "orgNm": "ACUMEN SECURITIES, LLC",
      "city": "HOUSTON",
      "state": 45,
      "stateSpecified": true
    }
  ],
  "OthrBuss": {
    "OthrBus": {
      "desc": "DG CAPITAL FUNDING, LLC, 22322 GRAND CORNER DRIVE, SUITE 150, KATY, TX 77494,  NON-INVESTMENT RELATED, SHORT TERM LOANS, CFO, PERFORM ACCOUNTING DUTIES, START DATE: 04/2016, 1 HR/WK, NONE DURING TRADING HRS;    EXCLUSIVE PERSONAL SERVICES, LLC, 22322 GRAND CORNER DRIVE, SUITE 150, KATY, TX 77494, NON-INVESTMENT RELATED, HOME HEALTHCARE, CFO, PERFORM ACCOUNTING DUTIES, START DATE: 04/2016, 3 HRS/WK, NONE DURING TRADING HRS."
    }
  },
  "DRPs": [
    {
      "hasRegAction": 1,
      "hasRegActionSpecified": true,
      "hasCriminal": 1,
      "hasCriminalSpecified": true,
      "hasBankrupt": 1,
      "hasBankruptSpecified": true,
      "hasCivilJudc": 1,
      "hasCivilJudcSpecified": true,
      "hasBond": 1,
      "hasBondSpecified": true,
      "hasJudgment": 1,
      "hasJudgmentSpecified": true,
      "hasInvstgn": 1,
      "hasInvstgnSpecified": true,
      "hasCustComp": 0,
      "hasCustCompSpecified": true,
      "hasTermination": 1,
      "hasTerminationSpecified": true
    }
  ]
}