{
  "Info": {
    "lastNm": "Dvorak",
    "firstNm": "Corinne",
    "midNm": "Howatt",
    "sufNm": null,
    "indvlPK": "2357958",
    "actvAGReg": 0,
    "link": "http://www.adviserinfo.sec.gov/IAPD/Individual/2357958"
  },
  "OthrNms": [
    {
      "lastNm": "DVORAK",
      "firstNm": "CORINNE",
      "midNm": "HOWATT",
      "sufNm": null
    },
    {
      "lastNm": "HOWATT",
      "firstNm": "CORINNE",
      "midNm": "JANE",
      "sufNm": null
    },
    {
      "lastNm": "SUDA",
      "firstNm": "CORI",
      "midNm": null,
      "sufNm": null
    },
    {
      "lastNm": "SUDA",
      "firstNm": "CORINNE",
      "midNm": "HOWATT",
      "sufNm": null
    },
    {
      "lastNm": "SUDA",
      "firstNm": "CORINNE",
      "midNm": "HOWATT",
      "sufNm": null
    }
  ],
  "CrntEmps": [
    {
      "CrntRgstns": [
        {
          "regAuth": 29,
          "regCat": 0,
          "st": 2,
          "stDt": "2009-09-21T00:00:00"
        }
      ],
      "BrnchOfLocs": [
        {
          "str1": "732 HILL AVE",
          "str2": null,
          "city": "GRAFTON",
          "state": 29,
          "stateSpecified": true,
          "cntry": "United States",
          "postlCd": "58237-1448"
        }
      ],
      "orgNm": "EDWARD JONES",
      "orgPK": "250",
      "str1": "12555 MANCHESTER RD",
      "str2": null,
      "city": "ST. LOUIS",
      "state": 25,
      "stateSpecified": true,
      "cntry": "United States",
      "postlCd": "63131"
    }
  ],
  "Exms": [
    {
      "exmCd": 0,
      "exmNm": "Uniform Securities Agent State Law Examination",
      "exmDt": "1993-06-18T00:00:00",
      "exmDtSpecified": true
    },
    {
      "exmCd": 2,
      "exmNm": "Uniform Investment Adviser Law Examination",
      "exmDt": "1997-12-03T00:00:00",
      "exmDtSpecified": true
    }
  ],
  "Dsgntns": [],
  "PrevRgstns": [
    {
      "BrnchOfLocs": [
        {
          "city": "GRAFTON",
          "state": 29,
          "stateSpecified": true
        },
        {
          "city": "GRAFTON",
          "state": 29,
          "stateSpecified": true
        },
        {
          "city": "LARIMORE",
          "state": 29,
          "stateSpecified": true
        }
      ],
      "orgNm": "INVEST FINANCIAL CORPORATION",
      "orgPK": "12984",
      "regBeginDt": "1999-08-02T00:00:00",
      "regBeginDtSpecified": true,
      "regEndDt": "2009-08-07T00:00:00",
      "regEndDtSpecified": true
    },
    {
      "BrnchOfLocs": [
        {
          "city": "GRAFTON",
          "state": 29,
          "stateSpecified": true
        }
      ],
      "orgNm": "RAYMOND JAMES FINANCIAL SERVICES ADVISORS, INC",
      "orgPK": "149018",
      "regBeginDt": "2009-08-17T00:00:00",
      "regBeginDtSpecified": true,
      "regEndDt": "2009-09-11T00:00:00",
      "regEndDtSpecified": true
    }
  ],
  "EmpHss": [
    {
      "fromDt": "04/1993",
      "toDt": "08/2009",
      "orgNm": "INVEST FINANCIAL CORPORATION",
      "city": "GRAFTON",
      "state": 29,
      "stateSpecified": true
    },
    {
      "fromDt": "08/2009",
      "toDt": "09/2009",
      "orgNm": "RAYMOND JAMES FINANCIAL SERVICES",
      "city": "GRAFTON",
      "state": 29,
      "stateSpecified": true
    },
    {
      "fromDt": "09/2009",
      "toDt": null,
      "orgNm": "EDWARD JONES",
      "city": "ST LOUIS",
      "state": 25,
      "stateSpecified": true
    }
  ],
  "OthrBuss": {
    "OthrBus": {
      "desc": "CHD INS. AGENCY INC. S-CORPORATION  GRAFTON, ND 58237  1/1/2013  VICE PRESIDENT    CHD Ins. Agency Inc.  Type of business: s-corporation  Grafton, ND  Start date: 1/1/2013  Vice President  Hours per week: 0  Hours during trading: 0  No Responsibility"
    }
  },
  "DRPs": []
}