{
  "Info": {
    "lastNm": "ALEXANDER",
    "firstNm": "JEFFREY",
    "midNm": "MARC",
    "sufNm": null,
    "indvlPK": "2362864",
    "actvAGReg": 0,
    "link": "http://www.adviserinfo.sec.gov/IAPD/Individual/2362864"
  },
  "OthrNms": [],
  "CrntEmps": [
    {
      "CrntRgstns": [
        {
          "regAuth": 41,
          "regCat": 0,
          "st": 2,
          "stDt": "2015-07-13T00:00:00"
        }
      ],
      "BrnchOfLocs": [
        {
          "str1": "30 BRAINTREE HILL OFFICE PARK",
          "str2": "SUITE 201",
          "city": "BRAINTREE",
          "state": 20,
          "stateSpecified": true,
          "cntry": "United States",
          "postlCd": "02184"
        },
        {
          "str1": "56 BRIDGE STREET",
          "str2": null,
          "city": "NEWPORT",
          "state": 41,
          "stateSpecified": true,
          "cntry": "United States",
          "postlCd": "02840"
        }
      ],
      "orgNm": "US FINANCIAL ADVISORS, LLC",
      "orgPK": "108763",
      "str1": "30 BRAINTREE HILL OFFICE PARK",
      "str2": "SUITE 201",
      "city": "BRAINTREE",
      "state": 20,
      "stateSpecified": true,
      "cntry": "United States",
      "postlCd": "02184"
    }
  ],
  "Exms": [
    {
      "exmCd": 0,
      "exmNm": "Uniform Securities Agent State Law Examination",
      "exmDt": "1994-01-12T00:00:00",
      "exmDtSpecified": true
    },
    {
      "exmCd": 3,
      "exmNm": "Uniform Combined State Law Examination",
      "exmDt": "2008-07-07T00:00:00",
      "exmDtSpecified": true
    }
  ],
  "Dsgntns": [],
  "PrevRgstns": [
    {
      "BrnchOfLocs": [
        {
          "city": "COCOA BEACH",
          "state": 9,
          "stateSpecified": true
        }
      ],
      "orgNm": "AMERIPRISE FINANCIAL SERVICES, INC.",
      "orgPK": "6363",
      "regBeginDt": "1994-01-03T00:00:00",
      "regBeginDtSpecified": true,
      "regEndDt": "2005-01-25T00:00:00",
      "regEndDtSpecified": true
    },
    {
      "BrnchOfLocs": [
        {
          "city": "NEW BEDFORD",
          "state": 20,
          "stateSpecified": true
        }
      ],
      "orgNm": "BANC OF AMERICA INVESTMENT SERVICES, INC.",
      "orgPK": "16361",
      "regBeginDt": "2008-07-08T00:00:00",
      "regBeginDtSpecified": true,
      "regEndDt": "2009-03-31T00:00:00",
      "regEndDtSpecified": true
    },
    {
      "BrnchOfLocs": [
        {
          "city": "MIDDLEBORO",
          "state": 20,
          "stateSpecified": true
        },
        {
          "city": "SAN ANTONIO",
          "state": 45,
          "stateSpecified": true
        }
      ],
      "orgNm": "INVESTMENT PROFESSIONALS, INC.",
      "orgPK": "30184",
      "regBeginDt": "2009-04-06T00:00:00",
      "regBeginDtSpecified": true,
      "regEndDt": "2010-03-08T00:00:00",
      "regEndDtSpecified": true
    },
    {
      "BrnchOfLocs": [
        {
          "city": "FAIRHAVEN",
          "state": 20,
          "stateSpecified": true
        },
        {
          "city": "MIDDLETOWN",
          "state": 41,
          "stateSpecified": true
        },
        {
          "city": "MIDDLETOWN",
          "state": 41,
          "stateSpecified": true
        },
        {
          "city": "MIDDLETOWN",
          "state": 41,
          "stateSpecified": true
        },
        {
          "city": "NEW BEDFORD",
          "state": 20,
          "stateSpecified": true
        },
        {
          "city": "NEWPORT",
          "state": 41,
          "stateSpecified": true
        },
        {
          "city": "NEWPORT",
          "state": 41,
          "stateSpecified": true
        },
        {
          "city": "NEWPORT",
          "state": 41,
          "stateSpecified": true
        },
        {
          "city": "SO. DARTMOUTH",
          "state": 20,
          "stateSpecified": true
        }
      ],
      "orgNm": "CITIZENS SECURITIES, INC.",
      "orgPK": "39550",
      "regBeginDt": "2010-02-22T00:00:00",
      "regBeginDtSpecified": true,
      "regEndDt": "2015-07-09T00:00:00",
      "regEndDtSpecified": true
    }
  ],
  "EmpHss": [
    {
      "fromDt": "02/2005",
      "toDt": "05/2008",
      "orgNm": "SOVEREIGN BANK",
      "city": "FALL RIVER",
      "state": 20,
      "stateSpecified": true
    },
    {
      "fromDt": "05/2008",
      "toDt": "03/2009",
      "orgNm": "BANC OF AMERICA INVESTMENT SERVICES, INC.",
      "city": "NEW BEDFORD",
      "state": 20,
      "stateSpecified": true
    },
    {
      "fromDt": "03/2009",
      "toDt": "02/2010",
      "orgNm": "INVESTMENT PROFESSIONALS, INC.",
      "city": "MIDDLEBORO",
      "state": 20,
      "stateSpecified": true
    },
    {
      "fromDt": "02/2010",
      "toDt": "07/2015",
      "orgNm": "CCO INVESTMENT SERVICES CORP",
      "city": "NEWPORT",
      "state": 41,
      "stateSpecified": true
    },
    {
      "fromDt": "07/2015",
      "toDt": null,
      "orgNm": "LPL FINANCIAL LLC",
      "city": "NEWPORT",
      "state": 41,
      "stateSpecified": true
    },
    {
      "fromDt": "07/2015",
      "toDt": null,
      "orgNm": "U.S. FINANCIAL ADVISORS, LLC",
      "city": "BRAINTREE",
      "state": 20,
      "stateSpecified": true
    }
  ],
  "OthrBuss": {
    "OthrBus": {
      "desc": "1. 07/08/2015 - US Insurance Brokers - INV REL - Non-Variable Insurance - START 6/3/2015 - 1% TIME SPENT - Lines of insurance include disability/accident & health, life, and ltc    2. 07/08/2015 - US Wealth Management - INV REL - AT REPORTED LOCATION - DBA for LPL Business (entity for LPL business) - START 6/3/2015     3. 10/07/2015 - US Financial Advisors, LLC * Registered Investment Advisor Hybrid * (Hybrid) US Financial Advisors, LLC * INV REL * AT REPORTED BUSINESS LOCATION(S) START 6/17/2015 * TIME SPENT 50%    4. 10/28/2015 - US Wealth Management Newport - INV REL - 56 Bridge Street Newport, RI 02840 - DBA for LPL Business (entity for LPL business) - START 08/01/2015 - This is a DBA for Business under RIA - US Financial Advisors, Insurance - US Insurance Brokers and Brokerage - LPL Financial"
    }
  },
  "DRPs": [
    {
      "hasRegAction": 1,
      "hasRegActionSpecified": true,
      "hasCriminal": 1,
      "hasCriminalSpecified": true,
      "hasBankrupt": 1,
      "hasBankruptSpecified": true,
      "hasCivilJudc": 1,
      "hasCivilJudcSpecified": true,
      "hasBond": 1,
      "hasBondSpecified": true,
      "hasJudgment": 1,
      "hasJudgmentSpecified": true,
      "hasInvstgn": 1,
      "hasInvstgnSpecified": true,
      "hasCustComp": 0,
      "hasCustCompSpecified": true,
      "hasTermination": 1,
      "hasTerminationSpecified": true
    }
  ]
}