{
  "Info": {
    "lastNm": "HAVENS",
    "firstNm": "MATTHEW",
    "midNm": "PHILIP",
    "sufNm": null,
    "indvlPK": "2362578",
    "actvAGReg": 0,
    "link": "http://www.adviserinfo.sec.gov/IAPD/Individual/2362578"
  },
  "OthrNms": [
    {
      "lastNm": "HAVENS",
      "firstNm": "MATT",
      "midNm": null,
      "sufNm": null
    }
  ],
  "CrntEmps": [
    {
      "CrntRgstns": [
        {
          "regAuth": 20,
          "regCat": 0,
          "st": 2,
          "stDt": "2013-04-16T00:00:00"
        }
      ],
      "BrnchOfLocs": [
        {
          "str1": "101 LONGWATER CIRCLE",
          "str2": "STE 103",
          "city": "NORWELL",
          "state": 20,
          "stateSpecified": true,
          "cntry": "United States",
          "postlCd": "02061"
        }
      ],
      "orgNm": "CAMBRIDGE INVESTMENT RESEARCH ADVISORS, INC.",
      "orgPK": "134139",
      "str1": "1776 PLEASANT PLAIN RD.",
      "str2": null,
      "city": "FAIRFIELD",
      "state": 13,
      "stateSpecified": true,
      "cntry": "United States",
      "postlCd": "52556-8757"
    },
    {
      "CrntRgstns": [
        {
          "regAuth": 20,
          "regCat": 0,
          "st": 2,
          "stDt": "2010-01-05T00:00:00"
        }
      ],
      "BrnchOfLocs": [
        {
          "str1": "101 LONGWATER CIRCLE",
          "str2": "SUITE 103",
          "city": "NORWELL",
          "state": 20,
          "stateSpecified": true,
          "cntry": "United States",
          "postlCd": "02061"
        }
      ],
      "orgNm": "GLOBAL VISION ADVISORS",
      "orgPK": "145200",
      "str1": "101 LONGWATER CIRCLE",
      "str2": "UNIT 103",
      "city": "NORWELL",
      "state": 20,
      "stateSpecified": true,
      "cntry": "United States",
      "postlCd": "02061"
    }
  ],
  "Exms": [
    {
      "exmCd": 0,
      "exmNm": "Uniform Securities Agent State Law Examination",
      "exmDt": "1993-08-05T00:00:00",
      "exmDtSpecified": true
    },
    {
      "exmCd": 2,
      "exmNm": "Uniform Investment Adviser Law Examination",
      "exmDt": "1995-05-02T00:00:00",
      "exmDtSpecified": true
    }
  ],
  "Dsgntns": [
    {
      "dsgntnNm": "Certified Financial Planner"
    }
  ],
  "PrevRgstns": [
    {
      "BrnchOfLocs": [
        {
          "city": "HINGHAM",
          "state": 20,
          "stateSpecified": true
        },
        {
          "city": "NORWELL",
          "state": 20,
          "stateSpecified": true
        }
      ],
      "orgNm": "A. G. EDWARDS & SONS, INC.",
      "orgPK": "4",
      "regBeginDt": "2004-02-27T00:00:00",
      "regBeginDtSpecified": true,
      "regEndDt": "2007-06-18T00:00:00",
      "regEndDtSpecified": true
    },
    {
      "BrnchOfLocs": [
        {
          "city": "HINGHAM",
          "state": 20,
          "stateSpecified": true
        }
      ],
      "orgNm": "CAMBRIDGE INVESTMENT RESEARCH ADVISORS, INC.",
      "orgPK": "134139",
      "regBeginDt": "2007-08-09T00:00:00",
      "regBeginDtSpecified": true,
      "regEndDt": "2011-12-31T00:00:00",
      "regEndDtSpecified": true
    }
  ],
  "EmpHss": [
    {
      "fromDt": "12/1998",
      "toDt": "06/2007",
      "orgNm": "A. G. EDWARDS & SONS, INC.",
      "city": "NEWTON LOWER FALLS",
      "state": 20,
      "stateSpecified": true
    },
    {
      "fromDt": "06/2007",
      "toDt": "12/2011",
      "orgNm": "CAMBRIDGE INVESTMENT RESEARCH ADVISORS, INC",
      "city": "FAIRFIELD",
      "state": 13,
      "stateSpecified": true
    },
    {
      "fromDt": "06/2007",
      "toDt": null,
      "orgNm": "CAMBRIDGE INVESTMENT RESEARCH, INC",
      "city": "FAIRFIELD",
      "state": 13,
      "stateSpecified": true
    },
    {
      "fromDt": "06/2007",
      "toDt": null,
      "orgNm": "GLOBAL VISION ADVISORS",
      "city": "HINGHAM",
      "state": 20,
      "stateSpecified": true
    },
    {
      "fromDt": "01/2010",
      "toDt": null,
      "orgNm": "GLOBAL VISION ADVISORS",
      "city": "HINGHAM",
      "state": 20,
      "stateSpecified": true
    },
    {
      "fromDt": "01/2013",
      "toDt": null,
      "orgNm": "CAMBRIDGE INVESTMENT RESEARCH ADVISORS, INC",
      "city": "FAIRFIELD",
      "state": 13,
      "stateSpecified": true
    }
  ],
  "OthrBuss": {
    "OthrBus": {
      "desc": "1)INDEPENDENT INSURANCE AGENT FOR VARIOUS INDEPENDENT INSURANCE COMPANIES.  2)S SHORE COUNTRY CLUB, 210 CENTRAL ST, HINGHAM, MA 02043. NON INVESTMENT RELATED. BEGAN 6/06 AS MEMBER ON COMMITTEE AND OVERSEES MANAGEMENT. DEVOTES 4 HRS/MNTH, NONE DURING TRADING.   3) HS DENT FOUNDATION ADVISOR NETWORK, 15310 AMBERLY DR, SUITE 390, TAMPA, FL  33647, ASSOCIATE MEMBER SINCE 1/1/09, I AM PAYING FOR ECONOMIC RESEARCH FROM THIS ORGANIZATION. I GET A MONTHOLY NEWSLETTER, A MONTHLY CONFERENCE CALL AND TWO CONFERENCES PER YEAR PLUS ACCESS TO THE ORGANIZATION FOR RESEARCH, INVESTMENT RELATED 2 HOURS PER WEEK DURING TRADING.  4)SOUTH SHORE HOSPITAL 55 FOGG RD SOUTH WEYMOUTH, MA 02190. BEGAN 1/1/11 ASA CO-CHAIR; BOARD MEMBER AND CURRENT CO-CHAIR OF SOUTH SHORE HOSPITAL LINKS COMMITTEE. RAISING FUNDS FOR THE BENEFIT OF PEDIATRICS DEPARTMENT. DEVOTES 2 HRS/MNTH. NONE DURING TRADING. NON-PROFIT ORGANIZATION."
    }
  },
  "DRPs": [
    {
      "hasRegAction": 1,
      "hasRegActionSpecified": true,
      "hasCriminal": 1,
      "hasCriminalSpecified": true,
      "hasBankrupt": 1,
      "hasBankruptSpecified": true,
      "hasCivilJudc": 1,
      "hasCivilJudcSpecified": true,
      "hasBond": 1,
      "hasBondSpecified": true,
      "hasJudgment": 1,
      "hasJudgmentSpecified": true,
      "hasInvstgn": 1,
      "hasInvstgnSpecified": true,
      "hasCustComp": 0,
      "hasCustCompSpecified": true,
      "hasTermination": 1,
      "hasTerminationSpecified": true
    }
  ]
}