{
  "Info": {
    "lastNm": "RIENAS",
    "firstNm": "RONALD",
    "midNm": "ALSTON",
    "sufNm": null,
    "indvlPK": "2367794",
    "actvAGReg": 0,
    "link": "http://www.adviserinfo.sec.gov/IAPD/Individual/2367794"
  },
  "OthrNms": [
    {
      "lastNm": "RAINUS",
      "firstNm": "RONALD",
      "midNm": "ALSTON",
      "sufNm": null
    },
    {
      "lastNm": "RIENAS",
      "firstNm": "RON",
      "midNm": null,
      "sufNm": null
    }
  ],
  "CrntEmps": [
    {
      "CrntRgstns": [
        {
          "regAuth": 32,
          "regCat": 0,
          "st": 2,
          "stDt": "2011-05-04T00:00:00"
        },
        {
          "regAuth": 6,
          "regCat": 0,
          "st": 2,
          "stDt": "2011-06-29T00:00:00"
        }
      ],
      "BrnchOfLocs": [
        {
          "str1": "250 PEHLE AVE STE 500",
          "str2": "PARK 80 WEST, PLAZA TWO",
          "city": "SADDLE BROOK",
          "state": 32,
          "stateSpecified": true,
          "cntry": "United States",
          "postlCd": "07663"
        },
        {
          "str1": "399 Knollwood Rd Ste 212",
          "str2": null,
          "city": "White Plains",
          "state": 35,
          "stateSpecified": true,
          "cntry": "United States",
          "postlCd": "10603"
        }
      ],
      "orgNm": "AMERIPRISE FINANCIAL SERVICES, INC.",
      "orgPK": "6363",
      "str1": "707 2ND AVENUE SOUTH",
      "str2": null,
      "city": "MINNEAPOLIS",
      "state": 24,
      "stateSpecified": true,
      "cntry": "United States",
      "postlCd": "55402"
    }
  ],
  "Exms": [
    {
      "exmCd": 0,
      "exmNm": "Uniform Securities Agent State Law Examination",
      "exmDt": "1993-08-10T00:00:00",
      "exmDtSpecified": true
    },
    {
      "exmCd": 2,
      "exmNm": "Uniform Investment Adviser Law Examination",
      "exmDt": "1998-06-23T00:00:00",
      "exmDtSpecified": true
    }
  ],
  "Dsgntns": [],
  "PrevRgstns": [
    {
      "BrnchOfLocs": [
        {
          "city": "ROCHELLE",
          "state": 35,
          "stateSpecified": true
        }
      ],
      "orgNm": "QUICK & REILLY, INC.",
      "orgPK": "11217",
      "regBeginDt": "2002-11-25T00:00:00",
      "regBeginDtSpecified": true,
      "regEndDt": "2004-10-20T00:00:00",
      "regEndDtSpecified": true
    },
    {
      "BrnchOfLocs": [
        {
          "city": "NEW ROCHELLE",
          "state": 35,
          "stateSpecified": true
        },
        {
          "city": "NEW ROCHELLE",
          "state": 35,
          "stateSpecified": true
        },
        {
          "city": "YONKERS",
          "state": 35,
          "stateSpecified": true
        },
        {
          "city": "YONKERS",
          "state": 35,
          "stateSpecified": true
        },
        {
          "city": "YONKERS",
          "state": 35,
          "stateSpecified": true
        }
      ],
      "orgNm": "BANC OF AMERICA INVESTMENT SERVICES, INC.",
      "orgPK": "16361",
      "regBeginDt": "2004-10-20T00:00:00",
      "regBeginDtSpecified": true,
      "regEndDt": "2009-10-23T00:00:00",
      "regEndDtSpecified": true
    },
    {
      "BrnchOfLocs": [
        {
          "city": "GREENWICH",
          "state": 6,
          "stateSpecified": true
        },
        {
          "city": "NEW ROCHELLE",
          "state": 35,
          "stateSpecified": true
        },
        {
          "city": "NEW ROCHELLE",
          "state": 35,
          "stateSpecified": true
        },
        {
          "city": "WHITE PLAINS",
          "state": 35,
          "stateSpecified": true
        },
        {
          "city": "YONKERS",
          "state": 35,
          "stateSpecified": true
        }
      ],
      "orgNm": "MERRILL LYNCH, PIERCE, FENNER & SMITH INCORPORATED",
      "orgPK": "7691",
      "regBeginDt": "2009-10-23T00:00:00",
      "regBeginDtSpecified": true,
      "regEndDt": "2011-05-03T00:00:00",
      "regEndDtSpecified": true
    }
  ],
  "EmpHss": [
    {
      "fromDt": "10/1993",
      "toDt": "04/2011",
      "orgNm": "BANK OF AMERICA, N.A.",
      "city": "NEW YORK",
      "state": 35,
      "stateSpecified": true
    },
    {
      "fromDt": "10/2004",
      "toDt": "04/2011",
      "orgNm": "BANC OF AMERICA INSURANCE SERVICES, INC.",
      "city": "YONKERS",
      "state": 35,
      "stateSpecified": true
    },
    {
      "fromDt": "10/2004",
      "toDt": "04/2011",
      "orgNm": "BANC OF AMERICA INVESTMENT SERVICES, INC.",
      "city": "NEW ROCHELLE",
      "state": 35,
      "stateSpecified": true
    },
    {
      "fromDt": "10/2009",
      "toDt": "04/2011",
      "orgNm": "MERRILL LYNCH, PIERCE, FENNER & SMITH INCORPORATED",
      "city": "NEW ROCHELLE",
      "state": 35,
      "stateSpecified": true
    },
    {
      "fromDt": "04/2011",
      "toDt": null,
      "orgNm": "AMERIPRISE FINANCIAL SERVICES INC",
      "city": "YONKERS",
      "state": 35,
      "stateSpecified": true
    }
  ],
  "OthrBuss": {
    "OthrBus": {
      "desc": "REAL ESTATE OWNERSHIP; COMMERCIAL ; FL 33410; JUNE 2007.   BUSINESS OWNERSHIP ; RAR & JDB CORP; MANAGING DIR; ESTABLISHED TO MANAGE PRACTICE PAY STAFF AND EXPENSES; YONKERS, NY 10704; APRIL 2011; 1-9 HOURS PER MONTH.    INDEPENDENT INSURANCE BROKERING; AMERICAN GENERAL; March 2012.  INDEPENDENT INSURANCE BROKERING; NEW YORK LIFE; April 2011.  INDEPENDENT INSURANCE BROKERING; WESTERN NATIONAL; JULY 2011."
    }
  },
  "DRPs": [
    {
      "hasRegAction": 1,
      "hasRegActionSpecified": true,
      "hasCriminal": 1,
      "hasCriminalSpecified": true,
      "hasBankrupt": 1,
      "hasBankruptSpecified": true,
      "hasCivilJudc": 1,
      "hasCivilJudcSpecified": true,
      "hasBond": 1,
      "hasBondSpecified": true,
      "hasJudgment": 1,
      "hasJudgmentSpecified": true,
      "hasInvstgn": 1,
      "hasInvstgnSpecified": true,
      "hasCustComp": 0,
      "hasCustCompSpecified": true,
      "hasTermination": 1,
      "hasTerminationSpecified": true
    }
  ]
}