{
  "Info": {
    "lastNm": "GOLDMAN",
    "firstNm": "RICHARD",
    "midNm": "LEE",
    "sufNm": null,
    "indvlPK": "2383662",
    "actvAGReg": 0,
    "link": "http://www.adviserinfo.sec.gov/IAPD/Individual/2383662"
  },
  "OthrNms": [
    {
      "lastNm": "GOLDMAN",
      "firstNm": "RICKY",
      "midNm": null,
      "sufNm": null
    }
  ],
  "CrntEmps": [
    {
      "CrntRgstns": [
        {
          "regAuth": 10,
          "regCat": 0,
          "st": 2,
          "stDt": "2007-07-23T00:00:00"
        },
        {
          "regAuth": 28,
          "regCat": 0,
          "st": 2,
          "stDt": "2010-08-17T00:00:00"
        }
      ],
      "BrnchOfLocs": [
        {
          "str1": "FIVE CONCOURSE PKWY SUITE 850",
          "str2": null,
          "city": "ATLANTA",
          "state": 10,
          "stateSpecified": true,
          "cntry": "United States",
          "postlCd": "30328"
        }
      ],
      "orgNm": "STRATEGIC ADVISERS, INC.",
      "orgPK": "104555",
      "str1": "245 SUMMER STREET, V10G",
      "str2": null,
      "city": "BOSTON",
      "state": 20,
      "stateSpecified": true,
      "cntry": "United States",
      "postlCd": "02210"
    }
  ],
  "Exms": [
    {
      "exmCd": 0,
      "exmNm": "Uniform Securities Agent State Law Examination",
      "exmDt": "1993-08-06T00:00:00",
      "exmDtSpecified": true
    },
    {
      "exmCd": 2,
      "exmNm": "Uniform Investment Adviser Law Examination",
      "exmDt": "1999-10-11T00:00:00",
      "exmDtSpecified": true
    }
  ],
  "Dsgntns": [],
  "PrevRgstns": [],
  "EmpHss": [
    {
      "fromDt": "05/2006",
      "toDt": "03/2007",
      "orgNm": "UNEMPLOYED",
      "city": "ALPHARETTA",
      "state": 10,
      "stateSpecified": true
    },
    {
      "fromDt": "03/2007",
      "toDt": "01/2008",
      "orgNm": "FIDELITY INVESTMENTS INSTITUTIONAL SERVICES COMPAY",
      "city": "ATLANTA",
      "state": 10,
      "stateSpecified": true
    },
    {
      "fromDt": "01/2008",
      "toDt": null,
      "orgNm": "FIDELITY BROKERAGE SERVICES LLC",
      "city": "MARLBOROUGH",
      "state": 20,
      "stateSpecified": true
    }
  ],
  "OthrBuss": {
    "OthrBus": null
  },
  "DRPs": []
}