{
  "Info": {
    "lastNm": "TENNEY",
    "firstNm": "STEVEN",
    "midNm": "EDWARD",
    "sufNm": null,
    "indvlPK": "2393759",
    "actvAGReg": 0,
    "link": "http://www.adviserinfo.sec.gov/IAPD/Individual/2393759"
  },
  "OthrNms": [],
  "CrntEmps": [
    {
      "CrntRgstns": [
        {
          "regAuth": 31,
          "regCat": 0,
          "st": 2,
          "stDt": "1997-08-07T00:00:00"
        },
        {
          "regAuth": 45,
          "regCat": 0,
          "st": 3,
          "stDt": "1997-08-12T00:00:00"
        },
        {
          "regAuth": 22,
          "regCat": 0,
          "st": 2,
          "stDt": "2002-09-25T00:00:00"
        }
      ],
      "BrnchOfLocs": [
        {
          "str1": "ONE CITY CENTER",
          "str2": "7TH FLOOR",
          "city": "PORTLAND",
          "state": 22,
          "stateSpecified": true,
          "cntry": "United States",
          "postlCd": "04101"
        },
        {
          "str1": "ONE CITY CENTER",
          "str2": "7TH FLOOR",
          "city": "PORTLAND",
          "state": 22,
          "stateSpecified": true,
          "cntry": "United States",
          "postlCd": "04101"
        }
      ],
      "orgNm": "UBS FINANCIAL SERVICES INC.",
      "orgPK": "8174",
      "str1": "1200 HARBOR BOULEVARD",
      "str2": null,
      "city": "WEEHAWKEN",
      "state": 32,
      "stateSpecified": true,
      "cntry": "United States",
      "postlCd": "07086"
    }
  ],
  "Exms": [
    {
      "exmCd": 0,
      "exmNm": "Uniform Securities Agent State Law Examination",
      "exmDt": "1993-10-18T00:00:00",
      "exmDtSpecified": true
    },
    {
      "exmCd": 2,
      "exmNm": "Uniform Investment Adviser Law Examination",
      "exmDt": "1993-10-20T00:00:00",
      "exmDtSpecified": true
    }
  ],
  "Dsgntns": [],
  "PrevRgstns": [],
  "EmpHss": [
    {
      "fromDt": "08/1993",
      "toDt": null,
      "orgNm": "UBS FINANCIAL SERVICES INC.",
      "city": "PORTLAND",
      "state": 22,
      "stateSpecified": true
    }
  ],
  "OthrBuss": {
    "OthrBus": {
      "desc": "CGC Property Corporation / P.O. Box 612 Castine,ME 04421 / Other/ Sport & Leisure Facilities  / Golf club property ownership / Member of Board of Directors /  Start Date 8/24/2015"
    }
  },
  "DRPs": []
}