{
  "Info": {
    "lastNm": "KROEGER",
    "firstNm": "JOHN",
    "midNm": "HENRY",
    "sufNm": null,
    "indvlPK": "2399809",
    "actvAGReg": 1,
    "link": "http://www.adviserinfo.sec.gov/IAPD/Individual/2399809"
  },
  "OthrNms": [],
  "CrntEmps": [
    {
      "CrntRgstns": [
        {
          "regAuth": 3,
          "regCat": 0,
          "st": 2,
          "stDt": "2014-09-04T00:00:00"
        }
      ],
      "BrnchOfLocs": [
        {
          "str1": null,
          "str2": null,
          "city": "PHOENIX",
          "state": 3,
          "stateSpecified": true,
          "cntry": "UNITED STATES",
          "postlCd": null
        }
      ],
      "orgNm": "PERSONAL BENEFITS PLANNING LLC",
      "orgPK": "172531",
      "str1": null,
      "str2": null,
      "city": "PHOENIX",
      "state": 3,
      "stateSpecified": true,
      "cntry": "United States",
      "postlCd": null
    }
  ],
  "Exms": [
    {
      "exmCd": 0,
      "exmNm": "Uniform Securities Agent State Law Examination",
      "exmDt": "1993-11-02T00:00:00",
      "exmDtSpecified": true
    }
  ],
  "Dsgntns": [
    {
      "dsgntnNm": "Certified Financial Planner"
    },
    {
      "dsgntnNm": "Chartered Financial Consultant"
    }
  ],
  "PrevRgstns": [
    {
      "BrnchOfLocs": [
        {
          "city": "PHOENIX",
          "state": 3,
          "stateSpecified": true
        },
        {
          "city": "PHOENIX",
          "state": 3,
          "stateSpecified": true
        },
        {
          "city": "PHOENIX",
          "state": 3,
          "stateSpecified": true
        },
        {
          "city": "PHOENIX",
          "state": 3,
          "stateSpecified": true
        },
        {
          "city": "PHOENIX",
          "state": 3,
          "stateSpecified": true
        }
      ],
      "orgNm": "CUE FINANCIAL GROUP, INC.",
      "orgPK": "21033",
      "regBeginDt": "2006-04-03T00:00:00",
      "regBeginDtSpecified": true,
      "regEndDt": "2014-09-02T00:00:00",
      "regEndDtSpecified": true
    }
  ],
  "EmpHss": [
    {
      "fromDt": "02/1982",
      "toDt": null,
      "orgNm": "SELF-EMPLOYED- INSURANCE SALES",
      "city": "PHOENIX",
      "state": 3,
      "stateSpecified": true
    },
    {
      "fromDt": "01/1995",
      "toDt": null,
      "orgNm": "SELF-EMPLOYED- LEGAL DOCUMENT PREPARATION",
      "city": "PHOENIX",
      "state": 3,
      "stateSpecified": true
    },
    {
      "fromDt": "11/2002",
      "toDt": "08/2014",
      "orgNm": "CUE FINANCIAL GROUP, INC.",
      "city": "PHOENIX",
      "state": 3,
      "stateSpecified": true
    },
    {
      "fromDt": "12/2008",
      "toDt": "09/2011",
      "orgNm": "ALLIANCE FINANCIAL RESOURCES LLC",
      "city": "PHOENIX",
      "state": 3,
      "stateSpecified": true
    },
    {
      "fromDt": "01/2009",
      "toDt": null,
      "orgNm": "SELF-EMPLOYED- TAX PREPARATION SERVICES",
      "city": "PHOENIX",
      "state": 3,
      "stateSpecified": true
    },
    {
      "fromDt": "08/2009",
      "toDt": "08/2014",
      "orgNm": "FOOTHILL SECURITIES, INC.",
      "city": "PHOENIX",
      "state": 3,
      "stateSpecified": true
    },
    {
      "fromDt": "11/2011",
      "toDt": "04/2014",
      "orgNm": "NEW WEST LENDING, LLC",
      "city": "PHOENIX",
      "state": 3,
      "stateSpecified": true
    },
    {
      "fromDt": "07/2013",
      "toDt": null,
      "orgNm": "GEORGETOWN MORTGAGE LLC",
      "city": "PHOENIX",
      "state": 3,
      "stateSpecified": true
    },
    {
      "fromDt": "08/2014",
      "toDt": null,
      "orgNm": "PERSONAL BENEFITS PLANNING LLC",
      "city": "PHOENIX",
      "state": 3,
      "stateSpecified": true
    }
  ],
  "OthrBuss": {
    "OthrBus": {
      "desc": "1) INSURANCE SALES; JOHN H. KROEGER; P.O. BOX 26069 PHOENIX, AZ 85068; NON-INVESTMENT-RELATED; OWNER; START DATE 2/01/1982; 20 HOURS PER MONTH; SOME OF THESE HOURS ARE DURING MARKET HOURS.  REVIEW, PLANNING, RECOMMENDATION, SALE, AND SERVICE OF LIFE, HEALTH, AND DISABILITY, LONG TERM CARE, AND FIXED ANNUITY INSURANCE PRODUCTS.     2) LEGAL DOCUMENT PREPARATION; JOHN H. KROEGER P.O. BOX 26069 PHOENIX, AZ 85068; NON INVESTMENT-RELATED; OWNER; START DATE 1/1/1995; 20 HOURS PER MONTH; SOME OF THESE HOURS ARE DURING MARKET HOURS.  PREPARATION OF LEGAL DOCUMENTS FOR CLIENTS NOT REPRESENTED BY LEGAL COUNSEL FOR THE SAME ENGAGEMENT/MATTER. PRIMARY DOCUMENT OFFERINGS INCLUDE THE PREPARATION OF WILLS, TRUSTS, POWERS OF ATTORNEY, WARRANTY DEEDS, BENEFICIARY DEEDS, AND INFORMAL PROBATE FILINGS/NOTICES. SECONDARY DOCUMENT OFFERINGS INCLUDE THE PREPARATION OF LLC, CORPORATION, AND PARTNERSHIP FORMATION DOCUMENTS, PROMISSORY NOTES, BUY/SELL AGREEMENTS, AND RESIDENTIAL REAL ESTATE LEASES.      3) MORTGAGE ORIGINATION/BRANCH SUPERVISION; GEORGETOWN MORTGAGE LLC; 3509 EAST SHEA BLVD. STE 117D PHOENIX, AZ 85028; NON INVESTMENT-RELATED; EMPLOYEE; START DATE 7/5/2013; 128-160 HOURS PER MONTH; HALF DURING MARKET HOURS.  GEORGETOWN MORTGAGE LLC (DBA HOMESOURCE MORTGAGE LLC) IS A RESIDENTIAL MORTGAGE LENDER WHICH ORIGINATES RESIDENTIAL MORTGAGE LOANS SECURED BY RESIDENTIAL REAL ESTATE WITHIN THE STATE OF ARIZONA.       4) TAX PREPARATION SERVICES; ACCOUNTING SERVICES; SELF-EMPLOYED; 4450 EAST WILLOW AVENUE PHOENIX, AZ 85032; NON INVESTMENT-RELATED; OWNER; START DATE 01/01/2009;  20-120 HOURS PER MONTH; SOME ARE DURING MARKET HOURS. TAX RETURN PREPARATION, TAX CONSULTATION, ACCOUNTING SERVICES."
    }
  },
  "DRPs": [
    {
      "hasRegAction": 0,
      "hasRegActionSpecified": true,
      "hasCriminal": 0,
      "hasCriminalSpecified": true,
      "hasBankrupt": 0,
      "hasBankruptSpecified": true,
      "hasCivilJudc": 1,
      "hasCivilJudcSpecified": true,
      "hasBond": 0,
      "hasBondSpecified": true,
      "hasJudgment": 1,
      "hasJudgmentSpecified": true,
      "hasInvstgn": 1,
      "hasInvstgnSpecified": true,
      "hasCustComp": 1,
      "hasCustCompSpecified": true,
      "hasTermination": 1,
      "hasTerminationSpecified": true
    }
  ]
}