{
  "Info": {
    "lastNm": "LAMBERT",
    "firstNm": "JOHN",
    "midNm": "CHARLES",
    "sufNm": null,
    "indvlPK": "2399193",
    "actvAGReg": 0,
    "link": "http://www.adviserinfo.sec.gov/IAPD/Individual/2399193"
  },
  "OthrNms": [],
  "CrntEmps": [
    {
      "CrntRgstns": [
        {
          "regAuth": 36,
          "regCat": 0,
          "st": 2,
          "stDt": "2008-03-04T00:00:00"
        },
        {
          "regAuth": 23,
          "regCat": 0,
          "st": 2,
          "stDt": "2010-07-02T00:00:00"
        }
      ],
      "BrnchOfLocs": [
        {
          "str1": "328 S. SAGINAW ST",
          "str2": null,
          "city": "FLINT",
          "state": 23,
          "stateSpecified": true,
          "cntry": "United States",
          "postlCd": "48502"
        }
      ],
      "orgNm": "LPL FINANCIAL LLC",
      "orgPK": "6413",
      "str1": "75 STATE STREET, 22ND FLOOR",
      "str2": null,
      "city": "BOSTON",
      "state": 20,
      "stateSpecified": true,
      "cntry": "United States",
      "postlCd": "02109"
    }
  ],
  "Exms": [
    {
      "exmCd": 0,
      "exmNm": "Uniform Securities Agent State Law Examination",
      "exmDt": "1993-10-08T00:00:00",
      "exmDtSpecified": true
    },
    {
      "exmCd": 3,
      "exmNm": "Uniform Combined State Law Examination",
      "exmDt": "2006-06-05T00:00:00",
      "exmDtSpecified": true
    }
  ],
  "Dsgntns": [],
  "PrevRgstns": [
    {
      "BrnchOfLocs": [
        {
          "city": "CLIO",
          "state": 23,
          "stateSpecified": true
        },
        {
          "city": "FLINT",
          "state": 23,
          "stateSpecified": true
        },
        {
          "city": "FLINT",
          "state": 23,
          "stateSpecified": true
        },
        {
          "city": "NEW LOTHROP",
          "state": 23,
          "stateSpecified": true
        },
        {
          "city": "TRAVERSE CITY",
          "state": 23,
          "stateSpecified": true
        }
      ],
      "orgNm": "IFMG SECURITIES, INC.",
      "orgPK": "14416",
      "regBeginDt": "2006-10-17T00:00:00",
      "regBeginDtSpecified": true,
      "regEndDt": "2008-03-04T00:00:00",
      "regEndDtSpecified": true
    }
  ],
  "EmpHss": [
    {
      "fromDt": "12/1982",
      "toDt": null,
      "orgNm": "MT. HOLLY SKI SCHOOL",
      "city": "HOLLY",
      "state": 23,
      "stateSpecified": true
    },
    {
      "fromDt": "07/2004",
      "toDt": "03/2008",
      "orgNm": "IFMG SECURITIES, INC.",
      "city": "FLINT",
      "state": 23,
      "stateSpecified": true
    },
    {
      "fromDt": "03/2008",
      "toDt": null,
      "orgNm": "LPL FINANCIAL LLC",
      "city": "FLINT",
      "state": 23,
      "stateSpecified": true
    }
  ],
  "OthrBuss": {
    "OthrBus": {
      "desc": "1. 12/14/2009: JOHN LAMBERT SKI INSTRUCTOR - NOT INV REL - COACH/SPORTS - 3% OF TIME SPENT - SKI COACH FOR JUNIOR ATHLETES IN ALPINE SKI RACING AND AN ASSISTANT COACH FOR THE GRAND BLANC SKI TEAM, SKI INSTRUCTOR FOR THE MT HOLLY SKI SCHOOL, PROFESSIONAL SKI INSTRUCTORS OF AMERICA EXAMINER DEVELOPMENT GROUP      2. 10/21/2013: THE INVESTMENT CENTER AT FIRSTMERIT BANK - DBA FOR LPL BUSINESS (ENTITY FOR LPL BUSINESS) - INV REL - AT REPORTED BUSINESS LOCATION(S).      3. 1/12/2016: Powers Catholic High School - Not Investment Related - 1505 W. Court St, Flint, MI 48503 - Other-Coach/sports - Started 12/07/2015 - 16 Hours Per Month/0 Hours During Securities Trading - Coach an alpine high school ski racing team.      4. 01/12/2016: Mt. Holly Ski School - Not Investment Related - Mt. Holly Ski Area, 13536 Dixie Hwy, Holly, MI 48442 - Outside/W-2 Employment - Started 11/01/1982 - 16 Hours Per Month/0 Hours During Securities Trading - Ski Instructor."
    }
  },
  "DRPs": []
}