{
  "Info": {
    "lastNm": "THORNTON",
    "firstNm": "RANDALL",
    "midNm": "EUGENE",
    "sufNm": null,
    "indvlPK": "2403320",
    "actvAGReg": 1,
    "link": "http://www.adviserinfo.sec.gov/IAPD/Individual/2403320"
  },
  "OthrNms": [
    {
      "lastNm": "THORNTON",
      "firstNm": "RANDY",
      "midNm": null,
      "sufNm": null
    }
  ],
  "CrntEmps": [
    {
      "CrntRgstns": [
        {
          "regAuth": 16,
          "regCat": 0,
          "st": 2,
          "stDt": "2009-06-25T00:00:00"
        },
        {
          "regAuth": 23,
          "regCat": 0,
          "st": 2,
          "stDt": "2010-12-17T00:00:00"
        }
      ],
      "BrnchOfLocs": [
        {
          "str1": "100 NORTH MICHIGAN STREET",
          "str2": null,
          "city": "SOUTH BEND",
          "state": 16,
          "stateSpecified": true,
          "cntry": "United States",
          "postlCd": "46601"
        }
      ],
      "orgNm": "1ST SOURCE CORPORATION INVESTMENT ADVISORS, INC.",
      "orgPK": "111331",
      "str1": "100 NORTH MICHIGAN STREET",
      "str2": null,
      "city": "SOUTH BEND",
      "state": 16,
      "stateSpecified": true,
      "cntry": "United States",
      "postlCd": "46601"
    }
  ],
  "Exms": [
    {
      "exmCd": 2,
      "exmNm": "Uniform Investment Adviser Law Examination",
      "exmDt": "2009-06-24T00:00:00",
      "exmDtSpecified": true
    }
  ],
  "Dsgntns": [],
  "PrevRgstns": [],
  "EmpHss": [
    {
      "fromDt": "11/1988",
      "toDt": "07/2007",
      "orgNm": "FIRSTMERIT BANK",
      "city": "AKRON",
      "state": 36,
      "stateSpecified": true
    },
    {
      "fromDt": "07/2007",
      "toDt": "11/2008",
      "orgNm": "ANCORA ADVISORS",
      "city": "CLEVELAND",
      "state": 36,
      "stateSpecified": true
    },
    {
      "fromDt": "11/2008",
      "toDt": "01/2009",
      "orgNm": "RETIRED",
      "city": "COPLEY",
      "state": 36,
      "stateSpecified": true
    },
    {
      "fromDt": "01/2009",
      "toDt": null,
      "orgNm": "1ST SOURCE CORPORATION INVESTMENT ADVISORS, INC.",
      "city": "SOUTH BEND",
      "state": 16,
      "stateSpecified": true
    }
  ],
  "OthrBuss": {
    "OthrBus": null
  },
  "DRPs": []
}