{
  "Info": {
    "lastNm": "YARBROUGH",
    "firstNm": "KENNETH",
    "midNm": "EDWARD",
    "sufNm": null,
    "indvlPK": "2404698",
    "actvAGReg": 0,
    "link": "http://www.adviserinfo.sec.gov/IAPD/Individual/2404698"
  },
  "OthrNms": [],
  "CrntEmps": [
    {
      "CrntRgstns": [
        {
          "regAuth": 1,
          "regCat": 0,
          "st": 2,
          "stDt": "2013-02-13T00:00:00"
        },
        {
          "regAuth": 45,
          "regCat": 0,
          "st": 3,
          "stDt": "2014-07-10T00:00:00"
        }
      ],
      "BrnchOfLocs": [
        {
          "str1": "2900 HIGHWAY 280",
          "str2": "SUITE 100",
          "city": "BIRMINGHAM",
          "state": 1,
          "stateSpecified": true,
          "cntry": "United States",
          "postlCd": "35223"
        }
      ],
      "orgNm": "RAYMOND JAMES & ASSOCIATES, INC.",
      "orgPK": "705",
      "str1": "880 CARILLON PARKWAY",
      "str2": null,
      "city": "ST PETERSBURG",
      "state": 9,
      "stateSpecified": true,
      "cntry": "United States",
      "postlCd": "33716"
    }
  ],
  "Exms": [
    {
      "exmCd": 0,
      "exmNm": "Uniform Securities Agent State Law Examination",
      "exmDt": "1993-12-21T00:00:00",
      "exmDtSpecified": true
    },
    {
      "exmCd": 2,
      "exmNm": "Uniform Investment Adviser Law Examination",
      "exmDt": "1999-11-02T00:00:00",
      "exmDtSpecified": true
    }
  ],
  "Dsgntns": [],
  "PrevRgstns": [
    {
      "BrnchOfLocs": [
        {
          "city": "BIRMINGHAM",
          "state": 1,
          "stateSpecified": true
        },
        {
          "city": "BIRMINGHAM",
          "state": 1,
          "stateSpecified": true
        },
        {
          "city": "BIRMINGHAM",
          "state": 1,
          "stateSpecified": true
        }
      ],
      "orgNm": "AMSOUTH INVESTMENT SERVICES, INC.",
      "orgPK": "15692",
      "regBeginDt": "2000-08-24T00:00:00",
      "regBeginDtSpecified": true,
      "regEndDt": "2003-07-29T00:00:00",
      "regEndDtSpecified": true
    },
    {
      "BrnchOfLocs": [
        {
          "city": "BIRMINGHAM",
          "state": 1,
          "stateSpecified": true
        }
      ],
      "orgNm": "AMSOUTH INVESTMENT MANAGEMENT COMPANY LLC",
      "orgPK": "111757",
      "regBeginDt": "2003-07-10T00:00:00",
      "regBeginDtSpecified": true,
      "regEndDt": "2007-02-20T00:00:00",
      "regEndDtSpecified": true
    },
    {
      "BrnchOfLocs": [
        {
          "city": "BIRMINGHAM",
          "state": 1,
          "stateSpecified": true
        },
        {
          "city": "BIRMINGHAM",
          "state": 1,
          "stateSpecified": true
        },
        {
          "city": "BIRMINGHAM",
          "state": 1,
          "stateSpecified": true
        }
      ],
      "orgNm": "MORGAN KEEGAN & COMPANY, LLC",
      "orgPK": "4161",
      "regBeginDt": "2007-02-13T00:00:00",
      "regBeginDtSpecified": true,
      "regEndDt": "2013-02-13T00:00:00",
      "regEndDtSpecified": true
    }
  ],
  "EmpHss": [
    {
      "fromDt": "08/1997",
      "toDt": "02/2007",
      "orgNm": "AMSOUTH INVESTMENT SERVICES, INC.",
      "city": "BIRMINGHAM",
      "state": 1,
      "stateSpecified": true
    },
    {
      "fromDt": "07/2003",
      "toDt": "02/2007",
      "orgNm": "AMSOUTH INVESTMENT MANAGEMENT COMPANY LLC",
      "city": "BIRMINGHAM",
      "state": 1,
      "stateSpecified": true
    },
    {
      "fromDt": "02/2007",
      "toDt": "02/2013",
      "orgNm": "MORGAN KEEGAN & COMPANY, INC.",
      "city": "BIRMINGHAM",
      "state": 1,
      "stateSpecified": true
    },
    {
      "fromDt": "02/2013",
      "toDt": null,
      "orgNm": "RAYMOND JAMES & ASSOCIATES, INC.",
      "city": "BIRMINGHAM",
      "state": 1,
      "stateSpecified": true
    }
  ],
  "OthrBuss": {
    "OthrBus": null
  },
  "DRPs": []
}