{
  "Info": {
    "lastNm": "SALAZAR",
    "firstNm": "ROBERT",
    "midNm": "DANIEL",
    "sufNm": null,
    "indvlPK": "2407040",
    "actvAGReg": 0,
    "link": "http://www.adviserinfo.sec.gov/IAPD/Individual/2407040"
  },
  "OthrNms": [],
  "CrntEmps": [
    {
      "CrntRgstns": [
        {
          "regAuth": 4,
          "regCat": 0,
          "st": 2,
          "stDt": "2010-11-30T00:00:00"
        },
        {
          "regAuth": 45,
          "regCat": 0,
          "st": 2,
          "stDt": "2016-05-06T00:00:00"
        }
      ],
      "BrnchOfLocs": [
        {
          "str1": "3780 KILROY AIRPORT WAY ST 200",
          "str2": null,
          "city": "LONG BEACH",
          "state": 4,
          "stateSpecified": true,
          "cntry": "United States",
          "postlCd": "90806"
        }
      ],
      "orgNm": "LPL FINANCIAL LLC",
      "orgPK": "6413",
      "str1": "75 STATE STREET, 22ND FLOOR",
      "str2": null,
      "city": "BOSTON",
      "state": 20,
      "stateSpecified": true,
      "cntry": "United States",
      "postlCd": "02109"
    }
  ],
  "Exms": [
    {
      "exmCd": 0,
      "exmNm": "Uniform Securities Agent State Law Examination",
      "exmDt": "1993-10-21T00:00:00",
      "exmDtSpecified": true
    },
    {
      "exmCd": 2,
      "exmNm": "Uniform Investment Adviser Law Examination",
      "exmDt": "2004-05-29T00:00:00",
      "exmDtSpecified": true
    }
  ],
  "Dsgntns": [
    {
      "dsgntnNm": "Certified Financial Planner"
    }
  ],
  "PrevRgstns": [
    {
      "BrnchOfLocs": [
        {
          "city": "CERRITOS",
          "state": 4,
          "stateSpecified": true
        }
      ],
      "orgNm": "CITICORP INVESTMENT SERVICES",
      "orgPK": "23988",
      "regBeginDt": "2005-04-11T00:00:00",
      "regBeginDtSpecified": true,
      "regEndDt": "2005-06-02T00:00:00",
      "regEndDtSpecified": true
    },
    {
      "BrnchOfLocs": [
        {
          "city": "IRVINE",
          "state": 4,
          "stateSpecified": true
        },
        {
          "city": "IRVINE",
          "state": 4,
          "stateSpecified": true
        }
      ],
      "orgNm": "AMERIPRISE ADVISOR SERVICES, INC.",
      "orgPK": "5979",
      "regBeginDt": "2005-05-27T00:00:00",
      "regBeginDtSpecified": true,
      "regEndDt": "2007-03-20T00:00:00",
      "regEndDtSpecified": true
    },
    {
      "BrnchOfLocs": [
        {
          "city": "BRYAN",
          "state": 36,
          "stateSpecified": true
        },
        {
          "city": "BRYAN",
          "state": 36,
          "stateSpecified": true
        },
        {
          "city": "GLENDALE",
          "state": 4,
          "stateSpecified": true
        },
        {
          "city": "LONG BEACH",
          "state": 4,
          "stateSpecified": true
        }
      ],
      "orgNm": "NRP FINANCIAL, INC.",
      "orgPK": "103717",
      "regBeginDt": "2007-03-16T00:00:00",
      "regBeginDtSpecified": true,
      "regEndDt": "2008-10-20T00:00:00",
      "regEndDtSpecified": true
    },
    {
      "BrnchOfLocs": [
        {
          "city": "GLENDALE",
          "state": 4,
          "stateSpecified": true
        },
        {
          "city": "LONG BEACH",
          "state": 4,
          "stateSpecified": true
        }
      ],
      "orgNm": "NRP ADVISORS, INC.",
      "orgPK": "141430",
      "regBeginDt": "2008-02-28T00:00:00",
      "regBeginDtSpecified": true,
      "regEndDt": "2010-11-30T00:00:00",
      "regEndDtSpecified": true
    }
  ],
  "EmpHss": [
    {
      "fromDt": "05/2005",
      "toDt": "03/2007",
      "orgNm": "H&R BLOCK FINANCIAL ADVISORS, INC.",
      "city": "IRVINE",
      "state": 4,
      "stateSpecified": true
    },
    {
      "fromDt": "03/2007",
      "toDt": "11/2010",
      "orgNm": "NRP FINANCIAL, INC",
      "city": "BRYAN",
      "state": 36,
      "stateSpecified": true
    },
    {
      "fromDt": "03/2007",
      "toDt": "10/2008",
      "orgNm": "NRP FINANICAL, INC",
      "city": "BRYAN",
      "state": 36,
      "stateSpecified": true
    },
    {
      "fromDt": "02/2008",
      "toDt": "11/2010",
      "orgNm": "NRP ADVISORS, INC",
      "city": "BRYAN",
      "state": 36,
      "stateSpecified": true
    },
    {
      "fromDt": "11/2010",
      "toDt": null,
      "orgNm": "LPL FINANCIAL LLC",
      "city": "BOSTON",
      "state": 20,
      "stateSpecified": true
    }
  ],
  "OthrBuss": {
    "OthrBus": {
      "desc": "1. 10/15/2010 - Salazar, Steer, Thomasy & Ulrich Group - INV REL - AT REPORTED LOCATION - DBA for LPL Business (entity for LPL business)     2. 11/01/2010 - FOR ACCOUNTING PURPOSES ONLY - SALAZAR & STEER GROUP - 50% OWNER. LLC IS USED STRICKTLY FOR ACCOUNTING PURPOSES. - TIME SPENT 1%    3. 02/25/2014 - NO BUSINESS NAME - NON-VARIABLE INSURANCE - SALES - TIME SPENT 5% - LONG BEACH, CA"
    }
  },
  "DRPs": []
}