{
  "Info": {
    "lastNm": "HUIZENGA",
    "firstNm": "JEFFREY",
    "midNm": "JOHN",
    "sufNm": null,
    "indvlPK": "2409162",
    "actvAGReg": 1,
    "link": "http://www.adviserinfo.sec.gov/IAPD/Individual/2409162"
  },
  "OthrNms": [
    {
      "lastNm": "HUIZENGA",
      "firstNm": "JEFF",
      "midNm": null,
      "sufNm": null
    }
  ],
  "CrntEmps": [
    {
      "CrntRgstns": [
        {
          "regAuth": 15,
          "regCat": 0,
          "st": 2,
          "stDt": "2014-11-12T00:00:00"
        }
      ],
      "BrnchOfLocs": [
        {
          "str1": "5823 N FOREST PARK DRIVE",
          "str2": null,
          "city": "PEORIA",
          "state": 15,
          "stateSpecified": true,
          "cntry": "United States",
          "postlCd": "61614-3559"
        }
      ],
      "orgNm": "DAVID VAUGHAN INVESTMENTS INC",
      "orgPK": "105990",
      "str1": "5823 N FOREST PARK DRIVE",
      "str2": null,
      "city": "PEORIA",
      "state": 15,
      "stateSpecified": true,
      "cntry": "United States",
      "postlCd": "61614-3559"
    }
  ],
  "Exms": [
    {
      "exmCd": 0,
      "exmNm": "Uniform Securities Agent State Law Examination",
      "exmDt": "1994-08-02T00:00:00",
      "exmDtSpecified": true
    }
  ],
  "Dsgntns": [
    {
      "dsgntnNm": "Certified Financial Planner"
    },
    {
      "dsgntnNm": "Chartered Financial Consultant"
    }
  ],
  "PrevRgstns": [
    {
      "BrnchOfLocs": [
        {
          "city": "PEORIA",
          "state": 15,
          "stateSpecified": true
        }
      ],
      "orgNm": "CLIFTON GUNDERSON WEALTH ADVISORS",
      "orgPK": "111297",
      "regBeginDt": "2001-04-20T00:00:00",
      "regBeginDtSpecified": true,
      "regEndDt": "2012-02-27T00:00:00",
      "regEndDtSpecified": true
    },
    {
      "BrnchOfLocs": [
        {
          "city": "MINNEAPOLIS",
          "state": 24,
          "stateSpecified": true
        },
        {
          "city": "MINNEAPOLIS",
          "state": 24,
          "stateSpecified": true
        },
        {
          "city": "PEORIA",
          "state": 15,
          "stateSpecified": true
        },
        {
          "city": "PEORIA",
          "state": 15,
          "stateSpecified": true
        }
      ],
      "orgNm": "CLIFTONLARSONALLEN WEALTH ADVISORS, LLC",
      "orgPK": "38357",
      "regBeginDt": "2012-02-27T00:00:00",
      "regBeginDtSpecified": true,
      "regEndDt": "2014-10-20T00:00:00",
      "regEndDtSpecified": true
    }
  ],
  "EmpHss": [
    {
      "fromDt": "04/2001",
      "toDt": "02/2012",
      "orgNm": "CLIFTON GUNDERSON WEALTH ADVISORS LLC",
      "city": "PEORIA",
      "state": 15,
      "stateSpecified": true
    },
    {
      "fromDt": "11/2005",
      "toDt": "12/2012",
      "orgNm": "CG BROKERAGE L.L.C.",
      "city": "PEORIA",
      "state": 15,
      "stateSpecified": true
    },
    {
      "fromDt": "02/2012",
      "toDt": "10/2014",
      "orgNm": "CLIFTONLARSONALLEN WEALTH ADVISORS, LLC",
      "city": "PEORIA",
      "state": 15,
      "stateSpecified": true
    },
    {
      "fromDt": "11/2014",
      "toDt": null,
      "orgNm": "DAVID VAUGHAN INVESTMENTS, INC.",
      "city": "PEORIA",
      "state": 15,
      "stateSpecified": true
    }
  ],
  "OthrBuss": {
    "OthrBus": null
  },
  "DRPs": []
}