{
  "Info": {
    "lastNm": "ALTENBURG",
    "firstNm": "ERIC",
    "midNm": "MICHAEL",
    "sufNm": null,
    "indvlPK": "2411862",
    "actvAGReg": 0,
    "link": "http://www.adviserinfo.sec.gov/IAPD/Individual/2411862"
  },
  "OthrNms": [],
  "CrntEmps": [
    {
      "CrntRgstns": [
        {
          "regAuth": 33,
          "regCat": 0,
          "st": 2,
          "stDt": "2012-04-02T00:00:00"
        },
        {
          "regAuth": 45,
          "regCat": 0,
          "st": 3,
          "stDt": "2012-04-02T00:00:00"
        }
      ],
      "BrnchOfLocs": [
        {
          "str1": "4600 B MONTGOMERY BLVD NE STE 104",
          "str2": null,
          "city": "ALBUQUERQUE",
          "state": 33,
          "stateSpecified": true,
          "cntry": "United States",
          "postlCd": "87109"
        }
      ],
      "orgNm": "LPL FINANCIAL LLC",
      "orgPK": "6413",
      "str1": "75 STATE STREET, 22ND FLOOR",
      "str2": null,
      "city": "BOSTON",
      "state": 20,
      "stateSpecified": true,
      "cntry": "United States",
      "postlCd": "02109"
    }
  ],
  "Exms": [
    {
      "exmCd": 0,
      "exmNm": "Uniform Securities Agent State Law Examination",
      "exmDt": "1994-09-29T00:00:00",
      "exmDtSpecified": true
    },
    {
      "exmCd": 2,
      "exmNm": "Uniform Investment Adviser Law Examination",
      "exmDt": "1999-12-07T00:00:00",
      "exmDtSpecified": true
    }
  ],
  "Dsgntns": [],
  "PrevRgstns": [
    {
      "BrnchOfLocs": [
        {
          "city": "ALBUQUERQUE",
          "state": 33,
          "stateSpecified": true
        },
        {
          "city": "ALBUQUERQUE",
          "state": 33,
          "stateSpecified": true
        }
      ],
      "orgNm": "NEW ENGLAND SECURITIES",
      "orgPK": "615",
      "regBeginDt": "2002-08-19T00:00:00",
      "regBeginDtSpecified": true,
      "regEndDt": "2012-03-29T00:00:00",
      "regEndDtSpecified": true
    }
  ],
  "EmpHss": [
    {
      "fromDt": "01/1994",
      "toDt": "03/2012",
      "orgNm": "THE NEW ENGLAND FINANCIAL GROUP",
      "city": "ALBUQUERQUE",
      "state": 33,
      "stateSpecified": true
    },
    {
      "fromDt": "07/1994",
      "toDt": "03/2012",
      "orgNm": "NEW ENGLAND SECURITIES",
      "city": "BOSTON",
      "state": 20,
      "stateSpecified": true
    },
    {
      "fromDt": "03/2012",
      "toDt": null,
      "orgNm": "LPL FINANCIAL",
      "city": "ALBUQUERQUE",
      "state": 33,
      "stateSpecified": true
    }
  ],
  "OthrBuss": {
    "OthrBus": {
      "desc": "1. 03/30/2012: OTHER - PROFESSIONAL BOWLER - 5% OF TIME - ALBUQUERQUE, NM.     2. 11/5/2012: DBA ONLY - ALTENBURG ASSET ADVISORS, LLC - ALBUQUERQUE, NM    3. 02/16/2016 * Non-Variable Insurance * INV REL * AT REPORTED BUSINESS LOCATION(S) * START 01/28/2016 * 3 HRS/MO DURING SECS TRDG HRS."
    }
  },
  "DRPs": []
}