{
  "Info": {
    "lastNm": "STRAW",
    "firstNm": "STEPHEN",
    "midNm": "TROY",
    "sufNm": null,
    "indvlPK": "2414498",
    "actvAGReg": 0,
    "link": "http://www.adviserinfo.sec.gov/IAPD/Individual/2414498"
  },
  "OthrNms": [
    {
      "lastNm": "STRAW",
      "firstNm": "STEVE",
      "midNm": null,
      "sufNm": null
    }
  ],
  "CrntEmps": [
    {
      "CrntRgstns": [
        {
          "regAuth": 4,
          "regCat": 0,
          "st": 2,
          "stDt": "2016-05-13T00:00:00"
        },
        {
          "regAuth": 9,
          "regCat": 0,
          "st": 2,
          "stDt": "2016-05-13T00:00:00"
        },
        {
          "regAuth": 45,
          "regCat": 0,
          "st": 3,
          "stDt": "2016-05-13T00:00:00"
        }
      ],
      "BrnchOfLocs": [
        {
          "str1": "877 EXECUTIVE CENTER DRIVE",
          "str2": "WEST",
          "city": "ST. PETERSBURG",
          "state": 9,
          "stateSpecified": true,
          "cntry": "United States",
          "postlCd": "33702"
        }
      ],
      "orgNm": "SIGNATOR INVESTORS, INC.",
      "orgPK": "468",
      "str1": "380 STUART STREET",
      "str2": "S-8",
      "city": "BOSTON",
      "state": 20,
      "stateSpecified": true,
      "cntry": "United States",
      "postlCd": "02116"
    }
  ],
  "Exms": [
    {
      "exmCd": 0,
      "exmNm": "Uniform Securities Agent State Law Examination",
      "exmDt": "1994-01-13T00:00:00",
      "exmDtSpecified": true
    },
    {
      "exmCd": 2,
      "exmNm": "Uniform Investment Adviser Law Examination",
      "exmDt": "1998-11-24T00:00:00",
      "exmDtSpecified": true
    }
  ],
  "Dsgntns": [],
  "PrevRgstns": [
    {
      "BrnchOfLocs": [
        {
          "city": "PASADENA",
          "state": 4,
          "stateSpecified": true
        }
      ],
      "orgNm": "CHARLES SCHWAB & CO., INC.",
      "orgPK": "5393",
      "regBeginDt": "1999-01-25T00:00:00",
      "regBeginDtSpecified": true,
      "regEndDt": "2006-01-11T00:00:00",
      "regEndDtSpecified": true
    },
    {
      "BrnchOfLocs": [
        {
          "city": "CHICAGO",
          "state": 15,
          "stateSpecified": true
        }
      ],
      "orgNm": "ZACKS INVESTMENT MANAGEMENT, INC.",
      "orgPK": "110897",
      "regBeginDt": "2006-04-21T00:00:00",
      "regBeginDtSpecified": true,
      "regEndDt": "2006-06-16T00:00:00",
      "regEndDtSpecified": true
    },
    {
      "BrnchOfLocs": [
        {
          "city": "LOS ANGELES",
          "state": 4,
          "stateSpecified": true
        },
        {
          "city": "LOS ANGELES",
          "state": 4,
          "stateSpecified": true
        },
        {
          "city": "LOS ANGELES",
          "state": 4,
          "stateSpecified": true
        }
      ],
      "orgNm": "TRANSAMERICA FINANCIAL ADVISORS, INC.",
      "orgPK": "3600",
      "regBeginDt": "2006-07-19T00:00:00",
      "regBeginDtSpecified": true,
      "regEndDt": "2009-09-04T00:00:00",
      "regEndDtSpecified": true
    },
    {
      "BrnchOfLocs": [
        {
          "city": "LOS ANGELES",
          "state": 4,
          "stateSpecified": true
        },
        {
          "city": "ST. PETERSBURG",
          "state": 9,
          "stateSpecified": true
        },
        {
          "city": "ST. PETERSBURG",
          "state": 9,
          "stateSpecified": true
        }
      ],
      "orgNm": "TRANSAMERICA FINANCIAL ADVISORS, INC",
      "orgPK": "16164",
      "regBeginDt": "2009-09-04T00:00:00",
      "regBeginDtSpecified": true,
      "regEndDt": "2016-05-13T00:00:00",
      "regEndDtSpecified": true
    }
  ],
  "EmpHss": [
    {
      "fromDt": "06/2006",
      "toDt": null,
      "orgNm": "TRANSAMERICA FINANCIAL ADVISORS, INC.",
      "city": "ST. PETERSBURG",
      "state": 9,
      "stateSpecified": true
    },
    {
      "fromDt": "05/2016",
      "toDt": null,
      "orgNm": "SIGNATOR INVESTORS, INC.",
      "city": "ST. PETERSBURG",
      "state": 9,
      "stateSpecified": true
    }
  ],
  "OthrBuss": {
    "OthrBus": null
  },
  "DRPs": []
}