{
  "Info": {
    "lastNm": "POPADICH",
    "firstNm": "MICHAEL",
    "midNm": "JAMES",
    "sufNm": null,
    "indvlPK": "2415164",
    "actvAGReg": 0,
    "link": "http://www.adviserinfo.sec.gov/IAPD/Individual/2415164"
  },
  "OthrNms": [],
  "CrntEmps": [
    {
      "CrntRgstns": [
        {
          "regAuth": 23,
          "regCat": 0,
          "st": 2,
          "stDt": "2011-02-02T00:00:00"
        },
        {
          "regAuth": 16,
          "regCat": 0,
          "st": 2,
          "stDt": "2011-10-24T00:00:00"
        },
        {
          "regAuth": 4,
          "regCat": 0,
          "st": 2,
          "stDt": "2012-02-27T00:00:00"
        },
        {
          "regAuth": 45,
          "regCat": 0,
          "st": 2,
          "stDt": "2014-12-03T00:00:00"
        },
        {
          "regAuth": 36,
          "regCat": 0,
          "st": 2,
          "stDt": "2014-12-22T00:00:00"
        }
      ],
      "BrnchOfLocs": [
        {
          "str1": "24668 HALL ROAD",
          "str2": null,
          "city": "CLINTON TOWNSHIP",
          "state": 23,
          "stateSpecified": true,
          "cntry": "United States",
          "postlCd": "48036"
        },
        {
          "str1": "48697 HAYES ROAD",
          "str2": null,
          "city": "SHELBY TOWNSHIP",
          "state": 23,
          "stateSpecified": true,
          "cntry": "United States",
          "postlCd": "48315"
        }
      ],
      "orgNm": "HANTZ FINANCIAL SERVICES, INC.",
      "orgPK": "46047",
      "str1": "26200 AMERICAN DRIVE",
      "str2": "FIFTH FLOOR",
      "city": "SOUTHFIELD",
      "state": 23,
      "stateSpecified": true,
      "cntry": "United States",
      "postlCd": "48034"
    }
  ],
  "Exms": [
    {
      "exmCd": 0,
      "exmNm": "Uniform Securities Agent State Law Examination",
      "exmDt": "1993-10-29T00:00:00",
      "exmDtSpecified": true
    }
  ],
  "Dsgntns": [
    {
      "dsgntnNm": "Chartered Financial Consultant"
    }
  ],
  "PrevRgstns": [],
  "EmpHss": [
    {
      "fromDt": "06/1999",
      "toDt": null,
      "orgNm": "HANTZ FINANCIAL SERVICES, INC.",
      "city": "WOODHAVEN",
      "state": 23,
      "stateSpecified": true
    }
  ],
  "OthrBuss": {
    "OthrBus": null
  },
  "DRPs": [
    {
      "hasRegAction": 1,
      "hasRegActionSpecified": true,
      "hasCriminal": 1,
      "hasCriminalSpecified": true,
      "hasBankrupt": 1,
      "hasBankruptSpecified": true,
      "hasCivilJudc": 1,
      "hasCivilJudcSpecified": true,
      "hasBond": 1,
      "hasBondSpecified": true,
      "hasJudgment": 1,
      "hasJudgmentSpecified": true,
      "hasInvstgn": 1,
      "hasInvstgnSpecified": true,
      "hasCustComp": 0,
      "hasCustCompSpecified": true,
      "hasTermination": 1,
      "hasTerminationSpecified": true
    }
  ]
}