{
  "Info": {
    "lastNm": "JUNG",
    "firstNm": "BRAD",
    "midNm": "EDWARD",
    "sufNm": null,
    "indvlPK": "2419757",
    "actvAGReg": 0,
    "link": "http://www.adviserinfo.sec.gov/IAPD/Individual/2419757"
  },
  "OthrNms": [
    {
      "lastNm": "JUNG",
      "firstNm": "BRAD",
      "midNm": "EDWARD",
      "sufNm": null
    },
    {
      "lastNm": "JUNG",
      "firstNm": "BRADLEY",
      "midNm": "EDWARD",
      "sufNm": null
    },
    {
      "lastNm": "JUNG",
      "firstNm": "BRADLEY",
      "midNm": "EDWARD",
      "sufNm": null
    }
  ],
  "CrntEmps": [
    {
      "CrntRgstns": [
        {
          "regAuth": 49,
          "regCat": 0,
          "st": 2,
          "stDt": "2007-06-29T00:00:00"
        }
      ],
      "BrnchOfLocs": [
        {
          "str1": "1301 SECOND AVENUE, 18TH FLOOR",
          "str2": null,
          "city": "SEATTLE",
          "state": 49,
          "stateSpecified": true,
          "cntry": "United States",
          "postlCd": "98101"
        }
      ],
      "orgNm": "RUSSELL INVESTMENTS",
      "orgPK": "105734",
      "str1": "1301 SECOND AVENUE, 18TH FLOOR",
      "str2": null,
      "city": "SEATTLE",
      "state": 49,
      "stateSpecified": true,
      "cntry": "United States",
      "postlCd": "98101"
    }
  ],
  "Exms": [
    {
      "exmCd": 0,
      "exmNm": "Uniform Securities Agent State Law Examination",
      "exmDt": "1994-02-25T00:00:00",
      "exmDtSpecified": true
    },
    {
      "exmCd": 2,
      "exmNm": "Uniform Investment Adviser Law Examination",
      "exmDt": "2001-07-06T00:00:00",
      "exmDtSpecified": true
    }
  ],
  "Dsgntns": [],
  "PrevRgstns": [
    {
      "BrnchOfLocs": [
        {
          "city": "MENOMONEE FALLS",
          "state": 50,
          "stateSpecified": true
        }
      ],
      "orgNm": "STRONG CAPITAL MANAGEMENT INC",
      "orgPK": "106638",
      "regBeginDt": "2001-07-31T00:00:00",
      "regBeginDtSpecified": true,
      "regEndDt": "2004-01-28T00:00:00",
      "regEndDtSpecified": true
    },
    {
      "BrnchOfLocs": [
        {
          "city": "TACOMA",
          "state": 49,
          "stateSpecified": true
        }
      ],
      "orgNm": "RUSSELL INVESTMENTS",
      "orgPK": "105734",
      "regBeginDt": "2005-06-07T00:00:00",
      "regBeginDtSpecified": true,
      "regEndDt": "2007-06-29T00:00:00",
      "regEndDtSpecified": true
    }
  ],
  "EmpHss": [
    {
      "fromDt": "01/2004",
      "toDt": null,
      "orgNm": "FRANK RUSSELL COMPANY",
      "city": "TACOMA",
      "state": 49,
      "stateSpecified": true
    }
  ],
  "OthrBuss": {
    "OthrBus": null
  },
  "DRPs": []
}