{
  "Info": {
    "lastNm": "ELMHORST",
    "firstNm": "KURT",
    "midNm": "FRANZ",
    "sufNm": null,
    "indvlPK": "2421373",
    "actvAGReg": 0,
    "link": "http://www.adviserinfo.sec.gov/IAPD/Individual/2421373"
  },
  "OthrNms": [],
  "CrntEmps": [
    {
      "CrntRgstns": [
        {
          "regAuth": 9,
          "regCat": 0,
          "st": 2,
          "stDt": "2006-09-05T00:00:00"
        },
        {
          "regAuth": 15,
          "regCat": 0,
          "st": 2,
          "stDt": "2009-01-15T00:00:00"
        },
        {
          "regAuth": 42,
          "regCat": 0,
          "st": 2,
          "stDt": "2014-11-12T00:00:00"
        }
      ],
      "BrnchOfLocs": [
        {
          "str1": "1401 SOUTH FLORIDA AVENUE",
          "str2": null,
          "city": "LAKELAND",
          "state": 9,
          "stateSpecified": true,
          "cntry": "United States",
          "postlCd": "33803"
        }
      ],
      "orgNm": "ALLEN & COMPANY OF FLORIDA, INC.",
      "orgPK": "25",
      "str1": "1401 SOUTH FLORIDA AVE",
      "str2": null,
      "city": "LAKELAND",
      "state": 9,
      "stateSpecified": true,
      "cntry": "United States",
      "postlCd": "33803"
    }
  ],
  "Exms": [
    {
      "exmCd": 0,
      "exmNm": "Uniform Securities Agent State Law Examination",
      "exmDt": "1993-11-09T00:00:00",
      "exmDtSpecified": true
    },
    {
      "exmCd": 3,
      "exmNm": "Uniform Combined State Law Examination",
      "exmDt": "2003-05-08T00:00:00",
      "exmDtSpecified": true
    }
  ],
  "Dsgntns": [
    {
      "dsgntnNm": "Certified Financial Planner"
    }
  ],
  "PrevRgstns": [],
  "EmpHss": [
    {
      "fromDt": "04/2003",
      "toDt": null,
      "orgNm": "ALLEN & COMPANY OF FLORIDA, INC.",
      "city": "LAKELAND",
      "state": 9,
      "stateSpecified": true
    }
  ],
  "OthrBuss": {
    "OthrBus": {
      "desc": "LAKELAND AREA CHAMBER OF COMMERCE LAKELAND FL. NON-INVESTMENT RELATED IMMEDIATE PAST PRESIDENT. 5 HOURS MONTHLY NO COMPENSATION   THE ESTATE PLANNING COUNCIL OF POLK COUNTY LAKELAND FL, PRESIDENT NON-INVESTMENT RELATED 2 HOURS MONTHLY NO COMPENSATION"
    }
  },
  "DRPs": []
}