{
  "Info": {
    "lastNm": "BETT",
    "firstNm": "RICHARD",
    "midNm": "CHARLES",
    "sufNm": null,
    "indvlPK": "2423492",
    "actvAGReg": 0,
    "link": "http://www.adviserinfo.sec.gov/IAPD/Individual/2423492"
  },
  "OthrNms": [
    {
      "lastNm": "BETTMBACLUACS",
      "firstNm": "RICHARD",
      "midNm": "C",
      "sufNm": null
    },
    {
      "lastNm": "Bett",
      "firstNm": "Rich",
      "midNm": null,
      "sufNm": null
    }
  ],
  "CrntEmps": [
    {
      "CrntRgstns": [
        {
          "regAuth": 15,
          "regCat": 0,
          "st": 2,
          "stDt": "2016-04-27T00:00:00"
        }
      ],
      "BrnchOfLocs": [
        {
          "str1": "1600 GOLF RD",
          "str2": "MERRILL EDGE ADVISORY CENTER",
          "city": "ROLLING MEADOWS",
          "state": 15,
          "stateSpecified": true,
          "cntry": "United States",
          "postlCd": "60008"
        }
      ],
      "orgNm": "MERRILL LYNCH, PIERCE, FENNER & SMITH INCORPORATED",
      "orgPK": "7691",
      "str1": "ONE BRYANT PARK",
      "str2": null,
      "city": "NEW YORK",
      "state": 35,
      "stateSpecified": true,
      "cntry": "United States",
      "postlCd": "10036"
    }
  ],
  "Exms": [
    {
      "exmCd": 0,
      "exmNm": "Uniform Securities Agent State Law Examination",
      "exmDt": "2001-02-09T00:00:00",
      "exmDtSpecified": true
    },
    {
      "exmCd": 2,
      "exmNm": "Uniform Investment Adviser Law Examination",
      "exmDt": "2005-09-20T00:00:00",
      "exmDtSpecified": true
    }
  ],
  "Dsgntns": [],
  "PrevRgstns": [
    {
      "BrnchOfLocs": [
        {
          "city": "SKOKIE",
          "state": 15,
          "stateSpecified": true
        },
        {
          "city": "SKOKIE",
          "state": 15,
          "stateSpecified": true
        }
      ],
      "orgNm": "NORTHWESTERN MUTUAL INVESTMENT SERVICES, LLC",
      "orgPK": "2881",
      "regBeginDt": "2005-09-23T00:00:00",
      "regBeginDtSpecified": true,
      "regEndDt": "2016-04-27T00:00:00",
      "regEndDtSpecified": true
    }
  ],
  "EmpHss": [
    {
      "fromDt": "01/1990",
      "toDt": "05/2012",
      "orgNm": "NORTHWESTERN MUTUAL LIFE INSURANCE",
      "city": "MILWAUKEE",
      "state": 50,
      "stateSpecified": true
    },
    {
      "fromDt": "10/1993",
      "toDt": "05/2012",
      "orgNm": "NORTHWESTERN MUTUAL INVESTMENT SERVICES, LLC",
      "city": "MILWAUKEE",
      "state": 50,
      "stateSpecified": true
    },
    {
      "fromDt": "03/2006",
      "toDt": "05/2012",
      "orgNm": "NORTHWESTERN MUTUAL INVESTMENT SERVICES, LLC",
      "city": "SKOKIE",
      "state": 15,
      "stateSpecified": true
    },
    {
      "fromDt": "06/2012",
      "toDt": "04/2016",
      "orgNm": "KEVIN SPAHN",
      "city": "SKOKIE",
      "state": 15,
      "stateSpecified": true
    }
  ],
  "OthrBuss": {
    "OthrBus": null
  },
  "DRPs": []
}