{
  "Info": {
    "lastNm": "HELMS",
    "firstNm": "DONALD",
    "midNm": "EDWARD",
    "sufNm": null,
    "indvlPK": "242422",
    "actvAGReg": 0,
    "link": "http://www.adviserinfo.sec.gov/IAPD/Individual/242422"
  },
  "OthrNms": [],
  "CrntEmps": [
    {
      "CrntRgstns": [
        {
          "regAuth": 44,
          "regCat": 0,
          "st": 2,
          "stDt": "2008-12-09T00:00:00"
        }
      ],
      "BrnchOfLocs": [
        {
          "str1": null,
          "str2": null,
          "city": "Collierville",
          "state": 44,
          "stateSpecified": true,
          "cntry": "United States",
          "postlCd": null
        },
        {
          "str1": "1295 STATE STREET",
          "str2": null,
          "city": "SPRINGFIELD",
          "state": 20,
          "stateSpecified": true,
          "cntry": "United States",
          "postlCd": "01111"
        },
        {
          "str1": "2365 HARRODSBURG ROAD",
          "str2": "SUITE A300",
          "city": "LEXINGTON",
          "state": 18,
          "stateSpecified": true,
          "cntry": "United States",
          "postlCd": "40504-3392"
        }
      ],
      "orgNm": "MML INVESTORS SERVICES, LLC",
      "orgPK": "10409",
      "str1": "1295 STATE STREET",
      "str2": null,
      "city": "SPRINGFIELD",
      "state": 20,
      "stateSpecified": true,
      "cntry": "United States",
      "postlCd": "01111-0001"
    }
  ],
  "Exms": [
    {
      "exmCd": 0,
      "exmNm": "Uniform Securities Agent State Law Examination",
      "exmDt": "1994-01-24T00:00:00",
      "exmDtSpecified": true
    },
    {
      "exmCd": 3,
      "exmNm": "Uniform Combined State Law Examination",
      "exmDt": "2004-12-20T00:00:00",
      "exmDtSpecified": true
    }
  ],
  "Dsgntns": [],
  "PrevRgstns": [
    {
      "BrnchOfLocs": [
        {
          "city": "ATLANTA",
          "state": 10,
          "stateSpecified": true
        }
      ],
      "orgNm": "EAGLE STRATEGIES LLC",
      "orgPK": "110826",
      "regBeginDt": "2005-01-14T00:00:00",
      "regBeginDtSpecified": true,
      "regEndDt": "2005-09-13T00:00:00",
      "regEndDtSpecified": true
    },
    {
      "BrnchOfLocs": [
        {
          "city": "ATLANTA",
          "state": 10,
          "stateSpecified": true
        }
      ],
      "orgNm": "NEW ENGLAND SECURITIES",
      "orgPK": "615",
      "regBeginDt": "2007-03-28T00:00:00",
      "regBeginDtSpecified": true,
      "regEndDt": "2008-05-06T00:00:00",
      "regEndDtSpecified": true
    }
  ],
  "EmpHss": [
    {
      "fromDt": "06/1976",
      "toDt": "09/2006",
      "orgNm": "NEW YORK LIFE INS CO",
      "city": "JACKSON",
      "state": 26,
      "stateSpecified": true
    },
    {
      "fromDt": "06/1976",
      "toDt": "09/2006",
      "orgNm": "NYLIFE SECURITIES INC.",
      "city": "JACKSON",
      "state": 26,
      "stateSpecified": true
    },
    {
      "fromDt": "09/2006",
      "toDt": "05/2008",
      "orgNm": "NEW ENGLAND FINANCIAL",
      "city": "ALPHARETTA",
      "state": 10,
      "stateSpecified": true
    },
    {
      "fromDt": "08/2008",
      "toDt": null,
      "orgNm": "MASSMUTUAL LIFE INSURANCE COMPANY",
      "city": "MEMPHIS",
      "state": 44,
      "stateSpecified": true
    },
    {
      "fromDt": "08/2008",
      "toDt": null,
      "orgNm": "MML INVESTOR SERVICES, INC.",
      "city": "MEMPHIS",
      "state": 44,
      "stateSpecified": true
    }
  ],
  "OthrBuss": {
    "OthrBus": null
  },
  "DRPs": [
    {
      "hasRegAction": 1,
      "hasRegActionSpecified": true,
      "hasCriminal": 1,
      "hasCriminalSpecified": true,
      "hasBankrupt": 1,
      "hasBankruptSpecified": true,
      "hasCivilJudc": 0,
      "hasCivilJudcSpecified": true,
      "hasBond": 1,
      "hasBondSpecified": true,
      "hasJudgment": 1,
      "hasJudgmentSpecified": true,
      "hasInvstgn": 1,
      "hasInvstgnSpecified": true,
      "hasCustComp": 1,
      "hasCustCompSpecified": true,
      "hasTermination": 1,
      "hasTerminationSpecified": true
    }
  ]
}