{
  "Info": {
    "lastNm": "SCHREINER",
    "firstNm": "RONALD",
    "midNm": "JAMES",
    "sufNm": null,
    "indvlPK": "2426566",
    "actvAGReg": 0,
    "link": "http://www.adviserinfo.sec.gov/IAPD/Individual/2426566"
  },
  "OthrNms": [],
  "CrntEmps": [
    {
      "CrntRgstns": [
        {
          "regAuth": 23,
          "regCat": 0,
          "st": 2,
          "stDt": "2010-08-26T00:00:00"
        }
      ],
      "BrnchOfLocs": [
        {
          "str1": "4855 STATE ST",
          "str2": null,
          "city": "SAGINAW",
          "state": 23,
          "stateSpecified": true,
          "cntry": "United States",
          "postlCd": "48603"
        }
      ],
      "orgNm": "THRIVENT INVESTMENT MANAGEMENT INC.",
      "orgPK": "18387",
      "str1": "625 FOURTH AVENUE SOUTH",
      "str2": null,
      "city": "MINNEAPOLIS",
      "state": 24,
      "stateSpecified": true,
      "cntry": "United States",
      "postlCd": "55415-1665"
    }
  ],
  "Exms": [
    {
      "exmCd": 0,
      "exmNm": "Uniform Securities Agent State Law Examination",
      "exmDt": "1993-12-07T00:00:00",
      "exmDtSpecified": true
    },
    {
      "exmCd": 3,
      "exmNm": "Uniform Combined State Law Examination",
      "exmDt": "2003-07-11T00:00:00",
      "exmDtSpecified": true
    }
  ],
  "Dsgntns": [],
  "PrevRgstns": [],
  "EmpHss": [
    {
      "fromDt": "07/2002",
      "toDt": "12/2012",
      "orgNm": "THRIVENT FINANCIAL BANK",
      "city": "SAGINAW",
      "state": 23,
      "stateSpecified": true
    },
    {
      "fromDt": "07/2002",
      "toDt": null,
      "orgNm": "THRIVENT FINANCIAL FOR LUTHERANS",
      "city": "APPLETON",
      "state": 50,
      "stateSpecified": true
    },
    {
      "fromDt": "07/2002",
      "toDt": null,
      "orgNm": "THRIVENT INVESTMENT MANAGEMTENT INC",
      "city": "SAGINAW",
      "state": 23,
      "stateSpecified": true
    }
  ],
  "OthrBuss": {
    "OthrBus": {
      "desc": "I AM CO-CHAIR OF THE FINANCE COMMITTEE FOR MICHIGAN LUTHERAN SEMINARY FOUNDATION, WHICH IS A CHARITABLE FOUNDATION FOR MICHIGAN LUTHERAN SEMINARY, 2777 HARDIN ST. SAGINAW, MI 48602, WHICH IS A PREPARATORY HIGH SCHOOL FOR THE WISCONSIN EVANGELICAL LUTHERAN SYNOD. I ATTEND A QUARTERLY 2 HOUR FINANCE COMMITTEE MEETING ON TUESDAY AFTERNOONS AND A 2 HOUR QUARTERLY EXECUTIVE BOARD MEETING ON SUNDAY EVENINGS. THE SECURITY PRODUCTS ARE DONE THROUGH THIRD PARTIES, AND WE DO NOT USE THRIVENT SECURITIES. I DO NOT RECOMMEND OR VOTE ON THESE SECURITY DECISIONS."
    }
  },
  "DRPs": []
}