{
  "Info": {
    "lastNm": "HEATWOLE",
    "firstNm": "LEO",
    "midNm": "EDWIN",
    "sufNm": null,
    "indvlPK": "2427526",
    "actvAGReg": 0,
    "link": "http://www.adviserinfo.sec.gov/IAPD/Individual/2427526"
  },
  "OthrNms": [],
  "CrntEmps": [
    {
      "CrntRgstns": [
        {
          "regAuth": 47,
          "regCat": 0,
          "st": 2,
          "stDt": "2004-03-22T00:00:00"
        }
      ],
      "BrnchOfLocs": [
        {
          "str1": "1675 C VIRGINIA AVE",
          "str2": null,
          "city": "HARRISONBURG",
          "state": 47,
          "stateSpecified": true,
          "cntry": "United States",
          "postlCd": "22802"
        }
      ],
      "orgNm": "PROEQUITIES, INC.",
      "orgPK": "15708",
      "str1": "2801 HIGHWAY 280 SOUTH",
      "str2": null,
      "city": "BIRMINGHAM",
      "state": 1,
      "stateSpecified": true,
      "cntry": "United States",
      "postlCd": "35223"
    }
  ],
  "Exms": [
    {
      "exmCd": 0,
      "exmNm": "Uniform Securities Agent State Law Examination",
      "exmDt": "1993-12-28T00:00:00",
      "exmDtSpecified": true
    },
    {
      "exmCd": 2,
      "exmNm": "Uniform Investment Adviser Law Examination",
      "exmDt": "2002-09-24T00:00:00",
      "exmDtSpecified": true
    }
  ],
  "Dsgntns": [],
  "PrevRgstns": [],
  "EmpHss": [
    {
      "fromDt": "11/1993",
      "toDt": null,
      "orgNm": "PROEQUITIES, INC.",
      "city": "HARRISONBURG",
      "state": 47,
      "stateSpecified": true
    },
    {
      "fromDt": "01/2005",
      "toDt": null,
      "orgNm": "FIRST FINANCIAL",
      "city": "HARRISONBURG",
      "state": 47,
      "stateSpecified": true
    }
  ],
  "OthrBuss": {
    "OthrBus": {
      "desc": "PARK VIEW FEDERAL CREDIT UNION; INVESTMENT RELATED; 1675 VIRGINIA AVE STE A HARRISONBURG VA; HEAD UP THE INVESTMENT AND INSURANCE DIVISION FOR THE CREDIT UNION; SENIOR FINANCIAL ADVISOR; STARTED 10/01/2007; 195 HRS/MO. DESCRIPTION: INSURANCE SALES TO EXISTING AND PROSPECTIVE CLIENTS.   FIRST FINANCIAL  POSITION: SENIOR FINANCIAL ADVISOR NATURE: INSURANCE SALES INVESTMENT RELATED: YES NUMBER OF HOURS: 8 INVESTMENT RELATED HOURS: 4 START DATE: 01/01/1994  ADDRESS: 1675 VIRGINIA AVE., HARRISONBURG VA 22802  DESCRIPTION: INSURANCE SALES TO EXISTING AND PROSPECTIVE CLIENTS    RESIDENTIAL RENTALS  POSITION: OWNER/MANAGER NATURE: RESIDENTIAL RENTALS INVESTMENT RELATED: NO NUMBER OF HOURS: 2 INVESTMENT RELATED HOURS: 0 START DATE: 03/01/1983  ADDRESS: 1651 PARK RD., HARRISONBURG VA 22802  DESCRIPTION: MANAGE PROPERTY AND RENTALS    FIRST FINANCIAL  POSITION: SENIOR FINANCIAL ADVISOR NATURE: INSURANCE & INVESTMENTS SALES & SERVICE INVESTMENT RELATED: YES NUMBER OF HOURS: 1 INVESTMENT RELATED HOURS: 1 START DATE: 01/01/2005  ADDRESS: 1675  VIRGINIA AVE, HARRISONBURG VA 22802  DESCRIPTION: INSURANCE & INVESTMENT SALES & SERVICE"
    }
  },
  "DRPs": []
}