{
  "Info": {
    "lastNm": "ZULIANI",
    "firstNm": "ALYSSA",
    "midNm": "KAREN",
    "sufNm": null,
    "indvlPK": "2428353",
    "actvAGReg": 0,
    "link": "http://www.adviserinfo.sec.gov/IAPD/Individual/2428353"
  },
  "OthrNms": [],
  "CrntEmps": [
    {
      "CrntRgstns": [
        {
          "regAuth": 32,
          "regCat": 0,
          "st": 2,
          "stDt": "2014-06-19T00:00:00"
        }
      ],
      "BrnchOfLocs": [
        {
          "str1": "410 PARK AVENUE",
          "str2": "14TH FLOOR",
          "city": "NEW YORK",
          "state": 35,
          "stateSpecified": true,
          "cntry": "United States",
          "postlCd": "10022"
        }
      ],
      "orgNm": "NATIONAL ASSET MANAGEMENT, INC.",
      "orgPK": "115927",
      "str1": "ONE UNION SQUARE 600 UNIVERSITY STREET",
      "str2": "SUITE 2900",
      "city": "SEATTLE",
      "state": 49,
      "stateSpecified": true,
      "cntry": "United States",
      "postlCd": "98101"
    }
  ],
  "Exms": [
    {
      "exmCd": 0,
      "exmNm": "Uniform Securities Agent State Law Examination",
      "exmDt": "1995-04-26T00:00:00",
      "exmDtSpecified": true
    },
    {
      "exmCd": 2,
      "exmNm": "Uniform Investment Adviser Law Examination",
      "exmDt": "1997-02-05T00:00:00",
      "exmDtSpecified": true
    },
    {
      "exmCd": 3,
      "exmNm": "Uniform Combined State Law Examination",
      "exmDt": "2011-12-20T00:00:00",
      "exmDtSpecified": true
    }
  ],
  "Dsgntns": [],
  "PrevRgstns": [
    {
      "BrnchOfLocs": [
        {
          "city": "NEW YORK",
          "state": 35,
          "stateSpecified": true
        }
      ],
      "orgNm": "MORGAN STANLEY",
      "orgPK": "149777",
      "regBeginDt": "2011-10-18T00:00:00",
      "regBeginDtSpecified": true,
      "regEndDt": "2013-08-07T00:00:00",
      "regEndDtSpecified": true
    }
  ],
  "EmpHss": [
    {
      "fromDt": "06/2003",
      "toDt": "07/2008",
      "orgNm": "BEAR, STEARNS & CO. INC.",
      "city": "NEW YORK",
      "state": 35,
      "stateSpecified": true
    },
    {
      "fromDt": "07/2008",
      "toDt": "06/2009",
      "orgNm": "UBS FINANCIAL SERVICES INC",
      "city": "NEW YORK",
      "state": 35,
      "stateSpecified": true
    },
    {
      "fromDt": "06/2009",
      "toDt": "09/2010",
      "orgNm": "WESTERN INTERNATIONAL SECURITIES",
      "city": "ATLANTIC HIGHLANDS",
      "state": 32,
      "stateSpecified": true
    },
    {
      "fromDt": "11/2010",
      "toDt": "09/2011",
      "orgNm": "OPPENHEIMER & CO. INC.",
      "city": "NEW YORK",
      "state": 35,
      "stateSpecified": true
    },
    {
      "fromDt": "09/2011",
      "toDt": "07/2013",
      "orgNm": "MORGAN STANLEY SMITH BARNEY",
      "city": "NEW YORK",
      "state": 35,
      "stateSpecified": true
    },
    {
      "fromDt": "08/2013",
      "toDt": "05/2014",
      "orgNm": "UNEMPLOYED",
      "city": "SUNNYSIDE",
      "state": 35,
      "stateSpecified": true
    },
    {
      "fromDt": "06/2014",
      "toDt": null,
      "orgNm": "NATIONAL SECURITIES CORP",
      "city": "NEW YORK",
      "state": 35,
      "stateSpecified": true
    }
  ],
  "OthrBuss": {
    "OthrBus": {
      "desc": "SUNNYSIDE GARDENS HOMEOWNERS ASSOC, NON INVESTMENT RELATED, SUNNYSIDE GARDENS, NY, MAINTAIN HISTORICAL VISAGE OF NEIGHBORHOOD, TRUSTEE TO ASSIST IN COLLECTING DUES FROM HOMEOWNERS, START DATE:2012, 12 HOURS/YEAR, NONE DURING TRADING HOURS, COLLECT DUES... 2)ICV INC,NON INVESTMENT RELATED,201 EAST 81 STREET,#3D NEW YORK, NY 10028,HOST CO. OUTREACH SUMMITS,INDEPENDENT CONTRACTOR,START DATE: 10/2014,15 HOURS/MONTH, NONE DURING TRADING HOURS,HELP COORDINATE CO. OUTREACH SUMMITS..."
    }
  },
  "DRPs": []
}