{
  "Info": {
    "lastNm": "PEINHARDT",
    "firstNm": "ERIC",
    "midNm": "CHARLES",
    "sufNm": null,
    "indvlPK": "2431674",
    "actvAGReg": 0,
    "link": "http://www.adviserinfo.sec.gov/IAPD/Individual/2431674"
  },
  "OthrNms": [],
  "CrntEmps": [
    {
      "CrntRgstns": [
        {
          "regAuth": 39,
          "regCat": 0,
          "st": 2,
          "stDt": "2010-01-07T00:00:00"
        }
      ],
      "BrnchOfLocs": [
        {
          "str1": "208 WILLOW VALLEY SQUARE",
          "str2": null,
          "city": "LANCASTER",
          "state": 39,
          "stateSpecified": true,
          "cntry": "United States",
          "postlCd": "17602"
        }
      ],
      "orgNm": "RAYMOND JAMES FINANCIAL SERVICES ADVISORS, INC",
      "orgPK": "149018",
      "str1": "880 CARILLON PARKWAY",
      "str2": null,
      "city": "SAINT PETERSBURG",
      "state": 9,
      "stateSpecified": true,
      "cntry": "United States",
      "postlCd": "33716"
    }
  ],
  "Exms": [
    {
      "exmCd": 0,
      "exmNm": "Uniform Securities Agent State Law Examination",
      "exmDt": "1998-12-17T00:00:00",
      "exmDtSpecified": true
    },
    {
      "exmCd": 2,
      "exmNm": "Uniform Investment Adviser Law Examination",
      "exmDt": "2009-12-15T00:00:00",
      "exmDtSpecified": true
    }
  ],
  "Dsgntns": [],
  "PrevRgstns": [],
  "EmpHss": [
    {
      "fromDt": "11/1993",
      "toDt": null,
      "orgNm": "RAYMOND JAMES FINANCIAL SERVICES, INC.",
      "city": "LANCASTER",
      "state": 39,
      "stateSpecified": true
    },
    {
      "fromDt": "01/2008",
      "toDt": null,
      "orgNm": "STASBURG CAPITAL MANAGEMENT LTD",
      "city": "LANCASTER",
      "state": 39,
      "stateSpecified": true
    },
    {
      "fromDt": "01/2009",
      "toDt": null,
      "orgNm": "RAYMOND JAMES FINANCIAL SERVICES ADVISORS",
      "city": "LANCASTER",
      "state": 39,
      "stateSpecified": true
    }
  ],
  "OthrBuss": {
    "OthrBus": {
      "desc": "STASBURG CAPITAL MANAGEMENT LTD; LANCASTER, PA; SUPPORT COMPANY/DBA (NON-OWNER); ADVISOR; NOT INVESTMENT RELATED; 01/2008-PRESENT; 0 HOURS PER MONTH, 0 HOURS DURING TRADING; FINANCIAL ADVISOR."
    }
  },
  "DRPs": []
}