{
  "Info": {
    "lastNm": "KAWASAKI",
    "firstNm": "GEORGE",
    "midNm": "SHIGERU",
    "sufNm": null,
    "indvlPK": "2432930",
    "actvAGReg": 1,
    "link": "http://www.adviserinfo.sec.gov/IAPD/Individual/2432930"
  },
  "OthrNms": [],
  "CrntEmps": [
    {
      "CrntRgstns": [
        {
          "regAuth": 15,
          "regCat": 0,
          "st": 2,
          "stDt": "1997-10-10T00:00:00"
        },
        {
          "regAuth": 45,
          "regCat": 0,
          "st": 3,
          "stDt": "2014-01-08T00:00:00"
        }
      ],
      "BrnchOfLocs": [
        {
          "str1": "500 LAKE COOK RD.",
          "str2": "SUITE 430",
          "city": "DEERFIELD",
          "state": 15,
          "stateSpecified": true,
          "cntry": "United States",
          "postlCd": "60015"
        }
      ],
      "orgNm": "RONALD BLUE & CO., LLC",
      "orgPK": "104605",
      "str1": "300 COLONIAL CENTER PARKWAY",
      "str2": "SUITE 300",
      "city": "ROSWELL",
      "state": 10,
      "stateSpecified": true,
      "cntry": "United States",
      "postlCd": "30076-8843"
    }
  ],
  "Exms": [
    {
      "exmCd": 2,
      "exmNm": "Uniform Investment Adviser Law Examination",
      "exmDt": "1993-11-26T00:00:00",
      "exmDtSpecified": true
    }
  ],
  "Dsgntns": [],
  "PrevRgstns": [],
  "EmpHss": [
    {
      "fromDt": "02/1994",
      "toDt": null,
      "orgNm": "RONALD BLUE & CO., LLC",
      "city": "OAK BROOK",
      "state": 15,
      "stateSpecified": true
    }
  ],
  "OthrBuss": {
    "OthrBus": null
  },
  "DRPs": []
}