{
  "Info": {
    "lastNm": "NUWAYHID",
    "firstNm": "RAMZI",
    "midNm": "NIZAR",
    "sufNm": null,
    "indvlPK": "2433063",
    "actvAGReg": 0,
    "link": "http://www.adviserinfo.sec.gov/IAPD/Individual/2433063"
  },
  "OthrNms": [
    {
      "lastNm": "NUWAYHID",
      "firstNm": "RAMZI",
      "midNm": null,
      "sufNm": null
    }
  ],
  "CrntEmps": [
    {
      "CrntRgstns": [
        {
          "regAuth": 45,
          "regCat": 0,
          "st": 3,
          "stDt": "1996-01-09T00:00:00"
        }
      ],
      "BrnchOfLocs": [
        {
          "str1": "1 FEDERAL ST",
          "str2": "BOSTON - PBIG",
          "city": "BOSTON",
          "state": 20,
          "stateSpecified": true,
          "cntry": "United States",
          "postlCd": "02110"
        }
      ],
      "orgNm": "MERRILL LYNCH, PIERCE, FENNER & SMITH INCORPORATED",
      "orgPK": "7691",
      "str1": "ONE BRYANT PARK",
      "str2": null,
      "city": "NEW YORK",
      "state": 35,
      "stateSpecified": true,
      "cntry": "United States",
      "postlCd": "10036"
    }
  ],
  "Exms": [
    {
      "exmCd": 0,
      "exmNm": "Uniform Securities Agent State Law Examination",
      "exmDt": "1993-12-20T00:00:00",
      "exmDtSpecified": true
    },
    {
      "exmCd": 2,
      "exmNm": "Uniform Investment Adviser Law Examination",
      "exmDt": "1995-02-01T00:00:00",
      "exmDtSpecified": true
    }
  ],
  "Dsgntns": [],
  "PrevRgstns": [],
  "EmpHss": [
    {
      "fromDt": "11/1994",
      "toDt": null,
      "orgNm": "MERRILL LYNCH, PIERCE, FENNER & SMITH INCORPORATED",
      "city": "BOSTON",
      "state": 20,
      "stateSpecified": true
    },
    {
      "fromDt": "04/2010",
      "toDt": null,
      "orgNm": "BANK OF AMERICA, N.A.",
      "city": "BOSTON",
      "state": 20,
      "stateSpecified": true
    }
  ],
  "OthrBuss": {
    "OthrBus": {
      "desc": "(1)POSITION: CLERK AT DR NUWAYHID`S OFFICE ON SUNDAYS NATURE OF BUSINESS: FAMILY BUSINESS    (2)FOR PROFIT OR NOT FOR PROFIT: FOR-PROFIT ORGANIZATION  NAME OF OUTSIDE BUSINESS ORGANIZATION: NSN MANAGEMENT CO., LLC  INVESTMENT RELATED: N  ADDRESS OF BUSINESS:  POSITION, TITLE, ASSOCIATION: OWNER,   START DATE OF RELATIONSHIP: 10/15/2012  NUMBER OF HOURS DEVOTED: 10 HOUR(S) MONTHLY  NUMBER OF HOURS DEVOTED DURING TRADING HOURS: 0  DUTIES: LLC, REAL-ESTATE MANAGEMENT COMPANY. THIS LLC OWNS AND LEASES RESIDENTIAL PROPERTIES FOR INCOME.    (3)FOR PROFIT OR NOT FOR PROFIT: FOR-PROFIT ORGANIZATION  NAME OF OUTSIDE BUSINESS ORGANIZATION: OAZ MANAGEMENT CORP. LLC  INVESTMENT RELATED: Y  ADDRESS OF BUSINESS: WELLESLEY, MASSACHUSETTS 2481  NATURE OF BUSINESS: LLC,  POSITION, TITLE, ASSOCIATION: OTHER, ONE OF THE MANAGERS  START DATE OF RELATIONSHIP: 6/28/2010  NUMBER OF HOURS DEVOTED: 2 HOUR(S) MONTHLY  NUMBER OF HOURS DEVOTED DURING TRADING HOURS: 0  DUTIES: REAL ESTATE MANGEMENT. AQUIRE RENTAL REAL ESATE AND LEASE FOR INCOME.        I*44486  FOR PROFIT OR NOT FOR PROFIT: NON-PROFIT ORGANIZATION  NAME OF OUTSIDE BUSINESS ORGANIZATION: NIZAR NUWAYHID 2010 TRUST  INVESTMENT RELATED: N  ADDRESS OF BUSINESS:  WELLESLEY, MASSACHUSETTS 2481  NATURE OF BUSINESS: TRUST,  POSITION, TITLE, ASSOCIATION: TRUSTEE,   START DATE OF RELATIONSHIP: 8/17/2011  NUMBER OF HOURS DEVOTED: 25 HOUR(S) ANNUALLY  NUMBER OF HOURS DEVOTED DURING TRADING HOURS: 5  DUTIES: I AM TRUSTEE WITH MY MONTH ON MY FATHER'S CREDIT SHELTER TRUST. MY RESPONSIBILITY IS TO INVEST THE ASSETS, AND DISTRIBUTE  FUNDS AS NEEDED    I*43033  For profit or not for profit: Non-Profit Organization  Name of outside business organization: St. Jude Children's Research Hospital  Investment related: N  Address of business:   262 Danny Thomas Place,   Memphis, Tennessee 38105  Nature of business: Charitable Organization,  Position, title, association: Director,   Start date of relationship: 6/24/2011  Number of hours devoted: 200 hour(s) Annually  Number of hours devoted during trading hours: 0  Duties: Board Member of the hospital"
    }
  },
  "DRPs": []
}