{
  "Info": {
    "lastNm": "KELLY",
    "firstNm": "TERRY",
    "midNm": "PATRICK",
    "sufNm": null,
    "indvlPK": "2434554",
    "actvAGReg": 0,
    "link": "http://www.adviserinfo.sec.gov/IAPD/Individual/2434554"
  },
  "OthrNms": [],
  "CrntEmps": [
    {
      "CrntRgstns": [
        {
          "regAuth": 45,
          "regCat": 0,
          "st": 2,
          "stDt": "2010-01-01T00:00:00"
        }
      ],
      "BrnchOfLocs": [
        {
          "str1": "1555 PEACHTREE STREET, N.E.",
          "str2": null,
          "city": "ATLANTA",
          "state": 10,
          "stateSpecified": true,
          "cntry": "United States",
          "postlCd": "30309"
        }
      ],
      "orgNm": "INVESCO ADVISERS, INC.",
      "orgPK": "105360",
      "str1": "1555 PEACHTREE STREET, N.E.",
      "str2": null,
      "city": "ATLANTA",
      "state": 10,
      "stateSpecified": true,
      "cntry": "United States",
      "postlCd": "30309"
    }
  ],
  "Exms": [
    {
      "exmCd": 0,
      "exmNm": "Uniform Securities Agent State Law Examination",
      "exmDt": "1996-07-08T00:00:00",
      "exmDtSpecified": true
    },
    {
      "exmCd": 3,
      "exmNm": "Uniform Combined State Law Examination",
      "exmDt": "2006-09-20T00:00:00",
      "exmDtSpecified": true
    }
  ],
  "Dsgntns": [],
  "PrevRgstns": [
    {
      "BrnchOfLocs": [
        {
          "city": "HOUSTON",
          "state": 45,
          "stateSpecified": true
        }
      ],
      "orgNm": "INVESCO AIM PRIVATE ASSET MANAGEMENT, INC.",
      "orgPK": "109264",
      "regBeginDt": "2006-09-21T00:00:00",
      "regBeginDtSpecified": true,
      "regEndDt": "2010-01-01T00:00:00",
      "regEndDtSpecified": true
    }
  ],
  "EmpHss": [
    {
      "fromDt": "11/1998",
      "toDt": null,
      "orgNm": "A I M DISTRIBUTORS, INC.",
      "city": "HOUSTON",
      "state": 45,
      "stateSpecified": true
    },
    {
      "fromDt": "07/2006",
      "toDt": "12/2007",
      "orgNm": "AMVESCAP NATIONAL TRUST COMPANY",
      "city": "ATLANTA",
      "state": 10,
      "stateSpecified": true
    },
    {
      "fromDt": "01/2010",
      "toDt": null,
      "orgNm": "INVESCO ADVISERS, INC.",
      "city": "ATLANTA",
      "state": 10,
      "stateSpecified": true
    }
  ],
  "OthrBuss": {
    "OthrBus": null
  },
  "DRPs": []
}