{
  "Info": {
    "lastNm": "ROSE",
    "firstNm": "MARILYN",
    "midNm": null,
    "sufNm": null,
    "indvlPK": "2437526",
    "actvAGReg": 0,
    "link": "http://www.adviserinfo.sec.gov/IAPD/Individual/2437526"
  },
  "OthrNms": [
    {
      "lastNm": "PORTMAN",
      "firstNm": "MARILYN",
      "midNm": "KAY",
      "sufNm": null
    },
    {
      "lastNm": "ROSE",
      "firstNm": "MARILYN",
      "midNm": "KAY",
      "sufNm": null
    },
    {
      "lastNm": "WALKER",
      "firstNm": "MARILYN",
      "midNm": "KAY",
      "sufNm": null
    }
  ],
  "CrntEmps": [
    {
      "CrntRgstns": [
        {
          "regAuth": 45,
          "regCat": 0,
          "st": 2,
          "stDt": "2010-03-30T00:00:00"
        }
      ],
      "BrnchOfLocs": [
        {
          "str1": "301 CONGRESS STE 100",
          "str2": null,
          "city": "AUSTIN",
          "state": 45,
          "stateSpecified": true,
          "cntry": "United States",
          "postlCd": "78701"
        }
      ],
      "orgNm": "WELLS FARGO ADVISORS, LLC",
      "orgPK": "19616",
      "str1": "ONE NORTH JEFFERSON AVENUE",
      "str2": "MAIL CODE: H0004-050",
      "city": "ST. LOUIS",
      "state": 25,
      "stateSpecified": true,
      "cntry": "United States",
      "postlCd": "63103-2205"
    }
  ],
  "Exms": [
    {
      "exmCd": 3,
      "exmNm": "Uniform Combined State Law Examination",
      "exmDt": "2010-03-29T00:00:00",
      "exmDtSpecified": true
    }
  ],
  "Dsgntns": [],
  "PrevRgstns": [],
  "EmpHss": [
    {
      "fromDt": "05/2004",
      "toDt": "10/2008",
      "orgNm": "SWS FINANCIAL SERVICES",
      "city": "BROWNWOOD",
      "state": 45,
      "stateSpecified": true
    },
    {
      "fromDt": "11/2008",
      "toDt": "05/2009",
      "orgNm": "WACHOVIA SECURITIES, LLC",
      "city": "AUSTIN",
      "state": 45,
      "stateSpecified": true
    },
    {
      "fromDt": "05/2009",
      "toDt": null,
      "orgNm": "WELLS FARGO ADVISORS LLC",
      "city": "AUSTIN",
      "state": 45,
      "stateSpecified": true
    }
  ],
  "OthrBuss": {
    "OthrBus": null
  },
  "DRPs": []
}