{
  "Info": {
    "lastNm": "KOBOSKO",
    "firstNm": "KARA",
    "midNm": "K",
    "sufNm": null,
    "indvlPK": "2441004",
    "actvAGReg": 0,
    "link": "http://www.adviserinfo.sec.gov/IAPD/Individual/2441004"
  },
  "OthrNms": [
    {
      "lastNm": "FARRELL",
      "firstNm": "KARA",
      "midNm": "K",
      "sufNm": null
    },
    {
      "lastNm": "FARRELL",
      "firstNm": "KARA",
      "midNm": "K",
      "sufNm": null
    },
    {
      "lastNm": "FARRELL",
      "firstNm": "KARA",
      "midNm": "KATHLEEN",
      "sufNm": null
    },
    {
      "lastNm": "KOBOSKO",
      "firstNm": "KARA",
      "midNm": "KATHLEEN",
      "sufNm": null
    }
  ],
  "CrntEmps": [
    {
      "CrntRgstns": [
        {
          "regAuth": 28,
          "regCat": 0,
          "st": 2,
          "stDt": "2014-04-22T00:00:00"
        },
        {
          "regAuth": 45,
          "regCat": 0,
          "st": 3,
          "stDt": "2014-04-26T00:00:00"
        },
        {
          "regAuth": 42,
          "regCat": 0,
          "st": 2,
          "stDt": "2014-04-29T00:00:00"
        }
      ],
      "BrnchOfLocs": [
        {
          "str1": "115 TOM HALL ST",
          "str2": null,
          "city": "FORT MILL",
          "state": 42,
          "stateSpecified": true,
          "cntry": "United States",
          "postlCd": "29715"
        },
        {
          "str1": "150 N COLLEGE ST",
          "str2": null,
          "city": "CHARLOTTE",
          "state": 28,
          "stateSpecified": true,
          "cntry": "United States",
          "postlCd": "28255"
        }
      ],
      "orgNm": "MERRILL LYNCH, PIERCE, FENNER & SMITH INCORPORATED",
      "orgPK": "7691",
      "str1": "ONE BRYANT PARK",
      "str2": null,
      "city": "NEW YORK",
      "state": 35,
      "stateSpecified": true,
      "cntry": "United States",
      "postlCd": "10036"
    }
  ],
  "Exms": [
    {
      "exmCd": 0,
      "exmNm": "Uniform Securities Agent State Law Examination",
      "exmDt": "1999-02-15T00:00:00",
      "exmDtSpecified": true
    },
    {
      "exmCd": 3,
      "exmNm": "Uniform Combined State Law Examination",
      "exmDt": "2006-08-01T00:00:00",
      "exmDtSpecified": true
    }
  ],
  "Dsgntns": [],
  "PrevRgstns": [
    {
      "BrnchOfLocs": [
        {
          "city": "WILMINGTON",
          "state": 8,
          "stateSpecified": true
        },
        {
          "city": "WILMINGTON",
          "state": 8,
          "stateSpecified": true
        }
      ],
      "orgNm": "MERRILL LYNCH, PIERCE, FENNER & SMITH INCORPORATED",
      "orgPK": "7691",
      "regBeginDt": "2006-01-05T00:00:00",
      "regBeginDtSpecified": true,
      "regEndDt": "2007-02-05T00:00:00",
      "regEndDtSpecified": true
    },
    {
      "BrnchOfLocs": [
        {
          "city": "MIDDLETOWN",
          "state": 8,
          "stateSpecified": true
        },
        {
          "city": "PHILADELPHIA",
          "state": 39,
          "stateSpecified": true
        }
      ],
      "orgNm": "WELLS FARGO ADVISORS, LLC",
      "orgPK": "19616",
      "regBeginDt": "2007-04-24T00:00:00",
      "regBeginDtSpecified": true,
      "regEndDt": "2008-01-10T00:00:00",
      "regEndDtSpecified": true
    },
    {
      "BrnchOfLocs": [
        {
          "city": "PURCHASE",
          "state": 35,
          "stateSpecified": true
        },
        {
          "city": "WAYNE",
          "state": 39,
          "stateSpecified": true
        }
      ],
      "orgNm": "MORGAN STANLEY & CO. LLC",
      "orgPK": "8209",
      "regBeginDt": "2008-02-13T00:00:00",
      "regBeginDtSpecified": true,
      "regEndDt": "2009-06-01T00:00:00",
      "regEndDtSpecified": true
    },
    {
      "BrnchOfLocs": [
        {
          "city": "FORT LAUDERDALE",
          "state": 9,
          "stateSpecified": true
        },
        {
          "city": "PHILADELPHIA",
          "state": 39,
          "stateSpecified": true
        }
      ],
      "orgNm": "MORGAN STANLEY",
      "orgPK": "149777",
      "regBeginDt": "2009-06-01T00:00:00",
      "regBeginDtSpecified": true,
      "regEndDt": "2014-03-05T00:00:00",
      "regEndDtSpecified": true
    }
  ],
  "EmpHss": [
    {
      "fromDt": "09/1987",
      "toDt": "01/2007",
      "orgNm": "MERRILL LYNCH, PIERCE, FENNER & SMITH INCORPORATED",
      "city": "WILMINGTON",
      "state": 8,
      "stateSpecified": true
    },
    {
      "fromDt": "01/2007",
      "toDt": "01/2008",
      "orgNm": "WACHOVIA",
      "city": "MIDDLETOWN",
      "state": 8,
      "stateSpecified": true
    },
    {
      "fromDt": "01/2008",
      "toDt": "02/2014",
      "orgNm": "MORGAN STANLEY",
      "city": "FT LAUDERDALE",
      "state": 9,
      "stateSpecified": true
    },
    {
      "fromDt": "03/2014",
      "toDt": null,
      "orgNm": "MERRILL LYNCH",
      "city": "CHARLOTTE",
      "state": 28,
      "stateSpecified": true
    }
  ],
  "OthrBuss": {
    "OthrBus": null
  },
  "DRPs": []
}