{
  "Info": {
    "lastNm": "GIBLIN",
    "firstNm": "GERRALD",
    "midNm": "ANTHONY",
    "sufNm": null,
    "indvlPK": "2442834",
    "actvAGReg": 0,
    "link": "http://www.adviserinfo.sec.gov/IAPD/Individual/2442834"
  },
  "OthrNms": [
    {
      "lastNm": "GIBLIN",
      "firstNm": "GERRALD",
      "midNm": "ANTHONY",
      "sufNm": null
    },
    {
      "lastNm": "GIBLIN",
      "firstNm": "GERRALD",
      "midNm": "ANTHONY",
      "sufNm": "JR"
    }
  ],
  "CrntEmps": [
    {
      "CrntRgstns": [
        {
          "regAuth": 5,
          "regCat": 0,
          "st": 2,
          "stDt": "2005-04-18T00:00:00"
        },
        {
          "regAuth": 45,
          "regCat": 0,
          "st": 2,
          "stDt": "2005-04-18T00:00:00"
        },
        {
          "regAuth": 47,
          "regCat": 0,
          "st": 2,
          "stDt": "2005-04-18T00:00:00"
        },
        {
          "regAuth": 26,
          "regCat": 0,
          "st": 2,
          "stDt": "2007-10-03T00:00:00"
        },
        {
          "regAuth": 25,
          "regCat": 0,
          "st": 2,
          "stDt": "2009-06-17T00:00:00"
        },
        {
          "regAuth": 4,
          "regCat": 0,
          "st": 2,
          "stDt": "2013-07-26T00:00:00"
        },
        {
          "regAuth": 28,
          "regCat": 0,
          "st": 2,
          "stDt": "2014-01-17T00:00:00"
        },
        {
          "regAuth": 39,
          "regCat": 0,
          "st": 2,
          "stDt": "2016-05-11T00:00:00"
        }
      ],
      "BrnchOfLocs": [
        {
          "str1": "1800 ST JAMES PLACE",
          "str2": "SUITE 312",
          "city": "HOUSTON",
          "state": 45,
          "stateSpecified": true,
          "cntry": "United States",
          "postlCd": "77056"
        }
      ],
      "orgNm": "FSC SECURITIES CORPORATION",
      "orgPK": "7461",
      "str1": "2300 WINDY RIDGE PKWY, STE 1100",
      "str2": null,
      "city": "ATLANTA",
      "state": 10,
      "stateSpecified": true,
      "cntry": "United States",
      "postlCd": "30339"
    }
  ],
  "Exms": [
    {
      "exmCd": 0,
      "exmNm": "Uniform Securities Agent State Law Examination",
      "exmDt": "1994-01-17T00:00:00",
      "exmDtSpecified": true
    },
    {
      "exmCd": 3,
      "exmNm": "Uniform Combined State Law Examination",
      "exmDt": "2003-08-08T00:00:00",
      "exmDtSpecified": true
    }
  ],
  "Dsgntns": [],
  "PrevRgstns": [
    {
      "BrnchOfLocs": [
        {
          "city": "HOUSTON",
          "state": 45,
          "stateSpecified": true
        }
      ],
      "orgNm": "LINCOLN FINANCIAL ADVISORS CORPORATION",
      "orgPK": "3978",
      "regBeginDt": "1998-06-01T00:00:00",
      "regBeginDtSpecified": true,
      "regEndDt": "2002-12-18T00:00:00",
      "regEndDtSpecified": true
    }
  ],
  "EmpHss": [
    {
      "fromDt": "03/2003",
      "toDt": null,
      "orgNm": "FSC SECURITIES CORPORATION",
      "city": "ATLANTA",
      "state": 10,
      "stateSpecified": true
    },
    {
      "fromDt": "04/2003",
      "toDt": null,
      "orgNm": "SANDEEN & GIBLIN",
      "city": "HOUSTON",
      "state": 45,
      "stateSpecified": true
    }
  ],
  "OthrBuss": {
    "OthrBus": {
      "desc": "SANDEEN & GIBLIN INSURANCE AGENCY, YES, 1800 ST. JAMES PLACE, SUITE 312 HOUSTON, TEXAS 77056, OWNER, 2005, 10, 1, INSURANCE FOR ESTATE TAX PAYMENT FOR PRIOR CLIENTS AND NEW CLIENTS. NORMAL SURVIVORSHIP LIFE INSURANCE."
    }
  },
  "DRPs": []
}