{
  "Info": {
    "lastNm": "CALLAHAN",
    "firstNm": "MICHAEL",
    "midNm": "EDWARD",
    "sufNm": null,
    "indvlPK": "2443408",
    "actvAGReg": 0,
    "link": "http://www.adviserinfo.sec.gov/IAPD/Individual/2443408"
  },
  "OthrNms": [],
  "CrntEmps": [
    {
      "CrntRgstns": [
        {
          "regAuth": 6,
          "regCat": 0,
          "st": 2,
          "stDt": "2005-06-16T00:00:00"
        }
      ],
      "BrnchOfLocs": [
        {
          "str1": "6 KIMBALL LANE",
          "str2": null,
          "city": "LYNNFIELD",
          "state": 20,
          "stateSpecified": true,
          "cntry": "United States",
          "postlCd": "01940"
        },
        {
          "str1": "72 QUEEN STREET",
          "str2": null,
          "city": "SOUTHINGTON",
          "state": 6,
          "stateSpecified": true,
          "cntry": "United States",
          "postlCd": "06489"
        }
      ],
      "orgNm": "INVESTORS CAPITAL CORP.",
      "orgPK": "30613",
      "str1": "6 KIMBALL LANE",
      "str2": null,
      "city": "LYNNFIELD",
      "state": 20,
      "stateSpecified": true,
      "cntry": "United States",
      "postlCd": "01940"
    }
  ],
  "Exms": [
    {
      "exmCd": 0,
      "exmNm": "Uniform Securities Agent State Law Examination",
      "exmDt": "1994-06-23T00:00:00",
      "exmDtSpecified": true
    },
    {
      "exmCd": 2,
      "exmNm": "Uniform Investment Adviser Law Examination",
      "exmDt": "1995-03-09T00:00:00",
      "exmDtSpecified": true
    }
  ],
  "Dsgntns": [],
  "PrevRgstns": [
    {
      "BrnchOfLocs": [
        {
          "city": "SOUTHINGTON",
          "state": 6,
          "stateSpecified": true
        }
      ],
      "orgNm": "EASTERN POINT ADVISORS INC.",
      "orgPK": "107123",
      "regBeginDt": "2001-11-01T00:00:00",
      "regBeginDtSpecified": true,
      "regEndDt": "2005-06-16T00:00:00",
      "regEndDtSpecified": true
    }
  ],
  "EmpHss": [
    {
      "fromDt": "02/1987",
      "toDt": "03/2013",
      "orgNm": "PEN TEC, INC.",
      "city": "CHESHIRE",
      "state": 6,
      "stateSpecified": true
    },
    {
      "fromDt": "02/1989",
      "toDt": null,
      "orgNm": "EMPLOYEE BENEFIT COMPLIANCE SERVICES INC",
      "city": "ROCKY HILL",
      "state": 6,
      "stateSpecified": true
    },
    {
      "fromDt": "09/2001",
      "toDt": null,
      "orgNm": "INVESTORS CAPITAL CORPORATION",
      "city": "LYNNFIELD",
      "state": 20,
      "stateSpecified": true
    },
    {
      "fromDt": "01/2003",
      "toDt": "11/2009",
      "orgNm": "SOUTHINGTON/CHESHIRE YMCA",
      "city": "SOUTHINGTON",
      "state": 6,
      "stateSpecified": true
    }
  ],
  "OthrBuss": {
    "OthrBus": {
      "desc": "DBA: EDU4 RETIREMENT INC. 72 QUEEN STREET, SOUTHINGTON CT 06489; INSURANCE SALES, PENSION CONSULTING, AND PENSION FINANCIAL EDUCATION. ***OBA: EMPLOYEE BENEFITS COMPLIANCE SERVICES, INC.; 2234 SILAS DEAN HWY ROCKY HILL, CT; RETIRMENT PLAN DOCUMENT SERVICES; TITLE CONSULTANT; APPROX. 1 HR SPENT PER MONTH, 0 HRS SPENT DURING TRADING; SINCE 06/88.***OBA: PENCHECKS INC. 8580 LAMESA BLVD. STE 100 LEMESA CA 91941; PENSION DISTRIBUTION PROCESSING AND TRUST CO.; TITLE BOARDMEMBER/MINOR PARTNER; APPROX 2HRS SPENT PER MONTH, APPROX. 2HRS SPENT DURING TRADING; SINCE 1996. *** OBA: MJM MILESTONE, LLC; 155 WILD OAK DR. SOUTHINGTON, CT 06489; REAL ESTATE HOLDING COMPANY;  TITLE- MANAGING PARTNER; APPROX. 5HRS SPENT PER MONTH, 0 HRS SPENT DURING TRADING; SINCE 1996.***OBA: RETIRMENT PLAN ADVISORY SERVICES.  72 QUEEN STREET, SOUTHINGTON CT 06489.  FEE DISCLOSURE ADVISORY SERVICES TO FINANCIAL INSTITUTIONS.  TITLE: PRINCIPAL, START DATE 10/28/2011.  HOURS PER MONTH:120 HOURS DURING TRADING: 80***OBA*** STATE OF CONNECTICUT RETIREMENT SECURITY BOARD. 58 ELM ST. HARTFORD, CT. RESEARCHING AND LAYING THE GROUNDWORK FOR CREATING A STATE-LEVEL INDIVIDUAL RETIREMENT ACCOUNT OPEN TO ALL PRIVATE-SECTOR WORKERS. TITLE: BOARD MEMBER. START DATE: 09/04/2014. HRS/MONTH: 6, HRS/TRADING:3."
    }
  },
  "DRPs": []
}