{
  "Info": {
    "lastNm": "VAUGHAN",
    "firstNm": "JON",
    "midNm": "CARTER",
    "sufNm": null,
    "indvlPK": "2449905",
    "actvAGReg": 0,
    "link": "http://www.adviserinfo.sec.gov/IAPD/Individual/2449905"
  },
  "OthrNms": [],
  "CrntEmps": [
    {
      "CrntRgstns": [
        {
          "regAuth": 45,
          "regCat": 0,
          "st": 2,
          "stDt": "2009-07-15T00:00:00"
        }
      ],
      "BrnchOfLocs": [
        {
          "str1": "5718 WESTHEIMER",
          "str2": "SUITE 950",
          "city": "HOUSTON",
          "state": 45,
          "stateSpecified": true,
          "cntry": "United States",
          "postlCd": "77057"
        }
      ],
      "orgNm": "TRI-STAR ADVISORS, INC.",
      "orgPK": "149760",
      "str1": "5718 WESTHEIMER",
      "str2": "SUITE 950",
      "city": "HOUSTON",
      "state": 45,
      "stateSpecified": true,
      "cntry": "United States",
      "postlCd": "77057"
    }
  ],
  "Exms": [
    {
      "exmCd": 0,
      "exmNm": "Uniform Securities Agent State Law Examination",
      "exmDt": "1994-03-04T00:00:00",
      "exmDtSpecified": true
    }
  ],
  "Dsgntns": [
    {
      "dsgntnNm": "Chartered Financial Analyst"
    }
  ],
  "PrevRgstns": [
    {
      "BrnchOfLocs": [
        {
          "city": "HOUSTON",
          "state": 45,
          "stateSpecified": true
        }
      ],
      "orgNm": "PARALLAX INVESTMENTS, LLC",
      "orgPK": "114924",
      "regBeginDt": "2009-05-11T00:00:00",
      "regBeginDtSpecified": true,
      "regEndDt": "2010-11-23T00:00:00",
      "regEndDtSpecified": true
    }
  ],
  "EmpHss": [
    {
      "fromDt": "01/1994",
      "toDt": null,
      "orgNm": "TRI-STAR FINANCIAL",
      "city": "HOUSTON",
      "state": 45,
      "stateSpecified": true
    },
    {
      "fromDt": "06/2004",
      "toDt": "09/2009",
      "orgNm": "PARALLAX ASSET MANAGEMENT",
      "city": "HOUSTON",
      "state": 45,
      "stateSpecified": true
    },
    {
      "fromDt": "02/2009",
      "toDt": null,
      "orgNm": "TRI-STAR ADVISORS",
      "city": "HOUSTON",
      "state": 45,
      "stateSpecified": true
    },
    {
      "fromDt": "11/2014",
      "toDt": null,
      "orgNm": "CALTON & ASSOCIATES, INC.",
      "city": "TAMPA",
      "state": 9,
      "stateSpecified": true
    }
  ],
  "OthrBuss": {
    "OthrBus": {
      "desc": "TRAVIS STREET ENTERTAINMENT, LLC (NON-PUBLICLY TRADED COMPANY) 0 HOURS PER WEEK  RESTAURANT - 5% OWNERSHIP  PASSIVE INVESTOR, NON-INVESTMENT RELATED  NO COMPENSATION - JUST INVESTMENT RETURN"
    }
  },
  "DRPs": [
    {
      "hasRegAction": 0,
      "hasRegActionSpecified": true,
      "hasCriminal": 1,
      "hasCriminalSpecified": true,
      "hasBankrupt": 1,
      "hasBankruptSpecified": true,
      "hasCivilJudc": 1,
      "hasCivilJudcSpecified": true,
      "hasBond": 1,
      "hasBondSpecified": true,
      "hasJudgment": 1,
      "hasJudgmentSpecified": true,
      "hasInvstgn": 1,
      "hasInvstgnSpecified": true,
      "hasCustComp": 1,
      "hasCustCompSpecified": true,
      "hasTermination": 1,
      "hasTerminationSpecified": true
    }
  ]
}