{
  "Info": {
    "lastNm": "TUTTLE",
    "firstNm": "DAVID",
    "midNm": "NEIL",
    "sufNm": null,
    "indvlPK": "2452943",
    "actvAGReg": 0,
    "link": "http://www.adviserinfo.sec.gov/IAPD/Individual/2452943"
  },
  "OthrNms": [
    {
      "lastNm": "TUTTLE",
      "firstNm": "NEIL",
      "midNm": null,
      "sufNm": null
    }
  ],
  "CrntEmps": [
    {
      "CrntRgstns": [
        {
          "regAuth": 50,
          "regCat": 0,
          "st": 2,
          "stDt": "2012-10-01T00:00:00"
        },
        {
          "regAuth": 45,
          "regCat": 0,
          "st": 3,
          "stDt": "2013-09-20T00:00:00"
        }
      ],
      "BrnchOfLocs": [
        {
          "str1": "15525 WEST NATIONAL AVENUE",
          "str2": null,
          "city": "NEW BERLIN",
          "state": 50,
          "stateSpecified": true,
          "cntry": "United States",
          "postlCd": "53151"
        }
      ],
      "orgNm": "J.P. MORGAN SECURITIES LLC",
      "orgPK": "79",
      "str1": "277 PARK AVENUE",
      "str2": null,
      "city": "NEW YORK",
      "state": 35,
      "stateSpecified": true,
      "cntry": "United States",
      "postlCd": "10172"
    }
  ],
  "Exms": [
    {
      "exmCd": 0,
      "exmNm": "Uniform Securities Agent State Law Examination",
      "exmDt": "1994-04-28T00:00:00",
      "exmDtSpecified": true
    },
    {
      "exmCd": 2,
      "exmNm": "Uniform Investment Adviser Law Examination",
      "exmDt": "1999-06-21T00:00:00",
      "exmDtSpecified": true
    }
  ],
  "Dsgntns": [],
  "PrevRgstns": [
    {
      "BrnchOfLocs": [
        {
          "city": "MILWAUKEE",
          "state": 50,
          "stateSpecified": true
        }
      ],
      "orgNm": "VISION ASSET MANAGEMENT INC",
      "orgPK": "110412",
      "regBeginDt": "2001-06-20T00:00:00",
      "regBeginDtSpecified": true,
      "regEndDt": "2004-12-31T00:00:00",
      "regEndDtSpecified": true
    },
    {
      "BrnchOfLocs": [
        {
          "city": "WEST ALLIS",
          "state": 50,
          "stateSpecified": true
        },
        {
          "city": "WEST ALLIS",
          "state": 50,
          "stateSpecified": true
        },
        {
          "city": "WEST ALLIS",
          "state": 50,
          "stateSpecified": true
        }
      ],
      "orgNm": "M&I FINANCIAL ADVISORS, INC",
      "orgPK": "16517",
      "regBeginDt": "2005-09-15T00:00:00",
      "regBeginDtSpecified": true,
      "regEndDt": "2010-03-30T00:00:00",
      "regEndDtSpecified": true
    },
    {
      "BrnchOfLocs": [
        {
          "city": "NEW BERLIN",
          "state": 50,
          "stateSpecified": true
        }
      ],
      "orgNm": "CHASE INVESTMENT SERVICES CORP.",
      "orgPK": "25574",
      "regBeginDt": "2010-04-08T00:00:00",
      "regBeginDtSpecified": true,
      "regEndDt": "2012-10-01T00:00:00",
      "regEndDtSpecified": true
    }
  ],
  "EmpHss": [
    {
      "fromDt": "09/2004",
      "toDt": "03/2010",
      "orgNm": "M&I BROKERAGE SERVICES INC",
      "city": "WEST ALLIS",
      "state": 50,
      "stateSpecified": true
    },
    {
      "fromDt": "03/2010",
      "toDt": "10/2012",
      "orgNm": "CHASE INVESTMENT SERVICES CORP",
      "city": "NEW BERLIN",
      "state": 50,
      "stateSpecified": true
    },
    {
      "fromDt": "10/2012",
      "toDt": null,
      "orgNm": "J.P. MORGAN SECURITIES LLC",
      "city": "NEW BERLIN",
      "state": 50,
      "stateSpecified": true
    }
  ],
  "OthrBuss": {
    "OthrBus": null
  },
  "DRPs": []
}