{
  "Info": {
    "lastNm": "SHELL",
    "firstNm": "MICHELLE",
    "midNm": "S",
    "sufNm": null,
    "indvlPK": "2453760",
    "actvAGReg": 0,
    "link": "http://www.adviserinfo.sec.gov/IAPD/Individual/2453760"
  },
  "OthrNms": [],
  "CrntEmps": [
    {
      "CrntRgstns": [
        {
          "regAuth": 10,
          "regCat": 0,
          "st": 2,
          "stDt": "2005-08-03T00:00:00"
        },
        {
          "regAuth": 44,
          "regCat": 0,
          "st": 2,
          "stDt": "2005-10-19T00:00:00"
        }
      ],
      "BrnchOfLocs": [
        {
          "str1": "736 MARKET STREET",
          "str2": "STIS COM",
          "city": "CHATTANOOGA",
          "state": 44,
          "stateSpecified": true,
          "cntry": "United States",
          "postlCd": "37402"
        }
      ],
      "orgNm": "SUNTRUST INVESTMENT SERVICES, INC.",
      "orgPK": "17499",
      "str1": "303 PEACHTREE CENTER AVENUE",
      "str2": "SUNTRUST GARDEN OFFICES SUITE 140",
      "city": "ATLANTA",
      "state": 10,
      "stateSpecified": true,
      "cntry": "United States",
      "postlCd": "30303"
    }
  ],
  "Exms": [
    {
      "exmCd": 0,
      "exmNm": "Uniform Securities Agent State Law Examination",
      "exmDt": "1996-02-22T00:00:00",
      "exmDtSpecified": true
    },
    {
      "exmCd": 3,
      "exmNm": "Uniform Combined State Law Examination",
      "exmDt": "2001-07-23T00:00:00",
      "exmDtSpecified": true
    }
  ],
  "Dsgntns": [],
  "PrevRgstns": [],
  "EmpHss": [
    {
      "fromDt": "11/1995",
      "toDt": null,
      "orgNm": "SUNTRUST SECURITIES, INC.",
      "city": "CHATTANOOGA",
      "state": 44,
      "stateSpecified": true
    }
  ],
  "OthrBuss": {
    "OthrBus": {
      "desc": "*RENTAL PROPERTY; 3  PROPERTIES(NON-INVESTMENT RELATED) *RISING FAWN, GA *PERSONAL RENTAL PROPERTY; I DEPOSIT THE RENT CHECK AND MAKE THE MORTGAGE PAYMENT FOR THE OTHER RENTAL PROPERTY. *06/01/2002 - PRESENT *0-HOURS DEVOTED PER MONTH DURING BUSINESS HOURS; 1-HOUR DEVOTED PER MONTH AFTER BUSINESS HOURS.  POSITION: CO-OWNER NATURE: RENTAL PROPERTY INVESTMENT RELATED: YES NUMBER OF HOURS: 1 INVESTMENT RELATED HOURS: 0 START DATE: 09/15/2013 ADDRESS: , ROSSVILLE, GA  DESCRIPTION: WILL SHARE RESPONSIBILITY FOR MAINTENANCE OF THE HOUSE.,   POSITION: CO-OWNER NATURE: RENTAL PROPERTY INVESTMENT RELATED: NO NUMBER OF HOURS: 1 INVESTMENT RELATED HOURS: 0 START DATE: 06/02/2014 ADDRESS: , RISING FAWN GA  DESCRIPTION: MANAGED BY A PROPERTY MANAGEMENT CO.   POSITION: Co-owner NATURE: Rental House INVESTMENT RELATED: No NUMBER OF HOURS: 1 SECURITIES TRADING HOURS: 0 START DATE: 12/01/2015 ADDRESS: , Lookout Mtn GA  DESCRIPTION: Provide check to Property Management company at each month end, if applicable."
    }
  },
  "DRPs": []
}