{
  "Info": {
    "lastNm": "KLINE",
    "firstNm": "STEPHEN",
    "midNm": "RANDALL",
    "sufNm": null,
    "indvlPK": "2459575",
    "actvAGReg": 0,
    "link": "http://www.adviserinfo.sec.gov/IAPD/Individual/2459575"
  },
  "OthrNms": [
    {
      "lastNm": "KLINE",
      "firstNm": "STEVE",
      "midNm": null,
      "sufNm": null
    }
  ],
  "CrntEmps": [
    {
      "CrntRgstns": [
        {
          "regAuth": 5,
          "regCat": 0,
          "st": 2,
          "stDt": "2009-10-01T00:00:00"
        }
      ],
      "BrnchOfLocs": [
        {
          "str1": "14143 DENVER WEST PKWY STE 510",
          "str2": null,
          "city": "GOLDEN",
          "state": 5,
          "stateSpecified": true,
          "cntry": "United States",
          "postlCd": "80401-3269"
        }
      ],
      "orgNm": "LPL FINANCIAL LLC",
      "orgPK": "6413",
      "str1": "75 STATE STREET, 22ND FLOOR",
      "str2": null,
      "city": "BOSTON",
      "state": 20,
      "stateSpecified": true,
      "cntry": "United States",
      "postlCd": "02109"
    }
  ],
  "Exms": [
    {
      "exmCd": 0,
      "exmNm": "Uniform Securities Agent State Law Examination",
      "exmDt": "1994-06-01T00:00:00",
      "exmDtSpecified": true
    },
    {
      "exmCd": 2,
      "exmNm": "Uniform Investment Adviser Law Examination",
      "exmDt": "1994-12-27T00:00:00",
      "exmDtSpecified": true
    }
  ],
  "Dsgntns": [],
  "PrevRgstns": [
    {
      "BrnchOfLocs": [
        {
          "city": "DENVER",
          "state": 5,
          "stateSpecified": true
        },
        {
          "city": "DENVER",
          "state": 5,
          "stateSpecified": true
        }
      ],
      "orgNm": "RBC CAPITAL MARKETS, LLC",
      "orgPK": "31194",
      "regBeginDt": "2001-05-11T00:00:00",
      "regBeginDtSpecified": true,
      "regEndDt": "2009-10-09T00:00:00",
      "regEndDtSpecified": true
    }
  ],
  "EmpHss": [
    {
      "fromDt": "04/2001",
      "toDt": "03/2008",
      "orgNm": "RBC DAIN RAUSCHER INC.",
      "city": "DENVER",
      "state": 5,
      "stateSpecified": true
    },
    {
      "fromDt": "03/2008",
      "toDt": "10/2009",
      "orgNm": "RBC CAPITAL MARKETS CORPORATION",
      "city": "DENVER",
      "state": 5,
      "stateSpecified": true
    },
    {
      "fromDt": "10/2009",
      "toDt": null,
      "orgNm": "LPL FIANCIAL",
      "city": "GOLDEN",
      "state": 5,
      "stateSpecified": true
    }
  ],
  "OthrBuss": {
    "OthrBus": null
  },
  "DRPs": []
}