{
  "Info": {
    "lastNm": "DAUGHTRY",
    "firstNm": "CHRISTOPHER",
    "midNm": "BRIAN",
    "sufNm": null,
    "indvlPK": "2460094",
    "actvAGReg": 0,
    "link": "http://www.adviserinfo.sec.gov/IAPD/Individual/2460094"
  },
  "OthrNms": [],
  "CrntEmps": [
    {
      "CrntRgstns": [
        {
          "regAuth": 28,
          "regCat": 0,
          "st": 2,
          "stDt": "2013-03-04T00:00:00"
        }
      ],
      "BrnchOfLocs": [
        {
          "str1": "2005 EASTWOOD ROAD",
          "str2": "SUITE 102",
          "city": "WILMINGTON",
          "state": 28,
          "stateSpecified": true,
          "cntry": "United States",
          "postlCd": "28403"
        }
      ],
      "orgNm": "STIFEL, NICOLAUS & COMPANY, INCORPORATED",
      "orgPK": "793",
      "str1": "501 N BROADWAY",
      "str2": null,
      "city": "ST LOUIS",
      "state": 25,
      "stateSpecified": true,
      "cntry": "United States",
      "postlCd": "63102"
    }
  ],
  "Exms": [
    {
      "exmCd": 0,
      "exmNm": "Uniform Securities Agent State Law Examination",
      "exmDt": "1994-03-25T00:00:00",
      "exmDtSpecified": true
    },
    {
      "exmCd": 2,
      "exmNm": "Uniform Investment Adviser Law Examination",
      "exmDt": "1998-03-17T00:00:00",
      "exmDtSpecified": true
    }
  ],
  "Dsgntns": [],
  "PrevRgstns": [
    {
      "BrnchOfLocs": [
        {
          "city": "WILMINGTON",
          "state": 28,
          "stateSpecified": true
        },
        {
          "city": "WILMINGTON",
          "state": 28,
          "stateSpecified": true
        }
      ],
      "orgNm": "FERRIS, BAKER WATTS, LLC",
      "orgPK": "285",
      "regBeginDt": "2001-08-28T00:00:00",
      "regBeginDtSpecified": true,
      "regEndDt": "2009-03-13T00:00:00",
      "regEndDtSpecified": true
    },
    {
      "BrnchOfLocs": [
        {
          "city": "WILMINGTON",
          "state": 28,
          "stateSpecified": true
        }
      ],
      "orgNm": "RBC CAPITAL MARKETS, LLC",
      "orgPK": "31194",
      "regBeginDt": "2009-03-13T00:00:00",
      "regBeginDtSpecified": true,
      "regEndDt": "2013-03-22T00:00:00",
      "regEndDtSpecified": true
    }
  ],
  "EmpHss": [
    {
      "fromDt": "06/2001",
      "toDt": "03/2009",
      "orgNm": "FERRIS, BAKER WATTS, INC.",
      "city": "WILMINGTON",
      "state": 28,
      "stateSpecified": true
    },
    {
      "fromDt": "03/2009",
      "toDt": "03/2013",
      "orgNm": "RBC CAPITAL MARKETS CORPORATION",
      "city": "WILMINGTON",
      "state": 28,
      "stateSpecified": true
    },
    {
      "fromDt": "03/2013",
      "toDt": null,
      "orgNm": "STIFEL NICOLAUS & CO INC",
      "city": "WILMINGTON",
      "state": 28,
      "stateSpecified": true
    }
  ],
  "OthrBuss": {
    "OthrBus": null
  },
  "DRPs": []
}