{
  "Info": {
    "lastNm": "ALLARD",
    "firstNm": "MICHAEL",
    "midNm": "LEE",
    "sufNm": null,
    "indvlPK": "2461271",
    "actvAGReg": 1,
    "link": "http://www.adviserinfo.sec.gov/IAPD/Individual/2461271"
  },
  "OthrNms": [],
  "CrntEmps": [
    {
      "CrntRgstns": [
        {
          "regAuth": 4,
          "regCat": 0,
          "st": 2,
          "stDt": "2011-07-28T00:00:00"
        }
      ],
      "BrnchOfLocs": [
        {
          "str1": "5619 SCOTTS VALLEY DR, SUITE 140",
          "str2": null,
          "city": "SCOTTS VALLEY",
          "state": 4,
          "stateSpecified": true,
          "cntry": "United States",
          "postlCd": "95066-3453"
        }
      ],
      "orgNm": "SCHARF INVESTMENTS, LLC",
      "orgPK": "105508",
      "str1": "5619 SCOTTS VALLEY DR, SUITE 140",
      "str2": null,
      "city": "SCOTTS VALLEY",
      "state": 4,
      "stateSpecified": true,
      "cntry": "United States",
      "postlCd": "95066-3453"
    }
  ],
  "Exms": [
    {
      "exmCd": 0,
      "exmNm": "Uniform Securities Agent State Law Examination",
      "exmDt": "1994-06-08T00:00:00",
      "exmDtSpecified": true
    },
    {
      "exmCd": 2,
      "exmNm": "Uniform Investment Adviser Law Examination",
      "exmDt": "1999-05-05T00:00:00",
      "exmDtSpecified": true
    }
  ],
  "Dsgntns": [],
  "PrevRgstns": [
    {
      "BrnchOfLocs": [
        {
          "city": "SOQUEL",
          "state": 4,
          "stateSpecified": true
        }
      ],
      "orgNm": "CHARLES SCHWAB & CO., INC.",
      "orgPK": "5393",
      "regBeginDt": "1999-05-10T00:00:00",
      "regBeginDtSpecified": true,
      "regEndDt": "2003-12-19T00:00:00",
      "regEndDtSpecified": true
    },
    {
      "BrnchOfLocs": [
        {
          "city": "CARMEL",
          "state": 4,
          "stateSpecified": true
        }
      ],
      "orgNm": "WELLS FARGO INVESTMENTS, LLC",
      "orgPK": "10582",
      "regBeginDt": "2003-12-15T00:00:00",
      "regBeginDtSpecified": true,
      "regEndDt": "2006-01-03T00:00:00",
      "regEndDtSpecified": true
    }
  ],
  "EmpHss": [
    {
      "fromDt": "01/2006",
      "toDt": null,
      "orgNm": "SCHARF INVESTMENTS",
      "city": "SANTA CRUZ",
      "state": 4,
      "stateSpecified": true
    }
  ],
  "OthrBuss": {
    "OthrBus": null
  },
  "DRPs": []
}