{
  "Info": {
    "lastNm": "DELAPORTE",
    "firstNm": "TIMOTHY",
    "midNm": "ANDRE",
    "sufNm": null,
    "indvlPK": "2462925",
    "actvAGReg": 0,
    "link": "http://www.adviserinfo.sec.gov/IAPD/Individual/2462925"
  },
  "OthrNms": [
    {
      "lastNm": "DELAPORTE",
      "firstNm": "TIMOTHY",
      "midNm": "ANDRE",
      "sufNm": null
    }
  ],
  "CrntEmps": [
    {
      "CrntRgstns": [
        {
          "regAuth": 4,
          "regCat": 0,
          "st": 2,
          "stDt": "2016-04-20T00:00:00"
        }
      ],
      "BrnchOfLocs": [
        {
          "str1": "180 MONTGOMERY STREET",
          "str2": "SUITE 1900",
          "city": "SAN FRANCISCO",
          "state": 4,
          "stateSpecified": true,
          "cntry": "United States",
          "postlCd": "94104"
        }
      ],
      "orgNm": "PRUCO SECURITIES, LLC.",
      "orgPK": "5685",
      "str1": "751 BROAD STREET",
      "str2": null,
      "city": "NEWARK",
      "state": 32,
      "stateSpecified": true,
      "cntry": "United States",
      "postlCd": "07102-3777"
    }
  ],
  "Exms": [
    {
      "exmCd": 0,
      "exmNm": "Uniform Securities Agent State Law Examination",
      "exmDt": "1994-04-13T00:00:00",
      "exmDtSpecified": true
    },
    {
      "exmCd": 3,
      "exmNm": "Uniform Combined State Law Examination",
      "exmDt": "2006-07-17T00:00:00",
      "exmDtSpecified": true
    },
    {
      "exmCd": 2,
      "exmNm": "Uniform Investment Adviser Law Examination",
      "exmDt": "2015-08-03T00:00:00",
      "exmDtSpecified": true
    }
  ],
  "Dsgntns": [],
  "PrevRgstns": [
    {
      "BrnchOfLocs": [
        {
          "city": "SAN RAMON",
          "state": 4,
          "stateSpecified": true
        },
        {
          "city": "SAN RAMON",
          "state": 4,
          "stateSpecified": true
        }
      ],
      "orgNm": "WOODBURY FINANCIAL SERVICES, INC.",
      "orgPK": "421",
      "regBeginDt": "2006-08-17T00:00:00",
      "regBeginDtSpecified": true,
      "regEndDt": "2010-12-14T00:00:00",
      "regEndDtSpecified": true
    },
    {
      "BrnchOfLocs": [
        {
          "city": "WALNUT CREEK",
          "state": 4,
          "stateSpecified": true
        }
      ],
      "orgNm": "PRINCIPAL SECURITIES, INC.",
      "orgPK": "1137",
      "regBeginDt": "2015-08-04T00:00:00",
      "regBeginDtSpecified": true,
      "regEndDt": "2016-03-01T00:00:00",
      "regEndDtSpecified": true
    }
  ],
  "EmpHss": [
    {
      "fromDt": "02/1994",
      "toDt": "12/2010",
      "orgNm": "FORTIS INVESTORS, INC.",
      "city": "CONCORD",
      "state": 4,
      "stateSpecified": true
    },
    {
      "fromDt": "02/1994",
      "toDt": "12/2010",
      "orgNm": "WOODBURY",
      "city": "SAN RAMON",
      "state": 4,
      "stateSpecified": true
    },
    {
      "fromDt": "12/2010",
      "toDt": "12/2010",
      "orgNm": "UNEMPLOYED",
      "city": "FAIRFIELD",
      "state": 4,
      "stateSpecified": true
    },
    {
      "fromDt": "01/2011",
      "toDt": "04/2013",
      "orgNm": "NEW YORK LIFE INSURANCE COMPANY",
      "city": "SAN RAMON",
      "state": 4,
      "stateSpecified": true
    },
    {
      "fromDt": "01/2011",
      "toDt": "04/2013",
      "orgNm": "NYLIFE SECURITIES LLC",
      "city": "SAN RAMON",
      "state": 4,
      "stateSpecified": true
    },
    {
      "fromDt": "05/2013",
      "toDt": "02/2016",
      "orgNm": "PRINCIPAL LIFE INS CO",
      "city": "WALNUT CREEK",
      "state": 4,
      "stateSpecified": true
    },
    {
      "fromDt": "05/2013",
      "toDt": "02/2016",
      "orgNm": "PRINCOR FINANCIAL SERVICES CORP",
      "city": "WALNUT CREEK",
      "state": 4,
      "stateSpecified": true
    },
    {
      "fromDt": "02/2016",
      "toDt": null,
      "orgNm": "Pruco Securities, LLC",
      "city": "San Francisco",
      "state": 4,
      "stateSpecified": true
    },
    {
      "fromDt": "02/2016",
      "toDt": null,
      "orgNm": "The Prudential Insurance Company of America",
      "city": "San Francisco",
      "state": 4,
      "stateSpecified": true
    }
  ],
  "OthrBuss": {
    "OthrBus": null
  },
  "DRPs": [
    {
      "hasRegAction": 1,
      "hasRegActionSpecified": true,
      "hasCriminal": 1,
      "hasCriminalSpecified": true,
      "hasBankrupt": 0,
      "hasBankruptSpecified": true,
      "hasCivilJudc": 1,
      "hasCivilJudcSpecified": true,
      "hasBond": 1,
      "hasBondSpecified": true,
      "hasJudgment": 1,
      "hasJudgmentSpecified": true,
      "hasInvstgn": 1,
      "hasInvstgnSpecified": true,
      "hasCustComp": 1,
      "hasCustCompSpecified": true,
      "hasTermination": 1,
      "hasTerminationSpecified": true
    }
  ]
}