{
  "Info": {
    "lastNm": "SMITH",
    "firstNm": "ANTHONY",
    "midNm": "CHARLES",
    "sufNm": null,
    "indvlPK": "2471757",
    "actvAGReg": 0,
    "link": "http://www.adviserinfo.sec.gov/IAPD/Individual/2471757"
  },
  "OthrNms": [
    {
      "lastNm": "SMITH",
      "firstNm": "ANTHONY",
      "midNm": null,
      "sufNm": null
    },
    {
      "lastNm": "SMITH",
      "firstNm": "TONY",
      "midNm": null,
      "sufNm": null
    }
  ],
  "CrntEmps": [
    {
      "CrntRgstns": [
        {
          "regAuth": 9,
          "regCat": 0,
          "st": 2,
          "stDt": "2015-02-20T00:00:00"
        }
      ],
      "BrnchOfLocs": [
        {
          "str1": "2701 N ROCKY POINT DRIVE",
          "str2": "SUITE 1000",
          "city": "TAMPA",
          "state": 9,
          "stateSpecified": true,
          "cntry": "UNITED STATES",
          "postlCd": "33607"
        },
        {
          "str1": "2701 N. ROCKY POINT DRIVE",
          "str2": "SUITE 1000",
          "city": "TAMPA",
          "state": 9,
          "stateSpecified": true,
          "cntry": "United States",
          "postlCd": "33607"
        },
        {
          "str1": "6116 SW HWY 200",
          "str2": null,
          "city": "Ocala",
          "state": 9,
          "stateSpecified": true,
          "cntry": "United States",
          "postlCd": "34476"
        }
      ],
      "orgNm": "CALTON & ASSOCIATES, INC.",
      "orgPK": "20999",
      "str1": "2701 N. ROCKY POINT DRIVE",
      "str2": "SUITE 1000",
      "city": "TAMPA",
      "state": 9,
      "stateSpecified": true,
      "cntry": "United States",
      "postlCd": "33607"
    }
  ],
  "Exms": [
    {
      "exmCd": 0,
      "exmNm": "Uniform Securities Agent State Law Examination",
      "exmDt": "1994-06-06T00:00:00",
      "exmDtSpecified": true
    },
    {
      "exmCd": 2,
      "exmNm": "Uniform Investment Adviser Law Examination",
      "exmDt": "2010-10-11T00:00:00",
      "exmDtSpecified": true
    }
  ],
  "Dsgntns": [],
  "PrevRgstns": [
    {
      "BrnchOfLocs": [
        {
          "city": "OCALA",
          "state": 9,
          "stateSpecified": true
        },
        {
          "city": "OCALA",
          "state": 9,
          "stateSpecified": true
        },
        {
          "city": "OCALA",
          "state": 9,
          "stateSpecified": true
        },
        {
          "city": "OCALA",
          "state": 9,
          "stateSpecified": true
        },
        {
          "city": "ODESSA",
          "state": 9,
          "stateSpecified": true
        }
      ],
      "orgNm": "NEWPORT COAST SECURITIES, INC.",
      "orgPK": "16944",
      "regBeginDt": "2010-10-13T00:00:00",
      "regBeginDtSpecified": true,
      "regEndDt": "2015-02-17T00:00:00",
      "regEndDtSpecified": true
    }
  ],
  "EmpHss": [
    {
      "fromDt": "05/2000",
      "toDt": null,
      "orgNm": "WINDWARD WEALTH MANAGEMENT",
      "city": "OCALA",
      "state": 9,
      "stateSpecified": true
    },
    {
      "fromDt": "11/2002",
      "toDt": null,
      "orgNm": "INDEPENDENT INSURANCE AGENT",
      "city": "OCALA",
      "state": 9,
      "stateSpecified": true
    },
    {
      "fromDt": "03/2003",
      "toDt": "07/2008",
      "orgNm": "BERTHEL, FISHER & COMPANY FINANCIAL SERVICES, INC.",
      "city": "OCALA",
      "state": 9,
      "stateSpecified": true
    },
    {
      "fromDt": "07/2008",
      "toDt": "02/2015",
      "orgNm": "GRANT BETTINGEN",
      "city": "OCALA",
      "state": 9,
      "stateSpecified": true
    },
    {
      "fromDt": "02/2015",
      "toDt": null,
      "orgNm": "CALTON & ASSOCIATES, INC.",
      "city": "OCALA",
      "state": 9,
      "stateSpecified": true
    }
  ],
  "OthrBuss": {
    "OthrBus": {
      "desc": "1)WINDWARD WEALTH MANAGEMENT, 6116 SW HIGHWAY 200, OCALA FL,34476 OWNER, DBA FOR FINANCIAL SERVICES  INVESTMENT RELATED, 95% TIME DEVOTED TO THIS BUSINESS START DATE 06/2010  2)WINDWARD INSURANCE & TAX SERVICES, 6114 SW HIGHWAY 200, OCALA, FL 34476,  OWNER, ACCIDENT LIFE, HEALTH, ANNUITIES, HOME & AUTO INSURANCE, TAX PREPARATION,  NOT INVESTMENT RELATED,5% TIME DEVOTED TO THIS BUSINESS"
    }
  },
  "DRPs": []
}