{
  "Info": {
    "lastNm": "LITVAK",
    "firstNm": "RICARDO",
    "midNm": "JUAN",
    "sufNm": null,
    "indvlPK": "2476755",
    "actvAGReg": 1,
    "link": "http://www.adviserinfo.sec.gov/IAPD/Individual/2476755"
  },
  "OthrNms": [
    {
      "lastNm": "LITVAK",
      "firstNm": "RICARDO",
      "midNm": null,
      "sufNm": null
    },
    {
      "lastNm": "LITVAK",
      "firstNm": "RICARDO",
      "midNm": "J",
      "sufNm": null
    }
  ],
  "CrntEmps": [
    {
      "CrntRgstns": [
        {
          "regAuth": 6,
          "regCat": 0,
          "st": 2,
          "stDt": "2014-09-22T00:00:00"
        }
      ],
      "BrnchOfLocs": [
        {
          "str1": "8 WRIGHT STREET",
          "str2": null,
          "city": "WESTPORT",
          "state": 6,
          "stateSpecified": true,
          "cntry": "United States",
          "postlCd": "06880"
        }
      ],
      "orgNm": "LITVAK WEALTH, LLC",
      "orgPK": "170805",
      "str1": "8 WRIGHT STREET",
      "str2": null,
      "city": "WESTPORT",
      "state": 6,
      "stateSpecified": true,
      "cntry": "United States",
      "postlCd": "06880"
    }
  ],
  "Exms": [
    {
      "exmCd": 0,
      "exmNm": "Uniform Securities Agent State Law Examination",
      "exmDt": "1994-08-18T00:00:00",
      "exmDtSpecified": true
    },
    {
      "exmCd": 2,
      "exmNm": "Uniform Investment Adviser Law Examination",
      "exmDt": "2004-03-03T00:00:00",
      "exmDtSpecified": true
    }
  ],
  "Dsgntns": [],
  "PrevRgstns": [
    {
      "BrnchOfLocs": [
        {
          "city": "NEW YORK",
          "state": 35,
          "stateSpecified": true
        },
        {
          "city": "NEW YORK",
          "state": 35,
          "stateSpecified": true
        }
      ],
      "orgNm": "WELLS FARGO ADVISORS, LLC",
      "orgPK": "19616",
      "regBeginDt": "2004-03-04T00:00:00",
      "regBeginDtSpecified": true,
      "regEndDt": "2008-09-24T00:00:00",
      "regEndDtSpecified": true
    },
    {
      "BrnchOfLocs": [
        {
          "city": "NEW YORK",
          "state": 35,
          "stateSpecified": true
        }
      ],
      "orgNm": "MORGAN STANLEY & CO. LLC",
      "orgPK": "8209",
      "regBeginDt": "2009-01-26T00:00:00",
      "regBeginDtSpecified": true,
      "regEndDt": "2009-06-01T00:00:00",
      "regEndDtSpecified": true
    },
    {
      "BrnchOfLocs": [
        {
          "city": "NEW YORK",
          "state": 35,
          "stateSpecified": true
        },
        {
          "city": "NEW YORK",
          "state": 35,
          "stateSpecified": true
        }
      ],
      "orgNm": "MORGAN STANLEY",
      "orgPK": "149777",
      "regBeginDt": "2009-06-01T00:00:00",
      "regBeginDtSpecified": true,
      "regEndDt": "2014-05-05T00:00:00",
      "regEndDtSpecified": true
    }
  ],
  "EmpHss": [
    {
      "fromDt": "06/2003",
      "toDt": "09/2008",
      "orgNm": "WACHOVIA SECURITIES, LLC",
      "city": "NEW YORK",
      "state": 35,
      "stateSpecified": true
    },
    {
      "fromDt": "09/2008",
      "toDt": "04/2014",
      "orgNm": "MORGAN STANLEY & CO. INCORPORATED",
      "city": "NEW YORK",
      "state": 35,
      "stateSpecified": true
    },
    {
      "fromDt": "06/2009",
      "toDt": "04/2014",
      "orgNm": "MORGAN STANLEY SMITH BARNEY",
      "city": "NEW YORK",
      "state": 35,
      "stateSpecified": true
    },
    {
      "fromDt": "04/2014",
      "toDt": null,
      "orgNm": "LITVAK WEALTH, LLC",
      "city": "WESTON",
      "state": 6,
      "stateSpecified": true
    }
  ],
  "OthrBuss": {
    "OthrBus": {
      "desc": "LITVAK SOLUTIONS LLC, NON INVESTMENT RELATED CONSULTING SERVICES, ADDRESS IS 5 HIDDEN SPRING DRIVE IN WESTON CT, I AM THE CO-FOUNDER OF THE FIRM THROUGH MY OWNERSHIP OF THE HOLDING COMPANY LITVAK & COMPANY LLC. 5% OF MY TIME PER MONTH IS SPENT ON LITVAK SOLUTIONS LLC."
    }
  },
  "DRPs": []
}