{
  "Info": {
    "lastNm": "ALSTON",
    "firstNm": "ROBERT",
    "midNm": "CECIL",
    "sufNm": "JR",
    "indvlPK": "2480962",
    "actvAGReg": 1,
    "link": "http://www.adviserinfo.sec.gov/IAPD/Individual/2480962"
  },
  "OthrNms": [
    {
      "lastNm": "ALSTON",
      "firstNm": "R",
      "midNm": "CECIL",
      "sufNm": "JR"
    },
    {
      "lastNm": "ALSTON",
      "firstNm": "ROB",
      "midNm": null,
      "sufNm": "JR"
    }
  ],
  "CrntEmps": [
    {
      "CrntRgstns": [
        {
          "regAuth": 45,
          "regCat": 0,
          "st": 2,
          "stDt": "2015-10-16T00:00:00"
        }
      ],
      "BrnchOfLocs": [
        {
          "str1": "7777 WARREN PARKWAY",
          "str2": "SUITE 100",
          "city": "FRISCO",
          "state": 45,
          "stateSpecified": true,
          "cntry": "United States",
          "postlCd": "75034"
        }
      ],
      "orgNm": "QUADCAP WEALTH MANAGEMENT, LLC",
      "orgPK": "151490",
      "str1": "7777 WARREN PARKWAY",
      "str2": "SUITE 100",
      "city": "FRISCO",
      "state": 45,
      "stateSpecified": true,
      "cntry": "United States",
      "postlCd": "75034"
    }
  ],
  "Exms": [
    {
      "exmCd": 0,
      "exmNm": "Uniform Securities Agent State Law Examination",
      "exmDt": "1994-10-28T00:00:00",
      "exmDtSpecified": true
    },
    {
      "exmCd": 2,
      "exmNm": "Uniform Investment Adviser Law Examination",
      "exmDt": "2015-10-16T00:00:00",
      "exmDtSpecified": true
    }
  ],
  "Dsgntns": [],
  "PrevRgstns": [
    {
      "BrnchOfLocs": [
        {
          "city": "CHICAGO",
          "state": 15,
          "stateSpecified": true
        }
      ],
      "orgNm": "BANC ONE SECURITIES CORPORATION",
      "orgPK": "16999",
      "regBeginDt": "2002-09-30T00:00:00",
      "regBeginDtSpecified": true,
      "regEndDt": "2005-07-06T00:00:00",
      "regEndDtSpecified": true
    },
    {
      "BrnchOfLocs": [
        {
          "city": "CHICAGO",
          "state": 15,
          "stateSpecified": true
        }
      ],
      "orgNm": "CHASE INVESTMENT SERVICES CORP.",
      "orgPK": "25574",
      "regBeginDt": "2005-07-06T00:00:00",
      "regBeginDtSpecified": true,
      "regEndDt": "2005-07-13T00:00:00",
      "regEndDtSpecified": true
    },
    {
      "BrnchOfLocs": [
        {
          "city": "BOERNE",
          "state": 45,
          "stateSpecified": true
        },
        {
          "city": "SAN DIEGO",
          "state": 4,
          "stateSpecified": true
        },
        {
          "city": "SAN DIEGO",
          "state": 4,
          "stateSpecified": true
        },
        {
          "city": "SAN DIEGO",
          "state": 4,
          "stateSpecified": true
        }
      ],
      "orgNm": "ADVISORS ASSET MANAGEMENT, INC.",
      "orgPK": "46727",
      "regBeginDt": "2005-07-11T00:00:00",
      "regBeginDtSpecified": true,
      "regEndDt": "2010-03-18T00:00:00",
      "regEndDtSpecified": true
    }
  ],
  "EmpHss": [
    {
      "fromDt": "07/2005",
      "toDt": "03/2010",
      "orgNm": "ADVISORS ASSET MANGEMENT, INC",
      "city": "SAN DIEGO",
      "state": 4,
      "stateSpecified": true
    },
    {
      "fromDt": "03/2010",
      "toDt": "10/2011",
      "orgNm": "BRAYMEN, LAMBERT AND NOEL",
      "city": "LOS ANGELES",
      "state": 4,
      "stateSpecified": true
    },
    {
      "fromDt": "10/2011",
      "toDt": "10/2012",
      "orgNm": "ITB SECURITIES, LLC",
      "city": "NEW YORK",
      "state": 35,
      "stateSpecified": true
    },
    {
      "fromDt": "11/2012",
      "toDt": "04/2014",
      "orgNm": "BRAYMEN LAMBERT AND NOEL",
      "city": "IRVING",
      "state": 45,
      "stateSpecified": true
    },
    {
      "fromDt": "03/2014",
      "toDt": "08/2015",
      "orgNm": "MULTI-BANK SECURITIES, INC.",
      "city": "SOUTHFIELD",
      "state": 23,
      "stateSpecified": true
    },
    {
      "fromDt": "08/2015",
      "toDt": null,
      "orgNm": "QUADCAP WEALTH MANAGEMENT, LLC",
      "city": "FRISCO",
      "state": 45,
      "stateSpecified": true
    },
    {
      "fromDt": "08/2015",
      "toDt": null,
      "orgNm": "QUADCAP WEALTH MANAGEMENT, LLC",
      "city": "FRISCO",
      "state": 45,
      "stateSpecified": true
    }
  ],
  "OthrBuss": {
    "OthrBus": null
  },
  "DRPs": [
    {
      "hasRegAction": 1,
      "hasRegActionSpecified": true,
      "hasCriminal": 1,
      "hasCriminalSpecified": true,
      "hasBankrupt": 1,
      "hasBankruptSpecified": true,
      "hasCivilJudc": 1,
      "hasCivilJudcSpecified": true,
      "hasBond": 0,
      "hasBondSpecified": true,
      "hasJudgment": 1,
      "hasJudgmentSpecified": true,
      "hasInvstgn": 1,
      "hasInvstgnSpecified": true,
      "hasCustComp": 1,
      "hasCustCompSpecified": true,
      "hasTermination": 1,
      "hasTerminationSpecified": true
    }
  ]
}