{
  "Info": {
    "lastNm": "MOREN",
    "firstNm": "WILLIAM",
    "midNm": "THOMAS",
    "sufNm": null,
    "indvlPK": "2482983",
    "actvAGReg": 0,
    "link": "http://www.adviserinfo.sec.gov/IAPD/Individual/2482983"
  },
  "OthrNms": [
    {
      "lastNm": "MOREN",
      "firstNm": "TOM",
      "midNm": null,
      "sufNm": null
    },
    {
      "lastNm": "MOREN",
      "firstNm": "W",
      "midNm": "THOMAS",
      "sufNm": null
    }
  ],
  "CrntEmps": [
    {
      "CrntRgstns": [
        {
          "regAuth": 45,
          "regCat": 0,
          "st": 2,
          "stDt": "2012-08-13T00:00:00"
        },
        {
          "regAuth": 3,
          "regCat": 0,
          "st": 2,
          "stDt": "2012-08-28T00:00:00"
        }
      ],
      "BrnchOfLocs": [
        {
          "str1": "14321 NORTH NORTHSIGHT BLVD",
          "str2": null,
          "city": "SCOTTSDALE",
          "state": 3,
          "stateSpecified": true,
          "cntry": "United States",
          "postlCd": "85260"
        }
      ],
      "orgNm": "VANGUARD ADVISERS INC",
      "orgPK": "106715",
      "str1": "100 VANGUARD BLVD",
      "str2": "V26",
      "city": "MALVERN",
      "state": 39,
      "stateSpecified": true,
      "cntry": "United States",
      "postlCd": "19355"
    }
  ],
  "Exms": [
    {
      "exmCd": 0,
      "exmNm": "Uniform Securities Agent State Law Examination",
      "exmDt": "1994-04-25T00:00:00",
      "exmDtSpecified": true
    },
    {
      "exmCd": 2,
      "exmNm": "Uniform Investment Adviser Law Examination",
      "exmDt": "1999-10-11T00:00:00",
      "exmDtSpecified": true
    }
  ],
  "Dsgntns": [
    {
      "dsgntnNm": "Certified Financial Planner"
    }
  ],
  "PrevRgstns": [
    {
      "BrnchOfLocs": [
        {
          "city": "SCOTTSDALE",
          "state": 3,
          "stateSpecified": true
        }
      ],
      "orgNm": "VANGUARD ADVISERS INC",
      "orgPK": "106715",
      "regBeginDt": "1999-12-09T00:00:00",
      "regBeginDtSpecified": true,
      "regEndDt": "2005-04-21T00:00:00",
      "regEndDtSpecified": true
    }
  ],
  "EmpHss": [
    {
      "fromDt": "11/1994",
      "toDt": null,
      "orgNm": "THE VANGUARD GROUP, INC.",
      "city": "SCOTTSDALE",
      "state": 3,
      "stateSpecified": true
    }
  ],
  "OthrBuss": {
    "OthrBus": {
      "desc": "EMPLOYEE OF THE VANGUARD GROUP, INC (PARENT COMPANY OF VANGUARD MARKETING CORP), 100 VANGUARD BOULEVARD, MALVERN, PA 19355"
    }
  },
  "DRPs": []
}