{
  "Info": {
    "lastNm": "GERSE",
    "firstNm": "MARION",
    "midNm": "T",
    "sufNm": null,
    "indvlPK": "2482779",
    "actvAGReg": 0,
    "link": "http://www.adviserinfo.sec.gov/IAPD/Individual/2482779"
  },
  "OthrNms": [
    {
      "lastNm": "ALVAREZ",
      "firstNm": "MARION",
      "midNm": "T.",
      "sufNm": null
    },
    {
      "lastNm": "ALVAREZ",
      "firstNm": "MARION",
      "midNm": "TAKEMURA",
      "sufNm": null
    },
    {
      "lastNm": "GERSE",
      "firstNm": "MARION",
      "midNm": "TAKEMURA",
      "sufNm": null
    },
    {
      "lastNm": "KASHAN",
      "firstNm": "MARION",
      "midNm": "A",
      "sufNm": null
    }
  ],
  "CrntEmps": [
    {
      "CrntRgstns": [
        {
          "regAuth": 4,
          "regCat": 0,
          "st": 2,
          "stDt": "2014-11-14T00:00:00"
        }
      ],
      "BrnchOfLocs": [
        {
          "str1": "800 N BRAND BLVD., 16TH FLOOR",
          "str2": null,
          "city": "GLENDALE",
          "state": 4,
          "stateSpecified": true,
          "cntry": "United States",
          "postlCd": "91203"
        }
      ],
      "orgNm": "UNIONBANC INVESTMENT SERVICES, LLC",
      "orgPK": "14455",
      "str1": "800 N. BRAND BOULEVARD",
      "str2": "16TH FLOOR",
      "city": "GLENDALE",
      "state": 4,
      "stateSpecified": true,
      "cntry": "United States",
      "postlCd": "91203"
    }
  ],
  "Exms": [
    {
      "exmCd": 0,
      "exmNm": "Uniform Securities Agent State Law Examination",
      "exmDt": "2000-01-10T00:00:00",
      "exmDtSpecified": true
    },
    {
      "exmCd": 2,
      "exmNm": "Uniform Investment Adviser Law Examination",
      "exmDt": "2001-07-30T00:00:00",
      "exmDtSpecified": true
    }
  ],
  "Dsgntns": [],
  "PrevRgstns": [
    {
      "BrnchOfLocs": [
        {
          "city": "SACRAMENTO",
          "state": 4,
          "stateSpecified": true
        }
      ],
      "orgNm": "FDX ADVISORS, INC.",
      "orgPK": "104601",
      "regBeginDt": "2002-06-26T00:00:00",
      "regBeginDtSpecified": true,
      "regEndDt": "2003-04-11T00:00:00",
      "regEndDtSpecified": true
    },
    {
      "BrnchOfLocs": [
        {
          "city": "FAIRFIELD",
          "state": 13,
          "stateSpecified": true
        }
      ],
      "orgNm": "CAMBRIDGE INVESTMENT RESEARCH, INC.",
      "orgPK": "39543",
      "regBeginDt": "2003-05-13T00:00:00",
      "regBeginDtSpecified": true,
      "regEndDt": "2005-03-28T00:00:00",
      "regEndDtSpecified": true
    },
    {
      "BrnchOfLocs": [
        {
          "city": "FAIRFIELD",
          "state": 13,
          "stateSpecified": true
        }
      ],
      "orgNm": "CAMBRIDGE INVESTMENT RESEARCH ADVISORS, INC.",
      "orgPK": "134139",
      "regBeginDt": "2005-03-28T00:00:00",
      "regBeginDtSpecified": true,
      "regEndDt": "2005-06-06T00:00:00",
      "regEndDtSpecified": true
    },
    {
      "BrnchOfLocs": [
        {
          "city": "BOCA RATON",
          "state": 9,
          "stateSpecified": true
        }
      ],
      "orgNm": "SUMMIT FINANCIAL GROUP INC",
      "orgPK": "109485",
      "regBeginDt": "2005-07-20T00:00:00",
      "regBeginDtSpecified": true,
      "regEndDt": "2005-10-13T00:00:00",
      "regEndDtSpecified": true
    },
    {
      "BrnchOfLocs": [
        {
          "city": "LOS ANGELES",
          "state": 4,
          "stateSpecified": true
        }
      ],
      "orgNm": "CROWELL, WEEDON & CO.",
      "orgPK": "193",
      "regBeginDt": "2007-01-10T00:00:00",
      "regBeginDtSpecified": true,
      "regEndDt": "2008-06-03T00:00:00",
      "regEndDtSpecified": true
    },
    {
      "BrnchOfLocs": [
        {
          "city": "CALABASAS",
          "state": 4,
          "stateSpecified": true
        }
      ],
      "orgNm": "AFA ADVISOR SERVICES LLC",
      "orgPK": "129104",
      "regBeginDt": "2008-10-06T00:00:00",
      "regBeginDtSpecified": true,
      "regEndDt": "2010-04-29T00:00:00",
      "regEndDtSpecified": true
    },
    {
      "BrnchOfLocs": [
        {
          "city": "LOS ANGELES",
          "state": 4,
          "stateSpecified": true
        },
        {
          "city": "LOS ANGELES",
          "state": 4,
          "stateSpecified": true
        },
        {
          "city": "NEW YORK",
          "state": 35,
          "stateSpecified": true
        }
      ],
      "orgNm": "WESTPARK CAPITAL, INC.",
      "orgPK": "39914",
      "regBeginDt": "2010-08-31T00:00:00",
      "regBeginDtSpecified": true,
      "regEndDt": "2011-03-31T00:00:00",
      "regEndDtSpecified": true
    },
    {
      "BrnchOfLocs": [
        {
          "city": "BLOOMINGTON",
          "state": 15,
          "stateSpecified": true
        },
        {
          "city": "BLOOMINGTON",
          "state": 15,
          "stateSpecified": true
        },
        {
          "city": "SANTA MONICA",
          "state": 4,
          "stateSpecified": true
        }
      ],
      "orgNm": "FIRST MIDWEST SECURITIES, INC.",
      "orgPK": "21786",
      "regBeginDt": "2011-04-05T00:00:00",
      "regBeginDtSpecified": true,
      "regEndDt": "2014-11-03T00:00:00",
      "regEndDtSpecified": true
    }
  ],
  "EmpHss": [
    {
      "fromDt": "09/2005",
      "toDt": "11/2006",
      "orgNm": "UNEMPLOYED",
      "city": "SANTA MONICA",
      "state": 4,
      "stateSpecified": true
    },
    {
      "fromDt": "11/2006",
      "toDt": "05/2008",
      "orgNm": "CROWELL, WEEDON & CO.",
      "city": "LOS ANGELES",
      "state": 4,
      "stateSpecified": true
    },
    {
      "fromDt": "06/2008",
      "toDt": "09/2008",
      "orgNm": "UNEMPLOYED-STUDENT",
      "city": "WHITTIER",
      "state": 4,
      "stateSpecified": true
    },
    {
      "fromDt": "10/2008",
      "toDt": "02/2009",
      "orgNm": "AFA ADVISOR SERVICES, LLC",
      "city": "CALABASAS",
      "state": 4,
      "stateSpecified": true
    },
    {
      "fromDt": "10/2008",
      "toDt": "04/2010",
      "orgNm": "AFA FINANCIAL GROUP, LLC",
      "city": "CALABASAS",
      "state": 4,
      "stateSpecified": true
    },
    {
      "fromDt": "05/2010",
      "toDt": "08/2010",
      "orgNm": "UNEMPLOYED",
      "city": "CALABASAS",
      "state": 4,
      "stateSpecified": true
    },
    {
      "fromDt": "08/2010",
      "toDt": "04/2011",
      "orgNm": "WESTPARK CAPITAL, INC.",
      "city": "LOS ANGELES",
      "state": 4,
      "stateSpecified": true
    },
    {
      "fromDt": "04/2011",
      "toDt": "10/2014",
      "orgNm": "FIRST MIDWEST SECURITIES, INC.",
      "city": "SANTA MONICA",
      "state": 4,
      "stateSpecified": true
    },
    {
      "fromDt": "11/2014",
      "toDt": null,
      "orgNm": "UNIONBANC INVESTMENT SERVICES LLC",
      "city": "LOS ANGELES",
      "state": 4,
      "stateSpecified": true
    }
  ],
  "OthrBuss": {
    "OthrBus": {
      "desc": "FINRA CE CONTENT INITIATIVE COMMITTEE. START DATE JUNAURY 2012; RENEWAL JANUARY 2015 (3 YEAR TERM). CE CONTENT COMMITTEE MEMBER - PARTICIPATE IN IDENTIFYING AND INITIATING NEW OR AMEND EXISTING CE MODULE CONTENT FOR THE SECURITIES INDUSTRY.  ANTICIPATE 24 HOURS PER QUARTER. QUARTERLY MEETINGS ARE HELD DURING MARKET HOURS. INDIRECT COMPENSATION INCLUDES HOTEL, GROUND AND AIR TRANSPORTATION, MEALS, AND INCIDENTAL EXPENSE REIMBURSEMENT."
    }
  },
  "DRPs": []
}