{
  "Info": {
    "lastNm": "CLARK",
    "firstNm": "LAURA",
    "midNm": "HARRIS",
    "sufNm": null,
    "indvlPK": "2483992",
    "actvAGReg": 0,
    "link": "http://www.adviserinfo.sec.gov/IAPD/Individual/2483992"
  },
  "OthrNms": [
    {
      "lastNm": "HARRIS",
      "firstNm": "LAURA",
      "midNm": null,
      "sufNm": null
    },
    {
      "lastNm": "HARRIS",
      "firstNm": "LAURA",
      "midNm": "CHRISTINE",
      "sufNm": null
    }
  ],
  "CrntEmps": [
    {
      "CrntRgstns": [
        {
          "regAuth": 28,
          "regCat": 0,
          "st": 2,
          "stDt": "2002-03-28T00:00:00"
        },
        {
          "regAuth": 42,
          "regCat": 0,
          "st": 2,
          "stDt": "2006-05-11T00:00:00"
        },
        {
          "regAuth": 45,
          "regCat": 0,
          "st": 3,
          "stDt": "2006-06-30T00:00:00"
        }
      ],
      "BrnchOfLocs": [
        {
          "str1": "941 HOUSTON NORTHCUTT BLVD",
          "str2": null,
          "city": "MOUNT PLEASANT",
          "state": 42,
          "stateSpecified": true,
          "cntry": "United States",
          "postlCd": "29464"
        }
      ],
      "orgNm": "MERRILL LYNCH, PIERCE, FENNER & SMITH INCORPORATED",
      "orgPK": "7691",
      "str1": "ONE BRYANT PARK",
      "str2": null,
      "city": "NEW YORK",
      "state": 35,
      "stateSpecified": true,
      "cntry": "United States",
      "postlCd": "10036"
    }
  ],
  "Exms": [
    {
      "exmCd": 0,
      "exmNm": "Uniform Securities Agent State Law Examination",
      "exmDt": "1996-09-20T00:00:00",
      "exmDtSpecified": true
    },
    {
      "exmCd": 3,
      "exmNm": "Uniform Combined State Law Examination",
      "exmDt": "2000-10-02T00:00:00",
      "exmDtSpecified": true
    }
  ],
  "Dsgntns": [],
  "PrevRgstns": [],
  "EmpHss": [
    {
      "fromDt": "06/2001",
      "toDt": null,
      "orgNm": "MERRILL LYNCH, PIERCE, FENNER & SMITH INCORPORATED",
      "city": "CHARLOTTE",
      "state": 28,
      "stateSpecified": true
    }
  ],
  "OthrBuss": {
    "OthrBus": {
      "desc": "THE LEUKEMIA & LYMPHOMA SOCIETY, 300 W. COLEMAN BLVD., STE. 206, MT. PLEASANT, SC 29464 - INVESTMENT RLT'D - NO,HRS DEVOTED TO ACTIVITY - 25, HRS DURING TRADING - 6, DATE ACTIVITY BEGAN 01/01/11, POSITION - COMMITTEE MEMBER, I SERVE ON THE EXECUTIVE COMMITTEE FOR THE LLS' LIGHT THE NIGHT ANNUAL WALK.  WE HELP ORGANIZE THE ANNUAL FUND RAISING WALK FOR LEUKEMIA AND LYMPHOMA CANCER RESEARCH."
    }
  },
  "DRPs": []
}