{
  "Info": {
    "lastNm": "ROSS",
    "firstNm": "MITCHELL",
    "midNm": "JAMES",
    "sufNm": null,
    "indvlPK": "2507630",
    "actvAGReg": 0,
    "link": "http://www.adviserinfo.sec.gov/IAPD/Individual/2507630"
  },
  "OthrNms": [
    {
      "lastNm": "ROSS",
      "firstNm": "MITCH",
      "midNm": "JAMES",
      "sufNm": null
    }
  ],
  "CrntEmps": [
    {
      "CrntRgstns": [
        {
          "regAuth": 32,
          "regCat": 0,
          "st": 2,
          "stDt": "2012-04-02T00:00:00"
        }
      ],
      "BrnchOfLocs": [
        {
          "str1": "LINCOLN HARBOR",
          "str2": "1000 & 1200 LINCOLN HARBOR BLVD",
          "city": "WEEHAWKEN",
          "state": 32,
          "stateSpecified": true,
          "cntry": "United States",
          "postlCd": "07086"
        }
      ],
      "orgNm": "UBS FINANCIAL SERVICES INC.",
      "orgPK": "8174",
      "str1": "1200 HARBOR BOULEVARD",
      "str2": null,
      "city": "WEEHAWKEN",
      "state": 32,
      "stateSpecified": true,
      "cntry": "United States",
      "postlCd": "07086"
    }
  ],
  "Exms": [
    {
      "exmCd": 0,
      "exmNm": "Uniform Securities Agent State Law Examination",
      "exmDt": "1994-10-26T00:00:00",
      "exmDtSpecified": true
    },
    {
      "exmCd": 2,
      "exmNm": "Uniform Investment Adviser Law Examination",
      "exmDt": "2005-09-29T00:00:00",
      "exmDtSpecified": true
    }
  ],
  "Dsgntns": [],
  "PrevRgstns": [
    {
      "BrnchOfLocs": [
        {
          "city": "NEW YORK",
          "state": 35,
          "stateSpecified": true
        },
        {
          "city": "NEW YORK",
          "state": 35,
          "stateSpecified": true
        },
        {
          "city": "NEW YORK",
          "state": 35,
          "stateSpecified": true
        }
      ],
      "orgNm": "OPPENHEIMER & CO. INC.",
      "orgPK": "249",
      "regBeginDt": "2005-08-24T00:00:00",
      "regBeginDtSpecified": true,
      "regEndDt": "2012-02-16T00:00:00",
      "regEndDtSpecified": true
    },
    {
      "BrnchOfLocs": [
        {
          "city": "NEW YORK",
          "state": 35,
          "stateSpecified": true
        }
      ],
      "orgNm": "OPPENHEIMER ASSET MANAGEMENT",
      "orgPK": "105559",
      "regBeginDt": "2005-09-30T00:00:00",
      "regBeginDtSpecified": true,
      "regEndDt": "2012-02-17T00:00:00",
      "regEndDtSpecified": true
    }
  ],
  "EmpHss": [
    {
      "fromDt": "02/2005",
      "toDt": "01/2012",
      "orgNm": "OPPENHEIMER & CO. INC.",
      "city": "NEW YORK",
      "state": 35,
      "stateSpecified": true
    },
    {
      "fromDt": "02/2005",
      "toDt": "01/2012",
      "orgNm": "OPPENHEIMER ASSET MANAGEMENT INC.",
      "city": "NEW YORK",
      "state": 35,
      "stateSpecified": true
    },
    {
      "fromDt": "04/2012",
      "toDt": null,
      "orgNm": "UBS FINANCIAL SERVICES INC",
      "city": "WEEHAWKEN",
      "state": 32,
      "stateSpecified": true
    }
  ],
  "OthrBuss": {
    "OthrBus": null
  },
  "DRPs": []
}