{
  "Info": {
    "lastNm": "ALDEN",
    "firstNm": "GARY",
    "midNm": "ROY",
    "sufNm": null,
    "indvlPK": "2515518",
    "actvAGReg": 0,
    "link": "http://www.adviserinfo.sec.gov/IAPD/Individual/2515518"
  },
  "OthrNms": [
    {
      "lastNm": "ALDEN",
      "firstNm": "GARY",
      "midNm": "R",
      "sufNm": null
    }
  ],
  "CrntEmps": [
    {
      "CrntRgstns": [
        {
          "regAuth": 45,
          "regCat": 0,
          "st": 2,
          "stDt": "2006-11-17T00:00:00"
        }
      ],
      "BrnchOfLocs": [
        {
          "str1": "1801 KINGWOOD DRIVE, SUITE 230",
          "str2": null,
          "city": "KINGWOOD",
          "state": 45,
          "stateSpecified": true,
          "cntry": "United States",
          "postlCd": "77339-3155"
        }
      ],
      "orgNm": "NEXT FINANCIAL GROUP, INC.",
      "orgPK": "46214",
      "str1": "2500 WILCREST",
      "str2": "SUITE 620",
      "city": "HOUSTON",
      "state": 45,
      "stateSpecified": true,
      "cntry": "United States",
      "postlCd": "77042"
    }
  ],
  "Exms": [
    {
      "exmCd": 0,
      "exmNm": "Uniform Securities Agent State Law Examination",
      "exmDt": "1994-10-11T00:00:00",
      "exmDtSpecified": true
    },
    {
      "exmCd": 2,
      "exmNm": "Uniform Investment Adviser Law Examination",
      "exmDt": "1994-10-19T00:00:00",
      "exmDtSpecified": true
    }
  ],
  "Dsgntns": [],
  "PrevRgstns": [
    {
      "BrnchOfLocs": [
        {
          "city": "THE WOODLANDS",
          "state": 45,
          "stateSpecified": true
        }
      ],
      "orgNm": "UBS FINANCIAL SERVICES INC.",
      "orgPK": "8174",
      "regBeginDt": "1998-10-30T00:00:00",
      "regBeginDtSpecified": true,
      "regEndDt": "2003-11-26T00:00:00",
      "regEndDtSpecified": true
    },
    {
      "BrnchOfLocs": [
        {
          "city": "KINGWOOD",
          "state": 45,
          "stateSpecified": true
        },
        {
          "city": "KINGWOOD",
          "state": 45,
          "stateSpecified": true
        }
      ],
      "orgNm": "LPL FINANCIAL LLC",
      "orgPK": "6413",
      "regBeginDt": "2003-11-12T00:00:00",
      "regBeginDtSpecified": true,
      "regEndDt": "2006-11-27T00:00:00",
      "regEndDtSpecified": true
    }
  ],
  "EmpHss": [
    {
      "fromDt": "11/2003",
      "toDt": "11/2006",
      "orgNm": "LINSCO PRIVATE LEDGER",
      "city": "HOUSTON",
      "state": 45,
      "stateSpecified": true
    },
    {
      "fromDt": "11/2006",
      "toDt": null,
      "orgNm": "NEXT FINANCIAL GROUP",
      "city": "KINGWOOD",
      "state": 45,
      "stateSpecified": true
    }
  ],
  "OthrBuss": {
    "OthrBus": {
      "desc": "1) KINGWOOD INVESTMENT GROUP POSITION: Owner NATURE: INSURANCE Life Health, LTC, Medicare Sup, Fixed Annuities, SPIAs INVESTMENT RELATED: No NUMBER OF HOURS: 2 SECURITIES TRADING HOURS: 2 START DATE: 10/01/2006 ADDRESS: 1801 Kingwood Dr., Ste. 230, Kingwood TX 77339 DESCRIPTION: Sales of insurance products such as term, whole life, IUL, LTC, medicare supplements  2) ALDEN SENIOR RESOURCES POSITION: Owner NATURE: INSURANCE Life Health, LTC, Medicare Sup, Fixed Annuities, SPIAs INVESTMENT RELATED: No NUMBER OF HOURS: 4 SECURITIES TRADING HOURS: 3 START DATE: 12/15/2009 ADDRESS: 1801 Kingwood Dr., Ste. 230, Kingwood TX 77339 DESCRIPTION: Sales of insurance such as term, whole life, IUL, LTC, med supp  3) KINGWOOD INVESTMENT GROUP POSITION: Owner NATURE: RENT FROM OFFICE TENANT INVESTMENT RELATED: No NUMBER OF HOURS: 1 SECURITIES TRADING HOURS: 1 START DATE: 09/01/2010 ADDRESS: 1801 Kingwood Dr., Ste. 230, Kingwood TX 77339 DESCRIPTION: Collect rent  4) KINGWOOD INVESTMENT GROUP POSITION: owner NATURE: TEACHING Retirement Planning Today Classes INVESTMENT RELATED: No NUMBER OF HOURS: 6 SECURITIES TRADING HOURS: 0 START DATE: 10/01/2010 ADDRESS: 1801 Kingwood Dr., Ste. 230, Kingwood TX 77339 DESCRIPTION: Teaching classes about retirement planning.  5) KINGWOOD INVESTMENT GROUP POSITION: owner NATURE: Tax Preparation. INVESTMENT RELATED: No NUMBER OF HOURS: 3 SECURITIES TRADING HOURS: 3 START DATE: 01/30/2015 ADDRESS: 1801 Kingwood Dr., Ste. 230, Kingwood TX 77339 DESCRIPTION: Federal and state tax preparation.  6) GARY ALDEN POSITION: Agent NATURE: Notary Public INVESTMENT RELATED: No NUMBER OF HOURS: 1 SECURITIES TRADING HOURS: 1 START DATE: 01/06/2014 ADDRESS: 1801 Kingwood Dr., Suite 230, Kingwood TX 77339 DESCRIPTION: Notarize documents."
    }
  },
  "DRPs": []
}