{
  "Info": {
    "lastNm": "WEARSCH",
    "firstNm": "GREGORY",
    "midNm": "EDWARD",
    "sufNm": null,
    "indvlPK": "2515794",
    "actvAGReg": 0,
    "link": "http://www.adviserinfo.sec.gov/IAPD/Individual/2515794"
  },
  "OthrNms": [],
  "CrntEmps": [
    {
      "CrntRgstns": [
        {
          "regAuth": 15,
          "regCat": 0,
          "st": 2,
          "stDt": "2011-10-31T00:00:00"
        }
      ],
      "BrnchOfLocs": [
        {
          "str1": "120 E. LIBERTY DRIVE",
          "str2": "SUITE 400",
          "city": "WHEATON",
          "state": 15,
          "stateSpecified": true,
          "cntry": "United States",
          "postlCd": "60187"
        }
      ],
      "orgNm": "FIRST TRUST ADVISORS LP",
      "orgPK": "107027",
      "str1": "120 E. LIBERTY DRIVE",
      "str2": "SUITE 400",
      "city": "WHEATON",
      "state": 15,
      "stateSpecified": true,
      "cntry": "United States",
      "postlCd": "60187"
    }
  ],
  "Exms": [
    {
      "exmCd": 0,
      "exmNm": "Uniform Securities Agent State Law Examination",
      "exmDt": "1997-10-17T00:00:00",
      "exmDtSpecified": true
    },
    {
      "exmCd": 2,
      "exmNm": "Uniform Investment Adviser Law Examination",
      "exmDt": "2003-01-17T00:00:00",
      "exmDtSpecified": true
    }
  ],
  "Dsgntns": [],
  "PrevRgstns": [],
  "EmpHss": [
    {
      "fromDt": "09/1997",
      "toDt": null,
      "orgNm": "FIRST TRUST PORTFOLIOS L.P.",
      "city": "LISLE",
      "state": 15,
      "stateSpecified": true
    }
  ],
  "OthrBuss": {
    "OthrBus": null
  },
  "DRPs": []
}