{
  "Info": {
    "lastNm": "HANSEN",
    "firstNm": "DEBRA",
    "midNm": "A",
    "sufNm": null,
    "indvlPK": "2516576",
    "actvAGReg": 0,
    "link": "http://www.adviserinfo.sec.gov/IAPD/Individual/2516576"
  },
  "OthrNms": [],
  "CrntEmps": [
    {
      "CrntRgstns": [
        {
          "regAuth": 30,
          "regCat": 0,
          "st": 2,
          "stDt": "2003-07-23T00:00:00"
        }
      ],
      "BrnchOfLocs": [
        {
          "str1": "12325 PORT GRACE BLVD",
          "str2": null,
          "city": "LA VISTA",
          "state": 30,
          "stateSpecified": true,
          "cntry": "United States",
          "postlCd": "68128"
        }
      ],
      "orgNm": "SECURITIES AMERICA ADVISORS, INC.",
      "orgPK": "110518",
      "str1": "12325 PORT GRACE BLVD.",
      "str2": null,
      "city": "LA VISTA",
      "state": 30,
      "stateSpecified": true,
      "cntry": "United States",
      "postlCd": "68128-8204"
    }
  ],
  "Exms": [
    {
      "exmCd": 0,
      "exmNm": "Uniform Securities Agent State Law Examination",
      "exmDt": "1994-10-27T00:00:00",
      "exmDtSpecified": true
    },
    {
      "exmCd": 2,
      "exmNm": "Uniform Investment Adviser Law Examination",
      "exmDt": "1997-02-20T00:00:00",
      "exmDtSpecified": true
    }
  ],
  "Dsgntns": [
    {
      "dsgntnNm": "Certified Financial Planner"
    }
  ],
  "PrevRgstns": [],
  "EmpHss": [
    {
      "fromDt": "08/1996",
      "toDt": null,
      "orgNm": "SECURITIES AMERICA, INC.",
      "city": "OMAHA",
      "state": 30,
      "stateSpecified": true
    },
    {
      "fromDt": "07/2003",
      "toDt": null,
      "orgNm": "SECURITIES AMERICA ADVISORS, INC.",
      "city": "OMAHA",
      "state": 30,
      "stateSpecified": true
    }
  ],
  "OthrBuss": {
    "OthrBus": {
      "desc": "SECURITIES AMERICA ADVISORS, INC.  - INVESTMENT ADVISOR REPRESENTATIVE- INVESTMENT ADVISORY- INVESTMENT RELATED- START DATE: 7/2003 LOCATED AT 12325 PORT GRACE BLVD; LAVISTA, NE 68128"
    }
  },
  "DRPs": []
}