{
  "Info": {
    "lastNm": "WEEMHOFF",
    "firstNm": "DEAN",
    "midNm": "DIRK",
    "sufNm": null,
    "indvlPK": "2516971",
    "actvAGReg": 0,
    "link": "http://www.adviserinfo.sec.gov/IAPD/Individual/2516971"
  },
  "OthrNms": [],
  "CrntEmps": [
    {
      "CrntRgstns": [
        {
          "regAuth": 36,
          "regCat": 0,
          "st": 2,
          "stDt": "2012-06-14T00:00:00"
        }
      ],
      "BrnchOfLocs": [
        {
          "str1": "25800 SCIECE PARK DRIVE",
          "str2": "SUITE 100",
          "city": "CLEVELAND",
          "state": 36,
          "stateSpecified": true,
          "cntry": "United States",
          "postlCd": "44122"
        }
      ],
      "orgNm": "CAPITAL ANALYSTS",
      "orgPK": "162200",
      "str1": "601 OFFICE CENTER DRIVE",
      "str2": "SUITE 300",
      "city": "FORT WASHINGTON",
      "state": 39,
      "stateSpecified": true,
      "cntry": "United States",
      "postlCd": "19034-3232"
    },
    {
      "CrntRgstns": [
        {
          "regAuth": 36,
          "regCat": 0,
          "st": 2,
          "stDt": "2015-09-09T00:00:00"
        }
      ],
      "BrnchOfLocs": [
        {
          "str1": "25800 SCIENCE PARK DRIVE",
          "str2": "SUITE 100",
          "city": "CLEVELAND",
          "state": 36,
          "stateSpecified": true,
          "cntry": "United States",
          "postlCd": "44122"
        }
      ],
      "orgNm": "BEACON FINANCIAL ADVISORY LLC",
      "orgPK": "174334",
      "str1": "25800 SCIENCE PARK DRIVE",
      "str2": "SUITE 100",
      "city": "CLEVELAND",
      "state": 36,
      "stateSpecified": true,
      "cntry": "United States",
      "postlCd": "44122"
    }
  ],
  "Exms": [
    {
      "exmCd": 0,
      "exmNm": "Uniform Securities Agent State Law Examination",
      "exmDt": "1995-05-05T00:00:00",
      "exmDtSpecified": true
    }
  ],
  "Dsgntns": [
    {
      "dsgntnNm": "Certified Financial Planner"
    }
  ],
  "PrevRgstns": [
    {
      "BrnchOfLocs": [
        {
          "city": "CLEVELAND",
          "state": 36,
          "stateSpecified": true
        },
        {
          "city": "CLEVELAND",
          "state": 36,
          "stateSpecified": true
        }
      ],
      "orgNm": "LINCOLN FINANCIAL ADVISORS CORPORATION",
      "orgPK": "3978",
      "regBeginDt": "2000-01-01T00:00:00",
      "regBeginDtSpecified": true,
      "regEndDt": "2006-12-06T00:00:00",
      "regEndDtSpecified": true
    },
    {
      "BrnchOfLocs": [
        {
          "city": "BEACHWOOD",
          "state": 36,
          "stateSpecified": true
        },
        {
          "city": "BEACHWOOD",
          "state": 36,
          "stateSpecified": true
        }
      ],
      "orgNm": "SANDERS MORRIS HARRIS LLC",
      "orgPK": "20580",
      "regBeginDt": "2006-12-05T00:00:00",
      "regBeginDtSpecified": true,
      "regEndDt": "2010-05-21T00:00:00",
      "regEndDtSpecified": true
    },
    {
      "BrnchOfLocs": [
        {
          "city": "CLEVELAND",
          "state": 36,
          "stateSpecified": true
        }
      ],
      "orgNm": "CINCINNATI ANALYSTS, INC.",
      "orgPK": "5478",
      "regBeginDt": "2010-04-26T00:00:00",
      "regBeginDtSpecified": true,
      "regEndDt": "2012-06-01T00:00:00",
      "regEndDtSpecified": true
    }
  ],
  "EmpHss": [
    {
      "fromDt": "06/1994",
      "toDt": "12/2006",
      "orgNm": "LINCOLN FINANCIAL ADVISORS CORPORATION",
      "city": "CLEVELAND",
      "state": 36,
      "stateSpecified": true
    },
    {
      "fromDt": "12/2006",
      "toDt": "05/2010",
      "orgNm": "SANDERS MORRIS HARRIS INC.",
      "city": "HOUSTON",
      "state": 45,
      "stateSpecified": true
    },
    {
      "fromDt": "04/2010",
      "toDt": "06/2012",
      "orgNm": "CAPITAL ANALYSTS INCORPORATED",
      "city": "CINCINNATI",
      "state": 36,
      "stateSpecified": true
    },
    {
      "fromDt": "06/2012",
      "toDt": null,
      "orgNm": "LINCOLN INVESTMENT",
      "city": "CLEVELAND",
      "state": 36,
      "stateSpecified": true
    },
    {
      "fromDt": "07/2015",
      "toDt": null,
      "orgNm": "BEACON FINANCIAL ADVISORY LLC",
      "city": "BEACHWOOD",
      "state": 36,
      "stateSpecified": true
    }
  ],
  "OthrBuss": {
    "OthrBus": {
      "desc": "MR DEAN DIRK WEEMHOFF USES NUMEROUS DIFFERENT LIFE INSURANCE CARRIERS TO PROVIDE LIFE INSURANCE PRODUCTS FOR CLIENTS.  COMMISSIONS AROUND 10 TO 20K PER YEAR."
    }
  },
  "DRPs": []
}