{
  "Info": {
    "lastNm": "KIMSEY",
    "firstNm": "HOLLY",
    "midNm": "ANN",
    "sufNm": null,
    "indvlPK": "2517725",
    "actvAGReg": 0,
    "link": "http://www.adviserinfo.sec.gov/IAPD/Individual/2517725"
  },
  "OthrNms": [],
  "CrntEmps": [
    {
      "CrntRgstns": [
        {
          "regAuth": 10,
          "regCat": 0,
          "st": 2,
          "stDt": "2015-07-16T00:00:00"
        }
      ],
      "BrnchOfLocs": [
        {
          "str1": "1305 WEST WALNUT AVENUE",
          "str2": null,
          "city": "DALTON",
          "state": 10,
          "stateSpecified": true,
          "cntry": "United States",
          "postlCd": "30720"
        },
        {
          "str1": "3475 PIEDMONT ROAD",
          "str2": "9TH FL, STE 950 [G1-RBO]",
          "city": "ATLANTA",
          "state": 10,
          "stateSpecified": true,
          "cntry": "United States",
          "postlCd": "30305"
        }
      ],
      "orgNm": "WELLS FARGO ADVISORS, LLC",
      "orgPK": "19616",
      "str1": "ONE NORTH JEFFERSON AVENUE",
      "str2": "MAIL CODE: H0004-050",
      "city": "ST. LOUIS",
      "state": 25,
      "stateSpecified": true,
      "cntry": "United States",
      "postlCd": "63103-2205"
    }
  ],
  "Exms": [
    {
      "exmCd": 0,
      "exmNm": "Uniform Securities Agent State Law Examination",
      "exmDt": "1994-08-17T00:00:00",
      "exmDtSpecified": true
    },
    {
      "exmCd": 3,
      "exmNm": "Uniform Combined State Law Examination",
      "exmDt": "2015-07-06T00:00:00",
      "exmDtSpecified": true
    }
  ],
  "Dsgntns": [],
  "PrevRgstns": [],
  "EmpHss": [
    {
      "fromDt": "03/1993",
      "toDt": null,
      "orgNm": "BRADLEY WELLNESS CENTER",
      "city": "DALTON",
      "state": 10,
      "stateSpecified": true
    },
    {
      "fromDt": "06/2002",
      "toDt": null,
      "orgNm": "WACHOVIA BANK, N.A.",
      "city": "DALTON",
      "state": 10,
      "stateSpecified": true
    },
    {
      "fromDt": "06/2003",
      "toDt": "05/2009",
      "orgNm": "WACHOVIA SECURITIES, LLC",
      "city": "DALTON",
      "state": 10,
      "stateSpecified": true
    },
    {
      "fromDt": "05/2009",
      "toDt": null,
      "orgNm": "WELLS FARGO ADVISORS LLC",
      "city": "DALTON",
      "state": 10,
      "stateSpecified": true
    }
  ],
  "OthrBuss": {
    "OthrBus": {
      "desc": "BRADLEY WELLNESS CENTER; DALTON, GA; AEROBICS INSTRUCTOR; 4-5 HURS PER WEEK AND IT IS NOT DURING SECURITIES HOURS. START 2/1/1993. GOOD HOPE MILL HOMEOWNERS ASSOCIATION; NOT INVESTMENT RELATED; DALTON,GA; DIRECTOR; START DATE 7/1/2011; 1 HOUR PER MONTH; 0 DURING TRADING; DUTIES ARE TO OVERSEE THE EXPENDITURES FOR THE NEIGHBORHOOD. -   FITNESS INSTRUCTOR; NOT INVESTMENT RELATED; DALTON, GA; TEACHING 5-6 CLASSES PER WEEK AT   THE RECREATION PLACE; START DATE = 4/1/14; 24 HOURS DEVOTED PER MONTH; NONE DURING TRADING HOURS."
    }
  },
  "DRPs": []
}