{
  "Info": {
    "lastNm": "SEAVER",
    "firstNm": "RICHARD",
    "midNm": "DOUD",
    "sufNm": null,
    "indvlPK": "2518644",
    "actvAGReg": 1,
    "link": "http://www.adviserinfo.sec.gov/IAPD/Individual/2518644"
  },
  "OthrNms": [
    {
      "lastNm": "SEAVER",
      "firstNm": "RIC",
      "midNm": null,
      "sufNm": null
    },
    {
      "lastNm": "SEAVER",
      "firstNm": "RICHARD",
      "midNm": null,
      "sufNm": null
    },
    {
      "lastNm": "SEAVER",
      "firstNm": "RICHARD",
      "midNm": "D",
      "sufNm": null
    }
  ],
  "CrntEmps": [
    {
      "CrntRgstns": [
        {
          "regAuth": 16,
          "regCat": 0,
          "st": 2,
          "stDt": "2009-02-17T00:00:00"
        }
      ],
      "BrnchOfLocs": [
        {
          "str1": "9450 N MERIDIAN ST, STE 300",
          "str2": null,
          "city": "INDIANAPOLIS",
          "state": 16,
          "stateSpecified": true,
          "cntry": "United States",
          "postlCd": "46260"
        }
      ],
      "orgNm": "VALEO FINANCIAL ADVISORS, LLC",
      "orgPK": "127132",
      "str1": "9450 N MERIDIAN ST, STE 300",
      "str2": null,
      "city": "INDIANAPOLIS",
      "state": 16,
      "stateSpecified": true,
      "cntry": "United States",
      "postlCd": "46260"
    }
  ],
  "Exms": [
    {
      "exmCd": 0,
      "exmNm": "Uniform Securities Agent State Law Examination",
      "exmDt": "1994-09-06T00:00:00",
      "exmDtSpecified": true
    },
    {
      "exmCd": 2,
      "exmNm": "Uniform Investment Adviser Law Examination",
      "exmDt": "1994-09-14T00:00:00",
      "exmDtSpecified": true
    }
  ],
  "Dsgntns": [
    {
      "dsgntnNm": "Certified Financial Planner"
    }
  ],
  "PrevRgstns": [
    {
      "BrnchOfLocs": [
        {
          "city": "CARMEL",
          "state": 16,
          "stateSpecified": true
        }
      ],
      "orgNm": "OXFORD FINANCIAL GROUP, LTD",
      "orgPK": "105303",
      "regBeginDt": "2002-06-20T00:00:00",
      "regBeginDtSpecified": true,
      "regEndDt": "2003-11-26T00:00:00",
      "regEndDtSpecified": true
    },
    {
      "BrnchOfLocs": [
        {
          "city": "CARMEL",
          "state": 16,
          "stateSpecified": true
        }
      ],
      "orgNm": "LEGACY FINANCIAL ADVISORS, L.L.C.",
      "orgPK": "129578",
      "regBeginDt": "2003-12-15T00:00:00",
      "regBeginDtSpecified": true,
      "regEndDt": "2005-12-31T00:00:00",
      "regEndDtSpecified": true
    }
  ],
  "EmpHss": [
    {
      "fromDt": "06/2005",
      "toDt": null,
      "orgNm": "VALEO FINANCIAL ADVISORS, LLC",
      "city": "CARMEL",
      "state": 16,
      "stateSpecified": true
    }
  ],
  "OthrBuss": {
    "OthrBus": null
  },
  "DRPs": [
    {
      "hasRegAction": 1,
      "hasRegActionSpecified": true,
      "hasCriminal": 1,
      "hasCriminalSpecified": true,
      "hasBankrupt": 1,
      "hasBankruptSpecified": true,
      "hasCivilJudc": 1,
      "hasCivilJudcSpecified": true,
      "hasBond": 1,
      "hasBondSpecified": true,
      "hasJudgment": 1,
      "hasJudgmentSpecified": true,
      "hasInvstgn": 1,
      "hasInvstgnSpecified": true,
      "hasCustComp": 0,
      "hasCustCompSpecified": true,
      "hasTermination": 1,
      "hasTerminationSpecified": true
    }
  ]
}