{
  "Info": {
    "lastNm": "MARK",
    "firstNm": "RONNY",
    "midNm": "K",
    "sufNm": null,
    "indvlPK": "2519500",
    "actvAGReg": 0,
    "link": "http://www.adviserinfo.sec.gov/IAPD/Individual/2519500"
  },
  "OthrNms": [
    {
      "lastNm": "MARK",
      "firstNm": "RONALD",
      "midNm": null,
      "sufNm": null
    },
    {
      "lastNm": "MARK",
      "firstNm": "RONALD",
      "midNm": "K",
      "sufNm": null
    }
  ],
  "CrntEmps": [
    {
      "CrntRgstns": [
        {
          "regAuth": 15,
          "regCat": 0,
          "st": 2,
          "stDt": "2014-02-03T00:00:00"
        },
        {
          "regAuth": 50,
          "regCat": 0,
          "st": 2,
          "stDt": "2015-12-08T00:00:00"
        },
        {
          "regAuth": 45,
          "regCat": 0,
          "st": 3,
          "stDt": "2015-12-09T00:00:00"
        },
        {
          "regAuth": 5,
          "regCat": 0,
          "st": 2,
          "stDt": "2016-01-08T00:00:00"
        },
        {
          "regAuth": 16,
          "regCat": 0,
          "st": 2,
          "stDt": "2016-01-21T00:00:00"
        },
        {
          "regAuth": 3,
          "regCat": 0,
          "st": 2,
          "stDt": "2016-01-25T00:00:00"
        }
      ],
      "BrnchOfLocs": [
        {
          "str1": "141 W. JACKSON",
          "str2": "SUITE 1340 A",
          "city": "CHICAGO",
          "state": 15,
          "stateSpecified": true,
          "cntry": "United States",
          "postlCd": "60604"
        }
      ],
      "orgNm": "UHLMANN INVESTMENT MANAGEMENT, LLC",
      "orgPK": "118025",
      "str1": "141 W. JACKSON",
      "str2": "SUITE 1340 A",
      "city": "CHICAGO",
      "state": 15,
      "stateSpecified": true,
      "cntry": "United States",
      "postlCd": "60604"
    },
    {
      "CrntRgstns": [
        {
          "regAuth": 15,
          "regCat": 0,
          "st": 2,
          "stDt": "2013-02-01T00:00:00"
        },
        {
          "regAuth": 16,
          "regCat": 0,
          "st": 2,
          "stDt": "2014-05-09T00:00:00"
        }
      ],
      "BrnchOfLocs": [
        {
          "str1": "310 E. 90TH DRIVE",
          "str2": null,
          "city": "MERRILLVILLE",
          "state": 16,
          "stateSpecified": true,
          "cntry": "United States",
          "postlCd": "46410"
        }
      ],
      "orgNm": "PERPETUAL WEALTH CAPITAL MANAGEMENT, LLC",
      "orgPK": "158548",
      "str1": "310 E. 90TH DRIVE",
      "str2": null,
      "city": "MERRILLVILLE",
      "state": 16,
      "stateSpecified": true,
      "cntry": "United States",
      "postlCd": "46410"
    }
  ],
  "Exms": [
    {
      "exmCd": 2,
      "exmNm": "Uniform Investment Adviser Law Examination",
      "exmDt": "2013-01-31T00:00:00",
      "exmDtSpecified": true
    },
    {
      "exmCd": 0,
      "exmNm": "Uniform Securities Agent State Law Examination",
      "exmDt": "2013-12-17T00:00:00",
      "exmDtSpecified": true
    }
  ],
  "Dsgntns": [],
  "PrevRgstns": [
    {
      "BrnchOfLocs": [
        {
          "city": "CHICAGO",
          "state": 15,
          "stateSpecified": true
        },
        {
          "city": "MERRILLVILLE",
          "state": 16,
          "stateSpecified": true
        }
      ],
      "orgNm": "PERPETUAL WEALTH CAPITAL MANAGEMENT, LLC",
      "orgPK": "158548",
      "regBeginDt": "2013-02-01T00:00:00",
      "regBeginDtSpecified": true,
      "regEndDt": "2013-12-31T00:00:00",
      "regEndDtSpecified": true
    }
  ],
  "EmpHss": [
    {
      "fromDt": "07/1994",
      "toDt": null,
      "orgNm": "PRICE GROUP",
      "city": "CHICAGO",
      "state": 15,
      "stateSpecified": true
    },
    {
      "fromDt": "10/2012",
      "toDt": null,
      "orgNm": "PERPETUAL WEALTH CAPITAL MANAGEMENT, LLC",
      "city": "CHICAGO",
      "state": 15,
      "stateSpecified": true
    },
    {
      "fromDt": "07/2013",
      "toDt": null,
      "orgNm": "UHLMANN PRICE SECURITITES",
      "city": "CHICAGO",
      "state": 15,
      "stateSpecified": true
    }
  ],
  "OthrBuss": {
    "OthrBus": {
      "desc": "BUSINESS NAMECHICAGO INVESTMENT ADVISORY COUNCIL, INC. BUSINESS ADDRESS1601 E MAIN ST. STE. 1C ST. CHARLES, IL 60174  INVESTMENT RELATED?NO  NATURE OF THE BUSINESSRETIREMENT PLANNING, ESTATE PLANNING, LIFE INSURANCE, ANNUITIES  TITLE INSURANCE SERVICES REP  START 2/1/2015  HOURS / MONTH8 HOURS/ MONTH  HOURS DURING TRADING HOURSZERO  DESCRIPTION OF DUTIESREFER FRIENDS AND FAMILY TO VARIOUS LIFE INSURANCE PRODUCTS AVAILABLE TO THEM.        PRICE FUTURES GROUP  PRICE FUTURES GROUP  NOT INVESTMENT RELATED  RISK MANAGER  SINCE JANUARY 2012  160 HOURS / MONTH    8 HOURS DURING TRADING  MONITORING CLIENT TRADING AND POSITIONS"
    }
  },
  "DRPs": []
}