{
  "Info": {
    "lastNm": "PETERS",
    "firstNm": "DAVID",
    "midNm": "DENNIS",
    "sufNm": null,
    "indvlPK": "2522456",
    "actvAGReg": 0,
    "link": "http://www.adviserinfo.sec.gov/IAPD/Individual/2522456"
  },
  "OthrNms": [],
  "CrntEmps": [
    {
      "CrntRgstns": [
        {
          "regAuth": 23,
          "regCat": 0,
          "st": 2,
          "stDt": "2012-09-12T00:00:00"
        }
      ],
      "BrnchOfLocs": [
        {
          "str1": "15744 PEACOCK ROAD",
          "str2": null,
          "city": "HASLETT",
          "state": 23,
          "stateSpecified": true,
          "cntry": "United States",
          "postlCd": "48840"
        },
        {
          "str1": "39555 ORCHARD HILL PLACE",
          "str2": "SUITE 100",
          "city": "NOVI",
          "state": 23,
          "stateSpecified": true,
          "cntry": "United States",
          "postlCd": "48375"
        }
      ],
      "orgNm": "CAPITAL ASSET ADVISORY SERVICES, LLC",
      "orgPK": "110929",
      "str1": "15744 PEACOCK ROAD",
      "str2": null,
      "city": "HASLETT",
      "state": 23,
      "stateSpecified": true,
      "cntry": "United States",
      "postlCd": "48840"
    }
  ],
  "Exms": [
    {
      "exmCd": 0,
      "exmNm": "Uniform Securities Agent State Law Examination",
      "exmDt": "1994-11-18T00:00:00",
      "exmDtSpecified": true
    },
    {
      "exmCd": 2,
      "exmNm": "Uniform Investment Adviser Law Examination",
      "exmDt": "2012-08-24T00:00:00",
      "exmDtSpecified": true
    }
  ],
  "Dsgntns": [],
  "PrevRgstns": [
    {
      "BrnchOfLocs": [
        {
          "city": "NOVI",
          "state": 23,
          "stateSpecified": true
        },
        {
          "city": "TAMPA",
          "state": 9,
          "stateSpecified": true
        }
      ],
      "orgNm": "INVEST FINANCIAL CORPORATION",
      "orgPK": "12984",
      "regBeginDt": "2012-09-07T00:00:00",
      "regBeginDtSpecified": true,
      "regEndDt": "2015-06-23T00:00:00",
      "regEndDtSpecified": true
    }
  ],
  "EmpHss": [
    {
      "fromDt": "02/2006",
      "toDt": "02/2009",
      "orgNm": "ROYAL ALLIACE ASSOCIATES",
      "city": "BRIGHTON",
      "state": 23,
      "stateSpecified": true
    },
    {
      "fromDt": "06/2007",
      "toDt": null,
      "orgNm": "ALLIANCE ADVISORS LLC",
      "city": "LIVONIA",
      "state": 23,
      "stateSpecified": true
    },
    {
      "fromDt": "02/2009",
      "toDt": "06/2015",
      "orgNm": "INVEST FINANCIAL CORP.",
      "city": "TAMPA",
      "state": 9,
      "stateSpecified": true
    },
    {
      "fromDt": "09/2012",
      "toDt": null,
      "orgNm": "CAPITAL ASSET ADVISORY SERVICES, LLC",
      "city": "HASLETT",
      "state": 23,
      "stateSpecified": true
    },
    {
      "fromDt": "06/2015",
      "toDt": null,
      "orgNm": "WFG INVESTMENTS, INC",
      "city": "LIVONIA",
      "state": 23,
      "stateSpecified": true
    }
  ],
  "OthrBuss": {
    "OthrBus": {
      "desc": "ALLIANCE ADVISORS LLC; 17526 GOLFVIEW ST, LIVONIA, MI 48152, MEMBER, INS AGCY, LIFE, HEALTH, PROPERTY, CASUALITY. RESPONSIBLE FOR ALL BUS ACTIVITIES, INVESTMENT RELATED, START 06/2007, 160 HRS/MONTH, 160 HRS DURING TRADING;"
    }
  },
  "DRPs": [
    {
      "hasRegAction": 1,
      "hasRegActionSpecified": true,
      "hasCriminal": 1,
      "hasCriminalSpecified": true,
      "hasBankrupt": 0,
      "hasBankruptSpecified": true,
      "hasCivilJudc": 1,
      "hasCivilJudcSpecified": true,
      "hasBond": 1,
      "hasBondSpecified": true,
      "hasJudgment": 1,
      "hasJudgmentSpecified": true,
      "hasInvstgn": 1,
      "hasInvstgnSpecified": true,
      "hasCustComp": 1,
      "hasCustCompSpecified": true,
      "hasTermination": 1,
      "hasTerminationSpecified": true
    }
  ]
}