{
  "Info": {
    "lastNm": "RINGER",
    "firstNm": "ADOLPH",
    "midNm": null,
    "sufNm": null,
    "indvlPK": "2523291",
    "actvAGReg": 0,
    "link": "http://www.adviserinfo.sec.gov/IAPD/Individual/2523291"
  },
  "OthrNms": [
    {
      "lastNm": "RINGER",
      "firstNm": "ADI",
      "midNm": null,
      "sufNm": null
    }
  ],
  "CrntEmps": [
    {
      "CrntRgstns": [
        {
          "regAuth": 4,
          "regCat": 0,
          "st": 2,
          "stDt": "2012-12-06T00:00:00"
        }
      ],
      "BrnchOfLocs": [
        {
          "str1": "1428 PHILLIPS LN",
          "str2": "SUITE 100",
          "city": "SAN LUIS OBISPO",
          "state": 4,
          "stateSpecified": true,
          "cntry": "United States",
          "postlCd": "93401"
        },
        {
          "str1": "5701 GOLDEN HILLS DRIVE",
          "str2": null,
          "city": "MINNEAPOLIS",
          "state": 24,
          "stateSpecified": true,
          "cntry": "United States",
          "postlCd": "55416"
        }
      ],
      "orgNm": "QUESTAR ASSET MANAGEMENT, INC.",
      "orgPK": "133358",
      "str1": "5701 GOLDEN HILLS DRIVE",
      "str2": null,
      "city": "MINNEAPOLIS",
      "state": 24,
      "stateSpecified": true,
      "cntry": "United States",
      "postlCd": "55416"
    }
  ],
  "Exms": [
    {
      "exmCd": 0,
      "exmNm": "Uniform Securities Agent State Law Examination",
      "exmDt": "1994-08-22T00:00:00",
      "exmDtSpecified": true
    }
  ],
  "Dsgntns": [
    {
      "dsgntnNm": "Chartered Financial Consultant"
    }
  ],
  "PrevRgstns": [
    {
      "BrnchOfLocs": [
        {
          "city": "ATASCADERO",
          "state": 4,
          "stateSpecified": true
        }
      ],
      "orgNm": "LOCUST STREET SECURITIES, INC.",
      "orgPK": "1703",
      "regBeginDt": "2002-02-15T00:00:00",
      "regBeginDtSpecified": true,
      "regEndDt": "2004-01-01T00:00:00",
      "regEndDtSpecified": true
    },
    {
      "BrnchOfLocs": [
        {
          "city": "ARROYO GRANDE",
          "state": 4,
          "stateSpecified": true
        },
        {
          "city": "SANTA MARIA",
          "state": 4,
          "stateSpecified": true
        }
      ],
      "orgNm": "VOYA FINANCIAL ADVISORS, INC.",
      "orgPK": "2882",
      "regBeginDt": "2004-01-01T00:00:00",
      "regBeginDtSpecified": true,
      "regEndDt": "2009-11-18T00:00:00",
      "regEndDtSpecified": true
    },
    {
      "BrnchOfLocs": [
        {
          "city": "GROVER BEACH",
          "state": 4,
          "stateSpecified": true
        },
        {
          "city": "ROSEVILLE",
          "state": 4,
          "stateSpecified": true
        },
        {
          "city": "SAN LUIS OBISPO",
          "state": 4,
          "stateSpecified": true
        },
        {
          "city": "SAN LUIS OBISPO",
          "state": 4,
          "stateSpecified": true
        },
        {
          "city": "SAN LUIS OBISPO",
          "state": 4,
          "stateSpecified": true
        },
        {
          "city": "SAN LUIS OBISPO",
          "state": 4,
          "stateSpecified": true
        }
      ],
      "orgNm": "WOODBURY FINANCIAL SERVICES, INC.",
      "orgPK": "421",
      "regBeginDt": "2009-11-17T00:00:00",
      "regBeginDtSpecified": true,
      "regEndDt": "2012-06-27T00:00:00",
      "regEndDtSpecified": true
    },
    {
      "BrnchOfLocs": [
        {
          "city": "SAN LUIS OBISPO",
          "state": 4,
          "stateSpecified": true
        }
      ],
      "orgNm": "CAMBRIDGE INVESTMENT RESEARCH ADVISORS, INC.",
      "orgPK": "134139",
      "regBeginDt": "2012-06-18T00:00:00",
      "regBeginDtSpecified": true,
      "regEndDt": "2012-12-18T00:00:00",
      "regEndDtSpecified": true
    }
  ],
  "EmpHss": [
    {
      "fromDt": "01/2004",
      "toDt": "11/2009",
      "orgNm": "ING FINANCIAL PARTNERS, INC.",
      "city": "DES MOINES",
      "state": 13,
      "stateSpecified": true
    },
    {
      "fromDt": "11/2009",
      "toDt": "06/2012",
      "orgNm": "WOODBURY FINANCIAL SERVICES, INC",
      "city": "GROVER BEACH",
      "state": 4,
      "stateSpecified": true
    },
    {
      "fromDt": "06/2012",
      "toDt": "12/2012",
      "orgNm": "CAMBRIDGE INVESTMENT RESEARCH ADVISORS, INC",
      "city": "FAIRFIELD",
      "state": 13,
      "stateSpecified": true
    },
    {
      "fromDt": "06/2012",
      "toDt": "12/2012",
      "orgNm": "CAMBRIDGE INVESTMENT RESEARCH, INC",
      "city": "FAIRFIELD",
      "state": 13,
      "stateSpecified": true
    },
    {
      "fromDt": "12/2012",
      "toDt": null,
      "orgNm": "QUESTAR ASSET MANAGEMENT",
      "city": "MINNEAPOLIS",
      "state": 24,
      "stateSpecified": true
    },
    {
      "fromDt": "12/2012",
      "toDt": null,
      "orgNm": "QUESTAR CAPITAL CORPORATION",
      "city": "MINNEAPOLIS",
      "state": 24,
      "stateSpecified": true
    }
  ],
  "OthrBuss": {
    "OthrBus": {
      "desc": "BRIDGEPOINT CUSTOM STRATEGIES POSITION: Owner. NATURE: Business coaching and consulting. INVESTMENT RELATED: No NUMBER OF HOURS: 10 SECURITIES TRADING HOURS: 3 START DATE: 04/01/2009 ADDRESS: 1428 Phillips Ln, Suite 100, San Luis Obispo CA 93401 DESCRIPTION: Meet with business owners, review all pertinent business information, make suggestions, brainstorm new ideas with clients and key employees. Conduct monthly group coaching meetings.  QUESTAR ASSET MANAGEMENT POSITION: Investment Advisor Representative. NATURE: Investment advisory. INVESTMENT RELATED: Yes NUMBER OF HOURS: 6 SECURITIES TRADING HOURS: 6 START DATE: 12/06/2012 ADDRESS: 1248 Phillips Ln, Suite 100, San Luis Obispoc CA 93401 DESCRIPTION: Investment advisory services.  RENTAL PROPERTY POSITION: Landlord. NATURE: Rental residential property. INVESTMENT RELATED: No NUMBER OF HOURS: 2 SECURITIES TRADING HOURS: 0 START DATE: 12/06/2012 ADDRESS: 1958 Fixlini St, San Luis Obispo CA 93401 DESCRIPTION: Collect rents, pay taxes, maintenance.  FINANCIAL RESOURCES GROUP POSITION: Independent insurance agent. NATURE: Sales of fixed insurance products. INVESTMENT RELATED: Yes NUMBER OF HOURS: 3 SECURITIES TRADING HOURS: 3 START DATE: 07/10/2013 ADDRESS: 1248 Phillips Ln, Suite 100, San Luis Obispo CA 93401 DESCRIPTION: Life, LTC, disability, health, fixed annuities.  REMORA MARINE, INC POSITION: Chief Financial Officer. NATURE: Remora Marine is a startup manufacturer and retailer of water proof power tools with direct sales, internet sales and reseller arrangements. INVESTMENT RELATED: No NUMBER OF HOURS: 8 SECURITIES TRADING HOURS: 1 START DATE: 01/15/2016 ADDRESS: 2691 Fowler Ln, Arroyo Grande CA 93420 DESCRIPTION: Board member: Participate in the strategic and direction/planning of Remora Marine.CFO: Oversight of business and financial issues as they relate to the operation of Remora Marine, Inc. In the beginning, this includes income/state and sales tax filings; bill paying; bookkeeping; applying for SBA lending or lines of credit;IT; and assist with sales and marketing."
    }
  },
  "DRPs": []
}