{
  "Info": {
    "lastNm": "SANDS",
    "firstNm": "JEROME",
    "midNm": "DALEY",
    "sufNm": "III",
    "indvlPK": "2531719",
    "actvAGReg": 1,
    "link": "http://www.adviserinfo.sec.gov/IAPD/Individual/2531719"
  },
  "OthrNms": [
    {
      "lastNm": "SANDS",
      "firstNm": "DALE",
      "midNm": null,
      "sufNm": null
    }
  ],
  "CrntEmps": [
    {
      "CrntRgstns": [
        {
          "regAuth": 10,
          "regCat": 0,
          "st": 2,
          "stDt": "2016-03-04T00:00:00"
        }
      ],
      "BrnchOfLocs": [
        {
          "str1": "One Riverside Building",
          "str2": "4401 Northside Parkway, Suite 120",
          "city": "Atlanta",
          "state": 10,
          "stateSpecified": true,
          "cntry": "United States",
          "postlCd": "30327"
        }
      ],
      "orgNm": "GENSPRING FAMILY OFFICES, LLC",
      "orgPK": "109278",
      "str1": "150 SOUTH US HIGHWAY 1",
      "str2": null,
      "city": "JUPITER",
      "state": 9,
      "stateSpecified": true,
      "cntry": "United States",
      "postlCd": "33477"
    }
  ],
  "Exms": [
    {
      "exmCd": 0,
      "exmNm": "Uniform Securities Agent State Law Examination",
      "exmDt": "2001-05-14T00:00:00",
      "exmDtSpecified": true
    },
    {
      "exmCd": 2,
      "exmNm": "Uniform Investment Adviser Law Examination",
      "exmDt": "2016-03-03T00:00:00",
      "exmDtSpecified": true
    }
  ],
  "Dsgntns": [],
  "PrevRgstns": [],
  "EmpHss": [
    {
      "fromDt": "07/2001",
      "toDt": "12/2013",
      "orgNm": "SUNTRUST EQUITABLE SECURITIES",
      "city": "ATLANTA",
      "state": 10,
      "stateSpecified": true
    },
    {
      "fromDt": "01/2014",
      "toDt": null,
      "orgNm": "GENSPRING FAMILY OFFICES, LLC",
      "city": "ATLANTA",
      "state": 10,
      "stateSpecified": true
    }
  ],
  "OthrBuss": {
    "OthrBus": null
  },
  "DRPs": []
}