{
  "Info": {
    "lastNm": "YOUNG",
    "firstNm": "CURTIS",
    "midNm": "KOON YAU",
    "sufNm": null,
    "indvlPK": "2537849",
    "actvAGReg": 0,
    "link": "http://www.adviserinfo.sec.gov/IAPD/Individual/2537849"
  },
  "OthrNms": [
    {
      "lastNm": "YOUNG",
      "firstNm": "CURT",
      "midNm": null,
      "sufNm": null
    }
  ],
  "CrntEmps": [
    {
      "CrntRgstns": [
        {
          "regAuth": 12,
          "regCat": 0,
          "st": 2,
          "stDt": "2011-01-03T00:00:00"
        }
      ],
      "BrnchOfLocs": [
        {
          "str1": "711 KAPIOLANI BLVD",
          "str2": "SUITE 100",
          "city": "HONOLULU",
          "state": 12,
          "stateSpecified": true,
          "cntry": "United States",
          "postlCd": "96813"
        }
      ],
      "orgNm": "VOYA FINANCIAL ADVISORS, INC.",
      "orgPK": "2882",
      "str1": "909 LOCUST STREET",
      "str2": null,
      "city": "DES MOINES",
      "state": 13,
      "stateSpecified": true,
      "cntry": "United States",
      "postlCd": "50309"
    }
  ],
  "Exms": [
    {
      "exmCd": 0,
      "exmNm": "Uniform Securities Agent State Law Examination",
      "exmDt": "1994-11-18T00:00:00",
      "exmDtSpecified": true
    },
    {
      "exmCd": 2,
      "exmNm": "Uniform Investment Adviser Law Examination",
      "exmDt": "1996-02-22T00:00:00",
      "exmDtSpecified": true
    }
  ],
  "Dsgntns": [],
  "PrevRgstns": [
    {
      "BrnchOfLocs": [
        {
          "city": "HONOLULU",
          "state": 12,
          "stateSpecified": true
        },
        {
          "city": "HONOLULU",
          "state": 12,
          "stateSpecified": true
        }
      ],
      "orgNm": "CETERA ADVISOR NETWORKS LLC",
      "orgPK": "13572",
      "regBeginDt": "1996-05-10T00:00:00",
      "regBeginDtSpecified": true,
      "regEndDt": "2006-12-31T00:00:00",
      "regEndDtSpecified": true
    },
    {
      "BrnchOfLocs": [
        {
          "city": "HONOLULU",
          "state": 12,
          "stateSpecified": true
        }
      ],
      "orgNm": "VOYA FINANCIAL PARTNERS, LLC",
      "orgPK": "34815",
      "regBeginDt": "2007-01-05T00:00:00",
      "regBeginDtSpecified": true,
      "regEndDt": "2011-01-03T00:00:00",
      "regEndDtSpecified": true
    }
  ],
  "EmpHss": [
    {
      "fromDt": "05/1995",
      "toDt": "12/2006",
      "orgNm": "FINANCIAL NETWORK INVESTMENT CORPORATION",
      "city": "HONOLULU",
      "state": 12,
      "stateSpecified": true
    },
    {
      "fromDt": "01/2007",
      "toDt": "02/2010",
      "orgNm": "ING",
      "city": "HONOLULU",
      "state": 12,
      "stateSpecified": true
    },
    {
      "fromDt": "01/2007",
      "toDt": "09/2014",
      "orgNm": "ING FINANCIAL ADVISERS, LLC",
      "city": "HONOLULU",
      "state": 12,
      "stateSpecified": true
    },
    {
      "fromDt": "01/2011",
      "toDt": "09/2014",
      "orgNm": "ING FINANCIAL PARTNERS, INC.",
      "city": "HONOLULU",
      "state": 12,
      "stateSpecified": true
    },
    {
      "fromDt": "09/2014",
      "toDt": null,
      "orgNm": "VOYA FINANCIAL ADVISORS",
      "city": "HONOLULU",
      "state": 12,
      "stateSpecified": true
    },
    {
      "fromDt": "09/2014",
      "toDt": null,
      "orgNm": "VOYA FINANCIAL PARTNERS",
      "city": "HONOLULU",
      "state": 12,
      "stateSpecified": true
    }
  ],
  "OthrBuss": {
    "OthrBus": {
      "desc": "CURTIS YOUNG, 711 KAPIOLANI BLVD, STE 100, HONOLULU, HI-FIXED INSURANCE AND FIXED ANNUITIES, NOT INVESTMENT RELATED, AGENT, AGENT,10/1/09 6 HRS PER MONTH FIXED INSURANCE AND FIXED ANNUITIES."
    }
  },
  "DRPs": []
}