{
  "Info": {
    "lastNm": "CARNEY",
    "firstNm": "MARIE",
    "midNm": null,
    "sufNm": null,
    "indvlPK": "2559923",
    "actvAGReg": 0,
    "link": "http://www.adviserinfo.sec.gov/IAPD/Individual/2559923"
  },
  "OthrNms": [
    {
      "lastNm": "CARNEY",
      "firstNm": "ANGELA",
      "midNm": "MARIE",
      "sufNm": null
    },
    {
      "lastNm": "THOMAS",
      "firstNm": "MARIE",
      "midNm": "C",
      "sufNm": null
    },
    {
      "lastNm": "THOMAS",
      "firstNm": "MARIE",
      "midNm": "CARNEY",
      "sufNm": null
    }
  ],
  "CrntEmps": [
    {
      "CrntRgstns": [
        {
          "regAuth": 16,
          "regCat": 0,
          "st": 2,
          "stDt": "2005-12-06T00:00:00"
        },
        {
          "regAuth": 18,
          "regCat": 0,
          "st": 2,
          "stDt": "2010-09-30T00:00:00"
        }
      ],
      "BrnchOfLocs": [
        {
          "str1": "4967 US HWY 42 STE 250",
          "str2": null,
          "city": "LOUISVILLE",
          "state": 18,
          "stateSpecified": true,
          "cntry": "United States",
          "postlCd": "40222"
        }
      ],
      "orgNm": "WELLS FARGO ADVISORS, LLC",
      "orgPK": "19616",
      "str1": "ONE NORTH JEFFERSON AVENUE",
      "str2": "MAIL CODE: H0004-050",
      "city": "ST. LOUIS",
      "state": 25,
      "stateSpecified": true,
      "cntry": "United States",
      "postlCd": "63103-2205"
    }
  ],
  "Exms": [
    {
      "exmCd": 0,
      "exmNm": "Uniform Securities Agent State Law Examination",
      "exmDt": "1995-01-11T00:00:00",
      "exmDtSpecified": true
    },
    {
      "exmCd": 2,
      "exmNm": "Uniform Investment Adviser Law Examination",
      "exmDt": "1995-02-07T00:00:00",
      "exmDtSpecified": true
    },
    {
      "exmCd": 3,
      "exmNm": "Uniform Combined State Law Examination",
      "exmDt": "2005-12-05T00:00:00",
      "exmDtSpecified": true
    }
  ],
  "Dsgntns": [],
  "PrevRgstns": [],
  "EmpHss": [
    {
      "fromDt": "05/2005",
      "toDt": "05/2009",
      "orgNm": "WACHOVIA SECURITIES, LLC",
      "city": "LOUISVILLE",
      "state": 18,
      "stateSpecified": true
    },
    {
      "fromDt": "05/2009",
      "toDt": null,
      "orgNm": "WELLS FARGO ADVISORS LLC",
      "city": "LOUISVILLE",
      "state": 18,
      "stateSpecified": true
    }
  ],
  "OthrBuss": {
    "OthrBus": {
      "desc": "POWER OF ATTORNEY FOR BROTHER; INVESTMENT RELATED; LOUISVILLE, KY; START DATE 3/18/2013; 0 HRS PER MONTH."
    }
  },
  "DRPs": []
}