{
  "Info": {
    "lastNm": "KEIL",
    "firstNm": "GREGORY",
    "midNm": "ALAN",
    "sufNm": null,
    "indvlPK": "2562618",
    "actvAGReg": 0,
    "link": "http://www.adviserinfo.sec.gov/IAPD/Individual/2562618"
  },
  "OthrNms": [],
  "CrntEmps": [
    {
      "CrntRgstns": [
        {
          "regAuth": 7,
          "regCat": 0,
          "st": 2,
          "stDt": "2009-02-10T00:00:00"
        }
      ],
      "BrnchOfLocs": [
        {
          "str1": "1133 CONNECTICUT AVE NW 9TH FL",
          "str2": null,
          "city": "WASHINGTON",
          "state": 7,
          "stateSpecified": true,
          "cntry": "United States",
          "postlCd": "20036"
        }
      ],
      "orgNm": "WELLS FARGO ADVISORS, LLC",
      "orgPK": "19616",
      "str1": "ONE NORTH JEFFERSON AVENUE",
      "str2": "MAIL CODE: H0004-050",
      "city": "ST. LOUIS",
      "state": 25,
      "stateSpecified": true,
      "cntry": "United States",
      "postlCd": "63103-2205"
    }
  ],
  "Exms": [
    {
      "exmCd": 0,
      "exmNm": "Uniform Securities Agent State Law Examination",
      "exmDt": "1994-12-21T00:00:00",
      "exmDtSpecified": true
    },
    {
      "exmCd": 2,
      "exmNm": "Uniform Investment Adviser Law Examination",
      "exmDt": "1995-01-05T00:00:00",
      "exmDtSpecified": true
    }
  ],
  "Dsgntns": [],
  "PrevRgstns": [
    {
      "BrnchOfLocs": [
        {
          "city": "WASHINGTON",
          "state": 7,
          "stateSpecified": true
        },
        {
          "city": "WASHINGTON",
          "state": 7,
          "stateSpecified": true
        }
      ],
      "orgNm": "CITIGROUP GLOBAL MARKETS INC.",
      "orgPK": "7059",
      "regBeginDt": "1995-02-16T00:00:00",
      "regBeginDtSpecified": true,
      "regEndDt": "2009-01-29T00:00:00",
      "regEndDtSpecified": true
    }
  ],
  "EmpHss": [
    {
      "fromDt": "07/1994",
      "toDt": "01/2009",
      "orgNm": "CITIGROUP GLOBAL MARKETS INC.",
      "city": "WASHINGTON",
      "state": 7,
      "stateSpecified": true
    },
    {
      "fromDt": "01/2009",
      "toDt": "05/2009",
      "orgNm": "WACHOVIA SECURITIES LLC",
      "city": "WASHINGTON",
      "state": 7,
      "stateSpecified": true
    },
    {
      "fromDt": "05/2009",
      "toDt": null,
      "orgNm": "WELLS FARGO ADVISORS LLC",
      "city": "WASHINGTON",
      "state": 7,
      "stateSpecified": true
    }
  ],
  "OthrBuss": {
    "OthrBus": {
      "desc": "SLADE BARKLEY, LLC; INVESTMENT RELATED; MARION, IN; PROPERTY OWNERSHIP/MANAGEMENT; 50% OWNERSHIP; START DATE = 03/2010; MINIMAL TIME DEVOTED; NOT DURING BUSINESS HOURS; DUTIES = OWNERSHIP & VOTING RIGHTS ONLY."
    }
  },
  "DRPs": []
}