{
  "Info": {
    "lastNm": "FARRUGIA",
    "firstNm": "DEANNA",
    "midNm": "NOEL",
    "sufNm": null,
    "indvlPK": "2566877",
    "actvAGReg": 0,
    "link": "http://www.adviserinfo.sec.gov/IAPD/Individual/2566877"
  },
  "OthrNms": [],
  "CrntEmps": [
    {
      "CrntRgstns": [
        {
          "regAuth": 32,
          "regCat": 0,
          "st": 2,
          "stDt": "2014-03-18T00:00:00"
        }
      ],
      "BrnchOfLocs": [
        {
          "str1": "225 FRANKLIN STREET",
          "str2": null,
          "city": "BOSTON",
          "state": 20,
          "stateSpecified": true,
          "cntry": "United States",
          "postlCd": "02110"
        }
      ],
      "orgNm": "COLUMBIA MANAGEMENT INVESTMENT ADVISERS, LLC",
      "orgPK": "108257",
      "str1": "225 FRANKLIN STREET",
      "str2": null,
      "city": "BOSTON",
      "state": 20,
      "stateSpecified": true,
      "cntry": "United States",
      "postlCd": "02110"
    }
  ],
  "Exms": [
    {
      "exmCd": 0,
      "exmNm": "Uniform Securities Agent State Law Examination",
      "exmDt": "1999-04-02T00:00:00",
      "exmDtSpecified": true
    },
    {
      "exmCd": 3,
      "exmNm": "Uniform Combined State Law Examination",
      "exmDt": "2014-03-15T00:00:00",
      "exmDtSpecified": true
    }
  ],
  "Dsgntns": [],
  "PrevRgstns": [],
  "EmpHss": [
    {
      "fromDt": "11/1999",
      "toDt": "03/2007",
      "orgNm": "OPPENHEIMERFUNDS DISTRIBUTOR, INC.",
      "city": "NEW YORK",
      "state": 35,
      "stateSpecified": true
    },
    {
      "fromDt": "04/2007",
      "toDt": "09/2007",
      "orgNm": "UNEMPLOYED",
      "city": "MIDDLETOWN",
      "state": 32,
      "stateSpecified": true
    },
    {
      "fromDt": "09/2007",
      "toDt": "04/2008",
      "orgNm": "COMPASSEMP",
      "city": "NASHVILLE",
      "state": 44,
      "stateSpecified": true
    },
    {
      "fromDt": "04/2008",
      "toDt": "08/2013",
      "orgNm": "FIDELITY INVESTMENTS",
      "city": "SMITHFIELD",
      "state": 41,
      "stateSpecified": true
    },
    {
      "fromDt": "09/2013",
      "toDt": null,
      "orgNm": "COLUMBIA MANAGEMENT INVESTMENT DISTRIBUTORS INC",
      "city": "LOCUST",
      "state": 32,
      "stateSpecified": true
    }
  ],
  "OthrBuss": {
    "OthrBus": null
  },
  "DRPs": [
    {
      "hasRegAction": 1,
      "hasRegActionSpecified": true,
      "hasCriminal": 1,
      "hasCriminalSpecified": true,
      "hasBankrupt": 0,
      "hasBankruptSpecified": true,
      "hasCivilJudc": 1,
      "hasCivilJudcSpecified": true,
      "hasBond": 1,
      "hasBondSpecified": true,
      "hasJudgment": 1,
      "hasJudgmentSpecified": true,
      "hasInvstgn": 1,
      "hasInvstgnSpecified": true,
      "hasCustComp": 1,
      "hasCustCompSpecified": true,
      "hasTermination": 1,
      "hasTerminationSpecified": true
    }
  ]
}