{
  "Info": {
    "lastNm": "TRUMAN",
    "firstNm": "JERRY",
    "midNm": "DOMINIC",
    "sufNm": null,
    "indvlPK": "2568274",
    "actvAGReg": 0,
    "link": "http://www.adviserinfo.sec.gov/IAPD/Individual/2568274"
  },
  "OthrNms": [
    {
      "lastNm": "TRUMAN",
      "firstNm": "JERRY",
      "midNm": "DOMINIC",
      "sufNm": null
    },
    {
      "lastNm": "TRUMAN",
      "firstNm": "JERRY DOMINIC",
      "midNm": "DOMINIC",
      "sufNm": null
    }
  ],
  "CrntEmps": [
    {
      "CrntRgstns": [
        {
          "regAuth": 21,
          "regCat": 0,
          "st": 2,
          "stDt": "2011-12-02T00:00:00"
        },
        {
          "regAuth": 7,
          "regCat": 0,
          "st": 2,
          "stDt": "2011-12-14T00:00:00"
        },
        {
          "regAuth": 45,
          "regCat": 0,
          "st": 3,
          "stDt": "2015-10-12T00:00:00"
        }
      ],
      "BrnchOfLocs": [
        {
          "str1": "1501 K. STREET NW",
          "str2": null,
          "city": "WASHINGTON",
          "state": 7,
          "stateSpecified": true,
          "cntry": "United States",
          "postlCd": "20005"
        }
      ],
      "orgNm": "UBS FINANCIAL SERVICES INC.",
      "orgPK": "8174",
      "str1": "1200 HARBOR BOULEVARD",
      "str2": null,
      "city": "WEEHAWKEN",
      "state": 32,
      "stateSpecified": true,
      "cntry": "United States",
      "postlCd": "07086"
    }
  ],
  "Exms": [
    {
      "exmCd": 0,
      "exmNm": "Uniform Securities Agent State Law Examination",
      "exmDt": "1995-08-30T00:00:00",
      "exmDtSpecified": true
    },
    {
      "exmCd": 2,
      "exmNm": "Uniform Investment Adviser Law Examination",
      "exmDt": "1999-03-03T00:00:00",
      "exmDtSpecified": true
    }
  ],
  "Dsgntns": [],
  "PrevRgstns": [
    {
      "BrnchOfLocs": [
        {
          "city": "ROCKVILLE",
          "state": 21,
          "stateSpecified": true
        },
        {
          "city": "WASHINGTON",
          "state": 7,
          "stateSpecified": true
        },
        {
          "city": "WASHINGTON",
          "state": 7,
          "stateSpecified": true
        },
        {
          "city": "WASHINGTON",
          "state": 7,
          "stateSpecified": true
        },
        {
          "city": "WASHINGTON",
          "state": 7,
          "stateSpecified": true
        }
      ],
      "orgNm": "SUNTRUST INVESTMENT SERVICES, INC.",
      "orgPK": "17499",
      "regBeginDt": "2003-04-10T00:00:00",
      "regBeginDtSpecified": true,
      "regEndDt": "2009-06-05T00:00:00",
      "regEndDtSpecified": true
    },
    {
      "BrnchOfLocs": [
        {
          "city": "BETHESDA",
          "state": 21,
          "stateSpecified": true
        },
        {
          "city": "NEW YORK",
          "state": 35,
          "stateSpecified": true
        }
      ],
      "orgNm": "CITIGROUP GLOBAL MARKETS INC.",
      "orgPK": "7059",
      "regBeginDt": "2009-05-29T00:00:00",
      "regBeginDtSpecified": true,
      "regEndDt": "2009-07-23T00:00:00",
      "regEndDtSpecified": true
    },
    {
      "BrnchOfLocs": [
        {
          "city": "BETHESDA",
          "state": 21,
          "stateSpecified": true
        },
        {
          "city": "BETHESDA",
          "state": 21,
          "stateSpecified": true
        },
        {
          "city": "PURCHASE",
          "state": 35,
          "stateSpecified": true
        }
      ],
      "orgNm": "MORGAN STANLEY",
      "orgPK": "149777",
      "regBeginDt": "2009-06-02T00:00:00",
      "regBeginDtSpecified": true,
      "regEndDt": "2011-12-12T00:00:00",
      "regEndDtSpecified": true
    }
  ],
  "EmpHss": [
    {
      "fromDt": "02/2002",
      "toDt": "05/2009",
      "orgNm": "SUNTRUST INVESTMENT SERVICES",
      "city": "WASHINGTON",
      "state": 7,
      "stateSpecified": true
    },
    {
      "fromDt": "05/2009",
      "toDt": "06/2009",
      "orgNm": "CITIGROUP GLOBAL MARKETS INC.",
      "city": "BETHESDA",
      "state": 21,
      "stateSpecified": true
    },
    {
      "fromDt": "06/2009",
      "toDt": "12/2011",
      "orgNm": "MORGAN STANLEY SMITH BARNEY",
      "city": "BETHESDA",
      "state": 21,
      "stateSpecified": true
    },
    {
      "fromDt": "12/2011",
      "toDt": null,
      "orgNm": "UBS FINANCIAL SERVICES INC.",
      "city": "WASHINGTON",
      "state": 7,
      "stateSpecified": true
    }
  ],
  "OthrBuss": {
    "OthrBus": {
      "desc": "1)ZALLA LLC / 5902 JOHNSON AVE BETHESDA,MD 20817 / PARTNERSHIP/ REAL ESTATE  / MAANGEMENT OF A SECONDHOME IN NC / PARTNER / MANAGEMENT OF PROPERTY / START DATE 1/14/2004 2)WILLOW WOODS LLC / 4905 DEL RAY AVE #210 BETHESDA,MD 20814 / PARTNERSHIP/ REAL ESTATE  / OWN/MAMAGE 12 CONDOS IN GAITHERSBURG / PARTNER /  / FIND INDIVIDUALS TO MAKE REPAIRS / START DATE 5/3/2004"
    }
  },
  "DRPs": []
}