{
  "Info": {
    "lastNm": "LAWRENCE",
    "firstNm": "JOHN",
    "midNm": "JASPER",
    "sufNm": "III",
    "indvlPK": "2573028",
    "actvAGReg": 0,
    "link": "http://www.adviserinfo.sec.gov/IAPD/Individual/2573028"
  },
  "OthrNms": [
    {
      "lastNm": "LAWRENCE",
      "firstNm": "JOHN",
      "midNm": "J",
      "sufNm": null
    }
  ],
  "CrntEmps": [
    {
      "CrntRgstns": [
        {
          "regAuth": 4,
          "regCat": 0,
          "st": 2,
          "stDt": "2003-07-01T00:00:00"
        },
        {
          "regAuth": 45,
          "regCat": 0,
          "st": 3,
          "stDt": "2011-01-11T00:00:00"
        }
      ],
      "BrnchOfLocs": [
        {
          "str1": "1999 AVENUE OF THE STARS",
          "str2": "STE 2200",
          "city": "LOS ANGELES",
          "state": 4,
          "stateSpecified": true,
          "cntry": "United States",
          "postlCd": "90067"
        }
      ],
      "orgNm": "WELLS FARGO ADVISORS, LLC",
      "orgPK": "19616",
      "str1": "ONE NORTH JEFFERSON AVENUE",
      "str2": "MAIL CODE: H0004-050",
      "city": "ST. LOUIS",
      "state": 25,
      "stateSpecified": true,
      "cntry": "United States",
      "postlCd": "63103-2205"
    }
  ],
  "Exms": [
    {
      "exmCd": 0,
      "exmNm": "Uniform Securities Agent State Law Examination",
      "exmDt": "1995-01-27T00:00:00",
      "exmDtSpecified": true
    },
    {
      "exmCd": 2,
      "exmNm": "Uniform Investment Adviser Law Examination",
      "exmDt": "2005-05-05T00:00:00",
      "exmDtSpecified": true
    }
  ],
  "Dsgntns": [],
  "PrevRgstns": [
    {
      "BrnchOfLocs": [
        {
          "city": "ENCINO",
          "state": 4,
          "stateSpecified": true
        }
      ],
      "orgNm": "PRUDENTIAL EQUITY GROUP, LLC",
      "orgPK": "7471",
      "regBeginDt": "2000-07-14T00:00:00",
      "regBeginDtSpecified": true,
      "regEndDt": "2003-07-01T00:00:00",
      "regEndDtSpecified": true
    }
  ],
  "EmpHss": [
    {
      "fromDt": "07/2003",
      "toDt": "05/2009",
      "orgNm": "WACHOVIA SECURITIES LLC",
      "city": "ENCINO",
      "state": 4,
      "stateSpecified": true
    },
    {
      "fromDt": "05/2009",
      "toDt": null,
      "orgNm": "WELLS FARGO ADVISORS LLC",
      "city": "LOS ANGELES",
      "state": 4,
      "stateSpecified": true
    }
  ],
  "OthrBuss": {
    "OthrBus": null
  },
  "DRPs": [
    {
      "hasRegAction": 1,
      "hasRegActionSpecified": true,
      "hasCriminal": 1,
      "hasCriminalSpecified": true,
      "hasBankrupt": 1,
      "hasBankruptSpecified": true,
      "hasCivilJudc": 1,
      "hasCivilJudcSpecified": true,
      "hasBond": 1,
      "hasBondSpecified": true,
      "hasJudgment": 1,
      "hasJudgmentSpecified": true,
      "hasInvstgn": 1,
      "hasInvstgnSpecified": true,
      "hasCustComp": 0,
      "hasCustCompSpecified": true,
      "hasTermination": 1,
      "hasTerminationSpecified": true
    }
  ]
}