{
  "Info": {
    "lastNm": "SPEARS",
    "firstNm": "MICHAEL",
    "midNm": "ERNEST",
    "sufNm": null,
    "indvlPK": "2582169",
    "actvAGReg": 0,
    "link": "http://www.adviserinfo.sec.gov/IAPD/Individual/2582169"
  },
  "OthrNms": [
    {
      "lastNm": "SPEARS",
      "firstNm": "MIKE",
      "midNm": null,
      "sufNm": null
    }
  ],
  "CrntEmps": [
    {
      "CrntRgstns": [
        {
          "regAuth": 28,
          "regCat": 0,
          "st": 2,
          "stDt": "2001-12-31T00:00:00"
        }
      ],
      "BrnchOfLocs": [
        {
          "str1": "2906 HULL RD",
          "str2": null,
          "city": "KINSTON",
          "state": 28,
          "stateSpecified": true,
          "cntry": "United States",
          "postlCd": "28504-2838"
        },
        {
          "str1": "7741 MARKET ST",
          "str2": "STE F",
          "city": "WILMINGTON",
          "state": 28,
          "stateSpecified": true,
          "cntry": "United States",
          "postlCd": "28411-9444"
        }
      ],
      "orgNm": "AMERIPRISE FINANCIAL SERVICES, INC.",
      "orgPK": "6363",
      "str1": "707 2ND AVENUE SOUTH",
      "str2": null,
      "city": "MINNEAPOLIS",
      "state": 24,
      "stateSpecified": true,
      "cntry": "United States",
      "postlCd": "55402"
    }
  ],
  "Exms": [
    {
      "exmCd": 0,
      "exmNm": "Uniform Securities Agent State Law Examination",
      "exmDt": "1995-04-11T00:00:00",
      "exmDtSpecified": true
    },
    {
      "exmCd": 2,
      "exmNm": "Uniform Investment Adviser Law Examination",
      "exmDt": "1995-04-18T00:00:00",
      "exmDtSpecified": true
    }
  ],
  "Dsgntns": [],
  "PrevRgstns": [],
  "EmpHss": [
    {
      "fromDt": "06/1991",
      "toDt": null,
      "orgNm": "HEILIG-MEYERS FURNITURE",
      "city": "KINSTON",
      "state": 28,
      "stateSpecified": true
    },
    {
      "fromDt": "01/1995",
      "toDt": null,
      "orgNm": "AMERICAN EXPRESS FINANCIAL ADVISORS INC.",
      "city": "RALEIGH",
      "state": 28,
      "stateSpecified": true
    },
    {
      "fromDt": "01/1995",
      "toDt": null,
      "orgNm": "IDS LIFE INSURANCE COMPANY",
      "city": "RALEIGH",
      "state": 28,
      "stateSpecified": true
    }
  ],
  "OthrBuss": {
    "OthrBus": {
      "desc": "REAL ESTATE OWNERSHIP: SINGLE FAMILY ,4513 COUNTRY CLUB ROAD #103C MOREHEAD CITY, NC 28557, INC:$1 TO $999/COMMERCIAL,2906 HULL ROAD KINSTON, NC 28504,INC:1000 TO $1999. BUSINESS OWNERSHIP: CAMERON-MADISON BUILDING, OWNER, RENTAL/MICHAEL E.SPEARS INC., PRESIDENT, PROPERTY MANAGEMENT/  COMP FOR ALL:$1000 TO $1999,HRS SPENT FOR ALL:1-9."
    }
  },
  "DRPs": [
    {
      "hasRegAction": 1,
      "hasRegActionSpecified": true,
      "hasCriminal": 1,
      "hasCriminalSpecified": true,
      "hasBankrupt": 1,
      "hasBankruptSpecified": true,
      "hasCivilJudc": 1,
      "hasCivilJudcSpecified": true,
      "hasBond": 1,
      "hasBondSpecified": true,
      "hasJudgment": 1,
      "hasJudgmentSpecified": true,
      "hasInvstgn": 1,
      "hasInvstgnSpecified": true,
      "hasCustComp": 0,
      "hasCustCompSpecified": true,
      "hasTermination": 1,
      "hasTerminationSpecified": true
    }
  ]
}