{
  "Info": {
    "lastNm": "STALKER",
    "firstNm": "DON",
    "midNm": "PETER",
    "sufNm": null,
    "indvlPK": "2583989",
    "actvAGReg": 0,
    "link": "http://www.adviserinfo.sec.gov/IAPD/Individual/2583989"
  },
  "OthrNms": [],
  "CrntEmps": [
    {
      "CrntRgstns": [
        {
          "regAuth": 4,
          "regCat": 0,
          "st": 2,
          "stDt": "2005-03-28T00:00:00"
        }
      ],
      "BrnchOfLocs": [
        {
          "str1": "3400 CENTRAL AVE",
          "str2": "STE 335",
          "city": "RIVERSIDE",
          "state": 4,
          "stateSpecified": true,
          "cntry": "United States",
          "postlCd": "92506"
        }
      ],
      "orgNm": "CAMBRIDGE INVESTMENT RESEARCH ADVISORS, INC.",
      "orgPK": "134139",
      "str1": "1776 PLEASANT PLAIN RD.",
      "str2": null,
      "city": "FAIRFIELD",
      "state": 13,
      "stateSpecified": true,
      "cntry": "United States",
      "postlCd": "52556-8757"
    }
  ],
  "Exms": [
    {
      "exmCd": 0,
      "exmNm": "Uniform Securities Agent State Law Examination",
      "exmDt": "1995-02-28T00:00:00",
      "exmDtSpecified": true
    }
  ],
  "Dsgntns": [],
  "PrevRgstns": [
    {
      "BrnchOfLocs": [
        {
          "city": "WHITTIER",
          "state": 4,
          "stateSpecified": true
        }
      ],
      "orgNm": "WADDELL & REED",
      "orgPK": "866",
      "regBeginDt": "1997-07-08T00:00:00",
      "regBeginDtSpecified": true,
      "regEndDt": "2004-02-10T00:00:00",
      "regEndDtSpecified": true
    },
    {
      "BrnchOfLocs": [
        {
          "city": "RIVERSIDE",
          "state": 4,
          "stateSpecified": true
        }
      ],
      "orgNm": "CAMBRIDGE RETIREMENT ADVISORS",
      "orgPK": "129096",
      "regBeginDt": "2004-09-10T00:00:00",
      "regBeginDtSpecified": true,
      "regEndDt": "2004-09-29T00:00:00",
      "regEndDtSpecified": true
    }
  ],
  "EmpHss": [
    {
      "fromDt": "02/2004",
      "toDt": null,
      "orgNm": "CAMBRIDGE INVESTMENT RESEARCH, INC.",
      "city": "FAIRFIELD",
      "state": 13,
      "stateSpecified": true
    },
    {
      "fromDt": "03/2005",
      "toDt": null,
      "orgNm": "CAMBRIDGE INVESTMENT RESEARCH ADVISORS, INC.",
      "city": "FAIRFIELD",
      "state": 13,
      "stateSpecified": true
    }
  ],
  "OthrBuss": {
    "OthrBus": {
      "desc": "1)DON STALKER 13759 PHILADELPHIA ST., WHITTIER,CA.  SONG WRITER-BEGIN 1/1/85.  NON-INVESTMENT RELATED. 100 HRS/YEARLY AND 0 HRS DURING TRADING HOURS. 2)INDEPENDANT INSURANCE AGENT FOR INDEPENDANT INSURANCE COMPANIES."
    }
  },
  "DRPs": []
}