{
  "Info": {
    "lastNm": "SHOULDERS",
    "firstNm": "JANA",
    "midNm": "LEE",
    "sufNm": null,
    "indvlPK": "2583742",
    "actvAGReg": 1,
    "link": "http://www.adviserinfo.sec.gov/IAPD/Individual/2583742"
  },
  "OthrNms": [
    {
      "lastNm": "SHOULDERS",
      "firstNm": "JANA",
      "midNm": "L",
      "sufNm": null
    }
  ],
  "CrntEmps": [
    {
      "CrntRgstns": [
        {
          "regAuth": 37,
          "regCat": 0,
          "st": 2,
          "stDt": "1996-07-09T00:00:00"
        },
        {
          "regAuth": 45,
          "regCat": 0,
          "st": 3,
          "stDt": "2008-12-05T00:00:00"
        }
      ],
      "BrnchOfLocs": [
        {
          "str1": "4200 E. SKELLY DRIVE",
          "str2": "SUITE 950",
          "city": "TULSA",
          "state": 37,
          "stateSpecified": true,
          "cntry": "United States",
          "postlCd": "74135"
        }
      ],
      "orgNm": "MARINER WEALTH ADVISORS",
      "orgPK": "107355",
      "str1": "4200 WEST 115TH STREET",
      "str2": "SUITE 100",
      "city": "LEAWOOD",
      "state": 17,
      "stateSpecified": true,
      "cntry": "United States",
      "postlCd": "66211"
    }
  ],
  "Exms": [
    {
      "exmCd": 0,
      "exmNm": "Uniform Securities Agent State Law Examination",
      "exmDt": "1995-02-10T00:00:00",
      "exmDtSpecified": true
    },
    {
      "exmCd": 2,
      "exmNm": "Uniform Investment Adviser Law Examination",
      "exmDt": "1995-09-12T00:00:00",
      "exmDtSpecified": true
    }
  ],
  "Dsgntns": [],
  "PrevRgstns": [],
  "EmpHss": [
    {
      "fromDt": "03/1996",
      "toDt": null,
      "orgNm": "ADAMS HALL INVESTMENT MGMT (FORMERLY FIR",
      "city": "TULSA",
      "state": 37,
      "stateSpecified": true
    },
    {
      "fromDt": "05/1997",
      "toDt": "12/2006",
      "orgNm": "HOUCHIN, ADAMSON, L.L.C",
      "city": "TULSA",
      "state": 37,
      "stateSpecified": true
    }
  ],
  "OthrBuss": {
    "OthrBus": {
      "desc": "MJV LLC; 1437 S. BOULDER, SUITE 1150, TULSA, OK  74119; MANAGER; INVESTMENT RELATED; MINIMAL TIME DEVOTED. UNIVERSITY OF TULSA, TULSA, OK; NON-INVESTMENT RELATED; STUDENT INVESTMENT BOARD ADVISOR; START DATE 9/2013; 1/2 HR/MONTH; 1/2 HR/MONTH DURING SECURITIES HOURS.  PHILBROOK MUSEUM OF ART, TULSA, OK; NON-INVESTMENT RELATED; ART MUSEUM; ON THE BOARD OF TRUSTEES; START DATE 07/2003; 2 HRS/MONTH; 2 HRS/MONTH DURING SECURITIES HOURS.  TULSA REGIONAL CHAMBER OF COMMERCE, TULSA, OK; NON-INVESTMENT RELATED; SERVES ON THE BOARD OF DIRECTORS; ATTENDS MEETINGS, ETC.; START DATE 12/2012; 1 HR/MONTH; 1 HR/MONTH DURING SECURITIES HOURS.  TULSA CITY COUNTY LIBRARY TRUST, TULSA, OK; NON-INVESTMENT RELATED; NON-PROFIT ENTITY SUPPORTING LIBRARY ACTIVITIES; BOARD OF TRUSTEES; START DATE 07/1999; 1 HR/MONTH; 1 HR/MONTH DURING SECURITIES HOURS."
    }
  },
  "DRPs": []
}