{
  "Info": {
    "lastNm": "HILL",
    "firstNm": "FRANKLIN",
    "midNm": "ALFONSO ROMERO",
    "sufNm": null,
    "indvlPK": "2583192",
    "actvAGReg": 0,
    "link": "http://www.adviserinfo.sec.gov/IAPD/Individual/2583192"
  },
  "OthrNms": [
    {
      "lastNm": "HILL",
      "firstNm": "FRANKLIN",
      "midNm": "ROMERO",
      "sufNm": null
    }
  ],
  "CrntEmps": [
    {
      "CrntRgstns": [
        {
          "regAuth": 47,
          "regCat": 0,
          "st": 2,
          "stDt": "2014-07-17T00:00:00"
        }
      ],
      "BrnchOfLocs": [
        {
          "str1": "11 PIDGEON HILL DRIVE",
          "str2": null,
          "city": "STERLING",
          "state": 47,
          "stateSpecified": true,
          "cntry": "United States",
          "postlCd": "20165"
        },
        {
          "str1": "14200-E CENTREVILLE SQUARE",
          "str2": null,
          "city": "CENTREVILLE",
          "state": 47,
          "stateSpecified": true,
          "cntry": "United States",
          "postlCd": "20121"
        },
        {
          "str1": "3043 NUTLEY STREET",
          "str2": null,
          "city": "FAIRFAX",
          "state": 47,
          "stateSpecified": true,
          "cntry": "United States",
          "postlCd": "22031"
        },
        {
          "str1": "501 MAPLE AVENUE W",
          "str2": null,
          "city": "VIENNA",
          "state": 47,
          "stateSpecified": true,
          "cntry": "United States",
          "postlCd": "22180"
        }
      ],
      "orgNm": "SUNTRUST INVESTMENT SERVICES, INC.",
      "orgPK": "17499",
      "str1": "303 PEACHTREE CENTER AVENUE",
      "str2": "SUNTRUST GARDEN OFFICES SUITE 140",
      "city": "ATLANTA",
      "state": 10,
      "stateSpecified": true,
      "cntry": "United States",
      "postlCd": "30303"
    }
  ],
  "Exms": [
    {
      "exmCd": 0,
      "exmNm": "Uniform Securities Agent State Law Examination",
      "exmDt": "1995-04-17T00:00:00",
      "exmDtSpecified": true
    },
    {
      "exmCd": 2,
      "exmNm": "Uniform Investment Adviser Law Examination",
      "exmDt": "2002-04-08T00:00:00",
      "exmDtSpecified": true
    }
  ],
  "Dsgntns": [],
  "PrevRgstns": [
    {
      "BrnchOfLocs": [
        {
          "city": "ARLINGTON",
          "state": 47,
          "stateSpecified": true
        },
        {
          "city": "FALLS CHURCH",
          "state": 47,
          "stateSpecified": true
        },
        {
          "city": "MCLEAN",
          "state": 47,
          "stateSpecified": true
        },
        {
          "city": "VIENNA",
          "state": 47,
          "stateSpecified": true
        }
      ],
      "orgNm": "WELLS FARGO ADVISORS, LLC",
      "orgPK": "19616",
      "regBeginDt": "2002-04-11T00:00:00",
      "regBeginDtSpecified": true,
      "regEndDt": "2008-05-06T00:00:00",
      "regEndDtSpecified": true
    },
    {
      "BrnchOfLocs": [
        {
          "city": "VIENNA",
          "state": 47,
          "stateSpecified": true
        }
      ],
      "orgNm": "AMERIPRISE ADVISOR SERVICES, INC.",
      "orgPK": "5979",
      "regBeginDt": "2008-06-19T00:00:00",
      "regBeginDtSpecified": true,
      "regEndDt": "2009-01-07T00:00:00",
      "regEndDtSpecified": true
    },
    {
      "BrnchOfLocs": [
        {
          "city": "ASHBURN",
          "state": 47,
          "stateSpecified": true
        },
        {
          "city": "ASHBURN",
          "state": 47,
          "stateSpecified": true
        },
        {
          "city": "ASHBURN",
          "state": 47,
          "stateSpecified": true
        },
        {
          "city": "CHANTILLY",
          "state": 47,
          "stateSpecified": true
        },
        {
          "city": "DULLES",
          "state": 47,
          "stateSpecified": true
        },
        {
          "city": "DULLES",
          "state": 47,
          "stateSpecified": true
        },
        {
          "city": "FAIRFAX",
          "state": 47,
          "stateSpecified": true
        },
        {
          "city": "HERNDON",
          "state": 47,
          "stateSpecified": true
        },
        {
          "city": "HERNDON",
          "state": 47,
          "stateSpecified": true
        },
        {
          "city": "HERNDON",
          "state": 47,
          "stateSpecified": true
        },
        {
          "city": "LANSDOWNE",
          "state": 47,
          "stateSpecified": true
        },
        {
          "city": "OAKTON",
          "state": 47,
          "stateSpecified": true
        },
        {
          "city": "OAKTON",
          "state": 47,
          "stateSpecified": true
        },
        {
          "city": "PURCELLVILLE",
          "state": 47,
          "stateSpecified": true
        },
        {
          "city": "RESTON",
          "state": 47,
          "stateSpecified": true
        },
        {
          "city": "STERLING",
          "state": 47,
          "stateSpecified": true
        },
        {
          "city": "STERLING",
          "state": 47,
          "stateSpecified": true
        },
        {
          "city": "STERLING",
          "state": 47,
          "stateSpecified": true
        },
        {
          "city": "VIENNA",
          "state": 47,
          "stateSpecified": true
        },
        {
          "city": "VIENNA",
          "state": 47,
          "stateSpecified": true
        },
        {
          "city": "WASHINGTON",
          "state": 7,
          "stateSpecified": true
        }
      ],
      "orgNm": "PNC INVESTMENTS",
      "orgPK": "129052",
      "regBeginDt": "2009-01-14T00:00:00",
      "regBeginDtSpecified": true,
      "regEndDt": "2014-07-24T00:00:00",
      "regEndDtSpecified": true
    }
  ],
  "EmpHss": [
    {
      "fromDt": "06/2003",
      "toDt": "05/2008",
      "orgNm": "WACHOVIA SECURITIES, LLC",
      "city": "TYSONS CORNER",
      "state": 47,
      "stateSpecified": true
    },
    {
      "fromDt": "05/2008",
      "toDt": "12/2008",
      "orgNm": "H & R BLOCK FINANCIAL ADVISORS",
      "city": "FALLS CHURCH",
      "state": 47,
      "stateSpecified": true
    },
    {
      "fromDt": "12/2008",
      "toDt": "07/2014",
      "orgNm": "PNC INVESTMENTS",
      "city": "PITTSBURGH",
      "state": 39,
      "stateSpecified": true
    },
    {
      "fromDt": "07/2014",
      "toDt": null,
      "orgNm": "SUNTRUST INVESTMENT SERVICES, INC",
      "city": "ATLANTA",
      "state": 10,
      "stateSpecified": true
    }
  ],
  "OthrBuss": {
    "OthrBus": null
  },
  "DRPs": [
    {
      "hasRegAction": 1,
      "hasRegActionSpecified": true,
      "hasCriminal": 1,
      "hasCriminalSpecified": true,
      "hasBankrupt": 0,
      "hasBankruptSpecified": true,
      "hasCivilJudc": 1,
      "hasCivilJudcSpecified": true,
      "hasBond": 1,
      "hasBondSpecified": true,
      "hasJudgment": 1,
      "hasJudgmentSpecified": true,
      "hasInvstgn": 1,
      "hasInvstgnSpecified": true,
      "hasCustComp": 0,
      "hasCustCompSpecified": true,
      "hasTermination": 1,
      "hasTerminationSpecified": true
    }
  ]
}