{
  "Info": {
    "lastNm": "PARKER",
    "firstNm": "MICHELLE",
    "midNm": "ROXANNE",
    "sufNm": null,
    "indvlPK": "2590034",
    "actvAGReg": 0,
    "link": "http://www.adviserinfo.sec.gov/IAPD/Individual/2590034"
  },
  "OthrNms": [
    {
      "lastNm": "BACCUS",
      "firstNm": "MICHELLE",
      "midNm": "ROXANNE",
      "sufNm": null
    },
    {
      "lastNm": "BALLEW",
      "firstNm": "MICHELLE",
      "midNm": "ROXANNE",
      "sufNm": null
    }
  ],
  "CrntEmps": [
    {
      "CrntRgstns": [
        {
          "regAuth": 33,
          "regCat": 0,
          "st": 2,
          "stDt": "2008-09-25T00:00:00"
        }
      ],
      "BrnchOfLocs": [
        {
          "str1": "315 PASEO DE PERLTA",
          "str2": null,
          "city": "SANTA FE",
          "state": 33,
          "stateSpecified": true,
          "cntry": "United States",
          "postlCd": "87501"
        }
      ],
      "orgNm": "WELLS FARGO ADVISORS, LLC",
      "orgPK": "19616",
      "str1": "ONE NORTH JEFFERSON AVENUE",
      "str2": "MAIL CODE: H0004-050",
      "city": "ST. LOUIS",
      "state": 25,
      "stateSpecified": true,
      "cntry": "United States",
      "postlCd": "63103-2205"
    }
  ],
  "Exms": [
    {
      "exmCd": 3,
      "exmNm": "Uniform Combined State Law Examination",
      "exmDt": "2003-01-30T00:00:00",
      "exmDtSpecified": true
    }
  ],
  "Dsgntns": [
    {
      "dsgntnNm": "Certified Financial Planner"
    }
  ],
  "PrevRgstns": [
    {
      "BrnchOfLocs": [
        {
          "city": "SANTA FE",
          "state": 33,
          "stateSpecified": true
        },
        {
          "city": "SANTA FE",
          "state": 33,
          "stateSpecified": true
        }
      ],
      "orgNm": "MERRILL LYNCH, PIERCE, FENNER & SMITH INCORPORATED",
      "orgPK": "7691",
      "regBeginDt": "2003-02-11T00:00:00",
      "regBeginDtSpecified": true,
      "regEndDt": "2008-09-24T00:00:00",
      "regEndDtSpecified": true
    }
  ],
  "EmpHss": [
    {
      "fromDt": "08/2001",
      "toDt": "09/2008",
      "orgNm": "MERRILL LYNCH, PIERCE, FENNER & SMITH INCORPORATED",
      "city": "SANTA FE",
      "state": 33,
      "stateSpecified": true
    },
    {
      "fromDt": "09/2008",
      "toDt": "05/2009",
      "orgNm": "WACHOVIA SECURITIES, LLC",
      "city": "SANTA FE",
      "state": 33,
      "stateSpecified": true
    },
    {
      "fromDt": "05/2009",
      "toDt": null,
      "orgNm": "WELLS FARGO ADVISORS LLC",
      "city": "SANTA FE",
      "state": 33,
      "stateSpecified": true
    }
  ],
  "OthrBuss": {
    "OthrBus": {
      "desc": "MARY KAY; NON-INV; GALISTEO, NM; START: 12/01/2014; HOURS: 0 PER MONTH - 0 DURING TRADING; DUTIES: INDEPENDENT SALES CONSULTANT"
    }
  },
  "DRPs": []
}