{
  "Info": {
    "lastNm": "RECCO",
    "firstNm": "ANTHONY",
    "midNm": "MICHAEL",
    "sufNm": "JR",
    "indvlPK": "2591477",
    "actvAGReg": 0,
    "link": "http://www.adviserinfo.sec.gov/IAPD/Individual/2591477"
  },
  "OthrNms": [
    {
      "lastNm": "RECCO",
      "firstNm": "TONY",
      "midNm": null,
      "sufNm": "JR"
    }
  ],
  "CrntEmps": [
    {
      "CrntRgstns": [
        {
          "regAuth": 32,
          "regCat": 0,
          "st": 2,
          "stDt": "2012-05-14T00:00:00"
        }
      ],
      "BrnchOfLocs": [
        {
          "str1": "102 BUSINESS PARK DR",
          "str2": null,
          "city": "UTICA",
          "state": 35,
          "stateSpecified": true,
          "cntry": "United States",
          "postlCd": "13502"
        }
      ],
      "orgNm": "MERRILL LYNCH, PIERCE, FENNER & SMITH INCORPORATED",
      "orgPK": "7691",
      "str1": "ONE BRYANT PARK",
      "str2": null,
      "city": "NEW YORK",
      "state": 35,
      "stateSpecified": true,
      "cntry": "United States",
      "postlCd": "10036"
    }
  ],
  "Exms": [
    {
      "exmCd": 3,
      "exmNm": "Uniform Combined State Law Examination",
      "exmDt": "2002-10-07T00:00:00",
      "exmDtSpecified": true
    }
  ],
  "Dsgntns": [],
  "PrevRgstns": [
    {
      "BrnchOfLocs": [
        {
          "city": "NEW HARTFORD",
          "state": 35,
          "stateSpecified": true
        },
        {
          "city": "ROME",
          "state": 35,
          "stateSpecified": true
        },
        {
          "city": "ROME",
          "state": 35,
          "stateSpecified": true
        },
        {
          "city": "SYRACUSE",
          "state": 35,
          "stateSpecified": true
        }
      ],
      "orgNm": "RBC CAPITAL MARKETS, LLC",
      "orgPK": "31194",
      "regBeginDt": "2004-10-13T00:00:00",
      "regBeginDtSpecified": true,
      "regEndDt": "2012-05-18T00:00:00",
      "regEndDtSpecified": true
    }
  ],
  "EmpHss": [
    {
      "fromDt": "05/2002",
      "toDt": "03/2008",
      "orgNm": "RBC DAIN RAUSCHER INC",
      "city": "SYRACUSE",
      "state": 35,
      "stateSpecified": true
    },
    {
      "fromDt": "03/2008",
      "toDt": "05/2012",
      "orgNm": "RBC CAPITAL MARKETS CORPORATION",
      "city": "NEW HARTFORD",
      "state": 35,
      "stateSpecified": true
    },
    {
      "fromDt": "05/2012",
      "toDt": null,
      "orgNm": "MERRILL LYNCH, PIERCE, FENNER & SMITH INCORPORATED",
      "city": "UTICA",
      "state": 35,
      "stateSpecified": true
    },
    {
      "fromDt": "07/2012",
      "toDt": null,
      "orgNm": "BANK OF AMERICA N. A",
      "city": "UTICA",
      "state": 35,
      "stateSpecified": true
    }
  ],
  "OthrBuss": {
    "OthrBus": {
      "desc": "1)I*54670 FOR PROFIT OR NOT FOR PROFIT: NON-PROFIT ORGANIZATION  NAME OF OUTSIDE BUSINESS ORGANIZATION: ROME ROTARY CLUB  INVESTMENT RELATED: N  ADDRESS OF BUSINESS:   PO BOX 655,   ROME, NEW YORK 13440  NATURE OF BUSINESS: CHARITABLE ORGANIZATION,  POSITION, TITLE, ASSOCIATION: ADVISORY BOARD MEMBER,   START DATE OF RELATIONSHIP: 6/30/2015  NUMBER OF HOURS DEVOTED: 5 HOUR(S) MONTHLY  NUMBER OF HOURS DEVOTED DURING TRADING HOURS: 4  DUTIES: SERVICE CLUB. I WILL BE CLUB PRESIDENT FROM 6/30/15-6/29/16.      2) FOR PROFIT OR NOT FOR PROFIT: NON-PROFIT ORGANIZATION   NAME OF OUTSIDE BUSINESS ORGANIZATION: SENIOR CITIZENS COUNCIL OF ROME NEW YORK  INVESTMENT RELATED: NO  ADDRESS OF BUSINESS:  305 E. LOCUST STREET, ROME, NY 13440  NATURE OF BUSINESS: MANAGE EXECUTIVE DIRECTORS DUTIES, MONITOR WORK PERFORMANCE OF ALL EMPLOYEES.  POSITION, TITLE, ASSOCIATION: PRESIDENT OF BOARD OF DIRECTORS  START DATE OF RELATIONSHIP: 10/01/2013  NUMBER OF HOURS DEVOTED: 8/MONTH  NUMBER OF HOURS DEVOTED DURING TRADING HOURS: 1  DUTIES: FINANCIAL OVERSIGHT IS IN REGARDS TO OVERSEE DAY TO DAY OPERATIONS AND PROVIDE ASSISTANCE IN MAINTAINING A PRODUCTIVE SENIOR CENTER EX. P/L STATEMENTS.    I*80660  FOR PROFIT OR NOT FOR PROFIT: FOR-PROFIT ORGANIZATION  NAME OF OUTSIDE BUSINESS ORGANIZATION: N/A  INVESTMENT RELATED: Y  ADDRESS OF BUSINESS:  PONTE VEDRA BEACH, FLORIDA 32082  NATURE OF BUSINESS: FAMILY BUSINESS,  POSITION, TITLE, ASSOCIATION: OWNER,   START DATE OF RELATIONSHIP: 10/1/2014  NUMBER OF HOURS DEVOTED: 1 HOUR(S) MONTHLY  NUMBER OF HOURS DEVOTED DURING TRADING HOURS: 0  DUTIES: RENTAL PROPERTY    I*88217  FOR PROFIT OR NOT FOR PROFIT: NON-PROFIT ORGANIZATION  NAME OF OUTSIDE BUSINESS ORGANIZATION: TEUGEGA HOMEOWNERS ASSOCIATION  INVESTMENT RELATED: N  ADDRESS OF BUSINESS:  ROME, NEW YORK 13440  NATURE OF BUSINESS: LLC,  POSITION, TITLE, ASSOCIATION: DIRECTOR,   START DATE OF RELATIONSHIP: 11/8/2015  NUMBER OF HOURS DEVOTED: 2 HOUR(S) MONTHLY  NUMBER OF HOURS DEVOTED DURING TRADING HOURS: 0  DUTIES: PRESIDENT OF HOMEWNERS ASSOCIATION. CONSISTS OF PRIVATE NEIGHBORHOOD OF APPROX 50 LAKEFRONT HOMES. I WILL BE LEAD DECISION MAKER OF FUTURE DIRECTION. I WILL BE CONTACT WITH NY CANAL CORP REGARDING ALL ISSUES. I WILL RESOLVE PROPERTY DISPUTES"
    }
  },
  "DRPs": []
}