{
  "Info": {
    "lastNm": "OBEJI",
    "firstNm": "LISA",
    "midNm": "DYANNE",
    "sufNm": null,
    "indvlPK": "2593527",
    "actvAGReg": 0,
    "link": "http://www.adviserinfo.sec.gov/IAPD/Individual/2593527"
  },
  "OthrNms": [
    {
      "lastNm": "BULLARD",
      "firstNm": "LISA",
      "midNm": "DYANNE",
      "sufNm": null
    },
    {
      "lastNm": "BULLARD",
      "firstNm": "LISA",
      "midNm": "DYANNE",
      "sufNm": "^"
    },
    {
      "lastNm": "MARINO",
      "firstNm": "LISA",
      "midNm": null,
      "sufNm": null
    },
    {
      "lastNm": "MARINO",
      "firstNm": "LISA",
      "midNm": "DYANNE",
      "sufNm": "^"
    },
    {
      "lastNm": "OBEJI",
      "firstNm": "LISA",
      "midNm": null,
      "sufNm": null
    },
    {
      "lastNm": "OBEJI",
      "firstNm": "LISA",
      "midNm": "D",
      "sufNm": null
    },
    {
      "lastNm": "OBEJI",
      "firstNm": "LISA",
      "midNm": "D",
      "sufNm": null
    },
    {
      "lastNm": "OBEJI",
      "firstNm": "LISA",
      "midNm": "DYANNE",
      "sufNm": null
    }
  ],
  "CrntEmps": [
    {
      "CrntRgstns": [
        {
          "regAuth": 33,
          "regCat": 0,
          "st": 2,
          "stDt": "2014-05-06T00:00:00"
        }
      ],
      "BrnchOfLocs": [
        {
          "str1": "6565 AMERICA'S PARKWAY NE",
          "str2": "STE 400",
          "city": "ALBUQUERQUE",
          "state": 33,
          "stateSpecified": true,
          "cntry": "United States",
          "postlCd": "87110"
        }
      ],
      "orgNm": "MORGAN STANLEY",
      "orgPK": "149777",
      "str1": "2000 WESTCHESTER AVENUE",
      "str2": null,
      "city": "PURCHASE",
      "state": 35,
      "stateSpecified": true,
      "cntry": "United States",
      "postlCd": "10577-2530"
    }
  ],
  "Exms": [
    {
      "exmCd": 3,
      "exmNm": "Uniform Combined State Law Examination",
      "exmDt": "2008-01-29T00:00:00",
      "exmDtSpecified": true
    },
    {
      "exmCd": 0,
      "exmNm": "Uniform Securities Agent State Law Examination",
      "exmDt": "2014-06-27T00:00:00",
      "exmDtSpecified": true
    }
  ],
  "Dsgntns": [],
  "PrevRgstns": [
    {
      "BrnchOfLocs": [
        {
          "city": "ALBUQUERQUE",
          "state": 33,
          "stateSpecified": true
        },
        {
          "city": "ALBUQUERQUE",
          "state": 33,
          "stateSpecified": true
        }
      ],
      "orgNm": "MERRILL LYNCH, PIERCE, FENNER & SMITH INCORPORATED",
      "orgPK": "7691",
      "regBeginDt": "2008-01-31T00:00:00",
      "regBeginDtSpecified": true,
      "regEndDt": "2008-06-27T00:00:00",
      "regEndDtSpecified": true
    },
    {
      "BrnchOfLocs": [
        {
          "city": "ALBUQUERQUE",
          "state": 33,
          "stateSpecified": true
        }
      ],
      "orgNm": "CPA WEALTH ADVISORS LLC",
      "orgPK": "129607",
      "regBeginDt": "2009-03-19T00:00:00",
      "regBeginDtSpecified": true,
      "regEndDt": "2009-12-09T00:00:00",
      "regEndDtSpecified": true
    },
    {
      "BrnchOfLocs": [
        {
          "city": "ALBUQUERQUE",
          "state": 33,
          "stateSpecified": true
        }
      ],
      "orgNm": "REDW STANLEY FINANCIAL ADVISORS, LLC",
      "orgPK": "109446",
      "regBeginDt": "2009-11-18T00:00:00",
      "regBeginDtSpecified": true,
      "regEndDt": "2013-08-20T00:00:00",
      "regEndDtSpecified": true
    }
  ],
  "EmpHss": [
    {
      "fromDt": "04/2006",
      "toDt": "02/2007",
      "orgNm": "BANK OF THE WEST",
      "city": "ALBUQUERQUE",
      "state": 33,
      "stateSpecified": true
    },
    {
      "fromDt": "04/2006",
      "toDt": "05/2007",
      "orgNm": "BANK OF THE WEST",
      "city": "RIO RANCHO",
      "state": 33,
      "stateSpecified": true
    },
    {
      "fromDt": "05/2007",
      "toDt": "08/2007",
      "orgNm": "MORGAN STANLEY",
      "city": "ALBUQUERQUE",
      "state": 33,
      "stateSpecified": true
    },
    {
      "fromDt": "05/2007",
      "toDt": "08/2007",
      "orgNm": "MORGAN STANLEY & CO, INC.",
      "city": "ALBUQUERQUE",
      "state": 33,
      "stateSpecified": true
    },
    {
      "fromDt": "08/2007",
      "toDt": "07/2008",
      "orgNm": "MERRILL LYNCH",
      "city": "ALBUQUERQUE",
      "state": 33,
      "stateSpecified": true
    },
    {
      "fromDt": "07/2008",
      "toDt": "12/2009",
      "orgNm": "CPA WEALTH ADVISORS",
      "city": "ALBUQUERQUE",
      "state": 33,
      "stateSpecified": true
    },
    {
      "fromDt": "07/2008",
      "toDt": "12/2009",
      "orgNm": "PURSHE KAPLAN STERLING",
      "city": "ALBANY",
      "state": 35,
      "stateSpecified": true
    },
    {
      "fromDt": "07/2009",
      "toDt": "02/2014",
      "orgNm": "REDW ROGOFF FIRM",
      "city": "ALBUQUERQUE",
      "state": 33,
      "stateSpecified": true
    },
    {
      "fromDt": "02/2014",
      "toDt": null,
      "orgNm": "MORGAN STANLEY",
      "city": "ALBUQUERQUE",
      "state": 33,
      "stateSpecified": true
    },
    {
      "fromDt": "01/2015",
      "toDt": null,
      "orgNm": "MORGAN STANLEY PRIVATE BANK, NATIONAL ASSOCIATION",
      "city": "NEW YORK",
      "state": 35,
      "stateSpecified": true
    }
  ],
  "OthrBuss": {
    "OthrBus": null
  },
  "DRPs": []
}