{
  "Info": {
    "lastNm": "CAMPO",
    "firstNm": "TODD",
    "midNm": "ANTHONY",
    "sufNm": null,
    "indvlPK": "2603532",
    "actvAGReg": 0,
    "link": "http://www.adviserinfo.sec.gov/IAPD/Individual/2603532"
  },
  "OthrNms": [],
  "CrntEmps": [
    {
      "CrntRgstns": [
        {
          "regAuth": 6,
          "regCat": 0,
          "st": 2,
          "stDt": "2016-01-14T00:00:00"
        },
        {
          "regAuth": 15,
          "regCat": 0,
          "st": 2,
          "stDt": "2016-01-20T00:00:00"
        }
      ],
      "BrnchOfLocs": [
        {
          "str1": "600 3rd Ave.",
          "str2": null,
          "city": "New York",
          "state": 35,
          "stateSpecified": true,
          "cntry": "United States",
          "postlCd": "10016-1901"
        }
      ],
      "orgNm": "OAK RIDGE INVESTMENTS, LLC",
      "orgPK": "107066",
      "str1": "10 SOUTH LASALLE STREET",
      "str2": "SUITE 1900",
      "city": "CHICAGO",
      "state": 15,
      "stateSpecified": true,
      "cntry": "United States",
      "postlCd": "60603-1020"
    }
  ],
  "Exms": [
    {
      "exmCd": 0,
      "exmNm": "Uniform Securities Agent State Law Examination",
      "exmDt": "1996-04-22T00:00:00",
      "exmDtSpecified": true
    },
    {
      "exmCd": 3,
      "exmNm": "Uniform Combined State Law Examination",
      "exmDt": "2001-03-09T00:00:00",
      "exmDtSpecified": true
    }
  ],
  "Dsgntns": [],
  "PrevRgstns": [
    {
      "BrnchOfLocs": [
        {
          "city": "NEW YORK",
          "state": 35,
          "stateSpecified": true
        },
        {
          "city": "NEW YORK",
          "state": 35,
          "stateSpecified": true
        }
      ],
      "orgNm": "NEUBERGER BERMAN LLC",
      "orgPK": "2908",
      "regBeginDt": "2001-07-10T00:00:00",
      "regBeginDtSpecified": true,
      "regEndDt": "2011-03-15T00:00:00",
      "regEndDtSpecified": true
    }
  ],
  "EmpHss": [
    {
      "fromDt": "06/2001",
      "toDt": "03/2011",
      "orgNm": "NEUBERGER BERMAN MANAGEMENT INC.",
      "city": "NEW YORK",
      "state": 35,
      "stateSpecified": true
    },
    {
      "fromDt": "06/2001",
      "toDt": "03/2011",
      "orgNm": "NEUBERGER BERMAN, LLC",
      "city": "NEW YORK",
      "state": 35,
      "stateSpecified": true
    },
    {
      "fromDt": "03/2011",
      "toDt": "12/2015",
      "orgNm": "ALLIANZ GLOBAL INVESTORS DISTRIBUTORS LLC",
      "city": "NEW YORK",
      "state": 35,
      "stateSpecified": true
    },
    {
      "fromDt": "03/2011",
      "toDt": "12/2012",
      "orgNm": "ALLIANZ GLOBAL INVESTORS MANAGED ACCOUNTS LLC",
      "city": "NEW YORK",
      "state": 35,
      "stateSpecified": true
    },
    {
      "fromDt": "01/2013",
      "toDt": "12/2015",
      "orgNm": "ALLIANZ GLOBAL INVESTORS U.S. LLC",
      "city": "NEW YORK",
      "state": 35,
      "stateSpecified": true
    },
    {
      "fromDt": "01/2016",
      "toDt": null,
      "orgNm": "IMST Distributors",
      "city": "New York",
      "state": 35,
      "stateSpecified": true
    },
    {
      "fromDt": "02/2016",
      "toDt": null,
      "orgNm": "Oak Ridge Investments, LLC",
      "city": "Chicago",
      "state": 15,
      "stateSpecified": true
    }
  ],
  "OthrBuss": {
    "OthrBus": {
      "desc": "Oak Ridge Investments, L.L.C., New York NY, Investment Related, began 01/04/2016, SVP-Head of Strategic Business Development, full time employee."
    }
  },
  "DRPs": []
}