{
  "Info": {
    "lastNm": "AVVINTI",
    "firstNm": "VITO",
    "midNm": null,
    "sufNm": null,
    "indvlPK": "2610736",
    "actvAGReg": 0,
    "link": "http://www.adviserinfo.sec.gov/IAPD/Individual/2610736"
  },
  "OthrNms": [],
  "CrntEmps": [
    {
      "CrntRgstns": [
        {
          "regAuth": 32,
          "regCat": 0,
          "st": 2,
          "stDt": "2012-10-01T00:00:00"
        }
      ],
      "BrnchOfLocs": [
        {
          "str1": "7427 FIFTH AVE.",
          "str2": null,
          "city": "BROOKLYN",
          "state": 35,
          "stateSpecified": true,
          "cntry": "United States",
          "postlCd": "11209"
        }
      ],
      "orgNm": "J.P. MORGAN SECURITIES LLC",
      "orgPK": "79",
      "str1": "277 PARK AVENUE",
      "str2": null,
      "city": "NEW YORK",
      "state": 35,
      "stateSpecified": true,
      "cntry": "United States",
      "postlCd": "10172"
    }
  ],
  "Exms": [
    {
      "exmCd": 0,
      "exmNm": "Uniform Securities Agent State Law Examination",
      "exmDt": "1997-05-05T00:00:00",
      "exmDtSpecified": true
    },
    {
      "exmCd": 2,
      "exmNm": "Uniform Investment Adviser Law Examination",
      "exmDt": "2007-02-16T00:00:00",
      "exmDtSpecified": true
    }
  ],
  "Dsgntns": [],
  "PrevRgstns": [
    {
      "BrnchOfLocs": [
        {
          "city": "BROOKLYN",
          "state": 35,
          "stateSpecified": true
        },
        {
          "city": "BROOKLYN",
          "state": 35,
          "stateSpecified": true
        },
        {
          "city": "BROOKLYN",
          "state": 35,
          "stateSpecified": true
        },
        {
          "city": "BROOKLYN",
          "state": 35,
          "stateSpecified": true
        },
        {
          "city": "HOWARD BEACH",
          "state": 35,
          "stateSpecified": true
        }
      ],
      "orgNm": "WAMU INVESTMENTS, INC.",
      "orgPK": "599",
      "regBeginDt": "2007-02-19T00:00:00",
      "regBeginDtSpecified": true,
      "regEndDt": "2009-05-02T00:00:00",
      "regEndDtSpecified": true
    },
    {
      "BrnchOfLocs": [
        {
          "city": "BROOKLYN",
          "state": 35,
          "stateSpecified": true
        },
        {
          "city": "BROOKLYN",
          "state": 35,
          "stateSpecified": true
        },
        {
          "city": "BROOKLYN",
          "state": 35,
          "stateSpecified": true
        }
      ],
      "orgNm": "CHASE INVESTMENT SERVICES CORP.",
      "orgPK": "25574",
      "regBeginDt": "2009-05-02T00:00:00",
      "regBeginDtSpecified": true,
      "regEndDt": "2012-10-01T00:00:00",
      "regEndDtSpecified": true
    }
  ],
  "EmpHss": [
    {
      "fromDt": "05/1995",
      "toDt": null,
      "orgNm": "DIME SECURITIES, INC.",
      "city": "BROOKLYN",
      "state": 35,
      "stateSpecified": true
    },
    {
      "fromDt": "05/2002",
      "toDt": null,
      "orgNm": "WM FINANCIAL SERVICES, INC.",
      "city": "IRVINE",
      "state": 4,
      "stateSpecified": true
    },
    {
      "fromDt": "05/2009",
      "toDt": "10/2012",
      "orgNm": "CHASE INVESTMENT SERVICES CORP.",
      "city": "BROOKLYN",
      "state": 35,
      "stateSpecified": true
    },
    {
      "fromDt": "10/2012",
      "toDt": null,
      "orgNm": "J.P. MORGAN SECURITIES LLC",
      "city": "BROOKLYN",
      "state": 35,
      "stateSpecified": true
    }
  ],
  "OthrBuss": {
    "OthrBus": null
  },
  "DRPs": [
    {
      "hasRegAction": 1,
      "hasRegActionSpecified": true,
      "hasCriminal": 1,
      "hasCriminalSpecified": true,
      "hasBankrupt": 1,
      "hasBankruptSpecified": true,
      "hasCivilJudc": 1,
      "hasCivilJudcSpecified": true,
      "hasBond": 1,
      "hasBondSpecified": true,
      "hasJudgment": 1,
      "hasJudgmentSpecified": true,
      "hasInvstgn": 1,
      "hasInvstgnSpecified": true,
      "hasCustComp": 0,
      "hasCustCompSpecified": true,
      "hasTermination": 1,
      "hasTerminationSpecified": true
    }
  ]
}