{
  "Info": {
    "lastNm": "CHUI",
    "firstNm": "SANDI",
    "midNm": "Y",
    "sufNm": null,
    "indvlPK": "2612557",
    "actvAGReg": 0,
    "link": "http://www.adviserinfo.sec.gov/IAPD/Individual/2612557"
  },
  "OthrNms": [],
  "CrntEmps": [
    {
      "CrntRgstns": [
        {
          "regAuth": 4,
          "regCat": 0,
          "st": 2,
          "stDt": "2013-05-02T00:00:00"
        },
        {
          "regAuth": 5,
          "regCat": 0,
          "st": 2,
          "stDt": "2013-05-08T00:00:00"
        }
      ],
      "BrnchOfLocs": [
        {
          "str1": "70 SOUTH LAKE AVENUE",
          "str2": "SUITE 700",
          "city": "PASADENA",
          "state": 4,
          "stateSpecified": true,
          "cntry": "UNITED STATES",
          "postlCd": "91101"
        }
      ],
      "orgNm": "WESTERN INTERNATIONAL SECURITIES, INC.",
      "orgPK": "39262",
      "str1": "70 S. LAKE AVE, SUITE 700",
      "str2": null,
      "city": "PASADENA",
      "state": 4,
      "stateSpecified": true,
      "cntry": "United States",
      "postlCd": "91101-9540"
    }
  ],
  "Exms": [
    {
      "exmCd": 0,
      "exmNm": "Uniform Securities Agent State Law Examination",
      "exmDt": "1999-11-03T00:00:00",
      "exmDtSpecified": true
    },
    {
      "exmCd": 3,
      "exmNm": "Uniform Combined State Law Examination",
      "exmDt": "2007-11-30T00:00:00",
      "exmDtSpecified": true
    }
  ],
  "Dsgntns": [],
  "PrevRgstns": [
    {
      "BrnchOfLocs": [
        {
          "city": "BEVERLY HILLS",
          "state": 4,
          "stateSpecified": true
        },
        {
          "city": "PASADENA",
          "state": 4,
          "stateSpecified": true
        },
        {
          "city": "PASADENA",
          "state": 4,
          "stateSpecified": true
        },
        {
          "city": "PASADENA",
          "state": 4,
          "stateSpecified": true
        }
      ],
      "orgNm": "MERRILL LYNCH, PIERCE, FENNER & SMITH INCORPORATED",
      "orgPK": "7691",
      "regBeginDt": "2007-10-04T00:00:00",
      "regBeginDtSpecified": true,
      "regEndDt": "2013-02-25T00:00:00",
      "regEndDtSpecified": true
    },
    {
      "BrnchOfLocs": [
        {
          "city": "Fountain Valley",
          "state": 4,
          "stateSpecified": true
        },
        {
          "city": "SAN FRANCISCO",
          "state": 4,
          "stateSpecified": true
        },
        {
          "city": "SAN GABRIEL",
          "state": 4,
          "stateSpecified": true
        },
        {
          "city": "SAN JOSE",
          "state": 4,
          "stateSpecified": true
        }
      ],
      "orgNm": "CITIGROUP GLOBAL MARKETS INC.",
      "orgPK": "7059",
      "regBeginDt": "2013-02-28T00:00:00",
      "regBeginDtSpecified": true,
      "regEndDt": "2013-03-26T00:00:00",
      "regEndDtSpecified": true
    }
  ],
  "EmpHss": [
    {
      "fromDt": "06/1994",
      "toDt": "02/2012",
      "orgNm": "MERRILL LYNCH INTERNATIONAL",
      "city": "BEVERLY HILLS",
      "state": 4,
      "stateSpecified": true
    },
    {
      "fromDt": "06/1994",
      "toDt": "02/2011",
      "orgNm": "MERRILL LYNCH, PIERCE, FENNER & SMITH INCORPORATED",
      "city": "BEVERLY HILLS",
      "state": 4,
      "stateSpecified": true
    },
    {
      "fromDt": "05/2012",
      "toDt": "02/2013",
      "orgNm": "BANK OF AMERICA, N.A.",
      "city": "PASADENA",
      "state": 4,
      "stateSpecified": true
    },
    {
      "fromDt": "02/2013",
      "toDt": "03/2013",
      "orgNm": "CITIGROUP GLOBAL MARKETS INC",
      "city": "GABRIEL",
      "state": 4,
      "stateSpecified": true
    },
    {
      "fromDt": "04/2013",
      "toDt": null,
      "orgNm": "WESTERN INTERNATIONAL SECURITIES, INC.",
      "city": "PASADENA",
      "state": 4,
      "stateSpecified": true
    }
  ],
  "OthrBuss": {
    "OthrBus": {
      "desc": "05/2011-PRESENT; LIFE INSURANCE; NIR; 6/6/HRS/MO;"
    }
  },
  "DRPs": [
    {
      "hasRegAction": 1,
      "hasRegActionSpecified": true,
      "hasCriminal": 0,
      "hasCriminalSpecified": true,
      "hasBankrupt": 1,
      "hasBankruptSpecified": true,
      "hasCivilJudc": 1,
      "hasCivilJudcSpecified": true,
      "hasBond": 1,
      "hasBondSpecified": true,
      "hasJudgment": 1,
      "hasJudgmentSpecified": true,
      "hasInvstgn": 1,
      "hasInvstgnSpecified": true,
      "hasCustComp": 1,
      "hasCustCompSpecified": true,
      "hasTermination": 0,
      "hasTerminationSpecified": true
    }
  ]
}