{
  "Info": {
    "lastNm": "MONKO",
    "firstNm": "JOSEPH",
    "midNm": "PAUL",
    "sufNm": "JR",
    "indvlPK": "2615219",
    "actvAGReg": 0,
    "link": "http://www.adviserinfo.sec.gov/IAPD/Individual/2615219"
  },
  "OthrNms": [],
  "CrntEmps": [
    {
      "CrntRgstns": [
        {
          "regAuth": 9,
          "regCat": 0,
          "st": 2,
          "stDt": "2003-08-12T00:00:00"
        }
      ],
      "BrnchOfLocs": [
        {
          "str1": null,
          "str2": null,
          "city": "TAMPA",
          "state": 9,
          "stateSpecified": true,
          "cntry": "United States",
          "postlCd": null
        },
        {
          "str1": "2701 N ROCKY POINT DRIVE",
          "str2": "SUITE 1000",
          "city": "TAMPA",
          "state": 9,
          "stateSpecified": true,
          "cntry": "UNITED STATES",
          "postlCd": "33607"
        },
        {
          "str1": "2701 N. ROCKY POINT DRIVE",
          "str2": "SUITE 1000",
          "city": "TAMPA",
          "state": 9,
          "stateSpecified": true,
          "cntry": "United States",
          "postlCd": "33607"
        }
      ],
      "orgNm": "CALTON & ASSOCIATES, INC.",
      "orgPK": "20999",
      "str1": "2701 N. ROCKY POINT DRIVE",
      "str2": "SUITE 1000",
      "city": "TAMPA",
      "state": 9,
      "stateSpecified": true,
      "cntry": "United States",
      "postlCd": "33607"
    }
  ],
  "Exms": [
    {
      "exmCd": 0,
      "exmNm": "Uniform Securities Agent State Law Examination",
      "exmDt": "1995-06-22T00:00:00",
      "exmDtSpecified": true
    },
    {
      "exmCd": 2,
      "exmNm": "Uniform Investment Adviser Law Examination",
      "exmDt": "1996-05-29T00:00:00",
      "exmDtSpecified": true
    }
  ],
  "Dsgntns": [],
  "PrevRgstns": [],
  "EmpHss": [
    {
      "fromDt": "04/1999",
      "toDt": null,
      "orgNm": "CALTON & ASSOCIATES, INC.",
      "city": "TAMPA",
      "state": 9,
      "stateSpecified": true
    }
  ],
  "OthrBuss": {
    "OthrBus": {
      "desc": "PRESIDENT JMC FINANCIAL SERVICES, 2413 BAYSHORE BLVD #502 TAMPA, FL APPROX 8 HOURS A MONTH, INSURANCE AND MORTGAGES. INDEPENTENT INSURANCE AGENT REFERRING TRAVEL AGENT FOR YOURTRAVELBIZ.COM RECEIVE COMMISSION FROM ANY TRAVEL ARRANGEMENTS BOOKED ONLINE AT JOESONLINETRAVEL.COM NOT SECURITIES RELATED.STARTED 6/2007"
    }
  },
  "DRPs": []
}