{
  "Info": {
    "lastNm": "KRAAK",
    "firstNm": "DEBORAH",
    "midNm": "A",
    "sufNm": null,
    "indvlPK": "2621635",
    "actvAGReg": 0,
    "link": "http://www.adviserinfo.sec.gov/IAPD/Individual/2621635"
  },
  "OthrNms": [
    {
      "lastNm": "COLEMAN",
      "firstNm": "DEBRA",
      "midNm": "ALLAN",
      "sufNm": null
    },
    {
      "lastNm": "POTTS",
      "firstNm": "DEBORAH",
      "midNm": "A",
      "sufNm": null
    }
  ],
  "CrntEmps": [
    {
      "CrntRgstns": [
        {
          "regAuth": 15,
          "regCat": 0,
          "st": 2,
          "stDt": "2012-11-02T00:00:00"
        },
        {
          "regAuth": 45,
          "regCat": 0,
          "st": 3,
          "stDt": "2014-06-11T00:00:00"
        }
      ],
      "BrnchOfLocs": [
        {
          "str1": "5606 W MONTROSE",
          "str2": null,
          "city": "CHICAGO",
          "state": 15,
          "stateSpecified": true,
          "cntry": "United States",
          "postlCd": "60634"
        }
      ],
      "orgNm": "J.P. MORGAN SECURITIES LLC",
      "orgPK": "79",
      "str1": "277 PARK AVENUE",
      "str2": null,
      "city": "NEW YORK",
      "state": 35,
      "stateSpecified": true,
      "cntry": "United States",
      "postlCd": "10172"
    }
  ],
  "Exms": [
    {
      "exmCd": 0,
      "exmNm": "Uniform Securities Agent State Law Examination",
      "exmDt": "2004-09-08T00:00:00",
      "exmDtSpecified": true
    },
    {
      "exmCd": 3,
      "exmNm": "Uniform Combined State Law Examination",
      "exmDt": "2005-10-25T00:00:00",
      "exmDtSpecified": true
    }
  ],
  "Dsgntns": [],
  "PrevRgstns": [
    {
      "BrnchOfLocs": [
        {
          "city": "CHICAGO",
          "state": 15,
          "stateSpecified": true
        },
        {
          "city": "CHICAGO",
          "state": 15,
          "stateSpecified": true
        },
        {
          "city": "CHICAGO",
          "state": 15,
          "stateSpecified": true
        }
      ],
      "orgNm": "CITIGROUP GLOBAL MARKETS INC.",
      "orgPK": "7059",
      "regBeginDt": "2005-11-02T00:00:00",
      "regBeginDtSpecified": true,
      "regEndDt": "2009-06-01T00:00:00",
      "regEndDtSpecified": true
    },
    {
      "BrnchOfLocs": [
        {
          "city": "CHICAGO",
          "state": 15,
          "stateSpecified": true
        },
        {
          "city": "OAK BROOK",
          "state": 15,
          "stateSpecified": true
        },
        {
          "city": "OAKBROOK TERRACE",
          "state": 15,
          "stateSpecified": true
        }
      ],
      "orgNm": "MORGAN STANLEY",
      "orgPK": "149777",
      "regBeginDt": "2009-06-01T00:00:00",
      "regBeginDtSpecified": true,
      "regEndDt": "2012-11-05T00:00:00",
      "regEndDtSpecified": true
    }
  ],
  "EmpHss": [
    {
      "fromDt": "02/2005",
      "toDt": "06/2009",
      "orgNm": "CITIGROUP GLOBAL MARKETS INC.",
      "city": "CHICAGO",
      "state": 15,
      "stateSpecified": true
    },
    {
      "fromDt": "06/2009",
      "toDt": "10/2012",
      "orgNm": "MORGAN STANLEY SMITH BARNEY",
      "city": "CHICAGO",
      "state": 15,
      "stateSpecified": true
    },
    {
      "fromDt": "10/2012",
      "toDt": null,
      "orgNm": "JPMORGAN SECURITIES LLC",
      "city": "CHICAGO",
      "state": 15,
      "stateSpecified": true
    },
    {
      "fromDt": "09/2014",
      "toDt": null,
      "orgNm": "TOUT A L'HEURE",
      "city": "CHICAGO",
      "state": 15,
      "stateSpecified": true
    }
  ],
  "OthrBuss": {
    "OthrBus": {
      "desc": "NAME OF ENTITY: TOUT A L'HEURE  5624 CHICAGO, IL 60630  POSITION: PARTIAL OWNER 50%  DETAILS ONLINE SELLING OF ANTIQUE, VINTAGE, AND AGELESS TIMEPIECES (POCKET WATCHES/WISTWATCHES). REPRESENTATION OF PRODUCTS IS VIA A STATIC NON AUCTION WEBSITE ENVIRONMENT. CUSTOMER SERVICE WILL BE VIA A PERSONAL DOMAIN ASSOCIATED WITH THE WEBSITE: WWW.TOUTALHEURE.COM. LOCATING ANTIQUES/VINTAGE TIMEPIECES IN NEED OF REPAIR, CLEANING, ETC AND RESTORING THEM TO AS CLOSE TO THEIR ORIGINAL CONDITION AS POSSIBLE FOR RESALE.  STARTED 09/15/2014. INDEFINITE TERM. 10 HOURS OR LESS A MONTH AND 0 HOURS DURING SECURITIES TRADING"
    }
  },
  "DRPs": []
}