{
  "Info": {
    "lastNm": "HERMAN",
    "firstNm": "JOHN",
    "midNm": "CLIFFORD",
    "sufNm": null,
    "indvlPK": "2621073",
    "actvAGReg": 1,
    "link": "http://www.adviserinfo.sec.gov/IAPD/Individual/2621073"
  },
  "OthrNms": [
    {
      "lastNm": "HERMAN",
      "firstNm": "JOHN",
      "midNm": null,
      "sufNm": null
    }
  ],
  "CrntEmps": [
    {
      "CrntRgstns": [
        {
          "regAuth": 4,
          "regCat": 0,
          "st": 2,
          "stDt": "2002-04-24T00:00:00"
        },
        {
          "regAuth": 5,
          "regCat": 0,
          "st": 2,
          "stDt": "2004-12-15T00:00:00"
        },
        {
          "regAuth": 45,
          "regCat": 0,
          "st": 2,
          "stDt": "2006-05-26T00:00:00"
        }
      ],
      "BrnchOfLocs": [
        {
          "str1": null,
          "str2": null,
          "city": "BOULDER",
          "state": 5,
          "stateSpecified": true,
          "cntry": "United States",
          "postlCd": null
        }
      ],
      "orgNm": "CLASSIC FINANCIAL & INVESTMENT SERVICES, INC.",
      "orgPK": "127666",
      "str1": null,
      "str2": null,
      "city": "BOULDER",
      "state": 5,
      "stateSpecified": true,
      "cntry": "United States",
      "postlCd": null
    }
  ],
  "Exms": [
    {
      "exmCd": 2,
      "exmNm": "Uniform Investment Adviser Law Examination",
      "exmDt": "1995-05-15T00:00:00",
      "exmDtSpecified": true
    },
    {
      "exmCd": 0,
      "exmNm": "Uniform Securities Agent State Law Examination",
      "exmDt": "1996-04-26T00:00:00",
      "exmDtSpecified": true
    }
  ],
  "Dsgntns": [
    {
      "dsgntnNm": "Certified Financial Planner"
    }
  ],
  "PrevRgstns": [
    {
      "BrnchOfLocs": [
        {
          "city": "SAN DIEGO",
          "state": 4,
          "stateSpecified": true
        }
      ],
      "orgNm": "XELAN INVESTMENT SERVICES, INC.",
      "orgPK": "111870",
      "regBeginDt": "2001-05-01T00:00:00",
      "regBeginDtSpecified": true,
      "regEndDt": "2003-02-27T00:00:00",
      "regEndDtSpecified": true
    }
  ],
  "EmpHss": [
    {
      "fromDt": "05/1996",
      "toDt": null,
      "orgNm": "PLUS SIGMA, INC.",
      "city": "BOULDER",
      "state": 5,
      "stateSpecified": true
    }
  ],
  "OthrBuss": {
    "OthrBus": null
  },
  "DRPs": []
}