{
  "Info": {
    "lastNm": "WELS",
    "firstNm": "ELYSE",
    "midNm": "SARI",
    "sufNm": null,
    "indvlPK": "2625623",
    "actvAGReg": 0,
    "link": "http://www.adviserinfo.sec.gov/IAPD/Individual/2625623"
  },
  "OthrNms": [
    {
      "lastNm": "SLEPIAN",
      "firstNm": "ELYSE",
      "midNm": "S",
      "sufNm": null
    },
    {
      "lastNm": "SLEPIAN",
      "firstNm": "ELYSE",
      "midNm": "SARI",
      "sufNm": null
    },
    {
      "lastNm": "SLEPIAN",
      "firstNm": "ELYSE",
      "midNm": "SAVI",
      "sufNm": null
    }
  ],
  "CrntEmps": [
    {
      "CrntRgstns": [
        {
          "regAuth": 32,
          "regCat": 0,
          "st": 2,
          "stDt": "2013-10-16T00:00:00"
        }
      ],
      "BrnchOfLocs": [
        {
          "str1": "855 FRANKLIN AVENUE",
          "str2": null,
          "city": "GARDEN CITY",
          "state": 35,
          "stateSpecified": true,
          "cntry": "United States",
          "postlCd": "11530"
        }
      ],
      "orgNm": "MORGAN STANLEY",
      "orgPK": "149777",
      "str1": "2000 WESTCHESTER AVENUE",
      "str2": null,
      "city": "PURCHASE",
      "state": 35,
      "stateSpecified": true,
      "cntry": "United States",
      "postlCd": "10577-2530"
    }
  ],
  "Exms": [
    {
      "exmCd": 0,
      "exmNm": "Uniform Securities Agent State Law Examination",
      "exmDt": "1996-03-14T00:00:00",
      "exmDtSpecified": true
    },
    {
      "exmCd": 3,
      "exmNm": "Uniform Combined State Law Examination",
      "exmDt": "2013-10-15T00:00:00",
      "exmDtSpecified": true
    }
  ],
  "Dsgntns": [],
  "PrevRgstns": [],
  "EmpHss": [
    {
      "fromDt": "04/1998",
      "toDt": "10/2008",
      "orgNm": "BEAR, STEARNS & CO. INC.",
      "city": "NEW YORK",
      "state": 35,
      "stateSpecified": true
    },
    {
      "fromDt": "04/1998",
      "toDt": "10/2008",
      "orgNm": "BEAR, STEARNS SECURITIES CORP.",
      "city": "NEW YORK",
      "state": 35,
      "stateSpecified": true
    },
    {
      "fromDt": "10/2008",
      "toDt": "07/2013",
      "orgNm": "J.P. MORGAN SECURITIES LLC",
      "city": "NEW YORK",
      "state": 35,
      "stateSpecified": true
    },
    {
      "fromDt": "10/2010",
      "toDt": "07/2013",
      "orgNm": "JPMORGAN CHASE BANK, N.A.",
      "city": "NEW YORK",
      "state": 35,
      "stateSpecified": true
    },
    {
      "fromDt": "07/2013",
      "toDt": "07/2014",
      "orgNm": "MORGAN STANLEY",
      "city": "NEW YORK",
      "state": 35,
      "stateSpecified": true
    },
    {
      "fromDt": "07/2014",
      "toDt": null,
      "orgNm": "MORGAN STANLEY",
      "city": "JERICHO",
      "state": 35,
      "stateSpecified": true
    },
    {
      "fromDt": "01/2015",
      "toDt": null,
      "orgNm": "MORGAN STANLEY PRIVATE BANK, NATIONAL ASSOCIATION",
      "city": "NEW YORK",
      "state": 35,
      "stateSpecified": true
    }
  ],
  "OthrBuss": {
    "OthrBus": null
  },
  "DRPs": []
}