{
  "Info": {
    "lastNm": "KEELING",
    "firstNm": "MATTHEW",
    "midNm": "HARVEY",
    "sufNm": null,
    "indvlPK": "2629334",
    "actvAGReg": 0,
    "link": "http://www.adviserinfo.sec.gov/IAPD/Individual/2629334"
  },
  "OthrNms": [],
  "CrntEmps": [
    {
      "CrntRgstns": [
        {
          "regAuth": 20,
          "regCat": 0,
          "st": 2,
          "stDt": "2003-08-28T00:00:00"
        }
      ],
      "BrnchOfLocs": [
        {
          "str1": "795 FALMOUTH ROAD SUITE 2",
          "str2": null,
          "city": "MASHPEE",
          "state": 20,
          "stateSpecified": true,
          "cntry": "United States",
          "postlCd": "02649"
        }
      ],
      "orgNm": "COMMONWEALTH FINANCIAL NETWORK",
      "orgPK": "8032",
      "str1": "29 SAWYER ROAD",
      "str2": null,
      "city": "WALTHAM",
      "state": 20,
      "stateSpecified": true,
      "cntry": "United States",
      "postlCd": "02453-3483"
    }
  ],
  "Exms": [
    {
      "exmCd": 0,
      "exmNm": "Uniform Securities Agent State Law Examination",
      "exmDt": "1996-07-03T00:00:00",
      "exmDtSpecified": true
    }
  ],
  "Dsgntns": [
    {
      "dsgntnNm": "Certified Financial Planner"
    }
  ],
  "PrevRgstns": [],
  "EmpHss": [
    {
      "fromDt": "10/1995",
      "toDt": null,
      "orgNm": "KEELING FINANCIAL SERVICES",
      "city": "HYANNIS",
      "state": 20,
      "stateSpecified": true
    },
    {
      "fromDt": "04/1996",
      "toDt": null,
      "orgNm": "COMMONWEALTH FINANCIAL NETWORK",
      "city": "WALTHAM",
      "state": 20,
      "stateSpecified": true
    }
  ],
  "OthrBuss": {
    "OthrBus": {
      "desc": "1. FIXED INSURANCE SALES AT BRANCH LOCATION, INVESTMENT RELATED. 2.KEELING FINANCIAL STRATEGIES,INC.-VICE-PRESIDENT AND 10% OWNER OF PRIVATE ENTITY CREATED TO OPERATE SECURITIES BUSINESS, INVESTMENT RELATED."
    }
  },
  "DRPs": []
}