{
  "Info": {
    "lastNm": "BOLSTAD",
    "firstNm": "LESTER",
    "midNm": "F",
    "sufNm": "III",
    "indvlPK": "2630105",
    "actvAGReg": 0,
    "link": "http://www.adviserinfo.sec.gov/IAPD/Individual/2630105"
  },
  "OthrNms": [
    {
      "lastNm": "BOLSTAD",
      "firstNm": "LES",
      "midNm": null,
      "sufNm": "III"
    },
    {
      "lastNm": "BOLSTAD",
      "firstNm": "LESTER",
      "midNm": "FOLEY",
      "sufNm": null
    },
    {
      "lastNm": "BOLSTAD",
      "firstNm": "LESTER",
      "midNm": "FOLEY",
      "sufNm": "III"
    }
  ],
  "CrntEmps": [
    {
      "CrntRgstns": [
        {
          "regAuth": 24,
          "regCat": 0,
          "st": 2,
          "stDt": "2014-02-03T00:00:00"
        },
        {
          "regAuth": 45,
          "regCat": 0,
          "st": 3,
          "stDt": "2014-07-21T00:00:00"
        }
      ],
      "BrnchOfLocs": [
        {
          "str1": "681 EAST LAKE STREET",
          "str2": "SUITE 354",
          "city": "WAYZATA",
          "state": 24,
          "stateSpecified": true,
          "cntry": "United States",
          "postlCd": "55391"
        },
        {
          "str1": "681 EAST LAKE STREET",
          "str2": null,
          "city": "WAYZATA",
          "state": 24,
          "stateSpecified": true,
          "cntry": "United States",
          "postlCd": "55391"
        }
      ],
      "orgNm": "UBS FINANCIAL SERVICES INC.",
      "orgPK": "8174",
      "str1": "1200 HARBOR BOULEVARD",
      "str2": null,
      "city": "WEEHAWKEN",
      "state": 32,
      "stateSpecified": true,
      "cntry": "United States",
      "postlCd": "07086"
    }
  ],
  "Exms": [
    {
      "exmCd": 0,
      "exmNm": "Uniform Securities Agent State Law Examination",
      "exmDt": "1995-08-14T00:00:00",
      "exmDtSpecified": true
    },
    {
      "exmCd": 2,
      "exmNm": "Uniform Investment Adviser Law Examination",
      "exmDt": "1995-09-07T00:00:00",
      "exmDtSpecified": true
    }
  ],
  "Dsgntns": [],
  "PrevRgstns": [],
  "EmpHss": [
    {
      "fromDt": "09/2000",
      "toDt": null,
      "orgNm": "UBS FINANCIAL SERVICES INC.",
      "city": "WAYZATA",
      "state": 24,
      "stateSpecified": true
    }
  ],
  "OthrBuss": {
    "OthrBus": {
      "desc": "WEALTH ENHANCEMENT/WAYZATA, MN/ANNUITY SALES CONTINUING EDUCATION TRAINING/1 HR. PER MONTH.SPEAKER."
    }
  },
  "DRPs": []
}