{
  "Info": {
    "lastNm": "JETER",
    "firstNm": "LEIGH",
    "midNm": "A",
    "sufNm": null,
    "indvlPK": "2631411",
    "actvAGReg": 0,
    "link": "http://www.adviserinfo.sec.gov/IAPD/Individual/2631411"
  },
  "OthrNms": [
    {
      "lastNm": "JETER ALLEN",
      "firstNm": "LEIGH",
      "midNm": "A",
      "sufNm": null
    },
    {
      "lastNm": "JETER ALLEN",
      "firstNm": "LEIGH",
      "midNm": "ANN",
      "sufNm": null
    },
    {
      "lastNm": "JETER",
      "firstNm": "LEIGH",
      "midNm": "A",
      "sufNm": null
    },
    {
      "lastNm": "JETER",
      "firstNm": "LEIGH",
      "midNm": "ANN",
      "sufNm": null
    },
    {
      "lastNm": "JETER-DOMINGUEZ",
      "firstNm": "LEIGH",
      "midNm": "ANN",
      "sufNm": null
    }
  ],
  "CrntEmps": [
    {
      "CrntRgstns": [
        {
          "regAuth": 4,
          "regCat": 0,
          "st": 2,
          "stDt": "2015-11-25T00:00:00"
        }
      ],
      "BrnchOfLocs": [
        {
          "str1": "100 CLOCK TOWER PLACE",
          "str2": "SUITE #100",
          "city": "CARMEL",
          "state": 4,
          "stateSpecified": true,
          "cntry": "United States",
          "postlCd": "93923-8771"
        }
      ],
      "orgNm": "CHARLES SCHWAB & CO., INC.",
      "orgPK": "5393",
      "str1": "211 MAIN STREET",
      "str2": null,
      "city": "SAN FRANCISCO",
      "state": 4,
      "stateSpecified": true,
      "cntry": "United States",
      "postlCd": "94105"
    }
  ],
  "Exms": [
    {
      "exmCd": 0,
      "exmNm": "Uniform Securities Agent State Law Examination",
      "exmDt": "1995-08-24T00:00:00",
      "exmDtSpecified": true
    },
    {
      "exmCd": 3,
      "exmNm": "Uniform Combined State Law Examination",
      "exmDt": "2009-10-23T00:00:00",
      "exmDtSpecified": true
    }
  ],
  "Dsgntns": [],
  "PrevRgstns": [
    {
      "BrnchOfLocs": [
        {
          "city": "CARMEL",
          "state": 4,
          "stateSpecified": true
        }
      ],
      "orgNm": "UBS FINANCIAL SERVICES INC.",
      "orgPK": "8174",
      "regBeginDt": "2009-10-26T00:00:00",
      "regBeginDtSpecified": true,
      "regEndDt": "2011-05-23T00:00:00",
      "regEndDtSpecified": true
    },
    {
      "BrnchOfLocs": [
        {
          "city": "SALINAS",
          "state": 4,
          "stateSpecified": true
        },
        {
          "city": "Santa Clara",
          "state": 4,
          "stateSpecified": true
        }
      ],
      "orgNm": "FOOTHILL SECURITIES, INC.",
      "orgPK": "1027",
      "regBeginDt": "2012-02-27T00:00:00",
      "regBeginDtSpecified": true,
      "regEndDt": "2015-11-05T00:00:00",
      "regEndDtSpecified": true
    },
    {
      "BrnchOfLocs": [
        {
          "city": "SALINAS",
          "state": 4,
          "stateSpecified": true
        }
      ],
      "orgNm": "HAYASHI & WAYLAND INVESTMENT SERVICES, LLC",
      "orgPK": "167098",
      "regBeginDt": "2013-07-08T00:00:00",
      "regBeginDtSpecified": true,
      "regEndDt": "2015-10-16T00:00:00",
      "regEndDtSpecified": true
    }
  ],
  "EmpHss": [
    {
      "fromDt": "03/2004",
      "toDt": "06/2009",
      "orgNm": "MORGAN STANLEY & CO., INCORPORATED",
      "city": "MONTEREY",
      "state": 4,
      "stateSpecified": true
    },
    {
      "fromDt": "06/2009",
      "toDt": "05/2011",
      "orgNm": "UBS FINANCIAL SERVICES INC",
      "city": "CARMEL",
      "state": 4,
      "stateSpecified": true
    },
    {
      "fromDt": "05/2011",
      "toDt": "12/2011",
      "orgNm": "HAYASHI & WAYLAND WEALTH MANAGMENT",
      "city": "SALINAS",
      "state": 4,
      "stateSpecified": true
    },
    {
      "fromDt": "12/2011",
      "toDt": "10/2015",
      "orgNm": "HAYASHI & WAYLAND INVESTMENT SERVICES, LLC",
      "city": "SALINAS",
      "state": 4,
      "stateSpecified": true
    },
    {
      "fromDt": "02/2012",
      "toDt": "10/2015",
      "orgNm": "FOOTHILL SECURITIES, INC.",
      "city": "Santa Clara",
      "state": 4,
      "stateSpecified": true
    },
    {
      "fromDt": "10/2015",
      "toDt": null,
      "orgNm": "Charles Schwab & Co., Inc.",
      "city": "Carmel",
      "state": 4,
      "stateSpecified": true
    },
    {
      "fromDt": "10/2015",
      "toDt": null,
      "orgNm": "Charles Schwab Bank",
      "city": "Carmel",
      "state": 4,
      "stateSpecified": true
    }
  ],
  "OthrBuss": {
    "OthrBus": {
      "desc": "Charles Schwab Bank; Investment Related, Carmel, CA, Bank Products, Dual Employee, start 10/26/2015, Referrals of HELOCs, Mortgages and investor checking products, approximately 20 hours per month."
    }
  },
  "DRPs": []
}