{
  "Info": {
    "lastNm": "MCMANUS",
    "firstNm": "JAMES",
    "midNm": "DAVID",
    "sufNm": null,
    "indvlPK": "2637053",
    "actvAGReg": 0,
    "link": "http://www.adviserinfo.sec.gov/IAPD/Individual/2637053"
  },
  "OthrNms": [
    {
      "lastNm": "MCMANUS",
      "firstNm": "JAMES",
      "midNm": null,
      "sufNm": null
    }
  ],
  "CrntEmps": [
    {
      "CrntRgstns": [
        {
          "regAuth": 6,
          "regCat": 0,
          "st": 2,
          "stDt": "2014-05-05T00:00:00"
        },
        {
          "regAuth": 45,
          "regCat": 0,
          "st": 3,
          "stDt": "2014-05-06T00:00:00"
        }
      ],
      "BrnchOfLocs": [
        {
          "str1": "110 WASHINGTON AVE",
          "str2": null,
          "city": "NORTH HAVEN",
          "state": 6,
          "stateSpecified": true,
          "cntry": "United States",
          "postlCd": "06473"
        }
      ],
      "orgNm": "LPL FINANCIAL LLC",
      "orgPK": "6413",
      "str1": "75 STATE STREET, 22ND FLOOR",
      "str2": null,
      "city": "BOSTON",
      "state": 20,
      "stateSpecified": true,
      "cntry": "United States",
      "postlCd": "02109"
    }
  ],
  "Exms": [
    {
      "exmCd": 0,
      "exmNm": "Uniform Securities Agent State Law Examination",
      "exmDt": "1995-10-02T00:00:00",
      "exmDtSpecified": true
    },
    {
      "exmCd": 3,
      "exmNm": "Uniform Combined State Law Examination",
      "exmDt": "2000-11-15T00:00:00",
      "exmDtSpecified": true
    }
  ],
  "Dsgntns": [],
  "PrevRgstns": [
    {
      "BrnchOfLocs": [
        {
          "city": "HARTFORD",
          "state": 6,
          "stateSpecified": true
        }
      ],
      "orgNm": "CHARLES SCHWAB & CO., INC.",
      "orgPK": "5393",
      "regBeginDt": "2001-01-18T00:00:00",
      "regBeginDtSpecified": true,
      "regEndDt": "2004-01-29T00:00:00",
      "regEndDtSpecified": true
    },
    {
      "BrnchOfLocs": [
        {
          "city": "WALLINGFORD",
          "state": 6,
          "stateSpecified": true
        }
      ],
      "orgNm": "RAYMOND JAMES FINANCIAL SERVICES, INC.",
      "orgPK": "6694",
      "regBeginDt": "2004-02-04T00:00:00",
      "regBeginDtSpecified": true,
      "regEndDt": "2009-01-02T00:00:00",
      "regEndDtSpecified": true
    },
    {
      "BrnchOfLocs": [
        {
          "city": "SAINT PETERSBURG",
          "state": 9,
          "stateSpecified": true
        }
      ],
      "orgNm": "RAYMOND JAMES FINANCIAL SERVICES ADVISORS, INC",
      "orgPK": "149018",
      "regBeginDt": "2009-01-02T00:00:00",
      "regBeginDtSpecified": true,
      "regEndDt": "2009-03-27T00:00:00",
      "regEndDtSpecified": true
    },
    {
      "BrnchOfLocs": [
        {
          "city": "New Haven",
          "state": 6,
          "stateSpecified": true
        }
      ],
      "orgNm": "AMERIPRISE FINANCIAL SERVICES, INC.",
      "orgPK": "6363",
      "regBeginDt": "2009-03-27T00:00:00",
      "regBeginDtSpecified": true,
      "regEndDt": "2014-04-25T00:00:00",
      "regEndDtSpecified": true
    }
  ],
  "EmpHss": [
    {
      "fromDt": "01/2004",
      "toDt": "03/2009",
      "orgNm": "RAYMOND JAMES FINANCIAL SERVICES, INC",
      "city": "WALLINGFORD",
      "state": 6,
      "stateSpecified": true
    },
    {
      "fromDt": "01/2009",
      "toDt": "03/2009",
      "orgNm": "RAYMOND JAMES FINANCIAL SERVICES ADVISORS, INC",
      "city": "SAINT PETERSBURG",
      "state": 9,
      "stateSpecified": true
    },
    {
      "fromDt": "03/2009",
      "toDt": "04/2014",
      "orgNm": "AMERIPRISE FINANCIAL SERVICES, INC.",
      "city": "NEW HAVEN",
      "state": 6,
      "stateSpecified": true
    },
    {
      "fromDt": "04/2014",
      "toDt": null,
      "orgNm": "LPL FINANCIAL, LLC",
      "city": "NORTH HAVEN",
      "state": 6,
      "stateSpecified": true
    }
  ],
  "OthrBuss": {
    "OthrBus": {
      "desc": "1. 04/22/2014 - GUARDIAN FINANCIAL, LLC/ DBA ONLY/ 100%/ NORTH HAVEN, CT 2. 07/30/2014 - NON-VARIABLE INSURANCE - TIME SPENT 10 HOUR PER MONTH - NORTH HAVEN, CT"
    }
  },
  "DRPs": [
    {
      "hasRegAction": 1,
      "hasRegActionSpecified": true,
      "hasCriminal": 1,
      "hasCriminalSpecified": true,
      "hasBankrupt": 1,
      "hasBankruptSpecified": true,
      "hasCivilJudc": 1,
      "hasCivilJudcSpecified": true,
      "hasBond": 1,
      "hasBondSpecified": true,
      "hasJudgment": 1,
      "hasJudgmentSpecified": true,
      "hasInvstgn": 1,
      "hasInvstgnSpecified": true,
      "hasCustComp": 0,
      "hasCustCompSpecified": true,
      "hasTermination": 1,
      "hasTerminationSpecified": true
    }
  ]
}