{
  "Info": {
    "lastNm": "FLEISCHMAN",
    "firstNm": "JEFFREY",
    "midNm": "BRUCE",
    "sufNm": null,
    "indvlPK": "2638101",
    "actvAGReg": 0,
    "link": "http://www.adviserinfo.sec.gov/IAPD/Individual/2638101"
  },
  "OthrNms": [],
  "CrntEmps": [
    {
      "CrntRgstns": [
        {
          "regAuth": 23,
          "regCat": 0,
          "st": 2,
          "stDt": "2010-10-25T00:00:00"
        }
      ],
      "BrnchOfLocs": [
        {
          "str1": "30833 NORTHWESTERN HWY STE 125",
          "str2": null,
          "city": "FARMINGTON HILLS",
          "state": 23,
          "stateSpecified": true,
          "cntry": "United States",
          "postlCd": "48334"
        }
      ],
      "orgNm": "CETERA ADVISOR NETWORKS LLC",
      "orgPK": "13572",
      "str1": "200 N. SEPULVEDA BLVD.",
      "str2": "SUITE 1300",
      "city": "EL SEGUNDO",
      "state": 4,
      "stateSpecified": true,
      "cntry": "United States",
      "postlCd": "90245-5672"
    }
  ],
  "Exms": [
    {
      "exmCd": 0,
      "exmNm": "Uniform Securities Agent State Law Examination",
      "exmDt": "1995-08-18T00:00:00",
      "exmDtSpecified": true
    },
    {
      "exmCd": 3,
      "exmNm": "Uniform Combined State Law Examination",
      "exmDt": "2010-10-15T00:00:00",
      "exmDtSpecified": true
    }
  ],
  "Dsgntns": [],
  "PrevRgstns": [],
  "EmpHss": [
    {
      "fromDt": "06/1982",
      "toDt": null,
      "orgNm": "PEERLESS DISTRIBUTING COMPANY",
      "city": "SOUTHFIELD",
      "state": 23,
      "stateSpecified": true
    },
    {
      "fromDt": "07/1995",
      "toDt": "12/2012",
      "orgNm": "FINANCIAL NETWORK INVESTMENT CORPORATION",
      "city": "EL SEGUNDO",
      "state": 4,
      "stateSpecified": true
    },
    {
      "fromDt": "01/2013",
      "toDt": null,
      "orgNm": "CETERA ADVISOR NETWORKS LLC",
      "city": "EL SEGUNDO",
      "state": 4,
      "stateSpecified": true
    }
  ],
  "OthrBuss": {
    "OthrBus": {
      "desc": "1. OFFER LIFE AND LONG TERM CARE INSURANCE. PEERLESS DISTRIBUTING COMPANY, A WHOLESALE PETROLEUM DISTRIBUTION CO, 1/9 OWNERSHIP.   2. NAME OF OTHER BUSINESS:  FINANCIAL NETWORK  INVESTMENT RELATED:  YES  ADDRESS:  SAME AS REGISTERED LOCATION  NATURE OF BUSINESS:  FINANCIAL SERVICES  POSITION/TITLE/RELATIONSHIP:  AFFILIATED PERSON  START DATE:  01/02/2013  APX NUMBER OF HOURS PER WEEK:  40  APX NUMBER OF HOURS DURING TRADING HOURS:  32.5  BRIEF DESCRIPTION OF DUTIES:  DBA FOR FINANCIAL SERVICES"
    }
  },
  "DRPs": []
}