{
  "Info": {
    "lastNm": "ALMLIE",
    "firstNm": "ROSS",
    "midNm": "DAVID",
    "sufNm": null,
    "indvlPK": "2639006",
    "actvAGReg": 1,
    "link": "http://www.adviserinfo.sec.gov/IAPD/Individual/2639006"
  },
  "OthrNms": [],
  "CrntEmps": [
    {
      "CrntRgstns": [
        {
          "regAuth": 24,
          "regCat": 0,
          "st": 2,
          "stDt": "2015-05-13T00:00:00"
        },
        {
          "regAuth": 3,
          "regCat": 0,
          "st": 2,
          "stDt": "2015-05-14T00:00:00"
        },
        {
          "regAuth": 29,
          "regCat": 0,
          "st": 2,
          "stDt": "2015-05-18T00:00:00"
        },
        {
          "regAuth": 45,
          "regCat": 0,
          "st": 2,
          "stDt": "2016-01-04T00:00:00"
        }
      ],
      "BrnchOfLocs": [
        {
          "str1": "935 37TH AVENUE SOUTH",
          "str2": "SUITE 128",
          "city": "MOORHEAD",
          "state": 24,
          "stateSpecified": true,
          "cntry": "United States",
          "postlCd": "56560"
        }
      ],
      "orgNm": "FUTURE BRIGHT",
      "orgPK": "177521",
      "str1": "935 37TH AVENUE SOUTH",
      "str2": "SUITE 128",
      "city": "MOORHEAD",
      "state": 24,
      "stateSpecified": true,
      "cntry": "United States",
      "postlCd": "56560"
    }
  ],
  "Exms": [
    {
      "exmCd": 0,
      "exmNm": "Uniform Securities Agent State Law Examination",
      "exmDt": "1995-07-24T00:00:00",
      "exmDtSpecified": true
    },
    {
      "exmCd": 2,
      "exmNm": "Uniform Investment Adviser Law Examination",
      "exmDt": "2000-02-14T00:00:00",
      "exmDtSpecified": true
    }
  ],
  "Dsgntns": [],
  "PrevRgstns": [
    {
      "BrnchOfLocs": [
        {
          "city": "EDINA",
          "state": 24,
          "stateSpecified": true
        },
        {
          "city": "EDINA",
          "state": 24,
          "stateSpecified": true
        }
      ],
      "orgNm": "CONTEGO CAPITAL ADVISORS, LLC",
      "orgPK": "128518",
      "regBeginDt": "2009-05-11T00:00:00",
      "regBeginDtSpecified": true,
      "regEndDt": "2015-05-08T00:00:00",
      "regEndDtSpecified": true
    }
  ],
  "EmpHss": [
    {
      "fromDt": "10/2003",
      "toDt": "07/2010",
      "orgNm": "RDA FINANCIAL ADVISORS, LLC",
      "city": "FARGO",
      "state": 29,
      "stateSpecified": true
    },
    {
      "fromDt": "10/2003",
      "toDt": null,
      "orgNm": "ROSS ALMLIE - SOLE PROPRIETOR",
      "city": "MOORHEAD",
      "state": 24,
      "stateSpecified": true
    },
    {
      "fromDt": "07/2010",
      "toDt": "02/2014",
      "orgNm": "TCI FINANCIAL ADVISORS, LLC",
      "city": "WEST FARGO",
      "state": 29,
      "stateSpecified": true
    },
    {
      "fromDt": "10/2010",
      "toDt": null,
      "orgNm": "BREADVAULT, LLC",
      "city": "WEST FARGO",
      "state": 29,
      "stateSpecified": true
    },
    {
      "fromDt": "11/2011",
      "toDt": "12/2013",
      "orgNm": "FAT CATS, LLC",
      "city": "MOORHEAD",
      "state": 29,
      "stateSpecified": true
    },
    {
      "fromDt": "02/2014",
      "toDt": "03/2015",
      "orgNm": "JAMIESON CAPITAL ADVISORS, LLC",
      "city": "WEST FARGO",
      "state": 29,
      "stateSpecified": true
    },
    {
      "fromDt": "03/2015",
      "toDt": "05/2015",
      "orgNm": "CONTEGO CAPITAL ADVISORS, LLC",
      "city": "BISMARCK",
      "state": 29,
      "stateSpecified": true
    },
    {
      "fromDt": "03/2015",
      "toDt": null,
      "orgNm": "FUTURE BRIGHT, LLC",
      "city": "MOORHEAD",
      "state": 24,
      "stateSpecified": true
    }
  ],
  "OthrBuss": {
    "OthrBus": {
      "desc": "1. ROSS ALMLIE - SOLE PROPRIETOR; INVESTMENT RELATED; MOORHEAD, MINNESOTA; INDEPENDENT INSURANCE AGENT; OCTOBER 2003; INSURANCE PRODUCTS SALES AND SERVICES; APPROXIMATELY 15% OF MR. ALMLIE'S TIME IS SPENT IN THIS CAPACITY.    2. BRADVAULT, LLC; NON-INVESTMENT RELATED; MOORHEAD, MINNESOTA; CHIEF EXECUTIVE OFFICER; OCTOBER 2010; YOUTH FINANCIAL LITERACY PROGRAM; LESS THAN 5% OF MR. ALMLIE'S TIME IS SPENT ON THIS ACTIVITY."
    }
  },
  "DRPs": []
}