{
  "Info": {
    "lastNm": "PENNIMAN",
    "firstNm": "KINGMAN",
    "midNm": "D",
    "sufNm": null,
    "indvlPK": "2644435",
    "actvAGReg": 1,
    "link": "http://www.adviserinfo.sec.gov/IAPD/Individual/2644435"
  },
  "OthrNms": [],
  "CrntEmps": [
    {
      "CrntRgstns": [
        {
          "regAuth": 48,
          "regCat": 0,
          "st": 2,
          "stDt": "2000-03-31T00:00:00"
        }
      ],
      "BrnchOfLocs": [
        {
          "str1": "24 ELM STREET",
          "str2": null,
          "city": "MONTPELIER",
          "state": 48,
          "stateSpecified": true,
          "cntry": "United States",
          "postlCd": "05602"
        }
      ],
      "orgNm": "KDP ASSET MANAGEMENT INC",
      "orgPK": "110265",
      "str1": "24 ELM STREET",
      "str2": null,
      "city": "MONTPELIER",
      "state": 48,
      "stateSpecified": true,
      "cntry": "United States",
      "postlCd": "05602"
    },
    {
      "CrntRgstns": [
        {
          "regAuth": 48,
          "regCat": 0,
          "st": 2,
          "stDt": "2005-10-19T00:00:00"
        }
      ],
      "BrnchOfLocs": [
        {
          "str1": "24 ELM STREET",
          "str2": "N/A",
          "city": "MONTPELIER",
          "state": 48,
          "stateSpecified": true,
          "cntry": "United States",
          "postlCd": "05602"
        }
      ],
      "orgNm": "KDP INVESTMENT ADVISORS,INC.",
      "orgPK": "118346",
      "str1": "24 ELM STREET",
      "str2": null,
      "city": "MONTPELIER",
      "state": 48,
      "stateSpecified": true,
      "cntry": "United States",
      "postlCd": "05602"
    }
  ],
  "Exms": [
    {
      "exmCd": 0,
      "exmNm": "Uniform Securities Agent State Law Examination",
      "exmDt": "1995-10-24T00:00:00",
      "exmDtSpecified": true
    }
  ],
  "Dsgntns": [],
  "PrevRgstns": [],
  "EmpHss": [
    {
      "fromDt": "11/1975",
      "toDt": null,
      "orgNm": "KDP INVESTMENT ADVISORS, INC.",
      "city": "MONTPELIER",
      "state": 48,
      "stateSpecified": true
    }
  ],
  "OthrBuss": {
    "OthrBus": null
  },
  "DRPs": []
}