{
  "Info": {
    "lastNm": "CONTE",
    "firstNm": "MICHAEL",
    "midNm": "JAMES",
    "sufNm": null,
    "indvlPK": "2646071",
    "actvAGReg": 0,
    "link": "http://www.adviserinfo.sec.gov/IAPD/Individual/2646071"
  },
  "OthrNms": [
    {
      "lastNm": "CONTE",
      "firstNm": "MIKE",
      "midNm": "JAMES",
      "sufNm": null
    }
  ],
  "CrntEmps": [
    {
      "CrntRgstns": [
        {
          "regAuth": 9,
          "regCat": 0,
          "st": 2,
          "stDt": "2006-05-08T00:00:00"
        },
        {
          "regAuth": 32,
          "regCat": 0,
          "st": 2,
          "stDt": "2010-01-19T00:00:00"
        },
        {
          "regAuth": 45,
          "regCat": 0,
          "st": 3,
          "stDt": "2010-10-11T00:00:00"
        }
      ],
      "BrnchOfLocs": [
        {
          "str1": "44 WALL STREET",
          "str2": "12TH FLOOR",
          "city": "NEW YORK",
          "state": 35,
          "stateSpecified": true,
          "cntry": "United States",
          "postlCd": "10005"
        },
        {
          "str1": "80 ORVILLE DRIVE",
          "str2": null,
          "city": "BOHEMIA",
          "state": 35,
          "stateSpecified": true,
          "cntry": "United States",
          "postlCd": "11716"
        }
      ],
      "orgNm": "FUSION ANALYTICS INVESTMENT PARTNERS LLC",
      "orgPK": "139321",
      "str1": "44 WALL STREET",
      "str2": "12TH FLOOR",
      "city": "NEW YORK",
      "state": 35,
      "stateSpecified": true,
      "cntry": "United States",
      "postlCd": "10005"
    }
  ],
  "Exms": [
    {
      "exmCd": 0,
      "exmNm": "Uniform Securities Agent State Law Examination",
      "exmDt": "1996-05-15T00:00:00",
      "exmDtSpecified": true
    },
    {
      "exmCd": 2,
      "exmNm": "Uniform Investment Adviser Law Examination",
      "exmDt": "2009-07-09T00:00:00",
      "exmDtSpecified": true
    }
  ],
  "Dsgntns": [],
  "PrevRgstns": [],
  "EmpHss": [
    {
      "fromDt": "01/2006",
      "toDt": null,
      "orgNm": "FUSION ANALYTICS INVESTMENT PARTNERS, LLC",
      "city": "NEW YORK",
      "state": 35,
      "stateSpecified": true
    },
    {
      "fromDt": "01/2006",
      "toDt": null,
      "orgNm": "FUSION ANALYTICS RESEARCH PARTNERS, LLC",
      "city": "NEW YORK",
      "state": 35,
      "stateSpecified": true
    },
    {
      "fromDt": "01/2007",
      "toDt": null,
      "orgNm": "FUSION ANALYTICS SECURITIES, LLC",
      "city": "NEW YORK",
      "state": 35,
      "stateSpecified": true
    },
    {
      "fromDt": "10/2013",
      "toDt": null,
      "orgNm": "SETON SECURITIES GROUP, LLC",
      "city": "NEW YORK",
      "state": 35,
      "stateSpecified": true
    }
  ],
  "OthrBuss": {
    "OthrBus": {
      "desc": "DUAL REGISTRATION WITH FUSION ANALYTICS SECURITIES, LLC, ANOTHER FINRA MEMBER BD."
    }
  },
  "DRPs": [
    {
      "hasRegAction": 1,
      "hasRegActionSpecified": true,
      "hasCriminal": 1,
      "hasCriminalSpecified": true,
      "hasBankrupt": 1,
      "hasBankruptSpecified": true,
      "hasCivilJudc": 1,
      "hasCivilJudcSpecified": true,
      "hasBond": 1,
      "hasBondSpecified": true,
      "hasJudgment": 1,
      "hasJudgmentSpecified": true,
      "hasInvstgn": 1,
      "hasInvstgnSpecified": true,
      "hasCustComp": 0,
      "hasCustCompSpecified": true,
      "hasTermination": 1,
      "hasTerminationSpecified": true
    }
  ]
}