{
  "Info": {
    "lastNm": "GOUCHER",
    "firstNm": "STEPHEN",
    "midNm": "RYAN",
    "sufNm": null,
    "indvlPK": "2646526",
    "actvAGReg": 0,
    "link": "http://www.adviserinfo.sec.gov/IAPD/Individual/2646526"
  },
  "OthrNms": [],
  "CrntEmps": [
    {
      "CrntRgstns": [
        {
          "regAuth": 3,
          "regCat": 0,
          "st": 2,
          "stDt": "2008-08-27T00:00:00"
        }
      ],
      "BrnchOfLocs": [
        {
          "str1": "5400 UNIVERSITY AVE",
          "str2": null,
          "city": "WEST DES MOINES",
          "state": 13,
          "stateSpecified": true,
          "cntry": "United States",
          "postlCd": "50266"
        }
      ],
      "orgNm": "FBL INVESTMENT MANAGEMENT SERVICES, INC.",
      "orgPK": "5308",
      "str1": "5400 UNIVERSITY AVE",
      "str2": null,
      "city": "WEST DES MOINES",
      "state": 13,
      "stateSpecified": true,
      "cntry": "United States",
      "postlCd": "50266-5997"
    }
  ],
  "Exms": [
    {
      "exmCd": 0,
      "exmNm": "Uniform Securities Agent State Law Examination",
      "exmDt": "1996-01-24T00:00:00",
      "exmDtSpecified": true
    },
    {
      "exmCd": 2,
      "exmNm": "Uniform Investment Adviser Law Examination",
      "exmDt": "2008-08-26T00:00:00",
      "exmDtSpecified": true
    }
  ],
  "Dsgntns": [],
  "PrevRgstns": [],
  "EmpHss": [
    {
      "fromDt": "03/1995",
      "toDt": null,
      "orgNm": "FBL MARKETING SERVICES",
      "city": "WEST DES MOINES",
      "state": 13,
      "stateSpecified": true
    },
    {
      "fromDt": "03/1995",
      "toDt": null,
      "orgNm": "WESTERN FARM BUREAU",
      "city": "DENVER",
      "state": 5,
      "stateSpecified": true
    }
  ],
  "OthrBuss": {
    "OthrBus": {
      "desc": "1. OFFICER & DIRECTOR OF TWO NON-PROFIT COMMUNITY ORGANIZATIONS   2. EQUITRUST INV MGMT SERV, 5400 UNIVERSITY AVE, WDM IA, FINANCIAL PLANNING, AGENCY MANAGER TO SUPERVISE OTHER IAR'S, INV. ADV. REP., STARTED DATE OF ETIMS INC RELEASE LETTER, 4 HRS/MONTH, PROVIDE FINANCIAL PLANNING SERV, FEE BASED, OVERWRITE ON FEE CHARGED BY IAR'S IN AGENCY, APPROX. $1500/YEAR"
    }
  },
  "DRPs": []
}