{
  "Info": {
    "lastNm": "TAKAMORI",
    "firstNm": "KENTA",
    "midNm": null,
    "sufNm": null,
    "indvlPK": "2647598",
    "actvAGReg": 0,
    "link": "http://www.adviserinfo.sec.gov/IAPD/Individual/2647598"
  },
  "OthrNms": [],
  "CrntEmps": [
    {
      "CrntRgstns": [
        {
          "regAuth": 4,
          "regCat": 0,
          "st": 2,
          "stDt": "2014-08-01T00:00:00"
        },
        {
          "regAuth": 19,
          "regCat": 0,
          "st": 2,
          "stDt": "2014-08-01T00:00:00"
        },
        {
          "regAuth": 36,
          "regCat": 0,
          "st": 2,
          "stDt": "2014-08-01T00:00:00"
        },
        {
          "regAuth": 45,
          "regCat": 0,
          "st": 2,
          "stDt": "2014-08-01T00:00:00"
        }
      ],
      "BrnchOfLocs": [
        {
          "str1": "560 MISSION STREET",
          "str2": "24TH FLOOR",
          "city": "SAN FRANCISCO",
          "state": 4,
          "stateSpecified": true,
          "cntry": "United States",
          "postlCd": "94105"
        }
      ],
      "orgNm": "J.P. MORGAN SECURITIES LLC",
      "orgPK": "79",
      "str1": "277 PARK AVENUE",
      "str2": null,
      "city": "NEW YORK",
      "state": 35,
      "stateSpecified": true,
      "cntry": "United States",
      "postlCd": "10172"
    }
  ],
  "Exms": [
    {
      "exmCd": 0,
      "exmNm": "Uniform Securities Agent State Law Examination",
      "exmDt": "2012-01-12T00:00:00",
      "exmDtSpecified": true
    }
  ],
  "Dsgntns": [
    {
      "dsgntnNm": "Chartered Financial Analyst"
    }
  ],
  "PrevRgstns": [],
  "EmpHss": [
    {
      "fromDt": "08/1995",
      "toDt": "01/2007",
      "orgNm": "GOLDMAN SACHS",
      "city": "TOKYO",
      "stateSpecified": false
    },
    {
      "fromDt": "02/2007",
      "toDt": "08/2007",
      "orgNm": "PINERIDGE PARTNERS",
      "city": "TOKYO",
      "stateSpecified": false
    },
    {
      "fromDt": "09/2007",
      "toDt": "11/2007",
      "orgNm": "unemployee",
      "city": "Tokyo",
      "stateSpecified": false
    },
    {
      "fromDt": "12/2007",
      "toDt": "05/2010",
      "orgNm": "WARBURG PINCUS",
      "city": "TOKYO",
      "stateSpecified": false
    },
    {
      "fromDt": "06/2010",
      "toDt": null,
      "orgNm": "JP MORGAN SECURITIES JAPAN CO. LTD.",
      "city": "TOKYO",
      "stateSpecified": false
    },
    {
      "fromDt": "06/2010",
      "toDt": null,
      "orgNm": "JP MORGAN SECURITIES LLC.",
      "city": "TOKYO",
      "stateSpecified": false
    },
    {
      "fromDt": "06/2014",
      "toDt": null,
      "orgNm": "J.P. MORGAN SECURITIES LLC",
      "city": "SAN FRANCISCO",
      "state": 4,
      "stateSpecified": true
    },
    {
      "fromDt": "06/2014",
      "toDt": null,
      "orgNm": "JPMORGAN CHASE BANK NA",
      "city": "SAN FRANCISCO",
      "state": 4,
      "stateSpecified": true
    }
  ],
  "OthrBuss": {
    "OthrBus": {
      "desc": "I AM THE 100% OWNER OF A NON-INVESTMENT RELATED PRIVATE COMPANY NAMED HAKUBA 47 CO., LTD. SINCE MAY 2010.  THE COMPANY OWNS AND OPERATES A SKI RESORT WITH THE SAME NAME IN HAKUBA, NAGANO PREFECTURE, JAPAN.  I AM A PASSIVE INVESTOR AND DO NOT DEVOTE ANY TIME TO THE BUSINESS.     I WILL BE AN EMPLOYEE OF BOTH J.P. MORGAN SECURITIES LLC AND JPMORGAN CHASE BANK, N.A. (\"JPMCB\"). JPMCB OFFERS A BROAD RANGE OF PRODUCTS AND SERVICES NATIONWIDE. AS AN EMPLOYEE OF JPMCB, I WILL BE ABLE TO OFFER CERTAIN BANK PRODUCTS AND SERVICES, INCLUDING DEPOSIT AND CREDIT PRODUCTS AND DISCRETIONARY INVESTMENT MANAGEMENT."
    }
  },
  "DRPs": []
}