{
  "Info": {
    "lastNm": "THURBER",
    "firstNm": "ERIC",
    "midNm": "THOMAS",
    "sufNm": null,
    "indvlPK": "2654696",
    "actvAGReg": 0,
    "link": "http://www.adviserinfo.sec.gov/IAPD/Individual/2654696"
  },
  "OthrNms": [],
  "CrntEmps": [
    {
      "CrntRgstns": [
        {
          "regAuth": 4,
          "regCat": 0,
          "st": 2,
          "stDt": "2009-08-14T00:00:00"
        }
      ],
      "BrnchOfLocs": [
        {
          "str1": "3270 ALPINE ROAD",
          "str2": null,
          "city": "PORTOLA VALLEY",
          "state": 4,
          "stateSpecified": true,
          "cntry": "United States",
          "postlCd": "94028"
        }
      ],
      "orgNm": "THREE BRIDGE WEALTH ADVISORS",
      "orgPK": "150460",
      "str1": "3270 ALPINE ROAD",
      "str2": null,
      "city": "PORTOLA VALLEY",
      "state": 4,
      "stateSpecified": true,
      "cntry": "United States",
      "postlCd": "94028"
    }
  ],
  "Exms": [
    {
      "exmCd": 0,
      "exmNm": "Uniform Securities Agent State Law Examination",
      "exmDt": "1995-10-17T00:00:00",
      "exmDtSpecified": true
    },
    {
      "exmCd": 2,
      "exmNm": "Uniform Investment Adviser Law Examination",
      "exmDt": "1995-11-10T00:00:00",
      "exmDtSpecified": true
    }
  ],
  "Dsgntns": [],
  "PrevRgstns": [
    {
      "BrnchOfLocs": [
        {
          "city": "MENLO PARK",
          "state": 4,
          "stateSpecified": true
        },
        {
          "city": "MENLO PARK",
          "state": 4,
          "stateSpecified": true
        }
      ],
      "orgNm": "CITIGROUP GLOBAL MARKETS INC.",
      "orgPK": "7059",
      "regBeginDt": "1999-07-01T00:00:00",
      "regBeginDtSpecified": true,
      "regEndDt": "2009-06-01T00:00:00",
      "regEndDtSpecified": true
    },
    {
      "BrnchOfLocs": [
        {
          "city": "MENLO PARK",
          "state": 4,
          "stateSpecified": true
        }
      ],
      "orgNm": "MORGAN STANLEY",
      "orgPK": "149777",
      "regBeginDt": "2009-06-01T00:00:00",
      "regBeginDtSpecified": true,
      "regEndDt": "2009-09-04T00:00:00",
      "regEndDtSpecified": true
    },
    {
      "BrnchOfLocs": [
        {
          "city": "CHICAGO",
          "state": 15,
          "stateSpecified": true
        },
        {
          "city": "MENLO PARK",
          "state": 4,
          "stateSpecified": true
        }
      ],
      "orgNm": "HIGHTOWER ADVISORS, LLC",
      "orgPK": "145323",
      "regBeginDt": "2010-11-17T00:00:00",
      "regBeginDtSpecified": true,
      "regEndDt": "2011-07-29T00:00:00",
      "regEndDtSpecified": true
    }
  ],
  "EmpHss": [
    {
      "fromDt": "06/1998",
      "toDt": "08/2009",
      "orgNm": "CITIGROUP GLOBAL MARKETS INC.",
      "city": "MENLO PARK",
      "state": 4,
      "stateSpecified": true
    },
    {
      "fromDt": "06/2009",
      "toDt": "08/2009",
      "orgNm": "MORGAN STANLEY SMITH BARNEY",
      "city": "MENLO PARK",
      "state": 4,
      "stateSpecified": true
    },
    {
      "fromDt": "08/2009",
      "toDt": "07/2010",
      "orgNm": "PURSHE KAPLAN STERLING INVESTMENTS, INC.",
      "city": "ALBANY",
      "state": 35,
      "stateSpecified": true
    },
    {
      "fromDt": "08/2009",
      "toDt": null,
      "orgNm": "THREE BRIDGE WEALTH ADVISORS, LLC",
      "city": "MENLO PARK",
      "state": 4,
      "stateSpecified": true
    },
    {
      "fromDt": "07/2010",
      "toDt": "11/2011",
      "orgNm": "HIGHTOWER SECURITIES LLC",
      "city": "CHICAGO",
      "state": 15,
      "stateSpecified": true
    },
    {
      "fromDt": "11/2011",
      "toDt": null,
      "orgNm": "SANCTUARY SECURITIES, LLC",
      "city": "SAN FRANCISCO",
      "state": 4,
      "stateSpecified": true
    }
  ],
  "OthrBuss": {
    "OthrBus": {
      "desc": "THREE BRIDGE WEALTH ADVISORS; AN INVESTMENT ADVISOR, 8/14/2009; MANAGING DIRECTOR; 250HRS/MO; 2-3HRS/DAY DURING TRADING."
    }
  },
  "DRPs": []
}