{
  "Info": {
    "lastNm": "ROMENESKO",
    "firstNm": "DELANA",
    "midNm": "RAQUEL",
    "sufNm": null,
    "indvlPK": "2656165",
    "actvAGReg": 0,
    "link": "http://www.adviserinfo.sec.gov/IAPD/Individual/2656165"
  },
  "OthrNms": [
    {
      "lastNm": "MARTY",
      "firstNm": "DELANA",
      "midNm": "RAQUEL",
      "sufNm": null
    },
    {
      "lastNm": "MARTY",
      "firstNm": "DELANA",
      "midNm": "RAQUEL",
      "sufNm": null
    }
  ],
  "CrntEmps": [
    {
      "CrntRgstns": [
        {
          "regAuth": 50,
          "regCat": 0,
          "st": 2,
          "stDt": "2000-10-25T00:00:00"
        }
      ],
      "BrnchOfLocs": [
        {
          "str1": "4321 N BALLARD RD",
          "str2": null,
          "city": "APPLETON",
          "state": 50,
          "stateSpecified": true,
          "cntry": "United States",
          "postlCd": "54919-0001"
        }
      ],
      "orgNm": "THRIVENT INVESTMENT MANAGEMENT INC.",
      "orgPK": "18387",
      "str1": "625 FOURTH AVENUE SOUTH",
      "str2": null,
      "city": "MINNEAPOLIS",
      "state": 24,
      "stateSpecified": true,
      "cntry": "United States",
      "postlCd": "55415-1665"
    }
  ],
  "Exms": [
    {
      "exmCd": 0,
      "exmNm": "Uniform Securities Agent State Law Examination",
      "exmDt": "1999-06-11T00:00:00",
      "exmDtSpecified": true
    },
    {
      "exmCd": 2,
      "exmNm": "Uniform Investment Adviser Law Examination",
      "exmDt": "2001-11-15T00:00:00",
      "exmDtSpecified": true
    }
  ],
  "Dsgntns": [],
  "PrevRgstns": [],
  "EmpHss": [
    {
      "fromDt": "07/2002",
      "toDt": null,
      "orgNm": "THRIVENT FINANCIAL FOR LUTHERANS",
      "city": "APPLETON",
      "state": 50,
      "stateSpecified": true
    },
    {
      "fromDt": "07/2002",
      "toDt": null,
      "orgNm": "THRIVENT INVESTMENT MANAGEMENT INC",
      "city": "APPLETON",
      "state": 50,
      "stateSpecified": true
    }
  ],
  "OthrBuss": {
    "OthrBus": null
  },
  "DRPs": []
}