{
  "Info": {
    "lastNm": "GILLASPIE",
    "firstNm": "KEVIN",
    "midNm": "DEAN",
    "sufNm": null,
    "indvlPK": "2660694",
    "actvAGReg": 0,
    "link": "http://www.adviserinfo.sec.gov/IAPD/Individual/2660694"
  },
  "OthrNms": [],
  "CrntEmps": [
    {
      "CrntRgstns": [
        {
          "regAuth": 27,
          "regCat": 0,
          "st": 2,
          "stDt": "2009-10-09T00:00:00"
        }
      ],
      "BrnchOfLocs": [
        {
          "str1": "5400 UNIVERSITY AVE",
          "str2": null,
          "city": "WEST DES MOINES",
          "state": 13,
          "stateSpecified": true,
          "cntry": "United States",
          "postlCd": "50266"
        }
      ],
      "orgNm": "FBL INVESTMENT MANAGEMENT SERVICES, INC.",
      "orgPK": "5308",
      "str1": "5400 UNIVERSITY AVE",
      "str2": null,
      "city": "WEST DES MOINES",
      "state": 13,
      "stateSpecified": true,
      "cntry": "United States",
      "postlCd": "50266-5997"
    }
  ],
  "Exms": [
    {
      "exmCd": 0,
      "exmNm": "Uniform Securities Agent State Law Examination",
      "exmDt": "1995-10-14T00:00:00",
      "exmDtSpecified": true
    },
    {
      "exmCd": 2,
      "exmNm": "Uniform Investment Adviser Law Examination",
      "exmDt": "1997-05-28T00:00:00",
      "exmDtSpecified": true
    }
  ],
  "Dsgntns": [
    {
      "dsgntnNm": "Chartered Financial Consultant"
    }
  ],
  "PrevRgstns": [],
  "EmpHss": [
    {
      "fromDt": "11/1997",
      "toDt": null,
      "orgNm": "FARM BUREAU FINANCIAL SERVICES",
      "city": "WEST DES MOINES",
      "state": 13,
      "stateSpecified": true
    },
    {
      "fromDt": "11/1997",
      "toDt": null,
      "orgNm": "FBL MARKETING SERVICES",
      "city": "WEST DES MOINES",
      "state": 13,
      "stateSpecified": true
    }
  ],
  "OthrBuss": {
    "OthrBus": {
      "desc": "1. EQUITRUST INVESTMENT MANAGEMENT SERVICES, INC. (ETIMS, INC.), 5400 UNIVERSITY AVE, WEST DES MOINES, IA. 50266, FINANCIAL PLANNING, INVESTMENT ADVISOR REPRESENTATIVE, 5 HOURS PER MONTH, 5 HOURS DURING SECURITIES TRADING, PROVIDE FINANCIAL PLANNING SERVICES TO CUSTOMERS. 2. FARM BUREAU LIFE, WEST DES MOINES IA; MOUNTAIN WEST FARM BUREAU MUTUAL INSURANCE COMPANY, LARAMIE WY; INSURANCE NOT INVESTMENT RELATED, INSURANCE AGENT SINCE 11/01/1997, FULL-TIME SELLING INSURANCE.  3. RENTAL HOUSE, NOT INVESTMENT RELATED.  7041 PARROT DRIVE, PROT RICHEY, FL  34668-3834.  RENTAL.  PARTNER WITH TAMMY GILLASPIE (WIFE), OWNERS/LANDLORD.  STARTING 2/7/15.  1 HR/MO, 0 HOURS DURING SECURITIES TRADING HOURS."
    }
  },
  "DRPs": []
}