{
  "Info": {
    "lastNm": "HYNES",
    "firstNm": "FRANK",
    "midNm": "VINCENT",
    "sufNm": null,
    "indvlPK": "2666364",
    "actvAGReg": 0,
    "link": "http://www.adviserinfo.sec.gov/IAPD/Individual/2666364"
  },
  "OthrNms": [
    {
      "lastNm": "HYNES",
      "firstNm": "FRANK",
      "midNm": null,
      "sufNm": null
    },
    {
      "lastNm": "HYNES",
      "firstNm": "FRANK",
      "midNm": "JR",
      "sufNm": null
    },
    {
      "lastNm": "HYNES",
      "firstNm": "FRANK",
      "midNm": "V",
      "sufNm": null
    },
    {
      "lastNm": "HYNES",
      "firstNm": "FRANK",
      "midNm": "VINCENT",
      "sufNm": null
    },
    {
      "lastNm": "HYNES",
      "firstNm": "FRANK",
      "midNm": "VINCENT",
      "sufNm": "JR"
    }
  ],
  "CrntEmps": [
    {
      "CrntRgstns": [
        {
          "regAuth": 15,
          "regCat": 0,
          "st": 2,
          "stDt": "2016-06-06T00:00:00"
        }
      ],
      "BrnchOfLocs": [
        {
          "str1": "1515 WEST 22ND STREET",
          "str2": "SUITE 850W",
          "city": "OAK BROOK",
          "state": 15,
          "stateSpecified": true,
          "cntry": "United States",
          "postlCd": "60523"
        },
        {
          "str1": "4000 LEGATO ROAD",
          "str2": "9TH FLOOR",
          "city": "FAIRFAX",
          "state": 47,
          "stateSpecified": true,
          "cntry": "United States",
          "postlCd": "22033-2892"
        }
      ],
      "orgNm": "EDELMAN FINANCIAL SERVICES, LLC",
      "orgPK": "113299",
      "str1": "4000 LEGATO ROAD",
      "str2": "9TH FLOOR",
      "city": "FAIRFAX",
      "state": 47,
      "stateSpecified": true,
      "cntry": "United States",
      "postlCd": "22033-2892"
    }
  ],
  "Exms": [
    {
      "exmCd": 0,
      "exmNm": "Uniform Securities Agent State Law Examination",
      "exmDt": "1995-11-21T00:00:00",
      "exmDtSpecified": true
    },
    {
      "exmCd": 2,
      "exmNm": "Uniform Investment Adviser Law Examination",
      "exmDt": "1999-07-29T00:00:00",
      "exmDtSpecified": true
    },
    {
      "exmCd": 3,
      "exmNm": "Uniform Combined State Law Examination",
      "exmDt": "2016-06-03T00:00:00",
      "exmDtSpecified": true
    }
  ],
  "Dsgntns": [],
  "PrevRgstns": [],
  "EmpHss": [
    {
      "fromDt": "03/1999",
      "toDt": "11/2015",
      "orgNm": "CHARLES SCHWAB & CO., INC.",
      "city": "ORLAND PARK",
      "state": 15,
      "stateSpecified": true
    },
    {
      "fromDt": "08/2008",
      "toDt": "07/2010",
      "orgNm": "CANNON FINANCIAL INSTITUTE",
      "city": "ATHENS",
      "state": 10,
      "stateSpecified": true
    },
    {
      "fromDt": "11/2015",
      "toDt": "03/2016",
      "orgNm": "IN TRANSITION - NOT EMPLOYED",
      "city": "ORLAND PARK",
      "state": 15,
      "stateSpecified": true
    },
    {
      "fromDt": "03/2016",
      "toDt": null,
      "orgNm": "EDELMAN FINANCIAL SERVICES LLC",
      "city": "FAIRFAX",
      "state": 47,
      "stateSpecified": true
    },
    {
      "fromDt": "03/2016",
      "toDt": null,
      "orgNm": "SANDERS MORRIS HARRIS LLC",
      "city": "HOUSTON",
      "state": 45,
      "stateSpecified": true
    },
    {
      "fromDt": "04/2016",
      "toDt": null,
      "orgNm": "EF LEGACY SECURITIES, LLC",
      "city": "OAK BROOK",
      "state": 15,
      "stateSpecified": true
    }
  ],
  "OthrBuss": {
    "OthrBus": {
      "desc": "(1)RENTAL PROPERTY; NOT INVESTMENT RELATED; 225 N. WHITTAKKER STREET, NEW BUFFALO, MICHIGAN; CONDO FOR RENTAL; OWNER; START DATE 01/01/2011; 1HR/MTH; 0HRS/MTH DURING SECURITIES TRADING HOURS;OWNER OF PROPERTY."
    }
  },
  "DRPs": []
}