{
  "Info": {
    "lastNm": "DOWD",
    "firstNm": "DANIEL",
    "midNm": "NORMAN",
    "sufNm": null,
    "indvlPK": "2668264",
    "actvAGReg": 0,
    "link": "http://www.adviserinfo.sec.gov/IAPD/Individual/2668264"
  },
  "OthrNms": [
    {
      "lastNm": "DOWD",
      "firstNm": "DANIEL",
      "midNm": null,
      "sufNm": null
    }
  ],
  "CrntEmps": [
    {
      "CrntRgstns": [
        {
          "regAuth": 9,
          "regCat": 0,
          "st": 2,
          "stDt": "2007-12-19T00:00:00"
        }
      ],
      "BrnchOfLocs": [
        {
          "str1": null,
          "str2": null,
          "city": "BOCA RATON",
          "state": 9,
          "stateSpecified": true,
          "cntry": "United States",
          "postlCd": null
        },
        {
          "str1": "6451 N. FEDERAL HWY",
          "str2": "SUITE 1201",
          "city": "FT. LAUDERDALE",
          "state": 9,
          "stateSpecified": true,
          "cntry": "United States",
          "postlCd": "33308"
        }
      ],
      "orgNm": "KOVACK ADVISORS, INC.",
      "orgPK": "140808",
      "str1": "6451 N. FEDERAL HWY",
      "str2": "SUITE 1201",
      "city": "FT. LAUDERDALE",
      "state": 9,
      "stateSpecified": true,
      "cntry": "United States",
      "postlCd": "33308"
    }
  ],
  "Exms": [
    {
      "exmCd": 0,
      "exmNm": "Uniform Securities Agent State Law Examination",
      "exmDt": "1996-01-29T00:00:00",
      "exmDtSpecified": true
    },
    {
      "exmCd": 2,
      "exmNm": "Uniform Investment Adviser Law Examination",
      "exmDt": "2007-12-15T00:00:00",
      "exmDtSpecified": true
    }
  ],
  "Dsgntns": [],
  "PrevRgstns": [
    {
      "BrnchOfLocs": [
        {
          "city": "BOCA RATON",
          "state": 9,
          "stateSpecified": true
        }
      ],
      "orgNm": "RAYMOND JAMES FINANCIAL SERVICES, INC.",
      "orgPK": "6694",
      "regBeginDt": "2003-04-07T00:00:00",
      "regBeginDtSpecified": true,
      "regEndDt": "2004-06-15T00:00:00",
      "regEndDtSpecified": true
    }
  ],
  "EmpHss": [
    {
      "fromDt": "07/2006",
      "toDt": null,
      "orgNm": "KOVACK ADVISORS, INC.",
      "city": "FT. LAUDERDALE",
      "state": 9,
      "stateSpecified": true
    },
    {
      "fromDt": "07/2006",
      "toDt": null,
      "orgNm": "KOVACK SECURITIES INC",
      "city": "FORT LAUDERDALE",
      "state": 9,
      "stateSpecified": true
    }
  ],
  "OthrBuss": {
    "OthrBus": {
      "desc": "1) DBA - DOWD FINANCIAL GROUP, INC. - 7 ROYAL PALM WAY, #209, BOCA RATON, FL 33432, DBA NAME FOR SECURITIES BUSINESS THROUGH KOVACK SECURITIES, INC. AND KOVACK ADVISORS, INC. AND FIXED INSURANCE, PRESIDENT, 98% OF TIME SPENT. 2) FIXED INSURANCE - 7 ROYAL PALM WAY, #209, BOCA RATON, FL 33432, PRESIDENT, SALES, 2% OF TIME SPENT."
    }
  },
  "DRPs": [
    {
      "hasRegAction": 1,
      "hasRegActionSpecified": true,
      "hasCriminal": 1,
      "hasCriminalSpecified": true,
      "hasBankrupt": 1,
      "hasBankruptSpecified": true,
      "hasCivilJudc": 1,
      "hasCivilJudcSpecified": true,
      "hasBond": 1,
      "hasBondSpecified": true,
      "hasJudgment": 0,
      "hasJudgmentSpecified": true,
      "hasInvstgn": 1,
      "hasInvstgnSpecified": true,
      "hasCustComp": 0,
      "hasCustCompSpecified": true,
      "hasTermination": 1,
      "hasTerminationSpecified": true
    }
  ]
}