{
  "Info": {
    "lastNm": "Prendergast",
    "firstNm": "Edward",
    "midNm": "Francis",
    "sufNm": null,
    "indvlPK": "2669898",
    "actvAGReg": 0,
    "link": "http://www.adviserinfo.sec.gov/IAPD/Individual/2669898"
  },
  "OthrNms": [
    {
      "lastNm": "PRENDERGAST",
      "firstNm": "EDWARD",
      "midNm": "FRANCIS",
      "sufNm": null
    },
    {
      "lastNm": "PRENDERGAST",
      "firstNm": "EDWARD",
      "midNm": "FRANCIS",
      "sufNm": null
    },
    {
      "lastNm": "PRENDERGAST",
      "firstNm": "EDWARD",
      "midNm": "FRANCIS",
      "sufNm": "JR"
    }
  ],
  "CrntEmps": [
    {
      "CrntRgstns": [
        {
          "regAuth": 20,
          "regCat": 0,
          "st": 2,
          "stDt": "2014-02-10T00:00:00"
        }
      ],
      "BrnchOfLocs": [
        {
          "str1": "296 N MAIN ST SUITE 22",
          "str2": null,
          "city": "EAST LONGMEADOW",
          "state": 20,
          "stateSpecified": true,
          "cntry": "United States",
          "postlCd": "01028"
        }
      ],
      "orgNm": "EDWARD JONES",
      "orgPK": "250",
      "str1": "12555 MANCHESTER RD",
      "str2": null,
      "city": "ST. LOUIS",
      "state": 25,
      "stateSpecified": true,
      "cntry": "United States",
      "postlCd": "63131"
    }
  ],
  "Exms": [
    {
      "exmCd": 0,
      "exmNm": "Uniform Securities Agent State Law Examination",
      "exmDt": "1996-06-27T00:00:00",
      "exmDtSpecified": true
    },
    {
      "exmCd": 3,
      "exmNm": "Uniform Combined State Law Examination",
      "exmDt": "2014-01-04T00:00:00",
      "exmDtSpecified": true
    }
  ],
  "Dsgntns": [],
  "PrevRgstns": [
    {
      "BrnchOfLocs": [
        {
          "city": "BOSTON",
          "state": 20,
          "stateSpecified": true
        }
      ],
      "orgNm": "MORGAN STANLEY",
      "orgPK": "149777",
      "regBeginDt": "2010-03-04T00:00:00",
      "regBeginDtSpecified": true,
      "regEndDt": "2011-11-09T00:00:00",
      "regEndDtSpecified": true
    }
  ],
  "EmpHss": [
    {
      "fromDt": "04/2006",
      "toDt": "03/2007",
      "orgNm": "AMERICAN UNITED LIFE",
      "city": "INDIANAPOLIS",
      "state": 16,
      "stateSpecified": true
    },
    {
      "fromDt": "02/2007",
      "toDt": "05/2007",
      "orgNm": "HARTFORD LIFE",
      "city": "SIMSBURY",
      "state": 6,
      "stateSpecified": true
    },
    {
      "fromDt": "05/2007",
      "toDt": "11/2009",
      "orgNm": "HARTFORD EQUITY SALES COMPANY",
      "city": "SIMSBURY",
      "state": 6,
      "stateSpecified": true
    },
    {
      "fromDt": "11/2009",
      "toDt": "10/2011",
      "orgNm": "MORGAN STANLEY SMITH BARNEY",
      "city": "BOSTON",
      "state": 20,
      "stateSpecified": true
    },
    {
      "fromDt": "10/2011",
      "toDt": "01/2013",
      "orgNm": "HARTFORD EQUITY SALES CO, INC",
      "city": "SIMSBURY",
      "state": 6,
      "stateSpecified": true
    },
    {
      "fromDt": "01/2013",
      "toDt": "12/2013",
      "orgNm": "PRUCO SECURITIES, LLC",
      "city": "AGAWAM",
      "state": 20,
      "stateSpecified": true
    },
    {
      "fromDt": "01/2013",
      "toDt": "12/2013",
      "orgNm": "THE PRUDENTIAL INSURANCE COMPANY OF AMERICA",
      "city": "AGAWAM",
      "state": 20,
      "stateSpecified": true
    },
    {
      "fromDt": "12/2013",
      "toDt": null,
      "orgNm": "EDWARD JONES",
      "city": "ST LOUIS",
      "state": 25,
      "stateSpecified": true
    }
  ],
  "OthrBuss": {
    "OthrBus": {
      "desc": "Musician entertainment  East Longmeadow, MA  Start date: 3/1/2014  singer/drummer  Hours per week: 4  Hours during trading: 0  i play in a band that has occasional paid shows, mostly volunteer work for Rays of Hope and various charities"
    }
  },
  "DRPs": []
}