{
  "Info": {
    "lastNm": "STEPHENSON",
    "firstNm": "HOWARD",
    "midNm": "MICHAEL",
    "sufNm": "JR",
    "indvlPK": "2670281",
    "actvAGReg": 0,
    "link": "http://www.adviserinfo.sec.gov/IAPD/Individual/2670281"
  },
  "OthrNms": [],
  "CrntEmps": [
    {
      "CrntRgstns": [
        {
          "regAuth": 39,
          "regCat": 0,
          "st": 2,
          "stDt": "2003-11-06T00:00:00"
        }
      ],
      "BrnchOfLocs": [
        {
          "str1": "2300 E LINCOLN HWY",
          "str2": "STE 705",
          "city": "LANGHORNE",
          "state": 39,
          "stateSpecified": true,
          "cntry": "United States",
          "postlCd": "19047-1824"
        }
      ],
      "orgNm": "AMERIPRISE FINANCIAL SERVICES, INC.",
      "orgPK": "6363",
      "str1": "707 2ND AVENUE SOUTH",
      "str2": null,
      "city": "MINNEAPOLIS",
      "state": 24,
      "stateSpecified": true,
      "cntry": "United States",
      "postlCd": "55402"
    }
  ],
  "Exms": [
    {
      "exmCd": 0,
      "exmNm": "Uniform Securities Agent State Law Examination",
      "exmDt": "1995-12-14T00:00:00",
      "exmDtSpecified": true
    },
    {
      "exmCd": 2,
      "exmNm": "Uniform Investment Adviser Law Examination",
      "exmDt": "2003-10-30T00:00:00",
      "exmDtSpecified": true
    }
  ],
  "Dsgntns": [],
  "PrevRgstns": [],
  "EmpHss": [
    {
      "fromDt": "10/1995",
      "toDt": null,
      "orgNm": "AMERICAN EXPRESS FINANCIAL ADVISORS INC.",
      "city": "W. CONSHOHOCKEN",
      "state": 39,
      "stateSpecified": true
    },
    {
      "fromDt": "10/1995",
      "toDt": null,
      "orgNm": "IDS LIFE INSURANCE COMPANY",
      "city": "W. CONSHOHOCKEN",
      "state": 39,
      "stateSpecified": true
    }
  ],
  "OthrBuss": {
    "OthrBus": {
      "desc": "BOARDS OF DIRECTORS :IMMACULATE CONCEPTION CHURCH CYO;MY PARISH (CHURCH) CATHOLIC YOUTH ORGANIZATION (CYO) BOARD VOLUNTEER;PRESIDENT;JENKINTOWN, PA 19046;NO;OCTOBER 2014;1-9 HRS."
    }
  },
  "DRPs": []
}