{
  "Info": {
    "lastNm": "PECKNOLD",
    "firstNm": "NICOLE",
    "midNm": "BOWLER",
    "sufNm": null,
    "indvlPK": "2678860",
    "actvAGReg": 0,
    "link": "http://www.adviserinfo.sec.gov/IAPD/Individual/2678860"
  },
  "OthrNms": [
    {
      "lastNm": "BOWLER",
      "firstNm": "NICOLE",
      "midNm": null,
      "sufNm": null
    },
    {
      "lastNm": "BOWLER",
      "firstNm": "NICOLE",
      "midNm": "T",
      "sufNm": null
    },
    {
      "lastNm": "BOWLER",
      "firstNm": "NICOLE",
      "midNm": "TERESE",
      "sufNm": null
    },
    {
      "lastNm": "PECKNOLD",
      "firstNm": "NICOLE",
      "midNm": "BOWLER",
      "sufNm": null
    },
    {
      "lastNm": "PECKNOLD",
      "firstNm": "NICOLE",
      "midNm": "BOWLER",
      "sufNm": null
    }
  ],
  "CrntEmps": [
    {
      "CrntRgstns": [
        {
          "regAuth": 6,
          "regCat": 0,
          "st": 2,
          "stDt": "2016-03-14T00:00:00"
        }
      ],
      "BrnchOfLocs": [
        {
          "str1": "250 STATE ST",
          "str2": "Unit E1",
          "city": "NORTH HAVEN",
          "state": 6,
          "stateSpecified": true,
          "cntry": "United States",
          "postlCd": "06473-2182"
        }
      ],
      "orgNm": "AMERIPRISE FINANCIAL SERVICES, INC.",
      "orgPK": "6363",
      "str1": "707 2ND AVENUE SOUTH",
      "str2": null,
      "city": "MINNEAPOLIS",
      "state": 24,
      "stateSpecified": true,
      "cntry": "United States",
      "postlCd": "55402"
    }
  ],
  "Exms": [
    {
      "exmCd": 0,
      "exmNm": "Uniform Securities Agent State Law Examination",
      "exmDt": "1996-06-26T00:00:00",
      "exmDtSpecified": true
    },
    {
      "exmCd": 2,
      "exmNm": "Uniform Investment Adviser Law Examination",
      "exmDt": "2016-02-05T00:00:00",
      "exmDtSpecified": true
    }
  ],
  "Dsgntns": [],
  "PrevRgstns": [],
  "EmpHss": [
    {
      "fromDt": "06/2002",
      "toDt": null,
      "orgNm": "UBS WARBURG",
      "city": "STAMFORD",
      "state": 6,
      "stateSpecified": true
    },
    {
      "fromDt": "04/2016",
      "toDt": null,
      "orgNm": "AMERIPRISE FINANICAL SERVICES, INC.",
      "city": "North Haven",
      "state": 6,
      "stateSpecified": true
    }
  ],
  "OthrBuss": {
    "OthrBus": {
      "desc": "BUSINESS OWNERSHIP: THE Q HOCKEY, LLC; MEMBER; YOUTH SPRING HOCKEY TEAM; SOUTHPORT CT 06890; NOT INVESTMENT RELATED; JULY 2014; 1-9 HOURS PER MONTH; 0 DURING TRADING HOURS."
    }
  },
  "DRPs": []
}