{
  "Info": {
    "lastNm": "WATTA",
    "firstNm": "TINA",
    "midNm": "M",
    "sufNm": null,
    "indvlPK": "2679444",
    "actvAGReg": 0,
    "link": "http://www.adviserinfo.sec.gov/IAPD/Individual/2679444"
  },
  "OthrNms": [
    {
      "lastNm": "WATTA",
      "firstNm": "TINA",
      "midNm": "M",
      "sufNm": null
    },
    {
      "lastNm": "WATTA",
      "firstNm": "TINA",
      "midNm": "MARIE",
      "sufNm": null
    }
  ],
  "CrntEmps": [
    {
      "CrntRgstns": [
        {
          "regAuth": 9,
          "regCat": 0,
          "st": 2,
          "stDt": "2012-01-11T00:00:00"
        },
        {
          "regAuth": 45,
          "regCat": 0,
          "st": 3,
          "stDt": "2013-03-22T00:00:00"
        }
      ],
      "BrnchOfLocs": [
        {
          "str1": "1819 MAIN ST",
          "str2": null,
          "city": "SARASOTA",
          "state": 9,
          "stateSpecified": true,
          "cntry": "United States",
          "postlCd": "34236"
        }
      ],
      "orgNm": "MERRILL LYNCH, PIERCE, FENNER & SMITH INCORPORATED",
      "orgPK": "7691",
      "str1": "ONE BRYANT PARK",
      "str2": null,
      "city": "NEW YORK",
      "state": 35,
      "stateSpecified": true,
      "cntry": "United States",
      "postlCd": "10036"
    }
  ],
  "Exms": [
    {
      "exmCd": 3,
      "exmNm": "Uniform Combined State Law Examination",
      "exmDt": "2010-07-22T00:00:00",
      "exmDtSpecified": true
    }
  ],
  "Dsgntns": [],
  "PrevRgstns": [
    {
      "BrnchOfLocs": [
        {
          "city": "STERLING HEIGHTS",
          "state": 23,
          "stateSpecified": true
        }
      ],
      "orgNm": "BANC ONE SECURITIES CORPORATION",
      "orgPK": "16999",
      "regBeginDt": "2005-04-06T00:00:00",
      "regBeginDtSpecified": true,
      "regEndDt": "2005-07-06T00:00:00",
      "regEndDtSpecified": true
    },
    {
      "BrnchOfLocs": [
        {
          "city": "CHICAGO",
          "state": 15,
          "stateSpecified": true
        },
        {
          "city": "STERLING HEIGHTS",
          "state": 23,
          "stateSpecified": true
        }
      ],
      "orgNm": "CHASE INVESTMENT SERVICES CORP.",
      "orgPK": "25574",
      "regBeginDt": "2005-07-06T00:00:00",
      "regBeginDtSpecified": true,
      "regEndDt": "2008-01-28T00:00:00",
      "regEndDtSpecified": true
    },
    {
      "BrnchOfLocs": [
        {
          "city": "Port Huron",
          "state": 23,
          "stateSpecified": true
        }
      ],
      "orgNm": "AMERIPRISE FINANCIAL SERVICES, INC.",
      "orgPK": "6363",
      "regBeginDt": "2010-09-03T00:00:00",
      "regBeginDtSpecified": true,
      "regEndDt": "2010-09-23T00:00:00",
      "regEndDtSpecified": true
    },
    {
      "BrnchOfLocs": [
        {
          "city": "TROY",
          "state": 23,
          "stateSpecified": true
        },
        {
          "city": "TROY",
          "state": 23,
          "stateSpecified": true
        }
      ],
      "orgNm": "AMERIPRISE FINANCIAL SERVICES, INC.",
      "orgPK": "6363",
      "regBeginDt": "2010-11-04T00:00:00",
      "regBeginDtSpecified": true,
      "regEndDt": "2011-11-10T00:00:00",
      "regEndDtSpecified": true
    }
  ],
  "EmpHss": [
    {
      "fromDt": "07/2005",
      "toDt": "01/2008",
      "orgNm": "CHASE INVESTMENT SERVICES CORP.",
      "city": "CHICAGO",
      "state": 15,
      "stateSpecified": true
    },
    {
      "fromDt": "01/2008",
      "toDt": "03/2009",
      "orgNm": "CENTAURUS",
      "city": "TROY",
      "state": 23,
      "stateSpecified": true
    },
    {
      "fromDt": "03/2009",
      "toDt": "11/2010",
      "orgNm": "UNITED INSURANCE GROUP",
      "city": "MILFORD",
      "state": 23,
      "stateSpecified": true
    },
    {
      "fromDt": "04/2009",
      "toDt": "07/2009",
      "orgNm": "UNEMPLOYED",
      "city": "MARINE CITY",
      "state": 23,
      "stateSpecified": true
    },
    {
      "fromDt": "11/2010",
      "toDt": "10/2011",
      "orgNm": "AMERIPRISE FINANCIAL SERVICES, INC.",
      "city": "TROY",
      "state": 23,
      "stateSpecified": true
    },
    {
      "fromDt": "10/2011",
      "toDt": null,
      "orgNm": "MERRILL LYNCH, PIERCE, FENNER & SMITH INCORPORATED",
      "city": "BRADENTON",
      "state": 9,
      "stateSpecified": true
    }
  ],
  "OthrBuss": {
    "OthrBus": null
  },
  "DRPs": []
}