{
  "Info": {
    "lastNm": "DURICA",
    "firstNm": "EDWARD",
    "midNm": "JOHN",
    "sufNm": "III",
    "indvlPK": "2684494",
    "actvAGReg": 1,
    "link": "http://www.adviserinfo.sec.gov/IAPD/Individual/2684494"
  },
  "OthrNms": [],
  "CrntEmps": [
    {
      "CrntRgstns": [
        {
          "regAuth": 5,
          "regCat": 0,
          "st": 2,
          "stDt": "2013-05-21T00:00:00"
        },
        {
          "regAuth": 37,
          "regCat": 0,
          "st": 2,
          "stDt": "2013-05-21T00:00:00"
        },
        {
          "regAuth": 45,
          "regCat": 0,
          "st": 2,
          "stDt": "2015-03-06T00:00:00"
        }
      ],
      "BrnchOfLocs": [
        {
          "str1": "650 SOUTH CHERRY ST.",
          "str2": "SUITE 1200",
          "city": "GLENDALE",
          "state": 5,
          "stateSpecified": true,
          "cntry": "United States",
          "postlCd": "80246"
        }
      ],
      "orgNm": "JOHNSTON & ASSOCIATES INC",
      "orgPK": "106048",
      "str1": "650 SOUTH CHERRY ST.",
      "str2": "SUITE 1200",
      "city": "GLENDALE",
      "state": 5,
      "stateSpecified": true,
      "cntry": "United States",
      "postlCd": "80246"
    }
  ],
  "Exms": [
    {
      "exmCd": 0,
      "exmNm": "Uniform Securities Agent State Law Examination",
      "exmDt": "1995-12-04T00:00:00",
      "exmDtSpecified": true
    }
  ],
  "Dsgntns": [
    {
      "dsgntnNm": "Chartered Financial Analyst"
    }
  ],
  "PrevRgstns": [],
  "EmpHss": [
    {
      "fromDt": "08/2002",
      "toDt": null,
      "orgNm": "JOHNSTON & ASSOCIATES, INC.",
      "city": "DENVER",
      "state": 5,
      "stateSpecified": true
    },
    {
      "fromDt": "02/2004",
      "toDt": "01/2007",
      "orgNm": "CASCADE FINANCIAL MANAGEMENT",
      "city": "DENVER",
      "state": 5,
      "stateSpecified": true
    }
  ],
  "OthrBuss": {
    "OthrBus": null
  },
  "DRPs": []
}