{
  "Info": {
    "lastNm": "STAHR",
    "firstNm": "MATTHEW",
    "midNm": "GERARD",
    "sufNm": null,
    "indvlPK": "2689806",
    "actvAGReg": 0,
    "link": "http://www.adviserinfo.sec.gov/IAPD/Individual/2689806"
  },
  "OthrNms": [
    {
      "lastNm": "STAHR",
      "firstNm": "MATT",
      "midNm": "GERARD",
      "sufNm": null
    }
  ],
  "CrntEmps": [
    {
      "CrntRgstns": [
        {
          "regAuth": 13,
          "regCat": 0,
          "st": 2,
          "stDt": "2013-10-09T00:00:00"
        }
      ],
      "BrnchOfLocs": [
        {
          "str1": "1601 WEST LAKES PARKWAY",
          "str2": "STE 200",
          "city": "WEST DES MOINES",
          "state": 13,
          "stateSpecified": true,
          "cntry": "United States",
          "postlCd": "50266"
        }
      ],
      "orgNm": "VISIONPOINT ADVISORY GROUP",
      "orgPK": "168733",
      "str1": "1601 WEST LAKES PARKWAY",
      "str2": "STE 200",
      "city": "WEST DES MOINES",
      "state": 13,
      "stateSpecified": true,
      "cntry": "United States",
      "postlCd": "50266"
    }
  ],
  "Exms": [
    {
      "exmCd": 0,
      "exmNm": "Uniform Securities Agent State Law Examination",
      "exmDt": "1995-12-22T00:00:00",
      "exmDtSpecified": true
    },
    {
      "exmCd": 2,
      "exmNm": "Uniform Investment Adviser Law Examination",
      "exmDt": "2007-12-06T00:00:00",
      "exmDtSpecified": true
    }
  ],
  "Dsgntns": [],
  "PrevRgstns": [
    {
      "BrnchOfLocs": [
        {
          "city": "PANORA",
          "state": 13,
          "stateSpecified": true
        }
      ],
      "orgNm": "BROKERS INTERNATIONAL FINANCIAL SERVICES, LLC.",
      "orgPK": "139627",
      "regBeginDt": "2007-10-23T00:00:00",
      "regBeginDtSpecified": true,
      "regEndDt": "2008-09-17T00:00:00",
      "regEndDtSpecified": true
    },
    {
      "BrnchOfLocs": [
        {
          "city": "WEST DES MOINES",
          "state": 13,
          "stateSpecified": true
        }
      ],
      "orgNm": "SPC",
      "orgPK": "110692",
      "regBeginDt": "2008-10-23T00:00:00",
      "regBeginDtSpecified": true,
      "regEndDt": "2010-06-03T00:00:00",
      "regEndDtSpecified": true
    },
    {
      "BrnchOfLocs": [
        {
          "city": "JOHNSTON",
          "state": 13,
          "stateSpecified": true
        }
      ],
      "orgNm": "COMMERCE WEALTH ADVISERS, LLC",
      "orgPK": "144449",
      "regBeginDt": "2010-07-15T00:00:00",
      "regBeginDtSpecified": true,
      "regEndDt": "2012-07-17T00:00:00",
      "regEndDtSpecified": true
    },
    {
      "BrnchOfLocs": [
        {
          "city": "FRISCO",
          "state": 45,
          "stateSpecified": true
        }
      ],
      "orgNm": "LPL FINANCIAL LLC",
      "orgPK": "6413",
      "regBeginDt": "2012-07-16T00:00:00",
      "regBeginDtSpecified": true,
      "regEndDt": "2013-07-09T00:00:00",
      "regEndDtSpecified": true
    },
    {
      "BrnchOfLocs": [
        {
          "city": "FRSICO",
          "state": 45,
          "stateSpecified": true
        }
      ],
      "orgNm": "STRATOS WEALTH PARTNERS, LTD",
      "orgPK": "153184",
      "regBeginDt": "2013-03-04T00:00:00",
      "regBeginDtSpecified": true,
      "regEndDt": "2013-06-27T00:00:00",
      "regEndDtSpecified": true
    }
  ],
  "EmpHss": [
    {
      "fromDt": "11/1995",
      "toDt": "08/2006",
      "orgNm": "PRINCOR FINANCIAL SERVICES CORPORATION",
      "city": "DES MOINES",
      "state": 13,
      "stateSpecified": true
    },
    {
      "fromDt": "08/2006",
      "toDt": "10/2007",
      "orgNm": "SALT LAKE BSI, INC.",
      "city": "SALT LAKE CITY",
      "state": 46,
      "stateSpecified": true
    },
    {
      "fromDt": "09/2006",
      "toDt": "10/2007",
      "orgNm": "ALLEGIS ADVISORS, INC.",
      "city": "SALT LAKE CITY",
      "state": 46,
      "stateSpecified": true
    },
    {
      "fromDt": "10/2007",
      "toDt": "09/2008",
      "orgNm": "BROKERS INTERNATIONAL FINANCIAL SERVICES",
      "city": "PANORA",
      "state": 13,
      "stateSpecified": true
    },
    {
      "fromDt": "10/2008",
      "toDt": "06/2010",
      "orgNm": "SAMMONS SECURITIES COMPANY LLC",
      "city": "ANN ARBOR",
      "state": 23,
      "stateSpecified": true
    },
    {
      "fromDt": "07/2010",
      "toDt": "07/2012",
      "orgNm": "DEWAAY ADVISORY",
      "city": "CLIVE",
      "state": 13,
      "stateSpecified": true
    },
    {
      "fromDt": "07/2010",
      "toDt": "07/2012",
      "orgNm": "DEWAAY FINANCIAL NETWORK",
      "city": "CLIVE",
      "state": 13,
      "stateSpecified": true
    },
    {
      "fromDt": "07/2010",
      "toDt": "07/2012",
      "orgNm": "DEWAAY FINANCIAL NETWORK",
      "city": "CLIVE",
      "state": 13,
      "stateSpecified": true
    },
    {
      "fromDt": "07/2012",
      "toDt": "06/2013",
      "orgNm": "LPL FINANCIAL",
      "city": "FRISCO",
      "state": 45,
      "stateSpecified": true
    },
    {
      "fromDt": "07/2012",
      "toDt": "06/2013",
      "orgNm": "THE BOTSFORD GROUP",
      "city": "FRISCO",
      "state": 45,
      "stateSpecified": true
    },
    {
      "fromDt": "04/2013",
      "toDt": "06/2013",
      "orgNm": "STRATOS WEALTH PARTNERS, LTD",
      "city": "FRISCO",
      "state": 45,
      "stateSpecified": true
    },
    {
      "fromDt": "09/2013",
      "toDt": null,
      "orgNm": "LPL FINANCIAL LLC",
      "city": "WEST DES MOINES",
      "state": 13,
      "stateSpecified": true
    },
    {
      "fromDt": "09/2013",
      "toDt": null,
      "orgNm": "VISIONPOINT ADVISORY GROUP, LLC",
      "city": "WEST DE MOINES",
      "state": 13,
      "stateSpecified": true
    }
  ],
  "OthrBuss": {
    "OthrBus": {
      "desc": "(1) 09/30/2013 - VISIONPOINT/ DBA ONLY/ 100%/ WEST DES MOINES, IA    (2) 10/17/2013 - VISIONPOINT ADVISORY GROUP - REGISTERED INVESTMENT ADVISOR - VISIONPOINT ADVISORY GROUP - REGISTERED INVESTMENT ADVISOR - WEST DES MOINES, IA"
    }
  },
  "DRPs": [
    {
      "hasRegAction": 1,
      "hasRegActionSpecified": true,
      "hasCriminal": 1,
      "hasCriminalSpecified": true,
      "hasBankrupt": 1,
      "hasBankruptSpecified": true,
      "hasCivilJudc": 1,
      "hasCivilJudcSpecified": true,
      "hasBond": 1,
      "hasBondSpecified": true,
      "hasJudgment": 1,
      "hasJudgmentSpecified": true,
      "hasInvstgn": 1,
      "hasInvstgnSpecified": true,
      "hasCustComp": 0,
      "hasCustCompSpecified": true,
      "hasTermination": 1,
      "hasTerminationSpecified": true
    }
  ]
}