{
  "Info": {
    "lastNm": "KASPAR",
    "firstNm": "JAMES",
    "midNm": "MICHAEL",
    "sufNm": null,
    "indvlPK": "2694087",
    "actvAGReg": 0,
    "link": "http://www.adviserinfo.sec.gov/IAPD/Individual/2694087"
  },
  "OthrNms": [],
  "CrntEmps": [
    {
      "CrntRgstns": [
        {
          "regAuth": 15,
          "regCat": 0,
          "st": 2,
          "stDt": "2016-04-12T00:00:00"
        }
      ],
      "BrnchOfLocs": [
        {
          "str1": "3521 N California Ave",
          "str2": "Unit 3B",
          "city": "Peoria",
          "state": 15,
          "stateSpecified": true,
          "cntry": "United States",
          "postlCd": "61603"
        },
        {
          "str1": "5130 HICKORY POINT FRONTAGE ROAD",
          "str2": "SUITE 102",
          "city": "DECATUR",
          "state": 15,
          "stateSpecified": true,
          "cntry": "United States",
          "postlCd": "62526"
        },
        {
          "str1": "6400 SHAFER CT",
          "str2": "SUITE 175",
          "city": "ROSEMONT",
          "state": 15,
          "stateSpecified": true,
          "cntry": "United States",
          "postlCd": "60018"
        }
      ],
      "orgNm": "MUTUAL OF OMAHA INVESTOR SERVICES, INC.",
      "orgPK": "611",
      "str1": "3300 MUTUAL OF OMAHA PLAZA",
      "str2": null,
      "city": "OMAHA",
      "state": 30,
      "stateSpecified": true,
      "cntry": "United States",
      "postlCd": "68175-1020"
    }
  ],
  "Exms": [
    {
      "exmCd": 0,
      "exmNm": "Uniform Securities Agent State Law Examination",
      "exmDt": "1996-01-11T00:00:00",
      "exmDtSpecified": true
    },
    {
      "exmCd": 3,
      "exmNm": "Uniform Combined State Law Examination",
      "exmDt": "2004-05-12T00:00:00",
      "exmDtSpecified": true
    }
  ],
  "Dsgntns": [],
  "PrevRgstns": [
    {
      "BrnchOfLocs": [
        {
          "city": "PEORIA",
          "state": 15,
          "stateSpecified": true
        },
        {
          "city": "PEORIA",
          "state": 15,
          "stateSpecified": true
        },
        {
          "city": "PEORIA",
          "state": 15,
          "stateSpecified": true
        },
        {
          "city": "PEORIA",
          "state": 15,
          "stateSpecified": true
        }
      ],
      "orgNm": "THRIVENT INVESTMENT MANAGEMENT INC.",
      "orgPK": "18387",
      "regBeginDt": "2004-05-14T00:00:00",
      "regBeginDtSpecified": true,
      "regEndDt": "2016-01-25T00:00:00",
      "regEndDtSpecified": true
    }
  ],
  "EmpHss": [
    {
      "fromDt": "07/2002",
      "toDt": "12/2012",
      "orgNm": "THRIVENT FINANCIAL BANK",
      "city": "PEORIA",
      "state": 15,
      "stateSpecified": true
    },
    {
      "fromDt": "07/2002",
      "toDt": "12/2015",
      "orgNm": "THRIVENT FINANCIAL FOR LUTHERANS",
      "city": "APPLETON",
      "state": 50,
      "stateSpecified": true
    },
    {
      "fromDt": "07/2002",
      "toDt": "12/2015",
      "orgNm": "THRIVENT INVESTMENT MANAGEMENT INC",
      "city": "PEORIA",
      "state": 15,
      "stateSpecified": true
    },
    {
      "fromDt": "01/2016",
      "toDt": null,
      "orgNm": "Mutual of Omaha Insurance Company",
      "city": "OMAHA",
      "state": 30,
      "stateSpecified": true
    },
    {
      "fromDt": "02/2016",
      "toDt": null,
      "orgNm": "Mutual of Omaha Investor Services",
      "city": "PEORIA",
      "state": 15,
      "stateSpecified": true
    }
  ],
  "OthrBuss": {
    "OthrBus": {
      "desc": "1)Insurance Agent - Start Date: 01/2016 - Non-investment Related - Insurance lines of business: Life, Health, & Variable Contract - Hours/per week during trading hours: 40    2) BOARD OF DIRECTORS FOR CONCORDIA LUTHERAN SCHOOL PEORIA, IL. NO INVESTMENT DIRECTION, NO MEETINGS DURING TRADING HOURS, HOURS DEVOTED 6 HRS PER MONTH, NO COMPENSATION."
    }
  },
  "DRPs": [
    {
      "hasRegAction": 1,
      "hasRegActionSpecified": true,
      "hasCriminal": 1,
      "hasCriminalSpecified": true,
      "hasBankrupt": 0,
      "hasBankruptSpecified": true,
      "hasCivilJudc": 1,
      "hasCivilJudcSpecified": true,
      "hasBond": 1,
      "hasBondSpecified": true,
      "hasJudgment": 0,
      "hasJudgmentSpecified": true,
      "hasInvstgn": 1,
      "hasInvstgnSpecified": true,
      "hasCustComp": 1,
      "hasCustCompSpecified": true,
      "hasTermination": 1,
      "hasTerminationSpecified": true
    }
  ]
}