{
  "Info": {
    "lastNm": "DEVER",
    "firstNm": "BETHANY",
    "midNm": "ANNE",
    "sufNm": null,
    "indvlPK": "2695179",
    "actvAGReg": 0,
    "link": "http://www.adviserinfo.sec.gov/IAPD/Individual/2695179"
  },
  "OthrNms": [
    {
      "lastNm": "BRUCE",
      "firstNm": "BETHANY",
      "midNm": "ANNE",
      "sufNm": null
    }
  ],
  "CrntEmps": [
    {
      "CrntRgstns": [
        {
          "regAuth": 6,
          "regCat": 0,
          "st": 2,
          "stDt": "2015-05-06T00:00:00"
        }
      ],
      "BrnchOfLocs": [
        {
          "str1": "1326 MAIN ST",
          "str2": null,
          "city": "SOUTH YARMOUTH",
          "state": 20,
          "stateSpecified": true,
          "cntry": "United States",
          "postlCd": "02664"
        },
        {
          "str1": "3856 FALMOUTH RD",
          "str2": null,
          "city": "MARSTONS MILLS",
          "state": 20,
          "stateSpecified": true,
          "cntry": "United States",
          "postlCd": "02648"
        }
      ],
      "orgNm": "MERRILL LYNCH, PIERCE, FENNER & SMITH INCORPORATED",
      "orgPK": "7691",
      "str1": "ONE BRYANT PARK",
      "str2": null,
      "city": "NEW YORK",
      "state": 35,
      "stateSpecified": true,
      "cntry": "United States",
      "postlCd": "10036"
    }
  ],
  "Exms": [
    {
      "exmCd": 0,
      "exmNm": "Uniform Securities Agent State Law Examination",
      "exmDt": "1998-08-24T00:00:00",
      "exmDtSpecified": true
    },
    {
      "exmCd": 3,
      "exmNm": "Uniform Combined State Law Examination",
      "exmDt": "2001-01-26T00:00:00",
      "exmDtSpecified": true
    }
  ],
  "Dsgntns": [],
  "PrevRgstns": [
    {
      "BrnchOfLocs": [
        {
          "city": "BOSTON",
          "state": 20,
          "stateSpecified": true
        }
      ],
      "orgNm": "FIDELITY PERSONAL TRUST COMPANY, FSB",
      "orgPK": "109516",
      "regBeginDt": "2001-02-02T00:00:00",
      "regBeginDtSpecified": true,
      "regEndDt": "2007-03-28T00:00:00",
      "regEndDtSpecified": true
    },
    {
      "BrnchOfLocs": [
        {
          "city": "BOSTON",
          "state": 20,
          "stateSpecified": true
        }
      ],
      "orgNm": "STRATEGIC ADVISERS, INC.",
      "orgPK": "104555",
      "regBeginDt": "2001-04-13T00:00:00",
      "regBeginDtSpecified": true,
      "regEndDt": "2005-02-16T00:00:00",
      "regEndDtSpecified": true
    },
    {
      "BrnchOfLocs": [
        {
          "city": "SALEM",
          "state": 20,
          "stateSpecified": true
        }
      ],
      "orgNm": "LPL FINANCIAL LLC",
      "orgPK": "6413",
      "regBeginDt": "2007-01-18T00:00:00",
      "regBeginDtSpecified": true,
      "regEndDt": "2007-07-26T00:00:00",
      "regEndDtSpecified": true
    },
    {
      "BrnchOfLocs": [
        {
          "city": "CARVER",
          "state": 20,
          "stateSpecified": true
        },
        {
          "city": "CEDARVILLE",
          "state": 20,
          "stateSpecified": true
        },
        {
          "city": "PLYMOUTH",
          "state": 20,
          "stateSpecified": true
        },
        {
          "city": "PLYMOUTH",
          "state": 20,
          "stateSpecified": true
        },
        {
          "city": "PLYMOUTH",
          "state": 20,
          "stateSpecified": true
        }
      ],
      "orgNm": "IFMG SECURITIES, INC.",
      "orgPK": "14416",
      "regBeginDt": "2007-08-08T00:00:00",
      "regBeginDtSpecified": true,
      "regEndDt": "2008-05-27T00:00:00",
      "regEndDtSpecified": true
    },
    {
      "BrnchOfLocs": [
        {
          "city": "CARVER",
          "state": 20,
          "stateSpecified": true
        },
        {
          "city": "CEDARVILLE",
          "state": 20,
          "stateSpecified": true
        },
        {
          "city": "PLYMOUTH",
          "state": 20,
          "stateSpecified": true
        },
        {
          "city": "PLYMOUTH",
          "state": 20,
          "stateSpecified": true
        },
        {
          "city": "PLYMOUTH",
          "state": 20,
          "stateSpecified": true
        }
      ],
      "orgNm": "LPL FINANCIAL LLC",
      "orgPK": "6413",
      "regBeginDt": "2008-05-27T00:00:00",
      "regBeginDtSpecified": true,
      "regEndDt": "2008-08-25T00:00:00",
      "regEndDtSpecified": true
    },
    {
      "BrnchOfLocs": [
        {
          "city": "EAST FALMOUTH",
          "state": 20,
          "stateSpecified": true
        },
        {
          "city": "EAST FALMOUTH",
          "state": 20,
          "stateSpecified": true
        },
        {
          "city": "EAST WAREHAM",
          "state": 20,
          "stateSpecified": true
        },
        {
          "city": "HARWICH",
          "state": 20,
          "stateSpecified": true
        },
        {
          "city": "MARSTONS MILLS",
          "state": 20,
          "stateSpecified": true
        },
        {
          "city": "ORLEANS",
          "state": 20,
          "stateSpecified": true
        },
        {
          "city": "ORLEANS",
          "state": 20,
          "stateSpecified": true
        },
        {
          "city": "SO YARMOUTH",
          "state": 20,
          "stateSpecified": true
        },
        {
          "city": "SO. DENNIS",
          "state": 20,
          "stateSpecified": true
        },
        {
          "city": "SOUTH DENNIS",
          "state": 20,
          "stateSpecified": true
        },
        {
          "city": "SOUTH YARMOUTH",
          "state": 20,
          "stateSpecified": true
        },
        {
          "city": "SOUTH YARMOUTH",
          "state": 20,
          "stateSpecified": true
        }
      ],
      "orgNm": "CITIZENS SECURITIES, INC.",
      "orgPK": "39550",
      "regBeginDt": "2008-09-03T00:00:00",
      "regBeginDtSpecified": true,
      "regEndDt": "2012-01-24T00:00:00",
      "regEndDtSpecified": true
    },
    {
      "BrnchOfLocs": [
        {
          "city": "EDGARTOWN",
          "state": 20,
          "stateSpecified": true
        },
        {
          "city": "MERIDEN",
          "state": 6,
          "stateSpecified": true
        },
        {
          "city": "VINEYARD HAVEN",
          "state": 20,
          "stateSpecified": true
        },
        {
          "city": "WEST TISBURY",
          "state": 20,
          "stateSpecified": true
        },
        {
          "city": "WOODS HOLE",
          "state": 20,
          "stateSpecified": true
        }
      ],
      "orgNm": "INFINEX INVESTMENTS, INC.",
      "orgPK": "35371",
      "regBeginDt": "2012-02-06T00:00:00",
      "regBeginDtSpecified": true,
      "regEndDt": "2014-03-10T00:00:00",
      "regEndDtSpecified": true
    }
  ],
  "EmpHss": [
    {
      "fromDt": "02/2005",
      "toDt": "01/2007",
      "orgNm": "CHILDREN'S HOSPITAL BOSTON",
      "city": "BOSTON",
      "state": 20,
      "stateSpecified": true
    },
    {
      "fromDt": "01/2007",
      "toDt": "08/2007",
      "orgNm": "SALEM FIVE BANK",
      "city": "SALEM",
      "state": 20,
      "stateSpecified": true
    },
    {
      "fromDt": "08/2007",
      "toDt": "08/2008",
      "orgNm": "SOVEREIGN BANK",
      "city": "PLYMOUTH",
      "state": 20,
      "stateSpecified": true
    },
    {
      "fromDt": "08/2008",
      "toDt": "01/2012",
      "orgNm": "CCO INVESTMENT SERVICES CORP",
      "city": "EAST FALMOUTH",
      "state": 20,
      "stateSpecified": true
    },
    {
      "fromDt": "01/2012",
      "toDt": "02/2014",
      "orgNm": "MARTHA'S VINEYARD SAVINGS BANK",
      "city": "WEST TISBURY",
      "state": 20,
      "stateSpecified": true
    },
    {
      "fromDt": "02/2012",
      "toDt": "02/2014",
      "orgNm": "INFINEX INVESTMENTS, INC.",
      "city": "WEST TISBURY",
      "state": 20,
      "stateSpecified": true
    },
    {
      "fromDt": "03/2014",
      "toDt": "05/2015",
      "orgNm": "HORACE MANN INVESTORS INC",
      "city": "SPRINGFIELD",
      "state": 15,
      "stateSpecified": true
    },
    {
      "fromDt": "04/2014",
      "toDt": "05/2015",
      "orgNm": "HORACE MANN INSURANCE",
      "city": "SPRINGFIELD",
      "state": 15,
      "stateSpecified": true
    },
    {
      "fromDt": "04/2015",
      "toDt": null,
      "orgNm": "BANK OF AMERICA, N.A.",
      "city": "MARSTONS MILLS",
      "state": 20,
      "stateSpecified": true
    },
    {
      "fromDt": "04/2015",
      "toDt": null,
      "orgNm": "MERRILL LYNCH, PIERCE, FENNER & SMITH INCORPORATED",
      "city": "MARSTONS MILLS",
      "state": 20,
      "stateSpecified": true
    }
  ],
  "OthrBuss": {
    "OthrBus": null
  },
  "DRPs": []
}