{
  "Info": {
    "lastNm": "JONES",
    "firstNm": "HENRY",
    "midNm": "BARRETT",
    "sufNm": null,
    "indvlPK": "2701191",
    "actvAGReg": 0,
    "link": "http://www.adviserinfo.sec.gov/IAPD/Individual/2701191"
  },
  "OthrNms": [
    {
      "lastNm": "JONES",
      "firstNm": "HENRY",
      "midNm": "BARRETT",
      "sufNm": null
    }
  ],
  "CrntEmps": [
    {
      "CrntRgstns": [
        {
          "regAuth": 47,
          "regCat": 0,
          "st": 2,
          "stDt": "2011-09-07T00:00:00"
        }
      ],
      "BrnchOfLocs": [
        {
          "str1": "440 MONTICELLO AVE SUITE 1800",
          "str2": null,
          "city": "NORFOLK",
          "state": 47,
          "stateSpecified": true,
          "cntry": "United States",
          "postlCd": "23510"
        },
        {
          "str1": "9051 BALTIMORE NATIONAL PIKE",
          "str2": "SUITE 3B",
          "city": "ELLICOTT CITY",
          "state": 21,
          "stateSpecified": true,
          "cntry": "United States",
          "postlCd": "21042"
        }
      ],
      "orgNm": "VOYA FINANCIAL ADVISORS, INC.",
      "orgPK": "2882",
      "str1": "909 LOCUST STREET",
      "str2": null,
      "city": "DES MOINES",
      "state": 13,
      "stateSpecified": true,
      "cntry": "United States",
      "postlCd": "50309"
    }
  ],
  "Exms": [
    {
      "exmCd": 0,
      "exmNm": "Uniform Securities Agent State Law Examination",
      "exmDt": "1996-02-23T00:00:00",
      "exmDtSpecified": true
    },
    {
      "exmCd": 2,
      "exmNm": "Uniform Investment Adviser Law Examination",
      "exmDt": "2007-08-28T00:00:00",
      "exmDtSpecified": true
    }
  ],
  "Dsgntns": [],
  "PrevRgstns": [
    {
      "BrnchOfLocs": [
        {
          "city": "VIRGINIA BEACH",
          "state": 47,
          "stateSpecified": true
        }
      ],
      "orgNm": "RSM US WEALTH MANAGEMENT LLC",
      "orgPK": "111221",
      "regBeginDt": "2002-10-08T00:00:00",
      "regBeginDtSpecified": true,
      "regEndDt": "2003-03-28T00:00:00",
      "regEndDtSpecified": true
    },
    {
      "BrnchOfLocs": [
        {
          "city": "MIDLOTHIAN",
          "state": 47,
          "stateSpecified": true
        },
        {
          "city": "NORFOLK",
          "state": 47,
          "stateSpecified": true
        },
        {
          "city": "NORFOLK",
          "state": 47,
          "stateSpecified": true
        }
      ],
      "orgNm": "SECURIAN FINANCIAL SERVICES, INC.",
      "orgPK": "15296",
      "regBeginDt": "2007-09-07T00:00:00",
      "regBeginDtSpecified": true,
      "regEndDt": "2011-09-02T00:00:00",
      "regEndDtSpecified": true
    }
  ],
  "EmpHss": [
    {
      "fromDt": "04/2006",
      "toDt": "08/2007",
      "orgNm": "BI INVESTMENTS, LLC",
      "city": "GLEN ALLEN",
      "state": 47,
      "stateSpecified": true
    },
    {
      "fromDt": "04/2006",
      "toDt": "08/2007",
      "orgNm": "COMMONWEALTH FINANCIAL ADVISORS",
      "city": "NORFOLK",
      "state": 47,
      "stateSpecified": true
    },
    {
      "fromDt": "09/2007",
      "toDt": null,
      "orgNm": "MINNESOTA LIFE",
      "city": "ST. PAUL",
      "state": 24,
      "stateSpecified": true
    },
    {
      "fromDt": "09/2007",
      "toDt": "08/2011",
      "orgNm": "SECURIAN FINANCIAL SERVICES INC.",
      "city": "ST. PAUL",
      "state": 24,
      "stateSpecified": true
    },
    {
      "fromDt": "09/2007",
      "toDt": null,
      "orgNm": "VIRGINIA ASSET MANAGEMENT",
      "city": "NORFOLK",
      "state": 47,
      "stateSpecified": true
    },
    {
      "fromDt": "09/2011",
      "toDt": "09/2014",
      "orgNm": "ING FINANCIAL PARTNERS, INC.",
      "city": "NORFOLK",
      "state": 47,
      "stateSpecified": true
    },
    {
      "fromDt": "09/2014",
      "toDt": null,
      "orgNm": "VOYA FINANCIAL ADVISORS",
      "city": "NORFOLK",
      "state": 47,
      "stateSpecified": true
    }
  ],
  "OthrBuss": {
    "OthrBus": {
      "desc": "1)INDEPENDENT INSURANCE SALES,440 MONTICELLO AVE STE 1800,NORFOLK,VA 23510,SALES OF FIXED INSURANCE,INDEPENDENT INSURANCE AGENT,09/01/2011,160,160,SALES OF FIXED INSURANCE. 2)HENRY B. JONES;NO;VIRGINIA BEACH, VA;OFFICIAL FOR LACROSSE GAMES;03/01/2012;12;12;MANAGE THE GAME AND ADMINISTER THE RULES  3)HENRY JONES & ASSOCIATES LLC;YES;440 MONTICELLO AVE STE 1800,NORFOLK,VA 23510;FIXED INSURANCE;PRESIDENT;09/01/2015;20,20;SALE OF FIXED INSURANCE PRODUCTS/MARKETING."
    }
  },
  "DRPs": []
}