{
  "Info": {
    "lastNm": "HUMMEL",
    "firstNm": "PAUL",
    "midNm": "DOUGLAS",
    "sufNm": null,
    "indvlPK": "2702638",
    "actvAGReg": 0,
    "link": "http://www.adviserinfo.sec.gov/IAPD/Individual/2702638"
  },
  "OthrNms": [],
  "CrntEmps": [
    {
      "CrntRgstns": [
        {
          "regAuth": 48,
          "regCat": 0,
          "st": 2,
          "stDt": "2008-08-19T00:00:00"
        }
      ],
      "BrnchOfLocs": [
        {
          "str1": "1 SCALE AVENUE",
          "str2": "SUITE 116",
          "city": "RUTLAND",
          "state": 48,
          "stateSpecified": true,
          "cntry": "United States",
          "postlCd": "05701"
        }
      ],
      "orgNm": "LINCOLN FINANCIAL SECURITIES CORPORATION",
      "orgPK": "3870",
      "str1": "1300 SOUTH CLINTON STREET",
      "str2": null,
      "city": "FORT WAYNE",
      "state": 16,
      "stateSpecified": true,
      "cntry": "United States",
      "postlCd": "46802"
    }
  ],
  "Exms": [
    {
      "exmCd": 0,
      "exmNm": "Uniform Securities Agent State Law Examination",
      "exmDt": "1996-02-12T00:00:00",
      "exmDtSpecified": true
    },
    {
      "exmCd": 2,
      "exmNm": "Uniform Investment Adviser Law Examination",
      "exmDt": "1997-05-09T00:00:00",
      "exmDtSpecified": true
    }
  ],
  "Dsgntns": [],
  "PrevRgstns": [
    {
      "BrnchOfLocs": [
        {
          "city": "GAYSVILLE",
          "state": 48,
          "stateSpecified": true
        }
      ],
      "orgNm": "WS GRIFFITH SECURITIES, INC.",
      "orgPK": "10410",
      "regBeginDt": "1998-02-11T00:00:00",
      "regBeginDtSpecified": true,
      "regEndDt": "2002-07-23T00:00:00",
      "regEndDtSpecified": true
    },
    {
      "BrnchOfLocs": [
        {
          "city": "RUTLAND",
          "state": 48,
          "stateSpecified": true
        },
        {
          "city": "RUTLAND",
          "state": 48,
          "stateSpecified": true
        }
      ],
      "orgNm": "EQUITY SERVICES, INC.",
      "orgPK": "265",
      "regBeginDt": "2002-08-27T00:00:00",
      "regBeginDtSpecified": true,
      "regEndDt": "2007-02-22T00:00:00",
      "regEndDtSpecified": true
    },
    {
      "BrnchOfLocs": [
        {
          "city": "MANCHESTER",
          "state": 31,
          "stateSpecified": true
        },
        {
          "city": "RUTLAND",
          "state": 48,
          "stateSpecified": true
        }
      ],
      "orgNm": "NEW ENGLAND SECURITIES",
      "orgPK": "615",
      "regBeginDt": "2007-07-25T00:00:00",
      "regBeginDtSpecified": true,
      "regEndDt": "2008-07-03T00:00:00",
      "regEndDtSpecified": true
    },
    {
      "BrnchOfLocs": [
        {
          "city": "RUTLAND",
          "state": 48,
          "stateSpecified": true
        },
        {
          "city": "RUTLAND",
          "state": 48,
          "stateSpecified": true
        },
        {
          "city": "WELLESLEY",
          "state": 20,
          "stateSpecified": true
        }
      ],
      "orgNm": "AXA ADVISORS, LLC",
      "orgPK": "6627",
      "regBeginDt": "2008-07-10T00:00:00",
      "regBeginDtSpecified": true,
      "regEndDt": "2008-08-19T00:00:00",
      "regEndDtSpecified": true
    }
  ],
  "EmpHss": [
    {
      "fromDt": "07/2002",
      "toDt": "02/2007",
      "orgNm": "EQUITY SERVICES INC",
      "city": "MONTPELIER",
      "state": 48,
      "stateSpecified": true
    },
    {
      "fromDt": "02/2007",
      "toDt": "06/2008",
      "orgNm": "NEW ENGLAND SECURITIES",
      "city": "MANCHESTER",
      "state": 31,
      "stateSpecified": true
    },
    {
      "fromDt": "07/2008",
      "toDt": "08/2008",
      "orgNm": "AXA ADVISORS, LLC",
      "city": "NEW YORK",
      "state": 35,
      "stateSpecified": true
    },
    {
      "fromDt": "08/2008",
      "toDt": null,
      "orgNm": "LINCOLN FINANCIAL SECURITIES CORPORATION",
      "city": "RUTLAND",
      "state": 48,
      "stateSpecified": true
    }
  ],
  "OthrBuss": {
    "OthrBus": {
      "desc": "1) MARBLE VALLEY FINANCIAL GROUP, 1 SCALE AVENUE SUITE 116 RUTLAND, VT 05701 CATEGORY: INSURANCE  INVESTMENT-RELATED: YES  TITLE: OWNER  DUTIES: OFFERS ACCIDENT/HEALTH INSURANCE, DISABILITY INSURANCE, FIXED/INDEXED ANNUITIES, LIFE SETTLEMENTS, PREMIUM FINANCING, LONG-TERM CARE INSURANCE AND TRADITIONAL LIFE INSURANCE PRODUCTS  START DATE: 9/2004  HOURS PER MONTH: 250  HOURS PER MONTH DURING TRADING HOURS: 130    2) PAUL D. HUMMEL, 1047 LAURY RD, GAYSVILLE, VT.05746  CATEGORY:  SERVICE INDUSTRY  INVESTMENT-RELATED: NO  TITLE: OWNER  DUTIES:  LOGGING, FIREWOOD BRUSH CUTTING, GRADING, SNOW PLOWING, LANDSCAPING  START DATE: 11/2013  HOURS PER MONTH: 15  HOURS PER MONTH DURING TRADING HOURS: 5    3) PAUL HUMMEL,  GAYSVILLE, VT  CATEGORY:  REAL ESTATE RENTAL  INVESTMENT-RELATED:  YES  TITLE:  OWNER  DUTIES: MAINTAINS PROPERTY AND COLLECTS RENT  START DATE:  12/2013  HOURS PER MONTH: 4  HOURS PER MONTH DURING TRADING HOURS:  1"
    }
  },
  "DRPs": []
}