{
  "Info": {
    "lastNm": "FOUNTAIN",
    "firstNm": "TIMOTHY",
    "midNm": "JAMES",
    "sufNm": null,
    "indvlPK": "2704042",
    "actvAGReg": 0,
    "link": "http://www.adviserinfo.sec.gov/IAPD/Individual/2704042"
  },
  "OthrNms": [
    {
      "lastNm": "FOUNTAIN",
      "firstNm": "TIM",
      "midNm": null,
      "sufNm": null
    }
  ],
  "CrntEmps": [
    {
      "CrntRgstns": [
        {
          "regAuth": 50,
          "regCat": 0,
          "st": 2,
          "stDt": "2006-05-22T00:00:00"
        }
      ],
      "BrnchOfLocs": [
        {
          "str1": "BROOKFIELD COMMONS",
          "str2": "15375 WEST BLUEMOUND ROAD",
          "city": "BROOKFIELD",
          "state": 50,
          "stateSpecified": true,
          "cntry": "United States",
          "postlCd": "53005"
        }
      ],
      "orgNm": "AMERIVEST INVESTMENT MANAGEMENT, LLC",
      "orgPK": "111514",
      "str1": "200 SOUTH 108TH AVENUE",
      "str2": null,
      "city": "OMAHA",
      "state": 30,
      "stateSpecified": true,
      "cntry": "United States",
      "postlCd": "68154"
    },
    {
      "CrntRgstns": [
        {
          "regAuth": 50,
          "regCat": 0,
          "st": 2,
          "stDt": "2003-04-22T00:00:00"
        }
      ],
      "BrnchOfLocs": [
        {
          "str1": "BROOKFIELD COMMONS",
          "str2": "15375 WEST BLUEMOUND ROAD",
          "city": "BROOKFIELD",
          "state": 50,
          "stateSpecified": true,
          "cntry": "United States",
          "postlCd": "53005"
        }
      ],
      "orgNm": "TD AMERITRADE, INC.",
      "orgPK": "7870",
      "str1": "200 SOUTH 108TH AVENUE",
      "str2": null,
      "city": "OMAHA",
      "state": 30,
      "stateSpecified": true,
      "cntry": "United States",
      "postlCd": "68154"
    }
  ],
  "Exms": [
    {
      "exmCd": 0,
      "exmNm": "Uniform Securities Agent State Law Examination",
      "exmDt": "1996-06-12T00:00:00",
      "exmDtSpecified": true
    },
    {
      "exmCd": 3,
      "exmNm": "Uniform Combined State Law Examination",
      "exmDt": "2003-06-20T00:00:00",
      "exmDtSpecified": true
    }
  ],
  "Dsgntns": [],
  "PrevRgstns": [],
  "EmpHss": [
    {
      "fromDt": "01/1996",
      "toDt": "05/2010",
      "orgNm": "WATERHOUSE SECURITIES",
      "city": "MILWAUKEE",
      "state": 50,
      "stateSpecified": true
    },
    {
      "fromDt": "01/1996",
      "toDt": "05/2010",
      "orgNm": "WATERHOUSE SECURITIES, INC.",
      "city": "MILWAUKEE",
      "state": 50,
      "stateSpecified": true
    },
    {
      "fromDt": "09/2004",
      "toDt": null,
      "orgNm": "SELF-EMPLOYED",
      "city": "OAK CREEK",
      "state": 50,
      "stateSpecified": true
    },
    {
      "fromDt": "05/2010",
      "toDt": null,
      "orgNm": "TDAMERITRADE, INC",
      "city": "BROOKFIELD",
      "state": 50,
      "stateSpecified": true
    }
  ],
  "OthrBuss": {
    "OthrBus": {
      "desc": "SELF-EMPLOYED, LANDLORD, OAK CREEK , WISCONSIN, RENTAL UNIT, NOT INVESTMENT RELATED, NO HOURS DURING TRADING HOURS.   RESALE  POSITION: OWNER NATURE: RESALE INVESTMENT RELATED: NO NUMBER OF HOURS: 4 SECURITIES TRADING HOURS: 0 START DATE: 01/01/2015  ADDRESS: 10351 S ASHLEY LANE, OAK CREEK WI 53154  DESCRIPTION: I PURCHASE VARIOUS ITEM'S ON CRAIGSLIST AND RESELL ON EBAY."
    }
  },
  "DRPs": [
    {
      "hasRegAction": 1,
      "hasRegActionSpecified": true,
      "hasCriminal": 1,
      "hasCriminalSpecified": true,
      "hasBankrupt": 1,
      "hasBankruptSpecified": true,
      "hasCivilJudc": 1,
      "hasCivilJudcSpecified": true,
      "hasBond": 1,
      "hasBondSpecified": true,
      "hasJudgment": 1,
      "hasJudgmentSpecified": true,
      "hasInvstgn": 1,
      "hasInvstgnSpecified": true,
      "hasCustComp": 0,
      "hasCustCompSpecified": true,
      "hasTermination": 1,
      "hasTerminationSpecified": true
    }
  ]
}