{
  "Info": {
    "lastNm": "BORNSTEIN",
    "firstNm": "ALAN",
    "midNm": "DAVID",
    "sufNm": null,
    "indvlPK": "2710680",
    "actvAGReg": 0,
    "link": "http://www.adviserinfo.sec.gov/IAPD/Individual/2710680"
  },
  "OthrNms": [],
  "CrntEmps": [
    {
      "CrntRgstns": [
        {
          "regAuth": 4,
          "regCat": 0,
          "st": 2,
          "stDt": "2003-07-14T00:00:00"
        }
      ],
      "BrnchOfLocs": [
        {
          "str1": "565 LINDA DR",
          "str2": null,
          "city": "SONOMA",
          "state": 4,
          "stateSpecified": true,
          "cntry": "United States",
          "postlCd": "95476"
        }
      ],
      "orgNm": "SECURITIES AMERICA ADVISORS, INC.",
      "orgPK": "110518",
      "str1": "12325 PORT GRACE BLVD.",
      "str2": null,
      "city": "LA VISTA",
      "state": 30,
      "stateSpecified": true,
      "cntry": "United States",
      "postlCd": "68128-8204"
    }
  ],
  "Exms": [
    {
      "exmCd": 0,
      "exmNm": "Uniform Securities Agent State Law Examination",
      "exmDt": "1996-04-04T00:00:00",
      "exmDtSpecified": true
    },
    {
      "exmCd": 2,
      "exmNm": "Uniform Investment Adviser Law Examination",
      "exmDt": "1996-04-04T00:00:00",
      "exmDtSpecified": true
    }
  ],
  "Dsgntns": [],
  "PrevRgstns": [
    {
      "BrnchOfLocs": [
        {
          "city": "LARKSPUR",
          "state": 4,
          "stateSpecified": true
        }
      ],
      "orgNm": "CITIGROUP GLOBAL MARKETS INC.",
      "orgPK": "7059",
      "regBeginDt": "1997-07-08T00:00:00",
      "regBeginDtSpecified": true,
      "regEndDt": "2003-07-07T00:00:00",
      "regEndDtSpecified": true
    }
  ],
  "EmpHss": [
    {
      "fromDt": "05/2003",
      "toDt": null,
      "orgNm": "SECURITIES AMERICA, INC.",
      "city": "TIBURON",
      "state": 4,
      "stateSpecified": true
    },
    {
      "fromDt": "07/2003",
      "toDt": null,
      "orgNm": "SECURITIES AMERICA ADVISORS, INC.",
      "city": "TIBURON",
      "state": 4,
      "stateSpecified": true
    }
  ],
  "OthrBuss": {
    "OthrBus": {
      "desc": "INSURANCE SALES-AGENT-INVESTMENT RELATED-START DATE 06/1996 LOCATED AT 565 LINDA DR SONOMA, CA 95476         SECURITIES AMERICA ADVISORS, INC.  - INVESTMENT ADVISOR REPRESENTATIVE- IAR-INVESTMENT RELATED -START DATE 07/2003 LOCATED AT 565 LINDA DR SONOMA, CA 95476"
    }
  },
  "DRPs": [
    {
      "hasRegAction": 1,
      "hasRegActionSpecified": true,
      "hasCriminal": 1,
      "hasCriminalSpecified": true,
      "hasBankrupt": 1,
      "hasBankruptSpecified": true,
      "hasCivilJudc": 1,
      "hasCivilJudcSpecified": true,
      "hasBond": 1,
      "hasBondSpecified": true,
      "hasJudgment": 1,
      "hasJudgmentSpecified": true,
      "hasInvstgn": 1,
      "hasInvstgnSpecified": true,
      "hasCustComp": 0,
      "hasCustCompSpecified": true,
      "hasTermination": 1,
      "hasTerminationSpecified": true
    }
  ]
}