{
  "Info": {
    "lastNm": "LEE",
    "firstNm": "FAITH",
    "midNm": null,
    "sufNm": null,
    "indvlPK": "2715226",
    "actvAGReg": 0,
    "link": "http://www.adviserinfo.sec.gov/IAPD/Individual/2715226"
  },
  "OthrNms": [
    {
      "lastNm": "LEE",
      "firstNm": "FAITH",
      "midNm": "LI",
      "sufNm": null
    }
  ],
  "CrntEmps": [
    {
      "CrntRgstns": [
        {
          "regAuth": 4,
          "regCat": 0,
          "st": 2,
          "stDt": "2009-06-18T00:00:00"
        }
      ],
      "BrnchOfLocs": [
        {
          "str1": "1 BRIDGE PLAZA",
          "str2": "SUITE 275-216",
          "city": "FORT LEE",
          "state": 32,
          "stateSpecified": true,
          "cntry": "United States",
          "postlCd": "07024"
        },
        {
          "str1": "1299 OCEAN AVENUE 2ND FLOOR",
          "str2": null,
          "city": "SANTA MONICA",
          "state": 4,
          "stateSpecified": true,
          "cntry": "UNITED STATES",
          "postlCd": "90401"
        },
        {
          "str1": "1299 OCEAN AVENUE",
          "str2": "SUITE 210",
          "city": "SANTA MONICA",
          "state": 4,
          "stateSpecified": true,
          "cntry": "United States",
          "postlCd": "90401"
        },
        {
          "str1": "21671 GATEWAY CENTER DRIVE",
          "str2": "SUITE 111",
          "city": "DIAMOND BAR",
          "state": 4,
          "stateSpecified": true,
          "cntry": "United States",
          "postlCd": "91765"
        },
        {
          "str1": "735 BISHOP STREET",
          "str2": "SUITE 500",
          "city": "HONOLULU",
          "state": 12,
          "stateSpecified": true,
          "cntry": "United States",
          "postlCd": "96813"
        },
        {
          "str1": "825 S PRIMROSE AVENUE",
          "str2": "SUITE C",
          "city": "MONROVIA",
          "state": 4,
          "stateSpecified": true,
          "cntry": "United States",
          "postlCd": "91016"
        }
      ],
      "orgNm": "SYNDICATED CAPITAL, INC.",
      "orgPK": "29037",
      "str1": "1299 OCEAN AVENUE",
      "str2": "SUITE 210",
      "city": "SANTA MONICA",
      "state": 4,
      "stateSpecified": true,
      "cntry": "United States",
      "postlCd": "90401"
    }
  ],
  "Exms": [
    {
      "exmCd": 0,
      "exmNm": "Uniform Securities Agent State Law Examination",
      "exmDt": "1996-03-15T00:00:00",
      "exmDtSpecified": true
    }
  ],
  "Dsgntns": [],
  "PrevRgstns": [],
  "EmpHss": [
    {
      "fromDt": "06/2003",
      "toDt": null,
      "orgNm": "SYNDICATED CAPITAL, INC.",
      "city": "SANTA MONICA",
      "state": 4,
      "stateSpecified": true
    }
  ],
  "OthrBuss": {
    "OthrBus": null
  },
  "DRPs": [
    {
      "hasRegAction": 0,
      "hasRegActionSpecified": true,
      "hasCriminal": 1,
      "hasCriminalSpecified": true,
      "hasBankrupt": 1,
      "hasBankruptSpecified": true,
      "hasCivilJudc": 1,
      "hasCivilJudcSpecified": true,
      "hasBond": 1,
      "hasBondSpecified": true,
      "hasJudgment": 1,
      "hasJudgmentSpecified": true,
      "hasInvstgn": 1,
      "hasInvstgnSpecified": true,
      "hasCustComp": 1,
      "hasCustCompSpecified": true,
      "hasTermination": 1,
      "hasTerminationSpecified": true
    }
  ]
}