{
  "Info": {
    "lastNm": "VASILOFF",
    "firstNm": "LINDA",
    "midNm": "MICHAELINE",
    "sufNm": null,
    "indvlPK": "2716841",
    "actvAGReg": 0,
    "link": "http://www.adviserinfo.sec.gov/IAPD/Individual/2716841"
  },
  "OthrNms": [
    {
      "lastNm": "MACHCINSKI",
      "firstNm": "LINDA",
      "midNm": "MICHAELINE",
      "sufNm": null
    }
  ],
  "CrntEmps": [
    {
      "CrntRgstns": [
        {
          "regAuth": 36,
          "regCat": 0,
          "st": 2,
          "stDt": "2002-11-14T00:00:00"
        }
      ],
      "BrnchOfLocs": [
        {
          "str1": "36350 DETROIT RD",
          "str2": "STE A",
          "city": "AVON",
          "state": 36,
          "stateSpecified": true,
          "cntry": "United States",
          "postlCd": "44011-1506"
        }
      ],
      "orgNm": "AMERIPRISE FINANCIAL SERVICES, INC.",
      "orgPK": "6363",
      "str1": "707 2ND AVENUE SOUTH",
      "str2": null,
      "city": "MINNEAPOLIS",
      "state": 24,
      "stateSpecified": true,
      "cntry": "United States",
      "postlCd": "55402"
    }
  ],
  "Exms": [
    {
      "exmCd": 3,
      "exmNm": "Uniform Combined State Law Examination",
      "exmDt": "2003-09-27T00:00:00",
      "exmDtSpecified": true
    }
  ],
  "Dsgntns": [],
  "PrevRgstns": [],
  "EmpHss": [
    {
      "fromDt": "04/1992",
      "toDt": null,
      "orgNm": "THOMAS S KIME",
      "city": "VERMILION",
      "state": 36,
      "stateSpecified": true
    },
    {
      "fromDt": "02/1996",
      "toDt": null,
      "orgNm": "AMERICAN EXPRESS FINANCIAL ADVISORS INC.",
      "city": "CLEVELAND",
      "state": 36,
      "stateSpecified": true
    },
    {
      "fromDt": "02/1996",
      "toDt": null,
      "orgNm": "IDS LIFE INSURANCE COMPANY",
      "city": "CLEVELAND",
      "state": 36,
      "stateSpecified": true
    }
  ],
  "OthrBuss": {
    "OthrBus": {
      "desc": "FIDUCIARY ACTIVITIES,MANAGE INVESTMENTS, PAY BILLS,COMP:$0."
    }
  },
  "DRPs": []
}