{
  "Info": {
    "lastNm": "MC GRATH",
    "firstNm": "ARTHUR",
    "midNm": "WILLIAM",
    "sufNm": "III",
    "indvlPK": "2722256",
    "actvAGReg": 0,
    "link": "http://www.adviserinfo.sec.gov/IAPD/Individual/2722256"
  },
  "OthrNms": [
    {
      "lastNm": "MCGRATH",
      "firstNm": "ARTHUR",
      "midNm": "WILLIAM",
      "sufNm": "III"
    },
    {
      "lastNm": "MCGRATH",
      "firstNm": "LIAM",
      "midNm": null,
      "sufNm": "III"
    }
  ],
  "CrntEmps": [
    {
      "CrntRgstns": [
        {
          "regAuth": 21,
          "regCat": 0,
          "st": 2,
          "stDt": "2001-10-12T00:00:00"
        },
        {
          "regAuth": 45,
          "regCat": 0,
          "st": 3,
          "stDt": "2014-10-30T00:00:00"
        }
      ],
      "BrnchOfLocs": [
        {
          "str1": "3717 DECATUR AVENUE",
          "str2": "STE 2",
          "city": "KENSINGTON",
          "state": 21,
          "stateSpecified": true,
          "cntry": "United States",
          "postlCd": "20895-2148"
        }
      ],
      "orgNm": "AMERIPRISE FINANCIAL SERVICES, INC.",
      "orgPK": "6363",
      "str1": "707 2ND AVENUE SOUTH",
      "str2": null,
      "city": "MINNEAPOLIS",
      "state": 24,
      "stateSpecified": true,
      "cntry": "United States",
      "postlCd": "55402"
    }
  ],
  "Exms": [
    {
      "exmCd": 0,
      "exmNm": "Uniform Securities Agent State Law Examination",
      "exmDt": "1996-10-04T00:00:00",
      "exmDtSpecified": true
    },
    {
      "exmCd": 2,
      "exmNm": "Uniform Investment Adviser Law Examination",
      "exmDt": "1998-07-20T00:00:00",
      "exmDtSpecified": true
    }
  ],
  "Dsgntns": [
    {
      "dsgntnNm": "Certified Financial Planner"
    }
  ],
  "PrevRgstns": [],
  "EmpHss": [
    {
      "fromDt": "05/1997",
      "toDt": null,
      "orgNm": "TEMPS & CO",
      "city": "BETHESDA",
      "state": 21,
      "stateSpecified": true
    },
    {
      "fromDt": "04/1998",
      "toDt": null,
      "orgNm": "AMERICAN EXPRESS FINANCIAL ADVISORS INC.",
      "city": "VIENNA",
      "state": 47,
      "stateSpecified": true
    },
    {
      "fromDt": "04/1998",
      "toDt": null,
      "orgNm": "IDS LIFE INSURANCE COMPANY",
      "city": "VIENNA",
      "state": 47,
      "stateSpecified": true
    }
  ],
  "OthrBuss": {
    "OthrBus": null
  },
  "DRPs": [
    {
      "hasRegAction": 1,
      "hasRegActionSpecified": true,
      "hasCriminal": 1,
      "hasCriminalSpecified": true,
      "hasBankrupt": 1,
      "hasBankruptSpecified": true,
      "hasCivilJudc": 1,
      "hasCivilJudcSpecified": true,
      "hasBond": 1,
      "hasBondSpecified": true,
      "hasJudgment": 0,
      "hasJudgmentSpecified": true,
      "hasInvstgn": 1,
      "hasInvstgnSpecified": true,
      "hasCustComp": 1,
      "hasCustCompSpecified": true,
      "hasTermination": 1,
      "hasTerminationSpecified": true
    }
  ]
}