{
  "Info": {
    "lastNm": "GAFNEY",
    "firstNm": "DAVID",
    "midNm": "P",
    "sufNm": null,
    "indvlPK": "2724674",
    "actvAGReg": 0,
    "link": "http://www.adviserinfo.sec.gov/IAPD/Individual/2724674"
  },
  "OthrNms": [
    {
      "lastNm": "GAFNEY",
      "firstNm": "DAVID",
      "midNm": "PAUL",
      "sufNm": null
    }
  ],
  "CrntEmps": [
    {
      "CrntRgstns": [
        {
          "regAuth": 45,
          "regCat": 0,
          "st": 3,
          "stDt": "2014-09-26T00:00:00"
        },
        {
          "regAuth": 9,
          "regCat": 0,
          "st": 2,
          "stDt": "2015-01-05T00:00:00"
        }
      ],
      "BrnchOfLocs": [
        {
          "str1": "4800-4804 DEER LAKE DR",
          "str2": "MERRILL EDGE ADVISORY CENTER",
          "city": "JACKSONVILLE",
          "state": 9,
          "stateSpecified": true,
          "cntry": "United States",
          "postlCd": "32246"
        }
      ],
      "orgNm": "MERRILL LYNCH, PIERCE, FENNER & SMITH INCORPORATED",
      "orgPK": "7691",
      "str1": "ONE BRYANT PARK",
      "str2": null,
      "city": "NEW YORK",
      "state": 35,
      "stateSpecified": true,
      "cntry": "United States",
      "postlCd": "10036"
    }
  ],
  "Exms": [
    {
      "exmCd": 3,
      "exmNm": "Uniform Combined State Law Examination",
      "exmDt": "2012-12-10T00:00:00",
      "exmDtSpecified": true
    }
  ],
  "Dsgntns": [],
  "PrevRgstns": [
    {
      "BrnchOfLocs": [
        {
          "city": "EAST LONGMEADOW",
          "state": 20,
          "stateSpecified": true
        }
      ],
      "orgNm": "NEW ENGLAND SECURITIES",
      "orgPK": "615",
      "regBeginDt": "2014-02-20T00:00:00",
      "regBeginDtSpecified": true,
      "regEndDt": "2014-08-29T00:00:00",
      "regEndDtSpecified": true
    }
  ],
  "EmpHss": [
    {
      "fromDt": "03/2003",
      "toDt": "05/2008",
      "orgNm": "BIG Y FOODS",
      "city": "LONGMEADOW",
      "state": 20,
      "stateSpecified": true
    },
    {
      "fromDt": "05/2008",
      "toDt": "08/2009",
      "orgNm": "UNEMPLOYED",
      "city": "SPRINGFIELD",
      "state": 20,
      "stateSpecified": true
    },
    {
      "fromDt": "08/2009",
      "toDt": "05/2010",
      "orgNm": "SAVE-A-LOT",
      "city": "EAST HARTFORD",
      "state": 6,
      "stateSpecified": true
    },
    {
      "fromDt": "05/2010",
      "toDt": "08/2010",
      "orgNm": "PRIDE GAS",
      "city": "SPRINGFIELD",
      "state": 20,
      "stateSpecified": true
    },
    {
      "fromDt": "08/2010",
      "toDt": "11/2011",
      "orgNm": "UNEMPLOYED",
      "city": "SPRINGFIELD",
      "state": 20,
      "stateSpecified": true
    },
    {
      "fromDt": "11/2011",
      "toDt": "07/2012",
      "orgNm": "GAFNEY REAL ESTATE",
      "city": "SPRINGFIELD",
      "state": 20,
      "stateSpecified": true
    },
    {
      "fromDt": "05/2012",
      "toDt": "03/2013",
      "orgNm": "EXCLUSIVE CAR SERVICE",
      "city": "HOLYOKE",
      "state": 20,
      "stateSpecified": true
    },
    {
      "fromDt": "07/2012",
      "toDt": "01/2013",
      "orgNm": "METLIFE SECURITIES INC.",
      "city": "HOLYOKE",
      "state": 20,
      "stateSpecified": true
    },
    {
      "fromDt": "03/2013",
      "toDt": "07/2013",
      "orgNm": "UNEMPLOYED",
      "city": "SPRINGFIELD",
      "state": 20,
      "stateSpecified": true
    },
    {
      "fromDt": "07/2013",
      "toDt": "08/2013",
      "orgNm": "BOY SCOUTS OF AMERICA",
      "city": "RUTLAND",
      "state": 20,
      "stateSpecified": true
    },
    {
      "fromDt": "08/2013",
      "toDt": "11/2013",
      "orgNm": "UNEMPLOYED",
      "city": "SPRINGFIELD",
      "state": 20,
      "stateSpecified": true
    },
    {
      "fromDt": "11/2013",
      "toDt": "09/2014",
      "orgNm": "NEW ENGLAND SECURITIES",
      "city": "EAST LONGMEADOW",
      "state": 20,
      "stateSpecified": true
    },
    {
      "fromDt": "09/2014",
      "toDt": null,
      "orgNm": "BANK OF AMERICA, N.A.",
      "city": "JACKSONVILLE",
      "state": 9,
      "stateSpecified": true
    },
    {
      "fromDt": "09/2014",
      "toDt": null,
      "orgNm": "MERRILL LYNCH, PIERCE, FENNER & SMITH INCORPORATED",
      "city": "JACKSONVILLE",
      "state": 9,
      "stateSpecified": true
    }
  ],
  "OthrBuss": {
    "OthrBus": null
  },
  "DRPs": [
    {
      "hasRegAction": 1,
      "hasRegActionSpecified": true,
      "hasCriminal": 0,
      "hasCriminalSpecified": true,
      "hasBankrupt": 1,
      "hasBankruptSpecified": true,
      "hasCivilJudc": 1,
      "hasCivilJudcSpecified": true,
      "hasBond": 1,
      "hasBondSpecified": true,
      "hasJudgment": 1,
      "hasJudgmentSpecified": true,
      "hasInvstgn": 1,
      "hasInvstgnSpecified": true,
      "hasCustComp": 1,
      "hasCustCompSpecified": true,
      "hasTermination": 1,
      "hasTerminationSpecified": true
    }
  ]
}