{
  "Info": {
    "lastNm": "KRAUT",
    "firstNm": "THOMAS",
    "midNm": "EDWARD",
    "sufNm": null,
    "indvlPK": "2737544",
    "actvAGReg": 0,
    "link": "http://www.adviserinfo.sec.gov/IAPD/Individual/2737544"
  },
  "OthrNms": [
    {
      "lastNm": "KRAUT",
      "firstNm": "THOMAS",
      "midNm": "EDWARD",
      "sufNm": null
    }
  ],
  "CrntEmps": [
    {
      "CrntRgstns": [
        {
          "regAuth": 4,
          "regCat": 0,
          "st": 2,
          "stDt": "2004-10-27T00:00:00"
        },
        {
          "regAuth": 23,
          "regCat": 0,
          "st": 2,
          "stDt": "2010-09-08T00:00:00"
        },
        {
          "regAuth": 15,
          "regCat": 0,
          "st": 2,
          "stDt": "2014-01-15T00:00:00"
        }
      ],
      "BrnchOfLocs": [
        {
          "str1": "1600 CENTER AVENUE",
          "str2": null,
          "city": "BAY CITY",
          "state": 23,
          "stateSpecified": true,
          "cntry": "United States",
          "postlCd": "48707-0655"
        }
      ],
      "orgNm": "SII INVESTMENTS, INC.",
      "orgPK": "2225",
      "str1": "5555 W GRANDE MARKET DRIVE",
      "str2": null,
      "city": "APPLETON",
      "state": 50,
      "stateSpecified": true,
      "cntry": "United States",
      "postlCd": "54913-8403"
    }
  ],
  "Exms": [
    {
      "exmCd": 0,
      "exmNm": "Uniform Securities Agent State Law Examination",
      "exmDt": "1996-04-30T00:00:00",
      "exmDtSpecified": true
    },
    {
      "exmCd": 2,
      "exmNm": "Uniform Investment Adviser Law Examination",
      "exmDt": "1999-12-17T00:00:00",
      "exmDtSpecified": true
    }
  ],
  "Dsgntns": [],
  "PrevRgstns": [],
  "EmpHss": [
    {
      "fromDt": "08/1996",
      "toDt": null,
      "orgNm": "SII INVESTMENTS, INC.",
      "city": "MIDLAND",
      "state": 23,
      "stateSpecified": true
    }
  ],
  "OthrBuss": {
    "OthrBus": {
      "desc": "ASSURED FINANCIAL ADVISORS - SALE OF FIXED INSURANCE PRODUCTS AS A LICENSED INSURANCE AGENT."
    }
  },
  "DRPs": []
}