{
  "Info": {
    "lastNm": "HOHN",
    "firstNm": "JONATHAN",
    "midNm": "EDWARD",
    "sufNm": null,
    "indvlPK": "2738445",
    "actvAGReg": 0,
    "link": "http://www.adviserinfo.sec.gov/IAPD/Individual/2738445"
  },
  "OthrNms": [],
  "CrntEmps": [
    {
      "CrntRgstns": [
        {
          "regAuth": 45,
          "regCat": 0,
          "st": 2,
          "stDt": "2014-08-27T00:00:00"
        },
        {
          "regAuth": 3,
          "regCat": 0,
          "st": 2,
          "stDt": "2014-09-10T00:00:00"
        }
      ],
      "BrnchOfLocs": [
        {
          "str1": "14321 N. NORTHSIGHT BOULEVARD",
          "str2": null,
          "city": "SCOTTSDALE",
          "state": 3,
          "stateSpecified": true,
          "cntry": "United States",
          "postlCd": "85260"
        }
      ],
      "orgNm": "VANGUARD ADVISERS INC",
      "orgPK": "106715",
      "str1": "100 VANGUARD BLVD",
      "str2": "V26",
      "city": "MALVERN",
      "state": 39,
      "stateSpecified": true,
      "cntry": "United States",
      "postlCd": "19355"
    }
  ],
  "Exms": [
    {
      "exmCd": 2,
      "exmNm": "Uniform Investment Adviser Law Examination",
      "exmDt": "1998-09-02T00:00:00",
      "exmDtSpecified": true
    },
    {
      "exmCd": 0,
      "exmNm": "Uniform Securities Agent State Law Examination",
      "exmDt": "2014-10-22T00:00:00",
      "exmDtSpecified": true
    }
  ],
  "Dsgntns": [
    {
      "dsgntnNm": "Certified Financial Planner"
    }
  ],
  "PrevRgstns": [],
  "EmpHss": [
    {
      "fromDt": "01/2006",
      "toDt": "07/2014",
      "orgNm": "FIRSTMERIT PRIVATEBANK",
      "city": "FLINT",
      "state": 23,
      "stateSpecified": true
    },
    {
      "fromDt": "08/2014",
      "toDt": null,
      "orgNm": "THE VANGUARD GROUP, INC",
      "city": "SCOTTSDALE",
      "state": 3,
      "stateSpecified": true
    }
  ],
  "OthrBuss": {
    "OthrBus": {
      "desc": "EMPLOYEE OF THE VANGUARD GROUP, INC. (PARENT COMPANY OF VANGUARD MARKETING CORPORATION) 100 VANGUARD BLVD, MALVERN, PA 19355"
    }
  },
  "DRPs": []
}