{
  "Info": {
    "lastNm": "EMMERT",
    "firstNm": "MATHEW",
    "midNm": "SHANE",
    "sufNm": null,
    "indvlPK": "2738898",
    "actvAGReg": 1,
    "link": "http://www.adviserinfo.sec.gov/IAPD/Individual/2738898"
  },
  "OthrNms": [],
  "CrntEmps": [
    {
      "CrntRgstns": [
        {
          "regAuth": 42,
          "regCat": 0,
          "st": 2,
          "stDt": "2009-10-01T00:00:00"
        },
        {
          "regAuth": 45,
          "regCat": 0,
          "st": 3,
          "stDt": "2015-09-18T00:00:00"
        }
      ],
      "BrnchOfLocs": [
        {
          "str1": "701 E. BAY STREET",
          "str2": "SUITE 305",
          "city": "CHARLESTON",
          "state": 42,
          "stateSpecified": true,
          "cntry": "United States",
          "postlCd": "29403"
        }
      ],
      "orgNm": "GAMBIT SECURITIES, INC.",
      "orgPK": "149584",
      "str1": "701 E. BAY STREET",
      "str2": "SUITE 305",
      "city": "CHARLESTON",
      "state": 42,
      "stateSpecified": true,
      "cntry": "United States",
      "postlCd": "29403"
    },
    {
      "CrntRgstns": [
        {
          "regAuth": 42,
          "regCat": 0,
          "st": 2,
          "stDt": "2015-08-17T00:00:00"
        }
      ],
      "BrnchOfLocs": [
        {
          "str1": "701 E. BAY STREET",
          "str2": "SUITE 305",
          "city": "CHARLESTON",
          "state": 42,
          "stateSpecified": true,
          "cntry": "United States",
          "postlCd": "29403"
        }
      ],
      "orgNm": "JBJ INVESTMENT PARTNERS, LLC",
      "orgPK": "165294",
      "str1": "701 E. BAY STREET",
      "str2": "SUITE 305",
      "city": "CHARLESTON",
      "state": 42,
      "stateSpecified": true,
      "cntry": "United States",
      "postlCd": "29403"
    }
  ],
  "Exms": [
    {
      "exmCd": 2,
      "exmNm": "Uniform Investment Adviser Law Examination",
      "exmDt": "2009-07-13T00:00:00",
      "exmDtSpecified": true
    }
  ],
  "Dsgntns": [],
  "PrevRgstns": [
    {
      "BrnchOfLocs": [
        {
          "city": "CHARLESTON",
          "state": 42,
          "stateSpecified": true
        }
      ],
      "orgNm": "GAMBIT SECURITIES, INC.",
      "orgPK": "149584",
      "regBeginDt": "2009-10-01T00:00:00",
      "regBeginDtSpecified": true,
      "regEndDt": "2009-12-31T00:00:00",
      "regEndDtSpecified": true
    }
  ],
  "EmpHss": [
    {
      "fromDt": "02/2003",
      "toDt": "10/2006",
      "orgNm": "THE MOTLEY FOOL",
      "city": "ALEXANDRIA",
      "state": 47,
      "stateSpecified": true
    },
    {
      "fromDt": "10/2006",
      "toDt": "07/2011",
      "orgNm": "GAMBIT CAPITAL MANAGEMENT, INC.",
      "city": "MOUNT PLEASANT",
      "state": 42,
      "stateSpecified": true
    },
    {
      "fromDt": "04/2009",
      "toDt": null,
      "orgNm": "GAMBIT SECURITIES, INC",
      "city": "MOUNT PLEASANT",
      "state": 42,
      "stateSpecified": true
    },
    {
      "fromDt": "09/2014",
      "toDt": null,
      "orgNm": "JBJ INVESTMENT PARTNERS, LLC",
      "city": "MT. PLEASANT",
      "state": 42,
      "stateSpecified": true
    }
  ],
  "OthrBuss": {
    "OthrBus": {
      "desc": "MATHEW SHANE EMMERT A CO-OWNER OF JBJ INVESTMENT PARTNERS, LLC, A REGISTERED INVESTMENT ADVISER."
    }
  },
  "DRPs": []
}