{
  "Info": {
    "lastNm": "WU",
    "firstNm": "MICHAEL",
    "midNm": null,
    "sufNm": null,
    "indvlPK": "2740123",
    "actvAGReg": 0,
    "link": "http://www.adviserinfo.sec.gov/IAPD/Individual/2740123"
  },
  "OthrNms": [],
  "CrntEmps": [
    {
      "CrntRgstns": [
        {
          "regAuth": 9,
          "regCat": 0,
          "st": 2,
          "stDt": "2014-06-05T00:00:00"
        }
      ],
      "BrnchOfLocs": [
        {
          "str1": "17200 COMMERCE PARK BLVD",
          "str2": null,
          "city": "TAMPA",
          "state": 9,
          "stateSpecified": true,
          "cntry": "United States",
          "postlCd": "33647"
        }
      ],
      "orgNm": "USAA FINANCIAL PLANNING SERVICES",
      "orgPK": "106352",
      "str1": "9800 FREDERICKSBURG ROAD",
      "str2": null,
      "city": "SAN ANTONIO",
      "state": 45,
      "stateSpecified": true,
      "cntry": "United States",
      "postlCd": "78288-0227"
    }
  ],
  "Exms": [
    {
      "exmCd": 0,
      "exmNm": "Uniform Securities Agent State Law Examination",
      "exmDt": "1996-05-13T00:00:00",
      "exmDtSpecified": true
    },
    {
      "exmCd": 3,
      "exmNm": "Uniform Combined State Law Examination",
      "exmDt": "2003-06-10T00:00:00",
      "exmDtSpecified": true
    }
  ],
  "Dsgntns": [],
  "PrevRgstns": [
    {
      "BrnchOfLocs": [
        {
          "city": "TAMPA",
          "state": 9,
          "stateSpecified": true
        }
      ],
      "orgNm": "TD AMERITRADE, INC.",
      "orgPK": "7870",
      "regBeginDt": "2003-06-16T00:00:00",
      "regBeginDtSpecified": true,
      "regEndDt": "2005-08-26T00:00:00",
      "regEndDtSpecified": true
    },
    {
      "BrnchOfLocs": [
        {
          "city": "TAMPA",
          "state": 9,
          "stateSpecified": true
        }
      ],
      "orgNm": "MML INVESTORS SERVICES, LLC",
      "orgPK": "10409",
      "regBeginDt": "2007-08-24T00:00:00",
      "regBeginDtSpecified": true,
      "regEndDt": "2007-12-19T00:00:00",
      "regEndDtSpecified": true
    },
    {
      "BrnchOfLocs": [
        {
          "city": "TAMPA",
          "state": 9,
          "stateSpecified": true
        }
      ],
      "orgNm": "INDEPENDENT FINANCIAL PARTNERS",
      "orgPK": "125112",
      "regBeginDt": "2008-05-12T00:00:00",
      "regBeginDtSpecified": true,
      "regEndDt": "2008-08-07T00:00:00",
      "regEndDtSpecified": true
    },
    {
      "BrnchOfLocs": [
        {
          "city": "TAMPA",
          "state": 9,
          "stateSpecified": true
        }
      ],
      "orgNm": "TIAA-CREF INDIVIDUAL & INSTITUTIONAL SERVICES, LLC",
      "orgPK": "20472",
      "regBeginDt": "2008-08-27T00:00:00",
      "regBeginDtSpecified": true,
      "regEndDt": "2014-05-06T00:00:00",
      "regEndDtSpecified": true
    }
  ],
  "EmpHss": [
    {
      "fromDt": "08/2005",
      "toDt": "06/2008",
      "orgNm": "ASSOCIATED REAL ESTATE INVESTMENT GROUP",
      "city": "LUTZ",
      "state": 9,
      "stateSpecified": true
    },
    {
      "fromDt": "08/2007",
      "toDt": "12/2007",
      "orgNm": "MASSMUTUAL LIFE INSURANCE COMPANY",
      "city": "TAMPA",
      "state": 9,
      "stateSpecified": true
    },
    {
      "fromDt": "08/2007",
      "toDt": "12/2007",
      "orgNm": "MML INVESTORS SERVICES, INC",
      "city": "TAMPA",
      "state": 9,
      "stateSpecified": true
    },
    {
      "fromDt": "04/2008",
      "toDt": "07/2008",
      "orgNm": "INDEPENDENT FINANCIAL PARTNERS",
      "city": "TAMPA",
      "state": 9,
      "stateSpecified": true
    },
    {
      "fromDt": "04/2008",
      "toDt": "07/2008",
      "orgNm": "MUTUAL SERVICE CORPORATION",
      "city": "TAMPA",
      "state": 9,
      "stateSpecified": true
    },
    {
      "fromDt": "06/2008",
      "toDt": "07/2008",
      "orgNm": "ICMA RETIREMENT CORPORATION",
      "city": "TAMPA",
      "state": 9,
      "stateSpecified": true
    },
    {
      "fromDt": "07/2008",
      "toDt": "05/2014",
      "orgNm": "TIAA",
      "city": "TAMPA",
      "state": 9,
      "stateSpecified": true
    },
    {
      "fromDt": "07/2008",
      "toDt": "05/2014",
      "orgNm": "TIAA-CREF INDIVIDUAL & INSTITUTIONAL SERVICES, LLC",
      "city": "TAMPA",
      "state": 9,
      "stateSpecified": true
    },
    {
      "fromDt": "05/2014",
      "toDt": null,
      "orgNm": "USAA FINANCIAL ADVISORS, INC.",
      "city": "TAMPA",
      "state": 9,
      "stateSpecified": true
    },
    {
      "fromDt": "05/2014",
      "toDt": null,
      "orgNm": "USAA FINANCIAL PLANNING SERVICES",
      "city": "TAMPA",
      "state": 9,
      "stateSpecified": true
    }
  ],
  "OthrBuss": {
    "OthrBus": null
  },
  "DRPs": []
}