{
  "Info": {
    "lastNm": "CHOLANKERIL",
    "firstNm": "JOHN",
    "midNm": "VARGHESE",
    "sufNm": "JR",
    "indvlPK": "2743598",
    "actvAGReg": 0,
    "link": "http://www.adviserinfo.sec.gov/IAPD/Individual/2743598"
  },
  "OthrNms": [
    {
      "lastNm": "CHOLANKERIL",
      "firstNm": "JOHN",
      "midNm": "VARGHESE",
      "sufNm": null
    }
  ],
  "CrntEmps": [
    {
      "CrntRgstns": [
        {
          "regAuth": 32,
          "regCat": 0,
          "st": 2,
          "stDt": "2012-10-04T00:00:00"
        },
        {
          "regAuth": 45,
          "regCat": 0,
          "st": 3,
          "stDt": "2013-09-20T00:00:00"
        }
      ],
      "BrnchOfLocs": [
        {
          "str1": "279 MILLBURN AVE.",
          "str2": null,
          "city": "MILLBURN",
          "state": 32,
          "stateSpecified": true,
          "cntry": "United States",
          "postlCd": "07041"
        },
        {
          "str1": "281 MILLBURN AVE",
          "str2": null,
          "city": "MILLBURN",
          "state": 32,
          "stateSpecified": true,
          "cntry": "United States",
          "postlCd": "07041"
        }
      ],
      "orgNm": "J.P. MORGAN SECURITIES LLC",
      "orgPK": "79",
      "str1": "277 PARK AVENUE",
      "str2": null,
      "city": "NEW YORK",
      "state": 35,
      "stateSpecified": true,
      "cntry": "United States",
      "postlCd": "10172"
    }
  ],
  "Exms": [
    {
      "exmCd": 0,
      "exmNm": "Uniform Securities Agent State Law Examination",
      "exmDt": "1996-07-10T00:00:00",
      "exmDtSpecified": true
    },
    {
      "exmCd": 2,
      "exmNm": "Uniform Investment Adviser Law Examination",
      "exmDt": "1996-07-10T00:00:00",
      "exmDtSpecified": true
    }
  ],
  "Dsgntns": [],
  "PrevRgstns": [
    {
      "BrnchOfLocs": [
        {
          "city": "EDISON",
          "state": 32,
          "stateSpecified": true
        }
      ],
      "orgNm": "PRUDENTIAL EQUITY GROUP, LLC",
      "orgPK": "7471",
      "regBeginDt": "2002-07-02T00:00:00",
      "regBeginDtSpecified": true,
      "regEndDt": "2002-08-09T00:00:00",
      "regEndDtSpecified": true
    },
    {
      "BrnchOfLocs": [
        {
          "city": "WESTFIELD",
          "state": 32,
          "stateSpecified": true
        }
      ],
      "orgNm": "J.J.B. HILLIARD, W.L. LYONS, LLC",
      "orgPK": "453",
      "regBeginDt": "2003-06-11T00:00:00",
      "regBeginDtSpecified": true,
      "regEndDt": "2004-01-01T00:00:00",
      "regEndDtSpecified": true
    },
    {
      "BrnchOfLocs": [
        {
          "city": "BASKING RIDGE",
          "state": 32,
          "stateSpecified": true
        }
      ],
      "orgNm": "PNC INVESTMENTS",
      "orgPK": "129052",
      "regBeginDt": "2004-01-01T00:00:00",
      "regBeginDtSpecified": true,
      "regEndDt": "2005-01-12T00:00:00",
      "regEndDtSpecified": true
    },
    {
      "BrnchOfLocs": [
        {
          "city": "CHATHAM",
          "state": 32,
          "stateSpecified": true
        },
        {
          "city": "CHICAGO",
          "state": 15,
          "stateSpecified": true
        },
        {
          "city": "CRANFORD",
          "state": 32,
          "stateSpecified": true
        },
        {
          "city": "LIVINGSTON,",
          "state": 32,
          "stateSpecified": true
        },
        {
          "city": "MILLBURN",
          "state": 32,
          "stateSpecified": true
        },
        {
          "city": "MILLBURN",
          "state": 32,
          "stateSpecified": true
        },
        {
          "city": "SHORT HILLS",
          "state": 32,
          "stateSpecified": true
        },
        {
          "city": "SHORT HILLS",
          "state": 32,
          "stateSpecified": true
        },
        {
          "city": "SUMMIT",
          "state": 32,
          "stateSpecified": true
        },
        {
          "city": "WARREN",
          "state": 32,
          "stateSpecified": true
        },
        {
          "city": "WATCHUNG",
          "state": 32,
          "stateSpecified": true
        },
        {
          "city": "WESTFIELD",
          "state": 32,
          "stateSpecified": true
        },
        {
          "city": "WILMINGTON",
          "state": 8,
          "stateSpecified": true
        }
      ],
      "orgNm": "CHASE INVESTMENT SERVICES CORP.",
      "orgPK": "25574",
      "regBeginDt": "2005-02-18T00:00:00",
      "regBeginDtSpecified": true,
      "regEndDt": "2012-10-05T00:00:00",
      "regEndDtSpecified": true
    }
  ],
  "EmpHss": [
    {
      "fromDt": "02/2005",
      "toDt": "10/2012",
      "orgNm": "CHASE INVESTMENT SERVICES CORP",
      "city": "SHORT HILLS",
      "state": 32,
      "stateSpecified": true
    },
    {
      "fromDt": "10/2012",
      "toDt": null,
      "orgNm": "J.P. MORGAN SECURITIES LLC",
      "city": "WESTFIELD",
      "state": 32,
      "stateSpecified": true
    }
  ],
  "OthrBuss": {
    "OthrBus": {
      "desc": "RENTAL PROPERTY BAYONNES, NJ 07002  OWNER    RENTAL PROPERTY  CHADWICK BEACH, NJ   OWNER"
    }
  },
  "DRPs": [
    {
      "hasRegAction": 0,
      "hasRegActionSpecified": true,
      "hasCriminal": 1,
      "hasCriminalSpecified": true,
      "hasBankrupt": 1,
      "hasBankruptSpecified": true,
      "hasCivilJudc": 1,
      "hasCivilJudcSpecified": true,
      "hasBond": 1,
      "hasBondSpecified": true,
      "hasJudgment": 1,
      "hasJudgmentSpecified": true,
      "hasInvstgn": 1,
      "hasInvstgnSpecified": true,
      "hasCustComp": 0,
      "hasCustCompSpecified": true,
      "hasTermination": 0,
      "hasTerminationSpecified": true
    }
  ]
}