{
  "Info": {
    "lastNm": "SATISKY",
    "firstNm": "LOUIS",
    "midNm": "JULES",
    "sufNm": null,
    "indvlPK": "2752195",
    "actvAGReg": 0,
    "link": "http://www.adviserinfo.sec.gov/IAPD/Individual/2752195"
  },
  "OthrNms": [],
  "CrntEmps": [
    {
      "CrntRgstns": [
        {
          "regAuth": 9,
          "regCat": 0,
          "st": 2,
          "stDt": "1998-11-10T00:00:00"
        },
        {
          "regAuth": 45,
          "regCat": 0,
          "st": 2,
          "stDt": "2006-07-07T00:00:00"
        }
      ],
      "BrnchOfLocs": [
        {
          "str1": "121 ALHAMBRA PLAZA STE 150",
          "str2": "ALHAMBRA TOWER",
          "city": "CORAL GABLES",
          "state": 9,
          "stateSpecified": true,
          "cntry": "United States",
          "postlCd": "33134"
        }
      ],
      "orgNm": "STRATEGIC ADVISERS, INC.",
      "orgPK": "104555",
      "str1": "245 SUMMER STREET, V10G",
      "str2": null,
      "city": "BOSTON",
      "state": 20,
      "stateSpecified": true,
      "cntry": "United States",
      "postlCd": "02210"
    }
  ],
  "Exms": [
    {
      "exmCd": 0,
      "exmNm": "Uniform Securities Agent State Law Examination",
      "exmDt": "1997-02-03T00:00:00",
      "exmDtSpecified": true
    },
    {
      "exmCd": 3,
      "exmNm": "Uniform Combined State Law Examination",
      "exmDt": "2005-10-15T00:00:00",
      "exmDtSpecified": true
    }
  ],
  "Dsgntns": [],
  "PrevRgstns": [
    {
      "BrnchOfLocs": [
        {
          "city": "HOUSTON",
          "state": 45,
          "stateSpecified": true
        }
      ],
      "orgNm": "FIDELITY PERSONAL TRUST COMPANY, FSB",
      "orgPK": "109516",
      "regBeginDt": "2006-01-27T00:00:00",
      "regBeginDtSpecified": true,
      "regEndDt": "2007-03-28T00:00:00",
      "regEndDtSpecified": true
    }
  ],
  "EmpHss": [
    {
      "fromDt": "08/1998",
      "toDt": null,
      "orgNm": "FIDELITY BROKERAGE SERVICES, INC.",
      "city": "DALLAS",
      "state": 45,
      "stateSpecified": true
    }
  ],
  "OthrBuss": {
    "OthrBus": null
  },
  "DRPs": []
}