{
  "Info": {
    "lastNm": "LINDER",
    "firstNm": "MARK",
    "midNm": "WILLIAM",
    "sufNm": null,
    "indvlPK": "2754817",
    "actvAGReg": 0,
    "link": "http://www.adviserinfo.sec.gov/IAPD/Individual/2754817"
  },
  "OthrNms": [],
  "CrntEmps": [
    {
      "CrntRgstns": [
        {
          "regAuth": 29,
          "regCat": 0,
          "st": 2,
          "stDt": "2013-05-28T00:00:00"
        },
        {
          "regAuth": 50,
          "regCat": 0,
          "st": 2,
          "stDt": "2013-11-04T00:00:00"
        },
        {
          "regAuth": 24,
          "regCat": 0,
          "st": 2,
          "stDt": "2013-12-24T00:00:00"
        },
        {
          "regAuth": 9,
          "regCat": 0,
          "st": 2,
          "stDt": "2014-01-21T00:00:00"
        },
        {
          "regAuth": 4,
          "regCat": 0,
          "st": 2,
          "stDt": "2015-11-16T00:00:00"
        }
      ],
      "BrnchOfLocs": [
        {
          "str1": "124 4TH AVENUE NORTHEAST",
          "str2": null,
          "city": "HUTCHINSON",
          "state": 24,
          "stateSpecified": true,
          "cntry": "United States",
          "postlCd": "55350"
        }
      ],
      "orgNm": "SAGEPOINT FINANCIAL, INC.",
      "orgPK": "133763",
      "str1": "2800 NORTH CENTRAL AVENUE",
      "str2": "SUITE 2100",
      "city": "PHOENIX",
      "state": 3,
      "stateSpecified": true,
      "cntry": "United States",
      "postlCd": "85004"
    }
  ],
  "Exms": [
    {
      "exmCd": 0,
      "exmNm": "Uniform Securities Agent State Law Examination",
      "exmDt": "1996-06-13T00:00:00",
      "exmDtSpecified": true
    },
    {
      "exmCd": 2,
      "exmNm": "Uniform Investment Adviser Law Examination",
      "exmDt": "2013-05-01T00:00:00",
      "exmDtSpecified": true
    }
  ],
  "Dsgntns": [],
  "PrevRgstns": [],
  "EmpHss": [
    {
      "fromDt": "10/2002",
      "toDt": null,
      "orgNm": "AIG AMERICAN GENERAL LIFE INSURANCE COMPANY",
      "city": "HUTCHINSON",
      "state": 24,
      "stateSpecified": true
    },
    {
      "fromDt": "10/2002",
      "toDt": "10/2008",
      "orgNm": "AMERICAN GENERAL SECURITIES INCORPORATED",
      "city": "HUTCHINSON",
      "state": 24,
      "stateSpecified": true
    },
    {
      "fromDt": "10/2008",
      "toDt": "01/2009",
      "orgNm": "AIG FINANCIAL ADVISORS, INC.",
      "city": "HUTCHINSON",
      "state": 24,
      "stateSpecified": true
    },
    {
      "fromDt": "01/2009",
      "toDt": null,
      "orgNm": "INDEPENDANT SCHOOL DISTRICT 466",
      "city": "COKATO",
      "state": 24,
      "stateSpecified": true
    },
    {
      "fromDt": "01/2009",
      "toDt": null,
      "orgNm": "SAGEPOINT FINANCIAL, INC.",
      "city": "PHOENIX",
      "state": 3,
      "stateSpecified": true
    }
  ],
  "OthrBuss": {
    "OthrBus": {
      "desc": "1. D/B/A:  NAVIGATOR FINANCIAL GROUP, YES, 124 4TH AVENUE NE, HUTCHINSON, MN 55350, OWNER/AGENT, COMM. 7/2003, 10/0, INSURANCE SALES; INSURANCE:     2. LINDER &AMP; ASSOCIATES, YES, 124 4TH AVENUE, NE, HUTCHINSON, MN 55350, SOLE PROPRIETORSHIP, COMM. 2/1985, 20/0, OWNER/AGENT INSURANCE SALES; OTHER:      3. MARK W LINDER INC., NO, 124 4TH AVE. NE, HUTCHISON, MN 55350, LLC, COMM 02/2008, 5/5, OWNER, SHELL FOR INCOME PROCEED/HARD ASSETS OF NAVIGATOR FINANCIAL GRP VIA PERSONAL INCOME TO PAY BILLS; REAL ESTATE:      4. LINDER FARMS LLC, NO, 72772 COMMON ST., DASSEL, MN 55325, LLC, COMM. 07/07, 1/1, PARTNER, COLLECT RENT ON FARM LAND AND HOUSE; OTHER:      5. INDEPENDENT SCHOOL DIST. 466, NO, 4852 REARDON AVE. SW, COKATO, MN 55321, BOARD MEMBER, COMM 01/09, 10/3, SIT ON SCHOOL BOARD, MAKE DECISION FOR THE BENEFIT OF THE SCHOOL DISTRICT;    6.CORPORATE IAR, YES, 124 4TH AVE NE, HUTCHINSON, MN 55350, THIRD PARTY MONEY MANAGEMENT, CORPORATE IAR THROUGH SPF, FALL/2011, LESS THAN  5HRS/MONTH, LESS THAN 5HRS DT, THIRD PARTY MONEY MANAGEMENT."
    }
  },
  "DRPs": [
    {
      "hasRegAction": 1,
      "hasRegActionSpecified": true,
      "hasCriminal": 1,
      "hasCriminalSpecified": true,
      "hasBankrupt": 1,
      "hasBankruptSpecified": true,
      "hasCivilJudc": 1,
      "hasCivilJudcSpecified": true,
      "hasBond": 1,
      "hasBondSpecified": true,
      "hasJudgment": 1,
      "hasJudgmentSpecified": true,
      "hasInvstgn": 1,
      "hasInvstgnSpecified": true,
      "hasCustComp": 0,
      "hasCustCompSpecified": true,
      "hasTermination": 1,
      "hasTerminationSpecified": true
    }
  ]
}