{
  "Info": {
    "lastNm": "MEYERS",
    "firstNm": "DARREN",
    "midNm": "LYNN",
    "sufNm": null,
    "indvlPK": "2759619",
    "actvAGReg": 0,
    "link": "http://www.adviserinfo.sec.gov/IAPD/Individual/2759619"
  },
  "OthrNms": [],
  "CrntEmps": [
    {
      "CrntRgstns": [
        {
          "regAuth": 39,
          "regCat": 0,
          "st": 2,
          "stDt": "2004-01-01T00:00:00"
        }
      ],
      "BrnchOfLocs": [
        {
          "str1": "PITTSBURGH MAIN PNC INVESTMENTS",
          "str2": "300 FIFTH AVENUE, 26TH FLOOR",
          "city": "PITTSBURGH",
          "state": 39,
          "stateSpecified": true,
          "cntry": "United States",
          "postlCd": "15222"
        }
      ],
      "orgNm": "PNC INVESTMENTS",
      "orgPK": "129052",
      "str1": "300 FIFTH AVENUE",
      "str2": "26TH FLOOR",
      "city": "PITTSBURGH",
      "state": 39,
      "stateSpecified": true,
      "cntry": "United States",
      "postlCd": "15222-2722"
    }
  ],
  "Exms": [
    {
      "exmCd": 3,
      "exmNm": "Uniform Combined State Law Examination",
      "exmDt": "1998-08-10T00:00:00",
      "exmDtSpecified": true
    }
  ],
  "Dsgntns": [],
  "PrevRgstns": [
    {
      "BrnchOfLocs": [
        {
          "city": "PITTSBURGH",
          "state": 39,
          "stateSpecified": true
        }
      ],
      "orgNm": "J.J.B. HILLIARD, W.L. LYONS, LLC",
      "orgPK": "453",
      "regBeginDt": "2003-08-11T00:00:00",
      "regBeginDtSpecified": true,
      "regEndDt": "2004-01-01T00:00:00",
      "regEndDtSpecified": true
    }
  ],
  "EmpHss": [
    {
      "fromDt": "01/2004",
      "toDt": null,
      "orgNm": "PNC INVESTMENTS",
      "city": "PITTSBURGH",
      "state": 39,
      "stateSpecified": true
    },
    {
      "fromDt": "07/2007",
      "toDt": null,
      "orgNm": "PNC INVESTMENTS",
      "city": "PITTSBURGH",
      "state": 39,
      "stateSpecified": true
    }
  ],
  "OthrBuss": {
    "OthrBus": null
  },
  "DRPs": []
}