{
  "Info": {
    "lastNm": "MAGER",
    "firstNm": "MARK",
    "midNm": "RANDALL",
    "sufNm": null,
    "indvlPK": "2760688",
    "actvAGReg": 0,
    "link": "http://www.adviserinfo.sec.gov/IAPD/Individual/2760688"
  },
  "OthrNms": [],
  "CrntEmps": [
    {
      "CrntRgstns": [
        {
          "regAuth": 49,
          "regCat": 0,
          "st": 2,
          "stDt": "2005-08-25T00:00:00"
        }
      ],
      "BrnchOfLocs": [
        {
          "str1": "1601 COOPER POINT RD. NW",
          "str2": null,
          "city": "OLYMPIA",
          "state": 49,
          "stateSpecified": true,
          "cntry": "United States",
          "postlCd": "98502"
        },
        {
          "str1": "2948 OLYMPIC HWY NORTH",
          "str2": null,
          "city": "SHELTON",
          "state": 49,
          "stateSpecified": true,
          "cntry": "United States",
          "postlCd": "98584"
        },
        {
          "str1": "320 E DALBY RD. - STE A",
          "str2": null,
          "city": "UNION",
          "state": 49,
          "stateSpecified": true,
          "cntry": "United States",
          "postlCd": "98591"
        },
        {
          "str1": "OUR COMMUNITY FEDERAL CU",
          "str2": "211 EAST PIONEER AVE. - SUITE B",
          "city": "MONTESANO",
          "state": 49,
          "stateSpecified": true,
          "cntry": "United States",
          "postlCd": "98563"
        },
        {
          "str1": "OUR COMMUNITY FEDERAL CU",
          "str2": "306 S 7TH ST",
          "city": "ELMA",
          "state": 49,
          "stateSpecified": true,
          "cntry": "United States",
          "postlCd": "98541"
        },
        {
          "str1": "OUR COMMUNITY FEDERAL CU",
          "str2": "424 W SIMPSON AVE",
          "city": "MCCLEARY",
          "state": 49,
          "stateSpecified": true,
          "cntry": "United States",
          "postlCd": "98557"
        },
        {
          "str1": "OUR COMMUNITY FEDERAL CU",
          "str2": "526 W CEDAR",
          "city": "SHELTON",
          "state": 49,
          "stateSpecified": true,
          "cntry": "United States",
          "postlCd": "98584"
        }
      ],
      "orgNm": "LPL FINANCIAL LLC",
      "orgPK": "6413",
      "str1": "75 STATE STREET, 22ND FLOOR",
      "str2": null,
      "city": "BOSTON",
      "state": 20,
      "stateSpecified": true,
      "cntry": "United States",
      "postlCd": "02109"
    }
  ],
  "Exms": [
    {
      "exmCd": 0,
      "exmNm": "Uniform Securities Agent State Law Examination",
      "exmDt": "1996-07-24T00:00:00",
      "exmDtSpecified": true
    },
    {
      "exmCd": 2,
      "exmNm": "Uniform Investment Adviser Law Examination",
      "exmDt": "2005-08-03T00:00:00",
      "exmDtSpecified": true
    }
  ],
  "Dsgntns": [],
  "PrevRgstns": [
    {
      "BrnchOfLocs": [
        {
          "city": "SEATTLE",
          "state": 49,
          "stateSpecified": true
        }
      ],
      "orgNm": "DIVERSIFIED FINANCIAL ADVISORS",
      "orgPK": "112840",
      "regBeginDt": "2006-11-15T00:00:00",
      "regBeginDtSpecified": true,
      "regEndDt": "2010-05-14T00:00:00",
      "regEndDtSpecified": true
    },
    {
      "BrnchOfLocs": [
        {
          "city": "OLYMPIA",
          "state": 49,
          "stateSpecified": true
        }
      ],
      "orgNm": "FINANCIAL ADVOCATES ADVISORY SERVICES",
      "orgPK": "147786",
      "regBeginDt": "2008-10-01T00:00:00",
      "regBeginDtSpecified": true,
      "regEndDt": "2011-03-31T00:00:00",
      "regEndDtSpecified": true
    }
  ],
  "EmpHss": [
    {
      "fromDt": "02/2004",
      "toDt": null,
      "orgNm": "LINSCO/PRIVATE LEDGER CORP.",
      "city": "SHELTON",
      "state": 49,
      "stateSpecified": true
    }
  ],
  "OthrBuss": {
    "OthrBus": {
      "desc": "1. 3/29/2004 - FINANCIAL ADVOCATES, INC. - INVESTMENT RELATED - AT REPORTED BUSINESS LOCATION(S) - NON-VARIABLE INSURANCE.     2. 12/8/2008 - COMMUNITY FINANCIAL CENTER - INVESTMENT RELATED - AT REPORTED BUSINESS LOCATION(S) - DBA FOR LPL BUSINESS (ENTITY FOR LPL BUSINESS).      3. 2/6/2012 - UPCOAST WEALTH - INVESTMENT RELATED - AT REPORTED BUSINESS LOCATION(S) - DBA FOR LPL BUSINESS (ENTITY FOR LPL BUSINESS).    4. 4/22/2014 - THE COMMUNITY FOUNDATION - NOT INVESTMENT RELATED - COMMUNITY, CIVIC AND CHARITABLE BOARD - TIME SPENT 1% - COMMITTEE MEMBER FOR THE COMMUNITY FOUNDATION SERVING ON THE FINANCE AND INVESTMENT COMMITTEE. TITLE=COMMITTEE MEMBER, DUTIES=SERVING ON THE COMMITTEE, EVALUATING INVESTMENT MANAGERS, POTENTIAL GIFTS AND FINANCIAL STATEMENTS, ETC. AUTHORITY=NONE.    5. 7/12/2015 - OUR COMMUNITY CREDIT UNION - NOT INVESTMENT RELATED - 526 W CEDAR ST, SHELTON, WA 98584 - FOR-PROFIT BOARD MEMBER - START DATE 08/01/2015 - 6 HOURS PER MONTH/0 HOURS DURING SECURITIES TRADING - BOARD POSITION FOR OUR COMMUNITY CREDIT UNION. THERE ARE 7 BOARD MEMBERS, MAJORITY VOTE IS REQUIRED, THIS IS NOT A PUBLIC COMPANY, NO CAPITAL IS BEING RAISED, NOT PROVIDING INVESTMENT ADVICE TO THE BOARD."
    }
  },
  "DRPs": []
}