{
  "Info": {
    "lastNm": "GETZ",
    "firstNm": "JAMES",
    "midNm": "FRANCIS",
    "sufNm": "JR",
    "indvlPK": "2761481",
    "actvAGReg": 0,
    "link": "http://www.adviserinfo.sec.gov/IAPD/Individual/2761481"
  },
  "OthrNms": [
    {
      "lastNm": "GETZ",
      "firstNm": "JAMES",
      "midNm": "FRANCIS",
      "sufNm": null
    }
  ],
  "CrntEmps": [
    {
      "CrntRgstns": [
        {
          "regAuth": 39,
          "regCat": 0,
          "st": 2,
          "stDt": "2006-05-22T00:00:00"
        },
        {
          "regAuth": 40,
          "regCat": 0,
          "st": 2,
          "stDt": "2008-01-02T00:00:00"
        }
      ],
      "BrnchOfLocs": [
        {
          "str1": "1001 LIBERTY AVE",
          "str2": "FEDERATED INVESTORS TOWER",
          "city": "PITTSBURGH",
          "state": 39,
          "stateSpecified": true,
          "cntry": "United States",
          "postlCd": "15222-3779"
        }
      ],
      "orgNm": "FEDERATED INVESTMENT COUNSELING",
      "orgPK": "105325",
      "str1": "FEDERATED INVESTORS TOWER",
      "str2": "1001 LIBERTY AVENUE",
      "city": "PITTSBURGH",
      "state": 39,
      "stateSpecified": true,
      "cntry": "United States",
      "postlCd": "15222-3779"
    },
    {
      "CrntRgstns": [
        {
          "regAuth": 40,
          "regCat": 0,
          "st": 2,
          "stDt": "2010-05-12T00:00:00"
        }
      ],
      "BrnchOfLocs": [
        {
          "str1": "101 PARK AVENUE",
          "str2": "SUITE 4100",
          "city": "NEW YORK",
          "state": 35,
          "stateSpecified": true,
          "cntry": "United States",
          "postlCd": "10178-0002"
        }
      ],
      "orgNm": "FEDERATED GLOBAL INVESTMENT MANAGEMENT CORP.",
      "orgPK": "106277",
      "str1": "101 PARK AVENUE",
      "str2": "SUITE 4100",
      "city": "NEW YORK",
      "state": 35,
      "stateSpecified": true,
      "cntry": "United States",
      "postlCd": "10178-0002"
    },
    {
      "CrntRgstns": [
        {
          "regAuth": 20,
          "regCat": 0,
          "st": 2,
          "stDt": "2010-05-12T00:00:00"
        },
        {
          "regAuth": 40,
          "regCat": 0,
          "st": 2,
          "stDt": "2010-05-12T00:00:00"
        }
      ],
      "BrnchOfLocs": [
        {
          "str1": "OLIVER STREET TOWER",
          "str2": "125 HIGH ST, 21ST FLOOR",
          "city": "BOSTON",
          "state": 20,
          "stateSpecified": true,
          "cntry": "United States",
          "postlCd": "02110"
        }
      ],
      "orgNm": "MDT ADVISERS, A DIVISION OF FEDERATED MDTA LLC",
      "orgPK": "109355",
      "str1": "125 HIGH STREET",
      "str2": "OLIVER STREET TOWER, 21ST FLOOR",
      "city": "BOSTON",
      "state": 20,
      "stateSpecified": true,
      "cntry": "United States",
      "postlCd": "02110"
    },
    {
      "CrntRgstns": [
        {
          "regAuth": 39,
          "regCat": 0,
          "st": 2,
          "stDt": "2009-11-11T00:00:00"
        }
      ],
      "BrnchOfLocs": [
        {
          "str1": null,
          "str2": null,
          "city": "JACKSONVILLE",
          "state": 9,
          "stateSpecified": true,
          "cntry": "United States",
          "postlCd": null
        },
        {
          "str1": "FEDERATED INVESTORS TOWER",
          "str2": "1001 LIBERTY AVENUE",
          "city": "PITTSBURGH",
          "state": 39,
          "stateSpecified": true,
          "cntry": "United States",
          "postlCd": "15222-3779"
        }
      ],
      "orgNm": "FEDERATED SECURITIES CORP.",
      "orgPK": "5009",
      "str1": "FEDERATED INVESTORS TOWER",
      "str2": "1001 LIBERTY AVENUE",
      "city": "PITTSBURGH",
      "state": 39,
      "stateSpecified": true,
      "cntry": "United States",
      "postlCd": "15222-3779"
    }
  ],
  "Exms": [
    {
      "exmCd": 0,
      "exmNm": "Uniform Securities Agent State Law Examination",
      "exmDt": "1996-07-10T00:00:00",
      "exmDtSpecified": true
    },
    {
      "exmCd": 3,
      "exmNm": "Uniform Combined State Law Examination",
      "exmDt": "2006-05-19T00:00:00",
      "exmDtSpecified": true
    }
  ],
  "Dsgntns": [],
  "PrevRgstns": [],
  "EmpHss": [
    {
      "fromDt": "06/1996",
      "toDt": null,
      "orgNm": "FEDERATED INVESTORS INC",
      "city": "PITTSBURGH",
      "state": 39,
      "stateSpecified": true
    },
    {
      "fromDt": "06/1996",
      "toDt": null,
      "orgNm": "FEDERATED SECURITIES CORP.",
      "city": "PITTSBURGH",
      "state": 39,
      "stateSpecified": true
    },
    {
      "fromDt": "05/2006",
      "toDt": null,
      "orgNm": "FEDERATED INVESTMENT COUNSELING",
      "city": "PITTSBURGH",
      "state": 39,
      "stateSpecified": true
    },
    {
      "fromDt": "03/2010",
      "toDt": null,
      "orgNm": "FEDERATED GLOBAL INVESTMENT MANAGEMENT CORP",
      "city": "NEW YORK",
      "state": 35,
      "stateSpecified": true
    },
    {
      "fromDt": "03/2010",
      "toDt": null,
      "orgNm": "MDT ADVISERS, A DIVISION OF FEDERATED MDTA LLC",
      "city": "BOSTON",
      "state": 20,
      "stateSpecified": true
    }
  ],
  "OthrBuss": {
    "OthrBus": null
  },
  "DRPs": []
}