{
  "Info": {
    "lastNm": "SULLIVAN",
    "firstNm": "AMY",
    "midNm": "LYNN",
    "sufNm": null,
    "indvlPK": "2762297",
    "actvAGReg": 0,
    "link": "http://www.adviserinfo.sec.gov/IAPD/Individual/2762297"
  },
  "OthrNms": [
    {
      "lastNm": "DOCKWEILER",
      "firstNm": "AMY",
      "midNm": "L",
      "sufNm": null
    },
    {
      "lastNm": "DOCKWEILER",
      "firstNm": "AMY",
      "midNm": "LYNN",
      "sufNm": null
    }
  ],
  "CrntEmps": [
    {
      "CrntRgstns": [
        {
          "regAuth": 15,
          "regCat": 0,
          "st": 2,
          "stDt": "2014-03-04T00:00:00"
        },
        {
          "regAuth": 4,
          "regCat": 0,
          "st": 2,
          "stDt": "2014-05-16T00:00:00"
        }
      ],
      "BrnchOfLocs": [
        {
          "str1": "330 MADISON AVENUE",
          "str2": "10TH FLOOR",
          "city": "NEW YORK",
          "state": 35,
          "stateSpecified": true,
          "cntry": "United States",
          "postlCd": "10017"
        }
      ],
      "orgNm": "GUGGENHEIM INVESTMENTS",
      "orgPK": "105477",
      "str1": "330 MADISON AVENUE",
      "str2": "10TH FLOOR",
      "city": "NEW YORK",
      "state": 35,
      "stateSpecified": true,
      "cntry": "United States",
      "postlCd": "10017"
    }
  ],
  "Exms": [
    {
      "exmCd": 0,
      "exmNm": "Uniform Securities Agent State Law Examination",
      "exmDt": "1997-06-03T00:00:00",
      "exmDtSpecified": true
    },
    {
      "exmCd": 2,
      "exmNm": "Uniform Investment Adviser Law Examination",
      "exmDt": "2001-05-15T00:00:00",
      "exmDtSpecified": true
    }
  ],
  "Dsgntns": [],
  "PrevRgstns": [
    {
      "BrnchOfLocs": [
        {
          "city": "CHICAGO",
          "state": 15,
          "stateSpecified": true
        },
        {
          "city": "LISLE",
          "state": 15,
          "stateSpecified": true
        }
      ],
      "orgNm": "GUGGENHEIM INVESTMENTS",
      "orgPK": "129288",
      "regBeginDt": "2003-12-02T00:00:00",
      "regBeginDtSpecified": true,
      "regEndDt": "2008-11-04T00:00:00",
      "regEndDtSpecified": true
    }
  ],
  "EmpHss": [
    {
      "fromDt": "11/2001",
      "toDt": null,
      "orgNm": "CLAYMORE SECURITIES, INC.",
      "city": "LISLE",
      "state": 15,
      "stateSpecified": true
    }
  ],
  "OthrBuss": {
    "OthrBus": null
  },
  "DRPs": []
}