{
  "Info": {
    "lastNm": "BAKER",
    "firstNm": "TRACEY",
    "midNm": "ALBERTSON",
    "sufNm": null,
    "indvlPK": "2763899",
    "actvAGReg": 1,
    "link": "http://www.adviserinfo.sec.gov/IAPD/Individual/2763899"
  },
  "OthrNms": [
    {
      "lastNm": "ALBERTSON",
      "firstNm": "TRACEY",
      "midNm": "ANN",
      "sufNm": null
    },
    {
      "lastNm": "BAKER",
      "firstNm": "TRACEY",
      "midNm": null,
      "sufNm": null
    },
    {
      "lastNm": "BAKER",
      "firstNm": "TRACY",
      "midNm": "ALBERTSON",
      "sufNm": null
    }
  ],
  "CrntEmps": [
    {
      "CrntRgstns": [
        {
          "regAuth": 47,
          "regCat": 0,
          "st": 2,
          "stDt": "1999-08-03T00:00:00"
        },
        {
          "regAuth": 19,
          "regCat": 0,
          "st": 2,
          "stDt": "2011-05-05T00:00:00"
        }
      ],
      "BrnchOfLocs": [
        {
          "str1": "11320 RANDOM HILLS ROAD",
          "str2": "SUITE 250",
          "city": "FAIRFAX",
          "state": 47,
          "stateSpecified": true,
          "cntry": "United States",
          "postlCd": "22030"
        }
      ],
      "orgNm": "CJM WEALTH ADVISERS, LTD.",
      "orgPK": "107750",
      "str1": "11320 RANDOM HILLS ROAD",
      "str2": "SUITE 250",
      "city": "FAIRFAX",
      "state": 47,
      "stateSpecified": true,
      "cntry": "United States",
      "postlCd": "22030-7478"
    }
  ],
  "Exms": [
    {
      "exmCd": 0,
      "exmNm": "Uniform Securities Agent State Law Examination",
      "exmDt": "1996-11-11T00:00:00",
      "exmDtSpecified": true
    },
    {
      "exmCd": 2,
      "exmNm": "Uniform Investment Adviser Law Examination",
      "exmDt": "1999-07-14T00:00:00",
      "exmDtSpecified": true
    }
  ],
  "Dsgntns": [
    {
      "dsgntnNm": "Certified Financial Planner"
    }
  ],
  "PrevRgstns": [],
  "EmpHss": [
    {
      "fromDt": "01/1999",
      "toDt": null,
      "orgNm": "CJM WEALTH ADVISERS, LTD.",
      "city": "FAIRFAX",
      "state": 47,
      "stateSpecified": true
    },
    {
      "fromDt": "01/1999",
      "toDt": "03/2011",
      "orgNm": "FINANCIAL NETWORK INVESTMENT CORPORATION",
      "city": "FAIRFAX",
      "state": 47,
      "stateSpecified": true
    }
  ],
  "OthrBuss": {
    "OthrBus": {
      "desc": "1. RIA REPRESENTATIVE/CFP - CJM WEALTH ADVISERS, LTD, 2. PRESIDENT - FPA OF NATION'S CAPITAL.  3. BOARD MEMBER - VICENNA YOUTH LACROSSE.  4. PLANNED GIVING ADVISORY BOARD MEMBER - INOVA HOSPITAL FOUNDATION."
    }
  },
  "DRPs": []
}