{
  "Info": {
    "lastNm": "MCMORROW",
    "firstNm": "PETER",
    "midNm": "J",
    "sufNm": null,
    "indvlPK": "2769983",
    "actvAGReg": 0,
    "link": "http://www.adviserinfo.sec.gov/IAPD/Individual/2769983"
  },
  "OthrNms": [
    {
      "lastNm": "MCMORROW",
      "firstNm": "PETER",
      "midNm": "JAMES",
      "sufNm": null
    },
    {
      "lastNm": "MCMORROW",
      "firstNm": "PETER",
      "midNm": "TAMES",
      "sufNm": null
    }
  ],
  "CrntEmps": [
    {
      "CrntRgstns": [
        {
          "regAuth": 17,
          "regCat": 0,
          "st": 2,
          "stDt": "2011-07-01T00:00:00"
        }
      ],
      "BrnchOfLocs": [
        {
          "str1": "6300 LAMAR AVENUE",
          "str2": null,
          "city": "OVERLAND PARK",
          "state": 17,
          "stateSpecified": true,
          "cntry": "United States",
          "postlCd": "66202-4200"
        }
      ],
      "orgNm": "WADDELL & REED",
      "orgPK": "866",
      "str1": "6300 LAMAR AVENUE",
      "str2": null,
      "city": "OVERLAND PARK",
      "state": 17,
      "stateSpecified": true,
      "cntry": "United States",
      "postlCd": "66202-4200"
    }
  ],
  "Exms": [
    {
      "exmCd": 0,
      "exmNm": "Uniform Securities Agent State Law Examination",
      "exmDt": "1997-03-13T00:00:00",
      "exmDtSpecified": true
    },
    {
      "exmCd": 3,
      "exmNm": "Uniform Combined State Law Examination",
      "exmDt": "2004-09-28T00:00:00",
      "exmDtSpecified": true
    }
  ],
  "Dsgntns": [],
  "PrevRgstns": [
    {
      "BrnchOfLocs": [
        {
          "city": "BOSTON",
          "state": 20,
          "stateSpecified": true
        }
      ],
      "orgNm": "PIONEER INVESTMENT MANAGEMENT, INC.",
      "orgPK": "107719",
      "regBeginDt": "2004-09-29T00:00:00",
      "regBeginDtSpecified": true,
      "regEndDt": "2006-04-20T00:00:00",
      "regEndDtSpecified": true
    },
    {
      "BrnchOfLocs": [
        {
          "city": "BOSTON",
          "state": 20,
          "stateSpecified": true
        }
      ],
      "orgNm": "PIONEER INSTITUTIONAL ASSET MANAGEMENT, INC.",
      "orgPK": "138756",
      "regBeginDt": "2006-04-20T00:00:00",
      "regBeginDtSpecified": true,
      "regEndDt": "2011-06-14T00:00:00",
      "regEndDtSpecified": true
    }
  ],
  "EmpHss": [
    {
      "fromDt": "10/1998",
      "toDt": "05/2011",
      "orgNm": "PIONEER FUNDS DISTRIBUTOR",
      "city": "BOSTON",
      "state": 20,
      "stateSpecified": true
    },
    {
      "fromDt": "10/1998",
      "toDt": "05/2011",
      "orgNm": "PIONEER FUNDS DISTRIBUTOR, INC.",
      "city": "BOSTON",
      "state": 20,
      "stateSpecified": true
    },
    {
      "fromDt": "04/2006",
      "toDt": "05/2011",
      "orgNm": "PIONEER INSTITUTIONAL ASSET MANAGEMENT, INC.",
      "city": "BOSTON",
      "state": 20,
      "stateSpecified": true
    },
    {
      "fromDt": "06/2011",
      "toDt": null,
      "orgNm": "IVY FUNDS DISTRIBUTOR, INC.",
      "city": "OVERLAND PARK",
      "state": 17,
      "stateSpecified": true
    },
    {
      "fromDt": "06/2011",
      "toDt": null,
      "orgNm": "WADDELL & REED, INC.",
      "city": "OVERLAND PARK",
      "state": 17,
      "stateSpecified": true
    }
  ],
  "OthrBuss": {
    "OthrBus": {
      "desc": "IVY FUNDS DISTRIBUTOR, INC. 6300 LAMAR, OVERLAND PARK, KS 66202. EMPLOYMENT START DATE IS 6/1/2011 AND TITLE IS EXTERNAL WHOLESALER. POSITION IS INVESTMENT-RELATED. IVY FUNDS AND WADDELL & REED ARE UNDER COMMON OWNERSHIP. # OF HOURS PER MONTH: 140. # OF HOURS PER DAY: 7"
    }
  },
  "DRPs": []
}