{
  "Info": {
    "lastNm": "COTA",
    "firstNm": "STEPHEN",
    "midNm": "MICHAEL",
    "sufNm": null,
    "indvlPK": "2776037",
    "actvAGReg": 0,
    "link": "http://www.adviserinfo.sec.gov/IAPD/Individual/2776037"
  },
  "OthrNms": [
    {
      "lastNm": "COTA",
      "firstNm": "STEVE",
      "midNm": "MICHAEL",
      "sufNm": null
    }
  ],
  "CrntEmps": [
    {
      "CrntRgstns": [
        {
          "regAuth": 4,
          "regCat": 0,
          "st": 2,
          "stDt": "2008-08-05T00:00:00"
        },
        {
          "regAuth": 45,
          "regCat": 0,
          "st": 3,
          "stDt": "2015-09-08T00:00:00"
        }
      ],
      "BrnchOfLocs": [
        {
          "str1": "1350 ROSECRANS ST 2ND FL",
          "str2": "SUITE 201",
          "city": "SAN DIEGO",
          "state": 4,
          "stateSpecified": true,
          "cntry": "United States",
          "postlCd": "92106-2636"
        }
      ],
      "orgNm": "LPL FINANCIAL LLC",
      "orgPK": "6413",
      "str1": "75 STATE STREET, 22ND FLOOR",
      "str2": null,
      "city": "BOSTON",
      "state": 20,
      "stateSpecified": true,
      "cntry": "United States",
      "postlCd": "02109"
    }
  ],
  "Exms": [
    {
      "exmCd": 0,
      "exmNm": "Uniform Securities Agent State Law Examination",
      "exmDt": "1996-08-09T00:00:00",
      "exmDtSpecified": true
    }
  ],
  "Dsgntns": [],
  "PrevRgstns": [
    {
      "BrnchOfLocs": [
        {
          "city": "SAN DIEGO",
          "state": 4,
          "stateSpecified": true
        }
      ],
      "orgNm": "MORGAN STANLEY DW INC.",
      "orgPK": "7556",
      "regBeginDt": "1998-08-24T00:00:00",
      "regBeginDtSpecified": true,
      "regEndDt": "2004-02-09T00:00:00",
      "regEndDtSpecified": true
    },
    {
      "BrnchOfLocs": [
        {
          "city": "POWAY",
          "state": 4,
          "stateSpecified": true
        },
        {
          "city": "SAN DIEGO",
          "state": 4,
          "stateSpecified": true
        },
        {
          "city": "SAN DIEGO",
          "state": 4,
          "stateSpecified": true
        },
        {
          "city": "SAN DIEGO",
          "state": 4,
          "stateSpecified": true
        }
      ],
      "orgNm": "WAMU INVESTMENTS, INC.",
      "orgPK": "599",
      "regBeginDt": "2006-02-21T00:00:00",
      "regBeginDtSpecified": true,
      "regEndDt": "2008-08-06T00:00:00",
      "regEndDtSpecified": true
    }
  ],
  "EmpHss": [
    {
      "fromDt": "02/2004",
      "toDt": "08/2008",
      "orgNm": "WM FINANCIAL SERVICES, INC.",
      "city": "SAN DIEGO",
      "state": 4,
      "stateSpecified": true
    },
    {
      "fromDt": "07/2008",
      "toDt": null,
      "orgNm": "LPL FINANCIAL",
      "city": "SAN DIEGO",
      "state": 4,
      "stateSpecified": true
    }
  ],
  "OthrBuss": {
    "OthrBus": {
      "desc": "1. 6/11/2010: NON-VARIABLE INSURANCE - LIFE INSURANCE BUSINESS. - INVESTMENT RELATED - TIME SPENT 5% - SAN DIEGO, CA.   2. 2/23/2011: NON-VARIABLE INSURANCE DBA - RELIANCE FINANCIAL SERVICES - TIME SPENT 5% - SAN DIEGO, CA."
    }
  },
  "DRPs": []
}