{
  "Info": {
    "lastNm": "CAROLLO",
    "firstNm": "GINO",
    "midNm": null,
    "sufNm": null,
    "indvlPK": "2778128",
    "actvAGReg": 0,
    "link": "http://www.adviserinfo.sec.gov/IAPD/Individual/2778128"
  },
  "OthrNms": [],
  "CrntEmps": [
    {
      "CrntRgstns": [
        {
          "regAuth": 4,
          "regCat": 0,
          "st": 2,
          "stDt": "2012-11-29T00:00:00"
        }
      ],
      "BrnchOfLocs": [
        {
          "str1": "CITIBANK",
          "str2": "1125 OLD COUNTRY ROAD, SUITE 1",
          "city": "PLAINVIEW",
          "state": 35,
          "stateSpecified": true,
          "cntry": "United States",
          "postlCd": "11803"
        },
        {
          "str1": "CITIBANK",
          "str2": "1125 OLD COUNTRY ROAD, SUITE 4",
          "city": "PLAINVIEW",
          "state": 35,
          "stateSpecified": true,
          "cntry": "United States",
          "postlCd": "11803"
        },
        {
          "str1": "CITIBANK",
          "str2": "1353 NORTHERN BLVD",
          "city": "MANHASSET",
          "state": 35,
          "stateSpecified": true,
          "cntry": "United States",
          "postlCd": "11030"
        }
      ],
      "orgNm": "CITIGROUP GLOBAL MARKETS INC.",
      "orgPK": "7059",
      "str1": "153 EAST 53RD STREET",
      "str2": null,
      "city": "NEW YORK",
      "state": 35,
      "stateSpecified": true,
      "cntry": "United States",
      "postlCd": "10022"
    }
  ],
  "Exms": [
    {
      "exmCd": 0,
      "exmNm": "Uniform Securities Agent State Law Examination",
      "exmDt": "1996-09-16T00:00:00",
      "exmDtSpecified": true
    },
    {
      "exmCd": 2,
      "exmNm": "Uniform Investment Adviser Law Examination",
      "exmDt": "2002-01-05T00:00:00",
      "exmDtSpecified": true
    }
  ],
  "Dsgntns": [],
  "PrevRgstns": [
    {
      "BrnchOfLocs": [
        {
          "city": "NEW YORK",
          "state": 35,
          "stateSpecified": true
        }
      ],
      "orgNm": "MORGAN STANLEY DW INC.",
      "orgPK": "7556",
      "regBeginDt": "2002-08-12T00:00:00",
      "regBeginDtSpecified": true,
      "regEndDt": "2004-04-14T00:00:00",
      "regEndDtSpecified": true
    },
    {
      "BrnchOfLocs": [
        {
          "city": "BROOKLYN",
          "state": 35,
          "stateSpecified": true
        },
        {
          "city": "BROOKLYN",
          "state": 35,
          "stateSpecified": true
        },
        {
          "city": "MANHASSET",
          "state": 35,
          "stateSpecified": true
        },
        {
          "city": "OYSTER BAY",
          "state": 35,
          "stateSpecified": true
        },
        {
          "city": "PORT WASHINGTON",
          "state": 35,
          "stateSpecified": true
        }
      ],
      "orgNm": "HSBC SECURITIES (USA) INC.",
      "orgPK": "19585",
      "regBeginDt": "2006-06-21T00:00:00",
      "regBeginDtSpecified": true,
      "regEndDt": "2012-10-08T00:00:00",
      "regEndDtSpecified": true
    }
  ],
  "EmpHss": [
    {
      "fromDt": "04/2004",
      "toDt": "09/2012",
      "orgNm": "HSBC BANK USA",
      "city": "BROOKLYN",
      "state": 35,
      "stateSpecified": true
    },
    {
      "fromDt": "01/2005",
      "toDt": "09/2012",
      "orgNm": "HSBC SECURITIES (USA) INC.",
      "city": "NEW YORK CITY",
      "state": 35,
      "stateSpecified": true
    },
    {
      "fromDt": "09/2012",
      "toDt": null,
      "orgNm": "CITIBANK GLOBAL MARKETS",
      "city": "NEW YORK",
      "state": 35,
      "stateSpecified": true
    }
  ],
  "OthrBuss": {
    "OthrBus": null
  },
  "DRPs": [
    {
      "hasRegAction": 1,
      "hasRegActionSpecified": true,
      "hasCriminal": 1,
      "hasCriminalSpecified": true,
      "hasBankrupt": 1,
      "hasBankruptSpecified": true,
      "hasCivilJudc": 1,
      "hasCivilJudcSpecified": true,
      "hasBond": 1,
      "hasBondSpecified": true,
      "hasJudgment": 1,
      "hasJudgmentSpecified": true,
      "hasInvstgn": 1,
      "hasInvstgnSpecified": true,
      "hasCustComp": 0,
      "hasCustCompSpecified": true,
      "hasTermination": 1,
      "hasTerminationSpecified": true
    }
  ]
}