{
  "Info": {
    "lastNm": "DEFRANCO",
    "firstNm": "ANTHONY",
    "midNm": null,
    "sufNm": "JR",
    "indvlPK": "2778030",
    "actvAGReg": 0,
    "link": "http://www.adviserinfo.sec.gov/IAPD/Individual/2778030"
  },
  "OthrNms": [
    {
      "lastNm": "DEFRANCO",
      "firstNm": "ANTHONY",
      "midNm": "JR",
      "sufNm": null
    }
  ],
  "CrntEmps": [
    {
      "CrntRgstns": [
        {
          "regAuth": 32,
          "regCat": 0,
          "st": 2,
          "stDt": "2002-07-02T00:00:00"
        }
      ],
      "BrnchOfLocs": [
        {
          "str1": "15 VILLAGE PLAZA",
          "str2": null,
          "city": "SOUTH ORANGE",
          "state": 32,
          "stateSpecified": true,
          "cntry": "United States",
          "postlCd": "07079"
        }
      ],
      "orgNm": "H.D. VEST ADVISORY SERVICES, INC",
      "orgPK": "104556",
      "str1": "6333 NORTH STATE HIGHWAY 161",
      "str2": "4TH FLOOR",
      "city": "IRVING",
      "state": 45,
      "stateSpecified": true,
      "cntry": "United States",
      "postlCd": "75038"
    }
  ],
  "Exms": [
    {
      "exmCd": 0,
      "exmNm": "Uniform Securities Agent State Law Examination",
      "exmDt": "1998-09-29T00:00:00",
      "exmDtSpecified": true
    }
  ],
  "Dsgntns": [],
  "PrevRgstns": [],
  "EmpHss": [
    {
      "fromDt": "07/1992",
      "toDt": null,
      "orgNm": "COUTO, DEFRANCO & MAGONE, P.A.",
      "city": "SOUTH ORANGE",
      "state": 32,
      "stateSpecified": true
    },
    {
      "fromDt": "07/1996",
      "toDt": null,
      "orgNm": "H.D. VEST INVESTMENT SERVICES",
      "city": "WEST ORANGE",
      "state": 32,
      "stateSpecified": true
    },
    {
      "fromDt": "01/1997",
      "toDt": null,
      "orgNm": "H.D.  VEST ADVISORY SERVICES",
      "city": "SOUTH ORANGE",
      "state": 32,
      "stateSpecified": true
    }
  ],
  "OthrBuss": {
    "OthrBus": {
      "desc": "ANTHONY DEFRANCO JR~'NIR'~19 SPEIR DRIVE~~SOUTH ORANGE~NJ~07079~RENTAL PROPERTY OWNER/MANAGEMENT~OWNER/SOLE PROPRIETER~5/2005~4HRS~0HRS~ COLLECTING RENT.~~ANTHONY DEFRANCO,JR./OWN~'NIR'~300 EXECUTIVE DRIVE~~WEST ORANGE~NJ~07052~INDEPENDENT INSURANCE AGENT~INSURANCE SALES AGENT~5/2005~8HRS~0HRS~REVIEWING, ANALYZING INSURANCE POLICIES AND RECOMMENDING  AND IMPLEMENTING INSURANCE POLICIES.~~COUTO DEFRANCO, PA~'NIR'~300 EXECUTIVE DRIVE~~WEST ORANGE~NJ~07052~TAX PREPARATION/ACCOUNTING~TAX PREPARATION/ACCOUNTING~7/1992~160HRS~0HRS~ PREPARING, REVIEWING TAX RETURNS.~~ORANGE/WEST ORANGE UNICO~'NIR'~P.O. BOX 7106~~WEST ORANGE~NJ~07052~CLUB/ASSOCIATION DIRECTOR/OFFICER~MEMBER OF THE BOARD OF DIRECTORS~7/2008~4HRS~0HRS~BUS. CAT: CHARITABLE ORGANIZATION  POSITION: BOARD MEMBER/FUNDRAISING~~ORANGE/WEST ORANGE UNICO FOUND~'NIR'~P.O. BOX 7106~~WEST ORANGE~NJ~07052~OTHER~MEMBER OF THE BOARD OF DIRECTORS~7/2008~1HRS~0HRS~BOARD MEETING, POLICY DECISIONS, SIMILAR TO BEING A BOARD DIRECTOR, I AM ON THE BOARD OF TRUSTEES.  NO INVESTMENTS OR INSURANCE~~ROTARY CLUB OF SOUTH ORANGE~'NIR'~P.O. BOX 311~~SOUTH ORANGE~NJ~07079~ACCOUNTING/BOOKKEEPING (NO TAX PREPARATION)~TREASURER/COMPTROLLER~1/2007~4HRS~0HRS~DEPOSITING CHECKS, PAYING BILLS, RECONCILING CHECKBOOK.~~ROTARY CLUB OF SOUTH ORANGE NT~'NIR'~P.O. BOX 311~~SOUTH ORANGE~NY~07079~ACCOUNTING/BOOKKEEPING (NO TAX PREPARATION)~TREASURER/COMPTROLLER~1/2007~4HRS~0HRS~PAYING BILLS, WRITING CHECKS, COLLECTING FUNDS, MAKING DEPOSITS, TEAR AND ACCOUNTING.~~SOUTH ORANGE CHAMBER OF COMMER~'NIR'~76 SOUTH ORANGE AVE.~~SOUTH ORANGE~NJ~07079~TAX PREPARATION/ACCOUNTING~TREASURER/COMPTROLLER~1/2007~4HRS~0HRS~PAYING BILLS, WRITING CHECKS, COLLECTING FUNDS, MAKING DEPOSITS, TEAR AND ACCOUNTING AND TAX PREP~~TRUSTEE, SUPRIA A. HOLZER IRRE~'NIR'~36 HUNT PLACE~~RYE~NY~10580~OTHER~OTHER~11/2009~1HRS~0HRS~NO MONEY MANAGEMENT. PAY BILLS, DEPOSIT FUNDS.~~TWO FAMILY HOUSE RENTAL~'NIR'~40 CONCORD PLACE~~UNION~NJ~07083~RENTAL PROPERTY OWNER/MANAGEMENT~OWNER/SOLE PROPRIETER~1/1995~1HRS~0HRS~COLLECT RENT DEPOSIT RENT"
    }
  },
  "DRPs": []
}