{
  "Info": {
    "lastNm": "MEEHAN",
    "firstNm": "DANIEL",
    "midNm": "F",
    "sufNm": null,
    "indvlPK": "2780908",
    "actvAGReg": 0,
    "link": "http://www.adviserinfo.sec.gov/IAPD/Individual/2780908"
  },
  "OthrNms": [
    {
      "lastNm": "MEEHAN",
      "firstNm": "DAN",
      "midNm": null,
      "sufNm": null
    },
    {
      "lastNm": "MEEHAN",
      "firstNm": "DANIEL",
      "midNm": "FRANCIS",
      "sufNm": null
    }
  ],
  "CrntEmps": [
    {
      "CrntRgstns": [
        {
          "regAuth": 25,
          "regCat": 0,
          "st": 2,
          "stDt": "2014-05-30T00:00:00"
        }
      ],
      "BrnchOfLocs": [
        {
          "str1": "ONE NORTH JEFFERSON AVENUE",
          "str2": "MAIL CODE: H0004-050",
          "city": "ST. LOUIS",
          "state": 25,
          "stateSpecified": true,
          "cntry": "UNITED STATES",
          "postlCd": "63103"
        }
      ],
      "orgNm": "WELLS FARGO ADVISORS, LLC",
      "orgPK": "19616",
      "str1": "ONE NORTH JEFFERSON AVENUE",
      "str2": "MAIL CODE: H0004-050",
      "city": "ST. LOUIS",
      "state": 25,
      "stateSpecified": true,
      "cntry": "United States",
      "postlCd": "63103-2205"
    }
  ],
  "Exms": [
    {
      "exmCd": 0,
      "exmNm": "Uniform Securities Agent State Law Examination",
      "exmDt": "1996-11-20T00:00:00",
      "exmDtSpecified": true
    },
    {
      "exmCd": 2,
      "exmNm": "Uniform Investment Adviser Law Examination",
      "exmDt": "2014-03-29T00:00:00",
      "exmDtSpecified": true
    }
  ],
  "Dsgntns": [],
  "PrevRgstns": [],
  "EmpHss": [
    {
      "fromDt": "11/2005",
      "toDt": "05/2009",
      "orgNm": "WACHOVIA SECURITIES, LLC",
      "city": "RICHMOND",
      "state": 47,
      "stateSpecified": true
    },
    {
      "fromDt": "05/2009",
      "toDt": null,
      "orgNm": "WELLS FARGO ADVISORS LLC",
      "city": "SAINT LOUIS",
      "state": 25,
      "stateSpecified": true
    }
  ],
  "OthrBuss": {
    "OthrBus": null
  },
  "DRPs": []
}