{
  "Info": {
    "lastNm": "YI",
    "firstNm": "MICHAEL",
    "midNm": "JOON SUNG",
    "sufNm": null,
    "indvlPK": "2783820",
    "actvAGReg": 0,
    "link": "http://www.adviserinfo.sec.gov/IAPD/Individual/2783820"
  },
  "OthrNms": [
    {
      "lastNm": "YI",
      "firstNm": "JOON",
      "midNm": null,
      "sufNm": null
    },
    {
      "lastNm": "YI",
      "firstNm": "JOON",
      "midNm": "SUNG MICHAEL",
      "sufNm": null
    },
    {
      "lastNm": "YI",
      "firstNm": "JOONSUNG",
      "midNm": "MICHAEL",
      "sufNm": null
    }
  ],
  "CrntEmps": [
    {
      "CrntRgstns": [
        {
          "regAuth": 4,
          "regCat": 0,
          "st": 2,
          "stDt": "2016-02-08T00:00:00"
        },
        {
          "regAuth": 14,
          "regCat": 0,
          "st": 2,
          "stDt": "2016-02-08T00:00:00"
        },
        {
          "regAuth": 10,
          "regCat": 0,
          "st": 2,
          "stDt": "2016-02-09T00:00:00"
        },
        {
          "regAuth": 49,
          "regCat": 0,
          "st": 2,
          "stDt": "2016-02-11T00:00:00"
        },
        {
          "regAuth": 34,
          "regCat": 0,
          "st": 2,
          "stDt": "2016-02-17T00:00:00"
        },
        {
          "regAuth": 17,
          "regCat": 0,
          "st": 2,
          "stDt": "2016-02-19T00:00:00"
        },
        {
          "regAuth": 0,
          "regCat": 0,
          "st": 2,
          "stDt": "2016-03-21T00:00:00"
        }
      ],
      "BrnchOfLocs": [
        {
          "str1": "6300 LAMAR AVENUE",
          "str2": null,
          "city": "OVERLAND PARK",
          "state": 17,
          "stateSpecified": true,
          "cntry": "United States",
          "postlCd": "66202-4200"
        }
      ],
      "orgNm": "WADDELL & REED",
      "orgPK": "866",
      "str1": "6300 LAMAR AVENUE",
      "str2": null,
      "city": "OVERLAND PARK",
      "state": 17,
      "stateSpecified": true,
      "cntry": "United States",
      "postlCd": "66202-4200"
    }
  ],
  "Exms": [
    {
      "exmCd": 0,
      "exmNm": "Uniform Securities Agent State Law Examination",
      "exmDt": "1996-10-18T00:00:00",
      "exmDtSpecified": true
    },
    {
      "exmCd": 2,
      "exmNm": "Uniform Investment Adviser Law Examination",
      "exmDt": "2001-07-25T00:00:00",
      "exmDtSpecified": true
    }
  ],
  "Dsgntns": [],
  "PrevRgstns": [
    {
      "BrnchOfLocs": [
        {
          "city": "ATLANTA",
          "state": 10,
          "stateSpecified": true
        },
        {
          "city": "DUNWOODY",
          "state": 10,
          "stateSpecified": true
        }
      ],
      "orgNm": "AMERIPRISE ADVISOR SERVICES, INC.",
      "orgPK": "5979",
      "regBeginDt": "2004-04-07T00:00:00",
      "regBeginDtSpecified": true,
      "regEndDt": "2007-06-06T00:00:00",
      "regEndDtSpecified": true
    },
    {
      "BrnchOfLocs": [
        {
          "city": "ATLANTA",
          "state": 10,
          "stateSpecified": true
        }
      ],
      "orgNm": "SUNTRUST INVESTMENT SERVICES, INC.",
      "orgPK": "17499",
      "regBeginDt": "2008-07-30T00:00:00",
      "regBeginDtSpecified": true,
      "regEndDt": "2008-08-20T00:00:00",
      "regEndDtSpecified": true
    },
    {
      "BrnchOfLocs": [
        {
          "city": "ATLANTA",
          "state": 10,
          "stateSpecified": true
        }
      ],
      "orgNm": "RIDGEWORTH CAPITAL MANAGEMENT LLC",
      "orgPK": "107346",
      "regBeginDt": "2008-09-17T00:00:00",
      "regBeginDtSpecified": true,
      "regEndDt": "2016-01-07T00:00:00",
      "regEndDtSpecified": true
    }
  ],
  "EmpHss": [
    {
      "fromDt": "04/2004",
      "toDt": "06/2007",
      "orgNm": "H&R BLOCK FINANCIAL ADVISORS, INC.",
      "city": "DUNWOODY",
      "state": 10,
      "stateSpecified": true
    },
    {
      "fromDt": "06/2007",
      "toDt": "07/2008",
      "orgNm": "JOHN HANCOCK DISTRIBUTORS LLC",
      "city": "ATLANTA",
      "state": 10,
      "stateSpecified": true
    },
    {
      "fromDt": "07/2008",
      "toDt": "01/2016",
      "orgNm": "RIDGEWORTH CAPITAL MANAGEMENT",
      "city": "ATLANTA",
      "state": 10,
      "stateSpecified": true
    },
    {
      "fromDt": "07/2008",
      "toDt": "08/2008",
      "orgNm": "SUNTRUST INVESTMENT SERVICES, INC",
      "city": "ATLANTA",
      "state": 10,
      "stateSpecified": true
    },
    {
      "fromDt": "08/2008",
      "toDt": "01/2016",
      "orgNm": "RIDGEWORTH DISTRIBUTORS LLC",
      "city": "ATLANTA",
      "state": 10,
      "stateSpecified": true
    },
    {
      "fromDt": "01/2016",
      "toDt": null,
      "orgNm": "IVY FUNDS DISTRIBUTOR INC",
      "city": "OVERLAND PARK",
      "state": 17,
      "stateSpecified": true
    },
    {
      "fromDt": "01/2016",
      "toDt": null,
      "orgNm": "WADDELL & REED INC",
      "city": "OVERLAND PARK",
      "state": 17,
      "stateSpecified": true
    }
  ],
  "OthrBuss": {
    "OthrBus": {
      "desc": "01/2016-PRESENT,IVY FUNDS DISTRIBUTOR, INC.,6300 LAMAR AVE,OVERLAND PARK,KS,66202,INVESTMENT RELATED - YES, TITLE -DCIO WHOLESALER, NATURE OF BUSINESS - BROKER/DEALER, IVY FUNDS DISTRIBUTOR, INC. AND WADDELL & REED ARE UNDER COMMON OWNERSHIP, HOURS DEVOTED TO BUSINESS PER MONTH - 150.0, HOURS DEVOTED TO BUSINESS DURING SEC TRADING HOURS DAILY - 7.0."
    }
  },
  "DRPs": []
}