{
  "Info": {
    "lastNm": "KIRKPATRICK",
    "firstNm": "JERRY",
    "midNm": "LEE",
    "sufNm": null,
    "indvlPK": "2785743",
    "actvAGReg": 0,
    "link": "http://www.adviserinfo.sec.gov/IAPD/Individual/2785743"
  },
  "OthrNms": [],
  "CrntEmps": [
    {
      "CrntRgstns": [
        {
          "regAuth": 13,
          "regCat": 0,
          "st": 2,
          "stDt": "2009-12-04T00:00:00"
        }
      ],
      "BrnchOfLocs": [
        {
          "str1": "101 W. VAN BUREN",
          "str2": null,
          "city": "CENTERVILLE",
          "state": 13,
          "stateSpecified": true,
          "cntry": "United States",
          "postlCd": "52544"
        }
      ],
      "orgNm": "HONKAMP KRUEGER FINANCIAL SERVICES INC",
      "orgPK": "106237",
      "str1": "3390 ASBURY ROAD",
      "str2": null,
      "city": "DUBUQUE",
      "state": 13,
      "stateSpecified": true,
      "cntry": "United States",
      "postlCd": "52002-2801"
    }
  ],
  "Exms": [
    {
      "exmCd": 0,
      "exmNm": "Uniform Securities Agent State Law Examination",
      "exmDt": "1996-09-05T00:00:00",
      "exmDtSpecified": true
    },
    {
      "exmCd": 2,
      "exmNm": "Uniform Investment Adviser Law Examination",
      "exmDt": "2007-01-18T00:00:00",
      "exmDtSpecified": true
    }
  ],
  "Dsgntns": [],
  "PrevRgstns": [
    {
      "BrnchOfLocs": [
        {
          "city": "CENTERVILLE",
          "state": 13,
          "stateSpecified": true
        }
      ],
      "orgNm": "H.D. VEST ADVISORY SERVICES, INC",
      "orgPK": "104556",
      "regBeginDt": "2007-06-06T00:00:00",
      "regBeginDtSpecified": true,
      "regEndDt": "2009-12-10T00:00:00",
      "regEndDtSpecified": true
    }
  ],
  "EmpHss": [
    {
      "fromDt": "01/1982",
      "toDt": null,
      "orgNm": "TD&T CPAS AND ADVISORS, P.C.",
      "city": "CENTERVILLE",
      "state": 13,
      "stateSpecified": true
    },
    {
      "fromDt": "01/1982",
      "toDt": null,
      "orgNm": "TD&T FINANCIAL GROUP",
      "city": "CENTERVILLE",
      "state": 13,
      "stateSpecified": true
    },
    {
      "fromDt": "09/1999",
      "toDt": "12/2007",
      "orgNm": "H.D. VEST INVESTMENT SECURITIES, INC.",
      "city": "CENTERVILLE",
      "state": 13,
      "stateSpecified": true
    },
    {
      "fromDt": "06/2007",
      "toDt": "12/2009",
      "orgNm": "H.D. VEST ADVISORY SERVICES, INC.",
      "city": "CENTERVILLE",
      "state": 13,
      "stateSpecified": true
    },
    {
      "fromDt": "12/2009",
      "toDt": null,
      "orgNm": "HONKAMP KRUEGER FINANCIAL SERVICES, INC.",
      "city": "DUBUQUE",
      "state": 13,
      "stateSpecified": true
    },
    {
      "fromDt": "12/2009",
      "toDt": null,
      "orgNm": "PROEQUITIES, INC",
      "city": "CENTERVILLE",
      "state": 36,
      "stateSpecified": true
    }
  ],
  "OthrBuss": {
    "OthrBus": {
      "desc": "ACCOUNTING - TAX POSITION: PARTNER - CPA NATURE: ACCOUNTING/TAX INVESTMENT RELATED: NO HOURS: 174 INVESTMENT RELATED HOURS: 8 START DATE: 01/01/1982  ADDRESS: 101 WEST VAN BUREN, CENTERVILLE IA 52544  DESCRIPTION: CLIENT SERVICES PARTNER - TAX ACCOUNTING    COMMERCIAL REAL ESTATE  POSITION: PARTNER NATURE: REAL ESTATE RENTAL INVESTMENT RELATED: NO HOURS: 1 INVESTMENT RELATED HOURS: 1 START DATE: 01/01/2010  ADDRESS: 101 WEST VAN BUREN, CENTERVILLE IA 52544  DESCRIPTION: PARTNER ONLY    FARMER  POSITION: PARTNER NATURE: FARM INVESTMENT RELATED: NO HOURS: 1 INVESTMENT RELATED HOURS: 1 START DATE: 04/01/1993  ADDRESS: 24270 560TH STREET, CENTERVILLE IA 52544  DESCRIPTION: MANAGE FARM AND KEEP RECORDS    FOUNDATION  POSITION: BOARD MEMBER NATURE: FOUNDATION INVESTMENT RELATED: NO HOURS: 1 INVESTMENT RELATED HOURS: 1 START DATE: 10/01/2005  ADDRESS: 525 GRANDVIEW AVE, OTTUMWA IA 52501  DESCRIPTION: BOARD MEMBER    NON PROFIT  POSITION: BOARD MEMBER - TREASURER NATURE: INDUSTRIAL CORPORATION INVESTMENT RELATED: NO HOURS: 5 INVESTMENT RELATED HOURS: 5 START DATE: 01/01/2001  ADDRESS: 101 WEST VAN BUREN, CENTERVILLE IA 52544  DESCRIPTION: BOARD MEMBER    NON-PROFIT  POSITION: BOARD MEMBER - TREASURER NATURE: UNITED WAY INVESTMENT RELATED: NO HOURS: 1 INVESTMENT RELATED HOURS: 1 START DATE: 01/01/2005  ADDRESS: 101 WEST VAN BUREN, CENTERVILLE IA 52544  DESCRIPTION: BOARD MEMBER    RENTAL REAL ESTATE  POSITION: OWNER - LANDLORD NATURE: REAL ESTATE RENTAL INVESTMENT RELATED: NO HOURS: 5 INVESTMENT RELATED HOURS: 5 START DATE: 02/01/2010  ADDRESS: 1426 OAKLAWN AVE, IOWA CITY IA 52522  DESCRIPTION: OWN COMMERCIAL AND RESIDENTAIL REAL ESTATE. MANAGE PROPERTY    SAVAGE INVESTMENT CLUB  POSITION: PARTNER NATURE: INVESTMENT CLUB INVESTMENT RELATED: NO HOURS: 1 INVESTMENT RELATED HOURS: 1 START DATE: 01/01/1996  ADDRESS: 101 WEST VAN BUREN, CENTERVILLE IA 52544  DESCRIPTION: PARTNER    INDIAN HILLS COMMUNITY COLLEGE  POSITION: BOARD MEMBER NATURE: COLLEGE INVESTMENT RELATED: NO NUMBER OF HOURS: 3 INVESTMENT RELATED HOURS: 1 START DATE: 07/01/2014  ADDRESS: 525 GRANDVIEW AVE, OTTUMWA IA 52544  DESCRIPTION: ATTEND BOARD MEETINGSAPPROVE COLLEGE POLICYAPPROVE MONTHLY ACCOUNTS PAYABLEACT AS A RESOURCE TO THE PRESIDENT AND OTHER EXECUTIVES OF THE COLLEGE    TD&T CPAS AND ADVISORS, P.C.  POSITION: PARTNER - CPA NATURE: ACCOUNTING/TAX INVESTMENT RELATED: NO NUMBER OF HOURS: 174 INVESTMENT RELATED HOURS: 8 START DATE: 01/01/1982  ADDRESS: 101 WEST VAN BUREN, CENTERVILLE IA 52544  DESCRIPTION: CLIENT SERVICES PARTNER - TAX ACCOUNTING    TD&T REAL ESTATE GROUP LLC  POSITION: MEMBER NATURE: REAL ESTATE RENTAL INVESTMENT RELATED: NO NUMBER OF HOURS: 1 INVESTMENT RELATED HOURS: 1 START DATE: 09/26/2014  ADDRESS: 317 HIGH AVENUE EAST, OSKALOOSA IA 52577  DESCRIPTION: MEMBER OF LLCCOMMERICAL OFFICE BUILDINGS"
    }
  },
  "DRPs": []
}