{
  "Info": {
    "lastNm": "HONE",
    "firstNm": "DAVID",
    "midNm": "FRANCIS",
    "sufNm": null,
    "indvlPK": "2785735",
    "actvAGReg": 0,
    "link": "http://www.adviserinfo.sec.gov/IAPD/Individual/2785735"
  },
  "OthrNms": [],
  "CrntEmps": [
    {
      "CrntRgstns": [
        {
          "regAuth": 15,
          "regCat": 0,
          "st": 2,
          "stDt": "2011-07-25T00:00:00"
        }
      ],
      "BrnchOfLocs": [
        {
          "str1": "222 W ADAMS ST",
          "str2": null,
          "city": "CHICAGO",
          "state": 15,
          "stateSpecified": true,
          "cntry": "United States",
          "postlCd": "60606"
        },
        {
          "str1": "222 W. ADAMS",
          "str2": null,
          "city": "CHICAGO",
          "state": 15,
          "stateSpecified": true,
          "cntry": "United States",
          "postlCd": "60606"
        },
        {
          "str1": "222 WEST ADAMS ST",
          "str2": null,
          "city": "CHICAGO",
          "state": 15,
          "stateSpecified": true,
          "cntry": "UNITED STATES",
          "postlCd": "60606-5312"
        }
      ],
      "orgNm": "WILLIAM BLAIR",
      "orgPK": "1252",
      "str1": "222 W ADAMS ST",
      "str2": null,
      "city": "CHICAGO",
      "state": 15,
      "stateSpecified": true,
      "cntry": "United States",
      "postlCd": "60606"
    }
  ],
  "Exms": [
    {
      "exmCd": 0,
      "exmNm": "Uniform Securities Agent State Law Examination",
      "exmDt": "2011-08-29T00:00:00",
      "exmDtSpecified": true
    }
  ],
  "Dsgntns": [
    {
      "dsgntnNm": "Chartered Financial Analyst"
    }
  ],
  "PrevRgstns": [],
  "EmpHss": [
    {
      "fromDt": "06/1999",
      "toDt": "08/2010",
      "orgNm": "DEUTSCHE BANK SECURITIES INC.",
      "city": "NEW YORK",
      "state": 35,
      "stateSpecified": true
    },
    {
      "fromDt": "09/2010",
      "toDt": "06/2011",
      "orgNm": "LCV ADVISORS LLC",
      "city": "DARIEN",
      "state": 6,
      "stateSpecified": true
    },
    {
      "fromDt": "07/2011",
      "toDt": null,
      "orgNm": "WILLIAM BLAIR & COMPANY",
      "city": "CHICAGO",
      "state": 15,
      "stateSpecified": true
    }
  ],
  "OthrBuss": {
    "OthrBus": null
  },
  "DRPs": []
}