{
  "Info": {
    "lastNm": "BERNA",
    "firstNm": "WAYNE",
    "midNm": "MICHAEL",
    "sufNm": "MR.",
    "indvlPK": "2788280",
    "actvAGReg": 0,
    "link": "http://www.adviserinfo.sec.gov/IAPD/Individual/2788280"
  },
  "OthrNms": [
    {
      "lastNm": "BERNA",
      "firstNm": "WAYNE",
      "midNm": "MICHAEL",
      "sufNm": null
    },
    {
      "lastNm": "BERNA",
      "firstNm": "WAYNE",
      "midNm": "MICHAEL",
      "sufNm": null
    }
  ],
  "CrntEmps": [
    {
      "CrntRgstns": [
        {
          "regAuth": 9,
          "regCat": 0,
          "st": 2,
          "stDt": "2013-10-16T00:00:00"
        }
      ],
      "BrnchOfLocs": [
        {
          "str1": "245 RIVERSIDE AVE",
          "str2": "SUITE 100",
          "city": "JACKSONVILLE",
          "state": 9,
          "stateSpecified": true,
          "cntry": "United States",
          "postlCd": "32202"
        }
      ],
      "orgNm": "NORTHWESTERN MUTUAL INVESTMENT SERVICES, LLC",
      "orgPK": "2881",
      "str1": "611 EAST WISCONSIN AVE",
      "str2": null,
      "city": "MILWAUKEE",
      "state": 50,
      "stateSpecified": true,
      "cntry": "United States",
      "postlCd": "53202-4797"
    }
  ],
  "Exms": [
    {
      "exmCd": 0,
      "exmNm": "Uniform Securities Agent State Law Examination",
      "exmDt": "1996-09-26T00:00:00",
      "exmDtSpecified": true
    },
    {
      "exmCd": 2,
      "exmNm": "Uniform Investment Adviser Law Examination",
      "exmDt": "2008-06-27T00:00:00",
      "exmDtSpecified": true
    }
  ],
  "Dsgntns": [],
  "PrevRgstns": [
    {
      "BrnchOfLocs": [
        {
          "city": "HOLLIS",
          "state": 31,
          "stateSpecified": true
        },
        {
          "city": "MANCHESTER",
          "state": 31,
          "stateSpecified": true
        },
        {
          "city": "MILWAUKEE",
          "state": 50,
          "stateSpecified": true
        },
        {
          "city": "ST AUGUSTINE",
          "state": 9,
          "stateSpecified": true
        }
      ],
      "orgNm": "NORTHWESTERN MUTUAL INVESTMENT SERVICES, LLC",
      "orgPK": "2881",
      "regBeginDt": "2008-07-10T00:00:00",
      "regBeginDtSpecified": true,
      "regEndDt": "2013-09-10T00:00:00",
      "regEndDtSpecified": true
    }
  ],
  "EmpHss": [
    {
      "fromDt": "12/2002",
      "toDt": "02/2008",
      "orgNm": "JOHN HANCOCK",
      "city": "BOSTON",
      "state": 20,
      "stateSpecified": true
    },
    {
      "fromDt": "01/2005",
      "toDt": "02/2008",
      "orgNm": "JOHN HANCOCK DISTRIBUTORS LLC",
      "city": "BOSTON",
      "state": 20,
      "stateSpecified": true
    },
    {
      "fromDt": "03/2008",
      "toDt": "07/2013",
      "orgNm": "NORTHWESTERN MUTUAL INVESTMENT SERVICES, LLC",
      "city": "MANCHESTER",
      "state": 31,
      "stateSpecified": true
    },
    {
      "fromDt": "03/2008",
      "toDt": "07/2013",
      "orgNm": "SCOTT CHRISTENSEN",
      "city": "MANCHESTER",
      "state": 31,
      "stateSpecified": true
    },
    {
      "fromDt": "09/2012",
      "toDt": "07/2013",
      "orgNm": "SCOTT CHRISTENSEN",
      "city": "MANCHESTER",
      "state": 31,
      "stateSpecified": true
    },
    {
      "fromDt": "07/2013",
      "toDt": "08/2013",
      "orgNm": "NORTHWESTERN MUTUAL INVESTMENT SERVICES, LLC",
      "city": "MILWAUKEE",
      "state": 50,
      "stateSpecified": true
    },
    {
      "fromDt": "09/2013",
      "toDt": null,
      "orgNm": "NORTHWESTERN MUTUAL INVESTMENT SERVICES, LLC",
      "city": "JACKSONVILLE",
      "state": 9,
      "stateSpecified": true
    },
    {
      "fromDt": "09/2013",
      "toDt": "09/2014",
      "orgNm": "WILLIAM S. KOCH",
      "city": "JACKSONVILLE",
      "state": 9,
      "stateSpecified": true
    },
    {
      "fromDt": "09/2014",
      "toDt": null,
      "orgNm": "NORTHWESTERN MUTUAL LIFE INSURANCE CO",
      "city": "MILWAUKEE",
      "state": 50,
      "stateSpecified": true
    }
  ],
  "OthrBuss": {
    "OthrBus": null
  },
  "DRPs": []
}