{
  "Info": {
    "lastNm": "WEIGOLD",
    "firstNm": "GERRARD",
    "midNm": "WILSON",
    "sufNm": null,
    "indvlPK": "2791695",
    "actvAGReg": 0,
    "link": "http://www.adviserinfo.sec.gov/IAPD/Individual/2791695"
  },
  "OthrNms": [
    {
      "lastNm": "WEIGOLD",
      "firstNm": "GERRARD",
      "midNm": null,
      "sufNm": null
    },
    {
      "lastNm": "WEIGOLD",
      "firstNm": "JERRY",
      "midNm": null,
      "sufNm": null
    }
  ],
  "CrntEmps": [
    {
      "CrntRgstns": [
        {
          "regAuth": 9,
          "regCat": 0,
          "st": 2,
          "stDt": "2009-06-01T00:00:00"
        }
      ],
      "BrnchOfLocs": [
        {
          "str1": "4855 TECHNOLOGY WAY",
          "str2": "6TH FLOOR",
          "city": "BOCA RATON",
          "state": 9,
          "stateSpecified": true,
          "cntry": "United States",
          "postlCd": "33431"
        }
      ],
      "orgNm": "MORGAN STANLEY",
      "orgPK": "149777",
      "str1": "2000 WESTCHESTER AVENUE",
      "str2": null,
      "city": "PURCHASE",
      "state": 35,
      "stateSpecified": true,
      "cntry": "United States",
      "postlCd": "10577-2530"
    }
  ],
  "Exms": [
    {
      "exmCd": 0,
      "exmNm": "Uniform Securities Agent State Law Examination",
      "exmDt": "1996-10-23T00:00:00",
      "exmDtSpecified": true
    },
    {
      "exmCd": 2,
      "exmNm": "Uniform Investment Adviser Law Examination",
      "exmDt": "1996-10-23T00:00:00",
      "exmDtSpecified": true
    }
  ],
  "Dsgntns": [],
  "PrevRgstns": [
    {
      "BrnchOfLocs": [
        {
          "city": "BOCA RATON",
          "state": 9,
          "stateSpecified": true
        },
        {
          "city": "BOCA RATON",
          "state": 9,
          "stateSpecified": true
        }
      ],
      "orgNm": "CITIGROUP GLOBAL MARKETS INC.",
      "orgPK": "7059",
      "regBeginDt": "1996-10-16T00:00:00",
      "regBeginDtSpecified": true,
      "regEndDt": "2009-06-01T00:00:00",
      "regEndDtSpecified": true
    }
  ],
  "EmpHss": [
    {
      "fromDt": "02/1996",
      "toDt": "10/2007",
      "orgNm": "SELF EMPLOYED",
      "city": "BOCA RATON",
      "state": 9,
      "stateSpecified": true
    },
    {
      "fromDt": "09/1996",
      "toDt": null,
      "orgNm": "CITIGROUP GLOBAL MARKETS INC.",
      "city": "BOCA RATON",
      "state": 9,
      "stateSpecified": true
    },
    {
      "fromDt": "06/2009",
      "toDt": null,
      "orgNm": "MORGAN STANLEY SMITH BARNEY",
      "city": "BOCA RATON",
      "state": 9,
      "stateSpecified": true
    },
    {
      "fromDt": "01/2015",
      "toDt": null,
      "orgNm": "MORGAN STANLEY PRIVATE BANK, NATIONAL ASSOCIATION",
      "city": "NEW YORK",
      "state": 35,
      "stateSpecified": true
    }
  ],
  "OthrBuss": {
    "OthrBus": {
      "desc": "DOUBLE DIAMOND SPORTFISHING; CAPTAIN; BOCA RATON, FL; FISHING TEAM; CHECKING ACCOUNT TO DEPOSIT TOURNAMENT WINNINGS; 25 HOURS AFTER BUSINESS; 0 DURING BUSINESS; 09/2011"
    }
  },
  "DRPs": [
    {
      "hasRegAction": 1,
      "hasRegActionSpecified": true,
      "hasCriminal": 1,
      "hasCriminalSpecified": true,
      "hasBankrupt": 1,
      "hasBankruptSpecified": true,
      "hasCivilJudc": 1,
      "hasCivilJudcSpecified": true,
      "hasBond": 1,
      "hasBondSpecified": true,
      "hasJudgment": 1,
      "hasJudgmentSpecified": true,
      "hasInvstgn": 1,
      "hasInvstgnSpecified": true,
      "hasCustComp": 0,
      "hasCustCompSpecified": true,
      "hasTermination": 1,
      "hasTerminationSpecified": true
    }
  ]
}