{
  "Info": {
    "lastNm": "COUGHLIN",
    "firstNm": "TIMOTHY",
    "midNm": "CRATHORNE",
    "sufNm": null,
    "indvlPK": "2791049",
    "actvAGReg": 1,
    "link": "http://www.adviserinfo.sec.gov/IAPD/Individual/2791049"
  },
  "OthrNms": [],
  "CrntEmps": [
    {
      "CrntRgstns": [
        {
          "regAuth": 21,
          "regCat": 0,
          "st": 2,
          "stDt": "2004-06-15T00:00:00"
        },
        {
          "regAuth": 47,
          "regCat": 0,
          "st": 2,
          "stDt": "2004-06-15T00:00:00"
        },
        {
          "regAuth": 7,
          "regCat": 0,
          "st": 2,
          "stDt": "2004-06-25T00:00:00"
        }
      ],
      "BrnchOfLocs": [
        {
          "str1": "1900 M STREET, NW",
          "str2": "SUITE 600",
          "city": "WASHINGTON",
          "state": 7,
          "stateSpecified": true,
          "cntry": "United States",
          "postlCd": "20036"
        }
      ],
      "orgNm": "EDGEMOOR INVESTMENT ADVISORS, INC.",
      "orgPK": "109104",
      "str1": "7250 WOODMONT AVENUE",
      "str2": "SUITE 315",
      "city": "BETHESDA",
      "state": 21,
      "stateSpecified": true,
      "cntry": "United States",
      "postlCd": "20814"
    }
  ],
  "Exms": [
    {
      "exmCd": 3,
      "exmNm": "Uniform Combined State Law Examination",
      "exmDt": "1999-12-29T00:00:00",
      "exmDtSpecified": true
    }
  ],
  "Dsgntns": [
    {
      "dsgntnNm": "Certified Financial Planner"
    }
  ],
  "PrevRgstns": [
    {
      "BrnchOfLocs": [
        {
          "city": "WASHINGTON",
          "state": 7,
          "stateSpecified": true
        }
      ],
      "orgNm": "RIGGS INVESTMENT ADVISORS INC.",
      "orgPK": "107746",
      "regBeginDt": "2000-07-18T00:00:00",
      "regBeginDtSpecified": true,
      "regEndDt": "2004-06-15T00:00:00",
      "regEndDtSpecified": true
    }
  ],
  "EmpHss": [
    {
      "fromDt": "06/2004",
      "toDt": null,
      "orgNm": "EDGEMOOR INVESTMENT ADVISORS, INC.",
      "city": "BETHESDA",
      "state": 21,
      "stateSpecified": true
    },
    {
      "fromDt": "06/2004",
      "toDt": "08/2009",
      "orgNm": "VIKING FUND DISTRIBUTORS, LLC",
      "city": "MINOT",
      "state": 29,
      "stateSpecified": true
    },
    {
      "fromDt": "08/2009",
      "toDt": null,
      "orgNm": "INTEGRITY FUNDS DISTRIBUTOR, INC.",
      "city": "BETHESDA",
      "state": 21,
      "stateSpecified": true
    }
  ],
  "OthrBuss": {
    "OthrBus": null
  },
  "DRPs": []
}