{
  "Info": {
    "lastNm": "ESCUDERO",
    "firstNm": "FRISCO",
    "midNm": "J",
    "sufNm": null,
    "indvlPK": "2794899",
    "actvAGReg": 0,
    "link": "http://www.adviserinfo.sec.gov/IAPD/Individual/2794899"
  },
  "OthrNms": [
    {
      "lastNm": "ESCUDERO",
      "firstNm": "FRANCISCO",
      "midNm": null,
      "sufNm": null
    }
  ],
  "CrntEmps": [
    {
      "CrntRgstns": [
        {
          "regAuth": 4,
          "regCat": 0,
          "st": 2,
          "stDt": "2007-01-01T00:00:00"
        }
      ],
      "BrnchOfLocs": [
        {
          "str1": "333 S. ANITA DRIVE, SUITE 700",
          "str2": null,
          "city": "ORANGE",
          "state": 4,
          "stateSpecified": true,
          "cntry": "United States",
          "postlCd": "92868"
        }
      ],
      "orgNm": "FIRST ALLIED ADVISORY SERVICES, INC.",
      "orgPK": "137888",
      "str1": "655 W. BROADWAY",
      "str2": "12TH FLOOR",
      "city": "SAN DIEGO",
      "state": 4,
      "stateSpecified": true,
      "cntry": "United States",
      "postlCd": "92101"
    }
  ],
  "Exms": [
    {
      "exmCd": 0,
      "exmNm": "Uniform Securities Agent State Law Examination",
      "exmDt": "1996-11-22T00:00:00",
      "exmDtSpecified": true
    },
    {
      "exmCd": 2,
      "exmNm": "Uniform Investment Adviser Law Examination",
      "exmDt": "1999-06-08T00:00:00",
      "exmDtSpecified": true
    }
  ],
  "Dsgntns": [],
  "PrevRgstns": [
    {
      "BrnchOfLocs": [
        {
          "city": "ORANGE",
          "state": 4,
          "stateSpecified": true
        }
      ],
      "orgNm": "FFP ADVISORY SERVICES INC",
      "orgPK": "110778",
      "regBeginDt": "1997-12-18T00:00:00",
      "regBeginDtSpecified": true,
      "regEndDt": "2007-01-01T00:00:00",
      "regEndDtSpecified": true
    }
  ],
  "EmpHss": [
    {
      "fromDt": "08/1996",
      "toDt": "05/2008",
      "orgNm": "FFP SECURITIES, INC.",
      "city": "ORANGE",
      "state": 4,
      "stateSpecified": true
    },
    {
      "fromDt": "03/1997",
      "toDt": null,
      "orgNm": "ORANGE CAPITAL MANAGEMENT",
      "city": "ORANGE",
      "state": 4,
      "stateSpecified": true
    },
    {
      "fromDt": "12/1997",
      "toDt": "01/2007",
      "orgNm": "FFP ADVISORY SERVICES, INC.",
      "city": "ORANGE",
      "state": 4,
      "stateSpecified": true
    },
    {
      "fromDt": "01/2007",
      "toDt": "05/2008",
      "orgNm": "FIRST ADVISORS, INC.",
      "city": "CHESTERFIELD",
      "state": 25,
      "stateSpecified": true
    },
    {
      "fromDt": "05/2008",
      "toDt": null,
      "orgNm": "FIRST ALLIED ADVISORY SERVICES, INC",
      "city": "ORANGE",
      "state": 4,
      "stateSpecified": true
    },
    {
      "fromDt": "05/2008",
      "toDt": null,
      "orgNm": "FIRST ALLIED SECURITIES, INC.",
      "city": "ORANGE",
      "state": 4,
      "stateSpecified": true
    }
  ],
  "OthrBuss": {
    "OthrBus": {
      "desc": "1. FRISCO ESCUDERO; AGENT; INSURANCE; START DATE 02/05/2008 2. ORANGE CAPITAL MANAGEMENT, INC.; RIA; INVESTMENT ADVISOR REPRESENTATIVE; STARTED 05/30/2008."
    }
  },
  "DRPs": [
    {
      "hasRegAction": 1,
      "hasRegActionSpecified": true,
      "hasCriminal": 1,
      "hasCriminalSpecified": true,
      "hasBankrupt": 1,
      "hasBankruptSpecified": true,
      "hasCivilJudc": 1,
      "hasCivilJudcSpecified": true,
      "hasBond": 1,
      "hasBondSpecified": true,
      "hasJudgment": 1,
      "hasJudgmentSpecified": true,
      "hasInvstgn": 1,
      "hasInvstgnSpecified": true,
      "hasCustComp": 0,
      "hasCustCompSpecified": true,
      "hasTermination": 1,
      "hasTerminationSpecified": true
    }
  ]
}