{
  "Info": {
    "lastNm": "SCOTT",
    "firstNm": "ARTHUR",
    "midNm": "LEE",
    "sufNm": null,
    "indvlPK": "2801680",
    "actvAGReg": 0,
    "link": "http://www.adviserinfo.sec.gov/IAPD/Individual/2801680"
  },
  "OthrNms": [
    {
      "lastNm": "SCOTT",
      "firstNm": "ARTHUR",
      "midNm": "L",
      "sufNm": null
    }
  ],
  "CrntEmps": [
    {
      "CrntRgstns": [
        {
          "regAuth": 45,
          "regCat": 0,
          "st": 2,
          "stDt": "2006-02-10T00:00:00"
        }
      ],
      "BrnchOfLocs": [
        {
          "str1": "800 NORTH SHORELINE BLVD.",
          "str2": "SUITE 160 NORTH TOWER",
          "city": "CORPUS CHRISTI",
          "state": 45,
          "stateSpecified": true,
          "cntry": "United States",
          "postlCd": "78401"
        }
      ],
      "orgNm": "UBS FINANCIAL SERVICES INC.",
      "orgPK": "8174",
      "str1": "1200 HARBOR BOULEVARD",
      "str2": null,
      "city": "WEEHAWKEN",
      "state": 32,
      "stateSpecified": true,
      "cntry": "United States",
      "postlCd": "07086"
    }
  ],
  "Exms": [
    {
      "exmCd": 0,
      "exmNm": "Uniform Securities Agent State Law Examination",
      "exmDt": "1996-11-18T00:00:00",
      "exmDtSpecified": true
    },
    {
      "exmCd": 2,
      "exmNm": "Uniform Investment Adviser Law Examination",
      "exmDt": "1996-11-25T00:00:00",
      "exmDtSpecified": true
    }
  ],
  "Dsgntns": [],
  "PrevRgstns": [
    {
      "BrnchOfLocs": [
        {
          "city": "CORPUS CHRISTI",
          "state": 45,
          "stateSpecified": true
        },
        {
          "city": "CORPUS CHRISTI",
          "state": 45,
          "stateSpecified": true
        }
      ],
      "orgNm": "MERRILL LYNCH, PIERCE, FENNER & SMITH INCORPORATED",
      "orgPK": "7691",
      "regBeginDt": "1996-11-20T00:00:00",
      "regBeginDtSpecified": true,
      "regEndDt": "2006-02-14T00:00:00",
      "regEndDtSpecified": true
    }
  ],
  "EmpHss": [
    {
      "fromDt": "02/2006",
      "toDt": null,
      "orgNm": "UBS FINANCIAL SERVICES INC.",
      "city": "CORPUS CHRISTI",
      "state": 45,
      "stateSpecified": true
    }
  ],
  "OthrBuss": {
    "OthrBus": null
  },
  "DRPs": []
}