{
  "Info": {
    "lastNm": "DEAN",
    "firstNm": "TERRY",
    "midNm": "D",
    "sufNm": null,
    "indvlPK": "2813069",
    "actvAGReg": 0,
    "link": "http://www.adviserinfo.sec.gov/IAPD/Individual/2813069"
  },
  "OthrNms": [
    {
      "lastNm": "DEAN",
      "firstNm": "TERRY",
      "midNm": "DOUGLAS",
      "sufNm": null
    }
  ],
  "CrntEmps": [
    {
      "CrntRgstns": [
        {
          "regAuth": 9,
          "regCat": 0,
          "st": 2,
          "stDt": "2007-09-25T00:00:00"
        },
        {
          "regAuth": 45,
          "regCat": 0,
          "st": 3,
          "stDt": "2007-12-17T00:00:00"
        }
      ],
      "BrnchOfLocs": [
        {
          "str1": "8889 PELICAN BAY",
          "str2": null,
          "city": "NAPLES",
          "state": 9,
          "stateSpecified": true,
          "cntry": "United States",
          "postlCd": "34108"
        }
      ],
      "orgNm": "UBS FINANCIAL SERVICES INC.",
      "orgPK": "8174",
      "str1": "1200 HARBOR BOULEVARD",
      "str2": null,
      "city": "WEEHAWKEN",
      "state": 32,
      "stateSpecified": true,
      "cntry": "United States",
      "postlCd": "07086"
    }
  ],
  "Exms": [
    {
      "exmCd": 0,
      "exmNm": "Uniform Securities Agent State Law Examination",
      "exmDt": "1996-12-13T00:00:00",
      "exmDtSpecified": true
    },
    {
      "exmCd": 3,
      "exmNm": "Uniform Combined State Law Examination",
      "exmDt": "2004-09-01T00:00:00",
      "exmDtSpecified": true
    }
  ],
  "Dsgntns": [],
  "PrevRgstns": [
    {
      "BrnchOfLocs": [
        {
          "city": "NAPLES",
          "state": 9,
          "stateSpecified": true
        },
        {
          "city": "NAPLES",
          "state": 9,
          "stateSpecified": true
        }
      ],
      "orgNm": "A. G. EDWARDS & SONS, INC.",
      "orgPK": "4",
      "regBeginDt": "1996-12-13T00:00:00",
      "regBeginDtSpecified": true,
      "regEndDt": "2007-09-26T00:00:00",
      "regEndDtSpecified": true
    }
  ],
  "EmpHss": [
    {
      "fromDt": "09/1996",
      "toDt": "09/2007",
      "orgNm": "A. G. EDWARDS & SONS, INC.",
      "city": "NAPLES",
      "state": 9,
      "stateSpecified": true
    },
    {
      "fromDt": "09/2007",
      "toDt": "11/2013",
      "orgNm": "UBS FINANCIAL SERVICES INC",
      "city": "NAPLES",
      "state": 9,
      "stateSpecified": true
    },
    {
      "fromDt": "11/2013",
      "toDt": null,
      "orgNm": "UBS FINANCIAL SERVICES INC",
      "city": "NAPLES",
      "state": 9,
      "stateSpecified": true
    }
  ],
  "OthrBuss": {
    "OthrBus": null
  },
  "DRPs": [
    {
      "hasRegAction": 1,
      "hasRegActionSpecified": true,
      "hasCriminal": 1,
      "hasCriminalSpecified": true,
      "hasBankrupt": 1,
      "hasBankruptSpecified": true,
      "hasCivilJudc": 1,
      "hasCivilJudcSpecified": true,
      "hasBond": 1,
      "hasBondSpecified": true,
      "hasJudgment": 1,
      "hasJudgmentSpecified": true,
      "hasInvstgn": 1,
      "hasInvstgnSpecified": true,
      "hasCustComp": 0,
      "hasCustCompSpecified": true,
      "hasTermination": 1,
      "hasTerminationSpecified": true
    }
  ]
}