{
  "Info": {
    "lastNm": "CAMMAYO",
    "firstNm": "SANCHO",
    "midNm": "JOSE",
    "sufNm": null,
    "indvlPK": "2815760",
    "actvAGReg": 0,
    "link": "http://www.adviserinfo.sec.gov/IAPD/Individual/2815760"
  },
  "OthrNms": [
    {
      "lastNm": "CAMMAYO",
      "firstNm": "S",
      "midNm": "JOSEPH",
      "sufNm": null
    },
    {
      "lastNm": "CAMMAYO",
      "firstNm": "S JOSEPH",
      "midNm": null,
      "sufNm": null
    },
    {
      "lastNm": "CAMMAYO",
      "firstNm": "S",
      "midNm": "JOSEPH",
      "sufNm": null
    },
    {
      "lastNm": "CAMMAYO",
      "firstNm": "S",
      "midNm": "JOSEPH",
      "sufNm": null
    },
    {
      "lastNm": "CAMMAYO",
      "firstNm": "S",
      "midNm": "JOSEPH",
      "sufNm": null
    },
    {
      "lastNm": "CAMMAYO",
      "firstNm": "SANCHO",
      "midNm": "J",
      "sufNm": null
    }
  ],
  "CrntEmps": [
    {
      "CrntRgstns": [
        {
          "regAuth": 32,
          "regCat": 0,
          "st": 2,
          "stDt": "2015-11-06T00:00:00"
        }
      ],
      "BrnchOfLocs": [
        {
          "str1": "355 CHESTNUT ST",
          "str2": null,
          "city": "UNION",
          "state": 32,
          "stateSpecified": true,
          "cntry": "United States",
          "postlCd": "07083"
        }
      ],
      "orgNm": "MERRILL LYNCH, PIERCE, FENNER & SMITH INCORPORATED",
      "orgPK": "7691",
      "str1": "ONE BRYANT PARK",
      "str2": null,
      "city": "NEW YORK",
      "state": 35,
      "stateSpecified": true,
      "cntry": "United States",
      "postlCd": "10036"
    }
  ],
  "Exms": [
    {
      "exmCd": 0,
      "exmNm": "Uniform Securities Agent State Law Examination",
      "exmDt": "1997-08-01T00:00:00",
      "exmDtSpecified": true
    },
    {
      "exmCd": 3,
      "exmNm": "Uniform Combined State Law Examination",
      "exmDt": "2006-12-12T00:00:00",
      "exmDtSpecified": true
    }
  ],
  "Dsgntns": [],
  "PrevRgstns": [
    {
      "BrnchOfLocs": [
        {
          "city": "E. BRUNSWICK",
          "state": 32,
          "stateSpecified": true
        },
        {
          "city": "EAST BRUNSWICK",
          "state": 32,
          "stateSpecified": true
        }
      ],
      "orgNm": "BANC OF AMERICA INVESTMENT SERVICES, INC.",
      "orgPK": "16361",
      "regBeginDt": "2006-12-13T00:00:00",
      "regBeginDtSpecified": true,
      "regEndDt": "2007-07-31T00:00:00",
      "regEndDtSpecified": true
    },
    {
      "BrnchOfLocs": [
        {
          "city": "NEW BRUNSWICK",
          "state": 32,
          "stateSpecified": true
        }
      ],
      "orgNm": "CITIGROUP GLOBAL MARKETS INC.",
      "orgPK": "7059",
      "regBeginDt": "2008-02-19T00:00:00",
      "regBeginDtSpecified": true,
      "regEndDt": "2009-06-01T00:00:00",
      "regEndDtSpecified": true
    },
    {
      "BrnchOfLocs": [
        {
          "city": "NEW BRUNSWICK",
          "state": 32,
          "stateSpecified": true
        }
      ],
      "orgNm": "MORGAN STANLEY",
      "orgPK": "149777",
      "regBeginDt": "2009-06-01T00:00:00",
      "regBeginDtSpecified": true,
      "regEndDt": "2010-04-26T00:00:00",
      "regEndDtSpecified": true
    },
    {
      "BrnchOfLocs": [
        {
          "city": "FLORHAM PARK",
          "state": 32,
          "stateSpecified": true
        }
      ],
      "orgNm": "OPPENHEIMER & CO. INC.",
      "orgPK": "249",
      "regBeginDt": "2010-04-12T00:00:00",
      "regBeginDtSpecified": true,
      "regEndDt": "2011-05-10T00:00:00",
      "regEndDtSpecified": true
    },
    {
      "BrnchOfLocs": [
        {
          "city": "FLORHAM PARK",
          "state": 32,
          "stateSpecified": true
        }
      ],
      "orgNm": "MORGAN STANLEY",
      "orgPK": "149777",
      "regBeginDt": "2011-07-29T00:00:00",
      "regBeginDtSpecified": true,
      "regEndDt": "2013-02-21T00:00:00",
      "regEndDtSpecified": true
    },
    {
      "BrnchOfLocs": [
        {
          "city": "BRADLEY BEACH",
          "state": 32,
          "stateSpecified": true
        },
        {
          "city": "DEAL",
          "state": 32,
          "stateSpecified": true
        },
        {
          "city": "FREEHOLD",
          "state": 32,
          "stateSpecified": true
        },
        {
          "city": "MATAWAN",
          "state": 32,
          "stateSpecified": true
        },
        {
          "city": "MATAWAN",
          "state": 32,
          "stateSpecified": true
        },
        {
          "city": "MIDDLETOWN",
          "state": 32,
          "stateSpecified": true
        },
        {
          "city": "MONROE",
          "state": 32,
          "stateSpecified": true
        }
      ],
      "orgNm": "J.P. MORGAN SECURITIES LLC",
      "orgPK": "79",
      "regBeginDt": "2013-02-21T00:00:00",
      "regBeginDtSpecified": true,
      "regEndDt": "2015-10-07T00:00:00",
      "regEndDtSpecified": true
    }
  ],
  "EmpHss": [
    {
      "fromDt": "10/2004",
      "toDt": "07/2007",
      "orgNm": "BANC OF AMERICA INSURANCE SERVICES, INC.",
      "city": "EAST BRUNSWICK",
      "state": 32,
      "stateSpecified": true
    },
    {
      "fromDt": "10/2004",
      "toDt": "07/2007",
      "orgNm": "BANC OF AMERICA INVESTMENT SERVICES, INC.",
      "city": "E. BRUNSWICK",
      "state": 32,
      "stateSpecified": true
    },
    {
      "fromDt": "10/2004",
      "toDt": "10/2007",
      "orgNm": "BANK OF AMERICA, N.A.",
      "city": "E. BRUNSWICK",
      "state": 32,
      "stateSpecified": true
    },
    {
      "fromDt": "07/2007",
      "toDt": "12/2009",
      "orgNm": "CITIGROUP GLOBAL MARKETS INC.",
      "city": "NEW BRUNSWICK",
      "state": 32,
      "stateSpecified": true
    },
    {
      "fromDt": "06/2009",
      "toDt": "04/2010",
      "orgNm": "MORGAN STANLEY SMITH BARNEY",
      "city": "NEW BRUNSWICK",
      "state": 32,
      "stateSpecified": true
    },
    {
      "fromDt": "04/2010",
      "toDt": "05/2011",
      "orgNm": "OPPENHEIMER & CO. INC.",
      "city": "FLORHAM PARK",
      "state": 32,
      "stateSpecified": true
    },
    {
      "fromDt": "06/2011",
      "toDt": "02/2013",
      "orgNm": "MORGAN STANLEY SMITH BARNEY",
      "city": "FLORHAM PARK",
      "state": 32,
      "stateSpecified": true
    },
    {
      "fromDt": "02/2013",
      "toDt": "10/2015",
      "orgNm": "J.P. MORGAN SECURITIES LLC",
      "city": "MATAWAN",
      "state": 32,
      "stateSpecified": true
    },
    {
      "fromDt": "10/2015",
      "toDt": null,
      "orgNm": "BANK OF AMERICA, N.A.",
      "city": "UNION",
      "state": 32,
      "stateSpecified": true
    },
    {
      "fromDt": "10/2015",
      "toDt": null,
      "orgNm": "MERRILL LYNCH, PIERCE, FENNER & SMITH INC",
      "city": "UNION",
      "state": 32,
      "stateSpecified": true
    }
  ],
  "OthrBuss": {
    "OthrBus": null
  },
  "DRPs": []
}