{
  "Info": {
    "lastNm": "JENKINS",
    "firstNm": "TERESA",
    "midNm": "ANN",
    "sufNm": null,
    "indvlPK": "2827735",
    "actvAGReg": 0,
    "link": "http://www.adviserinfo.sec.gov/IAPD/Individual/2827735"
  },
  "OthrNms": [
    {
      "lastNm": "JENKINS",
      "firstNm": "TERESA",
      "midNm": "A",
      "sufNm": null
    },
    {
      "lastNm": "JENKINS",
      "firstNm": "TERI",
      "midNm": null,
      "sufNm": null
    }
  ],
  "CrntEmps": [
    {
      "CrntRgstns": [
        {
          "regAuth": 45,
          "regCat": 0,
          "st": 3,
          "stDt": "2001-04-25T00:00:00"
        },
        {
          "regAuth": 36,
          "regCat": 0,
          "st": 2,
          "stDt": "2007-12-03T00:00:00"
        },
        {
          "regAuth": 23,
          "regCat": 0,
          "st": 2,
          "stDt": "2010-05-10T00:00:00"
        }
      ],
      "BrnchOfLocs": [
        {
          "str1": "4805 TOWNE CENTRE RD",
          "str2": "SAGINAW PBIG",
          "city": "SAGINAW",
          "state": 23,
          "stateSpecified": true,
          "cntry": "United States",
          "postlCd": "48604"
        }
      ],
      "orgNm": "MERRILL LYNCH, PIERCE, FENNER & SMITH INCORPORATED",
      "orgPK": "7691",
      "str1": "ONE BRYANT PARK",
      "str2": null,
      "city": "NEW YORK",
      "state": 35,
      "stateSpecified": true,
      "cntry": "United States",
      "postlCd": "10036"
    }
  ],
  "Exms": [
    {
      "exmCd": 0,
      "exmNm": "Uniform Securities Agent State Law Examination",
      "exmDt": "1996-12-26T00:00:00",
      "exmDtSpecified": true
    },
    {
      "exmCd": 2,
      "exmNm": "Uniform Investment Adviser Law Examination",
      "exmDt": "2007-11-09T00:00:00",
      "exmDtSpecified": true
    }
  ],
  "Dsgntns": [],
  "PrevRgstns": [],
  "EmpHss": [
    {
      "fromDt": "07/1990",
      "toDt": null,
      "orgNm": "MERRILL LYNCH",
      "city": "SAGINAW",
      "state": 23,
      "stateSpecified": true
    },
    {
      "fromDt": "07/1990",
      "toDt": null,
      "orgNm": "MERRILL LYNCH, PIERCE, FENNER & SMITH INCORPORATED",
      "city": "SAGINAW",
      "state": 23,
      "stateSpecified": true
    }
  ],
  "OthrBuss": {
    "OthrBus": null
  },
  "DRPs": []
}