{
  "Info": {
    "lastNm": "KAPPEL",
    "firstNm": "PETER",
    "midNm": null,
    "sufNm": null,
    "indvlPK": "2827737",
    "actvAGReg": 0,
    "link": "http://www.adviserinfo.sec.gov/IAPD/Individual/2827737"
  },
  "OthrNms": [],
  "CrntEmps": [
    {
      "CrntRgstns": [
        {
          "regAuth": 6,
          "regCat": 0,
          "st": 2,
          "stDt": "1997-06-13T00:00:00"
        },
        {
          "regAuth": 45,
          "regCat": 0,
          "st": 3,
          "stDt": "2016-04-20T00:00:00"
        }
      ],
      "BrnchOfLocs": [
        {
          "str1": "301 TRESSER BLVD",
          "str2": null,
          "city": "STAMFORD",
          "state": 6,
          "stateSpecified": true,
          "cntry": "United States",
          "postlCd": "06901"
        }
      ],
      "orgNm": "MERRILL LYNCH, PIERCE, FENNER & SMITH INCORPORATED",
      "orgPK": "7691",
      "str1": "ONE BRYANT PARK",
      "str2": null,
      "city": "NEW YORK",
      "state": 35,
      "stateSpecified": true,
      "cntry": "United States",
      "postlCd": "10036"
    }
  ],
  "Exms": [
    {
      "exmCd": 0,
      "exmNm": "Uniform Securities Agent State Law Examination",
      "exmDt": "1997-01-23T00:00:00",
      "exmDtSpecified": true
    },
    {
      "exmCd": 2,
      "exmNm": "Uniform Investment Adviser Law Examination",
      "exmDt": "1997-02-11T00:00:00",
      "exmDtSpecified": true
    }
  ],
  "Dsgntns": [],
  "PrevRgstns": [],
  "EmpHss": [
    {
      "fromDt": "03/1968",
      "toDt": null,
      "orgNm": "CONNECTICUT METALLURGICAL PROCESSES INC",
      "city": "BRIDGEPORT",
      "state": 6,
      "stateSpecified": true
    },
    {
      "fromDt": "11/1996",
      "toDt": null,
      "orgNm": "MERRILL LYNCH",
      "city": "STAMFORD",
      "state": 6,
      "stateSpecified": true
    },
    {
      "fromDt": "12/2009",
      "toDt": null,
      "orgNm": "BANK OF AMERICA, NA",
      "city": "STAMFORD",
      "state": 6,
      "stateSpecified": true
    }
  ],
  "OthrBuss": {
    "OthrBus": {
      "desc": "I*88525 FOR PROFIT OR NOT FOR PROFIT: FOR-PROFIT ORGANIZATION  NAME OF OUTSIDE BUSINESS ORGANIZATION: PETER KAPPEL  INVESTMENT RELATED: N  ADDRESS OF BUSINESS:   WESTON, CONNECTICUT 6883  NATURE OF BUSINESS: OTHER, RENTING MY HOUSE  POSITION, TITLE, ASSOCIATION: OWNER,   START DATE OF RELATIONSHIP: 12/15/2015  NUMBER OF HOURS DEVOTED: 1 HOUR(S) MONTHLY  NUMBER OF HOURS DEVOTED DURING TRADING HOURS: 0  DUTIES: I'M RENTING MY HOUSE"
    }
  },
  "DRPs": []
}