{
  "Info": {
    "lastNm": "MAXEY",
    "firstNm": "WILLIAM",
    "midNm": "DALE",
    "sufNm": null,
    "indvlPK": "2829908",
    "actvAGReg": 1,
    "link": "http://www.adviserinfo.sec.gov/IAPD/Individual/2829908"
  },
  "OthrNms": [
    {
      "lastNm": "MAXEY",
      "firstNm": "BILL",
      "midNm": null,
      "sufNm": null
    }
  ],
  "CrntEmps": [
    {
      "CrntRgstns": [
        {
          "regAuth": 45,
          "regCat": 0,
          "st": 2,
          "stDt": "2010-05-17T00:00:00"
        }
      ],
      "BrnchOfLocs": [
        {
          "str1": "2925 TOCCOA ROAD",
          "str2": null,
          "city": "BEAUMONT",
          "state": 45,
          "stateSpecified": true,
          "cntry": "United States",
          "postlCd": "77703"
        }
      ],
      "orgNm": "RAYMOND JAMES FINANCIAL SERVICES ADVISORS, INC",
      "orgPK": "149018",
      "str1": "880 CARILLON PARKWAY",
      "str2": null,
      "city": "SAINT PETERSBURG",
      "state": 9,
      "stateSpecified": true,
      "cntry": "United States",
      "postlCd": "33716"
    }
  ],
  "Exms": [
    {
      "exmCd": 0,
      "exmNm": "Uniform Securities Agent State Law Examination",
      "exmDt": "1997-02-13T00:00:00",
      "exmDtSpecified": true
    }
  ],
  "Dsgntns": [
    {
      "dsgntnNm": "Certified Financial Planner"
    }
  ],
  "PrevRgstns": [],
  "EmpHss": [
    {
      "fromDt": "12/1976",
      "toDt": null,
      "orgNm": "LAWRENCE BLACKBURN MAXEY & CO PC",
      "city": "BEAUMONT",
      "state": 45,
      "stateSpecified": true
    },
    {
      "fromDt": "11/1996",
      "toDt": null,
      "orgNm": "RAYMOND JAMES FINANCIAL SERVICES, INC.",
      "city": "BEAUMONT",
      "state": 45,
      "stateSpecified": true
    },
    {
      "fromDt": "02/2002",
      "toDt": null,
      "orgNm": "FIDELITY INVESTMENTS",
      "city": "BEAUMONT",
      "state": 45,
      "stateSpecified": true
    },
    {
      "fromDt": "02/2002",
      "toDt": null,
      "orgNm": "KT MAINTENANCE INC.",
      "city": "BEAUMONT",
      "state": 45,
      "stateSpecified": true
    }
  ],
  "OthrBuss": {
    "OthrBus": {
      "desc": "CONVENIENT CONTAINE COMPANY,INC RENTAL BUSINESS,TREASURER,SECRETARY,ACCOUNTING DUTIES,40 HRS YEAR AFTER TRADING HOURS. LAWRENCE BLACKBURN MEEK MAXEY & CO ACCOUNTING FIRM,SECRETARY,TREASURER,CPA ACOUNTING SERVICES,2400 HRS YEAR,AFTER TRADING HOURS. BEAUMONT CAPITAL INC,SALE OF REAL ESTATE & LOANS,SECRETARY,TREASURER,40HRS YR.AFTER TRADING HRS. JOHN M LAWRENCE,REAL ESTATE RENTALS,PARTNER,ACCOUNTING DUTIES, 40HRS YR.AFTER TRADING HOURS. MAXEY BLACKBURN AULBAUGH & FRUEH, APARTMENT RENTAL,PARTNER,ACCOUNTING DUTIES,40HRS YR. AFTER TRADING HOURS.     "
    }
  },
  "DRPs": []
}