{
  "Info": {
    "lastNm": "NEWMAN",
    "firstNm": "JENNIFER",
    "midNm": "ANN",
    "sufNm": null,
    "indvlPK": "2836728",
    "actvAGReg": 0,
    "link": "http://www.adviserinfo.sec.gov/IAPD/Individual/2836728"
  },
  "OthrNms": [
    {
      "lastNm": "WESTFALL",
      "firstNm": "JENNIFER",
      "midNm": "A",
      "sufNm": null
    },
    {
      "lastNm": "WESTFALL",
      "firstNm": "JENNIFER",
      "midNm": "ANN",
      "sufNm": null
    }
  ],
  "CrntEmps": [
    {
      "CrntRgstns": [
        {
          "regAuth": 36,
          "regCat": 0,
          "st": 2,
          "stDt": "1999-08-19T00:00:00"
        },
        {
          "regAuth": 45,
          "regCat": 0,
          "st": 3,
          "stDt": "2004-08-26T00:00:00"
        }
      ],
      "BrnchOfLocs": [
        {
          "str1": "4661 SAWMILL RD",
          "str2": null,
          "city": "UPPER ARLINGTON",
          "state": 36,
          "stateSpecified": true,
          "cntry": "United States",
          "postlCd": "43220"
        }
      ],
      "orgNm": "MERRILL LYNCH, PIERCE, FENNER & SMITH INCORPORATED",
      "orgPK": "7691",
      "str1": "ONE BRYANT PARK",
      "str2": null,
      "city": "NEW YORK",
      "state": 35,
      "stateSpecified": true,
      "cntry": "United States",
      "postlCd": "10036"
    }
  ],
  "Exms": [
    {
      "exmCd": 3,
      "exmNm": "Uniform Combined State Law Examination",
      "exmDt": "1999-09-07T00:00:00",
      "exmDtSpecified": true
    },
    {
      "exmCd": 0,
      "exmNm": "Uniform Securities Agent State Law Examination",
      "exmDt": "2004-01-26T00:00:00",
      "exmDtSpecified": true
    }
  ],
  "Dsgntns": [],
  "PrevRgstns": [],
  "EmpHss": [
    {
      "fromDt": "07/1994",
      "toDt": null,
      "orgNm": "MERRILL LYNCH, PIERCE, FENNER & SMITH INCORPORATED",
      "city": "DUBLIN",
      "state": 36,
      "stateSpecified": true
    },
    {
      "fromDt": "11/2009",
      "toDt": null,
      "orgNm": "BANK OF AMERICA, N.A.",
      "city": "UPPER ARLINGTON",
      "state": 36,
      "stateSpecified": true
    }
  ],
  "OthrBuss": {
    "OthrBus": {
      "desc": "I*19659 FOR PROFIT OR NOT FOR PROFIT: NON-PROFIT ORGANIZATION  NAME OF OUTSIDE BUSINESS ORGANIZATION: AMERICAN CANCER SOCIETY - FRANKLIN COUNTY, OHIO  INVESTMENT RELATED: N  ADDRESS OF BUSINESS:   5555 FRANTZ ROAD,   DUBLIN, OHIO 43017  NATURE OF BUSINESS: CHARITABLE ORGANIZATION,  POSITION, TITLE, ASSOCIATION: ADVISORY BOARD MEMBER,   START DATE OF RELATIONSHIP: 9/1/2005  NUMBER OF HOURS DEVOTED: 8 HOUR(S) MONTHLY  NUMBER OF HOURS DEVOTED DURING TRADING HOURS: 0  DUTIES: NON-PROFIT/CANCER SERVICES BOARD OF DIRECTORS/NOT INVESTMENT RELATED"
    }
  },
  "DRPs": []
}