{
  "Info": {
    "lastNm": "RUBRECHT",
    "firstNm": "CRAIG",
    "midNm": "ALAN",
    "sufNm": null,
    "indvlPK": "2837714",
    "actvAGReg": 0,
    "link": "http://www.adviserinfo.sec.gov/IAPD/Individual/2837714"
  },
  "OthrNms": [],
  "CrntEmps": [
    {
      "CrntRgstns": [
        {
          "regAuth": 28,
          "regCat": 0,
          "st": 2,
          "stDt": "2011-07-20T00:00:00"
        },
        {
          "regAuth": 45,
          "regCat": 0,
          "st": 3,
          "stDt": "2011-07-20T00:00:00"
        },
        {
          "regAuth": 1,
          "regCat": 0,
          "st": 2,
          "stDt": "2011-07-21T00:00:00"
        },
        {
          "regAuth": 19,
          "regCat": 0,
          "st": 2,
          "stDt": "2011-07-22T00:00:00"
        },
        {
          "regAuth": 42,
          "regCat": 0,
          "st": 2,
          "stDt": "2011-07-25T00:00:00"
        },
        {
          "regAuth": 9,
          "regCat": 0,
          "st": 2,
          "stDt": "2011-11-15T00:00:00"
        }
      ],
      "BrnchOfLocs": [
        {
          "str1": "16810 KENTON DRIVE",
          "str2": "SUITE 200",
          "city": "HUNTERSVILLE",
          "state": 28,
          "stateSpecified": true,
          "cntry": "United States",
          "postlCd": "28078"
        }
      ],
      "orgNm": "CORNERSTONE WEALTH",
      "orgPK": "157935",
      "str1": "16810 KENTON DRIVE",
      "str2": "SUITE 200",
      "city": "HUNTERSVILLE",
      "state": 28,
      "stateSpecified": true,
      "cntry": "United States",
      "postlCd": "28078"
    }
  ],
  "Exms": [
    {
      "exmCd": 0,
      "exmNm": "Uniform Securities Agent State Law Examination",
      "exmDt": "1997-02-05T00:00:00",
      "exmDtSpecified": true
    },
    {
      "exmCd": 2,
      "exmNm": "Uniform Investment Adviser Law Examination",
      "exmDt": "1997-02-07T00:00:00",
      "exmDtSpecified": true
    }
  ],
  "Dsgntns": [],
  "PrevRgstns": [
    {
      "BrnchOfLocs": [
        {
          "city": "ROCHESTER",
          "state": 35,
          "stateSpecified": true
        }
      ],
      "orgNm": "PRUDENTIAL EQUITY GROUP, LLC",
      "orgPK": "7471",
      "regBeginDt": "2001-12-31T00:00:00",
      "regBeginDtSpecified": true,
      "regEndDt": "2003-07-01T00:00:00",
      "regEndDtSpecified": true
    },
    {
      "BrnchOfLocs": [
        {
          "city": "ROCHESTER",
          "state": 35,
          "stateSpecified": true
        }
      ],
      "orgNm": "WELLS FARGO ADVISORS, LLC",
      "orgPK": "19616",
      "regBeginDt": "2003-07-01T00:00:00",
      "regBeginDtSpecified": true,
      "regEndDt": "2003-09-19T00:00:00",
      "regEndDtSpecified": true
    },
    {
      "BrnchOfLocs": [
        {
          "city": "HUNTERSVILLE",
          "state": 28,
          "stateSpecified": true
        }
      ],
      "orgNm": "RAYMOND JAMES FINANCIAL SERVICES, INC.",
      "orgPK": "6694",
      "regBeginDt": "2003-09-19T00:00:00",
      "regBeginDtSpecified": true,
      "regEndDt": "2003-11-19T00:00:00",
      "regEndDtSpecified": true
    },
    {
      "BrnchOfLocs": [
        {
          "city": "CORNELIUS",
          "state": 28,
          "stateSpecified": true
        }
      ],
      "orgNm": "SECURITIES AMERICA ADVISORS, INC.",
      "orgPK": "110518",
      "regBeginDt": "2003-11-18T00:00:00",
      "regBeginDtSpecified": true,
      "regEndDt": "2011-07-20T00:00:00",
      "regEndDtSpecified": true
    }
  ],
  "EmpHss": [
    {
      "fromDt": "11/2003",
      "toDt": "07/2011",
      "orgNm": "SECURITIES AMERICA ADVISORS, INC.",
      "city": "CORNELIUS",
      "state": 28,
      "stateSpecified": true
    },
    {
      "fromDt": "11/2003",
      "toDt": "07/2011",
      "orgNm": "SECURITIES AMERICA, INC.",
      "city": "CORNELIUS",
      "state": 28,
      "stateSpecified": true
    },
    {
      "fromDt": "07/2011",
      "toDt": null,
      "orgNm": "CORNERSTONE FINANCIAL ADVISORS",
      "city": "HUNTERSVILLE",
      "state": 28,
      "stateSpecified": true
    },
    {
      "fromDt": "07/2011",
      "toDt": null,
      "orgNm": "LPL FINANCIAL LLC",
      "city": "HUNTERSVILLE",
      "state": 28,
      "stateSpecified": true
    }
  ],
  "OthrBuss": {
    "OthrBus": {
      "desc": "1. 07/20/2011: Highland Capital - Investment Related - At Reported Business Location(s) - Non-Variable Insurance - Time Spent 5% - Agent / for fixed insurance only.   2. 07/20/2011: Cornerstone Financial Partners - Investment Related - At Reported Business Location(s) - DBA for LPL Business (entity for LPL business) - Time Spent 100% - 25% owner.    3.. 4/9/2013: Cornerstone Risk management Advisors - Investment Related - At Reported Business Location(s) - Non-Variable Insurance - Time Spent 10% - 22% owner in Cornerstone Risk Management. All non-variable life insurance sales will run though this entity.    4. 12/20/2013: Cornerstone Sports Advisory Group - Investment Related - At Reported Business Location(s) - DBA for LPL Business (entity for LPL business).    5. 9/29/2014: Cornerstone Financial Partners, Inc. - DBA: (Hybrid) Cornerstone Financial Advisors - Investment Related - At Reported Business Location(s) - Registered Investment Advisor DBA - Time Spent 70% - We charge an asset based fee for investment management.    6. 9/29/2014: Cornerstone Financial Partners, Inc. - Investment Related - At Reported Business Location(s) - Registered Investment Advisor Hybrid - Started 09/12/2014 - 160 Hours Per Month During Securities Trading - IAR.    7. 9/29/2014: Cornerstone Financial Partners, Inc. - DBA: (Hybrid) Cornerstone Sports Advisory Group - Investment Related - At Reported Business Location(s) - Registered Investment Advisor DBA - Time Spent 100% - Planning fees.    8. 6/12/2015: Cornerstone Financial Partners, Inc. - DBA: (Hybrid) Cornerstone Wealth - Investment Related - At Reported Business Location(s) - Registered Investment Advisor DBA - Started 07/01/2015 - 160 Hours Per Month During Securities Trading - IAR.    9. 2/25/2016: Cornerstone Financial Partners, Inc. - DBA: (Hybrid) Cornerstone Retire - Investment Related - At Reported Business Location(s) - Registered Investment Advisor DBA - Start 02/25/2016 - 160 Hours Per Month During Securities Trading - IAR / CCO.    10. 2/25/2016: Cornerstone Financial Partners, Inc. - DBA: Cornerstone Retire - Investment Related - At Reported Business Location(s) - DBA for LPL Business (entity for LPL business) - Started 02/25/2016 - 160 Hours Per Month During Securities Trading."
    }
  },
  "DRPs": []
}