{
  "Info": {
    "lastNm": "FLYNN",
    "firstNm": "TIMOTHY",
    "midNm": "PATRICK",
    "sufNm": null,
    "indvlPK": "2837132",
    "actvAGReg": 0,
    "link": "http://www.adviserinfo.sec.gov/IAPD/Individual/2837132"
  },
  "OthrNms": [
    {
      "lastNm": "FLYNN",
      "firstNm": "TIMOTHY",
      "midNm": "PATRICK",
      "sufNm": null
    }
  ],
  "CrntEmps": [
    {
      "CrntRgstns": [
        {
          "regAuth": 32,
          "regCat": 0,
          "st": 2,
          "stDt": "2012-10-05T00:00:00"
        }
      ],
      "BrnchOfLocs": [
        {
          "str1": "1001 AVENUE OF AMERICAS, STE 1000",
          "str2": null,
          "city": "NEW YORK",
          "state": 35,
          "stateSpecified": true,
          "cntry": "United States",
          "postlCd": "10018"
        },
        {
          "str1": "65 MADISON AVENUE, SUITE 300",
          "str2": null,
          "city": "MORRISTOWN",
          "state": 32,
          "stateSpecified": true,
          "cntry": "United States",
          "postlCd": "07960"
        }
      ],
      "orgNm": "PRIVATE ADVISOR GROUP, LLC",
      "orgPK": "155216",
      "str1": "65 MADISON AVENUE, SUITE 300",
      "str2": null,
      "city": "MORRISTOWN",
      "state": 32,
      "stateSpecified": true,
      "cntry": "United States",
      "postlCd": "07960"
    }
  ],
  "Exms": [
    {
      "exmCd": 0,
      "exmNm": "Uniform Securities Agent State Law Examination",
      "exmDt": "1997-01-06T00:00:00",
      "exmDtSpecified": true
    },
    {
      "exmCd": 2,
      "exmNm": "Uniform Investment Adviser Law Examination",
      "exmDt": "1999-06-14T00:00:00",
      "exmDtSpecified": true
    }
  ],
  "Dsgntns": [],
  "PrevRgstns": [
    {
      "BrnchOfLocs": [
        {
          "city": "NEW YORK",
          "state": 35,
          "stateSpecified": true
        }
      ],
      "orgNm": "AXA ADVISORS, LLC",
      "orgPK": "6627",
      "regBeginDt": "2002-07-30T00:00:00",
      "regBeginDtSpecified": true,
      "regEndDt": "2006-03-21T00:00:00",
      "regEndDtSpecified": true
    }
  ],
  "EmpHss": [
    {
      "fromDt": "03/2006",
      "toDt": "06/2008",
      "orgNm": "UBS FINANCIAL SERVICES",
      "city": "NEW YORK",
      "state": 35,
      "stateSpecified": true
    },
    {
      "fromDt": "06/2008",
      "toDt": null,
      "orgNm": "LPL FINANCIAL",
      "city": "NEW YORK",
      "state": 35,
      "stateSpecified": true
    },
    {
      "fromDt": "09/2012",
      "toDt": null,
      "orgNm": "PRIVATE ADVISOR GROUP, LLC",
      "city": "MORRISTOWN",
      "state": 32,
      "stateSpecified": true
    }
  ],
  "OthrBuss": {
    "OthrBus": {
      "desc": "(1) 6/25/2008 - DBA ONLY - FLYNN FINANCIAL PARTNERS - NEW YORK, NY.   (2) 11/5/2009 - DBA ONLY - MORRISTOWN FINANCIAL GROUP - NEW YORK, NY.    (3) 1/31/2011 - OTHER-Other SALES/MARKETING CONSULTANT - COMPASS POINT SOUTH - ACT AS A SALES/MARKETING CONSULTANT TO A START-UP SMALL BUSINESS OWNED BY MY WIFE IN THE RENEWABLE ENERGY BUSINESS (SOLAR PV) - TIMESPENT 5%.    (4) 8/1/2011 - REAL ESTATE RENTAL - FLYNN FINANCIAL PARTNERS LTD LLC - SUBLET OFFICE SPACE TO 4 OTHER LPL ADVISORS - TIME SPENT 1%- NEW YORK, NY  (5) 05/06/13 - PRIVATE ADVISOR GROUP - REGISTERED INVESTMENT ADVISOR - (HYBRID) PRIVATE ADVISOR GROUP - (HYBRID) WE CHARGE FEE FOR SERVICE, HOURLY COMMISION, WRAP FEES - 70% OF TIME SPENT - NEW YORK, NY  (6) 05/24/2013 - NON-VARIABLE INSURANCE - DOING INSURANCE BUSINESS AWAY FROM LPL FINANICAL - NO P&C BUSINESS - 1% OF TIME SPENT - NEW YORK, NY"
    }
  },
  "DRPs": [
    {
      "hasRegAction": 1,
      "hasRegActionSpecified": true,
      "hasCriminal": 0,
      "hasCriminalSpecified": true,
      "hasBankrupt": 1,
      "hasBankruptSpecified": true,
      "hasCivilJudc": 1,
      "hasCivilJudcSpecified": true,
      "hasBond": 1,
      "hasBondSpecified": true,
      "hasJudgment": 1,
      "hasJudgmentSpecified": true,
      "hasInvstgn": 1,
      "hasInvstgnSpecified": true,
      "hasCustComp": 0,
      "hasCustCompSpecified": true,
      "hasTermination": 1,
      "hasTerminationSpecified": true
    }
  ]
}