{
  "Info": {
    "lastNm": "BECKERT",
    "firstNm": "JASON",
    "midNm": "MYERSON",
    "sufNm": null,
    "indvlPK": "2839206",
    "actvAGReg": 0,
    "link": "http://www.adviserinfo.sec.gov/IAPD/Individual/2839206"
  },
  "OthrNms": [
    {
      "lastNm": "BECKERT",
      "firstNm": "JASON",
      "midNm": "M",
      "sufNm": null
    }
  ],
  "CrntEmps": [
    {
      "CrntRgstns": [
        {
          "regAuth": 45,
          "regCat": 0,
          "st": 3,
          "stDt": "1997-03-27T00:00:00"
        },
        {
          "regAuth": 28,
          "regCat": 0,
          "st": 2,
          "stDt": "2002-07-26T00:00:00"
        }
      ],
      "BrnchOfLocs": [
        {
          "str1": "4500 CAMERON VALLEY PKWY",
          "str2": null,
          "city": "CHARLOTTE",
          "state": 28,
          "stateSpecified": true,
          "cntry": "United States",
          "postlCd": "28211"
        }
      ],
      "orgNm": "MERRILL LYNCH, PIERCE, FENNER & SMITH INCORPORATED",
      "orgPK": "7691",
      "str1": "ONE BRYANT PARK",
      "str2": null,
      "city": "NEW YORK",
      "state": 35,
      "stateSpecified": true,
      "cntry": "United States",
      "postlCd": "10036"
    }
  ],
  "Exms": [
    {
      "exmCd": 0,
      "exmNm": "Uniform Securities Agent State Law Examination",
      "exmDt": "1997-02-21T00:00:00",
      "exmDtSpecified": true
    },
    {
      "exmCd": 2,
      "exmNm": "Uniform Investment Adviser Law Examination",
      "exmDt": "2002-07-24T00:00:00",
      "exmDtSpecified": true
    }
  ],
  "Dsgntns": [],
  "PrevRgstns": [],
  "EmpHss": [
    {
      "fromDt": "12/1996",
      "toDt": null,
      "orgNm": "MERRILL LYNCH, PIERCE, FENNER & SMITH INCORPORATED",
      "city": "CHARLOTTE",
      "state": 28,
      "stateSpecified": true
    }
  ],
  "OthrBuss": {
    "OthrBus": {
      "desc": "I*33504 FOR PROFIT OR NOT FOR PROFIT: NON-PROFIT ORGANIZATION  NAME OF OUTSIDE BUSINESS ORGANIZATION: THE WHEAT FOUNDATION  INVESTMENT RELATED: Y  ADDRESS OF BUSINESS:  WAXHAW, NORTH CAROLINA   NATURE OF BUSINESS: CHARITABLE ORGANIZATION,  POSITION, TITLE, ASSOCIATION: FAMILY HELD,   START DATE OF RELATIONSHIP: 1/1/2004  NUMBER OF HOURS DEVOTED: 10 HOUR(S) ANNUALLY  NUMBER OF HOURS DEVOTED DURING TRADING HOURS: 2  DUTIES: CHARITABLE FAMILY FOUNDATION SET UP BY MY WIFE AND I.  WE ARE THE ONLY CONTRIBUTORS TO THE WHEAT FOUNDATION. I SERVE AS PRESIDENT.    I*43559  FOR PROFIT OR NOT FOR PROFIT: NON-PROFIT ORGANIZATION  NAME OF OUTSIDE BUSINESS ORGANIZATION: MECKLENBURG AREA CATHOLIC SCHOOLS SYSTEM BOARD  INVESTMENT RELATED: N  ADDRESS OF BUSINESS:   1123 SOUTH CHURCH STREET,   CHARLOTTE, NORTH CAROLINA 28203  NATURE OF BUSINESS: CHARITABLE ORGANIZATION,  POSITION, TITLE, ASSOCIATION: DIRECTOR,   START DATE OF RELATIONSHIP: 6/1/2010  NUMBER OF HOURS DEVOTED: 4 HOUR(S) MONTHLY  NUMBER OF HOURS DEVOTED DURING TRADING HOURS: 0  DUTIES: ADVISORY BOARD FOR CHARLOTTE AREA CATHOLIC SCHOOLS. PROVIDE GENERAL ADVICE TO THE SUPERINTENDENT"
    }
  },
  "DRPs": [
    {
      "hasRegAction": 1,
      "hasRegActionSpecified": true,
      "hasCriminal": 1,
      "hasCriminalSpecified": true,
      "hasBankrupt": 1,
      "hasBankruptSpecified": true,
      "hasCivilJudc": 1,
      "hasCivilJudcSpecified": true,
      "hasBond": 1,
      "hasBondSpecified": true,
      "hasJudgment": 1,
      "hasJudgmentSpecified": true,
      "hasInvstgn": 1,
      "hasInvstgnSpecified": true,
      "hasCustComp": 0,
      "hasCustCompSpecified": true,
      "hasTermination": 1,
      "hasTerminationSpecified": true
    }
  ]
}