{
  "Info": {
    "lastNm": "CAVIEZEL",
    "firstNm": "KARSTEN",
    "midNm": "J.",
    "sufNm": null,
    "indvlPK": "2841071",
    "actvAGReg": 0,
    "link": "http://www.adviserinfo.sec.gov/IAPD/Individual/2841071"
  },
  "OthrNms": [
    {
      "lastNm": "CAUIEZEL",
      "firstNm": "KARSTEN",
      "midNm": "JON",
      "sufNm": null
    },
    {
      "lastNm": "CAVIEZEL",
      "firstNm": "KARSTEN",
      "midNm": "JON",
      "sufNm": null
    }
  ],
  "CrntEmps": [
    {
      "CrntRgstns": [
        {
          "regAuth": 45,
          "regCat": 0,
          "st": 2,
          "stDt": "2008-12-05T00:00:00"
        },
        {
          "regAuth": 49,
          "regCat": 0,
          "st": 2,
          "stDt": "2008-12-05T00:00:00"
        }
      ],
      "BrnchOfLocs": [
        {
          "str1": "1145 BROADWAY",
          "str2": "SUITE 1400",
          "city": "TACOMA",
          "state": 49,
          "stateSpecified": true,
          "cntry": "United States",
          "postlCd": "98402-3503"
        }
      ],
      "orgNm": "UBS FINANCIAL SERVICES INC.",
      "orgPK": "8174",
      "str1": "1200 HARBOR BOULEVARD",
      "str2": null,
      "city": "WEEHAWKEN",
      "state": 32,
      "stateSpecified": true,
      "cntry": "United States",
      "postlCd": "07086"
    }
  ],
  "Exms": [
    {
      "exmCd": 3,
      "exmNm": "Uniform Combined State Law Examination",
      "exmDt": "2000-01-03T00:00:00",
      "exmDtSpecified": true
    }
  ],
  "Dsgntns": [],
  "PrevRgstns": [
    {
      "BrnchOfLocs": [
        {
          "city": "TACOMA",
          "state": 49,
          "stateSpecified": true
        },
        {
          "city": "TACOMA",
          "state": 49,
          "stateSpecified": true
        }
      ],
      "orgNm": "MORGAN STANLEY DW INC.",
      "orgPK": "7556",
      "regBeginDt": "2000-09-29T00:00:00",
      "regBeginDtSpecified": true,
      "regEndDt": "2007-04-02T00:00:00",
      "regEndDtSpecified": true
    },
    {
      "BrnchOfLocs": [
        {
          "city": "TACOMA",
          "state": 49,
          "stateSpecified": true
        }
      ],
      "orgNm": "MORGAN STANLEY & CO. LLC",
      "orgPK": "8209",
      "regBeginDt": "2007-04-02T00:00:00",
      "regBeginDtSpecified": true,
      "regEndDt": "2008-12-08T00:00:00",
      "regEndDtSpecified": true
    }
  ],
  "EmpHss": [
    {
      "fromDt": "10/1999",
      "toDt": "04/2007",
      "orgNm": "MORGAN STANLEY DEAN WITTER",
      "city": "TACOMA",
      "state": 49,
      "stateSpecified": true
    },
    {
      "fromDt": "04/2007",
      "toDt": "12/2008",
      "orgNm": "MORGAN STANLEY & CO., INCORPORATED",
      "city": "TACOMA",
      "state": 49,
      "stateSpecified": true
    },
    {
      "fromDt": "12/2008",
      "toDt": null,
      "orgNm": "UBS FINANCIAL SERVICES INC",
      "city": "TACOMA",
      "state": 49,
      "stateSpecified": true
    }
  ],
  "OthrBuss": {
    "OthrBus": null
  },
  "DRPs": []
}