{
  "Info": {
    "lastNm": "DAVIS",
    "firstNm": "KENNETH",
    "midNm": "CAMPBELL",
    "sufNm": "JR",
    "indvlPK": "2843671",
    "actvAGReg": 0,
    "link": "http://www.adviserinfo.sec.gov/IAPD/Individual/2843671"
  },
  "OthrNms": [],
  "CrntEmps": [
    {
      "CrntRgstns": [
        {
          "regAuth": 4,
          "regCat": 0,
          "st": 2,
          "stDt": "2012-10-11T00:00:00"
        },
        {
          "regAuth": 28,
          "regCat": 0,
          "st": 2,
          "stDt": "2013-04-24T00:00:00"
        },
        {
          "regAuth": 19,
          "regCat": 0,
          "st": 2,
          "stDt": "2013-04-29T00:00:00"
        },
        {
          "regAuth": 45,
          "regCat": 0,
          "st": 3,
          "stDt": "2014-07-09T00:00:00"
        },
        {
          "regAuth": 36,
          "regCat": 0,
          "st": 2,
          "stDt": "2015-08-12T00:00:00"
        }
      ],
      "BrnchOfLocs": [
        {
          "str1": "2029 CENTURY PARK EAST",
          "str2": "FLOOR 37 & 38",
          "city": "LOS ANGELES",
          "state": 4,
          "stateSpecified": true,
          "cntry": "United States",
          "postlCd": "90067"
        }
      ],
      "orgNm": "J.P. MORGAN SECURITIES LLC",
      "orgPK": "79",
      "str1": "277 PARK AVENUE",
      "str2": null,
      "city": "NEW YORK",
      "state": 35,
      "stateSpecified": true,
      "cntry": "United States",
      "postlCd": "10172"
    }
  ],
  "Exms": [
    {
      "exmCd": 0,
      "exmNm": "Uniform Securities Agent State Law Examination",
      "exmDt": "1997-01-28T00:00:00",
      "exmDtSpecified": true
    },
    {
      "exmCd": 2,
      "exmNm": "Uniform Investment Adviser Law Examination",
      "exmDt": "1997-01-31T00:00:00",
      "exmDtSpecified": true
    }
  ],
  "Dsgntns": [],
  "PrevRgstns": [
    {
      "BrnchOfLocs": [
        {
          "city": "LOS ANGELES",
          "state": 4,
          "stateSpecified": true
        }
      ],
      "orgNm": "ALLIANCEBERNSTEIN L.P.",
      "orgPK": "108477",
      "regBeginDt": "2000-08-02T00:00:00",
      "regBeginDtSpecified": true,
      "regEndDt": "2012-10-24T00:00:00",
      "regEndDtSpecified": true
    }
  ],
  "EmpHss": [
    {
      "fromDt": "10/1996",
      "toDt": "10/2012",
      "orgNm": "SANFORD C. BERNSTEIN & CO., INC.",
      "city": "NEW YORK",
      "state": 35,
      "stateSpecified": true
    },
    {
      "fromDt": "11/2000",
      "toDt": "10/2012",
      "orgNm": "SANFORD C. BERNSTEIN & CO., LLC",
      "city": "NEW YORK",
      "state": 35,
      "stateSpecified": true
    },
    {
      "fromDt": "10/2012",
      "toDt": null,
      "orgNm": "J.P. MORGAN SECURITIES LLC",
      "city": "LOS ANGELES",
      "state": 4,
      "stateSpecified": true
    },
    {
      "fromDt": "10/2012",
      "toDt": null,
      "orgNm": "JPMORGAN CHASE BANK NA",
      "city": "LOS ANGELES",
      "state": 4,
      "stateSpecified": true
    }
  ],
  "OthrBuss": {
    "OthrBus": {
      "desc": "I WILL BE AN EMPLOYEE OF BOTH J.P. MORGAN SECURITIES LLC AND JPMORGAN CHASE BANK, N.A. (\"JPMCB\").  JPMCB OFFERS A BROAD RANGE OF PRODUCTS AND SERVICES NATIONWIDE.  AS AN EMPLOYEE OF JPMCB, I WILL BE ABLE TO OFFER CERTAIN BANK PRODUCTS AND SERVICES, INCLUDING DEPOSIT AND CREDIT PRODUCTS AND DISCRETIONARY INVESTMENT MANAGEMENT.    Entity Name: Make-A-Wish of Greater Los Angeles   Investment related: No  Address: 11390 W. Olympic Blvd., Suite 300, Los Angeles, CA 90064   Nature of the other business: We grant wishes to children with life threatening illnesses.   Position/Title/Relationship: Director  Start Date: 01 Sep 2014   Approximate # of hours a month: 5  Approximate # of hours during securities hours: 3 per month  Briefly describe your duties: Director"
    }
  },
  "DRPs": [
    {
      "hasRegAction": 1,
      "hasRegActionSpecified": true,
      "hasCriminal": 1,
      "hasCriminalSpecified": true,
      "hasBankrupt": 1,
      "hasBankruptSpecified": true,
      "hasCivilJudc": 1,
      "hasCivilJudcSpecified": true,
      "hasBond": 1,
      "hasBondSpecified": true,
      "hasJudgment": 1,
      "hasJudgmentSpecified": true,
      "hasInvstgn": 1,
      "hasInvstgnSpecified": true,
      "hasCustComp": 0,
      "hasCustCompSpecified": true,
      "hasTermination": 1,
      "hasTerminationSpecified": true
    }
  ]
}