{
  "Info": {
    "lastNm": "ZERBARINI",
    "firstNm": "STEVEN",
    "midNm": "ELLIOTT",
    "sufNm": null,
    "indvlPK": "2845669",
    "actvAGReg": 0,
    "link": "http://www.adviserinfo.sec.gov/IAPD/Individual/2845669"
  },
  "OthrNms": [
    {
      "lastNm": "ZERBARINI",
      "firstNm": "STEVEN",
      "midNm": "E",
      "sufNm": null
    }
  ],
  "CrntEmps": [
    {
      "CrntRgstns": [
        {
          "regAuth": 9,
          "regCat": 0,
          "st": 2,
          "stDt": "2006-12-04T00:00:00"
        }
      ],
      "BrnchOfLocs": [
        {
          "str1": "100 MAIN STREET SUITE 300",
          "str2": null,
          "city": "SAFETY HARBOR",
          "state": 9,
          "stateSpecified": true,
          "cntry": "United States",
          "postlCd": "34695"
        }
      ],
      "orgNm": "NEXT FINANCIAL GROUP, INC.",
      "orgPK": "46214",
      "str1": "2500 WILCREST",
      "str2": "SUITE 620",
      "city": "HOUSTON",
      "state": 45,
      "stateSpecified": true,
      "cntry": "United States",
      "postlCd": "77042"
    }
  ],
  "Exms": [
    {
      "exmCd": 0,
      "exmNm": "Uniform Securities Agent State Law Examination",
      "exmDt": "1998-01-24T00:00:00",
      "exmDtSpecified": true
    },
    {
      "exmCd": 2,
      "exmNm": "Uniform Investment Adviser Law Examination",
      "exmDt": "1999-12-18T00:00:00",
      "exmDtSpecified": true
    }
  ],
  "Dsgntns": [
    {
      "dsgntnNm": "Certified Financial Planner"
    },
    {
      "dsgntnNm": "Chartered Financial Consultant"
    }
  ],
  "PrevRgstns": [
    {
      "BrnchOfLocs": [
        {
          "city": "PALM HARBOR",
          "state": 9,
          "stateSpecified": true
        }
      ],
      "orgNm": "AMERIPRISE FINANCIAL SERVICES, INC.",
      "orgPK": "6363",
      "regBeginDt": "1997-02-18T00:00:00",
      "regBeginDtSpecified": true,
      "regEndDt": "2006-12-08T00:00:00",
      "regEndDtSpecified": true
    }
  ],
  "EmpHss": [
    {
      "fromDt": "01/1997",
      "toDt": "12/2006",
      "orgNm": "IDS LIFE INSURANCE COMPANY",
      "city": "TAMPA",
      "state": 9,
      "stateSpecified": true
    },
    {
      "fromDt": "05/1997",
      "toDt": "12/2006",
      "orgNm": "AMERICAN EXPRESS FINANCIAL ADVISORS INC.",
      "city": "CLEARWATER",
      "state": 9,
      "stateSpecified": true
    },
    {
      "fromDt": "12/2006",
      "toDt": null,
      "orgNm": "NEXT FINANCIAL GROUP INC",
      "city": "SAFETY HARBOR",
      "state": 9,
      "stateSpecified": true
    },
    {
      "fromDt": "12/2006",
      "toDt": null,
      "orgNm": "SOWER FINANCIAL LLC",
      "city": "SAFETY HARBOR",
      "state": 9,
      "stateSpecified": true
    },
    {
      "fromDt": "04/2008",
      "toDt": "07/2010",
      "orgNm": "FUTURE HOME REALTY",
      "city": "TAMPA",
      "state": 9,
      "stateSpecified": true
    },
    {
      "fromDt": "04/2008",
      "toDt": "07/2010",
      "orgNm": "INNOVATIVE MORTGAGE",
      "city": "TRINITY",
      "state": 9,
      "stateSpecified": true
    },
    {
      "fromDt": "06/2010",
      "toDt": null,
      "orgNm": "SOWER MORTGAGE CORP",
      "city": "SAFETY HARBOR",
      "state": 9,
      "stateSpecified": true
    },
    {
      "fromDt": "06/2010",
      "toDt": null,
      "orgNm": "SOWER REALTY, INC",
      "city": "SAFETY HARBOR",
      "state": 9,
      "stateSpecified": true
    }
  ],
  "OthrBuss": {
    "OthrBus": {
      "desc": "1) SOWER WEALTH GROUP POSITION: Owner NATURE: Doing Business As (\"DBA\") INVESTMENT RELATED: Yes NUMBER OF HOURS: 200 SECURITIES TRADING HOURS: 135 START DATE: 03/07/2007 ADDRESS: 100 Main Street, Suite 300, Safety Harbor FL 34695 DESCRIPTION: unlimited   2) SOWER WEALTH LLC POSITION: Owner NATURE: TAX PREPARATION INVESTMENT RELATED: No NUMBER OF HOURS: 40 SECURITIES TRADING HOURS: 10 START DATE: 01/01/2011 ADDRESS: 100 Main Street, Suite 300, Safety Harbor FL 34695 DESCRIPTION: Tax preparation   3) SOWER WEALTH LLC POSITION: Owner NATURE: INSURANCE: Fixed Annuities, Life/Health, Long-Term Care, Disability... INVESTMENT RELATED: No NUMBER OF HOURS: 10 SECURITIES TRADING HOURS: 0 START DATE: 03/07/1997 ADDRESS: 100 Main Street, Suite 300, Safety Harbor FL 34695 DESCRIPTION: Insurance sales and analysis   4) STEVEN ZERBARINI POSITION: Arbitrator NATURE: ARBITRATOR INVESTMENT RELATED: Yes NUMBER OF HOURS: 2 SECURITIES TRADING HOURS: 0 START DATE: 03/01/2000 ADDRESS: 100 Main Street, Suite 300, Safety Harbor FL 34695 DESCRIPTION: Participate as arbitrator for FINRA arbitration cases.   5) SOWER REALTY, INC. POSITION: Broker NATURE: REAL ESTATE BROKERAGE INVESTMENT RELATED: No NUMBER OF HOURS: 4 SECURITIES TRADING HOURS: 0 START DATE: 03/01/2008 ADDRESS: 100 Main Street, Suite 300, Safety Harbor FL 34695 DESCRIPTION: Real Estate Brokerage   6) SOWER MORTGAGE CORP POSITION: Mortgage Broker NATURE: MORTGAGE BROKERAGE SERVICES INVESTMENT RELATED: No NUMBER OF HOURS: 2 SECURITIES TRADING HOURS: 0 START DATE: 03/01/2008 ADDRESS: 100 Main Street, Suite 300, Safety Harbor FL 34695 DESCRIPTION: Mortgage Brokerage"
    }
  },
  "DRPs": []
}