{
  "Info": {
    "lastNm": "KALB",
    "firstNm": "CHARLES",
    "midNm": "RICHARD",
    "sufNm": null,
    "indvlPK": "2847604",
    "actvAGReg": 0,
    "link": "http://www.adviserinfo.sec.gov/IAPD/Individual/2847604"
  },
  "OthrNms": [],
  "CrntEmps": [
    {
      "CrntRgstns": [
        {
          "regAuth": 9,
          "regCat": 0,
          "st": 2,
          "stDt": "1997-03-05T00:00:00"
        },
        {
          "regAuth": 45,
          "regCat": 0,
          "st": 3,
          "stDt": "2010-08-16T00:00:00"
        }
      ],
      "BrnchOfLocs": [
        {
          "str1": "6817 SOUTHPOINT PKWY",
          "str2": "STE 1103",
          "city": "JACKSONVILLE",
          "state": 9,
          "stateSpecified": true,
          "cntry": "United States",
          "postlCd": "32216-6220"
        }
      ],
      "orgNm": "AMERIPRISE FINANCIAL SERVICES, INC.",
      "orgPK": "6363",
      "str1": "707 2ND AVENUE SOUTH",
      "str2": null,
      "city": "MINNEAPOLIS",
      "state": 24,
      "stateSpecified": true,
      "cntry": "United States",
      "postlCd": "55402"
    }
  ],
  "Exms": [
    {
      "exmCd": 0,
      "exmNm": "Uniform Securities Agent State Law Examination",
      "exmDt": "1997-04-15T00:00:00",
      "exmDtSpecified": true
    },
    {
      "exmCd": 2,
      "exmNm": "Uniform Investment Adviser Law Examination",
      "exmDt": "2002-04-12T00:00:00",
      "exmDtSpecified": true
    }
  ],
  "Dsgntns": [],
  "PrevRgstns": [],
  "EmpHss": [
    {
      "fromDt": "01/1991",
      "toDt": null,
      "orgNm": "PROCTER & GAMBLE CORP",
      "city": "JACKSONVILLE",
      "state": 9,
      "stateSpecified": true
    },
    {
      "fromDt": "01/1997",
      "toDt": null,
      "orgNm": "AMERICAN EXPRESS FINANCIAL ADVISORS INC.",
      "city": "JACKSONVILLE",
      "state": 9,
      "stateSpecified": true
    },
    {
      "fromDt": "01/1997",
      "toDt": null,
      "orgNm": "IDS LIFE INSURANCE COMPANY",
      "city": "JACKSONVILLE",
      "state": 9,
      "stateSpecified": true
    }
  ],
  "OthrBuss": {
    "OthrBus": {
      "desc": "REAL ESTATE OWNERSHIP: COMMERCIAL, 6817 SOUTHPOINT PARKWAY JACKSONVILLE, FL 32216;APRIL 204/ LOT/LAND, INDIAN BRANCH RANCH ROAD ST JOHNS COUNTY, FL, OCTOBER 2005.       BUSINESS OWNERSHIP: LTFP PROPERTIES, LLC, MANAGING MEMBER, HOLDS REAL ESTATE FOR ADVISOR OFFICES, RENTS OFFICE SPACE TO ADVISORS, JACKSONVILLE, FL 32216;APRIL 2004; HRS:1TO9.    OUTSIDE EMPLOYMENT: MANDARIN EQUINE VETERINARY SERVICES, PAY BILLS AND DO PAYROLL, WIFE OWNS BUSINESS AND IS SOLE DOCTOR. HAS VET TECH AND OFFICE MANAGER, JACKSONVILLE, FL 32223,HRS:10-19."
    }
  },
  "DRPs": []
}