{
  "Info": {
    "lastNm": "EVANS",
    "firstNm": "RYAN",
    "midNm": "PATRICK",
    "sufNm": null,
    "indvlPK": "2852837",
    "actvAGReg": 0,
    "link": "http://www.adviserinfo.sec.gov/IAPD/Individual/2852837"
  },
  "OthrNms": [],
  "CrntEmps": [
    {
      "CrntRgstns": [
        {
          "regAuth": 9,
          "regCat": 0,
          "st": 2,
          "stDt": "2016-04-27T00:00:00"
        }
      ],
      "BrnchOfLocs": [
        {
          "str1": "2208 HILLCREST ST",
          "str2": null,
          "city": "ORLANDO",
          "state": 9,
          "stateSpecified": true,
          "cntry": "United States",
          "postlCd": "32803"
        }
      ],
      "orgNm": "KESTRA ADVISORY SERVICES, LLC",
      "orgPK": "283330",
      "str1": "1250 CAPITAL OF TEXAS HWY S BUILDING 2",
      "str2": "SUITE 125",
      "city": "AUSTIN",
      "state": 45,
      "stateSpecified": true,
      "cntry": "United States",
      "postlCd": "78746"
    },
    {
      "CrntRgstns": [
        {
          "regAuth": 9,
          "regCat": 0,
          "st": 2,
          "stDt": "2002-01-04T00:00:00"
        }
      ],
      "BrnchOfLocs": [
        {
          "str1": "2208 HILLCREST ST",
          "str2": null,
          "city": "ORLANDO",
          "state": 9,
          "stateSpecified": true,
          "cntry": "United States",
          "postlCd": "32803"
        }
      ],
      "orgNm": "KESTRA INVESTMENT SERVICES, LLC",
      "orgPK": "42046",
      "str1": "1250 CAPITAL OF TEXAS HIGHWAY S.",
      "str2": "2-125",
      "city": "AUSTIN",
      "state": 45,
      "stateSpecified": true,
      "cntry": "United States",
      "postlCd": "78746"
    }
  ],
  "Exms": [
    {
      "exmCd": 0,
      "exmNm": "Uniform Securities Agent State Law Examination",
      "exmDt": "1997-03-05T00:00:00",
      "exmDtSpecified": true
    },
    {
      "exmCd": 3,
      "exmNm": "Uniform Combined State Law Examination",
      "exmDt": "2001-02-01T00:00:00",
      "exmDtSpecified": true
    }
  ],
  "Dsgntns": [
    {
      "dsgntnNm": "Certified Financial Planner"
    }
  ],
  "PrevRgstns": [],
  "EmpHss": [
    {
      "fromDt": "01/2002",
      "toDt": "04/2016",
      "orgNm": "NFP SECURITIES INC",
      "city": "ORLANDO",
      "state": 9,
      "stateSpecified": true
    },
    {
      "fromDt": "04/2016",
      "toDt": null,
      "orgNm": "KESTRA FINANCIAL SERVICES, INC",
      "city": "Austin",
      "state": 47,
      "stateSpecified": true
    }
  ],
  "OthrBuss": {
    "OthrBus": {
      "desc": "?BUSINESS NAME: WHIRLY PROPERTIES INVESTMENT RELATED: NO ADDRESS: 2208 HILLCREST ST ORLANDO FL 32803 NATURE OF BUSINESS: OTHER OTHER/NONE OF THE ABOVE NONE OF THE ABOVE POSITION, TITLE OR RELATIONSHIP: PARTNER START DATE: 1/1/2003 HOURS PER MONTH: 0% - 10% (0 - 16 HOURS) HOURS PER MONTH DURING TRADING HOURS: 0% - 10% (0 - 14 HOURS) DUTIES: GENERAL UPKEEP, AND LEASING OF THE COMMERCIAL BUILDING  Business Name: Kestra Advisory Services, LLC Investment Related: Yes Address: 1250 Capital of Texas Highway, Building 2 Suite 125 Austin TX 78746 Nature of Business: Investment Advisory services through Kestra Advisory Services, LLC   Position, Title or Relationship: Investment Advisor Representative Start Date: 4/4/2016 Hours per month: Up to 100% (0 to 160 hours) Hours per month during trading hours: Up to 100% (0 to 160 hours) Duties: Investment advisory servicesBusiness Name: Evans Financial Partners Investment Related: Yes Address: 2208 Hillcrest St Orlando FL 32803 Nature of Business: Registered Rep Activities through Kestra Investment Services, LLC using a DBA name; Consulting; Insurance; Investment Advisory services through Kestra Advisory Services, LLC   Position, Title or Relationship: Owner Start Date: 3/4/2007 Hours per month: 91% - 100% (145 - 160 hours) Hours per month during trading hours: 91% - 100% (127 - 140 hours) Duties: I manage the client and corporate relationships, planning, and day to day operations of Evans Financial Partners"
    }
  },
  "DRPs": []
}