{
  "Info": {
    "lastNm": "LYTLE",
    "firstNm": "MARK",
    "midNm": "DOUGLAS",
    "sufNm": null,
    "indvlPK": "2853130",
    "actvAGReg": 0,
    "link": "http://www.adviserinfo.sec.gov/IAPD/Individual/2853130"
  },
  "OthrNms": [],
  "CrntEmps": [
    {
      "CrntRgstns": [
        {
          "regAuth": 36,
          "regCat": 0,
          "st": 2,
          "stDt": "2015-02-19T00:00:00"
        }
      ],
      "BrnchOfLocs": [
        {
          "str1": "30100 CHAGRIN BLVD SUITE 100S",
          "str2": null,
          "city": "PEPPER PIKE",
          "state": 36,
          "stateSpecified": true,
          "cntry": "United States",
          "postlCd": "44124"
        },
        {
          "str1": "4717 MAIN AVENUE",
          "str2": null,
          "city": "ASHTABULA",
          "state": 36,
          "stateSpecified": true,
          "cntry": "United States",
          "postlCd": "44004"
        }
      ],
      "orgNm": "KEY INVESTMENT SERVICES LLC",
      "orgPK": "136300",
      "str1": "4900 TIEDEMAN ROAD",
      "str2": "OH-01-49-0215",
      "city": "BROOKLYN",
      "state": 36,
      "stateSpecified": true,
      "cntry": "United States",
      "postlCd": "44144"
    }
  ],
  "Exms": [
    {
      "exmCd": 0,
      "exmNm": "Uniform Securities Agent State Law Examination",
      "exmDt": "1997-02-28T00:00:00",
      "exmDtSpecified": true
    },
    {
      "exmCd": 3,
      "exmNm": "Uniform Combined State Law Examination",
      "exmDt": "2015-02-18T00:00:00",
      "exmDtSpecified": true
    }
  ],
  "Dsgntns": [],
  "PrevRgstns": [
    {
      "BrnchOfLocs": [
        {
          "city": "AMHERST",
          "state": 36,
          "stateSpecified": true
        },
        {
          "city": "ASHTABULA",
          "state": 36,
          "stateSpecified": true
        },
        {
          "city": "ASHTABULA",
          "state": 36,
          "stateSpecified": true
        },
        {
          "city": "ASHTABULA",
          "state": 36,
          "stateSpecified": true
        },
        {
          "city": "JEFFERSON",
          "state": 36,
          "stateSpecified": true
        },
        {
          "city": "NORTH KINGSVILLE",
          "state": 36,
          "stateSpecified": true
        },
        {
          "city": "TAMPA",
          "state": 9,
          "stateSpecified": true
        }
      ],
      "orgNm": "INVEST FINANCIAL CORPORATION",
      "orgPK": "12984",
      "regBeginDt": "2007-01-24T00:00:00",
      "regBeginDtSpecified": true,
      "regEndDt": "2010-01-25T00:00:00",
      "regEndDtSpecified": true
    },
    {
      "BrnchOfLocs": [
        {
          "city": "AKRON",
          "state": 36,
          "stateSpecified": true
        },
        {
          "city": "ASHTABULA",
          "state": 36,
          "stateSpecified": true
        }
      ],
      "orgNm": "FIRSTMERIT ADVISORS, INC.",
      "orgPK": "125249",
      "regBeginDt": "2010-01-21T00:00:00",
      "regBeginDtSpecified": true,
      "regEndDt": "2011-09-12T00:00:00",
      "regEndDtSpecified": true
    }
  ],
  "EmpHss": [
    {
      "fromDt": "07/2005",
      "toDt": "01/2010",
      "orgNm": "INVEST FINANCIAL CORPORATION",
      "city": "TAMPA",
      "state": 9,
      "stateSpecified": true
    },
    {
      "fromDt": "01/2010",
      "toDt": "09/2011",
      "orgNm": "FIRSTMERIT ADVISORS, INC.",
      "city": "AKRON",
      "state": 36,
      "stateSpecified": true
    },
    {
      "fromDt": "01/2010",
      "toDt": "09/2011",
      "orgNm": "FIRSTMERIT FINANCIAL SERVICES, INC",
      "city": "ASHTABULA",
      "state": 36,
      "stateSpecified": true
    },
    {
      "fromDt": "09/2011",
      "toDt": "01/2012",
      "orgNm": "UNEMPLOYED",
      "city": "CONNEAUT",
      "state": 36,
      "stateSpecified": true
    },
    {
      "fromDt": "02/2012",
      "toDt": null,
      "orgNm": "KEY INVESTMENT SERVICES LLC",
      "city": "CLEVELAND",
      "state": 36,
      "stateSpecified": true
    }
  ],
  "OthrBuss": {
    "OthrBus": null
  },
  "DRPs": [
    {
      "hasRegAction": 1,
      "hasRegActionSpecified": true,
      "hasCriminal": 1,
      "hasCriminalSpecified": true,
      "hasBankrupt": 1,
      "hasBankruptSpecified": true,
      "hasCivilJudc": 1,
      "hasCivilJudcSpecified": true,
      "hasBond": 1,
      "hasBondSpecified": true,
      "hasJudgment": 1,
      "hasJudgmentSpecified": true,
      "hasInvstgn": 1,
      "hasInvstgnSpecified": true,
      "hasCustComp": 0,
      "hasCustCompSpecified": true,
      "hasTermination": 1,
      "hasTerminationSpecified": true
    }
  ]
}