{
  "Info": {
    "lastNm": "GORDON",
    "firstNm": "MARYELLEN",
    "midNm": "FENLON",
    "sufNm": null,
    "indvlPK": "2856085",
    "actvAGReg": 0,
    "link": "http://www.adviserinfo.sec.gov/IAPD/Individual/2856085"
  },
  "OthrNms": [
    {
      "lastNm": "GORDON",
      "firstNm": "MARY",
      "midNm": "ELLEN FENLON",
      "sufNm": null
    }
  ],
  "CrntEmps": [
    {
      "CrntRgstns": [
        {
          "regAuth": 6,
          "regCat": 0,
          "st": 2,
          "stDt": "2011-01-03T00:00:00"
        }
      ],
      "BrnchOfLocs": [
        {
          "str1": "427 NAUBUC AVE",
          "str2": "BLDG 427  STE 101",
          "city": "GLASTONBURY",
          "state": 6,
          "stateSpecified": true,
          "cntry": "United States",
          "postlCd": "06033"
        },
        {
          "str1": "ONE ORANGE WAY",
          "str2": null,
          "city": "WINDSOR",
          "state": 6,
          "stateSpecified": true,
          "cntry": "United States",
          "postlCd": "06095"
        }
      ],
      "orgNm": "VOYA FINANCIAL ADVISORS, INC.",
      "orgPK": "2882",
      "str1": "909 LOCUST STREET",
      "str2": null,
      "city": "DES MOINES",
      "state": 13,
      "stateSpecified": true,
      "cntry": "United States",
      "postlCd": "50309"
    }
  ],
  "Exms": [
    {
      "exmCd": 3,
      "exmNm": "Uniform Combined State Law Examination",
      "exmDt": "1997-04-22T00:00:00",
      "exmDtSpecified": true
    }
  ],
  "Dsgntns": [],
  "PrevRgstns": [
    {
      "BrnchOfLocs": [
        {
          "city": "HARTFORD",
          "state": 6,
          "stateSpecified": true
        },
        {
          "city": "WINDSOR",
          "state": 6,
          "stateSpecified": true
        },
        {
          "city": "WINDSOR",
          "state": 6,
          "stateSpecified": true
        }
      ],
      "orgNm": "VOYA FINANCIAL PARTNERS, LLC",
      "orgPK": "34815",
      "regBeginDt": "2000-07-05T00:00:00",
      "regBeginDtSpecified": true,
      "regEndDt": "2011-01-03T00:00:00",
      "regEndDtSpecified": true
    }
  ],
  "EmpHss": [
    {
      "fromDt": "11/2000",
      "toDt": "03/2009",
      "orgNm": "ING",
      "city": "GLASTONBURY",
      "state": 6,
      "stateSpecified": true
    },
    {
      "fromDt": "05/2002",
      "toDt": "03/2009",
      "orgNm": "ING FINANCIAL ADVISERS, LLC.",
      "city": "GLASTONBURY",
      "state": 6,
      "stateSpecified": true
    },
    {
      "fromDt": "03/2009",
      "toDt": "01/2011",
      "orgNm": "ING",
      "city": "WINDSOR",
      "state": 6,
      "stateSpecified": true
    },
    {
      "fromDt": "12/2010",
      "toDt": "01/2011",
      "orgNm": "ING FINANCIAL ADVISERS, LLC",
      "city": "WINDSOR",
      "state": 6,
      "stateSpecified": true
    },
    {
      "fromDt": "01/2011",
      "toDt": "09/2014",
      "orgNm": "ING FINANCIAL PARTNERS, INC.",
      "city": "WINDSOR",
      "state": 6,
      "stateSpecified": true
    },
    {
      "fromDt": "09/2014",
      "toDt": null,
      "orgNm": "VOYA FINANCIAL ADVISORS",
      "city": "WINDSOR",
      "state": 6,
      "stateSpecified": true
    }
  ],
  "OthrBuss": {
    "OthrBus": {
      "desc": "1. MARY ELLEN GORDON, ONE ORANGE WAY WINDSOR, CT 06095, INSURANCE AND ANNUITY SALES, BOTH FIXED AND VARIABLE, AGENT, NO, 5/1/10, 10HRS/MO, 1-3HRS/MO/SEC, I WILL PROVIDE LONG-TERM CARE AND LIFE INSURANCE (BOTH TERM AND PERMANENT (FIXED AND VARIABLE) AND ANNUITIES (FIXED, INDEXED AND VARIABLE) AS NEEDED TO CLIENTS AND PROSPECTS."
    }
  },
  "DRPs": []
}