{
  "Info": {
    "lastNm": "BIANCHI",
    "firstNm": "ROCCO",
    "midNm": null,
    "sufNm": null,
    "indvlPK": "2856793",
    "actvAGReg": 0,
    "link": "http://www.adviserinfo.sec.gov/IAPD/Individual/2856793"
  },
  "OthrNms": [],
  "CrntEmps": [
    {
      "CrntRgstns": [
        {
          "regAuth": 3,
          "regCat": 0,
          "st": 2,
          "stDt": "2011-01-03T00:00:00"
        }
      ],
      "BrnchOfLocs": [
        {
          "str1": "6770 EAST CAMELBACK ROAD",
          "str2": null,
          "city": "SCOTTSDALE",
          "state": 3,
          "stateSpecified": true,
          "cntry": "United States",
          "postlCd": "85251"
        },
        {
          "str1": "8601 N SCOTTSDALE RD, 1ST FL STE 150",
          "str2": "[TL-RBO]",
          "city": "SCOTTSDALE",
          "state": 3,
          "stateSpecified": true,
          "cntry": "United States",
          "postlCd": "85253"
        }
      ],
      "orgNm": "WELLS FARGO ADVISORS, LLC",
      "orgPK": "19616",
      "str1": "ONE NORTH JEFFERSON AVENUE",
      "str2": "MAIL CODE: H0004-050",
      "city": "ST. LOUIS",
      "state": 25,
      "stateSpecified": true,
      "cntry": "United States",
      "postlCd": "63103-2205"
    }
  ],
  "Exms": [
    {
      "exmCd": 0,
      "exmNm": "Uniform Securities Agent State Law Examination",
      "exmDt": "1997-03-18T00:00:00",
      "exmDtSpecified": true
    },
    {
      "exmCd": 3,
      "exmNm": "Uniform Combined State Law Examination",
      "exmDt": "2002-02-26T00:00:00",
      "exmDtSpecified": true
    }
  ],
  "Dsgntns": [],
  "PrevRgstns": [
    {
      "BrnchOfLocs": [
        {
          "city": "SCOTTSDALE",
          "state": 3,
          "stateSpecified": true
        }
      ],
      "orgNm": "MERRILL LYNCH, PIERCE, FENNER & SMITH INCORPORATED",
      "orgPK": "7691",
      "regBeginDt": "2003-01-31T00:00:00",
      "regBeginDtSpecified": true,
      "regEndDt": "2003-06-18T00:00:00",
      "regEndDtSpecified": true
    },
    {
      "BrnchOfLocs": [
        {
          "city": "CHANDLER",
          "state": 3,
          "stateSpecified": true
        },
        {
          "city": "MESA",
          "state": 3,
          "stateSpecified": true
        },
        {
          "city": "PHOENIX",
          "state": 3,
          "stateSpecified": true
        }
      ],
      "orgNm": "BANC OF AMERICA INVESTMENT SERVICES, INC.",
      "orgPK": "16361",
      "regBeginDt": "2003-06-13T00:00:00",
      "regBeginDtSpecified": true,
      "regEndDt": "2009-06-29T00:00:00",
      "regEndDtSpecified": true
    },
    {
      "BrnchOfLocs": [
        {
          "city": "CHANDLER",
          "state": 3,
          "stateSpecified": true
        },
        {
          "city": "CHANDLER",
          "state": 3,
          "stateSpecified": true
        },
        {
          "city": "CHANDLER",
          "state": 3,
          "stateSpecified": true
        },
        {
          "city": "CHANDLER",
          "state": 3,
          "stateSpecified": true
        },
        {
          "city": "CHANDLER",
          "state": 3,
          "stateSpecified": true
        },
        {
          "city": "SCOTTSDALE",
          "state": 3,
          "stateSpecified": true
        },
        {
          "city": "SCOTTSDALE",
          "state": 3,
          "stateSpecified": true
        }
      ],
      "orgNm": "WELLS FARGO INVESTMENTS, LLC",
      "orgPK": "10582",
      "regBeginDt": "2009-07-06T00:00:00",
      "regBeginDtSpecified": true,
      "regEndDt": "2011-01-03T00:00:00",
      "regEndDtSpecified": true
    }
  ],
  "EmpHss": [
    {
      "fromDt": "06/2003",
      "toDt": "06/2009",
      "orgNm": "BANC OF AMERICA INSURANCE SERVICES, INC.",
      "city": "CHANDLER",
      "state": 3,
      "stateSpecified": true
    },
    {
      "fromDt": "06/2003",
      "toDt": "06/2009",
      "orgNm": "BANC OF AMERICA INVESTMENT SERVICES, INC.",
      "city": "CHANDLER",
      "state": 3,
      "stateSpecified": true
    },
    {
      "fromDt": "06/2009",
      "toDt": "01/2011",
      "orgNm": "WELLS FARGO INVESTMENTS, LLC",
      "city": "SCOTTTSDALE",
      "state": 3,
      "stateSpecified": true
    },
    {
      "fromDt": "01/2011",
      "toDt": null,
      "orgNm": "WELLS FARGO ADVISORS LLC",
      "city": "SCOTTSDALE",
      "state": 3,
      "stateSpecified": true
    }
  ],
  "OthrBuss": {
    "OthrBus": {
      "desc": "CASA 333, INC;INV RELATED; SCOTTSDALE, AZ; 100% OWNER; 0 HRS PER MONTH 0 DURING TRADING; VACATION HOME AS A SEASONAL RENTAL. CAMELBACK 360 LLC, INVESTMENT RELATED, SCOTTSDALE, AZ, START: 5/2008, 100% OWNER, 0 HOURS PER MONTH, DUTIES: HOLDS REAL ESTATE.  GLENROSA 2 LLC, INV RELATED, SCOTTSDALE, AZ, START: 5/2008, 100% OWNER, 0 HOURS PER MONTH, DUTIES: HOLDS REAL ESTATE.  GEROC, LLC, INV RELATED, SCOTTSDALE, AZ, START: 3/2012, 50% OWNER, 0 HOURS, NO DUTIES.  DRB HOLDINGS, INV RELATED, SCOTTSDALE, AZ, 100% OWNER, START:12/2010 0 HOURS, NO DUTIES."
    }
  },
  "DRPs": []
}