{
  "Info": {
    "lastNm": "MACHAMER",
    "firstNm": "BRIAN",
    "midNm": "SCOTT",
    "sufNm": null,
    "indvlPK": "2858411",
    "actvAGReg": 1,
    "link": "http://www.adviserinfo.sec.gov/IAPD/Individual/2858411"
  },
  "OthrNms": [
    {
      "lastNm": "MACHAMER",
      "firstNm": "BRIAN",
      "midNm": "S",
      "sufNm": null
    }
  ],
  "CrntEmps": [
    {
      "CrntRgstns": [
        {
          "regAuth": 47,
          "regCat": 0,
          "st": 2,
          "stDt": "2009-09-18T00:00:00"
        }
      ],
      "BrnchOfLocs": [
        {
          "str1": null,
          "str2": null,
          "city": "NEWPORT NEWS",
          "state": 47,
          "stateSpecified": true,
          "cntry": "United States",
          "postlCd": null
        }
      ],
      "orgNm": "RIVERSIDE INVESTMENT PARTNERS, INC.",
      "orgPK": "151414",
      "str1": null,
      "str2": null,
      "city": "NEWPORT NEWS",
      "state": 47,
      "stateSpecified": true,
      "cntry": "United States",
      "postlCd": null
    }
  ],
  "Exms": [
    {
      "exmCd": 0,
      "exmNm": "Uniform Securities Agent State Law Examination",
      "exmDt": "1997-05-08T00:00:00",
      "exmDtSpecified": true
    },
    {
      "exmCd": 2,
      "exmNm": "Uniform Investment Adviser Law Examination",
      "exmDt": "1997-05-08T00:00:00",
      "exmDtSpecified": true
    }
  ],
  "Dsgntns": [],
  "PrevRgstns": [
    {
      "BrnchOfLocs": [
        {
          "city": "NORFOLK",
          "state": 47,
          "stateSpecified": true
        }
      ],
      "orgNm": "AXA ADVISORS, LLC",
      "orgPK": "6627",
      "regBeginDt": "2001-01-09T00:00:00",
      "regBeginDtSpecified": true,
      "regEndDt": "2004-03-17T00:00:00",
      "regEndDtSpecified": true
    },
    {
      "BrnchOfLocs": [
        {
          "city": "NORFOLK",
          "state": 47,
          "stateSpecified": true
        },
        {
          "city": "VIRGINIA BEACH",
          "state": 47,
          "stateSpecified": true
        }
      ],
      "orgNm": "NEXT FINANCIAL GROUP, INC.",
      "orgPK": "46214",
      "regBeginDt": "2004-03-01T00:00:00",
      "regBeginDtSpecified": true,
      "regEndDt": "2008-08-29T00:00:00",
      "regEndDtSpecified": true
    },
    {
      "BrnchOfLocs": [
        {
          "city": "NORFOLK",
          "state": 47,
          "stateSpecified": true
        },
        {
          "city": "SAN DIEGO",
          "state": 4,
          "stateSpecified": true
        }
      ],
      "orgNm": "FIRST ALLIED SECURITIES, INC.",
      "orgPK": "32444",
      "regBeginDt": "2008-08-22T00:00:00",
      "regBeginDtSpecified": true,
      "regEndDt": "2009-09-17T00:00:00",
      "regEndDtSpecified": true
    }
  ],
  "EmpHss": [
    {
      "fromDt": "03/2004",
      "toDt": "08/2008",
      "orgNm": "NEXT FINANCIAL GROUP",
      "city": "NORFOLK",
      "state": 47,
      "stateSpecified": true
    },
    {
      "fromDt": "07/2008",
      "toDt": "09/2009",
      "orgNm": "FIRST ALLIED SECURITIES INC",
      "city": "SAN DEIGO",
      "state": 4,
      "stateSpecified": true
    },
    {
      "fromDt": "09/2009",
      "toDt": null,
      "orgNm": "MACHAMER FINANCIAL, INC.",
      "city": "NORFOLK",
      "state": 47,
      "stateSpecified": true
    }
  ],
  "OthrBuss": {
    "OthrBus": null
  },
  "DRPs": []
}