{
  "Info": {
    "lastNm": "RYAN",
    "firstNm": "KATHLEEN",
    "midNm": "MARY",
    "sufNm": null,
    "indvlPK": "2866844",
    "actvAGReg": 0,
    "link": "http://www.adviserinfo.sec.gov/IAPD/Individual/2866844"
  },
  "OthrNms": [
    {
      "lastNm": "HEPP",
      "firstNm": "KATHLEEN",
      "midNm": "MARY",
      "sufNm": null
    },
    {
      "lastNm": "RYAN",
      "firstNm": "KIT",
      "midNm": null,
      "sufNm": null
    }
  ],
  "CrntEmps": [
    {
      "CrntRgstns": [
        {
          "regAuth": 8,
          "regCat": 0,
          "st": 2,
          "stDt": "2007-11-01T00:00:00"
        }
      ],
      "BrnchOfLocs": [
        {
          "str1": "37212 REHOBOTH AVE. EXT.",
          "str2": null,
          "city": "REHOBOTH BEACH",
          "state": 8,
          "stateSpecified": true,
          "cntry": "United States",
          "postlCd": "19971"
        }
      ],
      "orgNm": "QUESTAR ASSET MANAGEMENT, INC.",
      "orgPK": "133358",
      "str1": "5701 GOLDEN HILLS DRIVE",
      "str2": null,
      "city": "MINNEAPOLIS",
      "state": 24,
      "stateSpecified": true,
      "cntry": "United States",
      "postlCd": "55416"
    }
  ],
  "Exms": [
    {
      "exmCd": 0,
      "exmNm": "Uniform Securities Agent State Law Examination",
      "exmDt": "1997-04-17T00:00:00",
      "exmDtSpecified": true
    }
  ],
  "Dsgntns": [],
  "PrevRgstns": [
    {
      "BrnchOfLocs": [
        {
          "city": "BROOMALL",
          "state": 39,
          "stateSpecified": true
        },
        {
          "city": "BROOMALL",
          "state": 39,
          "stateSpecified": true
        },
        {
          "city": "VOORHEES",
          "state": 32,
          "stateSpecified": true
        }
      ],
      "orgNm": "USALLIANZ SECURITIES, INC.",
      "orgPK": "40875",
      "regBeginDt": "2005-07-26T00:00:00",
      "regBeginDtSpecified": true,
      "regEndDt": "2006-06-16T00:00:00",
      "regEndDtSpecified": true
    }
  ],
  "EmpHss": [
    {
      "fromDt": "04/2005",
      "toDt": "11/2006",
      "orgNm": "USALLIANZ SECURITIES INC",
      "city": "MINNEAPOLIS",
      "state": 24,
      "stateSpecified": true
    },
    {
      "fromDt": "10/2005",
      "toDt": null,
      "orgNm": "KMR FINANCIAL NETWORK",
      "city": "BROOMALL",
      "state": 39,
      "stateSpecified": true
    },
    {
      "fromDt": "07/2006",
      "toDt": null,
      "orgNm": "QUESTAR ASSET MANAGEMENT",
      "city": "MINNEAPOLIS",
      "state": 24,
      "stateSpecified": true
    },
    {
      "fromDt": "12/2006",
      "toDt": null,
      "orgNm": "QUESTAR CAPITAL CORPORATION",
      "city": "MINNEAPOLIS",
      "state": 24,
      "stateSpecified": true
    }
  ],
  "OthrBuss": {
    "OthrBus": {
      "desc": "QUESTAR ASSET MANAGEMENT POSITION: INVESTMENT ADVISOR REPRESENTATIVE NATURE: ADVISORY SERVICES INVESTMENT RELATED: YES NUMBER OF HOURS: 80 INVESTMENT RELATED HOURS: 80 START DATE: 07/13/2006 ADDRESS: 13 BRIDGEVILLE ROAD, GEORGETOWN DE 19947 DESCRIPTION: ADVISORY SERVICES USING THIRD PARTY MANAGERS AND PORTFOLIO DESIGNS PRODUCT. ALSO, FEE BASED FINANCIAL PLANNING SERVICES.  KMR FINANCIAL NETWORK LLC POSITION: INSURANCE AGENT. NATURE: SALES OF FIXED ANNUITIES, DISABILITY, HEALTH, LIFE, BENEFITS AND LONG TERM CARE. INVESTMENT RELATED: YES NUMBER OF HOURS: 40 SECURITIES TRADING HOURS: 35 START DATE: 04/04/2005 ADDRESS: 13 BRIDGEVILLE ROAD, GEORGETOWN DE 19947 DESCRIPTION: SALES AND SERVICE."
    }
  },
  "DRPs": []
}