{
  "Info": {
    "lastNm": "GREATON",
    "firstNm": "ANTON",
    "midNm": "DEAN",
    "sufNm": null,
    "indvlPK": "2867290",
    "actvAGReg": 0,
    "link": "http://www.adviserinfo.sec.gov/IAPD/Individual/2867290"
  },
  "OthrNms": [
    {
      "lastNm": "GREATON",
      "firstNm": "ANTON",
      "midNm": "D",
      "sufNm": null
    },
    {
      "lastNm": "GREATON",
      "firstNm": "TONY",
      "midNm": null,
      "sufNm": null
    }
  ],
  "CrntEmps": [
    {
      "CrntRgstns": [
        {
          "regAuth": 45,
          "regCat": 0,
          "st": 2,
          "stDt": "2008-07-28T00:00:00"
        },
        {
          "regAuth": 9,
          "regCat": 0,
          "st": 2,
          "stDt": "2008-07-29T00:00:00"
        }
      ],
      "BrnchOfLocs": [
        {
          "str1": "900 S US HWY 1",
          "str2": null,
          "city": "JUPITER",
          "state": 9,
          "stateSpecified": true,
          "cntry": "United States",
          "postlCd": "33477"
        }
      ],
      "orgNm": "MERRILL LYNCH, PIERCE, FENNER & SMITH INCORPORATED",
      "orgPK": "7691",
      "str1": "ONE BRYANT PARK",
      "str2": null,
      "city": "NEW YORK",
      "state": 35,
      "stateSpecified": true,
      "cntry": "United States",
      "postlCd": "10036"
    }
  ],
  "Exms": [
    {
      "exmCd": 0,
      "exmNm": "Uniform Securities Agent State Law Examination",
      "exmDt": "1997-10-17T00:00:00",
      "exmDtSpecified": true
    },
    {
      "exmCd": 2,
      "exmNm": "Uniform Investment Adviser Law Examination",
      "exmDt": "1998-02-04T00:00:00",
      "exmDtSpecified": true
    }
  ],
  "Dsgntns": [],
  "PrevRgstns": [
    {
      "BrnchOfLocs": [
        {
          "city": "STUART",
          "state": 9,
          "stateSpecified": true
        },
        {
          "city": "STUART",
          "state": 9,
          "stateSpecified": true
        }
      ],
      "orgNm": "MORGAN STANLEY DW INC.",
      "orgPK": "7556",
      "regBeginDt": "2001-07-06T00:00:00",
      "regBeginDtSpecified": true,
      "regEndDt": "2007-04-02T00:00:00",
      "regEndDtSpecified": true
    },
    {
      "BrnchOfLocs": [
        {
          "city": "STUART",
          "state": 9,
          "stateSpecified": true
        }
      ],
      "orgNm": "MORGAN STANLEY & CO. LLC",
      "orgPK": "8209",
      "regBeginDt": "2007-04-02T00:00:00",
      "regBeginDtSpecified": true,
      "regEndDt": "2008-07-31T00:00:00",
      "regEndDtSpecified": true
    }
  ],
  "EmpHss": [
    {
      "fromDt": "07/2001",
      "toDt": "04/2007",
      "orgNm": "MORGAN STANLEY DW INC",
      "city": "STUART",
      "state": 9,
      "stateSpecified": true
    },
    {
      "fromDt": "04/2007",
      "toDt": "07/2008",
      "orgNm": "MORGAN STANLEY & CO., INCORPORATED",
      "city": "STUART",
      "state": 9,
      "stateSpecified": true
    },
    {
      "fromDt": "07/2008",
      "toDt": null,
      "orgNm": "MERRILL LYNCH, PIERCE, FENNER & SMITH INCORPORATED",
      "city": "JUPITER",
      "state": 9,
      "stateSpecified": true
    },
    {
      "fromDt": "12/2009",
      "toDt": null,
      "orgNm": "BANK OF AMERICA, NA",
      "city": "JUPITER",
      "state": 9,
      "stateSpecified": true
    }
  ],
  "OthrBuss": {
    "OthrBus": null
  },
  "DRPs": []
}