{
  "Info": {
    "lastNm": "TONEY",
    "firstNm": "JERRY",
    "midNm": "LYNN",
    "sufNm": null,
    "indvlPK": "2868029",
    "actvAGReg": 0,
    "link": "http://www.adviserinfo.sec.gov/IAPD/Individual/2868029"
  },
  "OthrNms": [
    {
      "lastNm": "TONEY",
      "firstNm": "JERRY",
      "midNm": "L",
      "sufNm": null
    }
  ],
  "CrntEmps": [
    {
      "CrntRgstns": [
        {
          "regAuth": 26,
          "regCat": 0,
          "st": 2,
          "stDt": "2012-02-23T00:00:00"
        },
        {
          "regAuth": 1,
          "regCat": 0,
          "st": 2,
          "stDt": "2012-05-07T00:00:00"
        },
        {
          "regAuth": 19,
          "regCat": 0,
          "st": 2,
          "stDt": "2013-05-01T00:00:00"
        },
        {
          "regAuth": 45,
          "regCat": 0,
          "st": 2,
          "stDt": "2013-05-01T00:00:00"
        }
      ],
      "BrnchOfLocs": [
        {
          "str1": "107 COMMERCE STREET",
          "str2": null,
          "city": "WEST POINT",
          "state": 26,
          "stateSpecified": true,
          "cntry": "United States",
          "postlCd": "39773"
        },
        {
          "str1": "110 3RD STREET N",
          "str2": null,
          "city": "AMORY",
          "state": 26,
          "stateSpecified": true,
          "cntry": "United States",
          "postlCd": "38821"
        },
        {
          "str1": "128 EAST COMMERCE STREET",
          "str2": null,
          "city": "ABERDEEN",
          "state": 26,
          "stateSpecified": true,
          "cntry": "United States",
          "postlCd": "39730"
        },
        {
          "str1": "1300 PINEHURST DR",
          "str2": null,
          "city": "SPRING HILL",
          "state": 9,
          "stateSpecified": true,
          "cntry": "United States",
          "postlCd": "34606"
        },
        {
          "str1": "215 HIGHWAY 45 ALTERNATE SOUTH",
          "str2": null,
          "city": "WEST POINT",
          "state": 26,
          "stateSpecified": true,
          "cntry": "United States",
          "postlCd": "39773"
        },
        {
          "str1": "246 ALABAMA STREET",
          "str2": null,
          "city": "COLUMBUS",
          "state": 26,
          "stateSpecified": true,
          "cntry": "United States",
          "postlCd": "39701"
        },
        {
          "str1": "301 EAST MAIN STREET",
          "str2": null,
          "city": "STARKVILLE",
          "state": 26,
          "stateSpecified": true,
          "cntry": "United States",
          "postlCd": "39759"
        },
        {
          "str1": "302 HWY 45N",
          "str2": null,
          "city": "ABERDEEN",
          "state": 26,
          "stateSpecified": true,
          "cntry": "United States",
          "postlCd": "39730"
        },
        {
          "str1": "36301 US HWY 19 NORTH",
          "str2": null,
          "city": "PALM HARBOR",
          "state": 9,
          "stateSpecified": true,
          "cntry": "United States",
          "postlCd": "34684"
        },
        {
          "str1": "40481 BUSINESS HWY 45 SOUTH",
          "str2": null,
          "city": "HAMILTON",
          "state": 26,
          "stateSpecified": true,
          "cntry": "United States",
          "postlCd": "39746"
        },
        {
          "str1": "535 E MAIN STREET",
          "str2": null,
          "city": "PHILADELPHIA",
          "state": 26,
          "stateSpecified": true,
          "cntry": "United States",
          "postlCd": "39350"
        },
        {
          "str1": "606 HIGHWAY 12 EAST",
          "str2": null,
          "city": "STARKVILLE",
          "state": 26,
          "stateSpecified": true,
          "cntry": "United States",
          "postlCd": "39759"
        },
        {
          "str1": "756 2ND AVENUE",
          "str2": null,
          "city": "MABEN",
          "state": 26,
          "stateSpecified": true,
          "cntry": "United States",
          "postlCd": "39750"
        },
        {
          "str1": "818 HIGHWAY 12 WEST",
          "str2": null,
          "city": "STARKVILLE",
          "state": 26,
          "stateSpecified": true,
          "cntry": "United States",
          "postlCd": "39759"
        }
      ],
      "orgNm": "LPL FINANCIAL LLC",
      "orgPK": "6413",
      "str1": "75 STATE STREET, 22ND FLOOR",
      "str2": null,
      "city": "BOSTON",
      "state": 20,
      "stateSpecified": true,
      "cntry": "United States",
      "postlCd": "02109"
    }
  ],
  "Exms": [
    {
      "exmCd": 0,
      "exmNm": "Uniform Securities Agent State Law Examination",
      "exmDt": "1997-05-13T00:00:00",
      "exmDtSpecified": true
    }
  ],
  "Dsgntns": [
    {
      "dsgntnNm": "Certified Financial Planner"
    }
  ],
  "PrevRgstns": [
    {
      "BrnchOfLocs": [
        {
          "city": "MABEN",
          "state": 26,
          "stateSpecified": true
        },
        {
          "city": "PHILADELPHIA",
          "state": 26,
          "stateSpecified": true
        },
        {
          "city": "STARKVILLE",
          "state": 26,
          "stateSpecified": true
        },
        {
          "city": "TAMPA",
          "state": 9,
          "stateSpecified": true
        },
        {
          "city": "WEST POINT",
          "state": 26,
          "stateSpecified": true
        }
      ],
      "orgNm": "INVEST FINANCIAL CORPORATION",
      "orgPK": "12984",
      "regBeginDt": "2010-07-21T00:00:00",
      "regBeginDtSpecified": true,
      "regEndDt": "2012-02-23T00:00:00",
      "regEndDtSpecified": true
    }
  ],
  "EmpHss": [
    {
      "fromDt": "08/1998",
      "toDt": "06/2007",
      "orgNm": "FIRST TENNESSEE BROKERAGE",
      "city": "MEMPHIS",
      "state": 44,
      "stateSpecified": true
    },
    {
      "fromDt": "08/1998",
      "toDt": "06/2007",
      "orgNm": "FIRST TENNESSEE BROKERAGE, INC.",
      "city": "MEMPHIS",
      "state": 44,
      "stateSpecified": true
    },
    {
      "fromDt": "06/2007",
      "toDt": null,
      "orgNm": "CADENCE BANK",
      "city": "STARKVILLE",
      "state": 26,
      "stateSpecified": true
    },
    {
      "fromDt": "06/2007",
      "toDt": "02/2012",
      "orgNm": "INVEST FINANCIAL CORP",
      "city": "TAMPA",
      "state": 9,
      "stateSpecified": true
    },
    {
      "fromDt": "02/2012",
      "toDt": null,
      "orgNm": "LPL FINANCIAL, LLC",
      "city": "STARKVILLE",
      "state": 26,
      "stateSpecified": true
    }
  ],
  "OthrBuss": {
    "OthrBus": {
      "desc": "1. 09/28/2012 - Cadence Investment Services - INV REL - AT REPORTED LOCATION - DBA for LPL Business (entity for LPL business)    2. 01/22/2013 - Cadence Bank - INV REL - Financial Institution Duty - 30% TIME SPENT - Business Development- FIS Affiliation     3. 01/22/2013 - Cadence Investment Services - INV REL - Non-Variable Insurance - 20% TIME SPENT -  Life, Health, DI, Fixed Annuities    4. 01/23/2013 - Iron Point Capital Management - INV REL - Business Entity For Tax/Investment Purposes Only - Holding Company for interest in G.T. Properties, LLC    5. 02/11/2013 - Mississippi State University - NOT INV REL - Teacher/Instructor - 5% TIME SPENT - Teaching a financial planning class for the College of Business at Mississippi State University    6. 03/04/2014 - Mississippi State Alumni Association - NOT INV REL - Community, Civic and Charitable Board - 1% TIME SPENT - Mississippi State Alumni Association, Treasurer    7. 12/17/2015 - Mississippi Economic Council - INV REL - 248 E Capital St, Jackson, MS 39201 - Non-Profit Board Member - START 12/02/2015 - 1 HOUR PER MONTH DURING TRADING"
    }
  },
  "DRPs": []
}