{
  "Info": {
    "lastNm": "MCNALLY",
    "firstNm": "MICHAEL",
    "midNm": "JOSEPH",
    "sufNm": null,
    "indvlPK": "2869104",
    "actvAGReg": 0,
    "link": "http://www.adviserinfo.sec.gov/IAPD/Individual/2869104"
  },
  "OthrNms": [
    {
      "lastNm": "MCNALLY",
      "firstNm": "MIKE",
      "midNm": null,
      "sufNm": null
    }
  ],
  "CrntEmps": [
    {
      "CrntRgstns": [
        {
          "regAuth": 15,
          "regCat": 0,
          "st": 2,
          "stDt": "1998-01-23T00:00:00"
        },
        {
          "regAuth": 25,
          "regCat": 0,
          "st": 2,
          "stDt": "2000-03-06T00:00:00"
        },
        {
          "regAuth": 16,
          "regCat": 0,
          "st": 2,
          "stDt": "2000-03-23T00:00:00"
        },
        {
          "regAuth": 50,
          "regCat": 0,
          "st": 2,
          "stDt": "2003-01-17T00:00:00"
        },
        {
          "regAuth": 9,
          "regCat": 0,
          "st": 2,
          "stDt": "2003-11-14T00:00:00"
        },
        {
          "regAuth": 5,
          "regCat": 0,
          "st": 2,
          "stDt": "2004-01-14T00:00:00"
        },
        {
          "regAuth": 8,
          "regCat": 0,
          "st": 2,
          "stDt": "2004-01-14T00:00:00"
        },
        {
          "regAuth": 4,
          "regCat": 0,
          "st": 2,
          "stDt": "2004-01-15T00:00:00"
        },
        {
          "regAuth": 51,
          "regCat": 0,
          "st": 2,
          "stDt": "2004-01-15T00:00:00"
        },
        {
          "regAuth": 18,
          "regCat": 0,
          "st": 2,
          "stDt": "2004-01-16T00:00:00"
        },
        {
          "regAuth": 33,
          "regCat": 0,
          "st": 2,
          "stDt": "2004-01-20T00:00:00"
        },
        {
          "regAuth": 26,
          "regCat": 0,
          "st": 2,
          "stDt": "2004-01-21T00:00:00"
        },
        {
          "regAuth": 19,
          "regCat": 0,
          "st": 2,
          "stDt": "2007-01-16T00:00:00"
        },
        {
          "regAuth": 36,
          "regCat": 0,
          "st": 2,
          "stDt": "2007-05-22T00:00:00"
        },
        {
          "regAuth": 47,
          "regCat": 0,
          "st": 2,
          "stDt": "2008-01-11T00:00:00"
        },
        {
          "regAuth": 1,
          "regCat": 0,
          "st": 2,
          "stDt": "2008-04-09T00:00:00"
        },
        {
          "regAuth": 42,
          "regCat": 0,
          "st": 2,
          "stDt": "2010-01-14T00:00:00"
        },
        {
          "regAuth": 13,
          "regCat": 0,
          "st": 2,
          "stDt": "2010-02-11T00:00:00"
        },
        {
          "regAuth": 23,
          "regCat": 0,
          "st": 2,
          "stDt": "2010-04-07T00:00:00"
        },
        {
          "regAuth": 10,
          "regCat": 0,
          "st": 2,
          "stDt": "2010-04-15T00:00:00"
        },
        {
          "regAuth": 31,
          "regCat": 0,
          "st": 2,
          "stDt": "2010-06-30T00:00:00"
        },
        {
          "regAuth": 21,
          "regCat": 0,
          "st": 2,
          "stDt": "2010-09-27T00:00:00"
        },
        {
          "regAuth": 34,
          "regCat": 0,
          "st": 2,
          "stDt": "2010-10-22T00:00:00"
        },
        {
          "regAuth": 45,
          "regCat": 0,
          "st": 2,
          "stDt": "2011-09-09T00:00:00"
        },
        {
          "regAuth": 2,
          "regCat": 0,
          "st": 2,
          "stDt": "2013-01-10T00:00:00"
        },
        {
          "regAuth": 49,
          "regCat": 0,
          "st": 2,
          "stDt": "2013-01-10T00:00:00"
        },
        {
          "regAuth": 28,
          "regCat": 0,
          "st": 2,
          "stDt": "2013-01-11T00:00:00"
        },
        {
          "regAuth": 22,
          "regCat": 0,
          "st": 2,
          "stDt": "2013-01-17T00:00:00"
        },
        {
          "regAuth": 7,
          "regCat": 0,
          "st": 2,
          "stDt": "2013-01-30T00:00:00"
        },
        {
          "regAuth": 6,
          "regCat": 0,
          "st": 2,
          "stDt": "2013-04-08T00:00:00"
        },
        {
          "regAuth": 14,
          "regCat": 0,
          "st": 2,
          "stDt": "2013-04-08T00:00:00"
        },
        {
          "regAuth": 17,
          "regCat": 0,
          "st": 2,
          "stDt": "2013-04-08T00:00:00"
        },
        {
          "regAuth": 30,
          "regCat": 0,
          "st": 2,
          "stDt": "2013-04-08T00:00:00"
        },
        {
          "regAuth": 32,
          "regCat": 0,
          "st": 2,
          "stDt": "2013-04-08T00:00:00"
        },
        {
          "regAuth": 41,
          "regCat": 0,
          "st": 2,
          "stDt": "2013-04-08T00:00:00"
        },
        {
          "regAuth": 27,
          "regCat": 0,
          "st": 2,
          "stDt": "2013-04-09T00:00:00"
        },
        {
          "regAuth": 46,
          "regCat": 0,
          "st": 2,
          "stDt": "2013-04-09T00:00:00"
        },
        {
          "regAuth": 24,
          "regCat": 0,
          "st": 2,
          "stDt": "2013-12-16T00:00:00"
        },
        {
          "regAuth": 0,
          "regCat": 0,
          "st": 2,
          "stDt": "2014-01-08T00:00:00"
        },
        {
          "regAuth": 43,
          "regCat": 0,
          "st": 2,
          "stDt": "2014-01-09T00:00:00"
        },
        {
          "regAuth": 53,
          "regCat": 0,
          "st": 2,
          "stDt": "2014-01-16T00:00:00"
        },
        {
          "regAuth": 29,
          "regCat": 0,
          "st": 2,
          "stDt": "2014-01-22T00:00:00"
        },
        {
          "regAuth": 39,
          "regCat": 0,
          "st": 2,
          "stDt": "2014-06-18T00:00:00"
        }
      ],
      "BrnchOfLocs": [
        {
          "str1": "1111 WEST 22ND ST",
          "str2": "SUITE 100",
          "city": "OAK BROOK",
          "state": 15,
          "stateSpecified": true,
          "cntry": "United States",
          "postlCd": "60523"
        }
      ],
      "orgNm": "WADDELL & REED",
      "orgPK": "866",
      "str1": "6300 LAMAR AVENUE",
      "str2": null,
      "city": "OVERLAND PARK",
      "state": 17,
      "stateSpecified": true,
      "cntry": "United States",
      "postlCd": "66202-4200"
    }
  ],
  "Exms": [
    {
      "exmCd": 0,
      "exmNm": "Uniform Securities Agent State Law Examination",
      "exmDt": "1997-05-01T00:00:00",
      "exmDtSpecified": true
    },
    {
      "exmCd": 2,
      "exmNm": "Uniform Investment Adviser Law Examination",
      "exmDt": "1998-05-21T00:00:00",
      "exmDtSpecified": true
    }
  ],
  "Dsgntns": [
    {
      "dsgntnNm": "Certified Financial Planner"
    }
  ],
  "PrevRgstns": [],
  "EmpHss": [
    {
      "fromDt": "03/1997",
      "toDt": null,
      "orgNm": "WADDELL & REED, INC.",
      "city": "OAK BROOK",
      "state": 15,
      "stateSpecified": true
    },
    {
      "fromDt": "05/1997",
      "toDt": null,
      "orgNm": "VARIOUS INSURANCE CARRIERS FOR W & R INSURANCE AGENCIES",
      "city": "LEMONT",
      "state": 15,
      "stateSpecified": true
    },
    {
      "fromDt": "11/2006",
      "toDt": null,
      "orgNm": "RENTAL PROPERTY",
      "city": "CHICAGO",
      "state": 15,
      "stateSpecified": true
    }
  ],
  "OthrBuss": {
    "OthrBus": {
      "desc": "05/1997-PRESENT, VARIOUS INSURANCE CARRIERS FOR W & R INSURANCE AGENCIES, LEMONT, IL, INVEST-RELATED, INSURANCE SALES, INSURANCE AGENT.  11/2006-PRESENT, RENTAL PROPERTY, CHICAGO, IL, NOT INVESTMENT RELATED, OWNER, OWNER OF A RENTAL CONDO, 1 HOUR PER MONTH, 0 HOURS DAILY DURING SECURITIES TRADING."
    }
  },
  "DRPs": []
}