{
  "Info": {
    "lastNm": "ZIMMERMAN",
    "firstNm": "JACK",
    "midNm": "ALLEN",
    "sufNm": "II",
    "indvlPK": "2871436",
    "actvAGReg": 0,
    "link": "http://www.adviserinfo.sec.gov/IAPD/Individual/2871436"
  },
  "OthrNms": [],
  "CrntEmps": [
    {
      "CrntRgstns": [
        {
          "regAuth": 13,
          "regCat": 0,
          "st": 2,
          "stDt": "2015-02-24T00:00:00"
        }
      ],
      "BrnchOfLocs": [
        {
          "str1": "425 2ND STREET SE",
          "str2": "3RD FLOOR",
          "city": "CEDAR RAPIDS",
          "state": 13,
          "stateSpecified": true,
          "cntry": "United States",
          "postlCd": "52401"
        }
      ],
      "orgNm": "ON INVESTMENT MANAGEMENT CO",
      "orgPK": "105662",
      "str1": "ONE FINANCIAL WAY",
      "str2": null,
      "city": "CINCINNATI",
      "state": 36,
      "stateSpecified": true,
      "cntry": "United States",
      "postlCd": "45242"
    }
  ],
  "Exms": [
    {
      "exmCd": 0,
      "exmNm": "Uniform Securities Agent State Law Examination",
      "exmDt": "2013-10-29T00:00:00",
      "exmDtSpecified": true
    },
    {
      "exmCd": 2,
      "exmNm": "Uniform Investment Adviser Law Examination",
      "exmDt": "2015-02-17T00:00:00",
      "exmDtSpecified": true
    }
  ],
  "Dsgntns": [],
  "PrevRgstns": [],
  "EmpHss": [
    {
      "fromDt": "03/2005",
      "toDt": "03/2007",
      "orgNm": "US BANK",
      "city": "CEDAR RAPIDS",
      "state": 13,
      "stateSpecified": true
    },
    {
      "fromDt": "03/2007",
      "toDt": "06/2009",
      "orgNm": "LIBERTY BANK",
      "city": "CORALVILLE",
      "state": 13,
      "stateSpecified": true
    },
    {
      "fromDt": "07/2009",
      "toDt": "05/2013",
      "orgNm": "CENTRAL STATE BANK",
      "city": "CORALVILLE",
      "state": 13,
      "stateSpecified": true
    },
    {
      "fromDt": "05/2013",
      "toDt": null,
      "orgNm": "JAZII MANAGEMENT, INC.",
      "city": "NORTH LIBERTY",
      "state": 13,
      "stateSpecified": true
    },
    {
      "fromDt": "09/2013",
      "toDt": null,
      "orgNm": "OHIO NATIONAL FINANCIAL SERVICES",
      "city": "CINCINNATI",
      "state": 36,
      "stateSpecified": true
    },
    {
      "fromDt": "09/2013",
      "toDt": null,
      "orgNm": "THE O. N. EQUITY SALES COMPANY",
      "city": "CINCINNATI",
      "state": 36,
      "stateSpecified": true
    }
  ],
  "OthrBuss": {
    "OthrBus": {
      "desc": "1) JACK ZIMMERMAN; NOT INVESTMENT RELATED; 425 2ND STREET SE 3RD FLOOR CEDAR RAPIDS IA 52401; INSURANCE SALES; AGENT; START DATE 09/16/2013; HOURS/MONTH 80; HOURS/TRADING 60; SELLING INSURANCE; 2)MJZ LLC; NOT INVESTMENT RELATED; 740 Andy Ct north liberty ia  52317; AUTOMATED TELLER MACHINES; PARTNER; START DATE      ; HOURS/MONTH 5; HOURS/TRADING 1; MANAGE,MAINTAIN AND SERVICE MACHINES; 3) KESWICK INVESTORS LLC; NOT INVESTMENT RELATED; 60 LYNX LN NORTH LIBERTY IA 52317; RENTAL PROPERTIES; PARTNER; START DATE 04/30/     ; HOURS/MONTH 6; HOURS/TRADING 2; COLLECT RENT AND MAINTAIN ACCOUNTS; 4) JMJ PROPERTIES; NOT INVESTMENT RELATED; 60 LYNX LN NORTH LIBERTY IA 52317; RENTAL PROPERTIES; PARTNER; START DATE 08/01/   ; HOURS/MONTH 4; HOURS/TRADING 0; COLLECT RENT AND MAINTAIN ACCOUNTS; 5)JAZII MANAGEMENT INC; NOT INVESTMENT RELATED; 60 LYNX LN NORTH LIBERTY IA 52317; REAL ESTATE AND CONSULTING; PRESIDENT; START DATE 01/01/   ; HOURS/MONTH 4; HOURS/TRADING 0; PROVIDE REAL ESTATE MANAGEMENT AND CONSULTING SERVICES; 6) JAZII INVESTMENTS LP; INVESTMENT RELATED; 60 LYNX LN NORTH LIBERTY IA 52317; LIQUID CHECKING AND TRADING ACCOUNTS; PARTNER; START DATE 01/01/   ; HOURS/MONTH 4; HOURS/TRADING 2; SELECT, MONITOR AND MANAGE ACCOUNT INVESTMENTS"
    }
  },
  "DRPs": []
}