{
  "Info": {
    "lastNm": "VASEY",
    "firstNm": "LEWIS",
    "midNm": "EDWARD",
    "sufNm": null,
    "indvlPK": "2873295",
    "actvAGReg": 0,
    "link": "http://www.adviserinfo.sec.gov/IAPD/Individual/2873295"
  },
  "OthrNms": [
    {
      "lastNm": "VASEY",
      "firstNm": "LEWIS",
      "midNm": "E",
      "sufNm": null
    }
  ],
  "CrntEmps": [
    {
      "CrntRgstns": [
        {
          "regAuth": 13,
          "regCat": 0,
          "st": 2,
          "stDt": "2010-02-02T00:00:00"
        },
        {
          "regAuth": 45,
          "regCat": 0,
          "st": 3,
          "stDt": "2013-02-07T00:00:00"
        }
      ],
      "BrnchOfLocs": [
        {
          "str1": "2967 100TH STREET",
          "str2": "SUITE 8",
          "city": "URBANDALE",
          "state": 13,
          "stateSpecified": true,
          "cntry": "United States",
          "postlCd": "50322"
        }
      ],
      "orgNm": "LINCOLN FINANCIAL SECURITIES CORPORATION",
      "orgPK": "3870",
      "str1": "1300 SOUTH CLINTON STREET",
      "str2": null,
      "city": "FORT WAYNE",
      "state": 16,
      "stateSpecified": true,
      "cntry": "United States",
      "postlCd": "46802"
    }
  ],
  "Exms": [
    {
      "exmCd": 0,
      "exmNm": "Uniform Securities Agent State Law Examination",
      "exmDt": "1997-05-05T00:00:00",
      "exmDtSpecified": true
    },
    {
      "exmCd": 2,
      "exmNm": "Uniform Investment Adviser Law Examination",
      "exmDt": "2000-11-29T00:00:00",
      "exmDtSpecified": true
    }
  ],
  "Dsgntns": [
    {
      "dsgntnNm": "Certified Financial Planner"
    },
    {
      "dsgntnNm": "Chartered Financial Consultant"
    }
  ],
  "PrevRgstns": [
    {
      "BrnchOfLocs": [
        {
          "city": "SHAWNEE",
          "state": 17,
          "stateSpecified": true
        },
        {
          "city": "WEST DES MOINES",
          "state": 13,
          "stateSpecified": true
        }
      ],
      "orgNm": "SIGNATOR INVESTORS, INC.",
      "orgPK": "468",
      "regBeginDt": "2001-03-08T00:00:00",
      "regBeginDtSpecified": true,
      "regEndDt": "2010-02-02T00:00:00",
      "regEndDtSpecified": true
    }
  ],
  "EmpHss": [
    {
      "fromDt": "09/1996",
      "toDt": "02/2010",
      "orgNm": "JOHN HANCOCK MUTUAL LIFE INSURANCE CO.",
      "city": "URBANDALE",
      "state": 13,
      "stateSpecified": true
    },
    {
      "fromDt": "09/1996",
      "toDt": "02/2010",
      "orgNm": "SIGNATOR INVESTORS, INC.",
      "city": "BOSTON",
      "state": 20,
      "stateSpecified": true
    },
    {
      "fromDt": "02/2010",
      "toDt": null,
      "orgNm": "LINCOLN FINANCIAL SECURITIES CORPORATION",
      "city": "URBANDALE",
      "state": 13,
      "stateSpecified": true
    }
  ],
  "OthrBuss": {
    "OthrBus": {
      "desc": "1)VASEY FINANCIAL SERVICES, 1801 NORTH WEST GABUS DRIVE, GRIMES, IA. 50111. INSURANCE, INVESTMENT RELATED, AGENT, OWNER, OFFERS ACCIDENT AND HEALTH, DISABILITY, LTC, FIXED AND TRADITIONAL INSURANCE PRODUCTS STARTED ON 01/10 WORKING 150 HPM ALL DURING TRADING HOURS.    2)VASEY PROPERTIES, LLC, 1801 NORTH WEST GABUS DRIVE, GRIMES, IA. 50111 REAL ESTATE, INVESTMENT RELATED, OWNER, OWNES AND MANAGES RENTAL HOME. STARTED ON 12/06 WORKING 1 HPM 0 DURING TRADING HOUR.    3)VASEY FINANCIAL SERVICES, 5550 WILD ROSE LANE, SUITE 400, WEST DES MOINES, IA 50266   CATEGORY:  INSURANCE  INVESTMENT RELATED:  YES  TITLE:  AGENT  DUTIES:  OFFERING EQUITY INDEX ANNUITIES  START DATE:  11/1/2010  HOURS PER  MONTH:  10  HOURS PER MONTH DURING TRADING HOURS:  10    4)VASEY FINANCIAL SERVICES, 2967 100TH ST, STE 8, URBANDALE, IA  CATEGORY: INSURANCE  INVESTMENT RELATED: YES  TITLE: AGENT  DUTIES: OFFERING ACCIDENT & HEALTH INSURANCE, DISABILITY INSURANCE, FIXED AND EQUITY INDEX ANNUITIES, LONG TERM CARE INSURANCE, AND TRADITIONAL LIFE INSURANCE  START DATE: 1/1/2010  HOURS PER MONTH: 100  HOURS PER MONTH DURING TRADING HOURS: 100"
    }
  },
  "DRPs": []
}