{
  "Info": {
    "lastNm": "HANEY",
    "firstNm": "STACEY",
    "midNm": "KING",
    "sufNm": null,
    "indvlPK": "2874380",
    "actvAGReg": 0,
    "link": "http://www.adviserinfo.sec.gov/IAPD/Individual/2874380"
  },
  "OthrNms": [
    {
      "lastNm": "KING",
      "firstNm": "STACEY",
      "midNm": "GAY",
      "sufNm": null
    }
  ],
  "CrntEmps": [
    {
      "CrntRgstns": [
        {
          "regAuth": 44,
          "regCat": 0,
          "st": 2,
          "stDt": "2013-10-10T00:00:00"
        }
      ],
      "BrnchOfLocs": [
        {
          "str1": "4990 POPLAR AVE",
          "str2": null,
          "city": "MEMPHIS",
          "state": 44,
          "stateSpecified": true,
          "cntry": "United States",
          "postlCd": "38117"
        }
      ],
      "orgNm": "FTB ADVISORS, INC.",
      "orgPK": "17117",
      "str1": "165 MADISON AVENUE",
      "str2": "14TH FLOOR",
      "city": "MEMPHIS",
      "state": 44,
      "stateSpecified": true,
      "cntry": "United States",
      "postlCd": "38103"
    }
  ],
  "Exms": [
    {
      "exmCd": 0,
      "exmNm": "Uniform Securities Agent State Law Examination",
      "exmDt": "1997-05-07T00:00:00",
      "exmDtSpecified": true
    }
  ],
  "Dsgntns": [],
  "PrevRgstns": [
    {
      "BrnchOfLocs": [
        {
          "city": "MEMPHIS",
          "state": 44,
          "stateSpecified": true
        }
      ],
      "orgNm": "FTB ADVISORS, INC.",
      "orgPK": "143830",
      "regBeginDt": "2008-12-12T00:00:00",
      "regBeginDtSpecified": true,
      "regEndDt": "2013-10-10T00:00:00",
      "regEndDtSpecified": true
    }
  ],
  "EmpHss": [
    {
      "fromDt": "10/1995",
      "toDt": null,
      "orgNm": "FIRST TENNESSEE BANK",
      "city": "MEMPHIS",
      "state": 44,
      "stateSpecified": true
    },
    {
      "fromDt": "03/1997",
      "toDt": null,
      "orgNm": "FIRST TENNESSEE BROKERAGE",
      "city": "MEMPHIS",
      "state": 44,
      "stateSpecified": true
    },
    {
      "fromDt": "03/1997",
      "toDt": null,
      "orgNm": "FIRST TENNESSEE BROKERAGE, INC.",
      "city": "MEMPHIS",
      "state": 44,
      "stateSpecified": true
    },
    {
      "fromDt": "10/2013",
      "toDt": null,
      "orgNm": "FTB ADVISORS, INC.",
      "city": "MEMPHIS",
      "state": 44,
      "stateSpecified": true
    }
  ],
  "OthrBuss": {
    "OthrBus": {
      "desc": "10/12/12-COMPENSATED FROM INVESTMENT-RELATED SALES OF INSURANCE, ANNUITIES AND ADVISORY SERVICES THROUGH FIRM AND ITS AFFILIATED ENTITIES FTB ADVISORS INSURANCE SERVICES, INC. , FIRST HORIZON INSURANCE SERVICES."
    }
  },
  "DRPs": [
    {
      "hasRegAction": 1,
      "hasRegActionSpecified": true,
      "hasCriminal": 1,
      "hasCriminalSpecified": true,
      "hasBankrupt": 1,
      "hasBankruptSpecified": true,
      "hasCivilJudc": 1,
      "hasCivilJudcSpecified": true,
      "hasBond": 1,
      "hasBondSpecified": true,
      "hasJudgment": 1,
      "hasJudgmentSpecified": true,
      "hasInvstgn": 1,
      "hasInvstgnSpecified": true,
      "hasCustComp": 0,
      "hasCustCompSpecified": true,
      "hasTermination": 1,
      "hasTerminationSpecified": true
    }
  ]
}