{
  "Info": {
    "lastNm": "TOTONCHI",
    "firstNm": "DANIEL",
    "midNm": "EMANUEL",
    "sufNm": null,
    "indvlPK": "2881581",
    "actvAGReg": 0,
    "link": "http://www.adviserinfo.sec.gov/IAPD/Individual/2881581"
  },
  "OthrNms": [
    {
      "lastNm": "TOTONCHI",
      "firstNm": "DANIEL",
      "midNm": "E",
      "sufNm": null
    }
  ],
  "CrntEmps": [
    {
      "CrntRgstns": [
        {
          "regAuth": 45,
          "regCat": 0,
          "st": 3,
          "stDt": "2001-08-21T00:00:00"
        },
        {
          "regAuth": 23,
          "regCat": 0,
          "st": 2,
          "stDt": "2010-08-26T00:00:00"
        }
      ],
      "BrnchOfLocs": [
        {
          "str1": "39577 WOODWARD AVE",
          "str2": null,
          "city": "BLOOMFIELD HILLS",
          "state": 23,
          "stateSpecified": true,
          "cntry": "United States",
          "postlCd": "48304"
        }
      ],
      "orgNm": "MERRILL LYNCH, PIERCE, FENNER & SMITH INCORPORATED",
      "orgPK": "7691",
      "str1": "ONE BRYANT PARK",
      "str2": null,
      "city": "NEW YORK",
      "state": 35,
      "stateSpecified": true,
      "cntry": "United States",
      "postlCd": "10036"
    }
  ],
  "Exms": [
    {
      "exmCd": 3,
      "exmNm": "Uniform Combined State Law Examination",
      "exmDt": "1997-12-29T00:00:00",
      "exmDtSpecified": true
    }
  ],
  "Dsgntns": [
    {
      "dsgntnNm": "Certified Financial Planner"
    }
  ],
  "PrevRgstns": [],
  "EmpHss": [
    {
      "fromDt": "04/1997",
      "toDt": null,
      "orgNm": "MERRILL LYNCH, PIERCE, FENNER & SMITH INCORPORATED",
      "city": "BLOOMFIELD HILLS",
      "state": 23,
      "stateSpecified": true
    }
  ],
  "OthrBuss": {
    "OthrBus": {
      "desc": "MUP MORTGAGE LLC, CINCINNATI, OHIO 45263 - INVESTMENT RLT'D - YES, HRS DEVOTED TO ACTIVITY - 10, HRS DURING TRADING - 0, DATE ACTIVITY BEGAN 03/25/11, POSITION - LIMITED PARTNER; 7 PEOPLE FORMED AN LLC TO PURCHASE AN INTEREST IN A SHOPPING PLAZA.    1.FOR PROFIT OR NOT FOR PROFIT: NON-PROFIT ORGANIZATION  2.NAME OF OUTSIDE BUSINESS ORGANIZATION: OUR LADY QUEEN OF MARTYRS  3.INVESTMENT RELATED: N  4.ADDRESS OF BUSINESS:  BEVERLY HILLS, MICHIGAN 48025  5.NATURE OF BUSINESS: CHARITABLE ORGANIZATION,  7.POSITION, TITLE, ASSOCIATION: ADVISORY BOARD MEMBER,   8.START DATE OF RELATIONSHIP: 5/6/2013  9.NUMBER OF HOURS DEVOTED: 8 HOUR(S) ANNUALLY  10.NUMBER OF HOURS DEVOTED DURING TRADING HOURS: 0  11.DUTIES: REVIEW BUDGET"
    }
  },
  "DRPs": []
}