{
  "Info": {
    "lastNm": "FORD",
    "firstNm": "BENTLY",
    "midNm": "GORDON",
    "sufNm": null,
    "indvlPK": "2891606",
    "actvAGReg": 0,
    "link": "http://www.adviserinfo.sec.gov/IAPD/Individual/2891606"
  },
  "OthrNms": [
    {
      "lastNm": "FORD",
      "firstNm": "BENTLY",
      "midNm": null,
      "sufNm": null
    }
  ],
  "CrntEmps": [
    {
      "CrntRgstns": [
        {
          "regAuth": 45,
          "regCat": 0,
          "st": 2,
          "stDt": "2013-03-18T00:00:00"
        }
      ],
      "BrnchOfLocs": [
        {
          "str1": null,
          "str2": null,
          "city": "DIANA",
          "state": 45,
          "stateSpecified": true,
          "cntry": "United States",
          "postlCd": null
        },
        {
          "str1": "5701 GOLDEN HILLS DRIVE",
          "str2": null,
          "city": "MINNEAPOLIS",
          "state": 24,
          "stateSpecified": true,
          "cntry": "United States",
          "postlCd": "55416"
        }
      ],
      "orgNm": "QUESTAR ASSET MANAGEMENT, INC.",
      "orgPK": "133358",
      "str1": "5701 GOLDEN HILLS DRIVE",
      "str2": null,
      "city": "MINNEAPOLIS",
      "state": 24,
      "stateSpecified": true,
      "cntry": "United States",
      "postlCd": "55416"
    }
  ],
  "Exms": [
    {
      "exmCd": 0,
      "exmNm": "Uniform Securities Agent State Law Examination",
      "exmDt": "1997-05-21T00:00:00",
      "exmDtSpecified": true
    }
  ],
  "Dsgntns": [],
  "PrevRgstns": [
    {
      "BrnchOfLocs": [
        {
          "city": "ALPHARETTA",
          "state": 10,
          "stateSpecified": true
        }
      ],
      "orgNm": "METLIFE INVESTMENT FUND SERVICES LLC",
      "orgPK": "107311",
      "regBeginDt": "1997-06-12T00:00:00",
      "regBeginDtSpecified": true,
      "regEndDt": "2006-01-06T00:00:00",
      "regEndDtSpecified": true
    },
    {
      "BrnchOfLocs": [
        {
          "city": "DALLAS",
          "state": 45,
          "stateSpecified": true
        },
        {
          "city": "NEW YORK",
          "state": 35,
          "stateSpecified": true
        },
        {
          "city": "SPRINGFIELD",
          "state": 20,
          "stateSpecified": true
        },
        {
          "city": "TYLER",
          "state": 45,
          "stateSpecified": true
        }
      ],
      "orgNm": "MSI FINANCIAL SERVICES, INC.",
      "orgPK": "14251",
      "regBeginDt": "2005-12-01T00:00:00",
      "regBeginDtSpecified": true,
      "regEndDt": "2013-03-18T00:00:00",
      "regEndDtSpecified": true
    }
  ],
  "EmpHss": [
    {
      "fromDt": "07/2006",
      "toDt": "03/2013",
      "orgNm": "METLIFE",
      "city": "NEW YORK",
      "state": 35,
      "stateSpecified": true
    },
    {
      "fromDt": "03/2013",
      "toDt": null,
      "orgNm": "QUESTAR ASSET MANAGEMENT",
      "city": "MINNEAPOLIS",
      "state": 24,
      "stateSpecified": true
    },
    {
      "fromDt": "03/2013",
      "toDt": null,
      "orgNm": "QUESTAR CAPITAL CORPORATION",
      "city": "MINNEAPOLIS",
      "state": 24,
      "stateSpecified": true
    }
  ],
  "OthrBuss": {
    "OthrBus": {
      "desc": "QUESTAR ASSET MANAGEMENT POSITION: IAR. NATURE: Investment Advisory. INVESTMENT RELATED: Yes NUMBER OF HOURS: 4 SECURITIES TRADING HOURS: 4 START DATE: 03/18/2013 ADDRESS: 182 Tiger Lily, Diana TX 75640 DESCRIPTION: Investment Advisory services.  FORD FINANCIAL SERVICES POSITION: Insurance Agent/Owner. NATURE: Sale of fixed insurance products. INVESTMENT RELATED: Yes NUMBER OF HOURS: 10 SECURITIES TRADING HOURS: 10 START DATE: 03/15/2013 ADDRESS: 182 Tiger Lily, Diana TX 75640 DESCRIPTION: Offering fixed annuities, life, health, disability, LTC, employee benefits, property & casualty."
    }
  },
  "DRPs": []
}