{
  "Info": {
    "lastNm": "WINGATE",
    "firstNm": "RUSSELL",
    "midNm": "R",
    "sufNm": null,
    "indvlPK": "2894985",
    "actvAGReg": 0,
    "link": "http://www.adviserinfo.sec.gov/IAPD/Individual/2894985"
  },
  "OthrNms": [
    {
      "lastNm": "WINGATE",
      "firstNm": "R.",
      "midNm": "REID",
      "sufNm": null
    },
    {
      "lastNm": "WINGATE",
      "firstNm": "RUSSELL",
      "midNm": "R",
      "sufNm": null
    },
    {
      "lastNm": "WINGATE",
      "firstNm": "RUSSELL",
      "midNm": "REID",
      "sufNm": null
    }
  ],
  "CrntEmps": [
    {
      "CrntRgstns": [
        {
          "regAuth": 9,
          "regCat": 0,
          "st": 2,
          "stDt": "1997-06-19T00:00:00"
        },
        {
          "regAuth": 45,
          "regCat": 0,
          "st": 3,
          "stDt": "1997-09-09T00:00:00"
        }
      ],
      "BrnchOfLocs": [
        {
          "str1": "510 HWY A1A N",
          "str2": null,
          "city": "PONTE VEDRA BEACH",
          "state": 9,
          "stateSpecified": true,
          "cntry": "United States",
          "postlCd": "32082"
        }
      ],
      "orgNm": "MERRILL LYNCH, PIERCE, FENNER & SMITH INCORPORATED",
      "orgPK": "7691",
      "str1": "ONE BRYANT PARK",
      "str2": null,
      "city": "NEW YORK",
      "state": 35,
      "stateSpecified": true,
      "cntry": "United States",
      "postlCd": "10036"
    }
  ],
  "Exms": [
    {
      "exmCd": 0,
      "exmNm": "Uniform Securities Agent State Law Examination",
      "exmDt": "1997-06-27T00:00:00",
      "exmDtSpecified": true
    },
    {
      "exmCd": 3,
      "exmNm": "Uniform Combined State Law Examination",
      "exmDt": "2010-01-04T00:00:00",
      "exmDtSpecified": true
    }
  ],
  "Dsgntns": [],
  "PrevRgstns": [],
  "EmpHss": [
    {
      "fromDt": "04/1997",
      "toDt": null,
      "orgNm": "MERRILL LYNCH, PIERCE, FENNER & SMITH INCORPORATED",
      "city": "PONTE VEDRA BEACH",
      "state": 9,
      "stateSpecified": true
    }
  ],
  "OthrBuss": {
    "OthrBus": null
  },
  "DRPs": []
}