{
  "Info": {
    "lastNm": "TAMBORRA",
    "firstNm": "FERN",
    "midNm": "MARA",
    "sufNm": null,
    "indvlPK": "2900137",
    "actvAGReg": 0,
    "link": "http://www.adviserinfo.sec.gov/IAPD/Individual/2900137"
  },
  "OthrNms": [
    {
      "lastNm": "MARKOWITZ",
      "firstNm": "FERN",
      "midNm": "MARA",
      "sufNm": null
    }
  ],
  "CrntEmps": [
    {
      "CrntRgstns": [
        {
          "regAuth": 32,
          "regCat": 0,
          "st": 2,
          "stDt": "2014-10-14T00:00:00"
        }
      ],
      "BrnchOfLocs": [
        {
          "str1": "3201 Bridge Ave",
          "str2": null,
          "city": "PT PLEASANT",
          "state": 32,
          "stateSpecified": true,
          "cntry": "United States",
          "postlCd": "08742-3468"
        }
      ],
      "orgNm": "ALLSTATE FINANCIAL ADVISORS, LLC",
      "orgPK": "109524",
      "str1": "3100 SANDERS ROAD",
      "str2": null,
      "city": "NORTHBROOK",
      "state": 15,
      "stateSpecified": true,
      "cntry": "United States",
      "postlCd": "60062"
    }
  ],
  "Exms": [
    {
      "exmCd": 0,
      "exmNm": "Uniform Securities Agent State Law Examination",
      "exmDt": "1999-01-22T00:00:00",
      "exmDtSpecified": true
    },
    {
      "exmCd": 2,
      "exmNm": "Uniform Investment Adviser Law Examination",
      "exmDt": "2001-07-13T00:00:00",
      "exmDtSpecified": true
    }
  ],
  "Dsgntns": [],
  "PrevRgstns": [
    {
      "BrnchOfLocs": [
        {
          "city": "EDISON",
          "state": 32,
          "stateSpecified": true
        },
        {
          "city": "RED BANK",
          "state": 32,
          "stateSpecified": true
        }
      ],
      "orgNm": "AMERIPRISE FINANCIAL SERVICES, INC.",
      "orgPK": "6363",
      "regBeginDt": "2002-10-01T00:00:00",
      "regBeginDtSpecified": true,
      "regEndDt": "2010-05-07T00:00:00",
      "regEndDtSpecified": true
    },
    {
      "BrnchOfLocs": [
        {
          "city": "WALL",
          "state": 32,
          "stateSpecified": true
        },
        {
          "city": "WOODBRIDGE",
          "state": 32,
          "stateSpecified": true
        }
      ],
      "orgNm": "AXA ADVISORS, LLC",
      "orgPK": "6627",
      "regBeginDt": "2010-05-12T00:00:00",
      "regBeginDtSpecified": true,
      "regEndDt": "2014-01-21T00:00:00",
      "regEndDtSpecified": true
    }
  ],
  "EmpHss": [
    {
      "fromDt": "09/2002",
      "toDt": "05/2010",
      "orgNm": "AMERICAN EXPRESS FINANCIAL ADVISORS INC.",
      "city": "EDISON",
      "state": 32,
      "stateSpecified": true
    },
    {
      "fromDt": "05/2010",
      "toDt": "12/2013",
      "orgNm": "AXA ADVISORS, LLC",
      "city": "WOODBRIDGE",
      "state": 32,
      "stateSpecified": true
    },
    {
      "fromDt": "12/2013",
      "toDt": "10/2014",
      "orgNm": "UNEMPLOYED",
      "city": "LAKEWOOD",
      "state": 32,
      "stateSpecified": true
    },
    {
      "fromDt": "10/2014",
      "toDt": null,
      "orgNm": "ALLSTATE INSURANCE CO",
      "city": "EAST WINDSOR",
      "state": 32,
      "stateSpecified": true
    }
  ],
  "OthrBuss": {
    "OthrBus": {
      "desc": "NATIONAL AGENTS ALLIANCE (NAA) 1214 TURRENTINE ST NC 27215  AGENT  NOT INVESTMENT RELATED  DUTIES: SELL INSURANCE - TRAILING COMMISSIONS ONLY  0%, 0 HOURS PER MONTH, 0 HOURS PER MONTH DURING TRADES  8/1/2012"
    }
  },
  "DRPs": []
}