{
  "Info": {
    "lastNm": "RAQUE",
    "firstNm": "MARK",
    "midNm": "WILLIAM",
    "sufNm": null,
    "indvlPK": "2901872",
    "actvAGReg": 0,
    "link": "http://www.adviserinfo.sec.gov/IAPD/Individual/2901872"
  },
  "OthrNms": [],
  "CrntEmps": [
    {
      "CrntRgstns": [
        {
          "regAuth": 18,
          "regCat": 0,
          "st": 2,
          "stDt": "2016-04-07T00:00:00"
        }
      ],
      "BrnchOfLocs": [
        {
          "str1": "401 SOUTH FOURTH AVENUE",
          "str2": null,
          "city": "LOUISVILLE",
          "state": 18,
          "stateSpecified": true,
          "cntry": "United States",
          "postlCd": "40202"
        }
      ],
      "orgNm": "FIFTH THIRD SECURITIES, INC.",
      "orgPK": "628",
      "str1": "34 FOUNTAIN SQUARE PLAZA",
      "str2": "MD 10AT42",
      "city": "CINCINNATI",
      "state": 36,
      "stateSpecified": true,
      "cntry": "United States",
      "postlCd": "45263"
    }
  ],
  "Exms": [
    {
      "exmCd": 0,
      "exmNm": "Uniform Securities Agent State Law Examination",
      "exmDt": "1997-09-05T00:00:00",
      "exmDtSpecified": true
    },
    {
      "exmCd": 2,
      "exmNm": "Uniform Investment Adviser Law Examination",
      "exmDt": "1999-12-29T00:00:00",
      "exmDtSpecified": true
    }
  ],
  "Dsgntns": [],
  "PrevRgstns": [
    {
      "BrnchOfLocs": [
        {
          "city": "LOUISVILLE",
          "state": 18,
          "stateSpecified": true
        }
      ],
      "orgNm": "LPL FINANCIAL LLC",
      "orgPK": "6413",
      "regBeginDt": "2003-07-25T00:00:00",
      "regBeginDtSpecified": true,
      "regEndDt": "2005-12-31T00:00:00",
      "regEndDtSpecified": true
    },
    {
      "BrnchOfLocs": [
        {
          "city": "INDIANAPOLIS",
          "state": 16,
          "stateSpecified": true
        },
        {
          "city": "LOUISVILLE",
          "state": 18,
          "stateSpecified": true
        },
        {
          "city": "LOUISVILLE",
          "state": 18,
          "stateSpecified": true
        }
      ],
      "orgNm": "NATCITY INVESTMENTS, INC.",
      "orgPK": "17490",
      "regBeginDt": "2006-01-05T00:00:00",
      "regBeginDtSpecified": true,
      "regEndDt": "2009-11-13T00:00:00",
      "regEndDtSpecified": true
    },
    {
      "BrnchOfLocs": [
        {
          "city": "LOUISVILLE",
          "state": 18,
          "stateSpecified": true
        },
        {
          "city": "LOUISVILLE",
          "state": 18,
          "stateSpecified": true
        }
      ],
      "orgNm": "PNC INVESTMENTS",
      "orgPK": "129052",
      "regBeginDt": "2009-11-13T00:00:00",
      "regBeginDtSpecified": true,
      "regEndDt": "2009-12-31T00:00:00",
      "regEndDtSpecified": true
    },
    {
      "BrnchOfLocs": [
        {
          "city": "COLUMBUS",
          "state": 36,
          "stateSpecified": true
        },
        {
          "city": "LOUISVILLE",
          "state": 18,
          "stateSpecified": true
        },
        {
          "city": "PHILADELPHIA",
          "state": 39,
          "stateSpecified": true
        }
      ],
      "orgNm": "PNC INVESTMENTS",
      "orgPK": "129052",
      "regBeginDt": "2010-12-20T00:00:00",
      "regBeginDtSpecified": true,
      "regEndDt": "2016-03-22T00:00:00",
      "regEndDtSpecified": true
    }
  ],
  "EmpHss": [
    {
      "fromDt": "01/2006",
      "toDt": "11/2009",
      "orgNm": "NATCITY INVESTMENTS, INC.",
      "city": "LOUISVILLE",
      "state": 18,
      "stateSpecified": true
    },
    {
      "fromDt": "01/2006",
      "toDt": "11/2009",
      "orgNm": "NATIONAL CITY CORPORATION",
      "city": "LOUISVILLE",
      "state": 18,
      "stateSpecified": true
    },
    {
      "fromDt": "11/2009",
      "toDt": "03/2016",
      "orgNm": "PNC BANK",
      "city": "PITTSBURGH",
      "state": 39,
      "stateSpecified": true
    },
    {
      "fromDt": "11/2009",
      "toDt": "03/2016",
      "orgNm": "PNC INVESTMENTS",
      "city": "LOUISVILLE",
      "state": 18,
      "stateSpecified": true
    },
    {
      "fromDt": "03/2016",
      "toDt": null,
      "orgNm": "FIFTH THIRD SECURITIES",
      "city": "LOUISVILLE",
      "state": 18,
      "stateSpecified": true
    }
  ],
  "OthrBuss": {
    "OthrBus": null
  },
  "DRPs": []
}