{
  "Info": {
    "lastNm": "COPSEY",
    "firstNm": "MAURA",
    "midNm": "SILL",
    "sufNm": null,
    "indvlPK": "2902671",
    "actvAGReg": 0,
    "link": "http://www.adviserinfo.sec.gov/IAPD/Individual/2902671"
  },
  "OthrNms": [
    {
      "lastNm": "COPSEY",
      "firstNm": "MAURA",
      "midNm": null,
      "sufNm": null
    },
    {
      "lastNm": "SILL",
      "firstNm": "MAURA",
      "midNm": "LOUISE",
      "sufNm": null
    }
  ],
  "CrntEmps": [
    {
      "CrntRgstns": [
        {
          "regAuth": 42,
          "regCat": 0,
          "st": 2,
          "stDt": "2007-09-19T00:00:00"
        },
        {
          "regAuth": 45,
          "regCat": 0,
          "st": 3,
          "stDt": "2013-12-16T00:00:00"
        }
      ],
      "BrnchOfLocs": [
        {
          "str1": "1116 S MAIN ST",
          "str2": null,
          "city": "GREENVILLE",
          "state": 42,
          "stateSpecified": true,
          "cntry": "United States",
          "postlCd": "29601"
        }
      ],
      "orgNm": "WELLS FARGO ADVISORS FINANCIAL NETWORK, LLC",
      "orgPK": "11025",
      "str1": "ONE NORTH JEFFERSON AVENUE",
      "str2": "MAIL CODE: H0004-050",
      "city": "ST. LOUIS",
      "state": 25,
      "stateSpecified": true,
      "cntry": "United States",
      "postlCd": "63103"
    }
  ],
  "Exms": [
    {
      "exmCd": 0,
      "exmNm": "Uniform Securities Agent State Law Examination",
      "exmDt": "1997-08-20T00:00:00",
      "exmDtSpecified": true
    },
    {
      "exmCd": 2,
      "exmNm": "Uniform Investment Adviser Law Examination",
      "exmDt": "2003-12-18T00:00:00",
      "exmDtSpecified": true
    }
  ],
  "Dsgntns": [],
  "PrevRgstns": [
    {
      "BrnchOfLocs": [
        {
          "city": "GREENVILLE",
          "state": 42,
          "stateSpecified": true
        },
        {
          "city": "GREENVILLE",
          "state": 42,
          "stateSpecified": true
        }
      ],
      "orgNm": "WELLS FARGO ADVISORS, LLC",
      "orgPK": "19616",
      "regBeginDt": "2004-01-06T00:00:00",
      "regBeginDtSpecified": true,
      "regEndDt": "2007-09-07T00:00:00",
      "regEndDtSpecified": true
    }
  ],
  "EmpHss": [
    {
      "fromDt": "06/2003",
      "toDt": "09/2007",
      "orgNm": "WACHOVIA SECURITIES, LLC (19616)",
      "city": "GREENVILLE",
      "state": 42,
      "stateSpecified": true
    },
    {
      "fromDt": "09/2005",
      "toDt": "05/2009",
      "orgNm": "WACHOVIA SECURITIES FINANCIAL NETWORK, LLC (11025)",
      "city": "GREENVILLE",
      "state": 42,
      "stateSpecified": true
    },
    {
      "fromDt": "05/2009",
      "toDt": null,
      "orgNm": "WELLS FARGO ADVISORS FINANCIAL NETWORK LLC",
      "city": "GREENVILLE",
      "state": 42,
      "stateSpecified": true
    }
  ],
  "OthrBuss": {
    "OthrBus": null
  },
  "DRPs": [
    {
      "hasRegAction": 1,
      "hasRegActionSpecified": true,
      "hasCriminal": 1,
      "hasCriminalSpecified": true,
      "hasBankrupt": 1,
      "hasBankruptSpecified": true,
      "hasCivilJudc": 1,
      "hasCivilJudcSpecified": true,
      "hasBond": 1,
      "hasBondSpecified": true,
      "hasJudgment": 1,
      "hasJudgmentSpecified": true,
      "hasInvstgn": 1,
      "hasInvstgnSpecified": true,
      "hasCustComp": 0,
      "hasCustCompSpecified": true,
      "hasTermination": 1,
      "hasTerminationSpecified": true
    }
  ]
}