{
  "Info": {
    "lastNm": "WAFFORD",
    "firstNm": "KAREN",
    "midNm": "ELIZABETH",
    "sufNm": null,
    "indvlPK": "2904270",
    "actvAGReg": 0,
    "link": "http://www.adviserinfo.sec.gov/IAPD/Individual/2904270"
  },
  "OthrNms": [
    {
      "lastNm": "EUTSLER",
      "firstNm": "KAREN",
      "midNm": "ELIZABETH",
      "sufNm": null
    }
  ],
  "CrntEmps": [
    {
      "CrntRgstns": [
        {
          "regAuth": 28,
          "regCat": 0,
          "st": 2,
          "stDt": "2010-10-04T00:00:00"
        },
        {
          "regAuth": 45,
          "regCat": 0,
          "st": 2,
          "stDt": "2016-03-17T00:00:00"
        }
      ],
      "BrnchOfLocs": [
        {
          "str1": "400 S FRONT ST",
          "str2": null,
          "city": "NEW BERN",
          "state": 28,
          "stateSpecified": true,
          "cntry": "United States",
          "postlCd": "28560"
        }
      ],
      "orgNm": "WELLS FARGO ADVISORS, LLC",
      "orgPK": "19616",
      "str1": "ONE NORTH JEFFERSON AVENUE",
      "str2": "MAIL CODE: H0004-050",
      "city": "ST. LOUIS",
      "state": 25,
      "stateSpecified": true,
      "cntry": "United States",
      "postlCd": "63103-2205"
    }
  ],
  "Exms": [
    {
      "exmCd": 0,
      "exmNm": "Uniform Securities Agent State Law Examination",
      "exmDt": "1997-08-13T00:00:00",
      "exmDtSpecified": true
    },
    {
      "exmCd": 2,
      "exmNm": "Uniform Investment Adviser Law Examination",
      "exmDt": "1997-09-29T00:00:00",
      "exmDtSpecified": true
    }
  ],
  "Dsgntns": [],
  "PrevRgstns": [],
  "EmpHss": [
    {
      "fromDt": "06/2003",
      "toDt": "05/2009",
      "orgNm": "WACHOVIA SECURITIES, LLC",
      "city": "NEW BERN",
      "state": 28,
      "stateSpecified": true
    },
    {
      "fromDt": "05/2009",
      "toDt": null,
      "orgNm": "WELLS FARGO ADVISORS LLC",
      "city": "NEW BERN",
      "state": 28,
      "stateSpecified": true
    }
  ],
  "OthrBuss": {
    "OthrBus": {
      "desc": "NOTARY PUBLIC, NOT INV RELATED, NORTH CAROLINA, CRAVEN COUNTY, START: 6/2011, LESS THAN 1 OUR DURING TRADING HOURS."
    }
  },
  "DRPs": []
}