{
  "Info": {
    "lastNm": "SMITHERMAN",
    "firstNm": "FRANCESCA",
    "midNm": "ALLEN",
    "sufNm": null,
    "indvlPK": "2904466",
    "actvAGReg": 1,
    "link": "http://www.adviserinfo.sec.gov/IAPD/Individual/2904466"
  },
  "OthrNms": [
    {
      "lastNm": "ALLEN",
      "firstNm": "FRAN",
      "midNm": null,
      "sufNm": null
    },
    {
      "lastNm": "ALLEN",
      "firstNm": "FRANCESCA",
      "midNm": "LILLIAN",
      "sufNm": null
    }
  ],
  "CrntEmps": [
    {
      "CrntRgstns": [
        {
          "regAuth": 1,
          "regCat": 0,
          "st": 2,
          "stDt": "2008-01-16T00:00:00"
        }
      ],
      "BrnchOfLocs": [
        {
          "str1": "1901 6TH AVENUE NORTH",
          "str2": "FOURTH FLOOR",
          "city": "BIRMINGHAM",
          "state": 1,
          "stateSpecified": true,
          "cntry": "United States",
          "postlCd": "35203-2618"
        }
      ],
      "orgNm": "REGIONS INVESTMENT MANAGEMENT, INC.",
      "orgPK": "111715",
      "str1": "1901 6TH AVENUE NORTH",
      "str2": "FOURTH FLOOR",
      "city": "BIRMINGHAM",
      "state": 1,
      "stateSpecified": true,
      "cntry": "United States",
      "postlCd": "35203-2618"
    }
  ],
  "Exms": [
    {
      "exmCd": 2,
      "exmNm": "Uniform Investment Adviser Law Examination",
      "exmDt": "2001-04-11T00:00:00",
      "exmDtSpecified": true
    }
  ],
  "Dsgntns": [],
  "PrevRgstns": [
    {
      "BrnchOfLocs": [
        {
          "city": "BIRMINGHAM",
          "state": 1,
          "stateSpecified": true
        }
      ],
      "orgNm": "AMSOUTH INVESTMENT MANAGEMENT COMPANY LLC",
      "orgPK": "111757",
      "regBeginDt": "2001-06-01T00:00:00",
      "regBeginDtSpecified": true,
      "regEndDt": "2003-10-20T00:00:00",
      "regEndDtSpecified": true
    },
    {
      "BrnchOfLocs": [
        {
          "city": "BIRMINGHAM",
          "state": 1,
          "stateSpecified": true
        }
      ],
      "orgNm": "AMSOUTH ASSET MANAGEMENT, INC.",
      "orgPK": "111554",
      "regBeginDt": "2004-04-01T00:00:00",
      "regBeginDtSpecified": true,
      "regEndDt": "2008-01-16T00:00:00",
      "regEndDtSpecified": true
    }
  ],
  "EmpHss": [
    {
      "fromDt": "03/1998",
      "toDt": "01/2008",
      "orgNm": "AMSOUTH BANK",
      "city": "BIRMINGHAM",
      "state": 1,
      "stateSpecified": true
    },
    {
      "fromDt": "01/2008",
      "toDt": null,
      "orgNm": "MORGAN ASSET MANAGEMENT, INC.",
      "city": "BIRMINGHAM",
      "state": 1,
      "stateSpecified": true
    }
  ],
  "OthrBuss": {
    "OthrBus": null
  },
  "DRPs": []
}