{
  "Info": {
    "lastNm": "KOEPPEL",
    "firstNm": "SCOTT",
    "midNm": null,
    "sufNm": null,
    "indvlPK": "2910202",
    "actvAGReg": 1,
    "link": "http://www.adviserinfo.sec.gov/IAPD/Individual/2910202"
  },
  "OthrNms": [],
  "CrntEmps": [
    {
      "CrntRgstns": [
        {
          "regAuth": 9,
          "regCat": 0,
          "st": 2,
          "stDt": "1997-10-20T00:00:00"
        }
      ],
      "BrnchOfLocs": [
        {
          "str1": "100 TAMPA OAKS BLVD",
          "str2": "SUITE 405",
          "city": "TAMPA",
          "state": 9,
          "stateSpecified": true,
          "cntry": "United States",
          "postlCd": "33637"
        }
      ],
      "orgNm": "HIGH STREET FINANCIAL LLC",
      "orgPK": "107132",
      "str1": "12802 TAMPA OAKS BLVD,STE 405",
      "str2": null,
      "city": "TAMPA",
      "state": 9,
      "stateSpecified": true,
      "cntry": "United States",
      "postlCd": "33637"
    }
  ],
  "Exms": [
    {
      "exmCd": 2,
      "exmNm": "Uniform Investment Adviser Law Examination",
      "exmDt": "1997-06-18T00:00:00",
      "exmDtSpecified": true
    }
  ],
  "Dsgntns": [],
  "PrevRgstns": [],
  "EmpHss": [],
  "OthrBuss": {
    "OthrBus": null
  },
  "DRPs": []
}