{
  "Info": {
    "lastNm": "DE GROOT",
    "firstNm": "KRISTIAN",
    "midNm": "ROY",
    "sufNm": null,
    "indvlPK": "2916608",
    "actvAGReg": 0,
    "link": "http://www.adviserinfo.sec.gov/IAPD/Individual/2916608"
  },
  "OthrNms": [
    {
      "lastNm": "DEGROOT",
      "firstNm": "KRISTIAN",
      "midNm": "ROY",
      "sufNm": null
    },
    {
      "lastNm": "DELEROOT",
      "firstNm": "KRISTIAN",
      "midNm": "ROY",
      "sufNm": null
    }
  ],
  "CrntEmps": [
    {
      "CrntRgstns": [
        {
          "regAuth": 38,
          "regCat": 0,
          "st": 2,
          "stDt": "2009-06-01T00:00:00"
        },
        {
          "regAuth": 45,
          "regCat": 0,
          "st": 3,
          "stDt": "2014-02-12T00:00:00"
        },
        {
          "regAuth": 49,
          "regCat": 0,
          "st": 2,
          "stDt": "2016-03-18T00:00:00"
        }
      ],
      "BrnchOfLocs": [
        {
          "str1": "1701 SE COLUMBIA RIVER CIRCLE",
          "str2": "SUITE 120",
          "city": "VANCOUVER",
          "state": 49,
          "stateSpecified": true,
          "cntry": "United States",
          "postlCd": "98661"
        },
        {
          "str1": "760 SW 9th Avenue",
          "str2": "Suite 2100",
          "city": "PORTLAND",
          "state": 38,
          "stateSpecified": true,
          "cntry": "United States",
          "postlCd": "97205"
        }
      ],
      "orgNm": "MORGAN STANLEY",
      "orgPK": "149777",
      "str1": "2000 WESTCHESTER AVENUE",
      "str2": null,
      "city": "PURCHASE",
      "state": 35,
      "stateSpecified": true,
      "cntry": "United States",
      "postlCd": "10577-2530"
    }
  ],
  "Exms": [
    {
      "exmCd": 0,
      "exmNm": "Uniform Securities Agent State Law Examination",
      "exmDt": "1997-10-17T00:00:00",
      "exmDtSpecified": true
    },
    {
      "exmCd": 2,
      "exmNm": "Uniform Investment Adviser Law Examination",
      "exmDt": "2000-11-18T00:00:00",
      "exmDtSpecified": true
    }
  ],
  "Dsgntns": [],
  "PrevRgstns": [
    {
      "BrnchOfLocs": [
        {
          "city": "PORTLAND",
          "state": 38,
          "stateSpecified": true
        },
        {
          "city": "PORTLAND",
          "state": 38,
          "stateSpecified": true
        }
      ],
      "orgNm": "CITIGROUP GLOBAL MARKETS INC.",
      "orgPK": "7059",
      "regBeginDt": "2003-04-23T00:00:00",
      "regBeginDtSpecified": true,
      "regEndDt": "2009-06-01T00:00:00",
      "regEndDtSpecified": true
    }
  ],
  "EmpHss": [
    {
      "fromDt": "10/2000",
      "toDt": null,
      "orgNm": "CITIGROUP GLOBAL MARKETS INC.",
      "city": "PORTLAND",
      "state": 38,
      "stateSpecified": true
    },
    {
      "fromDt": "06/2009",
      "toDt": null,
      "orgNm": "MORGAN STANLEY SMITH BARNEY",
      "city": "PORTLAND",
      "state": 38,
      "stateSpecified": true
    },
    {
      "fromDt": "01/2015",
      "toDt": null,
      "orgNm": "MORGAN STANLEY PRIVATE BANK, NATIONAL ASSOCIATION",
      "city": "NEW YORK",
      "state": 35,
      "stateSpecified": true
    }
  ],
  "OthrBuss": {
    "OthrBus": null
  },
  "DRPs": []
}