{
  "Info": {
    "lastNm": "HOYT",
    "firstNm": "JIMMY",
    "midNm": "LDEAN",
    "sufNm": null,
    "indvlPK": "2916653",
    "actvAGReg": 0,
    "link": "http://www.adviserinfo.sec.gov/IAPD/Individual/2916653"
  },
  "OthrNms": [],
  "CrntEmps": [
    {
      "CrntRgstns": [
        {
          "regAuth": 45,
          "regCat": 0,
          "st": 2,
          "stDt": "2004-09-13T00:00:00"
        }
      ],
      "BrnchOfLocs": [
        {
          "str1": "9800 FREDERICKSBURG ROAD",
          "str2": null,
          "city": "SAN ANTONIO",
          "state": 45,
          "stateSpecified": true,
          "cntry": "United States",
          "postlCd": "78288-0227"
        }
      ],
      "orgNm": "USAA FINANCIAL PLANNING SERVICES",
      "orgPK": "106352",
      "str1": "9800 FREDERICKSBURG ROAD",
      "str2": null,
      "city": "SAN ANTONIO",
      "state": 45,
      "stateSpecified": true,
      "cntry": "United States",
      "postlCd": "78288-0227"
    }
  ],
  "Exms": [
    {
      "exmCd": 0,
      "exmNm": "Uniform Securities Agent State Law Examination",
      "exmDt": "1997-09-18T00:00:00",
      "exmDtSpecified": true
    }
  ],
  "Dsgntns": [],
  "PrevRgstns": [],
  "EmpHss": [
    {
      "fromDt": "08/2004",
      "toDt": null,
      "orgNm": "USAA FINANCIAL ADVISORS INC.",
      "city": "SAN ANTONIO",
      "state": 45,
      "stateSpecified": true
    },
    {
      "fromDt": "08/2004",
      "toDt": null,
      "orgNm": "USAA FINANCIAL PLANNING SERVICES",
      "city": "SAN ANTONIO",
      "state": 45,
      "stateSpecified": true
    }
  ],
  "OthrBuss": {
    "OthrBus": null
  },
  "DRPs": []
}