{
  "Info": {
    "lastNm": "MILLER",
    "firstNm": "JOSEPH",
    "midNm": "PATRICK",
    "sufNm": null,
    "indvlPK": "2921914",
    "actvAGReg": 0,
    "link": "http://www.adviserinfo.sec.gov/IAPD/Individual/2921914"
  },
  "OthrNms": [],
  "CrntEmps": [
    {
      "CrntRgstns": [
        {
          "regAuth": 16,
          "regCat": 0,
          "st": 2,
          "stDt": "2015-08-25T00:00:00"
        }
      ],
      "BrnchOfLocs": [
        {
          "str1": "5750 COVENTRY LN",
          "str2": "STE 110",
          "city": "FORT WAYNE",
          "state": 16,
          "stateSpecified": true,
          "cntry": "United States",
          "postlCd": "46804"
        }
      ],
      "orgNm": "AMERIPRISE FINANCIAL SERVICES, INC.",
      "orgPK": "6363",
      "str1": "707 2ND AVENUE SOUTH",
      "str2": null,
      "city": "MINNEAPOLIS",
      "state": 24,
      "stateSpecified": true,
      "cntry": "United States",
      "postlCd": "55402"
    }
  ],
  "Exms": [
    {
      "exmCd": 0,
      "exmNm": "Uniform Securities Agent State Law Examination",
      "exmDt": "1997-09-11T00:00:00",
      "exmDtSpecified": true
    },
    {
      "exmCd": 2,
      "exmNm": "Uniform Investment Adviser Law Examination",
      "exmDt": "1999-12-27T00:00:00",
      "exmDtSpecified": true
    }
  ],
  "Dsgntns": [],
  "PrevRgstns": [
    {
      "BrnchOfLocs": [
        {
          "city": "FORT WAYNE",
          "state": 16,
          "stateSpecified": true
        }
      ],
      "orgNm": "BANC ONE SECURITIES CORPORATION",
      "orgPK": "16999",
      "regBeginDt": "2000-02-24T00:00:00",
      "regBeginDtSpecified": true,
      "regEndDt": "2005-07-06T00:00:00",
      "regEndDtSpecified": true
    },
    {
      "BrnchOfLocs": [
        {
          "city": "FORT WAYNE",
          "state": 16,
          "stateSpecified": true
        },
        {
          "city": "FORT WAYNE",
          "state": 16,
          "stateSpecified": true
        },
        {
          "city": "FORT WAYNE",
          "state": 16,
          "stateSpecified": true
        }
      ],
      "orgNm": "CHASE INVESTMENT SERVICES CORP.",
      "orgPK": "25574",
      "regBeginDt": "2005-07-06T00:00:00",
      "regBeginDtSpecified": true,
      "regEndDt": "2012-10-01T00:00:00",
      "regEndDtSpecified": true
    },
    {
      "BrnchOfLocs": [
        {
          "city": "FORT WAYNE",
          "state": 16,
          "stateSpecified": true
        },
        {
          "city": "FORT WAYNE",
          "state": 16,
          "stateSpecified": true
        }
      ],
      "orgNm": "J.P. MORGAN SECURITIES LLC",
      "orgPK": "79",
      "regBeginDt": "2012-10-01T00:00:00",
      "regBeginDtSpecified": true,
      "regEndDt": "2015-09-16T00:00:00",
      "regEndDtSpecified": true
    }
  ],
  "EmpHss": [
    {
      "fromDt": "07/2005",
      "toDt": "10/2012",
      "orgNm": "CHASE INVESTMENT SERVICES CORP.",
      "city": "CHICAGO",
      "state": 15,
      "stateSpecified": true
    },
    {
      "fromDt": "10/2012",
      "toDt": "08/2015",
      "orgNm": "J.P. MORGAN SECURITIES LLC",
      "city": "FORT WAYNE",
      "state": 16,
      "stateSpecified": true
    },
    {
      "fromDt": "09/2013",
      "toDt": "08/2015",
      "orgNm": "BRIK D INC.",
      "city": "ROANOKE",
      "state": 16,
      "stateSpecified": true
    },
    {
      "fromDt": "08/2015",
      "toDt": null,
      "orgNm": "AMERIPRISE FINANCIAL SERVICES INC",
      "city": "FT WAYNE",
      "state": 16,
      "stateSpecified": true
    }
  ],
  "OthrBuss": {
    "OthrBus": {
      "desc": "Real estate Ownership; Apartments and Commercial in one building; New Haven, IN 46774; investment related; june 2006. Business Ownership; BRIK Properties; President; Real Estate Management; Roanoke, IN 46783; Investment related; June 2004; 1-9 hours per month; 0 during trading hours.  Boards of Directors; Lakewood Homeowners Association; Home Owners Association; Treasurer; Roanoke, IN 46783; Not investment related; September 2011; 1-9 hours per month; 0 during trading hours."
    }
  },
  "DRPs": [
    {
      "hasRegAction": 1,
      "hasRegActionSpecified": true,
      "hasCriminal": 1,
      "hasCriminalSpecified": true,
      "hasBankrupt": 1,
      "hasBankruptSpecified": true,
      "hasCivilJudc": 1,
      "hasCivilJudcSpecified": true,
      "hasBond": 1,
      "hasBondSpecified": true,
      "hasJudgment": 1,
      "hasJudgmentSpecified": true,
      "hasInvstgn": 1,
      "hasInvstgnSpecified": true,
      "hasCustComp": 0,
      "hasCustCompSpecified": true,
      "hasTermination": 0,
      "hasTerminationSpecified": true
    }
  ]
}