{
  "Info": {
    "lastNm": "LO",
    "firstNm": "STEPHEN",
    "midNm": "JOHN",
    "sufNm": null,
    "indvlPK": "2928196",
    "actvAGReg": 0,
    "link": "http://www.adviserinfo.sec.gov/IAPD/Individual/2928196"
  },
  "OthrNms": [],
  "CrntEmps": [
    {
      "CrntRgstns": [
        {
          "regAuth": 21,
          "regCat": 0,
          "st": 2,
          "stDt": "2008-06-19T00:00:00"
        }
      ],
      "BrnchOfLocs": [
        {
          "str1": "401 WASHINGTON AVE",
          "str2": "SUITE #140",
          "city": "TOWSON",
          "state": 21,
          "stateSpecified": true,
          "cntry": "United States",
          "postlCd": "21204-9422"
        }
      ],
      "orgNm": "CHARLES SCHWAB & CO., INC.",
      "orgPK": "5393",
      "str1": "211 MAIN STREET",
      "str2": null,
      "city": "SAN FRANCISCO",
      "state": 4,
      "stateSpecified": true,
      "cntry": "United States",
      "postlCd": "94105"
    }
  ],
  "Exms": [
    {
      "exmCd": 0,
      "exmNm": "Uniform Securities Agent State Law Examination",
      "exmDt": "1997-11-05T00:00:00",
      "exmDtSpecified": true
    },
    {
      "exmCd": 3,
      "exmNm": "Uniform Combined State Law Examination",
      "exmDt": "2004-01-08T00:00:00",
      "exmDtSpecified": true
    }
  ],
  "Dsgntns": [],
  "PrevRgstns": [
    {
      "BrnchOfLocs": [
        {
          "city": "ROSLYN",
          "state": 35,
          "stateSpecified": true
        }
      ],
      "orgNm": "MSI FINANCIAL SERVICES, INC.",
      "orgPK": "14251",
      "regBeginDt": "2002-07-31T00:00:00",
      "regBeginDtSpecified": true,
      "regEndDt": "2004-05-19T00:00:00",
      "regEndDtSpecified": true
    },
    {
      "BrnchOfLocs": [
        {
          "city": "DEWITT",
          "state": 35,
          "stateSpecified": true
        },
        {
          "city": "LIVERPOOL",
          "state": 35,
          "stateSpecified": true
        },
        {
          "city": "MINNEAPOLIS",
          "state": 24,
          "stateSpecified": true
        },
        {
          "city": "PRINCETON",
          "state": 32,
          "stateSpecified": true
        }
      ],
      "orgNm": "AMERIPRISE FINANCIAL SERVICES, INC.",
      "orgPK": "6363",
      "regBeginDt": "2004-05-25T00:00:00",
      "regBeginDtSpecified": true,
      "regEndDt": "2008-05-29T00:00:00",
      "regEndDtSpecified": true
    }
  ],
  "EmpHss": [
    {
      "fromDt": "05/2004",
      "toDt": "05/2008",
      "orgNm": "AMERIPRISE FINANCIAL SERVICES, INC",
      "city": "MINNEAPOLIS",
      "state": 24,
      "stateSpecified": true
    },
    {
      "fromDt": "05/2004",
      "toDt": "05/2008",
      "orgNm": "RIVERSOURCE LIFE INSURANCE COMPANY",
      "city": "PARAMUS",
      "state": 32,
      "stateSpecified": true
    },
    {
      "fromDt": "05/2008",
      "toDt": null,
      "orgNm": "CHARLES SCHWAB & CO., INC.",
      "city": "TOWSON",
      "state": 21,
      "stateSpecified": true
    },
    {
      "fromDt": "05/2008",
      "toDt": null,
      "orgNm": "CHARLES SCHWAB BANK",
      "city": "TOWSON",
      "state": 21,
      "stateSpecified": true
    }
  ],
  "OthrBuss": {
    "OthrBus": {
      "desc": "CHARLES SCHWAB BANK, 05/28/2008,  INVESTMENT RELATED, DUAL EMPLOYEE, BANK PRODUCTS, REFERRALS OF HELOC, MORTGAGES, INVESTOR CHECKING PRODUCTS FOR APPROXIMATELY 20 HOURS PER MONTH DURING TRADING HOURS. (2)STOCKS IN THE FUTURE,NON-PROFIT, BOARD MEMBER, NOT INVESTMENT RELATED, LESS THAN 20 HOURS PER MONTH, NOT DURING TRADING HOURS."
    }
  },
  "DRPs": []
}