{
  "Info": {
    "lastNm": "WERTZ",
    "firstNm": "CLAYTON",
    "midNm": "HOLMAN",
    "sufNm": null,
    "indvlPK": "2931973",
    "actvAGReg": 0,
    "link": "http://www.adviserinfo.sec.gov/IAPD/Individual/2931973"
  },
  "OthrNms": [
    {
      "lastNm": "WERTZ",
      "firstNm": "CLAYTON",
      "midNm": null,
      "sufNm": null
    }
  ],
  "CrntEmps": [
    {
      "CrntRgstns": [
        {
          "regAuth": 45,
          "regCat": 0,
          "st": 2,
          "stDt": "2012-07-11T00:00:00"
        }
      ],
      "BrnchOfLocs": [
        {
          "str1": null,
          "str2": null,
          "city": "Dallas",
          "state": 45,
          "stateSpecified": true,
          "cntry": "United States",
          "postlCd": null
        },
        {
          "str1": "1535 WEST LOOP SOUTH",
          "str2": "SUITE 450",
          "city": "HOUSTON",
          "state": 45,
          "stateSpecified": true,
          "cntry": "United States",
          "postlCd": "77027"
        }
      ],
      "orgNm": "ZT WEALTH ADVISORY",
      "orgPK": "158972",
      "str1": "1535 WEST LOOP SOUTH",
      "str2": "SUITE 450",
      "city": "HOUSTON",
      "state": 45,
      "stateSpecified": true,
      "cntry": "United States",
      "postlCd": "77027"
    },
    {
      "CrntRgstns": [
        {
          "regAuth": 45,
          "regCat": 0,
          "st": 2,
          "stDt": "2015-10-02T00:00:00"
        }
      ],
      "BrnchOfLocs": [
        {
          "str1": "5005 LBJ FREEWAY",
          "str2": "SUITE 1410",
          "city": "DALLAS",
          "state": 45,
          "stateSpecified": true,
          "cntry": "United States",
          "postlCd": "75244"
        }
      ],
      "orgNm": "FIRST FINANCIAL EQUITY CORPORATION",
      "orgPK": "16507",
      "str1": "7373 N. SCOTTSDALE ROAD",
      "str2": "D120",
      "city": "SCOTTSDALE",
      "state": 3,
      "stateSpecified": true,
      "cntry": "United States",
      "postlCd": "85253"
    }
  ],
  "Exms": [
    {
      "exmCd": 3,
      "exmNm": "Uniform Combined State Law Examination",
      "exmDt": "1998-05-04T00:00:00",
      "exmDtSpecified": true
    }
  ],
  "Dsgntns": [],
  "PrevRgstns": [
    {
      "BrnchOfLocs": [
        {
          "city": "DALLAS",
          "state": 45,
          "stateSpecified": true
        }
      ],
      "orgNm": "MERRILL LYNCH, PIERCE, FENNER & SMITH INCORPORATED",
      "orgPK": "7691",
      "regBeginDt": "2001-06-20T00:00:00",
      "regBeginDtSpecified": true,
      "regEndDt": "2003-01-21T00:00:00",
      "regEndDtSpecified": true
    },
    {
      "BrnchOfLocs": [
        {
          "city": "DALLAS",
          "state": 45,
          "stateSpecified": true
        }
      ],
      "orgNm": "HILLTOP SECURITIES INC.",
      "orgPK": "6220",
      "regBeginDt": "2007-08-27T00:00:00",
      "regBeginDtSpecified": true,
      "regEndDt": "2012-07-27T00:00:00",
      "regEndDtSpecified": true
    }
  ],
  "EmpHss": [
    {
      "fromDt": "09/2003",
      "toDt": "07/2007",
      "orgNm": "WACHOVIA SECURITES LLC",
      "city": "DALLAS",
      "state": 45,
      "stateSpecified": true
    },
    {
      "fromDt": "08/2007",
      "toDt": "06/2012",
      "orgNm": "SOUTHWEST SECURITIES, INC.",
      "city": "DALLAS",
      "state": 45,
      "stateSpecified": true
    },
    {
      "fromDt": "06/2012",
      "toDt": "09/2015",
      "orgNm": "ASPEN EQUITY PARTNERS LLC",
      "city": "DALLAS",
      "state": 45,
      "stateSpecified": true
    },
    {
      "fromDt": "06/2012",
      "toDt": null,
      "orgNm": "Echelon Investment Management",
      "city": "Dallas",
      "state": 45,
      "stateSpecified": true
    },
    {
      "fromDt": "09/2015",
      "toDt": null,
      "orgNm": "FIRST FINANCIAL EQUITY CORPORATION",
      "city": "DALLAS",
      "state": 45,
      "stateSpecified": true
    }
  ],
  "OthrBuss": {
    "OthrBus": {
      "desc": "AEP Wealth Management LLC dba as Echelon Investment Management; a registered investment advisory firm; Started 12/1/2011; 2828 N. Harwood Ct., Ste. 1700, Dallas, TX  75201; investment and wealth management advice; financial adviser; compensation is based on fee; time dedicated to activity is about 30%; transactions are cleared and assets domiciled with Schwab."
    }
  },
  "DRPs": [
    {
      "hasRegAction": 1,
      "hasRegActionSpecified": true,
      "hasCriminal": 1,
      "hasCriminalSpecified": true,
      "hasBankrupt": 1,
      "hasBankruptSpecified": true,
      "hasCivilJudc": 1,
      "hasCivilJudcSpecified": true,
      "hasBond": 1,
      "hasBondSpecified": true,
      "hasJudgment": 1,
      "hasJudgmentSpecified": true,
      "hasInvstgn": 1,
      "hasInvstgnSpecified": true,
      "hasCustComp": 0,
      "hasCustCompSpecified": true,
      "hasTermination": 1,
      "hasTerminationSpecified": true
    }
  ]
}