{
  "Info": {
    "lastNm": "TURNER",
    "firstNm": "ANDREW",
    "midNm": "SPENCER",
    "sufNm": null,
    "indvlPK": "2933474",
    "actvAGReg": 0,
    "link": "http://www.adviserinfo.sec.gov/IAPD/Individual/2933474"
  },
  "OthrNms": [
    {
      "lastNm": "TURNER",
      "firstNm": "ANDREW",
      "midNm": "S",
      "sufNm": null
    }
  ],
  "CrntEmps": [
    {
      "CrntRgstns": [
        {
          "regAuth": 10,
          "regCat": 0,
          "st": 2,
          "stDt": "2009-05-27T00:00:00"
        }
      ],
      "BrnchOfLocs": [
        {
          "str1": "1454 JOHNSON FERRY RD",
          "str2": null,
          "city": "MARIETTA",
          "state": 10,
          "stateSpecified": true,
          "cntry": "United States",
          "postlCd": "30062"
        },
        {
          "str1": "3475 PIEDMONT ROAD",
          "str2": "9TH FL, STE 950 [G1-RBO]",
          "city": "ATLANTA",
          "state": 10,
          "stateSpecified": true,
          "cntry": "United States",
          "postlCd": "30305"
        },
        {
          "str1": "5010 FLOYD ROAD",
          "str2": null,
          "city": "MABLETON",
          "state": 10,
          "stateSpecified": true,
          "cntry": "United States",
          "postlCd": "30126"
        },
        {
          "str1": "5060 OLD BILL COOK ROAD",
          "str2": null,
          "city": "COLLEGE PARK",
          "state": 10,
          "stateSpecified": true,
          "cntry": "United States",
          "postlCd": "30349"
        },
        {
          "str1": "602 ROSWELL STREET",
          "str2": null,
          "city": "MARIETTA",
          "state": 10,
          "stateSpecified": true,
          "cntry": "United States",
          "postlCd": "30060"
        },
        {
          "str1": "827 CHURCH STREET EXTENSION",
          "str2": null,
          "city": "MARIETTA",
          "state": 10,
          "stateSpecified": true,
          "cntry": "United States",
          "postlCd": "30060"
        }
      ],
      "orgNm": "WELLS FARGO ADVISORS, LLC",
      "orgPK": "19616",
      "str1": "ONE NORTH JEFFERSON AVENUE",
      "str2": "MAIL CODE: H0004-050",
      "city": "ST. LOUIS",
      "state": 25,
      "stateSpecified": true,
      "cntry": "United States",
      "postlCd": "63103-2205"
    }
  ],
  "Exms": [
    {
      "exmCd": 0,
      "exmNm": "Uniform Securities Agent State Law Examination",
      "exmDt": "2004-12-20T00:00:00",
      "exmDtSpecified": true
    },
    {
      "exmCd": 3,
      "exmNm": "Uniform Combined State Law Examination",
      "exmDt": "2009-05-23T00:00:00",
      "exmDtSpecified": true
    }
  ],
  "Dsgntns": [],
  "PrevRgstns": [],
  "EmpHss": [
    {
      "fromDt": "12/2003",
      "toDt": null,
      "orgNm": "WACHOVIA BANK, N.A.",
      "city": "DECATUR",
      "state": 10,
      "stateSpecified": true
    },
    {
      "fromDt": "09/2004",
      "toDt": "05/2009",
      "orgNm": "WACHOVIA SECURITIES, LLC",
      "city": "DECATUR",
      "state": 10,
      "stateSpecified": true
    },
    {
      "fromDt": "05/2009",
      "toDt": null,
      "orgNm": "WELLS FARGO ADVISORS LLC",
      "city": "MARIETTA",
      "state": 10,
      "stateSpecified": true
    }
  ],
  "OthrBuss": {
    "OthrBus": null
  },
  "DRPs": []
}