{
  "Info": {
    "lastNm": "LEISURE",
    "firstNm": "JARROD",
    "midNm": "ROBERT",
    "sufNm": null,
    "indvlPK": "2935576",
    "actvAGReg": 0,
    "link": "http://www.adviserinfo.sec.gov/IAPD/Individual/2935576"
  },
  "OthrNms": [
    {
      "lastNm": "LEISURE",
      "firstNm": "JARROD",
      "midNm": null,
      "sufNm": null
    }
  ],
  "CrntEmps": [
    {
      "CrntRgstns": [
        {
          "regAuth": 45,
          "regCat": 0,
          "st": 2,
          "stDt": "2014-07-22T00:00:00"
        }
      ],
      "BrnchOfLocs": [
        {
          "str1": "8303 DOUGLAS AVENUE",
          "str2": null,
          "city": "DALLAS",
          "state": 45,
          "stateSpecified": true,
          "cntry": "United States",
          "postlCd": "75225"
        }
      ],
      "orgNm": "BBVA WEALTH SOLUTIONS INC.",
      "orgPK": "110476",
      "str1": "2200 POST OAK BLVD.",
      "str2": null,
      "city": "HOUSTON",
      "state": 45,
      "stateSpecified": true,
      "cntry": "United States",
      "postlCd": "77056-4700"
    }
  ],
  "Exms": [
    {
      "exmCd": 0,
      "exmNm": "Uniform Securities Agent State Law Examination",
      "exmDt": "1997-09-16T00:00:00",
      "exmDtSpecified": true
    },
    {
      "exmCd": 2,
      "exmNm": "Uniform Investment Adviser Law Examination",
      "exmDt": "1998-09-14T00:00:00",
      "exmDtSpecified": true
    },
    {
      "exmCd": 3,
      "exmNm": "Uniform Combined State Law Examination",
      "exmDt": "2004-05-20T00:00:00",
      "exmDtSpecified": true
    }
  ],
  "Dsgntns": [
    {
      "dsgntnNm": "Certified Financial Planner"
    },
    {
      "dsgntnNm": "Chartered Financial Consultant"
    }
  ],
  "PrevRgstns": [
    {
      "BrnchOfLocs": [
        {
          "city": "DAVENPORT",
          "state": 13,
          "stateSpecified": true
        },
        {
          "city": "EUREKA",
          "state": 15,
          "stateSpecified": true
        },
        {
          "city": "EUREKA",
          "state": 15,
          "stateSpecified": true
        },
        {
          "city": "LISLE",
          "state": 15,
          "stateSpecified": true
        },
        {
          "city": "STERLING",
          "state": 15,
          "stateSpecified": true
        },
        {
          "city": "VINTON",
          "state": 13,
          "stateSpecified": true
        }
      ],
      "orgNm": "WADDELL & REED",
      "orgPK": "866",
      "regBeginDt": "1998-09-28T00:00:00",
      "regBeginDtSpecified": true,
      "regEndDt": "2012-11-08T00:00:00",
      "regEndDtSpecified": true
    }
  ],
  "EmpHss": [
    {
      "fromDt": "09/1997",
      "toDt": "10/2012",
      "orgNm": "VARIOUS INSURANCE CARRIERS FOR W&R INSURANCE AGENCIES",
      "city": "NAPERVILLE",
      "state": 15,
      "stateSpecified": true
    },
    {
      "fromDt": "09/1997",
      "toDt": "10/2012",
      "orgNm": "WADDELL & REED, INC.",
      "city": "SHAWNEE MISSION",
      "state": 17,
      "stateSpecified": true
    },
    {
      "fromDt": "01/2009",
      "toDt": "10/2012",
      "orgNm": "FINRA DISPUTE RESOLUTION",
      "city": "NEW YORK",
      "state": 35,
      "stateSpecified": true
    },
    {
      "fromDt": "10/2012",
      "toDt": "07/2014",
      "orgNm": "UNEMPLOYED",
      "city": "NAPERVLLE",
      "state": 15,
      "stateSpecified": true
    },
    {
      "fromDt": "07/2014",
      "toDt": null,
      "orgNm": "BBVA SECURITIES INC.",
      "city": "DALLAS",
      "state": 45,
      "stateSpecified": true
    },
    {
      "fromDt": "07/2014",
      "toDt": null,
      "orgNm": "BBVA WEALTH SOLUTIONS INC.",
      "city": "DALLAS",
      "state": 45,
      "stateSpecified": true
    },
    {
      "fromDt": "07/2014",
      "toDt": null,
      "orgNm": "COMPASS BANK",
      "city": "BIRMINGHAM",
      "state": 1,
      "stateSpecified": true
    },
    {
      "fromDt": "09/2014",
      "toDt": null,
      "orgNm": "BBVA COMPASS INSURANCE AGENCY, INC.",
      "city": "AUSTIN",
      "state": 45,
      "stateSpecified": true
    }
  ],
  "OthrBuss": {
    "OthrBus": {
      "desc": "COMPASS BANK POSITION: Employee NATURE: Commercial Bank INVESTMENT RELATED: Yes NUMBER OF HOURS: 160 SECURITIES TRADING HOURS: 160 START DATE: 07/14/2014 ADDRESS: 15 South 20th Street, Birmingham AL 35233 DESCRIPTION: Compass Bank is an affiliate of BBVA Securities Inc. and the firm conducts securities activities on bank premises pursuant to a networking arrangement. Representative is also an employee of firm's affiliate bank and is authorized to offer products of and perform services for the bank.  BBVA COMPASS INSURANCE AGENCY, INC. POSITION: Agent NATURE: Bank affiliated insurance agency selling insurance and annuity products to bank and brokerage clients INVESTMENT RELATED: Yes NUMBER OF HOURS: 80 SECURITIES TRADING HOURS: 80 START DATE: 09/12/2014 ADDRESS: 5800 N. Mopac Expy, Austin TX 78731 DESCRIPTION: Sales of insurance products through affiliated insurance agency"
    }
  },
  "DRPs": []
}