{
  "Info": {
    "lastNm": "FAKOURY",
    "firstNm": "ROY",
    "midNm": "MYRON",
    "sufNm": null,
    "indvlPK": "2935486",
    "actvAGReg": 0,
    "link": "http://www.adviserinfo.sec.gov/IAPD/Individual/2935486"
  },
  "OthrNms": [],
  "CrntEmps": [
    {
      "CrntRgstns": [
        {
          "regAuth": 45,
          "regCat": 0,
          "st": 2,
          "stDt": "2011-01-13T00:00:00"
        },
        {
          "regAuth": 42,
          "regCat": 0,
          "st": 2,
          "stDt": "2011-01-14T00:00:00"
        }
      ],
      "BrnchOfLocs": [
        {
          "str1": "1034 BROAD ST",
          "str2": null,
          "city": "CAMDEN",
          "state": 42,
          "stateSpecified": true,
          "cntry": "United States",
          "postlCd": "29020"
        }
      ],
      "orgNm": "WELLS FARGO ADVISORS FINANCIAL NETWORK, LLC",
      "orgPK": "11025",
      "str1": "ONE NORTH JEFFERSON AVENUE",
      "str2": "MAIL CODE: H0004-050",
      "city": "ST. LOUIS",
      "state": 25,
      "stateSpecified": true,
      "cntry": "United States",
      "postlCd": "63103"
    }
  ],
  "Exms": [
    {
      "exmCd": 0,
      "exmNm": "Uniform Securities Agent State Law Examination",
      "exmDt": "1997-10-15T00:00:00",
      "exmDtSpecified": true
    },
    {
      "exmCd": 2,
      "exmNm": "Uniform Investment Adviser Law Examination",
      "exmDt": "1997-10-29T00:00:00",
      "exmDtSpecified": true
    }
  ],
  "Dsgntns": [
    {
      "dsgntnNm": "Certified Financial Planner"
    }
  ],
  "PrevRgstns": [
    {
      "BrnchOfLocs": [
        {
          "city": "CAMDEN",
          "state": 42,
          "stateSpecified": true
        }
      ],
      "orgNm": "MORGAN STANLEY DW INC.",
      "orgPK": "7556",
      "regBeginDt": "2002-07-30T00:00:00",
      "regBeginDtSpecified": true,
      "regEndDt": "2007-04-02T00:00:00",
      "regEndDtSpecified": true
    },
    {
      "BrnchOfLocs": [
        {
          "city": "CAMDEN",
          "state": 42,
          "stateSpecified": true
        },
        {
          "city": "COLUMBIA",
          "state": 42,
          "stateSpecified": true
        }
      ],
      "orgNm": "MORGAN STANLEY & CO. LLC",
      "orgPK": "8209",
      "regBeginDt": "2007-04-02T00:00:00",
      "regBeginDtSpecified": true,
      "regEndDt": "2009-06-01T00:00:00",
      "regEndDtSpecified": true
    },
    {
      "BrnchOfLocs": [
        {
          "city": "CAMDEN",
          "state": 42,
          "stateSpecified": true
        },
        {
          "city": "COLUMBIA",
          "state": 42,
          "stateSpecified": true
        }
      ],
      "orgNm": "MORGAN STANLEY",
      "orgPK": "149777",
      "regBeginDt": "2009-06-01T00:00:00",
      "regBeginDtSpecified": true,
      "regEndDt": "2011-01-21T00:00:00",
      "regEndDtSpecified": true
    }
  ],
  "EmpHss": [
    {
      "fromDt": "07/1997",
      "toDt": "04/2007",
      "orgNm": "MORGAN STANLEY DW INC.",
      "city": "CAMDEN",
      "state": 42,
      "stateSpecified": true
    },
    {
      "fromDt": "04/2007",
      "toDt": "06/2009",
      "orgNm": "MORGAN STANLEY & CO., INCORPORATED",
      "city": "CAMDEN",
      "state": 42,
      "stateSpecified": true
    },
    {
      "fromDt": "06/2009",
      "toDt": "01/2011",
      "orgNm": "MORGAN STANLEY SMITH BARNEY",
      "city": "CAMDEN",
      "state": 42,
      "stateSpecified": true
    },
    {
      "fromDt": "01/2011",
      "toDt": null,
      "orgNm": "WELLS FARGO ADVISORS FINANCIAL NETWORK LLC",
      "city": "CAMDEN",
      "state": 42,
      "stateSpecified": true
    }
  ],
  "OthrBuss": {
    "OthrBus": {
      "desc": "1. CO-OWNER: CHESTNUT STREET PARTNERS.      GEN W, X, & Y LLC, INV RELATED, CAMDEN, SC, 33.33% OWNER, START: 7/2012, 1 HOUR PER MONTH/0 DURING TRADING, DUTIES: NONE."
    }
  },
  "DRPs": []
}