{
  "Info": {
    "lastNm": "MCCULLOUGH",
    "firstNm": "FRANCIS",
    "midNm": "BENEDICT",
    "sufNm": null,
    "indvlPK": "2937905",
    "actvAGReg": 1,
    "link": "http://www.adviserinfo.sec.gov/IAPD/Individual/2937905"
  },
  "OthrNms": [
    {
      "lastNm": "MCCULLOUGH",
      "firstNm": "FRANCIS",
      "midNm": "BENEDICT",
      "sufNm": null
    }
  ],
  "CrntEmps": [
    {
      "CrntRgstns": [
        {
          "regAuth": 39,
          "regCat": 0,
          "st": 2,
          "stDt": "1998-08-25T00:00:00"
        }
      ],
      "BrnchOfLocs": [
        {
          "str1": "90 S NEWTOWN ST RD STE 8",
          "str2": "PO BOX 432",
          "city": "NEWTOWN SQUARE",
          "state": 39,
          "stateSpecified": true,
          "cntry": "United States",
          "postlCd": "19073"
        }
      ],
      "orgNm": "MC2 FINANCIAL ADVISERS, INC.",
      "orgPK": "116309",
      "str1": "24 S. NEWTOWN STREET  RD.",
      "str2": "SUITE 100",
      "city": "NEWTOWN SQUARE",
      "state": 39,
      "stateSpecified": true,
      "cntry": "United States",
      "postlCd": "19073"
    }
  ],
  "Exms": [
    {
      "exmCd": 0,
      "exmNm": "Uniform Securities Agent State Law Examination",
      "exmDt": "1997-10-09T00:00:00",
      "exmDtSpecified": true
    }
  ],
  "Dsgntns": [
    {
      "dsgntnNm": "Certified Financial Planner"
    }
  ],
  "PrevRgstns": [],
  "EmpHss": [
    {
      "fromDt": "05/1969",
      "toDt": null,
      "orgNm": "MCCULLOUGH & COMPANY P.C.",
      "city": "NEWTOWN SQUARE",
      "state": 39,
      "stateSpecified": true
    }
  ],
  "OthrBuss": {
    "OthrBus": {
      "desc": "NAME: MCCULLOUGH & COMPANY, CPA'S  NOT INVESTMENT RELATED  ADDRESS: 90 S. NEWTOWN STREET ROAD, SUITE #8  PO BOX 432  NEWTOWN SQUARE, PA 19073  NATURE: ACCOUNTING, CONSULTING, TAX PREPARATION  TITLE: PRESIDENT  DATE STARTED: 1969 (FROM INCEPTION)  100 HOURS PER MO  50 HOURS PER MO DURING TRADING HOURS   DUTIES: BUSINESS ACCOUNTING, CONSULTATION, TAX PREPARATION - BOTH BUSINESS AND INDIVIDUAL."
    }
  },
  "DRPs": []
}