{
  "Info": {
    "lastNm": "MUNIZ",
    "firstNm": "CHRISTOPHER",
    "midNm": "GEORGE",
    "sufNm": null,
    "indvlPK": "2939918",
    "actvAGReg": 0,
    "link": "http://www.adviserinfo.sec.gov/IAPD/Individual/2939918"
  },
  "OthrNms": [
    {
      "lastNm": "MUNIZ",
      "firstNm": "CHRIS",
      "midNm": null,
      "sufNm": null
    }
  ],
  "CrntEmps": [
    {
      "CrntRgstns": [
        {
          "regAuth": 4,
          "regCat": 0,
          "st": 2,
          "stDt": "2012-05-11T00:00:00"
        }
      ],
      "BrnchOfLocs": [
        {
          "str1": "7807 GIRARD AVENUE",
          "str2": null,
          "city": "LAJOLLA",
          "state": 4,
          "stateSpecified": true,
          "cntry": "United States",
          "postlCd": "92037"
        }
      ],
      "orgNm": "UNIONBANC INVESTMENT SERVICES, LLC",
      "orgPK": "14455",
      "str1": "800 N. BRAND BOULEVARD",
      "str2": "16TH FLOOR",
      "city": "GLENDALE",
      "state": 4,
      "stateSpecified": true,
      "cntry": "United States",
      "postlCd": "91203"
    }
  ],
  "Exms": [
    {
      "exmCd": 0,
      "exmNm": "Uniform Securities Agent State Law Examination",
      "exmDt": "1999-06-25T00:00:00",
      "exmDtSpecified": true
    },
    {
      "exmCd": 2,
      "exmNm": "Uniform Investment Adviser Law Examination",
      "exmDt": "1999-08-25T00:00:00",
      "exmDtSpecified": true
    }
  ],
  "Dsgntns": [],
  "PrevRgstns": [
    {
      "BrnchOfLocs": [
        {
          "city": "SAN DIEGO",
          "state": 4,
          "stateSpecified": true
        },
        {
          "city": "SAN DIEGO",
          "state": 4,
          "stateSpecified": true
        }
      ],
      "orgNm": "WELLS FARGO INVESTMENTS, LLC",
      "orgPK": "10582",
      "regBeginDt": "2001-08-31T00:00:00",
      "regBeginDtSpecified": true,
      "regEndDt": "2011-01-03T00:00:00",
      "regEndDtSpecified": true
    },
    {
      "BrnchOfLocs": [
        {
          "city": "SAN DIEGO",
          "state": 4,
          "stateSpecified": true
        }
      ],
      "orgNm": "WELLS FARGO ADVISORS, LLC",
      "orgPK": "19616",
      "regBeginDt": "2011-01-03T00:00:00",
      "regBeginDtSpecified": true,
      "regEndDt": "2011-07-15T00:00:00",
      "regEndDtSpecified": true
    }
  ],
  "EmpHss": [
    {
      "fromDt": "01/1997",
      "toDt": "08/2011",
      "orgNm": "WELLS FARGO BANK NA",
      "city": "SAN DIEGO",
      "state": 4,
      "stateSpecified": true
    },
    {
      "fromDt": "05/2001",
      "toDt": "08/2011",
      "orgNm": "WELLS FARGO INVESTMENTS, LLC",
      "city": "SAN FRANCISCO",
      "state": 4,
      "stateSpecified": true
    },
    {
      "fromDt": "01/2011",
      "toDt": "03/2012",
      "orgNm": "WELLS FARGO ADVISORS, LLC",
      "city": "SAN DIEGO",
      "state": 4,
      "stateSpecified": true
    },
    {
      "fromDt": "08/2011",
      "toDt": null,
      "orgNm": "UNION BANK",
      "city": "SAN DIEGO",
      "state": 4,
      "stateSpecified": true
    },
    {
      "fromDt": "05/2012",
      "toDt": null,
      "orgNm": "UNIONBANC INVESTMENT SERVICES",
      "city": "LA JOLLA",
      "state": 4,
      "stateSpecified": true
    }
  ],
  "OthrBuss": {
    "OthrBus": null
  },
  "DRPs": []
}