{
  "Info": {
    "lastNm": "FABRIZIO",
    "firstNm": "ANDREW",
    "midNm": "RICHARD",
    "sufNm": null,
    "indvlPK": "2939205",
    "actvAGReg": 0,
    "link": "http://www.adviserinfo.sec.gov/IAPD/Individual/2939205"
  },
  "OthrNms": [],
  "CrntEmps": [
    {
      "CrntRgstns": [
        {
          "regAuth": 31,
          "regCat": 0,
          "st": 2,
          "stDt": "2004-08-30T00:00:00"
        },
        {
          "regAuth": 20,
          "regCat": 0,
          "st": 2,
          "stDt": "2010-07-01T00:00:00"
        }
      ],
      "BrnchOfLocs": [
        {
          "str1": "44 MALL ROAD STE 100",
          "str2": null,
          "city": "BURLINGTON",
          "state": 20,
          "stateSpecified": true,
          "cntry": "United States",
          "postlCd": "01803"
        }
      ],
      "orgNm": "STRATEGIC ADVISERS, INC.",
      "orgPK": "104555",
      "str1": "245 SUMMER STREET, V10G",
      "str2": null,
      "city": "BOSTON",
      "state": 20,
      "stateSpecified": true,
      "cntry": "United States",
      "postlCd": "02210"
    }
  ],
  "Exms": [
    {
      "exmCd": 0,
      "exmNm": "Uniform Securities Agent State Law Examination",
      "exmDt": "1997-11-13T00:00:00",
      "exmDtSpecified": true
    },
    {
      "exmCd": 3,
      "exmNm": "Uniform Combined State Law Examination",
      "exmDt": "2000-08-09T00:00:00",
      "exmDtSpecified": true
    }
  ],
  "Dsgntns": [],
  "PrevRgstns": [
    {
      "BrnchOfLocs": [
        {
          "city": "BOSTON",
          "state": 20,
          "stateSpecified": true
        }
      ],
      "orgNm": "FIDELITY PERSONAL TRUST COMPANY, FSB",
      "orgPK": "109516",
      "regBeginDt": "2001-04-06T00:00:00",
      "regBeginDtSpecified": true,
      "regEndDt": "2007-03-28T00:00:00",
      "regEndDtSpecified": true
    }
  ],
  "EmpHss": [
    {
      "fromDt": "07/2000",
      "toDt": null,
      "orgNm": "FIDELITY  INVESTMENT HIGH NET WORTH",
      "city": "BOSTON",
      "state": 20,
      "stateSpecified": true
    }
  ],
  "OthrBuss": {
    "OthrBus": null
  },
  "DRPs": []
}