{
  "Info": {
    "lastNm": "LLOYD",
    "firstNm": "RICHARD",
    "midNm": "ELSON",
    "sufNm": "JR",
    "indvlPK": "2940863",
    "actvAGReg": 0,
    "link": "http://www.adviserinfo.sec.gov/IAPD/Individual/2940863"
  },
  "OthrNms": [],
  "CrntEmps": [
    {
      "CrntRgstns": [
        {
          "regAuth": 15,
          "regCat": 0,
          "st": 2,
          "stDt": "2014-10-02T00:00:00"
        },
        {
          "regAuth": 45,
          "regCat": 0,
          "st": 3,
          "stDt": "2014-11-21T00:00:00"
        }
      ],
      "BrnchOfLocs": [
        {
          "str1": "15127 SOUTH 73RD AVENUE",
          "str2": "SUITE E",
          "city": "ORLAND PARK",
          "state": 15,
          "stateSpecified": true,
          "cntry": "United States",
          "postlCd": "60462"
        },
        {
          "str1": "2001 BUTTERFIELD ROAD",
          "str2": "SUITE 1000",
          "city": "DOWNERS GROVE",
          "state": 15,
          "stateSpecified": true,
          "cntry": "United States",
          "postlCd": "60515"
        }
      ],
      "orgNm": "HIGHPOINT ADVISOR GROUP, LLC",
      "orgPK": "163768",
      "str1": "2001 BUTTERFIELD ROAD",
      "str2": "SUITE 1000",
      "city": "DOWNERS GROVE",
      "state": 15,
      "stateSpecified": true,
      "cntry": "United States",
      "postlCd": "60515"
    }
  ],
  "Exms": [
    {
      "exmCd": 0,
      "exmNm": "Uniform Securities Agent State Law Examination",
      "exmDt": "1997-09-18T00:00:00",
      "exmDtSpecified": true
    },
    {
      "exmCd": 3,
      "exmNm": "Uniform Combined State Law Examination",
      "exmDt": "2000-06-16T00:00:00",
      "exmDtSpecified": true
    }
  ],
  "Dsgntns": [],
  "PrevRgstns": [
    {
      "BrnchOfLocs": [
        {
          "city": "ORLAND PARK",
          "state": 15,
          "stateSpecified": true
        }
      ],
      "orgNm": "THE MASTERS, INC.",
      "orgPK": "108432",
      "regBeginDt": "2000-06-21T00:00:00",
      "regBeginDtSpecified": true,
      "regEndDt": "2003-02-07T00:00:00",
      "regEndDtSpecified": true
    },
    {
      "BrnchOfLocs": [
        {
          "city": "ORLAND PARK",
          "state": 15,
          "stateSpecified": true
        },
        {
          "city": "ORLAND PARK",
          "state": 15,
          "stateSpecified": true
        },
        {
          "city": "OVERLAND PARK",
          "state": 17,
          "stateSpecified": true
        },
        {
          "city": "OVERLAND PARK",
          "state": 17,
          "stateSpecified": true
        }
      ],
      "orgNm": "VSR FINANCIAL SERVICES, INC.",
      "orgPK": "14503",
      "regBeginDt": "2003-01-24T00:00:00",
      "regBeginDtSpecified": true,
      "regEndDt": "2014-09-30T00:00:00",
      "regEndDtSpecified": true
    }
  ],
  "EmpHss": [
    {
      "fromDt": "02/1980",
      "toDt": null,
      "orgNm": "R. LLOYD & COMPANY, LTD.",
      "city": "ORLAND PARK",
      "state": 15,
      "stateSpecified": true
    },
    {
      "fromDt": "08/1997",
      "toDt": "09/2014",
      "orgNm": "LLOYD INVESTMENT SERVICES",
      "city": "ORLAND PARK",
      "state": 15,
      "stateSpecified": true
    },
    {
      "fromDt": "08/1997",
      "toDt": "09/2014",
      "orgNm": "VSR FINANCIAL SERVICES, INC",
      "city": "OVERLAND PARK",
      "state": 17,
      "stateSpecified": true
    },
    {
      "fromDt": "01/2003",
      "toDt": "08/2007",
      "orgNm": "THE MASTERS (DIVISION OF VSR)",
      "city": "OVERLAND PARK",
      "state": 17,
      "stateSpecified": true
    },
    {
      "fromDt": "08/2007",
      "toDt": "09/2014",
      "orgNm": "VSR ADVISORY SERVICES",
      "city": "OVERLAND PARK",
      "state": 17,
      "stateSpecified": true
    },
    {
      "fromDt": "09/2014",
      "toDt": null,
      "orgNm": "HIGHPOINT ADVISOR GROUP, LLC",
      "city": "ORLAND PARK",
      "state": 15,
      "stateSpecified": true
    },
    {
      "fromDt": "09/2014",
      "toDt": null,
      "orgNm": "LPL FINANCIAL LLC",
      "city": "ORLAND PARK",
      "state": 15,
      "stateSpecified": true
    }
  ],
  "OthrBuss": {
    "OthrBus": {
      "desc": "1. 09/30/2014: R. LLOYD & COMPANY, LTD - 15127 S 73RD AVE, ORLAND PARK, IL 60462 - TAX PREP/ACCOUNTING/CPA - START 02/11/1980 - 50% OF TIME SPENT - PRESIDENT. FULL SERVICE ACCOUNTING FIRM.       2. 09/30/2014: NO BUSINESS NAME - 15127 S 73RD AVE, SUITE E, ORLAND PARK, IL 60462 - REAL ESTATE RENTAL - START 01/01/1986 - NO TIME SPENT - I AM THE OWNER OF THE CONDOMINIUM THAT I RENT TO MY 100% OWNED COMPANY R. LLOYD & CO, LTD.       3. 11/03/2014 - MARIE L. LLOYD REVOCABLE TRUST DTD - INV REL - 8418 THORNGATE CT, ORLAND PARK, IL 60462 - ACT IN A FIDUCIARY CAPACITY - START 08/31/2012 - CO-TRUSTEE    4. 01/09/2015: HIGHPOINT ADVISOR GROUP, LLC - INV REL - 15127 S 73RD STE E ORLAND PARK IL 60462 - REGISTERED INVESTMENT ADVISOR DBA: LLOYD WEALTH ADVISORS - START 08/02/2014        5. 01/09/2015: HIGHPOINT ADVISOR GROUP, LLC - INV REL - 2001 BUTTERFIELD ROAD STE 1000 DOWNERS GROVE IL 60515 - REGISTERED INVESTMENT ADVISOR HYBRID - START 08/2014 - IAR       6. 06/10/2015: LLOYD WEALTH ADVISORS - DBA FOR LPL BUSINESS (ENTITY FOR LPL BUSINESS) - INV REL - AT REPORTED BUSINESS LOCATION(S) - START 10/01/2014 - 120 HR/MO 80 DURING SECS TRDG HRS - ADVISORY SERVICES"
    }
  },
  "DRPs": []
}