{
  "Info": {
    "lastNm": "HARROP",
    "firstNm": "KARL",
    "midNm": "WILLIAM",
    "sufNm": null,
    "indvlPK": "2940640",
    "actvAGReg": 0,
    "link": "http://www.adviserinfo.sec.gov/IAPD/Individual/2940640"
  },
  "OthrNms": [],
  "CrntEmps": [
    {
      "CrntRgstns": [
        {
          "regAuth": 38,
          "regCat": 0,
          "st": 2,
          "stDt": "2012-07-25T00:00:00"
        },
        {
          "regAuth": 49,
          "regCat": 0,
          "st": 2,
          "stDt": "2016-01-22T00:00:00"
        }
      ],
      "BrnchOfLocs": [
        {
          "str1": "11740 SW 68TH PARKWAY",
          "str2": "SUITE 200",
          "city": "PORTLAND",
          "state": 38,
          "stateSpecified": true,
          "cntry": "United States",
          "postlCd": "97223"
        }
      ],
      "orgNm": "TPG FINANCIAL ADVISORS, LLC",
      "orgPK": "141153",
      "str1": "11740 SW 68TH PARKWAY",
      "str2": "SUITE 200",
      "city": "PORTLAND",
      "state": 38,
      "stateSpecified": true,
      "cntry": "United States",
      "postlCd": "97223"
    }
  ],
  "Exms": [
    {
      "exmCd": 2,
      "exmNm": "Uniform Investment Adviser Law Examination",
      "exmDt": "2005-12-07T00:00:00",
      "exmDtSpecified": true
    },
    {
      "exmCd": 0,
      "exmNm": "Uniform Securities Agent State Law Examination",
      "exmDt": "2012-05-10T00:00:00",
      "exmDtSpecified": true
    }
  ],
  "Dsgntns": [
    {
      "dsgntnNm": "Certified Financial Planner"
    }
  ],
  "PrevRgstns": [
    {
      "BrnchOfLocs": [
        {
          "city": "JACKSON",
          "state": 26,
          "stateSpecified": true
        }
      ],
      "orgNm": "PRUDENTIAL EQUITY GROUP, LLC",
      "orgPK": "7471",
      "regBeginDt": "2002-09-05T00:00:00",
      "regBeginDtSpecified": true,
      "regEndDt": "2003-07-01T00:00:00",
      "regEndDtSpecified": true
    },
    {
      "BrnchOfLocs": [
        {
          "city": "JACKSON",
          "state": 26,
          "stateSpecified": true
        }
      ],
      "orgNm": "WELLS FARGO ADVISORS, LLC",
      "orgPK": "19616",
      "regBeginDt": "2003-07-01T00:00:00",
      "regBeginDtSpecified": true,
      "regEndDt": "2005-03-07T00:00:00",
      "regEndDtSpecified": true
    },
    {
      "BrnchOfLocs": [
        {
          "city": "JACKSON",
          "state": 26,
          "stateSpecified": true
        },
        {
          "city": "JACKSON",
          "state": 26,
          "stateSpecified": true
        }
      ],
      "orgNm": "WELLS FARGO ADVISORS FINANCIAL NETWORK, LLC",
      "orgPK": "11025",
      "regBeginDt": "2006-01-04T00:00:00",
      "regBeginDtSpecified": true,
      "regEndDt": "2009-05-20T00:00:00",
      "regEndDtSpecified": true
    },
    {
      "BrnchOfLocs": [
        {
          "city": "JACKSON",
          "state": 26,
          "stateSpecified": true
        }
      ],
      "orgNm": "WEALTHVIEW CAPITAL, LLC",
      "orgPK": "149476",
      "regBeginDt": "2009-05-01T00:00:00",
      "regBeginDtSpecified": true,
      "regEndDt": "2012-01-20T00:00:00",
      "regEndDtSpecified": true
    }
  ],
  "EmpHss": [
    {
      "fromDt": "07/2003",
      "toDt": "05/2009",
      "orgNm": "WACHOVIA SECURITIES LLC",
      "city": "JACKSON",
      "state": 26,
      "stateSpecified": true
    },
    {
      "fromDt": "05/2009",
      "toDt": "12/2011",
      "orgNm": "TAYLOR CAPITAL MANAGEMENT, LLC",
      "city": "JACKSON",
      "state": 26,
      "stateSpecified": true
    },
    {
      "fromDt": "01/2012",
      "toDt": "02/2012",
      "orgNm": "UNEMPLOYED",
      "city": "PORTLAND",
      "state": 38,
      "stateSpecified": true
    },
    {
      "fromDt": "02/2012",
      "toDt": null,
      "orgNm": "TPG FINANCIAL ADVISORS LLC",
      "city": "PORTLAND",
      "state": 38,
      "stateSpecified": true
    },
    {
      "fromDt": "03/2012",
      "toDt": null,
      "orgNm": "GENEOS WEALTH MANAGEMENT",
      "city": "PORTLAND",
      "state": 38,
      "stateSpecified": true
    }
  ],
  "OthrBuss": {
    "OthrBus": {
      "desc": "1)DBA:WILL WORK UNDER THE PARTNERS GROUP BUSINESS LOCATED AT BRANCH LOCATION.2) INVESTMENT ADVISOR REPRESENTATIVE WITH TPG FINANCIAL ADVISORS LLC AN INDEPENDENT RIA LOCATED AT BRANCH LOCATION. 3)INDEPENDENT REP WITH VARIOUS INSURANCE CARRIERS FOR FIXED INSURANCE ONLY 4)OWNER PAK PLANTATION PROPERTIES-FARMING."
    }
  },
  "DRPs": []
}