{
  "Info": {
    "lastNm": "SMITH",
    "firstNm": "MARGIE",
    "midNm": "LYNN",
    "sufNm": null,
    "indvlPK": "2940072",
    "actvAGReg": 0,
    "link": "http://www.adviserinfo.sec.gov/IAPD/Individual/2940072"
  },
  "OthrNms": [
    {
      "lastNm": "FULLER",
      "firstNm": "MARGIE",
      "midNm": "LYNN",
      "sufNm": null
    },
    {
      "lastNm": "SMITH",
      "firstNm": "MARGIE",
      "midNm": "L",
      "sufNm": null
    }
  ],
  "CrntEmps": [
    {
      "CrntRgstns": [
        {
          "regAuth": 45,
          "regCat": 0,
          "st": 3,
          "stDt": "2011-06-22T00:00:00"
        }
      ],
      "BrnchOfLocs": [
        {
          "str1": "2115 5TH ST STE A",
          "str2": null,
          "city": "MERIDIAN",
          "state": 26,
          "stateSpecified": true,
          "cntry": "United States",
          "postlCd": "39301"
        }
      ],
      "orgNm": "WELLS FARGO ADVISORS, LLC",
      "orgPK": "19616",
      "str1": "ONE NORTH JEFFERSON AVENUE",
      "str2": "MAIL CODE: H0004-050",
      "city": "ST. LOUIS",
      "state": 25,
      "stateSpecified": true,
      "cntry": "United States",
      "postlCd": "63103-2205"
    }
  ],
  "Exms": [
    {
      "exmCd": 0,
      "exmNm": "Uniform Securities Agent State Law Examination",
      "exmDt": "1999-03-11T00:00:00",
      "exmDtSpecified": true
    }
  ],
  "Dsgntns": [],
  "PrevRgstns": [],
  "EmpHss": [
    {
      "fromDt": "04/1999",
      "toDt": "01/2008",
      "orgNm": "A.G. EDWARDS",
      "city": "MERIDIAN",
      "state": 26,
      "stateSpecified": true
    },
    {
      "fromDt": "01/2008",
      "toDt": "05/2009",
      "orgNm": "WACHOVIA SECURITIES, LLC",
      "city": "MERIDIAN",
      "state": 26,
      "stateSpecified": true
    },
    {
      "fromDt": "05/2009",
      "toDt": null,
      "orgNm": "WELLS FARGO ADVISORS LLC",
      "city": "MERIDIAN",
      "state": 26,
      "stateSpecified": true
    }
  ],
  "OthrBuss": {
    "OthrBus": null
  },
  "DRPs": []
}