{
  "Info": {
    "lastNm": "TAUBERG",
    "firstNm": "DAVID",
    "midNm": "ALAN",
    "sufNm": null,
    "indvlPK": "2941332",
    "actvAGReg": 0,
    "link": "http://www.adviserinfo.sec.gov/IAPD/Individual/2941332"
  },
  "OthrNms": [],
  "CrntEmps": [
    {
      "CrntRgstns": [
        {
          "regAuth": 39,
          "regCat": 0,
          "st": 2,
          "stDt": "2003-09-03T00:00:00"
        }
      ],
      "BrnchOfLocs": [
        {
          "str1": "5500 CORPORATE DR",
          "str2": "STE 215",
          "city": "PITTSBURGH",
          "state": 39,
          "stateSpecified": true,
          "cntry": "United States",
          "postlCd": "15237"
        }
      ],
      "orgNm": "AMERIPRISE FINANCIAL SERVICES, INC.",
      "orgPK": "6363",
      "str1": "707 2ND AVENUE SOUTH",
      "str2": null,
      "city": "MINNEAPOLIS",
      "state": 24,
      "stateSpecified": true,
      "cntry": "United States",
      "postlCd": "55402"
    }
  ],
  "Exms": [
    {
      "exmCd": 0,
      "exmNm": "Uniform Securities Agent State Law Examination",
      "exmDt": "1997-10-10T00:00:00",
      "exmDtSpecified": true
    },
    {
      "exmCd": 3,
      "exmNm": "Uniform Combined State Law Examination",
      "exmDt": "2003-08-21T00:00:00",
      "exmDtSpecified": true
    }
  ],
  "Dsgntns": [],
  "PrevRgstns": [],
  "EmpHss": [
    {
      "fromDt": "08/1997",
      "toDt": null,
      "orgNm": "AMERICAN EXPRESS FINANCIAL ADVISORS INC.",
      "city": "PITTSBURGH",
      "state": 39,
      "stateSpecified": true
    },
    {
      "fromDt": "08/1997",
      "toDt": null,
      "orgNm": "IDS LIFE INSURANCE COMPANY",
      "city": "PITTSBURGH",
      "state": 39,
      "stateSpecified": true
    }
  ],
  "OthrBuss": {
    "OthrBus": {
      "desc": "Fiduciary Activities; Named or act in a fiduciary capacity; such as attorney-in-fact, trustee, conservator, guardian, executor or personal representative. OTHER BUSINESS ACTIVITIES; THECAUSE; WE ARE A PART TIME ROCK BAND, WE PLAY 2-3 TIMES PER MONTH; MUSICIAN; MUNHALL PA 15120; Not Investment Related; NOVEMBER 2003; 20-39 hours per month; 0 during trading hours."
    }
  },
  "DRPs": []
}