{
  "Info": {
    "lastNm": "THORELL",
    "firstNm": "GERAD",
    "midNm": "MARTIN",
    "sufNm": null,
    "indvlPK": "2942768",
    "actvAGReg": 0,
    "link": "http://www.adviserinfo.sec.gov/IAPD/Individual/2942768"
  },
  "OthrNms": [
    {
      "lastNm": "THORELL",
      "firstNm": "Gerry",
      "midNm": null,
      "sufNm": null
    }
  ],
  "CrntEmps": [
    {
      "CrntRgstns": [
        {
          "regAuth": 39,
          "regCat": 0,
          "st": 2,
          "stDt": "2015-12-17T00:00:00"
        }
      ],
      "BrnchOfLocs": [
        {
          "str1": "150 SOUTH WARNER RD, STE 300",
          "str2": null,
          "city": "KING OF PRUSSIA",
          "state": 39,
          "stateSpecified": true,
          "cntry": "United States",
          "postlCd": "19406"
        },
        {
          "str1": "65 MADISON AVENUE, SUITE 300",
          "str2": null,
          "city": "MORRISTOWN",
          "state": 32,
          "stateSpecified": true,
          "cntry": "United States",
          "postlCd": "07960"
        }
      ],
      "orgNm": "PRIVATE ADVISOR GROUP, LLC",
      "orgPK": "155216",
      "str1": "65 MADISON AVENUE, SUITE 300",
      "str2": null,
      "city": "MORRISTOWN",
      "state": 32,
      "stateSpecified": true,
      "cntry": "United States",
      "postlCd": "07960"
    },
    {
      "CrntRgstns": [
        {
          "regAuth": 39,
          "regCat": 0,
          "st": 2,
          "stDt": "2016-01-28T00:00:00"
        }
      ],
      "BrnchOfLocs": [
        {
          "str1": "150 S WARNER RD STE 300",
          "str2": null,
          "city": "KING OF PRUSSIA",
          "state": 39,
          "stateSpecified": true,
          "cntry": "United States",
          "postlCd": "19406-2859"
        }
      ],
      "orgNm": "LPL FINANCIAL LLC",
      "orgPK": "6413",
      "str1": "75 STATE STREET, 22ND FLOOR",
      "str2": null,
      "city": "BOSTON",
      "state": 20,
      "stateSpecified": true,
      "cntry": "United States",
      "postlCd": "02109"
    }
  ],
  "Exms": [
    {
      "exmCd": 0,
      "exmNm": "Uniform Securities Agent State Law Examination",
      "exmDt": "1997-10-09T00:00:00",
      "exmDtSpecified": true
    }
  ],
  "Dsgntns": [],
  "PrevRgstns": [
    {
      "BrnchOfLocs": [
        {
          "city": "NEWTOWN SQUARE",
          "state": 39,
          "stateSpecified": true
        },
        {
          "city": "NEWTOWN SQUARE",
          "state": 39,
          "stateSpecified": true
        }
      ],
      "orgNm": "NEW ENGLAND SECURITIES",
      "orgPK": "615",
      "regBeginDt": "2002-07-24T00:00:00",
      "regBeginDtSpecified": true,
      "regEndDt": "2015-01-02T00:00:00",
      "regEndDtSpecified": true
    },
    {
      "BrnchOfLocs": [
        {
          "city": "NEWTOWN SQUARE",
          "state": 39,
          "stateSpecified": true
        }
      ],
      "orgNm": "NEWSQUARE CAPITAL, LLC",
      "orgPK": "152430",
      "regBeginDt": "2011-08-29T00:00:00",
      "regBeginDtSpecified": true,
      "regEndDt": "2016-03-23T00:00:00",
      "regEndDtSpecified": true
    },
    {
      "BrnchOfLocs": [
        {
          "city": "NEWTOWN SQUARE",
          "state": 39,
          "stateSpecified": true
        }
      ],
      "orgNm": "MSI FINANCIAL SERVICES, INC.",
      "orgPK": "14251",
      "regBeginDt": "2015-01-02T00:00:00",
      "regBeginDtSpecified": true,
      "regEndDt": "2015-12-28T00:00:00",
      "regEndDtSpecified": true
    }
  ],
  "EmpHss": [
    {
      "fromDt": "08/1997",
      "toDt": "01/2015",
      "orgNm": "NEW ENGLAND SECURITIES",
      "city": "NEWTOWN SQUARE",
      "state": 39,
      "stateSpecified": true
    },
    {
      "fromDt": "01/2015",
      "toDt": "12/2015",
      "orgNm": "METLIFE SECURITIES INC.",
      "city": "NEWTOWN",
      "state": 39,
      "stateSpecified": true
    },
    {
      "fromDt": "12/2015",
      "toDt": null,
      "orgNm": "LPL Financial",
      "city": "King of Prussia",
      "state": 39,
      "stateSpecified": true
    },
    {
      "fromDt": "12/2015",
      "toDt": null,
      "orgNm": "Private Advisor Group, LLC",
      "city": "Morristown",
      "state": 32,
      "stateSpecified": true
    }
  ],
  "OthrBuss": {
    "OthrBus": {
      "desc": "1)12/17/15-The Philadelphia Group/DBA for LPL Business/100%/King of Prussia, PA   2) 02/03/2016 * Private Advisor Group, LLC * Registered Investment Advisor * (Hybrid) Private Advisor Group, LLC * INV REL * AT REPORTED BUSINESS LOCATION(S) * TIME SPENT 100%    3) 02/03/2016 * Private Advisor Group, LLC * Registered Investment Advisor * (Hybrid) The Philadelphia Group * INV REL * AT REPORTED BUSINESS LOCATION(S) * TIME SPENT 50%"
    }
  },
  "DRPs": [
    {
      "hasRegAction": 1,
      "hasRegActionSpecified": true,
      "hasCriminal": 1,
      "hasCriminalSpecified": true,
      "hasBankrupt": 1,
      "hasBankruptSpecified": true,
      "hasCivilJudc": 1,
      "hasCivilJudcSpecified": true,
      "hasBond": 1,
      "hasBondSpecified": true,
      "hasJudgment": 1,
      "hasJudgmentSpecified": true,
      "hasInvstgn": 1,
      "hasInvstgnSpecified": true,
      "hasCustComp": 0,
      "hasCustCompSpecified": true,
      "hasTermination": 1,
      "hasTerminationSpecified": true
    }
  ]
}