{
  "Info": {
    "lastNm": "IDLER",
    "firstNm": "RONALD",
    "midNm": "JAMES",
    "sufNm": null,
    "indvlPK": "2942671",
    "actvAGReg": 0,
    "link": "http://www.adviserinfo.sec.gov/IAPD/Individual/2942671"
  },
  "OthrNms": [
    {
      "lastNm": "IDLER",
      "firstNm": "RONALD",
      "midNm": "J",
      "sufNm": null
    }
  ],
  "CrntEmps": [
    {
      "CrntRgstns": [
        {
          "regAuth": 15,
          "regCat": 0,
          "st": 2,
          "stDt": "2009-12-04T00:00:00"
        }
      ],
      "BrnchOfLocs": [
        {
          "str1": "111 S. PFINGSTEN ROAD",
          "str2": "SUITE 200",
          "city": "DEERFIELD",
          "state": 15,
          "stateSpecified": true,
          "cntry": "United States",
          "postlCd": "60015"
        }
      ],
      "orgNm": "MORGAN STANLEY",
      "orgPK": "149777",
      "str1": "2000 WESTCHESTER AVENUE",
      "str2": null,
      "city": "PURCHASE",
      "state": 35,
      "stateSpecified": true,
      "cntry": "United States",
      "postlCd": "10577-2530"
    }
  ],
  "Exms": [
    {
      "exmCd": 3,
      "exmNm": "Uniform Combined State Law Examination",
      "exmDt": "1997-12-12T00:00:00",
      "exmDtSpecified": true
    }
  ],
  "Dsgntns": [],
  "PrevRgstns": [
    {
      "BrnchOfLocs": [
        {
          "city": "DEERFIELD",
          "state": 15,
          "stateSpecified": true
        },
        {
          "city": "DEERFIELD",
          "state": 15,
          "stateSpecified": true
        }
      ],
      "orgNm": "CITIGROUP GLOBAL MARKETS INC.",
      "orgPK": "7059",
      "regBeginDt": "2001-03-20T00:00:00",
      "regBeginDtSpecified": true,
      "regEndDt": "2009-04-02T00:00:00",
      "regEndDtSpecified": true
    },
    {
      "BrnchOfLocs": [
        {
          "city": "BUFFALO GROVE",
          "state": 15,
          "stateSpecified": true
        },
        {
          "city": "CHICAGO",
          "state": 15,
          "stateSpecified": true
        }
      ],
      "orgNm": "RBC CAPITAL MARKETS, LLC",
      "orgPK": "31194",
      "regBeginDt": "2009-03-13T00:00:00",
      "regBeginDtSpecified": true,
      "regEndDt": "2009-12-10T00:00:00",
      "regEndDtSpecified": true
    }
  ],
  "EmpHss": [
    {
      "fromDt": "03/2001",
      "toDt": "03/2009",
      "orgNm": "CITIGROUP GLOBAL MARKETS INC.",
      "city": "DEERFIELD",
      "state": 15,
      "stateSpecified": true
    },
    {
      "fromDt": "03/2009",
      "toDt": "12/2009",
      "orgNm": "RBC CAPITAL MARKETS",
      "city": "VERNON HILLS",
      "state": 15,
      "stateSpecified": true
    },
    {
      "fromDt": "12/2009",
      "toDt": null,
      "orgNm": "MORGAN STANLEY SMITH BARNEY",
      "city": "DEERFIIELD",
      "state": 15,
      "stateSpecified": true
    },
    {
      "fromDt": "01/2015",
      "toDt": null,
      "orgNm": "MORGAN STANLEY PRIVATE BANK, NATIONAL ASSOCIATION",
      "city": "NEW YORK",
      "state": 35,
      "stateSpecified": true
    }
  ],
  "OthrBuss": {
    "OthrBus": null
  },
  "DRPs": []
}