{
  "Info": {
    "lastNm": "Keller",
    "firstNm": "John",
    "midNm": "Leslie",
    "sufNm": null,
    "indvlPK": "2942501",
    "actvAGReg": 0,
    "link": "http://www.adviserinfo.sec.gov/IAPD/Individual/2942501"
  },
  "OthrNms": [],
  "CrntEmps": [
    {
      "CrntRgstns": [
        {
          "regAuth": 44,
          "regCat": 0,
          "st": 2,
          "stDt": "2014-05-12T00:00:00"
        }
      ],
      "BrnchOfLocs": [
        {
          "str1": "2868 SUMMER OAKS DRIVE STE 110",
          "str2": null,
          "city": "BARTLETT",
          "state": 44,
          "stateSpecified": true,
          "cntry": "United States",
          "postlCd": "38134"
        }
      ],
      "orgNm": "EDWARD JONES",
      "orgPK": "250",
      "str1": "12555 MANCHESTER RD",
      "str2": null,
      "city": "ST. LOUIS",
      "state": 25,
      "stateSpecified": true,
      "cntry": "United States",
      "postlCd": "63131"
    }
  ],
  "Exms": [
    {
      "exmCd": 0,
      "exmNm": "Uniform Securities Agent State Law Examination",
      "exmDt": "1997-11-25T00:00:00",
      "exmDtSpecified": true
    },
    {
      "exmCd": 3,
      "exmNm": "Uniform Combined State Law Examination",
      "exmDt": "2014-05-10T00:00:00",
      "exmDtSpecified": true
    }
  ],
  "Dsgntns": [],
  "PrevRgstns": [
    {
      "BrnchOfLocs": [
        {
          "city": "MEMPHIS",
          "state": 44,
          "stateSpecified": true
        },
        {
          "city": "MEMPHIS",
          "state": 44,
          "stateSpecified": true
        },
        {
          "city": "MEMPHIS",
          "state": 44,
          "stateSpecified": true
        }
      ],
      "orgNm": "FTB ADVISORS, INC.",
      "orgPK": "17117",
      "regBeginDt": "2004-03-18T00:00:00",
      "regBeginDtSpecified": true,
      "regEndDt": "2012-03-30T00:00:00",
      "regEndDtSpecified": true
    },
    {
      "BrnchOfLocs": [
        {
          "city": "MEMPHIS",
          "state": 44,
          "stateSpecified": true
        },
        {
          "city": "MEMPHIS",
          "state": 44,
          "stateSpecified": true
        }
      ],
      "orgNm": "FTB ADVISORS, INC.",
      "orgPK": "143830",
      "regBeginDt": "2012-07-12T00:00:00",
      "regBeginDtSpecified": true,
      "regEndDt": "2013-09-27T00:00:00",
      "regEndDtSpecified": true
    }
  ],
  "EmpHss": [
    {
      "fromDt": "08/1997",
      "toDt": "09/2013",
      "orgNm": "1ST TENNESSEE",
      "city": "MEMPHIS",
      "state": 44,
      "stateSpecified": true
    },
    {
      "fromDt": "08/1997",
      "toDt": "09/2013",
      "orgNm": "FIRST TENNESSEE BROKERAGE, INC.",
      "city": "MEMPHIS",
      "state": 44,
      "stateSpecified": true
    },
    {
      "fromDt": "09/2013",
      "toDt": "04/2014",
      "orgNm": "UNEMPLOYED",
      "city": "MEMPHIS",
      "state": 44,
      "stateSpecified": true
    },
    {
      "fromDt": "04/2014",
      "toDt": null,
      "orgNm": "EDWARD JONES",
      "city": "ST LOUIS",
      "state": 25,
      "stateSpecified": true
    }
  ],
  "OthrBuss": {
    "OthrBus": {
      "desc": "Rental property Type of business: Rental home  Memphis, TN  Start date: 7/1/2002  Owner  Hours per week: 1  Hours during trading: 0  General maintenance of the property; collect the rent."
    }
  },
  "DRPs": []
}