{
  "Info": {
    "lastNm": "SORRELLS",
    "firstNm": "GINA",
    "midNm": "HOLT",
    "sufNm": null,
    "indvlPK": "2945687",
    "actvAGReg": 0,
    "link": "http://www.adviserinfo.sec.gov/IAPD/Individual/2945687"
  },
  "OthrNms": [
    {
      "lastNm": "HOLT",
      "firstNm": "GINA",
      "midNm": "LORAINE",
      "sufNm": null
    },
    {
      "lastNm": "SORRELLS",
      "firstNm": "GINA",
      "midNm": "H",
      "sufNm": null
    },
    {
      "lastNm": "SORRELLS",
      "firstNm": "GINA",
      "midNm": "H",
      "sufNm": null
    }
  ],
  "CrntEmps": [
    {
      "CrntRgstns": [
        {
          "regAuth": 28,
          "regCat": 0,
          "st": 2,
          "stDt": "2007-05-17T00:00:00"
        },
        {
          "regAuth": 51,
          "regCat": 0,
          "st": 2,
          "stDt": "2010-01-27T00:00:00"
        },
        {
          "regAuth": 45,
          "regCat": 0,
          "st": 3,
          "stDt": "2014-05-06T00:00:00"
        }
      ],
      "BrnchOfLocs": [
        {
          "str1": "1705 ENTERPRISE DR",
          "str2": null,
          "city": "LYNCHBURG",
          "state": 47,
          "stateSpecified": true,
          "cntry": "United States",
          "postlCd": "24502"
        },
        {
          "str1": "800 GREEN VALLEY RD",
          "str2": null,
          "city": "GREENSBORO",
          "state": 28,
          "stateSpecified": true,
          "cntry": "United States",
          "postlCd": "27408"
        }
      ],
      "orgNm": "MERRILL LYNCH, PIERCE, FENNER & SMITH INCORPORATED",
      "orgPK": "7691",
      "str1": "ONE BRYANT PARK",
      "str2": null,
      "city": "NEW YORK",
      "state": 35,
      "stateSpecified": true,
      "cntry": "United States",
      "postlCd": "10036"
    }
  ],
  "Exms": [
    {
      "exmCd": 3,
      "exmNm": "Uniform Combined State Law Examination",
      "exmDt": "1997-11-24T00:00:00",
      "exmDtSpecified": true
    }
  ],
  "Dsgntns": [],
  "PrevRgstns": [
    {
      "BrnchOfLocs": [
        {
          "city": "MONTGOMERY",
          "state": 1,
          "stateSpecified": true
        }
      ],
      "orgNm": "MERRILL LYNCH, PIERCE, FENNER & SMITH INCORPORATED",
      "orgPK": "7691",
      "regBeginDt": "2002-04-16T00:00:00",
      "regBeginDtSpecified": true,
      "regEndDt": "2006-04-27T00:00:00",
      "regEndDtSpecified": true
    },
    {
      "BrnchOfLocs": [
        {
          "city": "COLUMBIA",
          "state": 42,
          "stateSpecified": true
        }
      ],
      "orgNm": "MORGAN STANLEY DW INC.",
      "orgPK": "7556",
      "regBeginDt": "2006-05-16T00:00:00",
      "regBeginDtSpecified": true,
      "regEndDt": "2007-03-16T00:00:00",
      "regEndDtSpecified": true
    }
  ],
  "EmpHss": [
    {
      "fromDt": "04/2006",
      "toDt": "03/2007",
      "orgNm": "MORGAN STANLEY DW INC.",
      "city": "COLUMBIA",
      "state": 42,
      "stateSpecified": true
    },
    {
      "fromDt": "03/2007",
      "toDt": null,
      "orgNm": "MERRILL LYNCH, PIERCE, FENNER & SMITH INCORPORATED",
      "city": "GREENSBORO",
      "state": 28,
      "stateSpecified": true
    }
  ],
  "OthrBuss": {
    "OthrBus": {
      "desc": "I*26512 FOR PROFIT OR NOT FOR PROFIT: FOR-PROFIT ORGANIZATION  NAME OF OUTSIDE BUSINESS ORGANIZATION: AUS-TAN PROPERTIES, LLC  INVESTMENT RELATED: N  ADDRESS OF BUSINESS:  SUMMERFIELD, NORTH CAROLINA 27358  NATURE OF BUSINESS: LLC,  POSITION, TITLE, ASSOCIATION: GENERAL PARTNER,   START DATE OF RELATIONSHIP: 12/14/2004  NUMBER OF HOURS DEVOTED: 1 HOUR(S) ANNUALLY  NUMBER OF HOURS DEVOTED DURING TRADING HOURS: 0  DUTIES: MANAGER/MEMBER NONE; LLC HOLDS VACANT LAND      I*26513  FOR PROFIT OR NOT FOR PROFIT: FOR-PROFIT ORGANIZATION  NAME OF OUTSIDE BUSINESS ORGANIZATION: CUMBERLAND PARK LAND HOLDING CO., LLC  INVESTMENT RELATED: N  ADDRESS OF BUSINESS:  SUMMERFIELD, NORTH CAROLINA 27358  NATURE OF BUSINESS: LLC,  POSITION, TITLE, ASSOCIATION: GENERAL PARTNER,   START DATE OF RELATIONSHIP: 5/1/2005  NUMBER OF HOURS DEVOTED: 1 HOUR(S) ANNUALLY  NUMBER OF HOURS DEVOTED DURING TRADING HOURS: 0  DUTIES: MEMBER/MANAGER; LLC HOLDS VACANT LOTS"
    }
  },
  "DRPs": []
}