{
  "Info": {
    "lastNm": "VIGNERE",
    "firstNm": "VINCENT",
    "midNm": "SCOTT",
    "sufNm": null,
    "indvlPK": "2946793",
    "actvAGReg": 1,
    "link": "http://www.adviserinfo.sec.gov/IAPD/Individual/2946793"
  },
  "OthrNms": [
    {
      "lastNm": "VIGNERE",
      "firstNm": "SCOTT",
      "midNm": null,
      "sufNm": null
    },
    {
      "lastNm": "VIGNERE",
      "firstNm": "VINCENT",
      "midNm": "S",
      "sufNm": null
    }
  ],
  "CrntEmps": [
    {
      "CrntRgstns": [
        {
          "regAuth": 16,
          "regCat": 0,
          "st": 2,
          "stDt": "2015-02-20T00:00:00"
        },
        {
          "regAuth": 15,
          "regCat": 0,
          "st": 2,
          "stDt": "2015-02-25T00:00:00"
        }
      ],
      "BrnchOfLocs": [
        {
          "str1": "2646 HIGHWA AVENUE",
          "str2": "SUITE 101",
          "city": "HIGHLAND",
          "state": 16,
          "stateSpecified": true,
          "cntry": "United States",
          "postlCd": "46322"
        }
      ],
      "orgNm": "REDHAWK WEALTH ADVISORS, INC.",
      "orgPK": "146616",
      "str1": "7400 METRO BLVD",
      "str2": "SUITE 400",
      "city": "EDINA",
      "state": 24,
      "stateSpecified": true,
      "cntry": "United States",
      "postlCd": "55439-2326"
    }
  ],
  "Exms": [
    {
      "exmCd": 0,
      "exmNm": "Uniform Securities Agent State Law Examination",
      "exmDt": "1997-11-24T00:00:00",
      "exmDtSpecified": true
    },
    {
      "exmCd": 2,
      "exmNm": "Uniform Investment Adviser Law Examination",
      "exmDt": "2015-01-22T00:00:00",
      "exmDtSpecified": true
    }
  ],
  "Dsgntns": [],
  "PrevRgstns": [],
  "EmpHss": [
    {
      "fromDt": "05/2001",
      "toDt": null,
      "orgNm": "VIGNERE CAPITAL ADVISORS",
      "city": "HIGHLAND",
      "state": 16,
      "stateSpecified": true
    },
    {
      "fromDt": "10/2001",
      "toDt": null,
      "orgNm": "FIRST HEARTLAND CAPITAL, INC.",
      "city": "LAKE ST. LOUIS",
      "state": 25,
      "stateSpecified": true
    },
    {
      "fromDt": "09/2006",
      "toDt": "06/2011",
      "orgNm": "TRI STATE BUILDING MAINTENCE",
      "city": "CEDAR LAKE",
      "state": 16,
      "stateSpecified": true
    },
    {
      "fromDt": "08/2007",
      "toDt": null,
      "orgNm": "ALVERNO",
      "city": "HIGHLAND",
      "state": 16,
      "stateSpecified": true
    },
    {
      "fromDt": "02/2015",
      "toDt": null,
      "orgNm": "REDHAWK WEALTH ADVISORS, INC",
      "city": "MINNEAPOLIS",
      "state": 24,
      "stateSpecified": true
    }
  ],
  "OthrBuss": {
    "OthrBus": null
  },
  "DRPs": [
    {
      "hasRegAction": 1,
      "hasRegActionSpecified": true,
      "hasCriminal": 1,
      "hasCriminalSpecified": true,
      "hasBankrupt": 0,
      "hasBankruptSpecified": true,
      "hasCivilJudc": 1,
      "hasCivilJudcSpecified": true,
      "hasBond": 1,
      "hasBondSpecified": true,
      "hasJudgment": 0,
      "hasJudgmentSpecified": true,
      "hasInvstgn": 1,
      "hasInvstgnSpecified": true,
      "hasCustComp": 1,
      "hasCustCompSpecified": true,
      "hasTermination": 1,
      "hasTerminationSpecified": true
    }
  ]
}