{
  "Info": {
    "lastNm": "MANN",
    "firstNm": "STEPHANIE",
    "midNm": "ANN",
    "sufNm": null,
    "indvlPK": "2947812",
    "actvAGReg": 0,
    "link": "http://www.adviserinfo.sec.gov/IAPD/Individual/2947812"
  },
  "OthrNms": [
    {
      "lastNm": "MANN",
      "firstNm": "STEPHANIE",
      "midNm": "ANN",
      "sufNm": null
    },
    {
      "lastNm": "SALSER",
      "firstNm": "STEPHANIE",
      "midNm": "ANN",
      "sufNm": null
    },
    {
      "lastNm": "SALSER",
      "firstNm": "STEPHANIE",
      "midNm": "ANNE",
      "sufNm": null
    }
  ],
  "CrntEmps": [
    {
      "CrntRgstns": [
        {
          "regAuth": 36,
          "regCat": 0,
          "st": 2,
          "stDt": "2011-08-30T00:00:00"
        }
      ],
      "BrnchOfLocs": [
        {
          "str1": "3601 Rigby Road",
          "str2": "Suite 500",
          "city": "Miamisburg",
          "state": 36,
          "stateSpecified": true,
          "cntry": "United States",
          "postlCd": "45342"
        }
      ],
      "orgNm": "UBS FINANCIAL SERVICES INC.",
      "orgPK": "8174",
      "str1": "1200 HARBOR BOULEVARD",
      "str2": null,
      "city": "WEEHAWKEN",
      "state": 32,
      "stateSpecified": true,
      "cntry": "United States",
      "postlCd": "07086"
    }
  ],
  "Exms": [
    {
      "exmCd": 0,
      "exmNm": "Uniform Securities Agent State Law Examination",
      "exmDt": "2006-09-28T00:00:00",
      "exmDtSpecified": true
    }
  ],
  "Dsgntns": [],
  "PrevRgstns": [
    {
      "BrnchOfLocs": [
        {
          "city": "DAYTON",
          "state": 36,
          "stateSpecified": true
        }
      ],
      "orgNm": "CITIGROUP GLOBAL MARKETS INC.",
      "orgPK": "7059",
      "regBeginDt": "2006-09-19T00:00:00",
      "regBeginDtSpecified": true,
      "regEndDt": "2009-06-01T00:00:00",
      "regEndDtSpecified": true
    },
    {
      "BrnchOfLocs": [
        {
          "city": "DAYTON",
          "state": 36,
          "stateSpecified": true
        }
      ],
      "orgNm": "MORGAN STANLEY",
      "orgPK": "149777",
      "regBeginDt": "2009-06-01T00:00:00",
      "regBeginDtSpecified": true,
      "regEndDt": "2011-02-28T00:00:00",
      "regEndDtSpecified": true
    },
    {
      "BrnchOfLocs": [
        {
          "city": "MIAMISBURG",
          "state": 36,
          "stateSpecified": true
        }
      ],
      "orgNm": "MORGAN KEEGAN & COMPANY, LLC",
      "orgPK": "4161",
      "regBeginDt": "2011-02-22T00:00:00",
      "regBeginDtSpecified": true,
      "regEndDt": "2011-08-16T00:00:00",
      "regEndDtSpecified": true
    }
  ],
  "EmpHss": [
    {
      "fromDt": "01/2004",
      "toDt": "02/2011",
      "orgNm": "CITIGROUP GLOBAL MARKETS INC.",
      "city": "DAYTON",
      "state": 36,
      "stateSpecified": true
    },
    {
      "fromDt": "06/2009",
      "toDt": "02/2011",
      "orgNm": "MORGAN STANLEY SMITH BARNEY",
      "city": "DAYTON",
      "state": 36,
      "stateSpecified": true
    },
    {
      "fromDt": "02/2011",
      "toDt": "08/2011",
      "orgNm": "MORGAN KEEGAN & CO",
      "city": "DAYTON",
      "state": 36,
      "stateSpecified": true
    },
    {
      "fromDt": "08/2011",
      "toDt": null,
      "orgNm": "UBS FINANCIAL SERVICES INC.",
      "city": "MIAMISBURG",
      "state": 36,
      "stateSpecified": true
    }
  ],
  "OthrBuss": {
    "OthrBus": null
  },
  "DRPs": []
}