{
  "Info": {
    "lastNm": "SAN NICOLAS-BARCINAS",
    "firstNm": "YVONNE",
    "midNm": null,
    "sufNm": null,
    "indvlPK": "2948542",
    "actvAGReg": 0,
    "link": "http://www.adviserinfo.sec.gov/IAPD/Individual/2948542"
  },
  "OthrNms": [
    {
      "lastNm": "SANNICOLAS BARCINAS",
      "firstNm": "YVONNE",
      "midNm": null,
      "sufNm": null
    },
    {
      "lastNm": "SANNICOLAS",
      "firstNm": "BONNIE",
      "midNm": null,
      "sufNm": null
    },
    {
      "lastNm": "SANNICOLAS",
      "firstNm": "YVONNE",
      "midNm": "T",
      "sufNm": null
    }
  ],
  "CrntEmps": [
    {
      "CrntRgstns": [
        {
          "regAuth": 4,
          "regCat": 0,
          "st": 2,
          "stDt": "2015-02-20T00:00:00"
        },
        {
          "regAuth": 45,
          "regCat": 0,
          "st": 2,
          "stDt": "2015-02-23T00:00:00"
        }
      ],
      "BrnchOfLocs": [
        {
          "str1": "3775 VIA NONA MARIE",
          "str2": null,
          "city": "CARMEL",
          "state": 4,
          "stateSpecified": true,
          "cntry": "United States",
          "postlCd": "93922"
        }
      ],
      "orgNm": "MERRILL LYNCH, PIERCE, FENNER & SMITH INCORPORATED",
      "orgPK": "7691",
      "str1": "ONE BRYANT PARK",
      "str2": null,
      "city": "NEW YORK",
      "state": 35,
      "stateSpecified": true,
      "cntry": "United States",
      "postlCd": "10036"
    }
  ],
  "Exms": [
    {
      "exmCd": 0,
      "exmNm": "Uniform Securities Agent State Law Examination",
      "exmDt": "2006-03-18T00:00:00",
      "exmDtSpecified": true
    },
    {
      "exmCd": 2,
      "exmNm": "Uniform Investment Adviser Law Examination",
      "exmDt": "2006-07-21T00:00:00",
      "exmDtSpecified": true
    }
  ],
  "Dsgntns": [],
  "PrevRgstns": [
    {
      "BrnchOfLocs": [
        {
          "city": "MONTEREY",
          "state": 4,
          "stateSpecified": true
        },
        {
          "city": "MONTEREY",
          "state": 4,
          "stateSpecified": true
        }
      ],
      "orgNm": "MORGAN STANLEY DW INC.",
      "orgPK": "7556",
      "regBeginDt": "2006-07-25T00:00:00",
      "regBeginDtSpecified": true,
      "regEndDt": "2007-04-02T00:00:00",
      "regEndDtSpecified": true
    },
    {
      "BrnchOfLocs": [
        {
          "city": "MONTEREY",
          "state": 4,
          "stateSpecified": true
        }
      ],
      "orgNm": "MORGAN STANLEY & CO. LLC",
      "orgPK": "8209",
      "regBeginDt": "2007-04-02T00:00:00",
      "regBeginDtSpecified": true,
      "regEndDt": "2007-08-01T00:00:00",
      "regEndDtSpecified": true
    },
    {
      "BrnchOfLocs": [
        {
          "city": "CARMEL",
          "state": 4,
          "stateSpecified": true
        }
      ],
      "orgNm": "MERRILL LYNCH, PIERCE, FENNER & SMITH INCORPORATED",
      "orgPK": "7691",
      "regBeginDt": "2007-07-27T00:00:00",
      "regBeginDtSpecified": true,
      "regEndDt": "2014-10-06T00:00:00",
      "regEndDtSpecified": true
    },
    {
      "BrnchOfLocs": [
        {
          "city": "MONTEREY",
          "state": 4,
          "stateSpecified": true
        }
      ],
      "orgNm": "MORGAN STANLEY",
      "orgPK": "149777",
      "regBeginDt": "2014-10-06T00:00:00",
      "regBeginDtSpecified": true,
      "regEndDt": "2015-02-03T00:00:00",
      "regEndDtSpecified": true
    }
  ],
  "EmpHss": [
    {
      "fromDt": "11/1992",
      "toDt": "04/2007",
      "orgNm": "MORGAN STANLEY DW INC.",
      "city": "MONTEREY",
      "state": 4,
      "stateSpecified": true
    },
    {
      "fromDt": "04/2007",
      "toDt": "07/2007",
      "orgNm": "MORGAN STANLEY & CO., INCORPORATED",
      "city": "MONTEREY",
      "state": 4,
      "stateSpecified": true
    },
    {
      "fromDt": "07/2007",
      "toDt": "10/2014",
      "orgNm": "MERRILL LYNCH, PIERCE, FENNER & SMITH INCORPORATED : 7691",
      "city": "CARMEL",
      "state": 4,
      "stateSpecified": true
    },
    {
      "fromDt": "10/2014",
      "toDt": "01/2015",
      "orgNm": "MORGAN STANLEY",
      "city": "MONTEREY",
      "state": 4,
      "stateSpecified": true
    },
    {
      "fromDt": "02/2015",
      "toDt": null,
      "orgNm": "MERRILL LYNCH, PIERCE, FENNER & SMITH INCORPORATED",
      "city": "CARMEL",
      "state": 4,
      "stateSpecified": true
    }
  ],
  "OthrBuss": {
    "OthrBus": null
  },
  "DRPs": []
}