{
  "Info": {
    "lastNm": "MOORE",
    "firstNm": "KEELEY",
    "midNm": "MICHAEL",
    "sufNm": null,
    "indvlPK": "2954454",
    "actvAGReg": 0,
    "link": "http://www.adviserinfo.sec.gov/IAPD/Individual/2954454"
  },
  "OthrNms": [],
  "CrntEmps": [
    {
      "CrntRgstns": [
        {
          "regAuth": 1,
          "regCat": 0,
          "st": 2,
          "stDt": "2012-05-04T00:00:00"
        }
      ],
      "BrnchOfLocs": [
        {
          "str1": "2064 COLUMBIANA ROAD",
          "str2": null,
          "city": "VESTAVIA",
          "state": 1,
          "stateSpecified": true,
          "cntry": "United States",
          "postlCd": "35216"
        }
      ],
      "orgNm": "PROEQUITIES, INC.",
      "orgPK": "15708",
      "str1": "2801 HIGHWAY 280 SOUTH",
      "str2": null,
      "city": "BIRMINGHAM",
      "state": 1,
      "stateSpecified": true,
      "cntry": "United States",
      "postlCd": "35223"
    }
  ],
  "Exms": [
    {
      "exmCd": 0,
      "exmNm": "Uniform Securities Agent State Law Examination",
      "exmDt": "1997-12-03T00:00:00",
      "exmDtSpecified": true
    },
    {
      "exmCd": 2,
      "exmNm": "Uniform Investment Adviser Law Examination",
      "exmDt": "1997-12-16T00:00:00",
      "exmDtSpecified": true
    }
  ],
  "Dsgntns": [],
  "PrevRgstns": [
    {
      "BrnchOfLocs": [
        {
          "city": "BIRMINGHAM",
          "state": 1,
          "stateSpecified": true
        },
        {
          "city": "BIRMINGHAM",
          "state": 1,
          "stateSpecified": true
        }
      ],
      "orgNm": "ALLSTATE FINANCIAL ADVISORS, LLC",
      "orgPK": "109524",
      "regBeginDt": "2011-07-22T00:00:00",
      "regBeginDtSpecified": true,
      "regEndDt": "2012-04-13T00:00:00",
      "regEndDtSpecified": true
    }
  ],
  "EmpHss": [
    {
      "fromDt": "07/2001",
      "toDt": "03/2012",
      "orgNm": "ALLSTATE FINANCIAL SERVICES, LLC",
      "city": "HOOVER",
      "state": 1,
      "stateSpecified": true
    },
    {
      "fromDt": "06/2011",
      "toDt": "04/2012",
      "orgNm": "ALLSTATE FINANCIAL ADVISORS, LLC",
      "city": "BIRMINGHAM",
      "state": 1,
      "stateSpecified": true
    },
    {
      "fromDt": "04/2012",
      "toDt": null,
      "orgNm": "PROEQUITIES, INC",
      "city": "VESTAVIA",
      "state": 1,
      "stateSpecified": true
    }
  ],
  "OthrBuss": {
    "OthrBus": {
      "desc": "1. PROVIDENCE INVESTMENTS; 29 OLMSTEAD STREET, BIRMINGHAM, AL 35242; EQUITY OWNER; RENTAL APARTMENT COMPLEX AND AM ONE OF THE PARTNERS; START-11/2011; 0 HRS/MONTH. 2. DBA NAME; MOORE INSURANCE & FINANCIAL SERVICES  ALLCHOICE INSURANCE POSITION: Owner NATURE: Property/Casualty Agency INVESTMENT RELATED: No NUMBER OF HOURS: 80 SECURITIES TRADING HOURS: 65 START DATE: 11/01/2011 ADDRESS: 2064 Columbiana Rd, Vestavia AL 35216 DESCRIPTION: I invested capital in its operation and I am an operating principal owner."
    }
  },
  "DRPs": [
    {
      "hasRegAction": 0,
      "hasRegActionSpecified": true,
      "hasCriminal": 1,
      "hasCriminalSpecified": true,
      "hasBankrupt": 1,
      "hasBankruptSpecified": true,
      "hasCivilJudc": 1,
      "hasCivilJudcSpecified": true,
      "hasBond": 1,
      "hasBondSpecified": true,
      "hasJudgment": 0,
      "hasJudgmentSpecified": true,
      "hasInvstgn": 1,
      "hasInvstgnSpecified": true,
      "hasCustComp": 1,
      "hasCustCompSpecified": true,
      "hasTermination": 0,
      "hasTerminationSpecified": true
    }
  ]
}