{
  "Info": {
    "lastNm": "CAVAGNARO",
    "firstNm": "DEANN",
    "midNm": "SANDRA",
    "sufNm": null,
    "indvlPK": "2964944",
    "actvAGReg": 0,
    "link": "http://www.adviserinfo.sec.gov/IAPD/Individual/2964944"
  },
  "OthrNms": [
    {
      "lastNm": "REDDICANTO",
      "firstNm": "DEANN",
      "midNm": null,
      "sufNm": null
    },
    {
      "lastNm": "REDDICANTO",
      "firstNm": "DEANN",
      "midNm": "SANDRA",
      "sufNm": null
    },
    {
      "lastNm": "REDDICONTO",
      "firstNm": "DEANN",
      "midNm": "SANDRA",
      "sufNm": null
    }
  ],
  "CrntEmps": [
    {
      "CrntRgstns": [
        {
          "regAuth": 32,
          "regCat": 0,
          "st": 2,
          "stDt": "2016-01-21T00:00:00"
        }
      ],
      "BrnchOfLocs": [
        {
          "str1": "61 SOUTH PARAMUS ROAD",
          "str2": "MACK CENTER IV",
          "city": "PARAMUS",
          "state": 32,
          "stateSpecified": true,
          "cntry": "United States",
          "postlCd": "07652"
        }
      ],
      "orgNm": "UBS FINANCIAL SERVICES INC.",
      "orgPK": "8174",
      "str1": "1200 HARBOR BOULEVARD",
      "str2": null,
      "city": "WEEHAWKEN",
      "state": 32,
      "stateSpecified": true,
      "cntry": "United States",
      "postlCd": "07086"
    }
  ],
  "Exms": [
    {
      "exmCd": 0,
      "exmNm": "Uniform Securities Agent State Law Examination",
      "exmDt": "2000-03-31T00:00:00",
      "exmDtSpecified": true
    },
    {
      "exmCd": 2,
      "exmNm": "Uniform Investment Adviser Law Examination",
      "exmDt": "2005-01-24T00:00:00",
      "exmDtSpecified": true
    }
  ],
  "Dsgntns": [],
  "PrevRgstns": [
    {
      "BrnchOfLocs": [
        {
          "city": "PARAMUS",
          "state": 32,
          "stateSpecified": true
        },
        {
          "city": "PARAMUS",
          "state": 32,
          "stateSpecified": true
        }
      ],
      "orgNm": "MORGAN STANLEY DW INC.",
      "orgPK": "7556",
      "regBeginDt": "2005-01-26T00:00:00",
      "regBeginDtSpecified": true,
      "regEndDt": "2007-04-02T00:00:00",
      "regEndDtSpecified": true
    },
    {
      "BrnchOfLocs": [
        {
          "city": "PARAMUS",
          "state": 32,
          "stateSpecified": true
        }
      ],
      "orgNm": "MORGAN STANLEY & CO. LLC",
      "orgPK": "8209",
      "regBeginDt": "2007-04-02T00:00:00",
      "regBeginDtSpecified": true,
      "regEndDt": "2009-06-01T00:00:00",
      "regEndDtSpecified": true
    },
    {
      "BrnchOfLocs": [
        {
          "city": "PARAMUS",
          "state": 32,
          "stateSpecified": true
        }
      ],
      "orgNm": "MORGAN STANLEY",
      "orgPK": "149777",
      "regBeginDt": "2009-06-01T00:00:00",
      "regBeginDtSpecified": true,
      "regEndDt": "2016-02-05T00:00:00",
      "regEndDtSpecified": true
    }
  ],
  "EmpHss": [
    {
      "fromDt": "09/1997",
      "toDt": "04/2007",
      "orgNm": "MORGAN STANLEY DW INC.",
      "city": "PARAMUS",
      "state": 32,
      "stateSpecified": true
    },
    {
      "fromDt": "04/2007",
      "toDt": "06/2009",
      "orgNm": "MORGAN STANLEY & CO., INCORPORATED",
      "city": "PARAMUS",
      "state": 32,
      "stateSpecified": true
    },
    {
      "fromDt": "06/2009",
      "toDt": "01/2015",
      "orgNm": "MORGAN STANLEY SMITH BARNEY",
      "city": "PARAMUS",
      "state": 32,
      "stateSpecified": true
    },
    {
      "fromDt": "01/2015",
      "toDt": "01/2016",
      "orgNm": "MORGAN STANLEY PRIVATE BANK, NATIONAL ASSOCIATION",
      "city": "NEW YORK",
      "state": 35,
      "stateSpecified": true
    },
    {
      "fromDt": "01/2016",
      "toDt": null,
      "orgNm": "UBS FINANCIAL SERVICES INC.",
      "city": "PARAMUS",
      "state": 32,
      "stateSpecified": true
    }
  ],
  "OthrBuss": {
    "OthrBus": null
  },
  "DRPs": [
    {
      "hasRegAction": 1,
      "hasRegActionSpecified": true,
      "hasCriminal": 1,
      "hasCriminalSpecified": true,
      "hasBankrupt": 1,
      "hasBankruptSpecified": true,
      "hasCivilJudc": 1,
      "hasCivilJudcSpecified": true,
      "hasBond": 1,
      "hasBondSpecified": true,
      "hasJudgment": 1,
      "hasJudgmentSpecified": true,
      "hasInvstgn": 1,
      "hasInvstgnSpecified": true,
      "hasCustComp": 0,
      "hasCustCompSpecified": true,
      "hasTermination": 1,
      "hasTerminationSpecified": true
    }
  ]
}