{
  "Info": {
    "lastNm": "ARMEY",
    "firstNm": "DOUGLAS",
    "midNm": "RICHARD",
    "sufNm": null,
    "indvlPK": "2967102",
    "actvAGReg": 0,
    "link": "http://www.adviserinfo.sec.gov/IAPD/Individual/2967102"
  },
  "OthrNms": [],
  "CrntEmps": [
    {
      "CrntRgstns": [
        {
          "regAuth": 4,
          "regCat": 0,
          "st": 2,
          "stDt": "2007-09-07T00:00:00"
        }
      ],
      "BrnchOfLocs": [
        {
          "str1": "659 WEST SHAW AVE STE C",
          "str2": null,
          "city": "FRESNO",
          "state": 4,
          "stateSpecified": true,
          "cntry": "United States",
          "postlCd": "93704-2442"
        }
      ],
      "orgNm": "LPL FINANCIAL LLC",
      "orgPK": "6413",
      "str1": "75 STATE STREET, 22ND FLOOR",
      "str2": null,
      "city": "BOSTON",
      "state": 20,
      "stateSpecified": true,
      "cntry": "United States",
      "postlCd": "02109"
    }
  ],
  "Exms": [
    {
      "exmCd": 0,
      "exmNm": "Uniform Securities Agent State Law Examination",
      "exmDt": "1997-11-13T00:00:00",
      "exmDtSpecified": true
    }
  ],
  "Dsgntns": [],
  "PrevRgstns": [
    {
      "BrnchOfLocs": [
        {
          "city": "FRESNO",
          "state": 4,
          "stateSpecified": true
        },
        {
          "city": "FRESNO",
          "state": 4,
          "stateSpecified": true
        }
      ],
      "orgNm": "A. G. EDWARDS & SONS, INC.",
      "orgPK": "4",
      "regBeginDt": "2001-03-29T00:00:00",
      "regBeginDtSpecified": true,
      "regEndDt": "2007-09-14T00:00:00",
      "regEndDtSpecified": true
    }
  ],
  "EmpHss": [
    {
      "fromDt": "09/1997",
      "toDt": "08/2007",
      "orgNm": "A. G. EDWARDS & SONS, INC.",
      "city": "FRESNO",
      "state": 4,
      "stateSpecified": true
    },
    {
      "fromDt": "09/2007",
      "toDt": null,
      "orgNm": "LINSCO/PRIVATE LEDGER CORP.",
      "city": "SAN DIEGO",
      "state": 4,
      "stateSpecified": true
    }
  ],
  "OthrBuss": {
    "OthrBus": {
      "desc": "1. 12/3/2008 - REAL ESTATE RENTAL - DOUGLAS ARMEY ENTERPRISES- PERSONAL INVESTING IN RENTAL REAL ESTATE.  WILL NOT INVOLVE BEING AN AGENT OR BUYING AND SELLING WITH CLIENTS. - TIME SPENT 10%.     2. 12/3/2008 - REAL ESTATE RENTAL - DOUGLAS ARMEY ENTERPRISES - PERSONAL INVESTING IN RENTAL REAL ESTATE.  WILL NOT INVOLVE BEING AN AGENT OR BUYING AND SELLING WITH CLIENTS. 555 W. ALAMOS, CLOVIS, CA 93612 - TIME SPENT 10%.      3. 12/3/2008 - REAL ESTATE RENTAL - DOUGLAS ARMEY ENTERPRISES - PERSONAL INVESTING IN RENTAL REAL ESTATE.  WILL NOT INVOLVE BEING AN AGENT OR BUYING AND SELLING WITH CLIENTS.2985 HOMSY, CLOVIS, CA 93612 - TIME SPENT 10%.     4. 12/3/2008 - REAL ESTATE RENTAL - DOUGLAS ARMEY ENTERPRISES - PERSONAL INVESTING IN RENTAL REAL ESTATE.  WILL NOT INVOLVE BEING AN AGENT OR BUYING AND SELLING WITH CLIENTS.188 W. INDIANAPOLIS, CLOVIS, CA 93612 - TIME SPENT 10%.      5. 12/3/2008 - REAL ESTATE RENTAL - DOUGLAS ARMEY ENTERPRISES - PERSONAL INVESTING IN RENTAL REAL ESTATE. WILL NOT INVOLVE BEING AN AGENT OR BUYING AND SELLING WITH CLIENTS. 542 W. ALAMOS, CLOVIS, CA 93612. - TIME SPENT 10%.      6. 4/17/2012 - DBA ONLY - ARMEY FINANCIAL SERVICES, INC. - FRESNO, CA.      7.  4/17/2012 - DBA ONLY - ARMEY, BUSHEY AND ASSOCIATES WEALTH MANAGEMENT - FRESNO, CA"
    }
  },
  "DRPs": []
}