{
  "Info": {
    "lastNm": "CASTRO",
    "firstNm": "MAYRA",
    "midNm": "HAYDEE",
    "sufNm": null,
    "indvlPK": "2967321",
    "actvAGReg": 0,
    "link": "http://www.adviserinfo.sec.gov/IAPD/Individual/2967321"
  },
  "OthrNms": [],
  "CrntEmps": [
    {
      "CrntRgstns": [
        {
          "regAuth": 4,
          "regCat": 0,
          "st": 2,
          "stDt": "2010-08-02T00:00:00"
        }
      ],
      "BrnchOfLocs": [
        {
          "str1": "800 EL CAMINO REAL",
          "str2": "SUITE #100",
          "city": "MENLO PARK",
          "state": 4,
          "stateSpecified": true,
          "cntry": "United States",
          "postlCd": "94025-4875"
        }
      ],
      "orgNm": "CHARLES SCHWAB & CO., INC.",
      "orgPK": "5393",
      "str1": "211 MAIN STREET",
      "str2": null,
      "city": "SAN FRANCISCO",
      "state": 4,
      "stateSpecified": true,
      "cntry": "United States",
      "postlCd": "94105"
    }
  ],
  "Exms": [
    {
      "exmCd": 0,
      "exmNm": "Uniform Securities Agent State Law Examination",
      "exmDt": "1999-06-21T00:00:00",
      "exmDtSpecified": true
    },
    {
      "exmCd": 3,
      "exmNm": "Uniform Combined State Law Examination",
      "exmDt": "2010-07-31T00:00:00",
      "exmDtSpecified": true
    }
  ],
  "Dsgntns": [],
  "PrevRgstns": [],
  "EmpHss": [
    {
      "fromDt": "07/2001",
      "toDt": null,
      "orgNm": "CHARLES SCHWAB & CO., INC.",
      "city": "PHOENIX",
      "state": 3,
      "stateSpecified": true
    },
    {
      "fromDt": "01/2008",
      "toDt": null,
      "orgNm": "CHARLES SCHWAB BANK",
      "city": "MENLO PARK",
      "state": 4,
      "stateSpecified": true
    }
  ],
  "OthrBuss": {
    "OthrBus": {
      "desc": "CHARLES SCHWAB BANK, INVESTMENT RELATED, DUAL EMPLOYEE, BANK, 1/1/08, PRODUCTS, REFERRALS OF HELOC, MORTGAGES, INVESTOR CHECKING PRODUCTS AND CREDITS FOR APPROXIMATELY 20 HOURS PER MONTH.    THE SIU CORPORATION-TREASURER"
    }
  },
  "DRPs": [
    {
      "hasRegAction": 1,
      "hasRegActionSpecified": true,
      "hasCriminal": 1,
      "hasCriminalSpecified": true,
      "hasBankrupt": 0,
      "hasBankruptSpecified": true,
      "hasCivilJudc": 1,
      "hasCivilJudcSpecified": true,
      "hasBond": 1,
      "hasBondSpecified": true,
      "hasJudgment": 1,
      "hasJudgmentSpecified": true,
      "hasInvstgn": 1,
      "hasInvstgnSpecified": true,
      "hasCustComp": 1,
      "hasCustCompSpecified": true,
      "hasTermination": 1,
      "hasTerminationSpecified": true
    }
  ]
}