{
  "Info": {
    "lastNm": "TUCKER",
    "firstNm": "ROBIN",
    "midNm": "LYNN",
    "sufNm": null,
    "indvlPK": "2980953",
    "actvAGReg": 0,
    "link": "http://www.adviserinfo.sec.gov/IAPD/Individual/2980953"
  },
  "OthrNms": [
    {
      "lastNm": "RYAN",
      "firstNm": "ROBIN",
      "midNm": null,
      "sufNm": null
    },
    {
      "lastNm": "RYAN",
      "firstNm": "ROBIN",
      "midNm": "LYNN",
      "sufNm": null
    },
    {
      "lastNm": "TUCKER",
      "firstNm": "ROBIN",
      "midNm": "LYNN",
      "sufNm": null
    }
  ],
  "CrntEmps": [
    {
      "CrntRgstns": [
        {
          "regAuth": 39,
          "regCat": 0,
          "st": 2,
          "stDt": "2012-08-28T00:00:00"
        },
        {
          "regAuth": 51,
          "regCat": 0,
          "st": 2,
          "stDt": "2012-10-04T00:00:00"
        },
        {
          "regAuth": 36,
          "regCat": 0,
          "st": 2,
          "stDt": "2013-03-13T00:00:00"
        },
        {
          "regAuth": 4,
          "regCat": 0,
          "st": 2,
          "stDt": "2013-05-30T00:00:00"
        },
        {
          "regAuth": 17,
          "regCat": 0,
          "st": 2,
          "stDt": "2013-07-16T00:00:00"
        },
        {
          "regAuth": 32,
          "regCat": 0,
          "st": 2,
          "stDt": "2013-09-03T00:00:00"
        },
        {
          "regAuth": 49,
          "regCat": 0,
          "st": 2,
          "stDt": "2014-02-25T00:00:00"
        },
        {
          "regAuth": 9,
          "regCat": 0,
          "st": 2,
          "stDt": "2014-05-09T00:00:00"
        },
        {
          "regAuth": 1,
          "regCat": 0,
          "st": 2,
          "stDt": "2014-08-25T00:00:00"
        },
        {
          "regAuth": 37,
          "regCat": 0,
          "st": 2,
          "stDt": "2014-08-26T00:00:00"
        },
        {
          "regAuth": 47,
          "regCat": 0,
          "st": 2,
          "stDt": "2014-11-19T00:00:00"
        },
        {
          "regAuth": 42,
          "regCat": 0,
          "st": 2,
          "stDt": "2015-05-27T00:00:00"
        },
        {
          "regAuth": 28,
          "regCat": 0,
          "st": 2,
          "stDt": "2016-06-17T00:00:00"
        }
      ],
      "BrnchOfLocs": [
        {
          "str1": "501 CORPORATE DR",
          "str2": "SUITE 200",
          "city": "CANONSBURG",
          "state": 39,
          "stateSpecified": true,
          "cntry": "United States",
          "postlCd": "15317"
        }
      ],
      "orgNm": "FORESTERS ADVISORY SERVICES, LLC",
      "orgPK": "164663",
      "str1": "40 WALL STREET",
      "str2": "10TH FLOOR",
      "city": "NEW YORK",
      "state": 35,
      "stateSpecified": true,
      "cntry": "United States",
      "postlCd": "10005"
    }
  ],
  "Exms": [
    {
      "exmCd": 0,
      "exmNm": "Uniform Securities Agent State Law Examination",
      "exmDt": "1997-12-12T00:00:00",
      "exmDtSpecified": true
    },
    {
      "exmCd": 3,
      "exmNm": "Uniform Combined State Law Examination",
      "exmDt": "2012-08-11T00:00:00",
      "exmDtSpecified": true
    }
  ],
  "Dsgntns": [],
  "PrevRgstns": [],
  "EmpHss": [
    {
      "fromDt": "10/1997",
      "toDt": "10/2012",
      "orgNm": "FIRST INVESTORS CORPORATION",
      "city": "PITTSBURGH",
      "state": 39,
      "stateSpecified": true
    },
    {
      "fromDt": "08/2012",
      "toDt": null,
      "orgNm": "FIRST INVESTORS ADVISORY SERVICES",
      "city": "CANONSBURG",
      "state": 39,
      "stateSpecified": true
    },
    {
      "fromDt": "10/2012",
      "toDt": null,
      "orgNm": "FIRST INVESTORS CORPORATION",
      "city": "CANONSBURG",
      "state": 39,
      "stateSpecified": true
    }
  ],
  "OthrBuss": {
    "OthrBus": null
  },
  "DRPs": []
}