{
  "Info": {
    "lastNm": "SIMKINS",
    "firstNm": "JOE",
    "midNm": "LEE",
    "sufNm": "II",
    "indvlPK": "2982001",
    "actvAGReg": 0,
    "link": "http://www.adviserinfo.sec.gov/IAPD/Individual/2982001"
  },
  "OthrNms": [],
  "CrntEmps": [
    {
      "CrntRgstns": [
        {
          "regAuth": 23,
          "regCat": 0,
          "st": 2,
          "stDt": "2010-01-26T00:00:00"
        }
      ],
      "BrnchOfLocs": [
        {
          "str1": "2739 PLYMOUTH RD",
          "str2": "SUITE B",
          "city": "ANN ARBOR",
          "state": 23,
          "stateSpecified": true,
          "cntry": "United States",
          "postlCd": "48105"
        }
      ],
      "orgNm": "STATE FARM INVESTMENT MANAGEMENT CORP.",
      "orgPK": "3487",
      "str1": "THREE STATE FARM PLAZA SOUTH",
      "str2": "N-2",
      "city": "BLOOMINGTON",
      "state": 15,
      "stateSpecified": true,
      "cntry": "United States",
      "postlCd": "61791-0001"
    }
  ],
  "Exms": [
    {
      "exmCd": 0,
      "exmNm": "Uniform Securities Agent State Law Examination",
      "exmDt": "2000-08-04T00:00:00",
      "exmDtSpecified": true
    }
  ],
  "Dsgntns": [
    {
      "dsgntnNm": "Chartered Financial Consultant"
    }
  ],
  "PrevRgstns": [
    {
      "BrnchOfLocs": [
        {
          "city": "ANN ARBOR",
          "state": 23,
          "stateSpecified": true
        }
      ],
      "orgNm": "STATE FARM INVESTMENT MANAGEMENT CORP.",
      "orgPK": "3487",
      "regBeginDt": "2007-02-16T00:00:00",
      "regBeginDtSpecified": true,
      "regEndDt": "2008-12-31T00:00:00",
      "regEndDtSpecified": true
    }
  ],
  "EmpHss": [
    {
      "fromDt": "05/2006",
      "toDt": null,
      "orgNm": "JOE SIMKINS INSURANCE AGENCY",
      "city": "ANN ARBOR",
      "state": 23,
      "stateSpecified": true
    },
    {
      "fromDt": "05/2006",
      "toDt": "12/2008",
      "orgNm": "STATE FARM INVESTMENT MANAGEMENT CORP",
      "city": "ANN ARBOR",
      "state": 23,
      "stateSpecified": true
    },
    {
      "fromDt": "05/2006",
      "toDt": null,
      "orgNm": "STATE FARM VP MANAGEMENT CORP",
      "city": "ANN ARBOR",
      "state": 23,
      "stateSpecified": true
    },
    {
      "fromDt": "07/2009",
      "toDt": null,
      "orgNm": "STATE FARM INVESTMENT MANAGEMENT CORP",
      "city": "ANN ARBOR",
      "state": 23,
      "stateSpecified": true
    }
  ],
  "OthrBuss": {
    "OthrBus": {
      "desc": "GREENWOOD OAKS 3&4 HOMEOWNERS ASSOCIATION, NON INVESTMENT REALTED, POBOX 1104 NOVI MICHIGAN 48376; VICE PRESIDENT, 03/01/2012; 0HR/MO FOR BOTH, VOTING MEMBER OF THE BOARD."
    }
  },
  "DRPs": []
}