{
  "Info": {
    "lastNm": "SCHRADER",
    "firstNm": "JOSEPH",
    "midNm": "HERMAN",
    "sufNm": "JR",
    "indvlPK": "2988240",
    "actvAGReg": 0,
    "link": "http://www.adviserinfo.sec.gov/IAPD/Individual/2988240"
  },
  "OthrNms": [
    {
      "lastNm": "SCHRADER",
      "firstNm": "JOSH",
      "midNm": null,
      "sufNm": null
    }
  ],
  "CrntEmps": [
    {
      "CrntRgstns": [
        {
          "regAuth": 28,
          "regCat": 0,
          "st": 2,
          "stDt": "2006-03-07T00:00:00"
        },
        {
          "regAuth": 45,
          "regCat": 0,
          "st": 3,
          "stDt": "2010-02-19T00:00:00"
        }
      ],
      "BrnchOfLocs": [
        {
          "str1": "TWO TOWN SQUARE BOULEVARD",
          "str2": "SUITE 325",
          "city": "ASHEVILLE",
          "state": 28,
          "stateSpecified": true,
          "cntry": "United States",
          "postlCd": "28803-5035"
        }
      ],
      "orgNm": "RBC CAPITAL MARKETS, LLC",
      "orgPK": "31194",
      "str1": "3 WORLD FINANCIAL CENTER",
      "str2": "200 VESEY ST.",
      "city": "NEW YORK",
      "state": 35,
      "stateSpecified": true,
      "cntry": "United States",
      "postlCd": "10281"
    }
  ],
  "Exms": [
    {
      "exmCd": 3,
      "exmNm": "Uniform Combined State Law Examination",
      "exmDt": "1998-06-29T00:00:00",
      "exmDtSpecified": true
    }
  ],
  "Dsgntns": [],
  "PrevRgstns": [
    {
      "BrnchOfLocs": [
        {
          "city": "PISGAH FOREST",
          "state": 28,
          "stateSpecified": true
        }
      ],
      "orgNm": "FIRST CITIZENS INVESTOR SERVICES, INC.",
      "orgPK": "44430",
      "regBeginDt": "2001-12-31T00:00:00",
      "regBeginDtSpecified": true,
      "regEndDt": "2003-09-16T00:00:00",
      "regEndDtSpecified": true
    },
    {
      "BrnchOfLocs": [
        {
          "city": "ASHEVILLE",
          "state": 28,
          "stateSpecified": true
        }
      ],
      "orgNm": "BANC OF AMERICA INVESTMENT SERVICES, INC.",
      "orgPK": "16361",
      "regBeginDt": "2003-09-12T00:00:00",
      "regBeginDtSpecified": true,
      "regEndDt": "2006-03-17T00:00:00",
      "regEndDtSpecified": true
    }
  ],
  "EmpHss": [
    {
      "fromDt": "03/2006",
      "toDt": "03/2008",
      "orgNm": "RBC DAIN RAUSCHER",
      "city": "ASHVILLE",
      "state": 28,
      "stateSpecified": true
    },
    {
      "fromDt": "03/2008",
      "toDt": null,
      "orgNm": "RBC CAPITAL MARKETS CORPORATION",
      "city": "WINSTON-SALEM",
      "state": 28,
      "stateSpecified": true
    }
  ],
  "OthrBuss": {
    "OthrBus": null
  },
  "DRPs": []
}