{
  "Info": {
    "lastNm": "SAWYER",
    "firstNm": "MICHAEL",
    "midNm": "JAMES",
    "sufNm": null,
    "indvlPK": "2997646",
    "actvAGReg": 0,
    "link": "http://www.adviserinfo.sec.gov/IAPD/Individual/2997646"
  },
  "OthrNms": [
    {
      "lastNm": "SAWYER",
      "firstNm": "MIKE",
      "midNm": null,
      "sufNm": null
    }
  ],
  "CrntEmps": [
    {
      "CrntRgstns": [
        {
          "regAuth": 42,
          "regCat": 0,
          "st": 2,
          "stDt": "2015-01-29T00:00:00"
        }
      ],
      "BrnchOfLocs": [
        {
          "str1": "601 GERVAIS ST STE A",
          "str2": null,
          "city": "COLUMBIA",
          "state": 42,
          "stateSpecified": true,
          "cntry": "United States",
          "postlCd": "29201"
        }
      ],
      "orgNm": "AMERIVEST INVESTMENT MANAGEMENT, LLC",
      "orgPK": "111514",
      "str1": "200 SOUTH 108TH AVENUE",
      "str2": null,
      "city": "OMAHA",
      "state": 30,
      "stateSpecified": true,
      "cntry": "United States",
      "postlCd": "68154"
    },
    {
      "CrntRgstns": [
        {
          "regAuth": 42,
          "regCat": 0,
          "st": 2,
          "stDt": "2015-01-09T00:00:00"
        }
      ],
      "BrnchOfLocs": [
        {
          "str1": "601 GERVAIS STREET",
          "str2": "SUITE A",
          "city": "COLUMBIA",
          "state": 42,
          "stateSpecified": true,
          "cntry": "United States",
          "postlCd": "29201"
        }
      ],
      "orgNm": "TD AMERITRADE, INC.",
      "orgPK": "7870",
      "str1": "200 SOUTH 108TH AVENUE",
      "str2": null,
      "city": "OMAHA",
      "state": 30,
      "stateSpecified": true,
      "cntry": "United States",
      "postlCd": "68154"
    }
  ],
  "Exms": [
    {
      "exmCd": 0,
      "exmNm": "Uniform Securities Agent State Law Examination",
      "exmDt": "1999-04-08T00:00:00",
      "exmDtSpecified": true
    },
    {
      "exmCd": 2,
      "exmNm": "Uniform Investment Adviser Law Examination",
      "exmDt": "2002-12-03T00:00:00",
      "exmDtSpecified": true
    }
  ],
  "Dsgntns": [],
  "PrevRgstns": [
    {
      "BrnchOfLocs": [
        {
          "city": "BELLEVUE",
          "state": 30,
          "stateSpecified": true
        },
        {
          "city": "OMAHA",
          "state": 30,
          "stateSpecified": true
        }
      ],
      "orgNm": "AMERIVEST INVESTMENT MANAGEMENT, LLC",
      "orgPK": "111514",
      "regBeginDt": "2003-01-28T00:00:00",
      "regBeginDtSpecified": true,
      "regEndDt": "2015-01-13T00:00:00",
      "regEndDtSpecified": true
    }
  ],
  "EmpHss": [
    {
      "fromDt": "01/2002",
      "toDt": null,
      "orgNm": "AMERITRADE INC",
      "city": "OMAHA",
      "state": 30,
      "stateSpecified": true
    },
    {
      "fromDt": "01/2003",
      "toDt": null,
      "orgNm": "AMERIVEST INVESTMENT MANAGEMENT LLC",
      "city": "BELLEVUE",
      "state": 30,
      "stateSpecified": true
    },
    {
      "fromDt": "04/2006",
      "toDt": null,
      "orgNm": "TD WATERHOUSE INVESTOR SERVICES, INC.",
      "city": "BELLEVUE",
      "state": 30,
      "stateSpecified": true
    }
  ],
  "OthrBuss": {
    "OthrBus": null
  },
  "DRPs": []
}