{
  "Info": {
    "lastNm": "WEHNER",
    "firstNm": "DANIEL",
    "midNm": "MATTHEW",
    "sufNm": null,
    "indvlPK": "2999629",
    "actvAGReg": 0,
    "link": "http://www.adviserinfo.sec.gov/IAPD/Individual/2999629"
  },
  "OthrNms": [
    {
      "lastNm": "WEHNER",
      "firstNm": "DANIEL",
      "midNm": null,
      "sufNm": null
    }
  ],
  "CrntEmps": [
    {
      "CrntRgstns": [
        {
          "regAuth": 36,
          "regCat": 0,
          "st": 2,
          "stDt": "2009-08-14T00:00:00"
        },
        {
          "regAuth": 45,
          "regCat": 0,
          "st": 3,
          "stDt": "2016-01-15T00:00:00"
        }
      ],
      "BrnchOfLocs": [
        {
          "str1": "6797 N HIGH ST",
          "str2": "STE 130",
          "city": "WORTHINGTON",
          "state": 36,
          "stateSpecified": true,
          "cntry": "United States",
          "postlCd": "43085"
        }
      ],
      "orgNm": "INVEST FINANCIAL CORPORATION",
      "orgPK": "12984",
      "str1": "12750 CITRUS PARK LANE",
      "str2": "SUITE 300",
      "city": "TAMPA",
      "state": 9,
      "stateSpecified": true,
      "cntry": "United States",
      "postlCd": "33625"
    }
  ],
  "Exms": [
    {
      "exmCd": 0,
      "exmNm": "Uniform Securities Agent State Law Examination",
      "exmDt": "2009-11-13T00:00:00",
      "exmDtSpecified": true
    }
  ],
  "Dsgntns": [],
  "PrevRgstns": [],
  "EmpHss": [
    {
      "fromDt": "07/1997",
      "toDt": null,
      "orgNm": "PUTNAM SR CARE",
      "city": "COLUMBUS",
      "state": 36,
      "stateSpecified": true
    },
    {
      "fromDt": "01/2004",
      "toDt": "09/2007",
      "orgNm": "ING FINANCIAL PARTNERS, INC.",
      "city": "DES MOINES",
      "state": 13,
      "stateSpecified": true
    },
    {
      "fromDt": "09/2007",
      "toDt": "10/2008",
      "orgNm": "QUESTAR CAPITAL CORPORATION",
      "city": "MINNEAPOLIS",
      "state": 24,
      "stateSpecified": true
    },
    {
      "fromDt": "10/2008",
      "toDt": null,
      "orgNm": "INVEST Financial Corp.",
      "city": "Tampa",
      "state": 9,
      "stateSpecified": true
    }
  ],
  "OthrBuss": {
    "OthrBus": {
      "desc": "1)COLUMBUS ICE HOCKEY CLUB; NOT INVESTMENT RELATED. 5625 N. HIGH ST, WORTHINGTON, OH 43085; VP, GENERAL OPERATION, MENTORING,INSTRUCTIONS. 20+ HPM/0-7 HPM DURING TRADING; START 9/1997; 2) BENEFIT FINANCIAL SERVICES/PUTNAM SENIOR CARE; NOT INVESTMENT RELATED. 5625 N. HIGH ST, # 6, WORTHINGTON, OH 46085; TAX PURPOSES, PRESIDENT, VP, TREAS, SECT; START 1-1-1997, 5 HPM, 5 HRS TRADING, TAX PURPOSES. 3)ANDROGEN INSENSITIVITY SYNDROM US SUPPORT GROUP, NOT INVESTMENT RELATED, PO BOX 2148 DUNCAN FALLS OK 75354, WOMEN'S ? FAMILY SUPPORT GROUP FOR PEOPLE WITH DISORDERS OF SEXUAL DEVELOPMENT, BOARD OF DIRECTORS, START DATE 7/22/2012, PLAN MEETINGS, OVERSEEING FINANCES OF THE ORGANIZATION AND ORGANIZING/PROMOTING FUND RAISING EFFORTS, 5-8 HPM, 1-2 HRS TRADING. 4) CROSS COUNTRY MORTGAGE INC, NOT INVESTMENT RELATED, 5625 NORTH HIGH ST #6 WORTHINGTON OH 43085, MORTGAGE LOANS, LOAN OFFICER, START DATE 1/1/2013, LOAN OFFICER, 10-20 HPM, 10-20 HRS TRADING. 5) ELEVEN BENEFITS, YES INVESTMENT RELATED, 5625 N. HIGH ST #10 WORTHINGTON OH 43085, DISCOUNT NETWORK FOR DENTAL PRESCRIPTION, SALES, START DATE 02/01/2014, I WILL BE BEHIND THE SCENES DIRECTING SALES, 10 HPM, 0 HRS TRADING."
    }
  },
  "DRPs": [
    {
      "hasRegAction": 1,
      "hasRegActionSpecified": true,
      "hasCriminal": 1,
      "hasCriminalSpecified": true,
      "hasBankrupt": 1,
      "hasBankruptSpecified": true,
      "hasCivilJudc": 1,
      "hasCivilJudcSpecified": true,
      "hasBond": 1,
      "hasBondSpecified": true,
      "hasJudgment": 1,
      "hasJudgmentSpecified": true,
      "hasInvstgn": 1,
      "hasInvstgnSpecified": true,
      "hasCustComp": 0,
      "hasCustCompSpecified": true,
      "hasTermination": 1,
      "hasTerminationSpecified": true
    }
  ]
}