{
  "Info": {
    "lastNm": "ALBANO",
    "firstNm": "LISA",
    "midNm": "HOPE",
    "sufNm": null,
    "indvlPK": "3003422",
    "actvAGReg": 0,
    "link": "http://www.adviserinfo.sec.gov/IAPD/Individual/3003422"
  },
  "OthrNms": [
    {
      "lastNm": "ALBANO",
      "firstNm": "LISA",
      "midNm": "H",
      "sufNm": null
    },
    {
      "lastNm": "ALBANO",
      "firstNm": "LISA",
      "midNm": "HOPE",
      "sufNm": null
    },
    {
      "lastNm": "ALBANO-KLEIN",
      "firstNm": "LISA",
      "midNm": "HOPE",
      "sufNm": null
    },
    {
      "lastNm": "ALBANO-KLEIN",
      "firstNm": "LISA",
      "midNm": "HOPE",
      "sufNm": null
    }
  ],
  "CrntEmps": [
    {
      "CrntRgstns": [
        {
          "regAuth": 32,
          "regCat": 0,
          "st": 2,
          "stDt": "2014-03-24T00:00:00"
        }
      ],
      "BrnchOfLocs": [
        {
          "str1": "401 BROADHOLLOW RD.",
          "str2": null,
          "city": "MELVILLE",
          "state": 35,
          "stateSpecified": true,
          "cntry": "United States",
          "postlCd": "11747"
        }
      ],
      "orgNm": "WELLS FARGO ADVISORS FINANCIAL NETWORK, LLC",
      "orgPK": "11025",
      "str1": "ONE NORTH JEFFERSON AVENUE",
      "str2": "MAIL CODE: H0004-050",
      "city": "ST. LOUIS",
      "state": 25,
      "stateSpecified": true,
      "cntry": "United States",
      "postlCd": "63103"
    }
  ],
  "Exms": [
    {
      "exmCd": 0,
      "exmNm": "Uniform Securities Agent State Law Examination",
      "exmDt": "1998-03-25T00:00:00",
      "exmDtSpecified": true
    },
    {
      "exmCd": 2,
      "exmNm": "Uniform Investment Adviser Law Examination",
      "exmDt": "2014-03-21T00:00:00",
      "exmDtSpecified": true
    }
  ],
  "Dsgntns": [],
  "PrevRgstns": [],
  "EmpHss": [
    {
      "fromDt": "06/2003",
      "toDt": "05/2009",
      "orgNm": "WACHOVIA SECURITIES FINANCIAL NETWORK, LLC",
      "city": "HUNTINGTON",
      "state": 35,
      "stateSpecified": true
    },
    {
      "fromDt": "05/2009",
      "toDt": null,
      "orgNm": "WELLS FARGO ADVISORS FINANCIAL NETWORK LLC",
      "city": "HUNTINGTON",
      "state": 35,
      "stateSpecified": true
    }
  ],
  "OthrBuss": {
    "OthrBus": {
      "desc": "RENTAL PROPERTY, INV-RELATED, JUPITER, FL, 100% OWNERSHIP WITH SPOUSE, START: 6/25/15, 2 HRS/MO, 0 DURING TRADING."
    }
  },
  "DRPs": []
}