{
  "Info": {
    "lastNm": "STRUCKMAN",
    "firstNm": "LONNIE",
    "midNm": "RAY",
    "sufNm": null,
    "indvlPK": "3004344",
    "actvAGReg": 0,
    "link": "http://www.adviserinfo.sec.gov/IAPD/Individual/3004344"
  },
  "OthrNms": [],
  "CrntEmps": [
    {
      "CrntRgstns": [
        {
          "regAuth": 43,
          "regCat": 0,
          "st": 2,
          "stDt": "2016-05-27T00:00:00"
        }
      ],
      "BrnchOfLocs": [
        {
          "str1": "4820 S. LOUISE AVENUE",
          "str2": null,
          "city": "SIOUX FALLS",
          "state": 43,
          "stateSpecified": true,
          "cntry": "United States",
          "postlCd": "57108"
        },
        {
          "str1": "6720 N SCOTTSDALE RD",
          "str2": null,
          "city": "SCOTTSDALE",
          "state": 3,
          "stateSpecified": true,
          "cntry": "United States",
          "postlCd": "85253-4467"
        }
      ],
      "orgNm": "CHARLES SCHWAB & CO., INC.",
      "orgPK": "5393",
      "str1": "211 MAIN STREET",
      "str2": null,
      "city": "SAN FRANCISCO",
      "state": 4,
      "stateSpecified": true,
      "cntry": "United States",
      "postlCd": "94105"
    }
  ],
  "Exms": [
    {
      "exmCd": 3,
      "exmNm": "Uniform Combined State Law Examination",
      "exmDt": "1998-02-23T00:00:00",
      "exmDtSpecified": true
    }
  ],
  "Dsgntns": [],
  "PrevRgstns": [
    {
      "BrnchOfLocs": [
        {
          "city": "HOUSTON",
          "state": 45,
          "stateSpecified": true
        }
      ],
      "orgNm": "PRINCIPAL SECURITIES, INC.",
      "orgPK": "1137",
      "regBeginDt": "2004-02-18T00:00:00",
      "regBeginDtSpecified": true,
      "regEndDt": "2005-03-23T00:00:00",
      "regEndDtSpecified": true
    },
    {
      "BrnchOfLocs": [
        {
          "city": "MITCHELL",
          "state": 43,
          "stateSpecified": true
        },
        {
          "city": "SIOUX FALLS",
          "state": 43,
          "stateSpecified": true
        },
        {
          "city": "SIOUX FALLS",
          "state": 43,
          "stateSpecified": true
        },
        {
          "city": "SIOUX FALLS",
          "state": 43,
          "stateSpecified": true
        }
      ],
      "orgNm": "RAYMOND JAMES FINANCIAL SERVICES, INC.",
      "orgPK": "6694",
      "regBeginDt": "2005-05-26T00:00:00",
      "regBeginDtSpecified": true,
      "regEndDt": "2009-01-02T00:00:00",
      "regEndDtSpecified": true
    },
    {
      "BrnchOfLocs": [
        {
          "city": "SIOUX FALLS",
          "state": 43,
          "stateSpecified": true
        },
        {
          "city": "SIOUX FALLS",
          "state": 43,
          "stateSpecified": true
        }
      ],
      "orgNm": "RAYMOND JAMES FINANCIAL SERVICES ADVISORS, INC",
      "orgPK": "149018",
      "regBeginDt": "2009-01-02T00:00:00",
      "regBeginDtSpecified": true,
      "regEndDt": "2016-05-19T00:00:00",
      "regEndDtSpecified": true
    }
  ],
  "EmpHss": [
    {
      "fromDt": "03/2005",
      "toDt": "05/2016",
      "orgNm": "RAYMOND JAMES FINANCIAL SERVICES, INC.",
      "city": "SIOUX FALLS",
      "state": 43,
      "stateSpecified": true
    },
    {
      "fromDt": "04/2006",
      "toDt": "05/2016",
      "orgNm": "CORTRUST BANK",
      "city": "SIOUX FALLS",
      "state": 43,
      "stateSpecified": true
    },
    {
      "fromDt": "01/2009",
      "toDt": "05/2016",
      "orgNm": "RAYMOND JAMES FINANCIAL SERVICES ADVISORS, INC",
      "city": "SIOUX FALLS",
      "state": 43,
      "stateSpecified": true
    },
    {
      "fromDt": "12/2011",
      "toDt": "06/2013",
      "orgNm": "VISALUS",
      "city": "SIOUX FALLS",
      "state": 43,
      "stateSpecified": true
    },
    {
      "fromDt": "05/2016",
      "toDt": null,
      "orgNm": "CHARLES SCHWAB & CO., INC.",
      "city": "SIOUX FALLS",
      "state": 43,
      "stateSpecified": true
    }
  ],
  "OthrBuss": {
    "OthrBus": {
      "desc": "THE COUNTRY CLUB OF SIOUX FALLS (SPORTS/PHYSICAL EDUCATION), SIOUX FALLS, SOUTH DAKOTA, NOT INVESTMENT RELATED, 06/01/2014, BOARD OF DIRECTORS, LESS THAN 20 HOURS PER MONTH, 0 HOURS DURING SECURITIES TRADING HOURS."
    }
  },
  "DRPs": []
}