{
  "Info": {
    "lastNm": "GUTHEIL",
    "firstNm": "TODD",
    "midNm": "MICHAEL",
    "sufNm": null,
    "indvlPK": "3005692",
    "actvAGReg": 0,
    "link": "http://www.adviserinfo.sec.gov/IAPD/Individual/3005692"
  },
  "OthrNms": [],
  "CrntEmps": [
    {
      "CrntRgstns": [
        {
          "regAuth": 6,
          "regCat": 0,
          "st": 2,
          "stDt": "2006-03-20T00:00:00"
        }
      ],
      "BrnchOfLocs": [
        {
          "str1": "ONE CORPORATE DRIVE",
          "str2": null,
          "city": "SHELTON",
          "state": 6,
          "stateSpecified": true,
          "cntry": "United States",
          "postlCd": "06484"
        }
      ],
      "orgNm": "AST INVESTMENT SERVICES, INC.",
      "orgPK": "108897",
      "str1": "ONE CORPORATE DRIVE",
      "str2": null,
      "city": "SHELTON",
      "state": 6,
      "stateSpecified": true,
      "cntry": "United States",
      "postlCd": "06484"
    }
  ],
  "Exms": [
    {
      "exmCd": 0,
      "exmNm": "Uniform Securities Agent State Law Examination",
      "exmDt": "1998-04-22T00:00:00",
      "exmDtSpecified": true
    },
    {
      "exmCd": 2,
      "exmNm": "Uniform Investment Adviser Law Examination",
      "exmDt": "2001-03-28T00:00:00",
      "exmDtSpecified": true
    }
  ],
  "Dsgntns": [],
  "PrevRgstns": [
    {
      "BrnchOfLocs": [
        {
          "city": "SHELTON",
          "state": 6,
          "stateSpecified": true
        }
      ],
      "orgNm": "AMERICAN SKANDIA ADVISORY SERVICES, INC.",
      "orgPK": "109211",
      "regBeginDt": "2003-02-26T00:00:00",
      "regBeginDtSpecified": true,
      "regEndDt": "2004-03-25T00:00:00",
      "regEndDtSpecified": true
    }
  ],
  "EmpHss": [
    {
      "fromDt": "08/1997",
      "toDt": "11/2007",
      "orgNm": "AMERICAN SKANDIA MARKETING, INC.",
      "city": "SHELTON",
      "state": 6,
      "stateSpecified": true
    },
    {
      "fromDt": "05/2003",
      "toDt": null,
      "orgNm": "PRUDENTIAL INSURANCE COMPANY OF AMERICA",
      "city": "SHELTON",
      "state": 6,
      "stateSpecified": true
    },
    {
      "fromDt": "03/2006",
      "toDt": null,
      "orgNm": "AST INVESTMENT SERVICES",
      "city": "SHELTON",
      "state": 6,
      "stateSpecified": true
    },
    {
      "fromDt": "11/2007",
      "toDt": null,
      "orgNm": "PRUDENTIAL ANNUITIES DISTRIBUTORS",
      "city": "SHELTON",
      "state": 6,
      "stateSpecified": true
    }
  ],
  "OthrBuss": {
    "OthrBus": null
  },
  "DRPs": []
}