{
  "Info": {
    "lastNm": "TAYLOR",
    "firstNm": "ROBERT",
    "midNm": "PATRICK",
    "sufNm": null,
    "indvlPK": "3007603",
    "actvAGReg": 1,
    "link": "http://www.adviserinfo.sec.gov/IAPD/Individual/3007603"
  },
  "OthrNms": [
    {
      "lastNm": "TAYLOR",
      "firstNm": "ROBERT",
      "midNm": "PATRICK",
      "sufNm": null
    }
  ],
  "CrntEmps": [
    {
      "CrntRgstns": [
        {
          "regAuth": 32,
          "regCat": 0,
          "st": 2,
          "stDt": "2015-11-30T00:00:00"
        }
      ],
      "BrnchOfLocs": [
        {
          "str1": "795 Franklin Avenue Bldg C, Ste 202",
          "str2": null,
          "city": "Franklin Lakes",
          "state": 32,
          "stateSpecified": true,
          "cntry": "United States",
          "postlCd": "07417"
        }
      ],
      "orgNm": "CWM, LLC",
      "orgPK": "155344",
      "str1": "13321 CALIFORNIA STREET, SUITE 100",
      "str2": null,
      "city": "OMAHA",
      "state": 30,
      "stateSpecified": true,
      "cntry": "United States",
      "postlCd": "68154"
    }
  ],
  "Exms": [
    {
      "exmCd": 2,
      "exmNm": "Uniform Investment Adviser Law Examination",
      "exmDt": "2015-11-20T00:00:00",
      "exmDtSpecified": true
    }
  ],
  "Dsgntns": [],
  "PrevRgstns": [],
  "EmpHss": [
    {
      "fromDt": "04/2005",
      "toDt": "12/2006",
      "orgNm": "Hewlett Packard",
      "city": "New York",
      "state": 35,
      "stateSpecified": true
    },
    {
      "fromDt": "01/2007",
      "toDt": "10/2007",
      "orgNm": "Coradiant",
      "city": "San Diego",
      "state": 4,
      "stateSpecified": true
    },
    {
      "fromDt": "11/2007",
      "toDt": "03/2015",
      "orgNm": "Citigroup",
      "city": "New York",
      "state": 35,
      "stateSpecified": true
    },
    {
      "fromDt": "03/2015",
      "toDt": null,
      "orgNm": "LPL FINANCIAL LLC",
      "city": "FRANKLIN LAKES",
      "state": 32,
      "stateSpecified": true
    },
    {
      "fromDt": "03/2015",
      "toDt": null,
      "orgNm": "Taylor Financial Group",
      "city": "Franklin Lakes",
      "state": 32,
      "stateSpecified": true
    },
    {
      "fromDt": "06/2015",
      "toDt": null,
      "orgNm": "CWM, LLC",
      "city": "OMAHA",
      "state": 30,
      "stateSpecified": true
    }
  ],
  "OthrBuss": {
    "OthrBus": null
  },
  "DRPs": []
}