{
  "Info": {
    "lastNm": "STEVES",
    "firstNm": "SCOTT",
    "midNm": "TAYLOR",
    "sufNm": null,
    "indvlPK": "3013137",
    "actvAGReg": 0,
    "link": "http://www.adviserinfo.sec.gov/IAPD/Individual/3013137"
  },
  "OthrNms": [],
  "CrntEmps": [
    {
      "CrntRgstns": [
        {
          "regAuth": 45,
          "regCat": 0,
          "st": 2,
          "stDt": "2016-04-21T00:00:00"
        }
      ],
      "BrnchOfLocs": [
        {
          "str1": "1900 W LOOP SOUTH",
          "str2": "SUITE 1600",
          "city": "HOUSTON",
          "state": 45,
          "stateSpecified": true,
          "cntry": "United States",
          "postlCd": "77027"
        }
      ],
      "orgNm": "KESTRA ADVISORY SERVICES, LLC",
      "orgPK": "283330",
      "str1": "1250 CAPITAL OF TEXAS HWY S BUILDING 2",
      "str2": "SUITE 125",
      "city": "AUSTIN",
      "state": 45,
      "stateSpecified": true,
      "cntry": "United States",
      "postlCd": "78746"
    },
    {
      "CrntRgstns": [
        {
          "regAuth": 45,
          "regCat": 0,
          "st": 2,
          "stDt": "2013-02-14T00:00:00"
        }
      ],
      "BrnchOfLocs": [
        {
          "str1": "1900 W LOOP SOUTH",
          "str2": "SUITE 1600",
          "city": "HOUSTON",
          "state": 45,
          "stateSpecified": true,
          "cntry": "United States",
          "postlCd": "77027"
        }
      ],
      "orgNm": "KESTRA INVESTMENT SERVICES, LLC",
      "orgPK": "42046",
      "str1": "1250 CAPITAL OF TEXAS HIGHWAY S.",
      "str2": "2-125",
      "city": "AUSTIN",
      "state": 45,
      "stateSpecified": true,
      "cntry": "United States",
      "postlCd": "78746"
    }
  ],
  "Exms": [
    {
      "exmCd": 0,
      "exmNm": "Uniform Securities Agent State Law Examination",
      "exmDt": "1998-03-09T00:00:00",
      "exmDtSpecified": true
    }
  ],
  "Dsgntns": [
    {
      "dsgntnNm": "Certified Financial Planner"
    }
  ],
  "PrevRgstns": [
    {
      "BrnchOfLocs": [
        {
          "city": "HOUSTON",
          "state": 45,
          "stateSpecified": true
        },
        {
          "city": "HOUSTON",
          "state": 45,
          "stateSpecified": true
        },
        {
          "city": "LAKEWAY",
          "state": 45,
          "stateSpecified": true
        }
      ],
      "orgNm": "VOYA FINANCIAL ADVISORS, INC.",
      "orgPK": "2882",
      "regBeginDt": "2006-01-30T00:00:00",
      "regBeginDtSpecified": true,
      "regEndDt": "2008-11-03T00:00:00",
      "regEndDtSpecified": true
    }
  ],
  "EmpHss": [
    {
      "fromDt": "04/2000",
      "toDt": "04/2008",
      "orgNm": "THE STEVES FINANCIAL GROUP",
      "city": "HOUSTON",
      "state": 45,
      "stateSpecified": true
    },
    {
      "fromDt": "12/2005",
      "toDt": "10/2008",
      "orgNm": "ING FINANCIAL PARTNERS",
      "city": "HOUSTON",
      "state": 45,
      "stateSpecified": true
    },
    {
      "fromDt": "05/2008",
      "toDt": null,
      "orgNm": "ARTHUR J GALLAGHER & CO",
      "city": "HOUSTON",
      "state": 45,
      "stateSpecified": true
    },
    {
      "fromDt": "10/2008",
      "toDt": "04/2016",
      "orgNm": "NFP SECURITIES, INC.",
      "city": "AUSTIN",
      "state": 45,
      "stateSpecified": true
    },
    {
      "fromDt": "04/2016",
      "toDt": null,
      "orgNm": "KESTRA FINANCIAL SERVICES, INC",
      "city": "Austin",
      "state": 45,
      "stateSpecified": true
    }
  ],
  "OthrBuss": {
    "OthrBus": {
      "desc": "Business Name: Steves Investments, LLC Investment Related: No Address: PO Box 342259 Austin TX 78734 Nature of Business: Real Estate   Position, Title or Relationship: Owner Start Date: 1/1/2006 Hours per month: 0% - 10% (0 - 16 hours) Hours per month during trading hours: 0% - 10% (0 - 14 hours) Duties: Personal Rental Property Investments Business Name: Taylor-Steves Furn Co, Inc. Investment Related: No Address: 1521 Sixth Street Bay City TX 77414 Nature of Business: Other Other/None of the Above Furniture Sales Retail Position, Title or Relationship: Other,Moved to Other from Officer Start Date: 8/25/1987 Hours per month: 0% - 10% (0 - 16 hours) Hours per month during trading hours: 0% - 10% (0 - 14 hours) Duties: Family Business, Business Advisor to Family Management Business Name: Gallagher Benefit Services, Inc. Investment Related: Yes Address: 1900 West Loop South Suite 1600 Houston TX 77027 Nature of Business: Insurance; Investment Advisory (RIA, IAR, Financial Planning, etc.)   Position, Title or Relationship: Employee Start Date: 5/1/2008 Hours per month: 100%+ (More than 160 hours) Hours per month during trading hours: 91% - 100% (127 - 140 hours) Duties: Retirement Plan Sales and Service Business Name: Waters Edge Restaurant Group, LLC Investment Related: No Address: 105 Yacht Club Cove Lakeway TX 78734 Nature of Business: Other Other/None of the Above Restaurant Position, Title or Relationship: Partner Start Date: 1/1/2008 Hours per month: 0% - 10% (0 - 16 hours) Hours per month during trading hours: 0% - 10% (0 - 14 hours) Duties: Passive Management/OwnershipBusiness Name: Kestra Advisory Services, LLC Investment Related: Yes Address: 1250 Capital of Texas Highway, Building 2 Suite 125 Austin TX 78746 Nature of Business: Investment Advisory services through Kestra Advisory Services, LLC   Position, Title or Relationship: Investment Advisor Representative Start Date: 4/4/2016 Hours per month: Up to 100% (0 to 160 hours) Hours per month during trading hours: Up to 100% (0 to 160 hours) Duties: Investment advisory services"
    }
  },
  "DRPs": []
}