{
  "Info": {
    "lastNm": "FRASER",
    "firstNm": "BARBARA",
    "midNm": "LEACH",
    "sufNm": null,
    "indvlPK": "3021257",
    "actvAGReg": 0,
    "link": "http://www.adviserinfo.sec.gov/IAPD/Individual/3021257"
  },
  "OthrNms": [],
  "CrntEmps": [
    {
      "CrntRgstns": [
        {
          "regAuth": 45,
          "regCat": 0,
          "st": 3,
          "stDt": "2009-06-15T00:00:00"
        }
      ],
      "BrnchOfLocs": [
        {
          "str1": "400 LINDEN OAKS",
          "str2": null,
          "city": "ROCHESTER",
          "state": 35,
          "stateSpecified": true,
          "cntry": "United States",
          "postlCd": "14625"
        }
      ],
      "orgNm": "UBS FINANCIAL SERVICES INC.",
      "orgPK": "8174",
      "str1": "1200 HARBOR BOULEVARD",
      "str2": null,
      "city": "WEEHAWKEN",
      "state": 32,
      "stateSpecified": true,
      "cntry": "United States",
      "postlCd": "07086"
    }
  ],
  "Exms": [
    {
      "exmCd": 0,
      "exmNm": "Uniform Securities Agent State Law Examination",
      "exmDt": "1998-05-14T00:00:00",
      "exmDtSpecified": true
    },
    {
      "exmCd": 2,
      "exmNm": "Uniform Investment Adviser Law Examination",
      "exmDt": "1998-08-31T00:00:00",
      "exmDtSpecified": true
    }
  ],
  "Dsgntns": [],
  "PrevRgstns": [],
  "EmpHss": [
    {
      "fromDt": "02/1998",
      "toDt": "02/2009",
      "orgNm": "CITIGROUP GLOBAL MARKETS INC.",
      "city": "ROCHESTER",
      "state": 35,
      "stateSpecified": true
    },
    {
      "fromDt": "02/2009",
      "toDt": null,
      "orgNm": "UBS FINANCIAL SERVICES INC",
      "city": "ROCHESTER",
      "state": 35,
      "stateSpecified": true
    }
  ],
  "OthrBuss": {
    "OthrBus": null
  },
  "DRPs": [
    {
      "hasRegAction": 1,
      "hasRegActionSpecified": true,
      "hasCriminal": 1,
      "hasCriminalSpecified": true,
      "hasBankrupt": 1,
      "hasBankruptSpecified": true,
      "hasCivilJudc": 1,
      "hasCivilJudcSpecified": true,
      "hasBond": 1,
      "hasBondSpecified": true,
      "hasJudgment": 1,
      "hasJudgmentSpecified": true,
      "hasInvstgn": 1,
      "hasInvstgnSpecified": true,
      "hasCustComp": 0,
      "hasCustCompSpecified": true,
      "hasTermination": 1,
      "hasTerminationSpecified": true
    }
  ]
}