{
  "Info": {
    "lastNm": "Steen",
    "firstNm": "Marnie",
    "midNm": null,
    "sufNm": null,
    "indvlPK": "3023020",
    "actvAGReg": 0,
    "link": "http://www.adviserinfo.sec.gov/IAPD/Individual/3023020"
  },
  "OthrNms": [
    {
      "lastNm": "MOORE",
      "firstNm": "MARNIE",
      "midNm": null,
      "sufNm": null
    },
    {
      "lastNm": "MOORE",
      "firstNm": "MARNIE",
      "midNm": "WILSON",
      "sufNm": null
    },
    {
      "lastNm": "STEEN",
      "firstNm": "MARNIE",
      "midNm": "WILSON",
      "sufNm": null
    },
    {
      "lastNm": "WILSON",
      "firstNm": "MARNIE",
      "midNm": "ANN",
      "sufNm": null
    }
  ],
  "CrntEmps": [
    {
      "CrntRgstns": [
        {
          "regAuth": 44,
          "regCat": 0,
          "st": 2,
          "stDt": "2014-09-25T00:00:00"
        }
      ],
      "BrnchOfLocs": [
        {
          "str1": "1211 MURFREESBORO RD",
          "str2": null,
          "city": "FRANKLIN",
          "state": 44,
          "stateSpecified": true,
          "cntry": "United States",
          "postlCd": "37064"
        }
      ],
      "orgNm": "MERRILL LYNCH, PIERCE, FENNER & SMITH INCORPORATED",
      "orgPK": "7691",
      "str1": "ONE BRYANT PARK",
      "str2": null,
      "city": "NEW YORK",
      "state": 35,
      "stateSpecified": true,
      "cntry": "United States",
      "postlCd": "10036"
    }
  ],
  "Exms": [
    {
      "exmCd": 0,
      "exmNm": "Uniform Securities Agent State Law Examination",
      "exmDt": "2009-04-27T00:00:00",
      "exmDtSpecified": true
    },
    {
      "exmCd": 3,
      "exmNm": "Uniform Combined State Law Examination",
      "exmDt": "2011-05-20T00:00:00",
      "exmDtSpecified": true
    }
  ],
  "Dsgntns": [],
  "PrevRgstns": [
    {
      "BrnchOfLocs": [
        {
          "city": "NASHVILLE",
          "state": 44,
          "stateSpecified": true
        }
      ],
      "orgNm": "SUNTRUST INVESTMENT SERVICES, INC.",
      "orgPK": "17499",
      "regBeginDt": "2011-05-23T00:00:00",
      "regBeginDtSpecified": true,
      "regEndDt": "2014-09-02T00:00:00",
      "regEndDtSpecified": true
    }
  ],
  "EmpHss": [
    {
      "fromDt": "05/2005",
      "toDt": "06/2009",
      "orgNm": "JPMORGAN CHASE BANK",
      "city": "LOUISVILLE",
      "state": 18,
      "stateSpecified": true
    },
    {
      "fromDt": "03/2009",
      "toDt": "03/2009",
      "orgNm": "J.P.MORGAN SECURITIES INC.",
      "city": "LOUISVILLE",
      "state": 18,
      "stateSpecified": true
    },
    {
      "fromDt": "07/2009",
      "toDt": "11/2009",
      "orgNm": "USBANK",
      "city": "NASHVILLE",
      "state": 44,
      "stateSpecified": true
    },
    {
      "fromDt": "11/2009",
      "toDt": "03/2011",
      "orgNm": "BANC OF AMERICA, NA",
      "city": "CHATTANOOGA",
      "state": 44,
      "stateSpecified": true
    },
    {
      "fromDt": "11/2009",
      "toDt": "03/2011",
      "orgNm": "MERRILL LYNCH, PIERCE, FENNER & SMITH INCORPORATED",
      "city": "CHATTANOOGA",
      "state": 44,
      "stateSpecified": true
    },
    {
      "fromDt": "03/2011",
      "toDt": "09/2014",
      "orgNm": "SUNTRUST BANK",
      "city": "NASHVILLE",
      "state": 44,
      "stateSpecified": true
    },
    {
      "fromDt": "03/2011",
      "toDt": "09/2014",
      "orgNm": "SUNTRUST INVESTMENT SERVICES",
      "city": "NASHVILLE",
      "state": 44,
      "stateSpecified": true
    },
    {
      "fromDt": "09/2014",
      "toDt": null,
      "orgNm": "BANK OF AMERICA N.A.",
      "city": "NASHVILLE",
      "state": 44,
      "stateSpecified": true
    },
    {
      "fromDt": "09/2014",
      "toDt": null,
      "orgNm": "MERRILL LYNCH, PIERCE, FENNER & SMITH INCORPORATED",
      "city": "NASHVILLE",
      "state": 44,
      "stateSpecified": true
    }
  ],
  "OthrBuss": {
    "OthrBus": null
  },
  "DRPs": []
}