{
  "Info": {
    "lastNm": "SCHOEN",
    "firstNm": "FRANK",
    "midNm": "JAMES",
    "sufNm": null,
    "indvlPK": "3024903",
    "actvAGReg": 0,
    "link": "http://www.adviserinfo.sec.gov/IAPD/Individual/3024903"
  },
  "OthrNms": [],
  "CrntEmps": [
    {
      "CrntRgstns": [
        {
          "regAuth": 15,
          "regCat": 0,
          "st": 2,
          "stDt": "2012-01-06T00:00:00"
        }
      ],
      "BrnchOfLocs": [
        {
          "str1": "3501 ALGONQUIN ROAD",
          "str2": "SUITE 290",
          "city": "ROLLING MEADOWS",
          "state": 15,
          "stateSpecified": true,
          "cntry": "United States",
          "postlCd": "60008"
        }
      ],
      "orgNm": "TRANSAMERICA FINANCIAL ADVISORS, INC",
      "orgPK": "16164",
      "str1": "570 CARILLON PARKWAY",
      "str2": null,
      "city": "ST PETERSBURG",
      "state": 9,
      "stateSpecified": true,
      "cntry": "United States",
      "postlCd": "33716-1202"
    }
  ],
  "Exms": [
    {
      "exmCd": 0,
      "exmNm": "Uniform Securities Agent State Law Examination",
      "exmDt": "1998-04-13T00:00:00",
      "exmDtSpecified": true
    },
    {
      "exmCd": 2,
      "exmNm": "Uniform Investment Adviser Law Examination",
      "exmDt": "2011-03-16T00:00:00",
      "exmDtSpecified": true
    }
  ],
  "Dsgntns": [],
  "PrevRgstns": [
    {
      "BrnchOfLocs": [
        {
          "city": "EAST DUNDEE",
          "state": 15,
          "stateSpecified": true
        }
      ],
      "orgNm": "INVESTMENT ADVISORS INTERNATIONAL, INC.",
      "orgPK": "139233",
      "regBeginDt": "2011-06-14T00:00:00",
      "regBeginDtSpecified": true,
      "regEndDt": "2012-01-06T00:00:00",
      "regEndDtSpecified": true
    }
  ],
  "EmpHss": [
    {
      "fromDt": "06/2001",
      "toDt": null,
      "orgNm": "WORLD FINANCIAL GROUP, INC.",
      "city": "EAST DUNDEE",
      "state": 15,
      "stateSpecified": true
    },
    {
      "fromDt": "09/2004",
      "toDt": "08/2007",
      "orgNm": "U.S. ARMY",
      "city": "FT SHERIDON",
      "state": 15,
      "stateSpecified": true
    },
    {
      "fromDt": "01/2006",
      "toDt": "01/2012",
      "orgNm": "WORLD GROUP SECURITIES, INC.",
      "city": "EAST DUNDEE",
      "state": 15,
      "stateSpecified": true
    },
    {
      "fromDt": "01/2007",
      "toDt": "10/2015",
      "orgNm": "ALL KIDS",
      "city": "SPRINGFIELD",
      "state": 15,
      "stateSpecified": true
    },
    {
      "fromDt": "10/2007",
      "toDt": null,
      "orgNm": "WEST SUBURBAN COMPANIES",
      "city": "OAKBROOK",
      "state": 15,
      "stateSpecified": true
    },
    {
      "fromDt": "10/2009",
      "toDt": null,
      "orgNm": "THE UNITED TEAMS OF CHICAGO",
      "city": "SOUTH BARRINGTON",
      "state": 15,
      "stateSpecified": true
    },
    {
      "fromDt": "05/2010",
      "toDt": "10/2012",
      "orgNm": "INSURR ME TOO",
      "city": "LINCOLNSHIRE",
      "state": 15,
      "stateSpecified": true
    },
    {
      "fromDt": "06/2011",
      "toDt": "01/2012",
      "orgNm": "INVESTMENT ADVISORS INTERNATIONAL",
      "city": "EAST DUNDEE",
      "state": 15,
      "stateSpecified": true
    },
    {
      "fromDt": "01/2012",
      "toDt": null,
      "orgNm": "TRANSAMERICA FINANCIAL ADVISORS, INC",
      "city": "EAST DUNDEE",
      "state": 15,
      "stateSpecified": true
    },
    {
      "fromDt": "03/2012",
      "toDt": "10/2015",
      "orgNm": "THE HEALTH EXCHANGE",
      "city": "ROLLING MEADOWS",
      "state": 15,
      "stateSpecified": true
    },
    {
      "fromDt": "02/2013",
      "toDt": "10/2015",
      "orgNm": "THE UTC TAXBUSTERS",
      "city": "ROLLING MEADOWS",
      "state": 15,
      "stateSpecified": true
    },
    {
      "fromDt": "02/2014",
      "toDt": "10/2015",
      "orgNm": "DEBTMERICA",
      "city": "SANTA ANA",
      "state": 4,
      "stateSpecified": true
    }
  ],
  "OthrBuss": {
    "OthrBus": {
      "desc": "WEST SURBURBAN COMPANIES, OAKBROOK, IL, NOT INVESTMENT RELATED, TAX PREPERATIONS, 30% TIME DEVOTED   THE UNITED TEAMS OF CHICAGO,SOUTH BARRINGTON, IL, START DATE 10-20-09, NOT INVESTMENT RELATED, SOLE PROPRITERSHIP"
    }
  },
  "DRPs": [
    {
      "hasRegAction": 1,
      "hasRegActionSpecified": true,
      "hasCriminal": 0,
      "hasCriminalSpecified": true,
      "hasBankrupt": 1,
      "hasBankruptSpecified": true,
      "hasCivilJudc": 1,
      "hasCivilJudcSpecified": true,
      "hasBond": 1,
      "hasBondSpecified": true,
      "hasJudgment": 0,
      "hasJudgmentSpecified": true,
      "hasInvstgn": 1,
      "hasInvstgnSpecified": true,
      "hasCustComp": 1,
      "hasCustCompSpecified": true,
      "hasTermination": 1,
      "hasTerminationSpecified": true
    }
  ]
}