{
  "Info": {
    "lastNm": "LAPPIN",
    "firstNm": "JOAN",
    "midNm": "BERGER",
    "sufNm": null,
    "indvlPK": "302479",
    "actvAGReg": 1,
    "link": "http://www.adviserinfo.sec.gov/IAPD/Individual/302479"
  },
  "OthrNms": [
    {
      "lastNm": "BERGER",
      "firstNm": "JOAN",
      "midNm": "ELLEN",
      "sufNm": null
    },
    {
      "lastNm": "LAPPIN",
      "firstNm": "JOAN",
      "midNm": "ELLEN",
      "sufNm": null
    }
  ],
  "CrntEmps": [
    {
      "CrntRgstns": [
        {
          "regAuth": 39,
          "regCat": 0,
          "st": 2,
          "stDt": "2005-01-03T00:00:00"
        },
        {
          "regAuth": 19,
          "regCat": 0,
          "st": 2,
          "stDt": "2014-03-11T00:00:00"
        },
        {
          "regAuth": 9,
          "regCat": 0,
          "st": 2,
          "stDt": "2015-09-17T00:00:00"
        }
      ],
      "BrnchOfLocs": [
        {
          "str1": "8586 POTTER PARK DRIVE",
          "str2": "SUITE 105",
          "city": "SARASOTA",
          "state": 9,
          "stateSpecified": true,
          "cntry": "United States",
          "postlCd": "34238-5439"
        }
      ],
      "orgNm": "GRAMERCY CAPITAL MANAGEMENT",
      "orgPK": "120324",
      "str1": "8586 POTTER PARK DRIVE",
      "str2": "SUITE 105",
      "city": "SARASOTA",
      "state": 9,
      "stateSpecified": true,
      "cntry": "United States",
      "postlCd": "34238-5439"
    }
  ],
  "Exms": [
    {
      "exmCd": 0,
      "exmNm": "Uniform Securities Agent State Law Examination",
      "exmDt": "1989-03-07T00:00:00",
      "exmDtSpecified": true
    },
    {
      "exmCd": 2,
      "exmNm": "Uniform Investment Adviser Law Examination",
      "exmDt": "1991-09-25T00:00:00",
      "exmDtSpecified": true
    }
  ],
  "Dsgntns": [
    {
      "dsgntnNm": "Chartered Financial Analyst"
    }
  ],
  "PrevRgstns": [],
  "EmpHss": [
    {
      "fromDt": "06/1986",
      "toDt": null,
      "orgNm": "#IA GRAMERCY CAPITAL MANAGEMENT CORPORAT",
      "city": "NEW YORK",
      "state": 35,
      "stateSpecified": true
    }
  ],
  "OthrBuss": {
    "OthrBus": null
  },
  "DRPs": []
}