{
  "Info": {
    "lastNm": "HUFFCUTT",
    "firstNm": "DAVID",
    "midNm": "GLEN",
    "sufNm": null,
    "indvlPK": "3025490",
    "actvAGReg": 0,
    "link": "http://www.adviserinfo.sec.gov/IAPD/Individual/3025490"
  },
  "OthrNms": [],
  "CrntEmps": [
    {
      "CrntRgstns": [
        {
          "regAuth": 24,
          "regCat": 0,
          "st": 2,
          "stDt": "2014-01-22T00:00:00"
        }
      ],
      "BrnchOfLocs": [
        {
          "str1": "7755 3RD STREET NORTH",
          "str2": null,
          "city": "OAKDALE",
          "state": 24,
          "stateSpecified": true,
          "cntry": "United States",
          "postlCd": "55128"
        }
      ],
      "orgNm": "WOODBURY FINANCIAL SERVICES, INC.",
      "orgPK": "421",
      "str1": "7755 3RD STREET NORTH",
      "str2": null,
      "city": "OAKDALE",
      "state": 24,
      "stateSpecified": true,
      "cntry": "United States",
      "postlCd": "55128"
    }
  ],
  "Exms": [
    {
      "exmCd": 0,
      "exmNm": "Uniform Securities Agent State Law Examination",
      "exmDt": "1998-04-20T00:00:00",
      "exmDtSpecified": true
    },
    {
      "exmCd": 3,
      "exmNm": "Uniform Combined State Law Examination",
      "exmDt": "2006-02-02T00:00:00",
      "exmDtSpecified": true
    }
  ],
  "Dsgntns": [],
  "PrevRgstns": [],
  "EmpHss": [
    {
      "fromDt": "05/2005",
      "toDt": "07/2007",
      "orgNm": "WOODBURY FINANCIAL SERVICES",
      "city": "WOODBURY",
      "state": 24,
      "stateSpecified": true
    },
    {
      "fromDt": "07/2007",
      "toDt": "10/2008",
      "orgNm": "NORTH STAR RESOURCE GROUP",
      "city": "MINNEAPOLIS",
      "state": 24,
      "stateSpecified": true
    },
    {
      "fromDt": "10/2008",
      "toDt": null,
      "orgNm": "WOODBURY FINANCIAL SERVICES, INC",
      "city": "WOODBURY",
      "state": 24,
      "stateSpecified": true
    }
  ],
  "OthrBuss": {
    "OthrBus": null
  },
  "DRPs": []
}