{
  "Info": {
    "lastNm": "BOUCHARD",
    "firstNm": "BRIAN",
    "midNm": "PETER",
    "sufNm": null,
    "indvlPK": "3030083",
    "actvAGReg": 0,
    "link": "http://www.adviserinfo.sec.gov/IAPD/Individual/3030083"
  },
  "OthrNms": [],
  "CrntEmps": [
    {
      "CrntRgstns": [
        {
          "regAuth": 41,
          "regCat": 0,
          "st": 2,
          "stDt": "2016-02-18T00:00:00"
        }
      ],
      "BrnchOfLocs": [
        {
          "str1": null,
          "str2": null,
          "city": "Avon",
          "state": 6,
          "stateSpecified": true,
          "cntry": "United States",
          "postlCd": null
        },
        {
          "str1": null,
          "str2": null,
          "city": "Narragansett",
          "state": 41,
          "stateSpecified": true,
          "cntry": "United States",
          "postlCd": null
        }
      ],
      "orgNm": "USAA INVESTMENT MANAGEMENT COMPANY",
      "orgPK": "5475",
      "str1": "9800 FREDERICKSBURG ROAD",
      "str2": null,
      "city": "SAN ANTONIO",
      "state": 45,
      "stateSpecified": true,
      "cntry": "United States",
      "postlCd": "78288-0227"
    }
  ],
  "Exms": [
    {
      "exmCd": 0,
      "exmNm": "Uniform Securities Agent State Law Examination",
      "exmDt": "1998-08-05T00:00:00",
      "exmDtSpecified": true
    },
    {
      "exmCd": 2,
      "exmNm": "Uniform Investment Adviser Law Examination",
      "exmDt": "1999-03-26T00:00:00",
      "exmDtSpecified": true
    }
  ],
  "Dsgntns": [],
  "PrevRgstns": [
    {
      "BrnchOfLocs": [
        {
          "city": "HARTFORD",
          "state": 6,
          "stateSpecified": true
        }
      ],
      "orgNm": "WS GRIFFITH SECURITIES, INC.",
      "orgPK": "10410",
      "regBeginDt": "2003-12-11T00:00:00",
      "regBeginDtSpecified": true,
      "regEndDt": "2004-08-27T00:00:00",
      "regEndDtSpecified": true
    },
    {
      "BrnchOfLocs": [
        {
          "city": "PROVIDENCE",
          "state": 41,
          "stateSpecified": true
        },
        {
          "city": "PROVIDENCE",
          "state": 41,
          "stateSpecified": true
        }
      ],
      "orgNm": "MERRILL LYNCH, PIERCE, FENNER & SMITH INCORPORATED",
      "orgPK": "7691",
      "regBeginDt": "2004-12-14T00:00:00",
      "regBeginDtSpecified": true,
      "regEndDt": "2008-04-02T00:00:00",
      "regEndDtSpecified": true
    },
    {
      "BrnchOfLocs": [
        {
          "city": "SANTA FE",
          "state": 33,
          "stateSpecified": true
        }
      ],
      "orgNm": "THORNBURG INVESTMENT MANAGEMENT INC",
      "orgPK": "106357",
      "regBeginDt": "2011-08-16T00:00:00",
      "regBeginDtSpecified": true,
      "regEndDt": "2015-08-12T00:00:00",
      "regEndDtSpecified": true
    },
    {
      "BrnchOfLocs": [
        {
          "city": "NARANGANSETT",
          "state": 41,
          "stateSpecified": true
        },
        {
          "city": "SAN FRANCISCO",
          "state": 4,
          "stateSpecified": true
        }
      ],
      "orgNm": "WELLS FARGO FUNDS MANAGEMENT, LLC",
      "orgPK": "110841",
      "regBeginDt": "2015-08-24T00:00:00",
      "regBeginDtSpecified": true,
      "regEndDt": "2015-11-30T00:00:00",
      "regEndDtSpecified": true
    }
  ],
  "EmpHss": [
    {
      "fromDt": "08/2004",
      "toDt": "04/2008",
      "orgNm": "MERRILL LYNCH, PIERCE, FENNER & SMITH INCORPORATED",
      "city": "HARTFORD",
      "state": 6,
      "stateSpecified": true
    },
    {
      "fromDt": "04/2008",
      "toDt": "02/2011",
      "orgNm": "MORGAN STANLEY & CO. INCORPORATED",
      "city": "PURCHASE",
      "state": 35,
      "stateSpecified": true
    },
    {
      "fromDt": "06/2009",
      "toDt": "02/2011",
      "orgNm": "MORGAN STANLEY SMITH BARNEY",
      "city": "PURCHASE",
      "state": 35,
      "stateSpecified": true
    },
    {
      "fromDt": "03/2011",
      "toDt": "08/2015",
      "orgNm": "THORNBURG SECURITIES CORPORATION",
      "city": "SANTA FE",
      "state": 33,
      "stateSpecified": true
    },
    {
      "fromDt": "08/2015",
      "toDt": "11/2015",
      "orgNm": "WELLS FARGO FUNDS DISTRIBUTOR",
      "city": "BOSTON",
      "state": 20,
      "stateSpecified": true
    },
    {
      "fromDt": "11/2015",
      "toDt": null,
      "orgNm": "USAA Investment Management Company",
      "city": "Narragansett",
      "state": 41,
      "stateSpecified": true
    }
  ],
  "OthrBuss": {
    "OthrBus": null
  },
  "DRPs": []
}