{
  "Info": {
    "lastNm": "WATSON",
    "firstNm": "BRYAN",
    "midNm": "EDWARD",
    "sufNm": null,
    "indvlPK": "3031222",
    "actvAGReg": 0,
    "link": "http://www.adviserinfo.sec.gov/IAPD/Individual/3031222"
  },
  "OthrNms": [],
  "CrntEmps": [
    {
      "CrntRgstns": [
        {
          "regAuth": 5,
          "regCat": 0,
          "st": 2,
          "stDt": "2003-12-17T00:00:00"
        }
      ],
      "BrnchOfLocs": [
        {
          "str1": "1999 BROADWAY - 8TH FLOOR",
          "str2": null,
          "city": "DENVER",
          "state": 15,
          "stateSpecified": true,
          "cntry": "United States",
          "postlCd": "80202"
        }
      ],
      "orgNm": "ENVESTNET | PMC",
      "orgPK": "111694",
      "str1": "35 EAST WACKER DRIVE, SUITE 2400",
      "str2": null,
      "city": "CHICAGO",
      "state": 15,
      "stateSpecified": true,
      "cntry": "United States",
      "postlCd": "60601-2206"
    }
  ],
  "Exms": [
    {
      "exmCd": 2,
      "exmNm": "Uniform Investment Adviser Law Examination",
      "exmDt": "2003-12-16T00:00:00",
      "exmDtSpecified": true
    }
  ],
  "Dsgntns": [],
  "PrevRgstns": [],
  "EmpHss": [
    {
      "fromDt": "05/2000",
      "toDt": null,
      "orgNm": "ENVESTNET ASSET MANAGEMENT, INC.",
      "city": "DENVER",
      "state": 5,
      "stateSpecified": true
    },
    {
      "fromDt": "05/2000",
      "toDt": null,
      "orgNm": "PORTFOLIO BROKERAGE SERVICES, INC.",
      "city": "DENVER",
      "state": 5,
      "stateSpecified": true
    }
  ],
  "OthrBuss": {
    "OthrBus": null
  },
  "DRPs": []
}