{
  "Info": {
    "lastNm": "FUNKHOUSER",
    "firstNm": "KRISTOFER",
    "midNm": "JOHN",
    "sufNm": null,
    "indvlPK": "3035249",
    "actvAGReg": 0,
    "link": "http://www.adviserinfo.sec.gov/IAPD/Individual/3035249"
  },
  "OthrNms": [
    {
      "lastNm": "FUNKHOUSER",
      "firstNm": "KRIS",
      "midNm": null,
      "sufNm": null
    },
    {
      "lastNm": "FUNKHOUSER",
      "firstNm": "KRISTOFER",
      "midNm": null,
      "sufNm": null
    },
    {
      "lastNm": "FUNKHOUSER",
      "firstNm": "KRTISTOPHER",
      "midNm": null,
      "sufNm": null
    }
  ],
  "CrntEmps": [
    {
      "CrntRgstns": [
        {
          "regAuth": 10,
          "regCat": 0,
          "st": 2,
          "stDt": "2004-10-20T00:00:00"
        }
      ],
      "BrnchOfLocs": [
        {
          "str1": "1155 PEACHTREE STREET, NE",
          "str2": "SUITE 800",
          "city": "ATLANTA",
          "state": 10,
          "stateSpecified": true,
          "cntry": "United States",
          "postlCd": "30309"
        }
      ],
      "orgNm": "SUNTRUST INVESTMENT SERVICES, INC.",
      "orgPK": "17499",
      "str1": "303 PEACHTREE CENTER AVENUE",
      "str2": "SUNTRUST GARDEN OFFICES SUITE 140",
      "city": "ATLANTA",
      "state": 10,
      "stateSpecified": true,
      "cntry": "United States",
      "postlCd": "30303"
    }
  ],
  "Exms": [
    {
      "exmCd": 0,
      "exmNm": "Uniform Securities Agent State Law Examination",
      "exmDt": "1998-04-20T00:00:00",
      "exmDtSpecified": true
    },
    {
      "exmCd": 2,
      "exmNm": "Uniform Investment Adviser Law Examination",
      "exmDt": "1998-12-11T00:00:00",
      "exmDtSpecified": true
    }
  ],
  "Dsgntns": [
    {
      "dsgntnNm": "Certified Financial Planner"
    }
  ],
  "PrevRgstns": [
    {
      "BrnchOfLocs": [
        {
          "city": "ATLANTA",
          "state": 10,
          "stateSpecified": true
        }
      ],
      "orgNm": "AMERIPRISE FINANCIAL SERVICES, INC.",
      "orgPK": "6363",
      "regBeginDt": "1999-01-29T00:00:00",
      "regBeginDtSpecified": true,
      "regEndDt": "2004-10-19T00:00:00",
      "regEndDtSpecified": true
    }
  ],
  "EmpHss": [
    {
      "fromDt": "10/2004",
      "toDt": "06/2009",
      "orgNm": "SUNTRUST SECURITIES, INC",
      "city": "ATLANTA",
      "state": 10,
      "stateSpecified": true
    },
    {
      "fromDt": "06/2009",
      "toDt": null,
      "orgNm": "SUNTRUST INVESTMENT SERVICES,INC",
      "city": "ATLANTA",
      "state": 10,
      "stateSpecified": true
    }
  ],
  "OthrBuss": {
    "OthrBus": null
  },
  "DRPs": []
}