{
  "Info": {
    "lastNm": "HOFMEISTER",
    "firstNm": "PHILIP",
    "midNm": "LOREN",
    "sufNm": null,
    "indvlPK": "3037124",
    "actvAGReg": 0,
    "link": "http://www.adviserinfo.sec.gov/IAPD/Individual/3037124"
  },
  "OthrNms": [],
  "CrntEmps": [
    {
      "CrntRgstns": [
        {
          "regAuth": 9,
          "regCat": 0,
          "st": 2,
          "stDt": "2015-04-29T00:00:00"
        }
      ],
      "BrnchOfLocs": [
        {
          "str1": "1250 PITTSFORD-VICTOR RD Bldg 200",
          "str2": "#190",
          "city": "PITTSFORD",
          "state": 35,
          "stateSpecified": true,
          "cntry": "United States",
          "postlCd": "14534-9500"
        }
      ],
      "orgNm": "CHARLES SCHWAB & CO., INC.",
      "orgPK": "5393",
      "str1": "211 MAIN STREET",
      "str2": null,
      "city": "SAN FRANCISCO",
      "state": 4,
      "stateSpecified": true,
      "cntry": "United States",
      "postlCd": "94105"
    }
  ],
  "Exms": [
    {
      "exmCd": 0,
      "exmNm": "Uniform Securities Agent State Law Examination",
      "exmDt": "1998-05-04T00:00:00",
      "exmDtSpecified": true
    },
    {
      "exmCd": 3,
      "exmNm": "Uniform Combined State Law Examination",
      "exmDt": "2005-07-14T00:00:00",
      "exmDtSpecified": true
    }
  ],
  "Dsgntns": [],
  "PrevRgstns": [
    {
      "BrnchOfLocs": [
        {
          "city": "CHARLOTTE",
          "state": 28,
          "stateSpecified": true
        },
        {
          "city": "ROCHESTER",
          "state": 35,
          "stateSpecified": true
        }
      ],
      "orgNm": "STRATEGIC ADVISERS, INC.",
      "orgPK": "104555",
      "regBeginDt": "2005-07-20T00:00:00",
      "regBeginDtSpecified": true,
      "regEndDt": "2015-04-14T00:00:00",
      "regEndDtSpecified": true
    }
  ],
  "EmpHss": [
    {
      "fromDt": "08/1998",
      "toDt": "03/2015",
      "orgNm": "FIDELITY BROKERAGE SERVICES, INC.",
      "city": "CINCINNATI",
      "state": 36,
      "stateSpecified": true
    },
    {
      "fromDt": "04/2015",
      "toDt": null,
      "orgNm": "CHARLES SCHWAB & CO., INC",
      "city": "PITTSFORD",
      "state": 35,
      "stateSpecified": true
    },
    {
      "fromDt": "04/2015",
      "toDt": null,
      "orgNm": "CHARLES SCHWAB BANK",
      "city": "PITTSFORD",
      "state": 35,
      "stateSpecified": true
    }
  ],
  "OthrBuss": {
    "OthrBus": {
      "desc": "CHARLES SCHWAB BANK, 1250 PITTSFORD VICTOR RD BLDG 200, PITTSFORD, NY  14534, INVESTMENT RELATED, DUAL EMPLOYEE, BANK PRODUCTS, REFERRALS OF HELOC, MORTGAGES AND INVESTOR CHECKING PRODUCTS FOR APPROXIMATELY 20 HOURS PER MONTH."
    }
  },
  "DRPs": []
}