{
  "Info": {
    "lastNm": "DAVEY",
    "firstNm": "DONALD",
    "midNm": "VINCENT",
    "sufNm": null,
    "indvlPK": "3038288",
    "actvAGReg": 1,
    "link": "http://www.adviserinfo.sec.gov/IAPD/Individual/3038288"
  },
  "OthrNms": [
    {
      "lastNm": "DAVEY",
      "firstNm": "DONALD",
      "midNm": null,
      "sufNm": null
    }
  ],
  "CrntEmps": [
    {
      "CrntRgstns": [
        {
          "regAuth": 9,
          "regCat": 0,
          "st": 2,
          "stDt": "2004-02-26T00:00:00"
        },
        {
          "regAuth": 45,
          "regCat": 0,
          "st": 3,
          "stDt": "2008-03-05T00:00:00"
        }
      ],
      "BrnchOfLocs": [
        {
          "str1": "200 FIRST STREET",
          "str2": "SUITE 204",
          "city": "NEPTUNE BEACH",
          "state": 9,
          "stateSpecified": true,
          "cntry": "United States",
          "postlCd": "32266"
        },
        {
          "str1": "200 FIRST STREET",
          "str2": "SUITE 204",
          "city": "NEPTUNE BEACH",
          "state": 9,
          "stateSpecified": true,
          "cntry": "United States",
          "postlCd": "32266"
        }
      ],
      "orgNm": "DISCIPLINED EQUITY MANAGEMENT, INC.",
      "orgPK": "129436",
      "str1": "200 FIRST STREET",
      "str2": "SUITE 204",
      "city": "NEPTUNE BEACH",
      "state": 9,
      "stateSpecified": true,
      "cntry": "United States",
      "postlCd": "32266"
    }
  ],
  "Exms": [
    {
      "exmCd": 2,
      "exmNm": "Uniform Investment Adviser Law Examination",
      "exmDt": "1998-03-24T00:00:00",
      "exmDtSpecified": true
    }
  ],
  "Dsgntns": [],
  "PrevRgstns": [],
  "EmpHss": [
    {
      "fromDt": "01/2004",
      "toDt": null,
      "orgNm": "DISCIPLINED EQUITY MANAGEMENT, INC.",
      "city": "NEPTUNE BEACH",
      "state": 9,
      "stateSpecified": true
    }
  ],
  "OthrBuss": {
    "OthrBus": {
      "desc": "DON DAVEY IS ALSO A MANAGING MEMBER OF DKSS SUBS, LLC, A FLORIDA LLC LOCATED AT 200 FIRST STREET SUITE 204, NEPTUNE BEACH, FL 32266.  THIS COMPANY IS A HOLDING COMPANY FOR MULTIPLE SUB SHOP FRANCHISES IN ORLANDO.  THIS BUSINESS IS NOT INVESTMENT RELATED.  MR. DAVEY IS AN INVESTOR IN THE COMPANY BUT HAS NO DAY-TO-DAY RESPONSIBILITIES FOR RUNNING THE OPERATIONS.  MR DAVEY SPENDS APPROXIMATELY 10 HOURS PER MONTH OVERSEEING THE BUSINESS AND REVIEWING THE FINANCIALS OF THIS COMPANY."
    }
  },
  "DRPs": []
}