{
  "Info": {
    "lastNm": "LAM",
    "firstNm": "DESMOND",
    "midNm": null,
    "sufNm": null,
    "indvlPK": "3041798",
    "actvAGReg": 0,
    "link": "http://www.adviserinfo.sec.gov/IAPD/Individual/3041798"
  },
  "OthrNms": [],
  "CrntEmps": [
    {
      "CrntRgstns": [
        {
          "regAuth": 20,
          "regCat": 0,
          "st": 2,
          "stDt": "2012-01-06T00:00:00"
        }
      ],
      "BrnchOfLocs": [
        {
          "str1": "45 DAN ROAD",
          "str2": "SUITE 10",
          "city": "CANTON",
          "state": 20,
          "stateSpecified": true,
          "cntry": "United States",
          "postlCd": "02021"
        }
      ],
      "orgNm": "TRANSAMERICA FINANCIAL ADVISORS, INC",
      "orgPK": "16164",
      "str1": "570 CARILLON PARKWAY",
      "str2": null,
      "city": "ST PETERSBURG",
      "state": 9,
      "stateSpecified": true,
      "cntry": "United States",
      "postlCd": "33716-1202"
    }
  ],
  "Exms": [
    {
      "exmCd": 0,
      "exmNm": "Uniform Securities Agent State Law Examination",
      "exmDt": "1998-05-07T00:00:00",
      "exmDtSpecified": true
    },
    {
      "exmCd": 2,
      "exmNm": "Uniform Investment Adviser Law Examination",
      "exmDt": "2006-06-01T00:00:00",
      "exmDtSpecified": true
    }
  ],
  "Dsgntns": [],
  "PrevRgstns": [
    {
      "BrnchOfLocs": [
        {
          "city": "QUINCY",
          "state": 20,
          "stateSpecified": true
        }
      ],
      "orgNm": "INVESTMENT ADVISORS INTERNATIONAL, INC.",
      "orgPK": "139233",
      "regBeginDt": "2006-12-19T00:00:00",
      "regBeginDtSpecified": true,
      "regEndDt": "2012-01-06T00:00:00",
      "regEndDtSpecified": true
    }
  ],
  "EmpHss": [
    {
      "fromDt": "06/2001",
      "toDt": null,
      "orgNm": "WORLD FINANCIAL GROUP, INC.",
      "city": "CANTON",
      "state": 20,
      "stateSpecified": true
    },
    {
      "fromDt": "04/2002",
      "toDt": "01/2012",
      "orgNm": "WORLD GROUP SECURITIES, INC.",
      "city": "QUINCY",
      "state": 20,
      "stateSpecified": true
    },
    {
      "fromDt": "09/2002",
      "toDt": "02/2008",
      "orgNm": "DIRECT FINANCE CORP.",
      "city": "HANOVER",
      "state": 20,
      "stateSpecified": true
    },
    {
      "fromDt": "08/2003",
      "toDt": null,
      "orgNm": "OCEAN INTERNATIONAL TRADING",
      "city": "RANDOLPH",
      "state": 20,
      "stateSpecified": true
    },
    {
      "fromDt": "09/2005",
      "toDt": "12/2007",
      "orgNm": "R.C.P-RANDOLPH COMMUNITY PARTNERSHIP",
      "city": "RANDOLPH",
      "state": 20,
      "stateSpecified": true
    },
    {
      "fromDt": "11/2006",
      "toDt": "01/2012",
      "orgNm": "INVESTMENT ADVISORS INTERNATIONAL, INC.",
      "city": "QUINCY",
      "state": 20,
      "stateSpecified": true
    },
    {
      "fromDt": "06/2011",
      "toDt": null,
      "orgNm": "RENTAL PROPERTY",
      "city": "RANDOLPH",
      "state": 20,
      "stateSpecified": true
    },
    {
      "fromDt": "01/2012",
      "toDt": null,
      "orgNm": "TRANSAMERICA FINANCIAL ADVISORS, INC",
      "city": "CANTON",
      "state": 20,
      "stateSpecified": true
    }
  ],
  "OthrBuss": {
    "OthrBus": null
  },
  "DRPs": []
}