{
  "Info": {
    "lastNm": "GREEN",
    "firstNm": "JOSEPH",
    "midNm": "L",
    "sufNm": null,
    "indvlPK": "3049208",
    "actvAGReg": 0,
    "link": "http://www.adviserinfo.sec.gov/IAPD/Individual/3049208"
  },
  "OthrNms": [
    {
      "lastNm": "GREEN",
      "firstNm": "JOE",
      "midNm": "L",
      "sufNm": null
    },
    {
      "lastNm": "GREEN",
      "firstNm": "JOSEPH",
      "midNm": "L",
      "sufNm": null
    },
    {
      "lastNm": "GREEN",
      "firstNm": "JOSEPH",
      "midNm": "L.",
      "sufNm": null
    }
  ],
  "CrntEmps": [
    {
      "CrntRgstns": [
        {
          "regAuth": 45,
          "regCat": 0,
          "st": 3,
          "stDt": "2015-04-28T00:00:00"
        }
      ],
      "BrnchOfLocs": [
        {
          "str1": "1700 LINCOLN ST 48TH FL",
          "str2": "[MA-RBO]",
          "city": "DENVER",
          "state": 5,
          "stateSpecified": true,
          "cntry": "United States",
          "postlCd": "80203"
        }
      ],
      "orgNm": "WELLS FARGO ADVISORS, LLC",
      "orgPK": "19616",
      "str1": "ONE NORTH JEFFERSON AVENUE",
      "str2": "MAIL CODE: H0004-050",
      "city": "ST. LOUIS",
      "state": 25,
      "stateSpecified": true,
      "cntry": "United States",
      "postlCd": "63103-2205"
    }
  ],
  "Exms": [
    {
      "exmCd": 3,
      "exmNm": "Uniform Combined State Law Examination",
      "exmDt": "1999-08-23T00:00:00",
      "exmDtSpecified": true
    },
    {
      "exmCd": 0,
      "exmNm": "Uniform Securities Agent State Law Examination",
      "exmDt": "2011-08-08T00:00:00",
      "exmDtSpecified": true
    }
  ],
  "Dsgntns": [],
  "PrevRgstns": [
    {
      "BrnchOfLocs": [
        {
          "city": "SHELTON",
          "state": 6,
          "stateSpecified": true
        }
      ],
      "orgNm": "AMERICAN SKANDIA ADVISORY SERVICES, INC.",
      "orgPK": "109211",
      "regBeginDt": "2003-03-10T00:00:00",
      "regBeginDtSpecified": true,
      "regEndDt": "2003-09-30T00:00:00",
      "regEndDtSpecified": true
    }
  ],
  "EmpHss": [
    {
      "fromDt": "07/2006",
      "toDt": "01/2007",
      "orgNm": "UNEMPLOYED",
      "city": "DENVER",
      "state": 5,
      "stateSpecified": true
    },
    {
      "fromDt": "01/2007",
      "toDt": "09/2008",
      "orgNm": "CITIGROUP",
      "city": "DENVER",
      "state": 5,
      "stateSpecified": true
    },
    {
      "fromDt": "10/2008",
      "toDt": "12/2008",
      "orgNm": "UNEMPLOYED",
      "city": "DENVER",
      "state": 5,
      "stateSpecified": true
    },
    {
      "fromDt": "12/2008",
      "toDt": "06/2011",
      "orgNm": "TRANSAMERICA CAPITAL INC",
      "city": "DENVER",
      "state": 5,
      "stateSpecified": true
    },
    {
      "fromDt": "06/2011",
      "toDt": "11/2013",
      "orgNm": "TIAA",
      "city": "DENVER",
      "state": 5,
      "stateSpecified": true
    },
    {
      "fromDt": "06/2011",
      "toDt": "11/2013",
      "orgNm": "TIAA-CREF INDIVIDUAL & INSTITUTIONAL SERVICES, LLC",
      "city": "DENVER",
      "state": 5,
      "stateSpecified": true
    },
    {
      "fromDt": "11/2013",
      "toDt": "11/2014",
      "orgNm": "READY LABOR",
      "city": "DENVER",
      "state": 5,
      "stateSpecified": true
    },
    {
      "fromDt": "11/2014",
      "toDt": null,
      "orgNm": "WELLS FARGO ADVISORS, LLC",
      "city": "DENVER",
      "state": 5,
      "stateSpecified": true
    }
  ],
  "OthrBuss": {
    "OthrBus": null
  },
  "DRPs": [
    {
      "hasRegAction": 1,
      "hasRegActionSpecified": true,
      "hasCriminal": 1,
      "hasCriminalSpecified": true,
      "hasBankrupt": 1,
      "hasBankruptSpecified": true,
      "hasCivilJudc": 1,
      "hasCivilJudcSpecified": true,
      "hasBond": 1,
      "hasBondSpecified": true,
      "hasJudgment": 1,
      "hasJudgmentSpecified": true,
      "hasInvstgn": 1,
      "hasInvstgnSpecified": true,
      "hasCustComp": 0,
      "hasCustCompSpecified": true,
      "hasTermination": 1,
      "hasTerminationSpecified": true
    }
  ]
}