{
  "Info": {
    "lastNm": "MANGIERI",
    "firstNm": "DOMENIC",
    "midNm": "JOSEPH",
    "sufNm": null,
    "indvlPK": "3050566",
    "actvAGReg": 0,
    "link": "http://www.adviserinfo.sec.gov/IAPD/Individual/3050566"
  },
  "OthrNms": [],
  "CrntEmps": [
    {
      "CrntRgstns": [
        {
          "regAuth": 39,
          "regCat": 0,
          "st": 2,
          "stDt": "2003-09-30T00:00:00"
        },
        {
          "regAuth": 45,
          "regCat": 0,
          "st": 3,
          "stDt": "2015-08-07T00:00:00"
        }
      ],
      "BrnchOfLocs": [
        {
          "str1": "88 FORT COUCH RD",
          "str2": "STE 210",
          "city": "PITTSBURGH",
          "state": 39,
          "stateSpecified": true,
          "cntry": "United States",
          "postlCd": "15241"
        }
      ],
      "orgNm": "AMERIPRISE FINANCIAL SERVICES, INC.",
      "orgPK": "6363",
      "str1": "707 2ND AVENUE SOUTH",
      "str2": null,
      "city": "MINNEAPOLIS",
      "state": 24,
      "stateSpecified": true,
      "cntry": "United States",
      "postlCd": "55402"
    }
  ],
  "Exms": [
    {
      "exmCd": 0,
      "exmNm": "Uniform Securities Agent State Law Examination",
      "exmDt": "1998-06-05T00:00:00",
      "exmDtSpecified": true
    },
    {
      "exmCd": 2,
      "exmNm": "Uniform Investment Adviser Law Examination",
      "exmDt": "2003-09-29T00:00:00",
      "exmDtSpecified": true
    }
  ],
  "Dsgntns": [],
  "PrevRgstns": [],
  "EmpHss": [
    {
      "fromDt": "04/1998",
      "toDt": null,
      "orgNm": "AMERIPRISE FINANCIAL SERVICES INC.",
      "city": "PITTSBURGH",
      "state": 39,
      "stateSpecified": true
    },
    {
      "fromDt": "04/1998",
      "toDt": null,
      "orgNm": "RIVERSOURCE LIFE INSURANCE COMPANY",
      "city": "PITTSBURGH",
      "state": 39,
      "stateSpecified": true
    }
  ],
  "OthrBuss": {
    "OthrBus": {
      "desc": "REAL ESTATE OWNERSHIP,SINGLE FAMILY; OAKMONT, PA 15139. Fiduciary Activities; Named or act in a fiduciary capacity; such as attorney-in-fact, trustee, conservator, guardian, executor or personal representative."
    }
  },
  "DRPs": []
}