{
  "Info": {
    "lastNm": "SHERMAN",
    "firstNm": "DAVID",
    "midNm": "ERROL",
    "sufNm": null,
    "indvlPK": "3052242",
    "actvAGReg": 0,
    "link": "http://www.adviserinfo.sec.gov/IAPD/Individual/3052242"
  },
  "OthrNms": [],
  "CrntEmps": [
    {
      "CrntRgstns": [
        {
          "regAuth": 3,
          "regCat": 0,
          "st": 2,
          "stDt": "2011-01-24T00:00:00"
        }
      ],
      "BrnchOfLocs": [
        {
          "str1": "3020 E. CAMELBACK ROAD, SUITE 213",
          "str2": null,
          "city": "PHOENIX",
          "state": 3,
          "stateSpecified": true,
          "cntry": "United States",
          "postlCd": "85016"
        }
      ],
      "orgNm": "DHR ADVISORY SERVICES, LLC",
      "orgPK": "154818",
      "str1": "3020 E. CAMELBACK ROAD, SUITE 213",
      "str2": null,
      "city": "PHOENIX",
      "state": 3,
      "stateSpecified": true,
      "cntry": "United States",
      "postlCd": "85016"
    }
  ],
  "Exms": [
    {
      "exmCd": 0,
      "exmNm": "Uniform Securities Agent State Law Examination",
      "exmDt": "1998-07-07T00:00:00",
      "exmDtSpecified": true
    },
    {
      "exmCd": 2,
      "exmNm": "Uniform Investment Adviser Law Examination",
      "exmDt": "2010-11-02T00:00:00",
      "exmDtSpecified": true
    }
  ],
  "Dsgntns": [],
  "PrevRgstns": [
    {
      "BrnchOfLocs": [
        {
          "city": "PHOENIX",
          "state": 3,
          "stateSpecified": true
        }
      ],
      "orgNm": "RAYMOND JAMES FINANCIAL SERVICES ADVISORS, INC",
      "orgPK": "149018",
      "regBeginDt": "2010-11-05T00:00:00",
      "regBeginDtSpecified": true,
      "regEndDt": "2010-11-30T00:00:00",
      "regEndDtSpecified": true
    }
  ],
  "EmpHss": [
    {
      "fromDt": "01/1989",
      "toDt": "04/2010",
      "orgNm": "BENEFITS ADVISORS, INC.",
      "city": "PHOENIX",
      "state": 3,
      "stateSpecified": true
    },
    {
      "fromDt": "09/2005",
      "toDt": "11/2010",
      "orgNm": "RAYMOND JAMES FINANCIAL SERVICES, INC.",
      "city": "PHOENIX",
      "state": 3,
      "stateSpecified": true
    },
    {
      "fromDt": "09/2009",
      "toDt": "01/2010",
      "orgNm": "SATOW STRATEGIES, LLC",
      "city": "SCOTTSDALE",
      "state": 3,
      "stateSpecified": true
    },
    {
      "fromDt": "03/2010",
      "toDt": "01/2013",
      "orgNm": "DIVERSIFIED HUMAN RESOURCES (DBA) DHR INSURANCE SERVICES, LLC",
      "city": "PHOENIX",
      "state": 3,
      "stateSpecified": true
    },
    {
      "fromDt": "11/2010",
      "toDt": null,
      "orgNm": "DIVERSIFIED HUMAN RESOURCES (DBA) DHR ADVISORY SERVICES, LLC",
      "city": "PHOENIX",
      "state": 3,
      "stateSpecified": true
    },
    {
      "fromDt": "11/2010",
      "toDt": null,
      "orgNm": "UNITED PLANNERS' FINANCIAL SERVICES",
      "city": "SCOTTSDALE",
      "state": 3,
      "stateSpecified": true
    }
  ],
  "OthrBuss": {
    "OthrBus": {
      "desc": "1) DIVERSIFIED HUMAN RESOURCES (DBA) DHR ADVISORY SERVICES, LLC - ADVISOR - PROVIDING ADVISORY SERVICES - SUPERVISOR DAVID SHERMAN - PHOENIX, AZ - SINCE 11/2010.---"
    }
  },
  "DRPs": []
}