{
  "Info": {
    "lastNm": "NAVARRE",
    "firstNm": "MARIE",
    "midNm": "ANTOINETTE",
    "sufNm": null,
    "indvlPK": "3060877",
    "actvAGReg": 0,
    "link": "http://www.adviserinfo.sec.gov/IAPD/Individual/3060877"
  },
  "OthrNms": [
    {
      "lastNm": "BISHOP",
      "firstNm": "TONI",
      "midNm": null,
      "sufNm": null
    },
    {
      "lastNm": "JOHNSON",
      "firstNm": "TONI",
      "midNm": "N",
      "sufNm": null
    },
    {
      "lastNm": "NAVARRE",
      "firstNm": "MARGE",
      "midNm": "MARIE ANTOINETTE",
      "sufNm": null
    },
    {
      "lastNm": "NAVARRE",
      "firstNm": "MARGE",
      "midNm": "MARIE ANTOINETTE",
      "sufNm": null
    },
    {
      "lastNm": "NAVARRE",
      "firstNm": "TONI",
      "midNm": null,
      "sufNm": null
    }
  ],
  "CrntEmps": [
    {
      "CrntRgstns": [
        {
          "regAuth": 45,
          "regCat": 0,
          "st": 2,
          "stDt": "2003-03-21T00:00:00"
        }
      ],
      "BrnchOfLocs": [
        {
          "str1": "105 E. MAIN ST.",
          "str2": "SUITE 104",
          "city": "BRENHAM",
          "state": 45,
          "stateSpecified": true,
          "cntry": "United States",
          "postlCd": "77833"
        },
        {
          "str1": "1770 ST. JAMES PLACE",
          "str2": "SUITE 360",
          "city": "HOUSTON",
          "state": 45,
          "stateSpecified": true,
          "cntry": "United States",
          "postlCd": "77056"
        }
      ],
      "orgNm": "NEAL FINANCIAL GROUP, L.P.",
      "orgPK": "124112",
      "str1": "1770 ST. JAMES PLACE",
      "str2": "SUITE 360",
      "city": "HOUSTON",
      "state": 45,
      "stateSpecified": true,
      "cntry": "United States",
      "postlCd": "77056"
    },
    {
      "CrntRgstns": [
        {
          "regAuth": 45,
          "regCat": 0,
          "st": 2,
          "stDt": "2002-08-23T00:00:00"
        }
      ],
      "BrnchOfLocs": [
        {
          "str1": "105 E MAIN STE 104",
          "str2": null,
          "city": "BRENHAM",
          "state": 45,
          "stateSpecified": true,
          "cntry": "United States",
          "postlCd": "77833"
        },
        {
          "str1": "1770 ST. JAMES PL, STE 360",
          "str2": null,
          "city": "HOUSTON",
          "state": 45,
          "stateSpecified": true,
          "cntry": "United States",
          "postlCd": "77056"
        }
      ],
      "orgNm": "LPL FINANCIAL LLC",
      "orgPK": "6413",
      "str1": "75 STATE STREET, 22ND FLOOR",
      "str2": null,
      "city": "BOSTON",
      "state": 20,
      "stateSpecified": true,
      "cntry": "United States",
      "postlCd": "02109"
    }
  ],
  "Exms": [
    {
      "exmCd": 0,
      "exmNm": "Uniform Securities Agent State Law Examination",
      "exmDt": "1998-06-03T00:00:00",
      "exmDtSpecified": true
    },
    {
      "exmCd": 2,
      "exmNm": "Uniform Investment Adviser Law Examination",
      "exmDt": "1999-02-16T00:00:00",
      "exmDtSpecified": true
    }
  ],
  "Dsgntns": [
    {
      "dsgntnNm": "Certified Financial Planner"
    }
  ],
  "PrevRgstns": [
    {
      "BrnchOfLocs": [
        {
          "city": "HOUSTON",
          "state": 45,
          "stateSpecified": true
        }
      ],
      "orgNm": "AXA ADVISORS, LLC",
      "orgPK": "6627",
      "regBeginDt": "1998-06-09T00:00:00",
      "regBeginDtSpecified": true,
      "regEndDt": "2002-07-16T00:00:00",
      "regEndDtSpecified": true
    }
  ],
  "EmpHss": [
    {
      "fromDt": "08/2002",
      "toDt": null,
      "orgNm": "LINSCO/PRIVATE LEDGER CORP.",
      "city": "HOUSTON",
      "state": 45,
      "stateSpecified": true
    },
    {
      "fromDt": "10/2002",
      "toDt": null,
      "orgNm": "NEAL FINANCIAL GROUP, L.P.",
      "city": "HOUSTON",
      "state": 45,
      "stateSpecified": true
    }
  ],
  "OthrBuss": {
    "OthrBus": {
      "desc": "1. 08/22/2002 - DBA ONLY - NEAL FINANCIAL GROUP - HOUSTON, TX.     2. 8/29/2002 - NON-VARIABLE INSURANCE - INSURANCE - HOUSTON, TX.      3. 1/16/2003 - REGISTERED INVESTMENT ADVISOR - NEAL FINANCIAL GROUP, L.P. - RIA - HOUSTON, TX.      4. 10/23/2009 - OTHER-WORK IN HUSBAND'S MEDICAL OFFICE - JAMES H. KERN, M.D. - ASSIST SPOUSE'S MEDICAL PRACTICE STAFF WITH SECRETARIAL WORK. - TIME SPENT 15%."
    }
  },
  "DRPs": []
}