{
  "Info": {
    "lastNm": "HANNEY",
    "firstNm": "JOSEPH",
    "midNm": "PAUL",
    "sufNm": null,
    "indvlPK": "3061411",
    "actvAGReg": 0,
    "link": "http://www.adviserinfo.sec.gov/IAPD/Individual/3061411"
  },
  "OthrNms": [],
  "CrntEmps": [
    {
      "CrntRgstns": [
        {
          "regAuth": 32,
          "regCat": 0,
          "st": 2,
          "stDt": "2003-04-03T00:00:00"
        }
      ],
      "BrnchOfLocs": [
        {
          "str1": "1600 HIGHWAY 35 & DEAL ROAD",
          "str2": "[J4-RBO]",
          "city": "OAKHURST",
          "state": 32,
          "stateSpecified": true,
          "cntry": "United States",
          "postlCd": "07755"
        },
        {
          "str1": "317 MAIN STREET",
          "str2": null,
          "city": "LAKEWOOD",
          "state": 32,
          "stateSpecified": true,
          "cntry": "United States",
          "postlCd": "08701"
        },
        {
          "str1": "3223 BRIDGE AVENUE",
          "str2": null,
          "city": "POINT PLEASANT",
          "state": 32,
          "stateSpecified": true,
          "cntry": "United States",
          "postlCd": "08742"
        }
      ],
      "orgNm": "WELLS FARGO ADVISORS, LLC",
      "orgPK": "19616",
      "str1": "ONE NORTH JEFFERSON AVENUE",
      "str2": "MAIL CODE: H0004-050",
      "city": "ST. LOUIS",
      "state": 25,
      "stateSpecified": true,
      "cntry": "United States",
      "postlCd": "63103-2205"
    }
  ],
  "Exms": [
    {
      "exmCd": 0,
      "exmNm": "Uniform Securities Agent State Law Examination",
      "exmDt": "1998-09-28T00:00:00",
      "exmDtSpecified": true
    },
    {
      "exmCd": 2,
      "exmNm": "Uniform Investment Adviser Law Examination",
      "exmDt": "2002-09-13T00:00:00",
      "exmDtSpecified": true
    }
  ],
  "Dsgntns": [],
  "PrevRgstns": [
    {
      "BrnchOfLocs": [
        {
          "city": "POINT PLEASANT",
          "state": 32,
          "stateSpecified": true
        }
      ],
      "orgNm": "QUICK & REILLY, INC.",
      "orgPK": "11217",
      "regBeginDt": "2002-11-14T00:00:00",
      "regBeginDtSpecified": true,
      "regEndDt": "2003-04-08T00:00:00",
      "regEndDtSpecified": true
    }
  ],
  "EmpHss": [
    {
      "fromDt": "06/2003",
      "toDt": "05/2009",
      "orgNm": "WACHOVIA SECURITIES, LLC",
      "city": "SUMMIT",
      "state": 32,
      "stateSpecified": true
    },
    {
      "fromDt": "05/2009",
      "toDt": null,
      "orgNm": "WELLS FARGO ADVISORS LLC",
      "city": "POINT PLEASANT BORO",
      "state": 32,
      "stateSpecified": true
    }
  ],
  "OthrBuss": {
    "OthrBus": {
      "desc": "RENTAL PROPERTY; INV RELATED; PORT CHARLOTEE, FL; SUB LEASE; 0% OWNERSHIP; START 2/2016; 3 HOURS PER MONTH, 0 DURING TRADING."
    }
  },
  "DRPs": [
    {
      "hasRegAction": 1,
      "hasRegActionSpecified": true,
      "hasCriminal": 1,
      "hasCriminalSpecified": true,
      "hasBankrupt": 0,
      "hasBankruptSpecified": true,
      "hasCivilJudc": 1,
      "hasCivilJudcSpecified": true,
      "hasBond": 1,
      "hasBondSpecified": true,
      "hasJudgment": 1,
      "hasJudgmentSpecified": true,
      "hasInvstgn": 1,
      "hasInvstgnSpecified": true,
      "hasCustComp": 1,
      "hasCustCompSpecified": true,
      "hasTermination": 1,
      "hasTerminationSpecified": true
    }
  ]
}