{
  "Info": {
    "lastNm": "Spillman",
    "firstNm": "Jonathan",
    "midNm": "Lee",
    "sufNm": null,
    "indvlPK": "3064076",
    "actvAGReg": 0,
    "link": "http://www.adviserinfo.sec.gov/IAPD/Individual/3064076"
  },
  "OthrNms": [
    {
      "lastNm": "SPILLMAN",
      "firstNm": "JON",
      "midNm": null,
      "sufNm": null
    },
    {
      "lastNm": "SPILLMAN",
      "firstNm": "JONATHAN",
      "midNm": "LEE",
      "sufNm": null
    },
    {
      "lastNm": "SPILLMAN",
      "firstNm": "JONATHON",
      "midNm": "LEE",
      "sufNm": null
    }
  ],
  "CrntEmps": [
    {
      "CrntRgstns": [
        {
          "regAuth": 28,
          "regCat": 0,
          "st": 2,
          "stDt": "2006-10-03T00:00:00"
        }
      ],
      "BrnchOfLocs": [
        {
          "str1": "1202 WEST FRIENDLY AVENUE",
          "str2": null,
          "city": "GREENSBORO",
          "state": 28,
          "stateSpecified": true,
          "cntry": "United States",
          "postlCd": "27403"
        }
      ],
      "orgNm": "EDWARD JONES",
      "orgPK": "250",
      "str1": "12555 MANCHESTER RD",
      "str2": null,
      "city": "ST. LOUIS",
      "state": 25,
      "stateSpecified": true,
      "cntry": "United States",
      "postlCd": "63131"
    }
  ],
  "Exms": [
    {
      "exmCd": 0,
      "exmNm": "Uniform Securities Agent State Law Examination",
      "exmDt": "1998-07-02T00:00:00",
      "exmDtSpecified": true
    }
  ],
  "Dsgntns": [
    {
      "dsgntnNm": "Certified Financial Planner"
    }
  ],
  "PrevRgstns": [],
  "EmpHss": [
    {
      "fromDt": "04/1998",
      "toDt": null,
      "orgNm": "EDWARD D. JONES & CO., L.P.",
      "city": "GREENSBORO",
      "state": 28,
      "stateSpecified": true
    }
  ],
  "OthrBuss": {
    "OthrBus": {
      "desc": "SOUTHERN BUILDERS TYPE OF BUSINESS: GENERAL CONTRACTING  BOONE, NC  START DATE: 6/21/2007  INVESTOR  HOURS PER WEEK: 0  HOURS DURING TRADING: 0  SUMMER 2015  BUILDING PROJECT HAS RESUMED BUT I AM NOT AN INVESTOR NOR DO I PLAN TO BE AN INVESTOR OVER NEXT 12 MONTHS.    SPILLMAN PROPERTIES  TYPE OF BUSINESS: LLC - PROPERTY  GREENSBORO, NC  START DATE: 3/1/2013  OWNER  HOURS PER WEEK: 0  HOURS DURING TRADING: 0  MAINTAIN PROPERTY"
    }
  },
  "DRPs": []
}