{
  "Info": {
    "lastNm": "BARNETT",
    "firstNm": "ROBERT",
    "midNm": "HENRY",
    "sufNm": null,
    "indvlPK": "3080224",
    "actvAGReg": 0,
    "link": "http://www.adviserinfo.sec.gov/IAPD/Individual/3080224"
  },
  "OthrNms": [
    {
      "lastNm": "BARNETT",
      "firstNm": "ROB",
      "midNm": null,
      "sufNm": null
    }
  ],
  "CrntEmps": [
    {
      "CrntRgstns": [
        {
          "regAuth": 45,
          "regCat": 0,
          "st": 2,
          "stDt": "2010-02-04T00:00:00"
        },
        {
          "regAuth": 24,
          "regCat": 0,
          "st": 2,
          "stDt": "2013-11-01T00:00:00"
        }
      ],
      "BrnchOfLocs": [
        {
          "str1": "8300 NORMAN CTR DR",
          "str2": null,
          "city": "BLOOMINGTON",
          "state": 24,
          "stateSpecified": true,
          "cntry": "United States",
          "postlCd": "55437"
        }
      ],
      "orgNm": "MERRILL LYNCH, PIERCE, FENNER & SMITH INCORPORATED",
      "orgPK": "7691",
      "str1": "ONE BRYANT PARK",
      "str2": null,
      "city": "NEW YORK",
      "state": 35,
      "stateSpecified": true,
      "cntry": "United States",
      "postlCd": "10036"
    }
  ],
  "Exms": [
    {
      "exmCd": 0,
      "exmNm": "Uniform Securities Agent State Law Examination",
      "exmDt": "2000-01-27T00:00:00",
      "exmDtSpecified": true
    },
    {
      "exmCd": 2,
      "exmNm": "Uniform Investment Adviser Law Examination",
      "exmDt": "2008-04-15T00:00:00",
      "exmDtSpecified": true
    }
  ],
  "Dsgntns": [
    {
      "dsgntnNm": "Certified Financial Planner"
    }
  ],
  "PrevRgstns": [],
  "EmpHss": [
    {
      "fromDt": "10/2004",
      "toDt": "11/2007",
      "orgNm": "A G EDWARDS & SONS",
      "city": "EDINA",
      "state": 24,
      "stateSpecified": true
    },
    {
      "fromDt": "11/2007",
      "toDt": null,
      "orgNm": "MERRILL LYNCH, PIERCE, FENNER & SMITH INCORPORATED",
      "city": "BLOOMINGTON",
      "state": 24,
      "stateSpecified": true
    }
  ],
  "OthrBuss": {
    "OthrBus": null
  },
  "DRPs": []
}