{
  "Info": {
    "lastNm": "MCELRATH",
    "firstNm": "GORDON",
    "midNm": "KEITH",
    "sufNm": null,
    "indvlPK": "3088950",
    "actvAGReg": 0,
    "link": "http://www.adviserinfo.sec.gov/IAPD/Individual/3088950"
  },
  "OthrNms": [
    {
      "lastNm": "ELRATH",
      "firstNm": "GORDON",
      "midNm": "KEITH",
      "sufNm": null
    }
  ],
  "CrntEmps": [
    {
      "CrntRgstns": [
        {
          "regAuth": 10,
          "regCat": 0,
          "st": 2,
          "stDt": "2005-12-07T00:00:00"
        }
      ],
      "BrnchOfLocs": [
        {
          "str1": null,
          "str2": null,
          "city": "VALDOSTA",
          "state": 10,
          "stateSpecified": true,
          "cntry": "United States",
          "postlCd": null
        },
        {
          "str1": "4 CONCOURSE PKWY 3RD FLOOR",
          "str2": "SUITE 300",
          "city": "ATLANTA",
          "state": 10,
          "stateSpecified": true,
          "cntry": "United States",
          "postlCd": "30328"
        }
      ],
      "orgNm": "MSI FINANCIAL SERVICES, INC.",
      "orgPK": "14251",
      "str1": "1095 AVENUE OF THE AMERICAS",
      "str2": null,
      "city": "NEW YORK",
      "state": 35,
      "stateSpecified": true,
      "cntry": "United States",
      "postlCd": "10036"
    }
  ],
  "Exms": [
    {
      "exmCd": 0,
      "exmNm": "Uniform Securities Agent State Law Examination",
      "exmDt": "1998-08-21T00:00:00",
      "exmDtSpecified": true
    }
  ],
  "Dsgntns": [],
  "PrevRgstns": [
    {
      "BrnchOfLocs": [
        {
          "city": "ALPHARETTA",
          "state": 10,
          "stateSpecified": true
        }
      ],
      "orgNm": "METLIFE INVESTMENT FUND SERVICES LLC",
      "orgPK": "107311",
      "regBeginDt": "2003-03-20T00:00:00",
      "regBeginDtSpecified": true,
      "regEndDt": "2005-12-31T00:00:00",
      "regEndDtSpecified": true
    }
  ],
  "EmpHss": [
    {
      "fromDt": "01/2006",
      "toDt": null,
      "orgNm": "METLIFE RESOURCES",
      "city": "ATLANTA",
      "state": 10,
      "stateSpecified": true
    }
  ],
  "OthrBuss": {
    "OthrBus": {
      "desc": "OWNER OF RESIDENTIAL RENTAL PROPERTY SINCE 09/2008, 0 HRS WK DAY O HRS WK ENDS"
    }
  },
  "DRPs": []
}