{
  "Info": {
    "lastNm": "MANTIONE",
    "firstNm": "JAMES",
    "midNm": "SALVATORE",
    "sufNm": null,
    "indvlPK": "3091324",
    "actvAGReg": 0,
    "link": "http://www.adviserinfo.sec.gov/IAPD/Individual/3091324"
  },
  "OthrNms": [],
  "CrntEmps": [
    {
      "CrntRgstns": [
        {
          "regAuth": 32,
          "regCat": 0,
          "st": 2,
          "stDt": "2012-10-04T00:00:00"
        }
      ],
      "BrnchOfLocs": [
        {
          "str1": "1001 AVENUE OF AMERICAS, STE 1000",
          "str2": null,
          "city": "NEW YORK",
          "state": 35,
          "stateSpecified": true,
          "cntry": "United States",
          "postlCd": "10018"
        },
        {
          "str1": "65 MADISON AVENUE, SUITE 300",
          "str2": null,
          "city": "MORRISTOWN",
          "state": 32,
          "stateSpecified": true,
          "cntry": "United States",
          "postlCd": "07960"
        }
      ],
      "orgNm": "PRIVATE ADVISOR GROUP, LLC",
      "orgPK": "155216",
      "str1": "65 MADISON AVENUE, SUITE 300",
      "str2": null,
      "city": "MORRISTOWN",
      "state": 32,
      "stateSpecified": true,
      "cntry": "United States",
      "postlCd": "07960"
    }
  ],
  "Exms": [
    {
      "exmCd": 0,
      "exmNm": "Uniform Securities Agent State Law Examination",
      "exmDt": "1998-10-29T00:00:00",
      "exmDtSpecified": true
    },
    {
      "exmCd": 2,
      "exmNm": "Uniform Investment Adviser Law Examination",
      "exmDt": "1999-05-13T00:00:00",
      "exmDtSpecified": true
    },
    {
      "exmCd": 3,
      "exmNm": "Uniform Combined State Law Examination",
      "exmDt": "2006-03-27T00:00:00",
      "exmDtSpecified": true
    }
  ],
  "Dsgntns": [],
  "PrevRgstns": [
    {
      "BrnchOfLocs": [
        {
          "city": "FARMINGVILLE",
          "state": 35,
          "stateSpecified": true
        }
      ],
      "orgNm": "CUNA BROKERAGE SERVICES, INC.",
      "orgPK": "13941",
      "regBeginDt": "2006-04-03T00:00:00",
      "regBeginDtSpecified": true,
      "regEndDt": "2006-04-25T00:00:00",
      "regEndDtSpecified": true
    },
    {
      "BrnchOfLocs": [
        {
          "city": "BAYSIDE",
          "state": 35,
          "stateSpecified": true
        },
        {
          "city": "HOLLIS",
          "state": 35,
          "stateSpecified": true
        },
        {
          "city": "NEW YORK",
          "state": 35,
          "stateSpecified": true
        },
        {
          "city": "NEW YORK",
          "state": 35,
          "stateSpecified": true
        },
        {
          "city": "NEW YORK",
          "state": 35,
          "stateSpecified": true
        },
        {
          "city": "NEW YORK",
          "state": 35,
          "stateSpecified": true
        }
      ],
      "orgNm": "CHASE INVESTMENT SERVICES CORP.",
      "orgPK": "25574",
      "regBeginDt": "2006-05-02T00:00:00",
      "regBeginDtSpecified": true,
      "regEndDt": "2011-02-08T00:00:00",
      "regEndDtSpecified": true
    }
  ],
  "EmpHss": [
    {
      "fromDt": "04/2006",
      "toDt": "02/2011",
      "orgNm": "CHASE INVESTMENT SERVICES CORP",
      "city": "HOLLISWOOD",
      "state": 35,
      "stateSpecified": true
    },
    {
      "fromDt": "02/2011",
      "toDt": null,
      "orgNm": "LPL FINANCIAL LLC",
      "city": "NEW YORK",
      "state": 35,
      "stateSpecified": true
    },
    {
      "fromDt": "09/2012",
      "toDt": null,
      "orgNm": "PRIVATE ADVISOR GROUP, LLC",
      "city": "NEW YORK",
      "state": 35,
      "stateSpecified": true
    }
  ],
  "OthrBuss": {
    "OthrBus": {
      "desc": "(1) 04/12/2011: JAMES MANTIONE WEALTH MANAGEMENT, INC. - DBA FOR LPL BUSINESS (ENTITY FOR LPL BUSINESS) - INV REL - AT REPORTED BUSINESS LOCATION(S)      (2) 11/08/2011: JAMES MANTIONE WEALTH MANAGEMENT INC - INV REL - AT REPORTED BUSINESS LOCATION(S) - NON-VARIABLE INSURANCE - 1% OF TIME SPENT - AGENT. INS TYPES: LIFE, FIXED ANNUITY       (3) 05/06/2013: PRIVATE ADVISOR GROUP - INV REL - AT REPORTED BUSINESS LOCATION(S) - REGISTERED INVESTMENT ADVISOR: (HYBRID) PRIVATE ADVISOR GROUP - 50% OF TIME SPENT - (HYBRID) CHARGE FEE ON ASSETS UNDER MANAGEMENT       (4) 12/10/2014: THE FINEST WEALTH MANAGEMENT GROUP - DBA FOR LPL BUSINESS (ENTITY FOR LPL BUSINESS) - INV REL - AT REPORTED BUSINESS LOCATION(S) - START 01/01/2015 - 80 HR/MO 65 DURING SECS TRDG HRS       (5) 02/02/2015: PRIVATE ADVISOR GROUP, LLC - INV REL - AT REPORTED BUSINESS LOCATION(S) - REGISTERED INVESTMENT ADVISOR DBA: THE FINEST WEALTH MANAGEMENT GROUP - START 01/01/2015 - 100 HR/MO ALL DURING SECS TRDG HRS - INVESTMENT ADVISER REPRESENTATIVE"
    }
  },
  "DRPs": [
    {
      "hasRegAction": 1,
      "hasRegActionSpecified": true,
      "hasCriminal": 1,
      "hasCriminalSpecified": true,
      "hasBankrupt": 1,
      "hasBankruptSpecified": true,
      "hasCivilJudc": 1,
      "hasCivilJudcSpecified": true,
      "hasBond": 1,
      "hasBondSpecified": true,
      "hasJudgment": 1,
      "hasJudgmentSpecified": true,
      "hasInvstgn": 1,
      "hasInvstgnSpecified": true,
      "hasCustComp": 0,
      "hasCustCompSpecified": true,
      "hasTermination": 0,
      "hasTerminationSpecified": true
    }
  ]
}