{
  "Info": {
    "lastNm": "SCIORTINO",
    "firstNm": "BECKY",
    "midNm": "MARIE",
    "sufNm": null,
    "indvlPK": "3092715",
    "actvAGReg": 0,
    "link": "http://www.adviserinfo.sec.gov/IAPD/Individual/3092715"
  },
  "OthrNms": [
    {
      "lastNm": "CAREY",
      "firstNm": "BECKY",
      "midNm": "MARIE",
      "sufNm": null
    }
  ],
  "CrntEmps": [
    {
      "CrntRgstns": [
        {
          "regAuth": 32,
          "regCat": 0,
          "st": 2,
          "stDt": "2011-07-05T00:00:00"
        }
      ],
      "BrnchOfLocs": [
        {
          "str1": "655 PATROON CREEK BLVD",
          "str2": "PATROON CREEK CORPORATE CENTER",
          "city": "ALBANY",
          "state": 35,
          "stateSpecified": true,
          "cntry": "United States",
          "postlCd": "12206"
        },
        {
          "str1": "SEFCU CREDIT UNION",
          "str2": "3200 BALLTOWN ROAD",
          "city": "NISKAYUNA",
          "state": 35,
          "stateSpecified": true,
          "cntry": "United States",
          "postlCd": "12309"
        },
        {
          "str1": "SEFCU CREDIT UNION",
          "str2": "40 WOLF RD",
          "city": "ALBANY",
          "state": 35,
          "stateSpecified": true,
          "cntry": "United States",
          "postlCd": "12205"
        },
        {
          "str1": "SEFCU CREDIT UNION",
          "str2": "935 NEW LOUDON ROAD",
          "city": "LATHAM",
          "state": 35,
          "stateSpecified": true,
          "cntry": "United States",
          "postlCd": "12110"
        }
      ],
      "orgNm": "LPL FINANCIAL LLC",
      "orgPK": "6413",
      "str1": "75 STATE STREET, 22ND FLOOR",
      "str2": null,
      "city": "BOSTON",
      "state": 20,
      "stateSpecified": true,
      "cntry": "United States",
      "postlCd": "02109"
    }
  ],
  "Exms": [
    {
      "exmCd": 0,
      "exmNm": "Uniform Securities Agent State Law Examination",
      "exmDt": "1999-11-23T00:00:00",
      "exmDtSpecified": true
    },
    {
      "exmCd": 2,
      "exmNm": "Uniform Investment Adviser Law Examination",
      "exmDt": "2001-10-05T00:00:00",
      "exmDtSpecified": true
    }
  ],
  "Dsgntns": [],
  "PrevRgstns": [
    {
      "BrnchOfLocs": [
        {
          "city": "ALBANY",
          "state": 35,
          "stateSpecified": true
        }
      ],
      "orgNm": "QUICK & REILLY, INC.",
      "orgPK": "11217",
      "regBeginDt": "2002-09-05T00:00:00",
      "regBeginDtSpecified": true,
      "regEndDt": "2003-05-29T00:00:00",
      "regEndDtSpecified": true
    },
    {
      "BrnchOfLocs": [
        {
          "city": "ALBANY",
          "state": 35,
          "stateSpecified": true
        },
        {
          "city": "ALBANY",
          "state": 35,
          "stateSpecified": true
        },
        {
          "city": "ALTAMONT",
          "state": 35,
          "stateSpecified": true
        },
        {
          "city": "CLIFTON PARK",
          "state": 35,
          "stateSpecified": true
        },
        {
          "city": "LATHAM",
          "state": 35,
          "stateSpecified": true
        },
        {
          "city": "NISKAYUNA",
          "state": 35,
          "stateSpecified": true
        },
        {
          "city": "SARATOGA SPRINGS",
          "state": 35,
          "stateSpecified": true
        }
      ],
      "orgNm": "UVEST FINANCIAL SERVICES GROUP, INC.",
      "orgPK": "13787",
      "regBeginDt": "2005-01-10T00:00:00",
      "regBeginDtSpecified": true,
      "regEndDt": "2011-07-05T00:00:00",
      "regEndDtSpecified": true
    }
  ],
  "EmpHss": [
    {
      "fromDt": "01/2005",
      "toDt": null,
      "orgNm": "SEFCU",
      "city": "ALBANY",
      "state": 35,
      "stateSpecified": true
    },
    {
      "fromDt": "01/2005",
      "toDt": "07/2011",
      "orgNm": "UVEST FINANCIAL SERVICES GROUP, INC",
      "city": "CHARLOTTE",
      "state": 28,
      "stateSpecified": true
    },
    {
      "fromDt": "07/2011",
      "toDt": null,
      "orgNm": "LPL FINANCIAL LLC",
      "city": "ALBANY",
      "state": 35,
      "stateSpecified": true
    }
  ],
  "OthrBuss": {
    "OthrBus": {
      "desc": "1. 06/01/2011-DBA ONLY-SEFCU WEALTH MANAGEMENT SERVICES"
    }
  },
  "DRPs": []
}