{
  "Info": {
    "lastNm": "MULLOY",
    "firstNm": "MICHAEL",
    "midNm": "LAWRENCE",
    "sufNm": null,
    "indvlPK": "3093475",
    "actvAGReg": 0,
    "link": "http://www.adviserinfo.sec.gov/IAPD/Individual/3093475"
  },
  "OthrNms": [],
  "CrntEmps": [
    {
      "CrntRgstns": [
        {
          "regAuth": 45,
          "regCat": 0,
          "st": 2,
          "stDt": "2016-05-09T00:00:00"
        }
      ],
      "BrnchOfLocs": [
        {
          "str1": "1790 HUGHES LANDNG BLVD.",
          "str2": "SUITE 400",
          "city": "THE WOODLANDS",
          "state": 45,
          "stateSpecified": true,
          "cntry": "United States",
          "postlCd": "77380"
        }
      ],
      "orgNm": "RAYMOND JAMES & ASSOCIATES, INC.",
      "orgPK": "705",
      "str1": "880 CARILLON PARKWAY",
      "str2": null,
      "city": "ST PETERSBURG",
      "state": 9,
      "stateSpecified": true,
      "cntry": "United States",
      "postlCd": "33716"
    }
  ],
  "Exms": [
    {
      "exmCd": 0,
      "exmNm": "Uniform Securities Agent State Law Examination",
      "exmDt": "1998-08-26T00:00:00",
      "exmDtSpecified": true
    },
    {
      "exmCd": 2,
      "exmNm": "Uniform Investment Adviser Law Examination",
      "exmDt": "1998-08-31T00:00:00",
      "exmDtSpecified": true
    }
  ],
  "Dsgntns": [],
  "PrevRgstns": [
    {
      "BrnchOfLocs": [
        {
          "city": "HOUSTON",
          "state": 45,
          "stateSpecified": true
        }
      ],
      "orgNm": "PRUDENTIAL EQUITY GROUP, LLC",
      "orgPK": "7471",
      "regBeginDt": "1998-08-31T00:00:00",
      "regBeginDtSpecified": true,
      "regEndDt": "2003-07-01T00:00:00",
      "regEndDtSpecified": true
    },
    {
      "BrnchOfLocs": [
        {
          "city": "HOUSTON",
          "state": 45,
          "stateSpecified": true
        },
        {
          "city": "HOUSTON",
          "state": 45,
          "stateSpecified": true
        },
        {
          "city": "THE WOODLANDS",
          "state": 45,
          "stateSpecified": true
        }
      ],
      "orgNm": "WELLS FARGO ADVISORS, LLC",
      "orgPK": "19616",
      "regBeginDt": "2003-07-01T00:00:00",
      "regBeginDtSpecified": true,
      "regEndDt": "2016-05-05T00:00:00",
      "regEndDtSpecified": true
    }
  ],
  "EmpHss": [
    {
      "fromDt": "07/2003",
      "toDt": "05/2009",
      "orgNm": "WACHOVIA SECURITIES LLC",
      "city": "HOUSTON",
      "state": 45,
      "stateSpecified": true
    },
    {
      "fromDt": "05/2009",
      "toDt": "04/2016",
      "orgNm": "WELLS FARGO ADVISORS LLC",
      "city": "THE WOODLANDS",
      "state": 45,
      "stateSpecified": true
    },
    {
      "fromDt": "04/2016",
      "toDt": null,
      "orgNm": "RAYMOND JAMES & ASSOCIATES, INC.",
      "city": "WOODLANDS",
      "state": 45,
      "stateSpecified": true
    }
  ],
  "OthrBuss": {
    "OthrBus": null
  },
  "DRPs": []
}