{
  "Info": {
    "lastNm": "SCHIFFMAN",
    "firstNm": "DANIEL",
    "midNm": "JOSEPH",
    "sufNm": null,
    "indvlPK": "3096439",
    "actvAGReg": 0,
    "link": "http://www.adviserinfo.sec.gov/IAPD/Individual/3096439"
  },
  "OthrNms": [
    {
      "lastNm": "SCHIFFMAN",
      "firstNm": "DAN",
      "midNm": null,
      "sufNm": null
    },
    {
      "lastNm": "SCHIFFMAN",
      "firstNm": "DANNY",
      "midNm": null,
      "sufNm": null
    }
  ],
  "CrntEmps": [
    {
      "CrntRgstns": [
        {
          "regAuth": 21,
          "regCat": 0,
          "st": 2,
          "stDt": "2006-03-16T00:00:00"
        }
      ],
      "BrnchOfLocs": [
        {
          "str1": "50 CITIZENS WAY STE 303",
          "str2": null,
          "city": "FREDERICK",
          "state": 21,
          "stateSpecified": true,
          "cntry": "United States",
          "postlCd": "21701"
        }
      ],
      "orgNm": "NORTHWESTERN MUTUAL INVESTMENT SERVICES, LLC",
      "orgPK": "2881",
      "str1": "611 EAST WISCONSIN AVE",
      "str2": null,
      "city": "MILWAUKEE",
      "state": 50,
      "stateSpecified": true,
      "cntry": "United States",
      "postlCd": "53202-4797"
    }
  ],
  "Exms": [
    {
      "exmCd": 0,
      "exmNm": "Uniform Securities Agent State Law Examination",
      "exmDt": "2000-06-19T00:00:00",
      "exmDtSpecified": true
    },
    {
      "exmCd": 2,
      "exmNm": "Uniform Investment Adviser Law Examination",
      "exmDt": "2006-03-01T00:00:00",
      "exmDtSpecified": true
    }
  ],
  "Dsgntns": [],
  "PrevRgstns": [],
  "EmpHss": [
    {
      "fromDt": "08/1998",
      "toDt": null,
      "orgNm": "NORTHWESTERN MUTUAL LIFE INS CO",
      "city": "MILEAUKEE",
      "state": 50,
      "stateSpecified": true
    },
    {
      "fromDt": "12/1998",
      "toDt": null,
      "orgNm": "NORTHWESTERN MUTUAL INVESTMENT SERVICES, LLC",
      "city": "BALTIMORE",
      "state": 21,
      "stateSpecified": true
    },
    {
      "fromDt": "08/2009",
      "toDt": "03/2016",
      "orgNm": "NORTHWESTERN MUTUAL INVESTMENT SERVICES, LLC.",
      "city": "FREDERICK",
      "state": 21,
      "stateSpecified": true
    },
    {
      "fromDt": "01/2016",
      "toDt": null,
      "orgNm": "Northwestern Mutual Wealth Management Company",
      "city": "Milwaukee",
      "state": 50,
      "stateSpecified": true
    }
  ],
  "OthrBuss": {
    "OthrBus": {
      "desc": "MAY EARN COMMISSIONS FROM INSURANCE COMPANIES NOT AFFILIATED WITH NORTHWESTERN MUTUAL FOR SALES OF NON-VARIABLE LIFE, HEALTH, ANNUITY AND/OR DISABILITY INCOME INSURANCE PRODUCTS. TREASURER, BNAI ABRAHAM SYNAGOGUE, BALTIMORE MD, PREPARES REPORTS/COSIGNS CHECKS WITH PRESIDENT, 10HRS/MO"
    }
  },
  "DRPs": []
}