{
  "Info": {
    "lastNm": "SZYKOWNY",
    "firstNm": "JAMES",
    "midNm": "JOSEPH",
    "sufNm": "JR",
    "indvlPK": "3098427",
    "actvAGReg": 0,
    "link": "http://www.adviserinfo.sec.gov/IAPD/Individual/3098427"
  },
  "OthrNms": [
    {
      "lastNm": "SZYKOWNY",
      "firstNm": "JAMES",
      "midNm": "J JR",
      "sufNm": null
    }
  ],
  "CrntEmps": [
    {
      "CrntRgstns": [
        {
          "regAuth": 36,
          "regCat": 0,
          "st": 2,
          "stDt": "2010-11-10T00:00:00"
        }
      ],
      "BrnchOfLocs": [
        {
          "str1": "1133 CORPORATE DR. SUITE A",
          "str2": null,
          "city": "HOLLAND",
          "state": 36,
          "stateSpecified": true,
          "cntry": "United States",
          "postlCd": "43528"
        },
        {
          "str1": "5748 PARK CENTER COURT",
          "str2": null,
          "city": "TOLEDO",
          "state": 36,
          "stateSpecified": true,
          "cntry": "United States",
          "postlCd": "43615"
        }
      ],
      "orgNm": "VOYA FINANCIAL ADVISORS, INC.",
      "orgPK": "2882",
      "str1": "909 LOCUST STREET",
      "str2": null,
      "city": "DES MOINES",
      "state": 13,
      "stateSpecified": true,
      "cntry": "United States",
      "postlCd": "50309"
    }
  ],
  "Exms": [
    {
      "exmCd": 0,
      "exmNm": "Uniform Securities Agent State Law Examination",
      "exmDt": "2007-10-01T00:00:00",
      "exmDtSpecified": true
    },
    {
      "exmCd": 2,
      "exmNm": "Uniform Investment Adviser Law Examination",
      "exmDt": "2010-08-05T00:00:00",
      "exmDtSpecified": true
    }
  ],
  "Dsgntns": [],
  "PrevRgstns": [
    {
      "BrnchOfLocs": [
        {
          "city": "INDEPENDENCE",
          "state": 36,
          "stateSpecified": true
        }
      ],
      "orgNm": "VALIC FINANCIAL ADVISORS, INC.",
      "orgPK": "42803",
      "regBeginDt": "2004-03-02T00:00:00",
      "regBeginDtSpecified": true,
      "regEndDt": "2005-04-25T00:00:00",
      "regEndDtSpecified": true
    }
  ],
  "EmpHss": [
    {
      "fromDt": "02/2005",
      "toDt": null,
      "orgNm": "MERCK & CO., INC.",
      "city": "SYLVANIA",
      "state": 36,
      "stateSpecified": true
    },
    {
      "fromDt": "02/2007",
      "toDt": "09/2014",
      "orgNm": "ING FINANCIAL PARTNERS",
      "city": "HOLLAND",
      "state": 36,
      "stateSpecified": true
    },
    {
      "fromDt": "01/2011",
      "toDt": null,
      "orgNm": "SZYKOWNY FINANCIAL STRATEGIES",
      "city": "HOLLOAND",
      "state": 36,
      "stateSpecified": true
    },
    {
      "fromDt": "09/2014",
      "toDt": null,
      "orgNm": "VOYA FINANCIAL ADVISORS",
      "city": "HOLLAND",
      "state": 36,
      "stateSpecified": true
    },
    {
      "fromDt": "07/2015",
      "toDt": null,
      "orgNm": "COGENT WEALTH SOLUTIONS",
      "city": "HOLLAND",
      "state": 36,
      "stateSpecified": true
    }
  ],
  "OthrBuss": {
    "OthrBus": {
      "desc": "1)INDEPENDENT INSURANCE AGENT,YES,1133 COPR DR, STE A, HOLLAND, OH 43528,FIXED INSURANCE SALES,FIXED INSURANCE AGENT,02/16/2007,32/32,SALES OF FIXED INSURANCE PRODUCTS  2)SZYKOWNY FINANCIAL STRATEGIES,YES,1133 CORPORATE DRIVE HOLLOAND, OH 43528,DBA NAME,INDEPENDENT AGENT,01/01/2011,160,160,SELL FIXED INSURANCE  3)COGENT WEALTH SOLUTIONS; YES; 1133 CORPORATE DRIVE, STE A, HOLLAND, OH, 43528; FINANCIAL SERVICES / DBA; INVESTMENT ADVISOR REPRESENTATIVE; 07/31/2015; 160/160; SALE OF FIXED INSURANCE, SECURITIES, AND INVESTMENT PRODUCTS."
    }
  },
  "DRPs": []
}