{
  "Info": {
    "lastNm": "JACOBSON",
    "firstNm": "EDWARD",
    "midNm": "JOEL",
    "sufNm": null,
    "indvlPK": "3099582",
    "actvAGReg": 1,
    "link": "http://www.adviserinfo.sec.gov/IAPD/Individual/3099582"
  },
  "OthrNms": [],
  "CrntEmps": [
    {
      "CrntRgstns": [
        {
          "regAuth": 21,
          "regCat": 0,
          "st": 2,
          "stDt": "2000-08-07T00:00:00"
        }
      ],
      "BrnchOfLocs": [
        {
          "str1": "10711 RED RUN BLVD",
          "str2": "SUITE 101",
          "city": "OWINGS MILLS",
          "state": 21,
          "stateSpecified": true,
          "cntry": "United States",
          "postlCd": "21117"
        }
      ],
      "orgNm": "GLASS JACOBSON FINANCIAL GROUP",
      "orgPK": "120141",
      "str1": "10711 RED RUN BLVD., SUITE 101",
      "str2": null,
      "city": "OWINGS MILLS",
      "state": 21,
      "stateSpecified": true,
      "cntry": "United States",
      "postlCd": "21117"
    }
  ],
  "Exms": [
    {
      "exmCd": 2,
      "exmNm": "Uniform Investment Adviser Law Examination",
      "exmDt": "1998-07-14T00:00:00",
      "exmDtSpecified": true
    }
  ],
  "Dsgntns": [],
  "PrevRgstns": [],
  "EmpHss": [
    {
      "fromDt": "01/1980",
      "toDt": null,
      "orgNm": "GLASS JACOBSON & ASSOCIATES PA",
      "city": "OWINGS MILLS",
      "state": 21,
      "stateSpecified": true
    }
  ],
  "OthrBuss": {
    "OthrBus": null
  },
  "DRPs": []
}