{
  "Info": {
    "lastNm": "RAU",
    "firstNm": "DENISE",
    "midNm": "EMERSON",
    "sufNm": null,
    "indvlPK": "3100099",
    "actvAGReg": 0,
    "link": "http://www.adviserinfo.sec.gov/IAPD/Individual/3100099"
  },
  "OthrNms": [],
  "CrntEmps": [
    {
      "CrntRgstns": [
        {
          "regAuth": 19,
          "regCat": 0,
          "st": 2,
          "stDt": "2005-01-10T00:00:00"
        },
        {
          "regAuth": 45,
          "regCat": 0,
          "st": 2,
          "stDt": "2012-07-02T00:00:00"
        }
      ],
      "BrnchOfLocs": [
        {
          "str1": "1634 RYAN ST",
          "str2": null,
          "city": "LAKE CHARLES",
          "state": 19,
          "stateSpecified": true,
          "cntry": "United States",
          "postlCd": "70601-5949"
        }
      ],
      "orgNm": "LPL FINANCIAL LLC",
      "orgPK": "6413",
      "str1": "75 STATE STREET, 22ND FLOOR",
      "str2": null,
      "city": "BOSTON",
      "state": 20,
      "stateSpecified": true,
      "cntry": "United States",
      "postlCd": "02109"
    }
  ],
  "Exms": [
    {
      "exmCd": 0,
      "exmNm": "Uniform Securities Agent State Law Examination",
      "exmDt": "2002-01-14T00:00:00",
      "exmDtSpecified": true
    }
  ],
  "Dsgntns": [
    {
      "dsgntnNm": "Certified Financial Planner"
    }
  ],
  "PrevRgstns": [
    {
      "BrnchOfLocs": [
        {
          "city": "LAKE CHARLES",
          "state": 19,
          "stateSpecified": true
        }
      ],
      "orgNm": "PARK AVENUE SECURITIES LLC",
      "orgPK": "46173",
      "regBeginDt": "2002-09-18T00:00:00",
      "regBeginDtSpecified": true,
      "regEndDt": "2005-01-12T00:00:00",
      "regEndDtSpecified": true
    }
  ],
  "EmpHss": [
    {
      "fromDt": "01/2005",
      "toDt": null,
      "orgNm": "LPL FINANCIAL LLC",
      "city": "LAKE CHARLES",
      "state": 19,
      "stateSpecified": true
    }
  ],
  "OthrBuss": {
    "OthrBus": {
      "desc": "1. OUTSIDE SALES OF NON-VARIABLE INSURANCE PRODUCTS RELATIONSHIP WITH LONG-TERM CARE -APPROVED 6/20/05. 2. DBA- RAU FINANCIAL GROUP - LAKE CHARLES, LA - APPROVED 1/25/08.  3. 08/26/2011 - RFG PROPERTIES, LLC - REAL ESTATE RENTAL  4. 08/19/2014 - SAM'S SANCTUARY, LLC - BUSINESS ENTITY FOR TAX/INVESTMENT PURPOSES ONLY - SAM'S SANCTUARY, LLC - TIME SPENT 1 HOUR PER MONTH - LAKE CHARLES, LA"
    }
  },
  "DRPs": []
}