{
  "Info": {
    "lastNm": "WINSETT",
    "firstNm": "PATRICIA",
    "midNm": "DOUGLAS",
    "sufNm": null,
    "indvlPK": "3104879",
    "actvAGReg": 0,
    "link": "http://www.adviserinfo.sec.gov/IAPD/Individual/3104879"
  },
  "OthrNms": [
    {
      "lastNm": "DOUGLAS",
      "firstNm": "PATRICIA",
      "midNm": "CHERYLANE",
      "sufNm": null
    },
    {
      "lastNm": "WINSETT",
      "firstNm": "PATRICIA",
      "midNm": "DOUGLAS",
      "sufNm": null
    }
  ],
  "CrntEmps": [
    {
      "CrntRgstns": [
        {
          "regAuth": 1,
          "regCat": 0,
          "st": 2,
          "stDt": "2011-01-03T00:00:00"
        }
      ],
      "BrnchOfLocs": [
        {
          "str1": "2418 OLD MOULTON RD SW",
          "str2": null,
          "city": "DECATUR",
          "state": 1,
          "stateSpecified": true,
          "cntry": "United States",
          "postlCd": "35603"
        }
      ],
      "orgNm": "H.D. VEST ADVISORY SERVICES, INC",
      "orgPK": "104556",
      "str1": "6333 NORTH STATE HIGHWAY 161",
      "str2": "4TH FLOOR",
      "city": "IRVING",
      "state": 45,
      "stateSpecified": true,
      "cntry": "United States",
      "postlCd": "75038"
    }
  ],
  "Exms": [
    {
      "exmCd": 0,
      "exmNm": "Uniform Securities Agent State Law Examination",
      "exmDt": "1998-10-15T00:00:00",
      "exmDtSpecified": true
    },
    {
      "exmCd": 2,
      "exmNm": "Uniform Investment Adviser Law Examination",
      "exmDt": "2010-10-07T00:00:00",
      "exmDtSpecified": true
    }
  ],
  "Dsgntns": [],
  "PrevRgstns": [],
  "EmpHss": [
    {
      "fromDt": "10/1991",
      "toDt": null,
      "orgNm": "EXPRESS TAX",
      "city": "DECATUR",
      "state": 1,
      "stateSpecified": true
    },
    {
      "fromDt": "12/2001",
      "toDt": "03/2008",
      "orgNm": "NATIONWIDE SECURITIES, INC",
      "city": "DUBLIN",
      "state": 36,
      "stateSpecified": true
    },
    {
      "fromDt": "12/2001",
      "toDt": "03/2008",
      "orgNm": "NATIONWIDE/GILBERT F. TERRY",
      "city": "DECATUR",
      "state": 1,
      "stateSpecified": true
    },
    {
      "fromDt": "01/2004",
      "toDt": null,
      "orgNm": "WINSETT FINANCIAL GROUP, INC.",
      "city": "DECATUR",
      "state": 1,
      "stateSpecified": true
    },
    {
      "fromDt": "03/2008",
      "toDt": null,
      "orgNm": "H.D. VEST INVESTMENT SERVICES",
      "city": "DECATUR",
      "state": 1,
      "stateSpecified": true
    },
    {
      "fromDt": "01/2011",
      "toDt": null,
      "orgNm": "H.D.VEST ADVISORY SERVICES",
      "city": "DECATUR",
      "state": 1,
      "stateSpecified": true
    }
  ],
  "OthrBuss": {
    "OthrBus": {
      "desc": "ALABAMA ASSOCIATION OF ACCOUNT~'NIR'~2225 DRAKE AVE SW~STE 8~HUNTSVILLE~AL~35805~CLUB/ASSOCIATION DIRECTOR/OFFICER~VICE PRESIDENT~6/2012~5HRS~0HRS~MEET WITH STATE ORGANIZATION TO FURTHER ACCOUNTING PRINCIPLES IN STATE.~~ALLIANZ LIFE INSURANCE~'NIR'~1633 BROADWAY~~NEW YORK~NY~10019~INDEPENDENT INSURANCE AGENT~INSURANCE SALES AGENT~9/2009~4HRS~4HRS~HEALTH, LIFE AND VARIABLE PRODUCTS~~AMERICAN GENERAL LIFE~'NIR'~P.O. BOX 4373~~HOUSTON~TX~77210-4373~INDEPENDENT INSURANCE AGENT~INSURANCE SALES AGENT~7/2012~4HRS~4HRS~SALES OF LIFE INSURANCE RELATED PRODUCTS.~~BELIEVERS ASSEMBLY~'NIR'~3311 OLD MOULTON RD~~DECATUR~AL~35603~COMPANY/ASSOCIATION CONTROLLER/ACCOUNTANT/TREASURY~TREASURER/COMPTROLLER~12/2009~1HRS~0HRS~SMALL CHURCH TREASURER, MAKE DEPOSITS & WRITE CHECKS~~EXPRESS TAX~'NIR'~2418 OLD MULTON RD~~DECATUR~AL~35603~TAX PREPARATION/ACCOUNTING~OWNER/SOLE PROPRIETER~12/2009~40HRS~40HRS~ MANAGER, EA, TAX PREPARER~~H.D. VEST INSURANCE AGENCY INC~'NIR'~6333 NORTH STATE HWY 161~4TH FLOOR~IRVING~TX~75038~EQUITY INDEXED ANNUITY~EQUITY INDEXED ANNUITY ~12/2009~2HRS~2HRS~INSURANCE SALES~~H.D. VEST INSURANCE AGENCY INC~'NIR'~6333 NORTH STATE HWY 161~4TH FLOOR~IRVING~TX~75038~EQUITY INDEXED ANNUITY~EQUITY INDEXED ANNUITY ~3/2011~5HRS~5HRS~EQUITY INDEX ANNUITY SALES REPRESENTATIVE~~ILLINOIS MUTUAL~'NIR'~300 SW ADAMS~~PEORIA~IL~61634~INDEPENDENT INSURANCE AGENT~INSURANCE SALES AGENT~6/2011~4HRS~4HRS~LIFE, HEALTH, AND VARIABLE PRODUCTS~~LINCOLN NATL LIFE INS~'NIR'~350 CHURCH STREET~~HARTFORD~CT~06103~INDEPENDENT INSURANCE AGENT~INSURANCE SALES AGENT~6/2011~4HRS~4HRS~LIFE, HEALTH AND VARIABLE PRODUCTS~~MASS MUTUAL LIFE INS~'NIR'~1295 STATE STREET~~SPRINGFIELD~MA~01111~INDEPENDENT INSURANCE AGENT~INSURANCE SALES AGENT~4/2009~4HRS~4HRS~LIFE, HEALTH AND VARIABLE PRODUCTS~~NATIONWIDE LIFE & ANN~'NIR'~5100 RINGS ROAD~~DUBLIN~OH~43017~INDEPENDENT INSURANCE AGENT~INSURANCE SALES AGENT~10/2008~4HRS~4HRS~LIFE, HEALTH, AND VARIABLE PRODUCTS~~WINSETT FINANCIAL GROUP, INC.~'NIR'~2418 OLD MOULTON RD~~DECATUR~AL~35603~TAX PREPARATION/ACCOUNTING~PRESIDENT~12/2009~10HRS~10HRS~ MANAGER & OFFICER~~WINSETT FINANCIAL GROUP, INC.~'NIR'~10971 COUNTY LINE ROAD~SUITE E~MADISON~AL~35758~TAX PREPARATION/ACCOUNTING~PRESIDENT~1/2014~0HRS~0HRS~SECOND LOCATION FOR SERVICES."
    }
  },
  "DRPs": []
}