{
  "Info": {
    "lastNm": "DOYLE",
    "firstNm": "LESLIE",
    "midNm": "ELLERSON",
    "sufNm": null,
    "indvlPK": "3107849",
    "actvAGReg": 0,
    "link": "http://www.adviserinfo.sec.gov/IAPD/Individual/3107849"
  },
  "OthrNms": [
    {
      "lastNm": "ELLERSON",
      "firstNm": "LESLIE",
      "midNm": "A",
      "sufNm": null
    },
    {
      "lastNm": "ELLERSON",
      "firstNm": "LESLIE",
      "midNm": "ANN",
      "sufNm": null
    }
  ],
  "CrntEmps": [
    {
      "CrntRgstns": [
        {
          "regAuth": 47,
          "regCat": 0,
          "st": 2,
          "stDt": "2009-10-23T00:00:00"
        }
      ],
      "BrnchOfLocs": [
        {
          "str1": "1 COMMERCIAL PL",
          "str2": null,
          "city": "NORFOLK",
          "state": 47,
          "stateSpecified": true,
          "cntry": "United States",
          "postlCd": "23510"
        }
      ],
      "orgNm": "MERRILL LYNCH, PIERCE, FENNER & SMITH INCORPORATED",
      "orgPK": "7691",
      "str1": "ONE BRYANT PARK",
      "str2": null,
      "city": "NEW YORK",
      "state": 35,
      "stateSpecified": true,
      "cntry": "United States",
      "postlCd": "10036"
    }
  ],
  "Exms": [
    {
      "exmCd": 3,
      "exmNm": "Uniform Combined State Law Examination",
      "exmDt": "1999-04-15T00:00:00",
      "exmDtSpecified": true
    }
  ],
  "Dsgntns": [],
  "PrevRgstns": [
    {
      "BrnchOfLocs": [
        {
          "city": "RICHMOND",
          "state": 47,
          "stateSpecified": true
        }
      ],
      "orgNm": "MERRILL LYNCH, PIERCE, FENNER & SMITH INCORPORATED",
      "orgPK": "7691",
      "regBeginDt": "1999-05-03T00:00:00",
      "regBeginDtSpecified": true,
      "regEndDt": "2002-05-07T00:00:00",
      "regEndDtSpecified": true
    },
    {
      "BrnchOfLocs": [
        {
          "city": "NORFOLK",
          "state": 47,
          "stateSpecified": true
        },
        {
          "city": "NORFOLK",
          "state": 47,
          "stateSpecified": true
        },
        {
          "city": "RICHMOND",
          "state": 47,
          "stateSpecified": true
        }
      ],
      "orgNm": "BANC OF AMERICA INVESTMENT SERVICES, INC.",
      "orgPK": "16361",
      "regBeginDt": "2002-05-31T00:00:00",
      "regBeginDtSpecified": true,
      "regEndDt": "2009-10-23T00:00:00",
      "regEndDtSpecified": true
    }
  ],
  "EmpHss": [
    {
      "fromDt": "05/2002",
      "toDt": "10/2009",
      "orgNm": "BANC OF AMERICA INVESTMENT SERVICES, INC.",
      "city": "NORFOLK",
      "state": 47,
      "stateSpecified": true
    },
    {
      "fromDt": "05/2002",
      "toDt": null,
      "orgNm": "BANK OF AMERICA, N.A.",
      "city": "NORFOLK",
      "state": 47,
      "stateSpecified": true
    },
    {
      "fromDt": "10/2009",
      "toDt": null,
      "orgNm": "MERRILL LYNCH, PIERCE, FENNER & SMITH INCORPORATED",
      "city": "NORFOLK",
      "state": 47,
      "stateSpecified": true
    }
  ],
  "OthrBuss": {
    "OthrBus": {
      "desc": "1)VIRGINIA ARTS FESTIVAL; NON INVESTMENT RELATED; 220 BOUSH STREET, NORFOLK, VA 23510; CULTURAL TOURISM INITIATIVE BY THE CITY OF NORFOLK; DIRECTOR; START DATE: 09/01/06; HOURS DEVOTED PER MONTH:6; DURING TRADING HOURS:0; QUARTERLY BOARD MEETINGS & MONTHLY EXECUTIVE COMMITTEE MEETINGS. 2)SALVATION ARMY TIDEWATER COMMAND; NON INVESTMENT RELATED; 5525 RABY RD, NORFOLK, VA 23502; MEETING PEOPLES NEEDS; DIRECTOR; START DATE: 10/01/06; HOURS DEVOTED PER MONTH:2; DURING TRADING HOURS:0; MONTHLY BOARD MEETINGS & MONTHLY EXECUTIVE COMMITTEE MEETINGS. 3)RENTAL HOME; NON INVESTMENT RELATED; OWNER; START DATE: 09/15/08; HOURS DEVOTED PER MONTH:1; DURING TRADING HOURS:0; COLLECT RENT & RESPOND TO ANY MAINTNANCE ISSUES."
    }
  },
  "DRPs": []
}