{
  "Info": {
    "lastNm": "SAMPEDRO",
    "firstNm": "LUIS",
    "midNm": "MIGUEL",
    "sufNm": null,
    "indvlPK": "3110938",
    "actvAGReg": 0,
    "link": "http://www.adviserinfo.sec.gov/IAPD/Individual/3110938"
  },
  "OthrNms": [
    {
      "lastNm": "SAMPEDRO",
      "firstNm": "LOUIE",
      "midNm": null,
      "sufNm": null
    }
  ],
  "CrntEmps": [
    {
      "CrntRgstns": [
        {
          "regAuth": 4,
          "regCat": 0,
          "st": 2,
          "stDt": "2007-08-06T00:00:00"
        }
      ],
      "BrnchOfLocs": [
        {
          "str1": "2000 AVENUE OF THE STARS",
          "str2": null,
          "city": "LOS ANGELES",
          "state": 4,
          "stateSpecified": true,
          "cntry": "United States",
          "postlCd": "90067"
        }
      ],
      "orgNm": "UBS FINANCIAL SERVICES INC.",
      "orgPK": "8174",
      "str1": "1200 HARBOR BOULEVARD",
      "str2": null,
      "city": "WEEHAWKEN",
      "state": 32,
      "stateSpecified": true,
      "cntry": "United States",
      "postlCd": "07086"
    }
  ],
  "Exms": [
    {
      "exmCd": 0,
      "exmNm": "Uniform Securities Agent State Law Examination",
      "exmDt": "1998-09-04T00:00:00",
      "exmDtSpecified": true
    },
    {
      "exmCd": 2,
      "exmNm": "Uniform Investment Adviser Law Examination",
      "exmDt": "2000-08-14T00:00:00",
      "exmDtSpecified": true
    }
  ],
  "Dsgntns": [],
  "PrevRgstns": [],
  "EmpHss": [
    {
      "fromDt": "08/1998",
      "toDt": "07/2007",
      "orgNm": "GOLDMAN, SACHS & CO.",
      "city": "LOS ANGELES",
      "state": 4,
      "stateSpecified": true
    },
    {
      "fromDt": "07/2007",
      "toDt": null,
      "orgNm": "UBS FINANCIAL SERVICES INC",
      "city": "LOS ANGELES",
      "state": 4,
      "stateSpecified": true
    }
  ],
  "OthrBuss": {
    "OthrBus": {
      "desc": "MANAGEMENT CONSULTANT FOR TWO CHIROPRACTIC CENTERS"
    }
  },
  "DRPs": [
    {
      "hasRegAction": 1,
      "hasRegActionSpecified": true,
      "hasCriminal": 1,
      "hasCriminalSpecified": true,
      "hasBankrupt": 1,
      "hasBankruptSpecified": true,
      "hasCivilJudc": 1,
      "hasCivilJudcSpecified": true,
      "hasBond": 1,
      "hasBondSpecified": true,
      "hasJudgment": 1,
      "hasJudgmentSpecified": true,
      "hasInvstgn": 1,
      "hasInvstgnSpecified": true,
      "hasCustComp": 0,
      "hasCustCompSpecified": true,
      "hasTermination": 1,
      "hasTerminationSpecified": true
    }
  ]
}