{
  "Info": {
    "lastNm": "DAHLKE",
    "firstNm": "MARK",
    "midNm": "ARTHUR",
    "sufNm": null,
    "indvlPK": "3118551",
    "actvAGReg": 0,
    "link": "http://www.adviserinfo.sec.gov/IAPD/Individual/3118551"
  },
  "OthrNms": [
    {
      "lastNm": "DAHLKE",
      "firstNm": "MARK",
      "midNm": "A",
      "sufNm": null
    }
  ],
  "CrntEmps": [
    {
      "CrntRgstns": [
        {
          "regAuth": 50,
          "regCat": 0,
          "st": 2,
          "stDt": "2008-01-01T00:00:00"
        },
        {
          "regAuth": 45,
          "regCat": 0,
          "st": 2,
          "stDt": "2013-04-23T00:00:00"
        }
      ],
      "BrnchOfLocs": [
        {
          "str1": "2 COPELAND AVE #1",
          "str2": null,
          "city": "LACROSSE",
          "state": 50,
          "stateSpecified": true,
          "cntry": "United States",
          "postlCd": "54603"
        }
      ],
      "orgNm": "WELLS FARGO ADVISORS, LLC",
      "orgPK": "19616",
      "str1": "ONE NORTH JEFFERSON AVENUE",
      "str2": "MAIL CODE: H0004-050",
      "city": "ST. LOUIS",
      "state": 25,
      "stateSpecified": true,
      "cntry": "United States",
      "postlCd": "63103-2205"
    }
  ],
  "Exms": [
    {
      "exmCd": 0,
      "exmNm": "Uniform Securities Agent State Law Examination",
      "exmDt": "1998-10-16T00:00:00",
      "exmDtSpecified": true
    },
    {
      "exmCd": 3,
      "exmNm": "Uniform Combined State Law Examination",
      "exmDt": "2008-12-27T00:00:00",
      "exmDtSpecified": true
    }
  ],
  "Dsgntns": [
    {
      "dsgntnNm": "Certified Financial Planner"
    }
  ],
  "PrevRgstns": [],
  "EmpHss": [
    {
      "fromDt": "08/1998",
      "toDt": "01/2008",
      "orgNm": "A.G. EDWARDS",
      "city": "LA CROSSE",
      "state": 50,
      "stateSpecified": true
    },
    {
      "fromDt": "01/2008",
      "toDt": "05/2009",
      "orgNm": "WACHOVIA SECURITIES, LLC",
      "city": "LACROSSE",
      "state": 50,
      "stateSpecified": true
    },
    {
      "fromDt": "05/2009",
      "toDt": null,
      "orgNm": "WELLS FARGO ADVISORS LLC",
      "city": "LA CROSSE",
      "state": 50,
      "stateSpecified": true
    }
  ],
  "OthrBuss": {
    "OthrBus": {
      "desc": "LACROSSE COUNTY REPUBLICAN PARTY, P.O. BOX 772, LACROSSE, WI 54002.  THE TYPE OF BUSINESS IS TO SUPPORT CONSTRUCTIVE VALUES; BUILD REPUBLICAN PARTY.  HOLDS TITLE OF COMMITTEE MEMBER.  DUTIES ARE ATTEND & PARTICIPATE MEETINGS.  MEETS 2 HOURS PER MONTH AND 0 DURING SECURITIES TRADING HOURS.  BNI WISCONSIN; INV. RELATED; LACROSSE, WI; BUSINESS DEVELOPMENT/NETWORKING; SECRETARY/TREASURER; START DATE 10/2015; 5 HRS PER MONTH; 5 HRS DURING TRADING."
    }
  },
  "DRPs": []
}