{
  "Info": {
    "lastNm": "CONWAY",
    "firstNm": "ADAM",
    "midNm": "DOUGLAS",
    "sufNm": null,
    "indvlPK": "3120544",
    "actvAGReg": 0,
    "link": "http://www.adviserinfo.sec.gov/IAPD/Individual/3120544"
  },
  "OthrNms": [],
  "CrntEmps": [
    {
      "CrntRgstns": [
        {
          "regAuth": 36,
          "regCat": 0,
          "st": 2,
          "stDt": "2006-02-02T00:00:00"
        },
        {
          "regAuth": 45,
          "regCat": 0,
          "st": 3,
          "stDt": "2016-07-11T00:00:00"
        }
      ],
      "BrnchOfLocs": [
        {
          "str1": "1703 DALE RD",
          "str2": null,
          "city": "CINCINNATI",
          "state": 36,
          "stateSpecified": true,
          "cntry": "United States",
          "postlCd": "45206"
        },
        {
          "str1": "348 GRANVILLE ST",
          "str2": "STE E",
          "city": "GAHANNA",
          "state": 36,
          "stateSpecified": true,
          "cntry": "United States",
          "postlCd": "43230"
        }
      ],
      "orgNm": "CAMBRIDGE INVESTMENT RESEARCH ADVISORS, INC.",
      "orgPK": "134139",
      "str1": "1776 PLEASANT PLAIN RD.",
      "str2": null,
      "city": "FAIRFIELD",
      "state": 13,
      "stateSpecified": true,
      "cntry": "United States",
      "postlCd": "52556-8757"
    }
  ],
  "Exms": [
    {
      "exmCd": 0,
      "exmNm": "Uniform Securities Agent State Law Examination",
      "exmDt": "2006-01-30T00:00:00",
      "exmDtSpecified": true
    }
  ],
  "Dsgntns": [],
  "PrevRgstns": [],
  "EmpHss": [
    {
      "fromDt": "08/2005",
      "toDt": "06/2009",
      "orgNm": "SLOAN CONWAY GROUP",
      "city": "CINCINNATI",
      "state": 36,
      "stateSpecified": true
    },
    {
      "fromDt": "12/2005",
      "toDt": null,
      "orgNm": "CAMBRIDGE INVESTMENT RESEARCH, INC",
      "city": "FAIRFIELD",
      "state": 13,
      "stateSpecified": true
    },
    {
      "fromDt": "02/2006",
      "toDt": null,
      "orgNm": "CAMBRIDGE INVESTMENT RESEARCH ADVISORS, INC.",
      "city": "FAIRFIELD",
      "state": 13,
      "stateSpecified": true
    }
  ],
  "OthrBuss": {
    "OthrBus": {
      "desc": "1)INDEPENDENT INSURANCE AGENT FOR VARIOUS INDPENDENT INSURANCE COMPANIES."
    }
  },
  "DRPs": []
}