{
  "Info": {
    "lastNm": "HOPKINS",
    "firstNm": "SHARI",
    "midNm": "LYNN",
    "sufNm": null,
    "indvlPK": "3122759",
    "actvAGReg": 0,
    "link": "http://www.adviserinfo.sec.gov/IAPD/Individual/3122759"
  },
  "OthrNms": [
    {
      "lastNm": "DOW",
      "firstNm": "SHARI",
      "midNm": "LYNN",
      "sufNm": null
    },
    {
      "lastNm": "MORK",
      "firstNm": "SHARI",
      "midNm": "LYNN",
      "sufNm": null
    },
    {
      "lastNm": "MORK",
      "firstNm": "SHARI",
      "midNm": "LYNN",
      "sufNm": null
    },
    {
      "lastNm": "MORK-RISTILA",
      "firstNm": "SHARI",
      "midNm": "LYNN",
      "sufNm": null
    }
  ],
  "CrntEmps": [
    {
      "CrntRgstns": [
        {
          "regAuth": 50,
          "regCat": 0,
          "st": 2,
          "stDt": "2010-08-26T00:00:00"
        },
        {
          "regAuth": 24,
          "regCat": 0,
          "st": 2,
          "stDt": "2013-12-23T00:00:00"
        }
      ],
      "BrnchOfLocs": [
        {
          "str1": "1516 LOSEY BLVD S",
          "str2": null,
          "city": "LA CROSSE",
          "state": 50,
          "stateSpecified": true,
          "cntry": "United States",
          "postlCd": "54601"
        },
        {
          "str1": "742 GRAND AVENUE",
          "str2": null,
          "city": "ST. PAUL",
          "state": 24,
          "stateSpecified": true,
          "cntry": "United States",
          "postlCd": "55105"
        }
      ],
      "orgNm": "LPL FINANCIAL LLC",
      "orgPK": "6413",
      "str1": "75 STATE STREET, 22ND FLOOR",
      "str2": null,
      "city": "BOSTON",
      "state": 20,
      "stateSpecified": true,
      "cntry": "United States",
      "postlCd": "02109"
    }
  ],
  "Exms": [
    {
      "exmCd": 0,
      "exmNm": "Uniform Securities Agent State Law Examination",
      "exmDt": "1998-09-24T00:00:00",
      "exmDtSpecified": true
    },
    {
      "exmCd": 2,
      "exmNm": "Uniform Investment Adviser Law Examination",
      "exmDt": "1998-10-21T00:00:00",
      "exmDtSpecified": true
    }
  ],
  "Dsgntns": [],
  "PrevRgstns": [
    {
      "BrnchOfLocs": [
        {
          "city": "PALO ALTO",
          "state": 4,
          "stateSpecified": true
        }
      ],
      "orgNm": "STRATEGIC ADVISERS, INC.",
      "orgPK": "104555",
      "regBeginDt": "2000-09-15T00:00:00",
      "regBeginDtSpecified": true,
      "regEndDt": "2008-03-28T00:00:00",
      "regEndDtSpecified": true
    },
    {
      "BrnchOfLocs": [
        {
          "city": "ATHENS",
          "state": 36,
          "stateSpecified": true
        },
        {
          "city": "BELPRE",
          "state": 36,
          "stateSpecified": true
        },
        {
          "city": "MARIETTA",
          "state": 36,
          "stateSpecified": true
        }
      ],
      "orgNm": "CHASE INVESTMENT SERVICES CORP.",
      "orgPK": "25574",
      "regBeginDt": "2008-03-31T00:00:00",
      "regBeginDtSpecified": true,
      "regEndDt": "2009-11-10T00:00:00",
      "regEndDtSpecified": true
    },
    {
      "BrnchOfLocs": [
        {
          "city": "BIRMINGHAM",
          "state": 1,
          "stateSpecified": true
        },
        {
          "city": "ONALASKA",
          "state": 50,
          "stateSpecified": true
        },
        {
          "city": "ONALASKA",
          "state": 50,
          "stateSpecified": true
        }
      ],
      "orgNm": "PROEQUITIES, INC.",
      "orgPK": "15708",
      "regBeginDt": "2010-06-02T00:00:00",
      "regBeginDtSpecified": true,
      "regEndDt": "2010-08-25T00:00:00",
      "regEndDtSpecified": true
    }
  ],
  "EmpHss": [
    {
      "fromDt": "07/2000",
      "toDt": "01/2008",
      "orgNm": "FIDELITY INVESTMENTS",
      "city": "PALO ALTO",
      "state": 4,
      "stateSpecified": true
    },
    {
      "fromDt": "09/2000",
      "toDt": "01/2008",
      "orgNm": "STRATEGIC ADVISERS, INC",
      "city": "ALTO",
      "state": 4,
      "stateSpecified": true
    },
    {
      "fromDt": "01/2008",
      "toDt": "03/2008",
      "orgNm": "UNEMPLOYED",
      "city": "UNEMPLOYED",
      "state": 15,
      "stateSpecified": true
    },
    {
      "fromDt": "03/2008",
      "toDt": "11/2009",
      "orgNm": "CHASE INVESTMENT SERVICES CORPORATION",
      "city": "COLUMBUS",
      "state": 36,
      "stateSpecified": true
    },
    {
      "fromDt": "11/2009",
      "toDt": "04/2010",
      "orgNm": "UNEMPLOYED",
      "city": "UNEMPLOYED",
      "state": 51,
      "stateSpecified": true
    },
    {
      "fromDt": "05/2010",
      "toDt": "08/2010",
      "orgNm": "BANKERS LIFE&CAS/PROEQUITIES, INC",
      "city": "ONALASKA",
      "state": 50,
      "stateSpecified": true
    },
    {
      "fromDt": "08/2010",
      "toDt": null,
      "orgNm": "COULEE STATE BANK",
      "city": "LA CROSSE",
      "state": 50,
      "stateSpecified": true
    },
    {
      "fromDt": "08/2010",
      "toDt": null,
      "orgNm": "LPL FINANCIAL, LLC",
      "city": "LA CROSSE",
      "state": 50,
      "stateSpecified": true
    }
  ],
  "OthrBuss": {
    "OthrBus": {
      "desc": "1. 08/20/2010: DBA ONLY - COULE INVESTMENT CENTER - LA CROSSE, WI."
    }
  },
  "DRPs": []
}