{
  "Info": {
    "lastNm": "SHAN",
    "firstNm": "LEI",
    "midNm": null,
    "sufNm": null,
    "indvlPK": "3123255",
    "actvAGReg": 0,
    "link": "http://www.adviserinfo.sec.gov/IAPD/Individual/3123255"
  },
  "OthrNms": [],
  "CrntEmps": [
    {
      "CrntRgstns": [
        {
          "regAuth": 10,
          "regCat": 0,
          "st": 2,
          "stDt": "2005-01-12T00:00:00"
        },
        {
          "regAuth": 45,
          "regCat": 0,
          "st": 2,
          "stDt": "2005-01-12T00:00:00"
        }
      ],
      "BrnchOfLocs": [
        {
          "str1": "3455 PEACHTREE RD NE",
          "str2": null,
          "city": "ATLANTA",
          "state": 10,
          "stateSpecified": true,
          "cntry": "United States",
          "postlCd": "30326"
        }
      ],
      "orgNm": "MERRILL LYNCH, PIERCE, FENNER & SMITH INCORPORATED",
      "orgPK": "7691",
      "str1": "ONE BRYANT PARK",
      "str2": null,
      "city": "NEW YORK",
      "state": 35,
      "stateSpecified": true,
      "cntry": "United States",
      "postlCd": "10036"
    }
  ],
  "Exms": [
    {
      "exmCd": 3,
      "exmNm": "Uniform Combined State Law Examination",
      "exmDt": "1998-11-07T00:00:00",
      "exmDtSpecified": true
    }
  ],
  "Dsgntns": [],
  "PrevRgstns": [
    {
      "BrnchOfLocs": [
        {
          "city": "ATLANTA",
          "state": 10,
          "stateSpecified": true
        }
      ],
      "orgNm": "PERSHING LLC",
      "orgPK": "7560",
      "regBeginDt": "1999-01-07T00:00:00",
      "regBeginDtSpecified": true,
      "regEndDt": "2003-01-17T00:00:00",
      "regEndDtSpecified": true
    },
    {
      "BrnchOfLocs": [
        {
          "city": "ATLANTA",
          "state": 10,
          "stateSpecified": true
        }
      ],
      "orgNm": "CREDIT SUISSE SECURITIES (USA) LLC",
      "orgPK": "816",
      "regBeginDt": "2003-01-17T00:00:00",
      "regBeginDtSpecified": true,
      "regEndDt": "2005-02-10T00:00:00",
      "regEndDtSpecified": true
    },
    {
      "BrnchOfLocs": [
        {
          "city": "ATLANTA",
          "state": 10,
          "stateSpecified": true
        }
      ],
      "orgNm": "MERRILL LYNCH, PIERCE, FENNER & SMITH INCORPORATED",
      "orgPK": "7691",
      "regBeginDt": "2005-01-07T00:00:00",
      "regBeginDtSpecified": true,
      "regEndDt": "2005-01-10T00:00:00",
      "regEndDtSpecified": true
    }
  ],
  "EmpHss": [
    {
      "fromDt": "01/2005",
      "toDt": null,
      "orgNm": "MERRILL LYNCH, PIERCE, FENNER & SMITH INCORPORATED ",
      "city": "ATLANTA",
      "state": 10,
      "stateSpecified": true
    },
    {
      "fromDt": "12/2009",
      "toDt": null,
      "orgNm": "BANK OF AMERICA, N.A.",
      "city": "ATLANTA",
      "state": 10,
      "stateSpecified": true
    }
  ],
  "OthrBuss": {
    "OthrBus": {
      "desc": "I*94341 FOR PROFIT OR NOT FOR PROFIT: FOR-PROFIT ORGANIZATION  NAME OF OUTSIDE BUSINESS ORGANIZATION: RENTAL PROPERTY 1  INVESTMENT RELATED: N  ADDRESS OF BUSINESS:   1366 SMITH ST,   ATLANTA, GEORGIA 30316  NATURE OF BUSINESS: OTHER, RENTAL PROPERTY  POSITION, TITLE, ASSOCIATION: OWNER,   START DATE OF RELATIONSHIP: 5/24/2016  NUMBER OF HOURS DEVOTED: 1 HOUR(S) ANNUALLY  NUMBER OF HOURS DEVOTED DURING TRADING HOURS: 0  DUTIES: RENTAL PROPERTY, PERSONALLY OWNED.    I*94343  FOR PROFIT OR NOT FOR PROFIT: FOR-PROFIT ORGANIZATION  NAME OF OUTSIDE BUSINESS ORGANIZATION: RENTAL PROPERTY 2  INVESTMENT RELATED: N  ADDRESS OF BUSINESS:   94 KENSINGTON ST,   ATLANTA, GEORGIA 30317  NATURE OF BUSINESS: OTHER,RENTAL PROPERTY  POSITION, TITLE, ASSOCIATION: OWNER,   START DATE OF RELATIONSHIP: 5/24/2016  NUMBER OF HOURS DEVOTED: 1 HOUR(S) ANNUALLY  NUMBER OF HOURS DEVOTED DURING TRADING HOURS: 0  DUTIES: RENTAL PROPERTY"
    }
  },
  "DRPs": []
}