{
  "Info": {
    "lastNm": "BAKER",
    "firstNm": "ELIZABETH",
    "midNm": "JANE",
    "sufNm": null,
    "indvlPK": "3130479",
    "actvAGReg": 0,
    "link": "http://www.adviserinfo.sec.gov/IAPD/Individual/3130479"
  },
  "OthrNms": [],
  "CrntEmps": [
    {
      "CrntRgstns": [
        {
          "regAuth": 6,
          "regCat": 0,
          "st": 2,
          "stDt": "2010-02-09T00:00:00"
        }
      ],
      "BrnchOfLocs": [
        {
          "str1": "211 MAIN ST 2ND FL",
          "str2": "[C1-RBO]",
          "city": "ANSONIA",
          "state": 6,
          "stateSpecified": true,
          "cntry": "United States",
          "postlCd": "06401"
        }
      ],
      "orgNm": "WELLS FARGO ADVISORS, LLC",
      "orgPK": "19616",
      "str1": "ONE NORTH JEFFERSON AVENUE",
      "str2": "MAIL CODE: H0004-050",
      "city": "ST. LOUIS",
      "state": 25,
      "stateSpecified": true,
      "cntry": "United States",
      "postlCd": "63103-2205"
    }
  ],
  "Exms": [
    {
      "exmCd": 0,
      "exmNm": "Uniform Securities Agent State Law Examination",
      "exmDt": "1998-11-04T00:00:00",
      "exmDtSpecified": true
    },
    {
      "exmCd": 2,
      "exmNm": "Uniform Investment Adviser Law Examination",
      "exmDt": "2010-02-22T00:00:00",
      "exmDtSpecified": true
    }
  ],
  "Dsgntns": [],
  "PrevRgstns": [],
  "EmpHss": [
    {
      "fromDt": "06/2003",
      "toDt": "05/2009",
      "orgNm": "WACHOVIA SECURITIES, LLC",
      "city": "SHELTON",
      "state": 6,
      "stateSpecified": true
    },
    {
      "fromDt": "05/2009",
      "toDt": null,
      "orgNm": "WELLS FARGO ADVISORS LLC",
      "city": "ANSONIA",
      "state": 6,
      "stateSpecified": true
    }
  ],
  "OthrBuss": {
    "OthrBus": {
      "desc": "1-BOY SCOUTS-FRIENDS OF SCOUTING. 2-VOLUNTEER ORGANIZATION 3-VOLUNTEER. 4-THIS IS A VOLUNTEER ORGANIZATION THAT I HELP DO FUND RAISING PROGRAMS WITH SUCH AS DINNERS, RABIES CLINICS, TALENT SHOWS. ANY PROCEEDS RAISED ARE FOR THE BENEFIT OF HOUSATONIC BSA COUNCILIN DERBY, CT 06418. 5-6-TIME IS USUALLY DEVOTED TO 5 OR 6 PROGRAMS A YEAR WITH BETWEEN 15-20 HOURS DEVOTED OVER A WEEK OR WEEKEND. USUALLY AFTER BUSINESS HOURS & SECURITIES TRADING HOURS."
    }
  },
  "DRPs": []
}