{
  "Info": {
    "lastNm": "HARWOOD",
    "firstNm": "EMILY",
    "midNm": "WHORTON",
    "sufNm": null,
    "indvlPK": "3132381",
    "actvAGReg": 0,
    "link": "http://www.adviserinfo.sec.gov/IAPD/Individual/3132381"
  },
  "OthrNms": [
    {
      "lastNm": "WHORTON",
      "firstNm": "EMILY",
      "midNm": "SUZANNE",
      "sufNm": null
    },
    {
      "lastNm": "WHORTON",
      "firstNm": "EMILY",
      "midNm": "SUZANNE",
      "sufNm": null
    }
  ],
  "CrntEmps": [
    {
      "CrntRgstns": [
        {
          "regAuth": 45,
          "regCat": 0,
          "st": 2,
          "stDt": "2005-08-15T00:00:00"
        }
      ],
      "BrnchOfLocs": [
        {
          "str1": "8401 N CENTRAL EXPWY",
          "str2": "SUITE #110",
          "city": "DALLAS",
          "state": 45,
          "stateSpecified": true,
          "cntry": "United States",
          "postlCd": "75225-4403"
        }
      ],
      "orgNm": "CHARLES SCHWAB & CO., INC.",
      "orgPK": "5393",
      "str1": "211 MAIN STREET",
      "str2": null,
      "city": "SAN FRANCISCO",
      "state": 4,
      "stateSpecified": true,
      "cntry": "United States",
      "postlCd": "94105"
    }
  ],
  "Exms": [
    {
      "exmCd": 0,
      "exmNm": "Uniform Securities Agent State Law Examination",
      "exmDt": "1998-11-04T00:00:00",
      "exmDtSpecified": true
    },
    {
      "exmCd": 3,
      "exmNm": "Uniform Combined State Law Examination",
      "exmDt": "2005-08-11T00:00:00",
      "exmDtSpecified": true
    }
  ],
  "Dsgntns": [],
  "PrevRgstns": [],
  "EmpHss": [
    {
      "fromDt": "06/2005",
      "toDt": null,
      "orgNm": "CHARLES SCHWAB & CO., INC.",
      "city": "DALLAS",
      "state": 45,
      "stateSpecified": true
    },
    {
      "fromDt": "06/2005",
      "toDt": null,
      "orgNm": "CHARLES SCHWAB BANK",
      "city": "DALLAS",
      "state": 45,
      "stateSpecified": true
    }
  ],
  "OthrBuss": {
    "OthrBus": {
      "desc": "CHARLES SCHWAB BANK INVESTMENT RELATED, BANK PRODUCTS, DUAL EMPLOYEE, 6/16/2005, REFERRALS OF HELOC, MORTGAGES, INVESTOR CHECKING PRODUCTS AND CREDIT CARDS FOR APPROX 20 HOURS PER MONTH."
    }
  },
  "DRPs": [
    {
      "hasRegAction": 1,
      "hasRegActionSpecified": true,
      "hasCriminal": 1,
      "hasCriminalSpecified": true,
      "hasBankrupt": 1,
      "hasBankruptSpecified": true,
      "hasCivilJudc": 1,
      "hasCivilJudcSpecified": true,
      "hasBond": 1,
      "hasBondSpecified": true,
      "hasJudgment": 1,
      "hasJudgmentSpecified": true,
      "hasInvstgn": 1,
      "hasInvstgnSpecified": true,
      "hasCustComp": 0,
      "hasCustCompSpecified": true,
      "hasTermination": 1,
      "hasTerminationSpecified": true
    }
  ]
}