{
  "Info": {
    "lastNm": "ROMANS",
    "firstNm": "WILLIAM",
    "midNm": "EDWARD",
    "sufNm": null,
    "indvlPK": "3134248",
    "actvAGReg": 0,
    "link": "http://www.adviserinfo.sec.gov/IAPD/Individual/3134248"
  },
  "OthrNms": [
    {
      "lastNm": "ROMANS",
      "firstNm": "BILL",
      "midNm": null,
      "sufNm": null
    },
    {
      "lastNm": "ROMANS",
      "firstNm": "WILLIAM",
      "midNm": null,
      "sufNm": null
    }
  ],
  "CrntEmps": [
    {
      "CrntRgstns": [
        {
          "regAuth": 9,
          "regCat": 0,
          "st": 2,
          "stDt": "1999-01-07T00:00:00"
        }
      ],
      "BrnchOfLocs": [
        {
          "str1": "309 S.E. OSCEOLA STREET",
          "str2": "SUITE 300",
          "city": "STUART",
          "state": 9,
          "stateSpecified": true,
          "cntry": "United States",
          "postlCd": "34994"
        }
      ],
      "orgNm": "RAYMOND JAMES & ASSOCIATES, INC.",
      "orgPK": "705",
      "str1": "880 CARILLON PARKWAY",
      "str2": null,
      "city": "ST PETERSBURG",
      "state": 9,
      "stateSpecified": true,
      "cntry": "United States",
      "postlCd": "33716"
    }
  ],
  "Exms": [
    {
      "exmCd": 3,
      "exmNm": "Uniform Combined State Law Examination",
      "exmDt": "1999-01-09T00:00:00",
      "exmDtSpecified": true
    }
  ],
  "Dsgntns": [],
  "PrevRgstns": [],
  "EmpHss": [
    {
      "fromDt": "10/1998",
      "toDt": null,
      "orgNm": "RAYMOND JAMES & ASSOCIATES, INC.",
      "city": "STUART",
      "state": 9,
      "stateSpecified": true
    }
  ],
  "OthrBuss": {
    "OthrBus": null
  },
  "DRPs": [
    {
      "hasRegAction": 1,
      "hasRegActionSpecified": true,
      "hasCriminal": 1,
      "hasCriminalSpecified": true,
      "hasBankrupt": 1,
      "hasBankruptSpecified": true,
      "hasCivilJudc": 1,
      "hasCivilJudcSpecified": true,
      "hasBond": 1,
      "hasBondSpecified": true,
      "hasJudgment": 1,
      "hasJudgmentSpecified": true,
      "hasInvstgn": 1,
      "hasInvstgnSpecified": true,
      "hasCustComp": 0,
      "hasCustCompSpecified": true,
      "hasTermination": 1,
      "hasTerminationSpecified": true
    }
  ]
}