{
  "Info": {
    "lastNm": "KICKHAFER",
    "firstNm": "BARBARA",
    "midNm": "ANN",
    "sufNm": null,
    "indvlPK": "3138995",
    "actvAGReg": 0,
    "link": "http://www.adviserinfo.sec.gov/IAPD/Individual/3138995"
  },
  "OthrNms": [
    {
      "lastNm": "KICKHAFER",
      "firstNm": "BARBARA",
      "midNm": "A",
      "sufNm": null
    },
    {
      "lastNm": "MUNDT",
      "firstNm": "BARBARA",
      "midNm": "ANN",
      "sufNm": null
    }
  ],
  "CrntEmps": [
    {
      "CrntRgstns": [
        {
          "regAuth": 24,
          "regCat": 0,
          "st": 2,
          "stDt": "2013-11-14T00:00:00"
        }
      ],
      "BrnchOfLocs": [
        {
          "str1": "400 ROBERT ST N",
          "str2": "SUITE 1400",
          "city": "ST. PAUL",
          "state": 24,
          "stateSpecified": true,
          "cntry": "United States",
          "postlCd": "55101-2027"
        }
      ],
      "orgNm": "RBC CAPITAL MARKETS, LLC",
      "orgPK": "31194",
      "str1": "3 WORLD FINANCIAL CENTER",
      "str2": "200 VESEY ST.",
      "city": "NEW YORK",
      "state": 35,
      "stateSpecified": true,
      "cntry": "United States",
      "postlCd": "10281"
    }
  ],
  "Exms": [
    {
      "exmCd": 0,
      "exmNm": "Uniform Securities Agent State Law Examination",
      "exmDt": "2000-10-03T00:00:00",
      "exmDtSpecified": true
    },
    {
      "exmCd": 2,
      "exmNm": "Uniform Investment Adviser Law Examination",
      "exmDt": "2012-05-16T00:00:00",
      "exmDtSpecified": true
    }
  ],
  "Dsgntns": [],
  "PrevRgstns": [],
  "EmpHss": [
    {
      "fromDt": "09/1998",
      "toDt": "03/2008",
      "orgNm": "DAIN RAUSCHER INCORPORATED",
      "city": "MINNEAPOLIS",
      "state": 24,
      "stateSpecified": true
    },
    {
      "fromDt": "03/2008",
      "toDt": null,
      "orgNm": "RBC CAPITAL MARKETS CORPORATION",
      "city": "ST PAUL",
      "state": 24,
      "stateSpecified": true
    }
  ],
  "OthrBuss": {
    "OthrBus": null
  },
  "DRPs": []
}