{
  "Info": {
    "lastNm": "PAK",
    "firstNm": "MICHAEL",
    "midNm": null,
    "sufNm": null,
    "indvlPK": "3140859",
    "actvAGReg": 0,
    "link": "http://www.adviserinfo.sec.gov/IAPD/Individual/3140859"
  },
  "OthrNms": [
    {
      "lastNm": "PAK",
      "firstNm": "CHIN",
      "midNm": null,
      "sufNm": null
    },
    {
      "lastNm": "PAK",
      "firstNm": "CHINHAK",
      "midNm": null,
      "sufNm": null
    },
    {
      "lastNm": "PAK",
      "firstNm": "MICHAEL",
      "midNm": null,
      "sufNm": null
    }
  ],
  "CrntEmps": [
    {
      "CrntRgstns": [
        {
          "regAuth": 45,
          "regCat": 0,
          "st": 2,
          "stDt": "2014-12-22T00:00:00"
        }
      ],
      "BrnchOfLocs": [
        {
          "str1": "5949 SHERRY LANE",
          "str2": "STE 1475",
          "city": "DALLAS",
          "state": 45,
          "stateSpecified": true,
          "cntry": "United States",
          "postlCd": "75225"
        }
      ],
      "orgNm": "WEDBUSH SECURITIES INC.",
      "orgPK": "877",
      "str1": "ATTN: BUSINESS CONDUCT",
      "str2": "1000 WILSHIRE BLVD. SUITE 900",
      "city": "LOS ANGELES",
      "state": 4,
      "stateSpecified": true,
      "cntry": "United States",
      "postlCd": "90017"
    }
  ],
  "Exms": [
    {
      "exmCd": 0,
      "exmNm": "Uniform Securities Agent State Law Examination",
      "exmDt": "1998-11-25T00:00:00",
      "exmDtSpecified": true
    },
    {
      "exmCd": 3,
      "exmNm": "Uniform Combined State Law Examination",
      "exmDt": "2002-10-09T00:00:00",
      "exmDtSpecified": true
    }
  ],
  "Dsgntns": [],
  "PrevRgstns": [
    {
      "BrnchOfLocs": [
        {
          "city": "ADDISON",
          "state": 45,
          "stateSpecified": true
        }
      ],
      "orgNm": "MML INVESTORS SERVICES, LLC",
      "orgPK": "10409",
      "regBeginDt": "2002-10-23T00:00:00",
      "regBeginDtSpecified": true,
      "regEndDt": "2003-03-28T00:00:00",
      "regEndDtSpecified": true
    },
    {
      "BrnchOfLocs": [
        {
          "city": "ADDISON",
          "state": 45,
          "stateSpecified": true
        }
      ],
      "orgNm": "SPECTRUM STRATEGIES, L.L.C.",
      "orgPK": "115318",
      "regBeginDt": "2003-02-05T00:00:00",
      "regBeginDtSpecified": true,
      "regEndDt": "2003-03-24T00:00:00",
      "regEndDtSpecified": true
    },
    {
      "BrnchOfLocs": [
        {
          "city": "ADDISON",
          "state": 45,
          "stateSpecified": true
        },
        {
          "city": "DALLAS",
          "state": 45,
          "stateSpecified": true
        },
        {
          "city": "GARLAND",
          "state": 45,
          "stateSpecified": true
        }
      ],
      "orgNm": "BANC OF AMERICA INVESTMENT SERVICES, INC.",
      "orgPK": "16361",
      "regBeginDt": "2004-02-26T00:00:00",
      "regBeginDtSpecified": true,
      "regEndDt": "2009-03-17T00:00:00",
      "regEndDtSpecified": true
    },
    {
      "BrnchOfLocs": [
        {
          "city": "RICHARDSON",
          "state": 45,
          "stateSpecified": true
        }
      ],
      "orgNm": "AMERIPRISE ADVISOR SERVICES, INC.",
      "orgPK": "5979",
      "regBeginDt": "2009-07-27T00:00:00",
      "regBeginDtSpecified": true,
      "regEndDt": "2009-10-05T00:00:00",
      "regEndDtSpecified": true
    },
    {
      "BrnchOfLocs": [
        {
          "city": "DALLAS",
          "state": 45,
          "stateSpecified": true
        },
        {
          "city": "DALLAS",
          "state": 45,
          "stateSpecified": true
        },
        {
          "city": "PLANO",
          "state": 45,
          "stateSpecified": true
        },
        {
          "city": "RICHARDSON",
          "state": 45,
          "stateSpecified": true
        }
      ],
      "orgNm": "AMERIPRISE FINANCIAL SERVICES, INC.",
      "orgPK": "6363",
      "regBeginDt": "2009-10-05T00:00:00",
      "regBeginDtSpecified": true,
      "regEndDt": "2014-12-16T00:00:00",
      "regEndDtSpecified": true
    }
  ],
  "EmpHss": [
    {
      "fromDt": "02/2004",
      "toDt": "02/2009",
      "orgNm": "BANC OF AMERICA INSURANCE SERVICES, INC.",
      "city": "ADDISON",
      "state": 45,
      "stateSpecified": true
    },
    {
      "fromDt": "02/2004",
      "toDt": "02/2009",
      "orgNm": "BANC OF AMERICA INVESTMENT SERVICES, INC.",
      "city": "DALLAS",
      "state": 45,
      "stateSpecified": true
    },
    {
      "fromDt": "02/2009",
      "toDt": "10/2009",
      "orgNm": "AMERIPRISE ADVISOR SERVICES",
      "city": "DALLAS",
      "state": 45,
      "stateSpecified": true
    },
    {
      "fromDt": "10/2009",
      "toDt": "11/2014",
      "orgNm": "AMERIPRISE FINANCIAL SERVICES, INC.",
      "city": "RICHARDSON",
      "state": 45,
      "stateSpecified": true
    },
    {
      "fromDt": "11/2014",
      "toDt": null,
      "orgNm": "WEDBUSH SECURITIES INC",
      "city": "DALLAS",
      "state": 45,
      "stateSpecified": true
    }
  ],
  "OthrBuss": {
    "OthrBus": null
  },
  "DRPs": [
    {
      "hasRegAction": 1,
      "hasRegActionSpecified": true,
      "hasCriminal": 1,
      "hasCriminalSpecified": true,
      "hasBankrupt": 1,
      "hasBankruptSpecified": true,
      "hasCivilJudc": 1,
      "hasCivilJudcSpecified": true,
      "hasBond": 1,
      "hasBondSpecified": true,
      "hasJudgment": 1,
      "hasJudgmentSpecified": true,
      "hasInvstgn": 1,
      "hasInvstgnSpecified": true,
      "hasCustComp": 0,
      "hasCustCompSpecified": true,
      "hasTermination": 1,
      "hasTerminationSpecified": true
    }
  ]
}