{
  "Info": {
    "lastNm": "COMER",
    "firstNm": "ANTHONY",
    "midNm": "CHARLES",
    "sufNm": null,
    "indvlPK": "3142533",
    "actvAGReg": 0,
    "link": "http://www.adviserinfo.sec.gov/IAPD/Individual/3142533"
  },
  "OthrNms": [
    {
      "lastNm": "COMER",
      "firstNm": "ANTHONY",
      "midNm": "C",
      "sufNm": null
    },
    {
      "lastNm": "COMER",
      "firstNm": "TONY",
      "midNm": null,
      "sufNm": null
    }
  ],
  "CrntEmps": [
    {
      "CrntRgstns": [
        {
          "regAuth": 45,
          "regCat": 0,
          "st": 2,
          "stDt": "2008-12-01T00:00:00"
        }
      ],
      "BrnchOfLocs": [
        {
          "str1": "10001 WOODLOCH FOREST DRIVE",
          "str2": "SUITE 100",
          "city": "THE WOODLANDS",
          "state": 45,
          "stateSpecified": true,
          "cntry": "United States",
          "postlCd": "77380"
        }
      ],
      "orgNm": "UBS FINANCIAL SERVICES INC.",
      "orgPK": "8174",
      "str1": "1200 HARBOR BOULEVARD",
      "str2": null,
      "city": "WEEHAWKEN",
      "state": 32,
      "stateSpecified": true,
      "cntry": "United States",
      "postlCd": "07086"
    }
  ],
  "Exms": [
    {
      "exmCd": 3,
      "exmNm": "Uniform Combined State Law Examination",
      "exmDt": "1999-01-26T00:00:00",
      "exmDtSpecified": true
    }
  ],
  "Dsgntns": [],
  "PrevRgstns": [
    {
      "BrnchOfLocs": [
        {
          "city": "BETHESDA",
          "state": 21,
          "stateSpecified": true
        },
        {
          "city": "BETHESDA",
          "state": 21,
          "stateSpecified": true
        },
        {
          "city": "THE WOODLANDS",
          "state": 45,
          "stateSpecified": true
        }
      ],
      "orgNm": "CITIGROUP GLOBAL MARKETS INC.",
      "orgPK": "7059",
      "regBeginDt": "2001-06-01T00:00:00",
      "regBeginDtSpecified": true,
      "regEndDt": "2008-12-16T00:00:00",
      "regEndDtSpecified": true
    }
  ],
  "EmpHss": [
    {
      "fromDt": "04/2001",
      "toDt": "11/2008",
      "orgNm": "CITIGROUP GLOBAL MARKETS INC.",
      "city": "WOODLANDS",
      "state": 45,
      "stateSpecified": true
    },
    {
      "fromDt": "11/2008",
      "toDt": null,
      "orgNm": "UBS FINANCIAL SERVICES INC",
      "city": "THE WOODLANDS",
      "state": 45,
      "stateSpecified": true
    }
  ],
  "OthrBuss": {
    "OthrBus": null
  },
  "DRPs": []
}