{
  "Info": {
    "lastNm": "KAUFMAN",
    "firstNm": "MIRIAM",
    "midNm": "E",
    "sufNm": null,
    "indvlPK": "3143640",
    "actvAGReg": 0,
    "link": "http://www.adviserinfo.sec.gov/IAPD/Individual/3143640"
  },
  "OthrNms": [
    {
      "lastNm": "KAUFMAN",
      "firstNm": "MIRIAM",
      "midNm": "ELIZABETH",
      "sufNm": null
    },
    {
      "lastNm": "LABOW",
      "firstNm": "MIRIAM",
      "midNm": "E",
      "sufNm": null
    }
  ],
  "CrntEmps": [
    {
      "CrntRgstns": [
        {
          "regAuth": 15,
          "regCat": 0,
          "st": 2,
          "stDt": "2013-01-03T00:00:00"
        }
      ],
      "BrnchOfLocs": [
        {
          "str1": "445 SKOKIE BLVD",
          "str2": null,
          "city": "NORTHBROOK",
          "state": 15,
          "stateSpecified": true,
          "cntry": "United States",
          "postlCd": "60062-2808"
        }
      ],
      "orgNm": "CHARLES SCHWAB & CO., INC.",
      "orgPK": "5393",
      "str1": "211 MAIN STREET",
      "str2": null,
      "city": "SAN FRANCISCO",
      "state": 4,
      "stateSpecified": true,
      "cntry": "United States",
      "postlCd": "94105"
    }
  ],
  "Exms": [
    {
      "exmCd": 3,
      "exmNm": "Uniform Combined State Law Examination",
      "exmDt": "2000-07-14T00:00:00",
      "exmDtSpecified": true
    }
  ],
  "Dsgntns": [],
  "PrevRgstns": [
    {
      "BrnchOfLocs": [
        {
          "city": "RIVERWOODS",
          "state": 15,
          "stateSpecified": true
        },
        {
          "city": "RIVERWOODS",
          "state": 15,
          "stateSpecified": true
        }
      ],
      "orgNm": "MORGAN STANLEY DW INC.",
      "orgPK": "7556",
      "regBeginDt": "2002-06-17T00:00:00",
      "regBeginDtSpecified": true,
      "regEndDt": "2007-04-02T00:00:00",
      "regEndDtSpecified": true
    },
    {
      "BrnchOfLocs": [
        {
          "city": "RIVERWOODS",
          "state": 15,
          "stateSpecified": true
        }
      ],
      "orgNm": "MORGAN STANLEY & CO. LLC",
      "orgPK": "8209",
      "regBeginDt": "2007-04-02T00:00:00",
      "regBeginDtSpecified": true,
      "regEndDt": "2009-06-01T00:00:00",
      "regEndDtSpecified": true
    },
    {
      "BrnchOfLocs": [
        {
          "city": "RIVERWOODS",
          "state": 15,
          "stateSpecified": true
        }
      ],
      "orgNm": "MORGAN STANLEY",
      "orgPK": "149777",
      "regBeginDt": "2009-06-01T00:00:00",
      "regBeginDtSpecified": true,
      "regEndDt": "2012-10-29T00:00:00",
      "regEndDtSpecified": true
    }
  ],
  "EmpHss": [
    {
      "fromDt": "04/2002",
      "toDt": "04/2007",
      "orgNm": "MORGAN STANLEY DW INC",
      "city": "RIVERWOODS",
      "state": 15,
      "stateSpecified": true
    },
    {
      "fromDt": "04/2007",
      "toDt": "12/2012",
      "orgNm": "MORGAN STANLEY & CO., INCORPORATED",
      "city": "RIVERWOODS",
      "state": 15,
      "stateSpecified": true
    },
    {
      "fromDt": "06/2009",
      "toDt": "11/2012",
      "orgNm": "MORGAN STANLEY SMITH BARNEY",
      "city": "RIVERWOODS",
      "state": 15,
      "stateSpecified": true
    },
    {
      "fromDt": "12/2012",
      "toDt": null,
      "orgNm": "CHARLES SCHWAB & CO., INC.",
      "city": "NORTHBROOK",
      "state": 15,
      "stateSpecified": true
    },
    {
      "fromDt": "12/2012",
      "toDt": null,
      "orgNm": "CHARLES SCHWAB BANK",
      "city": "NORTHBROOK",
      "state": 15,
      "stateSpecified": true
    },
    {
      "fromDt": "06/2016",
      "toDt": null,
      "orgNm": "MS Real Estate Holdings LLC",
      "city": "Highland Park",
      "state": 15,
      "stateSpecified": true
    }
  ],
  "OthrBuss": {
    "OthrBus": {
      "desc": "1. START DATE:12/10/2012, NORTHBROOK, IL  CHARLES SCHWAB BANK-INVESTMENT RELATED, BANK PRODUCTS, DUAL EMPLOYEE,  REFERRALS OF HELOC, MORTGAGES  AND  INVESTOR CHECKING PRODUCTS  FOR APPROXIMATELY 20 HOURS PER MONTH. 2. Second Home Rental Income - Not investment related| 1876 Kiest Ave - Northbrook, IL| Real Estate/Property Management - Owner of Property| Start 06/27/2016| Less than 20 hours/month - None during trading hours| income from former primary residence currently being used as rental property.  3. MS Real Estate Holdings LLC - Not investment related| 366 Walker Ave - Highland Park, IL| Real Estate/Property Management - Owner| Start 06.27.16| Less than 20 hours/month - none during trading hours|  Rental Income"
    }
  },
  "DRPs": []
}