{
  "Info": {
    "lastNm": "PARKER",
    "firstNm": "CAREY",
    "midNm": "WAYNE",
    "sufNm": null,
    "indvlPK": "3147175",
    "actvAGReg": 0,
    "link": "http://www.adviserinfo.sec.gov/IAPD/Individual/3147175"
  },
  "OthrNms": [],
  "CrntEmps": [
    {
      "CrntRgstns": [
        {
          "regAuth": 47,
          "regCat": 0,
          "st": 2,
          "stDt": "1999-03-31T00:00:00"
        }
      ],
      "BrnchOfLocs": [
        {
          "str1": "418 LIBBIE AVE",
          "str2": null,
          "city": "RICHMOND",
          "state": 47,
          "stateSpecified": true,
          "cntry": "United States",
          "postlCd": "23226-2616"
        }
      ],
      "orgNm": "AMERIPRISE FINANCIAL SERVICES, INC.",
      "orgPK": "6363",
      "str1": "707 2ND AVENUE SOUTH",
      "str2": null,
      "city": "MINNEAPOLIS",
      "state": 24,
      "stateSpecified": true,
      "cntry": "United States",
      "postlCd": "55402"
    }
  ],
  "Exms": [
    {
      "exmCd": 3,
      "exmNm": "Uniform Combined State Law Examination",
      "exmDt": "1999-03-11T00:00:00",
      "exmDtSpecified": true
    }
  ],
  "Dsgntns": [],
  "PrevRgstns": [],
  "EmpHss": [
    {
      "fromDt": "05/1995",
      "toDt": null,
      "orgNm": "MCGAHEY SALES ASSOCIATES",
      "city": "CARY",
      "state": 28,
      "stateSpecified": true
    },
    {
      "fromDt": "10/1998",
      "toDt": null,
      "orgNm": "#IA AMERICAN EXPRESS FINANCIAL ADVISORS",
      "city": "RICHMOND",
      "state": 47,
      "stateSpecified": true
    },
    {
      "fromDt": "10/1998",
      "toDt": null,
      "orgNm": "AMERICAN EXPRESS FINANCIAL ADVISORS INC.",
      "city": "RICHMOND",
      "state": 47,
      "stateSpecified": true
    },
    {
      "fromDt": "10/1998",
      "toDt": null,
      "orgNm": "IDS LIFE INSURANCE COMPANY",
      "city": "RICHMOND",
      "state": 47,
      "stateSpecified": true
    }
  ],
  "OthrBuss": {
    "OthrBus": {
      "desc": "BUSINESS OWNERSHIP: CAREY W. PARKER INCORPORORATED,DIRECTOR,BUSINESS ESTABLISHED IN ORDER TO PAY EMPLOYEES, RENT AND OTHER EXPENSES RELATED TO FINANCIAL PLANNING PRACTICE WITH AMERIPRISE FINANCIAL.  COMP: $2,000 TO $2,999, HRS: 40-59. BUSINESS OWNER: CAREY W PARKER INC, DIRECTOR, RICHMOND VA, 40-59 HRS, $2000-#2,999; C & T REAL ESTATE, CO-OWNER, RICHMOND, VA 1-9 HRS, $0 INCOME"
    }
  },
  "DRPs": []
}