{
  "Info": {
    "lastNm": "ANDERSON",
    "firstNm": "ADAM",
    "midNm": "DONALD",
    "sufNm": null,
    "indvlPK": "3152739",
    "actvAGReg": 0,
    "link": "http://www.adviserinfo.sec.gov/IAPD/Individual/3152739"
  },
  "OthrNms": [],
  "CrntEmps": [
    {
      "CrntRgstns": [
        {
          "regAuth": 16,
          "regCat": 0,
          "st": 2,
          "stDt": "2006-04-24T00:00:00"
        },
        {
          "regAuth": 23,
          "regCat": 0,
          "st": 2,
          "stDt": "2010-01-07T00:00:00"
        },
        {
          "regAuth": 45,
          "regCat": 0,
          "st": 3,
          "stDt": "2010-10-08T00:00:00"
        }
      ],
      "BrnchOfLocs": [
        {
          "str1": "7900 MOORSBRIDGE RD",
          "str2": null,
          "city": "PORTAGE",
          "state": 23,
          "stateSpecified": true,
          "cntry": "United States",
          "postlCd": "49024"
        }
      ],
      "orgNm": "WELLS FARGO ADVISORS, LLC",
      "orgPK": "19616",
      "str1": "ONE NORTH JEFFERSON AVENUE",
      "str2": "MAIL CODE: H0004-050",
      "city": "ST. LOUIS",
      "state": 25,
      "stateSpecified": true,
      "cntry": "United States",
      "postlCd": "63103-2205"
    }
  ],
  "Exms": [
    {
      "exmCd": 0,
      "exmNm": "Uniform Securities Agent State Law Examination",
      "exmDt": "1999-01-06T00:00:00",
      "exmDtSpecified": true
    },
    {
      "exmCd": 2,
      "exmNm": "Uniform Investment Adviser Law Examination",
      "exmDt": "1999-01-22T00:00:00",
      "exmDtSpecified": true
    }
  ],
  "Dsgntns": [
    {
      "dsgntnNm": "Certified Financial Planner"
    }
  ],
  "PrevRgstns": [
    {
      "BrnchOfLocs": [
        {
          "city": "PORTAGE",
          "state": 23,
          "stateSpecified": true
        }
      ],
      "orgNm": "PRUDENTIAL EQUITY GROUP, LLC",
      "orgPK": "7471",
      "regBeginDt": "2001-04-24T00:00:00",
      "regBeginDtSpecified": true,
      "regEndDt": "2003-01-27T00:00:00",
      "regEndDtSpecified": true
    }
  ],
  "EmpHss": [
    {
      "fromDt": "07/2003",
      "toDt": "05/2009",
      "orgNm": "WACHOVIA SECURITIES LLC",
      "city": "PORTAGE",
      "state": 23,
      "stateSpecified": true
    },
    {
      "fromDt": "05/2009",
      "toDt": null,
      "orgNm": "WELLS FARGO ADVISORS LLC",
      "city": "PORTAGE",
      "state": 23,
      "stateSpecified": true
    }
  ],
  "OthrBuss": {
    "OthrBus": {
      "desc": "KALAMAZOO OPTIMIST HOCKEY ASSOCIATION; NOT INVESTMENT RELATED; KALAMAZO, MI; YOUTH HOCKEY ASSOCIATION; ASSISTANT COACH; START DATE 8/2010; 20 HRS MONTH; 0 HRS DURING TRADING; DUTIES - COACHING HOCKEY TO 8-10 YR OLDS."
    }
  },
  "DRPs": []
}