{
  "Info": {
    "lastNm": "JULIANO",
    "firstNm": "DAVID",
    "midNm": "WALTER",
    "sufNm": null,
    "indvlPK": "3164953",
    "actvAGReg": 1,
    "link": "http://www.adviserinfo.sec.gov/IAPD/Individual/3164953"
  },
  "OthrNms": [],
  "CrntEmps": [
    {
      "CrntRgstns": [
        {
          "regAuth": 20,
          "regCat": 0,
          "st": 2,
          "stDt": "2016-01-11T00:00:00"
        }
      ],
      "BrnchOfLocs": [
        {
          "str1": "199 ROSEWOOD DRIVE",
          "str2": "SUITE 200",
          "city": "DANVERS",
          "state": 20,
          "stateSpecified": true,
          "cntry": "United States",
          "postlCd": "01923"
        }
      ],
      "orgNm": "STONEHEARTH CAPITAL MANAGEMENT",
      "orgPK": "128866",
      "str1": "199 ROSEWOOD DRIVE",
      "str2": "SUITE 200",
      "city": "DANVERS",
      "state": 20,
      "stateSpecified": true,
      "cntry": "United States",
      "postlCd": "01923"
    }
  ],
  "Exms": [
    {
      "exmCd": 0,
      "exmNm": "Uniform Securities Agent State Law Examination",
      "exmDt": "1999-02-26T00:00:00",
      "exmDtSpecified": true
    }
  ],
  "Dsgntns": [
    {
      "dsgntnNm": "Chartered Financial Consultant"
    }
  ],
  "PrevRgstns": [],
  "EmpHss": [
    {
      "fromDt": "05/1999",
      "toDt": "12/2015",
      "orgNm": "COMMONWEALTH FINANCIAL NETWORK",
      "city": "WALTHAM",
      "state": 20,
      "stateSpecified": true
    },
    {
      "fromDt": "01/2016",
      "toDt": null,
      "orgNm": "Stonehearth Capital Management",
      "city": "Danvers",
      "state": 20,
      "stateSpecified": true
    }
  ],
  "OthrBuss": {
    "OthrBus": {
      "desc": "Treasurer, Topsfield Cultural Council, term expires in June 2018, non-investment related. Vice President, Masconomet Youth Hockey Association, non-investment related."
    }
  },
  "DRPs": []
}