{
  "Info": {
    "lastNm": "GOLDSTEIN",
    "firstNm": "NADIA",
    "midNm": "EMANUEL",
    "sufNm": null,
    "indvlPK": "3172916",
    "actvAGReg": 0,
    "link": "http://www.adviserinfo.sec.gov/IAPD/Individual/3172916"
  },
  "OthrNms": [
    {
      "lastNm": "EMANUEL",
      "firstNm": "NADIA",
      "midNm": null,
      "sufNm": null
    },
    {
      "lastNm": "EMANUEL",
      "firstNm": "NADIA",
      "midNm": "EM",
      "sufNm": null
    }
  ],
  "CrntEmps": [
    {
      "CrntRgstns": [
        {
          "regAuth": 4,
          "regCat": 0,
          "st": 2,
          "stDt": "2009-01-12T00:00:00"
        },
        {
          "regAuth": 45,
          "regCat": 0,
          "st": 3,
          "stDt": "2009-01-22T00:00:00"
        }
      ],
      "BrnchOfLocs": [
        {
          "str1": "2815 TOWNSGATE RD",
          "str2": null,
          "city": "WESTLAKE VILLAGE",
          "state": 4,
          "stateSpecified": true,
          "cntry": "United States",
          "postlCd": "91361"
        }
      ],
      "orgNm": "MERRILL LYNCH, PIERCE, FENNER & SMITH INCORPORATED",
      "orgPK": "7691",
      "str1": "ONE BRYANT PARK",
      "str2": null,
      "city": "NEW YORK",
      "state": 35,
      "stateSpecified": true,
      "cntry": "United States",
      "postlCd": "10036"
    }
  ],
  "Exms": [
    {
      "exmCd": 0,
      "exmNm": "Uniform Securities Agent State Law Examination",
      "exmDt": "1999-03-05T00:00:00",
      "exmDtSpecified": true
    },
    {
      "exmCd": 2,
      "exmNm": "Uniform Investment Adviser Law Examination",
      "exmDt": "1999-03-12T00:00:00",
      "exmDtSpecified": true
    }
  ],
  "Dsgntns": [],
  "PrevRgstns": [
    {
      "BrnchOfLocs": [
        {
          "city": "WOODLAND HILLS",
          "state": 4,
          "stateSpecified": true
        },
        {
          "city": "WOODLAND HILLS",
          "state": 4,
          "stateSpecified": true
        }
      ],
      "orgNm": "CITIGROUP GLOBAL MARKETS INC.",
      "orgPK": "7059",
      "regBeginDt": "1999-04-12T00:00:00",
      "regBeginDtSpecified": true,
      "regEndDt": "2009-02-02T00:00:00",
      "regEndDtSpecified": true
    }
  ],
  "EmpHss": [
    {
      "fromDt": "11/1993",
      "toDt": "10/2007",
      "orgNm": "COUNTY OF VENTURA LOCAL ENFORCEMENT AGEN",
      "city": "VENTURA",
      "state": 4,
      "stateSpecified": true
    },
    {
      "fromDt": "12/1998",
      "toDt": "01/2009",
      "orgNm": "CITIGROUP GLOBAL MARKETS INC.",
      "city": "WOODLAND HILLS",
      "state": 4,
      "stateSpecified": true
    },
    {
      "fromDt": "01/2009",
      "toDt": null,
      "orgNm": "MERRILL LYNCH, PIERCE, FENNER & SMITH INCORPORATED",
      "city": "WESTLAKE VILLAGE",
      "state": 4,
      "stateSpecified": true
    }
  ],
  "OthrBuss": {
    "OthrBus": null
  },
  "DRPs": []
}