{
  "Info": {
    "lastNm": "HALISKY",
    "firstNm": "NATHAN",
    "midNm": "MICHAEL",
    "sufNm": null,
    "indvlPK": "3173523",
    "actvAGReg": 1,
    "link": "http://www.adviserinfo.sec.gov/IAPD/Individual/3173523"
  },
  "OthrNms": [
    {
      "lastNm": "HALISKY",
      "firstNm": "NATE",
      "midNm": null,
      "sufNm": null
    },
    {
      "lastNm": "HALISKY",
      "firstNm": "NATHAN",
      "midNm": "M",
      "sufNm": null
    }
  ],
  "CrntEmps": [
    {
      "CrntRgstns": [
        {
          "regAuth": 4,
          "regCat": 0,
          "st": 2,
          "stDt": "2005-08-10T00:00:00"
        }
      ],
      "BrnchOfLocs": [
        {
          "str1": "13100 SKYLINE BLVD.",
          "str2": null,
          "city": "WOODSIDE",
          "state": 4,
          "stateSpecified": true,
          "cntry": "United States",
          "postlCd": "94062"
        },
        {
          "str1": "5525 NW FISHER CREEK DRIVE",
          "str2": null,
          "city": "CAMAS",
          "state": 49,
          "stateSpecified": true,
          "cntry": "United States",
          "postlCd": "98607-9911"
        }
      ],
      "orgNm": "FISHER INVESTMENTS",
      "orgPK": "107342",
      "str1": "5525 NW FISHER CREEK DRIVE",
      "str2": null,
      "city": "CAMAS",
      "state": 49,
      "stateSpecified": true,
      "cntry": "United States",
      "postlCd": "98607-9911"
    }
  ],
  "Exms": [
    {
      "exmCd": 3,
      "exmNm": "Uniform Combined State Law Examination",
      "exmDt": "1999-06-24T00:00:00",
      "exmDtSpecified": true
    }
  ],
  "Dsgntns": [],
  "PrevRgstns": [
    {
      "BrnchOfLocs": [
        {
          "city": "PASADENA",
          "state": 4,
          "stateSpecified": true
        }
      ],
      "orgNm": "MERRILL LYNCH, PIERCE, FENNER & SMITH INCORPORATED",
      "orgPK": "7691",
      "regBeginDt": "1999-07-06T00:00:00",
      "regBeginDtSpecified": true,
      "regEndDt": "2005-03-02T00:00:00",
      "regEndDtSpecified": true
    }
  ],
  "EmpHss": [
    {
      "fromDt": "03/2005",
      "toDt": null,
      "orgNm": "FISHER INVESTMENTS",
      "city": "WOODSIDE",
      "state": 4,
      "stateSpecified": true
    }
  ],
  "OthrBuss": {
    "OthrBus": null
  },
  "DRPs": []
}