{
  "Info": {
    "lastNm": "FLOYD",
    "firstNm": "STEVEN",
    "midNm": "LEE",
    "sufNm": null,
    "indvlPK": "3173794",
    "actvAGReg": 1,
    "link": "http://www.adviserinfo.sec.gov/IAPD/Individual/3173794"
  },
  "OthrNms": [
    {
      "lastNm": "FLOYD",
      "firstNm": "STEVE",
      "midNm": null,
      "sufNm": null
    }
  ],
  "CrntEmps": [
    {
      "CrntRgstns": [
        {
          "regAuth": 4,
          "regCat": 0,
          "st": 2,
          "stDt": "2013-05-01T00:00:00"
        }
      ],
      "BrnchOfLocs": [
        {
          "str1": "3848 CARSON ST",
          "str2": "#300",
          "city": "TORRANCE",
          "state": 4,
          "stateSpecified": true,
          "cntry": "United States",
          "postlCd": "90503"
        }
      ],
      "orgNm": "FOCUS1ADVISORS",
      "orgPK": "165767",
      "str1": "3848 CARSON ST",
      "str2": "#300",
      "city": "TORRANCE",
      "state": 4,
      "stateSpecified": true,
      "cntry": "United States",
      "postlCd": "90503"
    }
  ],
  "Exms": [
    {
      "exmCd": 0,
      "exmNm": "Uniform Securities Agent State Law Examination",
      "exmDt": "1999-01-21T00:00:00",
      "exmDtSpecified": true
    },
    {
      "exmCd": 3,
      "exmNm": "Uniform Combined State Law Examination",
      "exmDt": "2001-09-06T00:00:00",
      "exmDtSpecified": true
    }
  ],
  "Dsgntns": [],
  "PrevRgstns": [
    {
      "BrnchOfLocs": [
        {
          "city": "TORRANCE",
          "state": 4,
          "stateSpecified": true
        }
      ],
      "orgNm": "APD FINANCIAL",
      "orgPK": "114452",
      "regBeginDt": "2003-11-19T00:00:00",
      "regBeginDtSpecified": true,
      "regEndDt": "2004-12-31T00:00:00",
      "regEndDtSpecified": true
    },
    {
      "BrnchOfLocs": [
        {
          "city": "TORRANCE",
          "state": 4,
          "stateSpecified": true
        }
      ],
      "orgNm": "UNITED PLANNERS' FINANCIAL SERVICES OF AMERICA A LIMITED PARTNER",
      "orgPK": "20804",
      "regBeginDt": "2004-05-11T00:00:00",
      "regBeginDtSpecified": true,
      "regEndDt": "2005-01-03T00:00:00",
      "regEndDtSpecified": true
    },
    {
      "BrnchOfLocs": [
        {
          "city": "EL SEGUNDO",
          "state": 4,
          "stateSpecified": true
        }
      ],
      "orgNm": "BROOKSTREET SECURITIES CORPORATION",
      "orgPK": "14667",
      "regBeginDt": "2005-01-26T00:00:00",
      "regBeginDtSpecified": true,
      "regEndDt": "2005-05-11T00:00:00",
      "regEndDtSpecified": true
    },
    {
      "BrnchOfLocs": [
        {
          "city": "ORANGE",
          "state": 4,
          "stateSpecified": true
        }
      ],
      "orgNm": "LAGOS WEALTH ADVISORS",
      "orgPK": "117551",
      "regBeginDt": "2005-05-05T00:00:00",
      "regBeginDtSpecified": true,
      "regEndDt": "2007-01-08T00:00:00",
      "regEndDtSpecified": true
    },
    {
      "BrnchOfLocs": [
        {
          "city": "TORRANCE",
          "state": 4,
          "stateSpecified": true
        }
      ],
      "orgNm": "BENCHMARK CAPITAL ADVISORS INC",
      "orgPK": "142624",
      "regBeginDt": "2007-03-05T00:00:00",
      "regBeginDtSpecified": true,
      "regEndDt": "2011-01-01T00:00:00",
      "regEndDtSpecified": true
    },
    {
      "BrnchOfLocs": [
        {
          "city": "TORRANCE",
          "state": 4,
          "stateSpecified": true
        }
      ],
      "orgNm": "RETIREMENT WEALTH ADVISORS, INC.",
      "orgPK": "137658",
      "regBeginDt": "2010-08-26T00:00:00",
      "regBeginDtSpecified": true,
      "regEndDt": "2013-05-02T00:00:00",
      "regEndDtSpecified": true
    }
  ],
  "EmpHss": [
    {
      "fromDt": "06/2000",
      "toDt": null,
      "orgNm": "FLOYD FINANCIAL SERVICES",
      "city": "TORRANCE",
      "state": 4,
      "stateSpecified": true
    },
    {
      "fromDt": "05/2005",
      "toDt": "12/2006",
      "orgNm": "CENTAURUS FINANCIAL, INC.",
      "city": "ORANGE",
      "state": 4,
      "stateSpecified": true
    },
    {
      "fromDt": "05/2005",
      "toDt": "11/2006",
      "orgNm": "INTERNATIONAL WEALTH MANAGEMENT INCORPROATED",
      "city": "ORANGE",
      "state": 4,
      "stateSpecified": true
    },
    {
      "fromDt": "11/2006",
      "toDt": "12/2010",
      "orgNm": "BENCHMARK CAPITAL ADVISORS, INC.",
      "city": "REDONDO BEACH",
      "state": 4,
      "stateSpecified": true
    },
    {
      "fromDt": "01/2007",
      "toDt": "09/2008",
      "orgNm": "PACIFIC WEST SECURITIES, INC.",
      "city": "RENTON",
      "state": 49,
      "stateSpecified": true
    },
    {
      "fromDt": "12/2009",
      "toDt": null,
      "orgNm": "STEVEN L. FLOYD, INC.",
      "city": "TORRANCE",
      "state": 4,
      "stateSpecified": true
    },
    {
      "fromDt": "07/2010",
      "toDt": "05/2013",
      "orgNm": "RETIREMENT WEALTH ADVISORS, INC.",
      "city": "JENISON",
      "state": 23,
      "stateSpecified": true
    },
    {
      "fromDt": "05/2013",
      "toDt": null,
      "orgNm": "FOCUS 1 ADVISORS",
      "city": "TORRANCE",
      "state": 4,
      "stateSpecified": true
    }
  ],
  "OthrBuss": {
    "OthrBus": {
      "desc": "SELF EMPLOYED ACCOUNTANT, TAX PREPARER, & CONSULTANT   - FLOYD FINANCIAL SERVICES, INC. - OWNER, START DATE 06/2000, 20 HRS/WEEK. - NOT INVESTMENT RELATED    AS WELL, HE SELLS INSURANCE PRODUCTS FOR A COMMISSION WHICH TAKES ABOUT 10% OF HIS WEEK. HE ALSO PROVIDES MORTGAGE ORIGINATION SERVICES WHICH TAKE ABOUT 10% OF HIS WEEK. HE HAS A TAX PREPARATION FIRM THAT TAKES 20% OF HIS WEEK"
    }
  },
  "DRPs": []
}