{
  "Info": {
    "lastNm": "WAUGH",
    "firstNm": "DAVID",
    "midNm": "ERICK",
    "sufNm": null,
    "indvlPK": "3173735",
    "actvAGReg": 0,
    "link": "http://www.adviserinfo.sec.gov/IAPD/Individual/3173735"
  },
  "OthrNms": [
    {
      "lastNm": "WAUGH",
      "firstNm": "DAVID",
      "midNm": null,
      "sufNm": null
    }
  ],
  "CrntEmps": [
    {
      "CrntRgstns": [
        {
          "regAuth": 13,
          "regCat": 0,
          "st": 2,
          "stDt": "2006-08-22T00:00:00"
        }
      ],
      "BrnchOfLocs": [
        {
          "str1": "5103 UTICA RIDGE RD",
          "str2": null,
          "city": "DAVENPORT",
          "state": 13,
          "stateSpecified": true,
          "cntry": "United States",
          "postlCd": "52807"
        }
      ],
      "orgNm": "PRINCIPAL SECURITIES, INC.",
      "orgPK": "1137",
      "str1": "655 9TH STREET",
      "str2": null,
      "city": "DES MOINES",
      "state": 13,
      "stateSpecified": true,
      "cntry": "United States",
      "postlCd": "50309"
    }
  ],
  "Exms": [
    {
      "exmCd": 0,
      "exmNm": "Uniform Securities Agent State Law Examination",
      "exmDt": "1999-02-04T00:00:00",
      "exmDtSpecified": true
    },
    {
      "exmCd": 2,
      "exmNm": "Uniform Investment Adviser Law Examination",
      "exmDt": "2006-08-14T00:00:00",
      "exmDtSpecified": true
    }
  ],
  "Dsgntns": [],
  "PrevRgstns": [],
  "EmpHss": [
    {
      "fromDt": "05/1999",
      "toDt": null,
      "orgNm": "PRINCOR FINANCIAL SERVICES CORPORATION",
      "city": "DAVENPORT",
      "state": 13,
      "stateSpecified": true
    },
    {
      "fromDt": "02/2012",
      "toDt": null,
      "orgNm": "PLANNING GROUP, WAUGH & FOLSOM",
      "city": "DAVENPORT",
      "state": 13,
      "stateSpecified": true
    },
    {
      "fromDt": "03/2013",
      "toDt": null,
      "orgNm": "Principal Life Insurance Company",
      "city": "Davenport",
      "state": 13,
      "stateSpecified": true
    }
  ],
  "OthrBuss": {
    "OthrBus": {
      "desc": "*QUAD CITIES AMATEUR TOUR. NON-PROFIT ORGANIZATION THAT RAISES AND CONTRIBUTES MONEY TO LOCAL CHARITIES, BOARD MEMBER. 7/27/2012. *OUTSIDE INSURANCE - FIXED ANNUITIES AND LIFE INSURANCE, LONG TERM CARE INSURANCE AND DISABILITY INCOME INSURANCE; BROKER; 07/30/13.  **Rental Property. own a rental property in tipton, IA, 10/8/15."
    }
  },
  "DRPs": []
}