{
  "Info": {
    "lastNm": "SKOTYNSKY",
    "firstNm": "MATTHEW",
    "midNm": "JON",
    "sufNm": null,
    "indvlPK": "3174540",
    "actvAGReg": 0,
    "link": "http://www.adviserinfo.sec.gov/IAPD/Individual/3174540"
  },
  "OthrNms": [
    {
      "lastNm": "SKOTYNSKY",
      "firstNm": "MATTHEW",
      "midNm": null,
      "sufNm": null
    }
  ],
  "CrntEmps": [
    {
      "CrntRgstns": [
        {
          "regAuth": 36,
          "regCat": 0,
          "st": 2,
          "stDt": "2009-01-02T00:00:00"
        }
      ],
      "BrnchOfLocs": [
        {
          "str1": "213 LOUISIANA AVE",
          "str2": null,
          "city": "PERRYSBURG",
          "state": 36,
          "stateSpecified": true,
          "cntry": "United States",
          "postlCd": "43551"
        }
      ],
      "orgNm": "RAYMOND JAMES FINANCIAL SERVICES ADVISORS, INC",
      "orgPK": "149018",
      "str1": "880 CARILLON PARKWAY",
      "str2": null,
      "city": "SAINT PETERSBURG",
      "state": 9,
      "stateSpecified": true,
      "cntry": "United States",
      "postlCd": "33716"
    }
  ],
  "Exms": [
    {
      "exmCd": 0,
      "exmNm": "Uniform Securities Agent State Law Examination",
      "exmDt": "1999-07-15T00:00:00",
      "exmDtSpecified": true
    }
  ],
  "Dsgntns": [],
  "PrevRgstns": [],
  "EmpHss": [
    {
      "fromDt": "01/2000",
      "toDt": "03/2012",
      "orgNm": "CHAMBER OF COMMERCE",
      "city": "PERRYSBURG",
      "state": 36,
      "stateSpecified": true
    },
    {
      "fromDt": "02/2003",
      "toDt": "03/2012",
      "orgNm": "WAY PUBLIC LIBRARY",
      "city": "PERRYSBURG",
      "state": 36,
      "stateSpecified": true
    },
    {
      "fromDt": "03/2004",
      "toDt": "03/2012",
      "orgNm": "PARKS AND RECREATION BOARD",
      "city": "PERRYSBURG",
      "state": 36,
      "stateSpecified": true
    },
    {
      "fromDt": "01/2006",
      "toDt": null,
      "orgNm": "RAYMOND JAMES FINANCIAL SERVICES, INC",
      "city": "PERRYSBURG",
      "state": 36,
      "stateSpecified": true
    },
    {
      "fromDt": "01/2006",
      "toDt": null,
      "orgNm": "SKOTYNSKY FINANCIAL GROUP LLC",
      "city": "PERRYSBURG",
      "state": 36,
      "stateSpecified": true
    },
    {
      "fromDt": "02/2006",
      "toDt": "04/2009",
      "orgNm": "CHAMBER OF COMMERCE",
      "city": "PERRYSBURG",
      "state": 36,
      "stateSpecified": true
    },
    {
      "fromDt": "02/2006",
      "toDt": "12/2006",
      "orgNm": "YMCA",
      "city": "PERRYSBURG",
      "state": 36,
      "stateSpecified": true
    },
    {
      "fromDt": "12/2007",
      "toDt": null,
      "orgNm": "4MSKO PROPERTIES LLC",
      "city": "PERRYSBURG",
      "state": 36,
      "stateSpecified": true
    },
    {
      "fromDt": "01/2009",
      "toDt": null,
      "orgNm": "RAYMOND JAMES FINANCIAL SERVICES ADVISORS, INC",
      "city": "PERRYSBURG",
      "state": 36,
      "stateSpecified": true
    },
    {
      "fromDt": "07/2015",
      "toDt": null,
      "orgNm": "110-112 E. SECOND ST. LLC",
      "city": "PERRYSBURG",
      "state": 36,
      "stateSpecified": true
    }
  ],
  "OthrBuss": {
    "OthrBus": {
      "desc": "1.SKOTYNSKY FINANCIAL GROUP - PERRYSBURG, OH. OWNER OF SUPPORT COMPANY. STARTED 1/2006 TO PRESENT. 0 HOURS WEEKLY, 0 DURING TRADING HOURS. NO INVESTMENT RELATED. SUPPORT COMPANY/DBA (OWNER). 2.4MSKO - PERRYSBURG, OH - 12/2007 TO PRESENT - REAL ESTATE BROKERAGE/AGENT - PROPRIETOR/OWNER; 1 HOUR PER MONTH - 0 HOURS DURING TRADING HOURS - INVESTMENT RELATED; LLC TO HELP WITH TAXES.    3.  110-112 E. SECOND ST. LLC; PERRYSBURG, OH; RENTAL REAL ESTATE; INVESTMENT RELATED; 7/16/2015-PRESENT; 1 HOUR PER MONTH, 0 HOURS DURING TRADING; LANDLORD WITH RELATIVE."
    }
  },
  "DRPs": []
}