{
  "Info": {
    "lastNm": "DOOBROW",
    "firstNm": "HARRIS",
    "midNm": "TODD",
    "sufNm": null,
    "indvlPK": "3175543",
    "actvAGReg": 0,
    "link": "http://www.adviserinfo.sec.gov/IAPD/Individual/3175543"
  },
  "OthrNms": [],
  "CrntEmps": [
    {
      "CrntRgstns": [
        {
          "regAuth": 1,
          "regCat": 0,
          "st": 2,
          "stDt": "2015-12-18T00:00:00"
        }
      ],
      "BrnchOfLocs": [
        {
          "str1": "3800 COLONNADE PARKWAY",
          "str2": "SUITE 600",
          "city": "BIRMINGHAM",
          "state": 1,
          "stateSpecified": true,
          "cntry": "United States",
          "postlCd": "35243"
        }
      ],
      "orgNm": "MSI FINANCIAL SERVICES, INC.",
      "orgPK": "14251",
      "str1": "1095 AVENUE OF THE AMERICAS",
      "str2": null,
      "city": "NEW YORK",
      "state": 35,
      "stateSpecified": true,
      "cntry": "United States",
      "postlCd": "10036"
    }
  ],
  "Exms": [
    {
      "exmCd": 0,
      "exmNm": "Uniform Securities Agent State Law Examination",
      "exmDt": "1999-03-19T00:00:00",
      "exmDtSpecified": true
    },
    {
      "exmCd": 2,
      "exmNm": "Uniform Investment Adviser Law Examination",
      "exmDt": "1999-10-19T00:00:00",
      "exmDtSpecified": true
    },
    {
      "exmCd": 3,
      "exmNm": "Uniform Combined State Law Examination",
      "exmDt": "2013-10-10T00:00:00",
      "exmDtSpecified": true
    }
  ],
  "Dsgntns": [],
  "PrevRgstns": [
    {
      "BrnchOfLocs": [
        {
          "city": "BIRMINGHAM",
          "state": 1,
          "stateSpecified": true
        }
      ],
      "orgNm": "MML INVESTORS SERVICES, LLC",
      "orgPK": "10409",
      "regBeginDt": "2014-02-10T00:00:00",
      "regBeginDtSpecified": true,
      "regEndDt": "2015-12-18T00:00:00",
      "regEndDtSpecified": true
    }
  ],
  "EmpHss": [
    {
      "fromDt": "09/2005",
      "toDt": "08/2013",
      "orgNm": "GOLDEN BIRD ACQUISITION, LLC",
      "city": "CULLMAN",
      "state": 1,
      "stateSpecified": true
    },
    {
      "fromDt": "08/2013",
      "toDt": "12/2015",
      "orgNm": "MASS MUTUAL",
      "city": "BIRMINGHAM",
      "state": 1,
      "stateSpecified": true
    },
    {
      "fromDt": "09/2013",
      "toDt": "12/2015",
      "orgNm": "MML INVESTORS SERVICES",
      "city": "BIRMINGHAM",
      "state": 1,
      "stateSpecified": true
    },
    {
      "fromDt": "12/2015",
      "toDt": null,
      "orgNm": "Metlife Securities Inc.",
      "city": "Birmingham",
      "state": 1,
      "stateSpecified": true
    }
  ],
  "OthrBuss": {
    "OthrBus": {
      "desc": "Owner of Tiburon Initiatives Think On Technologies from  Atlanta GA 30325 2 security hours and 2 non security hours - since 04/2010"
    }
  },
  "DRPs": [
    {
      "hasRegAction": 1,
      "hasRegActionSpecified": true,
      "hasCriminal": 1,
      "hasCriminalSpecified": true,
      "hasBankrupt": 1,
      "hasBankruptSpecified": true,
      "hasCivilJudc": 1,
      "hasCivilJudcSpecified": true,
      "hasBond": 1,
      "hasBondSpecified": true,
      "hasJudgment": 1,
      "hasJudgmentSpecified": true,
      "hasInvstgn": 1,
      "hasInvstgnSpecified": true,
      "hasCustComp": 1,
      "hasCustCompSpecified": true,
      "hasTermination": 0,
      "hasTerminationSpecified": true
    }
  ]
}