{
  "Info": {
    "lastNm": "HANSEN",
    "firstNm": "CHESTER",
    "midNm": "DAHL",
    "sufNm": "III",
    "indvlPK": "3179987",
    "actvAGReg": 0,
    "link": "http://www.adviserinfo.sec.gov/IAPD/Individual/3179987"
  },
  "OthrNms": [
    {
      "lastNm": "HANSEN",
      "firstNm": "CHESTER",
      "midNm": "DAHL",
      "sufNm": null
    }
  ],
  "CrntEmps": [
    {
      "CrntRgstns": [
        {
          "regAuth": 34,
          "regCat": 0,
          "st": 2,
          "stDt": "2016-04-11T00:00:00"
        }
      ],
      "BrnchOfLocs": [
        {
          "str1": null,
          "str2": null,
          "city": "LAS VEGAS",
          "state": 34,
          "stateSpecified": true,
          "cntry": "United States",
          "postlCd": null
        },
        {
          "str1": "5900 \"O\" STREET",
          "str2": null,
          "city": "LINCOLN",
          "state": 30,
          "stateSpecified": true,
          "cntry": "United States",
          "postlCd": "68510-2234"
        }
      ],
      "orgNm": "AMERITAS INVESTMENT CORP.",
      "orgPK": "14869",
      "str1": "5900 \"O\" STREET",
      "str2": null,
      "city": "LINCOLN",
      "state": 30,
      "stateSpecified": true,
      "cntry": "United States",
      "postlCd": "68510"
    }
  ],
  "Exms": [
    {
      "exmCd": 0,
      "exmNm": "Uniform Securities Agent State Law Examination",
      "exmDt": "1999-02-11T00:00:00",
      "exmDtSpecified": true
    },
    {
      "exmCd": 2,
      "exmNm": "Uniform Investment Adviser Law Examination",
      "exmDt": "1999-12-07T00:00:00",
      "exmDtSpecified": true
    }
  ],
  "Dsgntns": [],
  "PrevRgstns": [],
  "EmpHss": [
    {
      "fromDt": "03/2001",
      "toDt": "12/2014",
      "orgNm": "SCOTTSDALE ASSET MANAGEMENT, INC.",
      "city": "SCOTTSDALE",
      "state": 3,
      "stateSpecified": true
    },
    {
      "fromDt": "06/2001",
      "toDt": "12/2009",
      "orgNm": "DAHL HANSEN",
      "city": "SCOTTSDALE",
      "state": 3,
      "stateSpecified": true
    },
    {
      "fromDt": "07/2002",
      "toDt": null,
      "orgNm": "AMERITAS INVESTMENT CORP",
      "city": "LINCOLN",
      "state": 30,
      "stateSpecified": true
    },
    {
      "fromDt": "03/2011",
      "toDt": "12/2014",
      "orgNm": "OLYMPUS FINANCIAL ADVISORS",
      "city": "SCOTTSDALE",
      "state": 3,
      "stateSpecified": true
    }
  ],
  "OthrBuss": {
    "OthrBus": {
      "desc": "LICENSED AS AN INDEPENDENT INSURANCE AGENT TO SELL FIXED INSURANCE PRODUCTS"
    }
  },
  "DRPs": []
}