{
  "Info": {
    "lastNm": "KILLETTE",
    "firstNm": "LAURA",
    "midNm": null,
    "sufNm": null,
    "indvlPK": "3182169",
    "actvAGReg": 0,
    "link": "http://www.adviserinfo.sec.gov/IAPD/Individual/3182169"
  },
  "OthrNms": [
    {
      "lastNm": "WYNNE",
      "firstNm": "LAURA",
      "midNm": null,
      "sufNm": null
    }
  ],
  "CrntEmps": [
    {
      "CrntRgstns": [
        {
          "regAuth": 45,
          "regCat": 0,
          "st": 3,
          "stDt": "2004-07-28T00:00:00"
        },
        {
          "regAuth": 28,
          "regCat": 0,
          "st": 2,
          "stDt": "2007-12-20T00:00:00"
        }
      ],
      "BrnchOfLocs": [
        {
          "str1": "150 N COLLEGE ST",
          "str2": null,
          "city": "CHARLOTTE",
          "state": 28,
          "stateSpecified": true,
          "cntry": "United States",
          "postlCd": "28255"
        }
      ],
      "orgNm": "MERRILL LYNCH, PIERCE, FENNER & SMITH INCORPORATED",
      "orgPK": "7691",
      "str1": "ONE BRYANT PARK",
      "str2": null,
      "city": "NEW YORK",
      "state": 35,
      "stateSpecified": true,
      "cntry": "United States",
      "postlCd": "10036"
    }
  ],
  "Exms": [
    {
      "exmCd": 3,
      "exmNm": "Uniform Combined State Law Examination",
      "exmDt": "1999-05-06T00:00:00",
      "exmDtSpecified": true
    }
  ],
  "Dsgntns": [],
  "PrevRgstns": [],
  "EmpHss": [
    {
      "fromDt": "05/1998",
      "toDt": null,
      "orgNm": "MERRILL LYNCH, PIERCE, FENNER & SMITH INCORPORATED",
      "city": "CARY",
      "state": 28,
      "stateSpecified": true
    }
  ],
  "OthrBuss": {
    "OthrBus": {
      "desc": "I*72695 FOR PROFIT OR NOT FOR PROFIT: FOR-PROFIT ORGANIZATION  NAME OF OUTSIDE BUSINESS ORGANIZATION: ARBONNE  INVESTMENT RELATED: N  ADDRESS OF BUSINESS:   9400 JERONIMO RD,   IRVINE, CALIFORNIA 92618  NATURE OF BUSINESS: CORPORATION,  POSITION, TITLE, ASSOCIATION: CONSULTANT,   START DATE OF RELATIONSHIP: 6/2/2014  NUMBER OF HOURS DEVOTED: 10 HOUR(S) MONTHLY  NUMBER OF HOURS DEVOTED DURING TRADING HOURS: 0  DUTIES: SALESPERSON FOR SELLING ARBONEE PRODUCTS THROUGH CONNECTIONS AND HOME PARTIES"
    }
  },
  "DRPs": []
}