{
  "Info": {
    "lastNm": "MCMILLIAN",
    "firstNm": "DEBRA",
    "midNm": "RENEE",
    "sufNm": null,
    "indvlPK": "3186644",
    "actvAGReg": 0,
    "link": "http://www.adviserinfo.sec.gov/IAPD/Individual/3186644"
  },
  "OthrNms": [],
  "CrntEmps": [
    {
      "CrntRgstns": [
        {
          "regAuth": 9,
          "regCat": 0,
          "st": 2,
          "stDt": "2010-04-22T00:00:00"
        },
        {
          "regAuth": 45,
          "regCat": 0,
          "st": 3,
          "stDt": "2015-07-21T00:00:00"
        }
      ],
      "BrnchOfLocs": [
        {
          "str1": "350 5TH AVENUE, STES 100 & 201",
          "str2": null,
          "city": "NAPLES",
          "state": 9,
          "stateSpecified": true,
          "cntry": "United States",
          "postlCd": "34102"
        }
      ],
      "orgNm": "STRATEGIC ADVISERS, INC.",
      "orgPK": "104555",
      "str1": "245 SUMMER STREET, V10G",
      "str2": null,
      "city": "BOSTON",
      "state": 20,
      "stateSpecified": true,
      "cntry": "United States",
      "postlCd": "02210"
    }
  ],
  "Exms": [
    {
      "exmCd": 0,
      "exmNm": "Uniform Securities Agent State Law Examination",
      "exmDt": "2001-10-26T00:00:00",
      "exmDtSpecified": true
    },
    {
      "exmCd": 3,
      "exmNm": "Uniform Combined State Law Examination",
      "exmDt": "2010-02-11T00:00:00",
      "exmDtSpecified": true
    }
  ],
  "Dsgntns": [],
  "PrevRgstns": [
    {
      "BrnchOfLocs": [
        {
          "city": "TAMPA",
          "state": 9,
          "stateSpecified": true
        }
      ],
      "orgNm": "STRATEGIC ADVISERS, INC.",
      "orgPK": "104555",
      "regBeginDt": "2005-01-26T00:00:00",
      "regBeginDtSpecified": true,
      "regEndDt": "2006-12-31T00:00:00",
      "regEndDtSpecified": true
    }
  ],
  "EmpHss": [
    {
      "fromDt": "10/1998",
      "toDt": null,
      "orgNm": "FIDELITY BROKERAGE SERVICES, INC.",
      "city": "TAMPA",
      "state": 9,
      "stateSpecified": true
    }
  ],
  "OthrBuss": {
    "OthrBus": null
  },
  "DRPs": []
}