{
  "Info": {
    "lastNm": "BURTON",
    "firstNm": "ROBERT",
    "midNm": "JAMES",
    "sufNm": "JR",
    "indvlPK": "3186851",
    "actvAGReg": 0,
    "link": "http://www.adviserinfo.sec.gov/IAPD/Individual/3186851"
  },
  "OthrNms": [
    {
      "lastNm": "BURTON",
      "firstNm": "ROBERT",
      "midNm": null,
      "sufNm": null
    }
  ],
  "CrntEmps": [
    {
      "CrntRgstns": [
        {
          "regAuth": 4,
          "regCat": 0,
          "st": 2,
          "stDt": "2008-01-01T00:00:00"
        }
      ],
      "BrnchOfLocs": [
        {
          "str1": "945 ORCHARD CREEK LN STE 100",
          "str2": null,
          "city": "LINCOLN HILLS",
          "state": 4,
          "stateSpecified": true,
          "cntry": "United States",
          "postlCd": "95648"
        }
      ],
      "orgNm": "WELLS FARGO ADVISORS, LLC",
      "orgPK": "19616",
      "str1": "ONE NORTH JEFFERSON AVENUE",
      "str2": "MAIL CODE: H0004-050",
      "city": "ST. LOUIS",
      "state": 25,
      "stateSpecified": true,
      "cntry": "United States",
      "postlCd": "63103-2205"
    }
  ],
  "Exms": [
    {
      "exmCd": 0,
      "exmNm": "Uniform Securities Agent State Law Examination",
      "exmDt": "1999-03-18T00:00:00",
      "exmDtSpecified": true
    },
    {
      "exmCd": 2,
      "exmNm": "Uniform Investment Adviser Law Examination",
      "exmDt": "2007-11-06T00:00:00",
      "exmDtSpecified": true
    }
  ],
  "Dsgntns": [
    {
      "dsgntnNm": "Certified Financial Planner"
    }
  ],
  "PrevRgstns": [
    {
      "BrnchOfLocs": [
        {
          "city": "ROSEVILLE",
          "state": 4,
          "stateSpecified": true
        },
        {
          "city": "ROSEVILLE",
          "state": 4,
          "stateSpecified": true
        }
      ],
      "orgNm": "A. G. EDWARDS & SONS, INC.",
      "orgPK": "4",
      "regBeginDt": "2001-03-29T00:00:00",
      "regBeginDtSpecified": true,
      "regEndDt": "2007-08-16T00:00:00",
      "regEndDtSpecified": true
    },
    {
      "BrnchOfLocs": [
        {
          "city": "ROSEVILLE",
          "state": 4,
          "stateSpecified": true
        }
      ],
      "orgNm": "RBC CAPITAL MARKETS, LLC",
      "orgPK": "31194",
      "regBeginDt": "2007-08-27T00:00:00",
      "regBeginDtSpecified": true,
      "regEndDt": "2007-09-20T00:00:00",
      "regEndDtSpecified": true
    },
    {
      "BrnchOfLocs": [
        {
          "city": "ROSEVILLE",
          "state": 4,
          "stateSpecified": true
        },
        {
          "city": "ST. LOUIS",
          "state": 25,
          "stateSpecified": true
        }
      ],
      "orgNm": "A. G. EDWARDS & SONS, INC.",
      "orgPK": "4",
      "regBeginDt": "2007-09-07T00:00:00",
      "regBeginDtSpecified": true,
      "regEndDt": "2008-01-01T00:00:00",
      "regEndDtSpecified": true
    }
  ],
  "EmpHss": [
    {
      "fromDt": "01/1999",
      "toDt": "01/2008",
      "orgNm": "A.G. EDWARDS",
      "city": "SACRAMENTO",
      "state": 4,
      "stateSpecified": true
    },
    {
      "fromDt": "08/2007",
      "toDt": "09/2007",
      "orgNm": "RBC DAIN RAUSCHER",
      "city": "ROSEVILLE",
      "state": 4,
      "stateSpecified": true
    },
    {
      "fromDt": "09/2007",
      "toDt": "01/2008",
      "orgNm": "A.G. EDWARDS",
      "city": "ROSEVILLE",
      "state": 4,
      "stateSpecified": true
    },
    {
      "fromDt": "01/2008",
      "toDt": "05/2009",
      "orgNm": "WACHOVIA SECURITIES, LLC",
      "city": "ROSEVILLE",
      "state": 4,
      "stateSpecified": true
    },
    {
      "fromDt": "05/2009",
      "toDt": null,
      "orgNm": "WELLS FARGO ADVISORS LLC",
      "city": "LINCOLN",
      "state": 4,
      "stateSpecified": true
    }
  ],
  "OthrBuss": {
    "OthrBus": {
      "desc": "BURCO CONSTRUCTION ROSEVILLE, CA; GENERAL CONST ON OWNERS HELD REAL ESTATE; 100% OWNERSHIP APPROXIMATELY 2 HOURS/MONTH OR LESS DEVOTED.  BURTON PROPERTIES; NON INVESTMENT RELATED; ROSEVILLE, CA; 100% OWNERSHIP; START 1987; 6 HRS PER MONTH 0 DURING TRADING; PROPERTY MANAGEMENT"
    }
  },
  "DRPs": [
    {
      "hasRegAction": 1,
      "hasRegActionSpecified": true,
      "hasCriminal": 1,
      "hasCriminalSpecified": true,
      "hasBankrupt": 1,
      "hasBankruptSpecified": true,
      "hasCivilJudc": 1,
      "hasCivilJudcSpecified": true,
      "hasBond": 1,
      "hasBondSpecified": true,
      "hasJudgment": 1,
      "hasJudgmentSpecified": true,
      "hasInvstgn": 1,
      "hasInvstgnSpecified": true,
      "hasCustComp": 1,
      "hasCustCompSpecified": true,
      "hasTermination": 0,
      "hasTerminationSpecified": true
    }
  ]
}