{
  "Info": {
    "lastNm": "SCHMIDT-CARROLL",
    "firstNm": "STACY",
    "midNm": "L.",
    "sufNm": null,
    "indvlPK": "3188069",
    "actvAGReg": 0,
    "link": "http://www.adviserinfo.sec.gov/IAPD/Individual/3188069"
  },
  "OthrNms": [
    {
      "lastNm": "CARROLL",
      "firstNm": "STACY",
      "midNm": "SCHMIDT",
      "sufNm": null
    },
    {
      "lastNm": "SCHMIDT",
      "firstNm": "STACY",
      "midNm": "L",
      "sufNm": null
    }
  ],
  "CrntEmps": [
    {
      "CrntRgstns": [
        {
          "regAuth": 9,
          "regCat": 0,
          "st": 2,
          "stDt": "2000-10-01T00:00:00"
        }
      ],
      "BrnchOfLocs": [
        {
          "str1": "1825 EAST BROADWAY",
          "str2": null,
          "city": "OVIEDO",
          "state": 9,
          "stateSpecified": true,
          "cntry": "United States",
          "postlCd": "32765"
        },
        {
          "str1": "800 N MAGNOLIA AVE STE 900",
          "str2": "[F8-RBO]",
          "city": "ORLANDO",
          "state": 9,
          "stateSpecified": true,
          "cntry": "United States",
          "postlCd": "32803"
        }
      ],
      "orgNm": "WELLS FARGO ADVISORS, LLC",
      "orgPK": "19616",
      "str1": "ONE NORTH JEFFERSON AVENUE",
      "str2": "MAIL CODE: H0004-050",
      "city": "ST. LOUIS",
      "state": 25,
      "stateSpecified": true,
      "cntry": "United States",
      "postlCd": "63103-2205"
    }
  ],
  "Exms": [
    {
      "exmCd": 0,
      "exmNm": "Uniform Securities Agent State Law Examination",
      "exmDt": "1999-04-19T00:00:00",
      "exmDtSpecified": true
    }
  ],
  "Dsgntns": [],
  "PrevRgstns": [],
  "EmpHss": [
    {
      "fromDt": "06/2002",
      "toDt": null,
      "orgNm": "WACHOVIA BANK, N.A.",
      "city": "WINTER SPRINGS",
      "state": 9,
      "stateSpecified": true
    },
    {
      "fromDt": "06/2003",
      "toDt": "05/2009",
      "orgNm": "WACHOVIA SECURITIES, LLC",
      "city": "WINTER SPRINGS",
      "state": 9,
      "stateSpecified": true
    },
    {
      "fromDt": "05/2009",
      "toDt": null,
      "orgNm": "WELLS FARGO ADVISORS LLC",
      "city": "OVIEDO",
      "state": 9,
      "stateSpecified": true
    }
  ],
  "OthrBuss": {
    "OthrBus": null
  },
  "DRPs": [
    {
      "hasRegAction": 1,
      "hasRegActionSpecified": true,
      "hasCriminal": 1,
      "hasCriminalSpecified": true,
      "hasBankrupt": 0,
      "hasBankruptSpecified": true,
      "hasCivilJudc": 1,
      "hasCivilJudcSpecified": true,
      "hasBond": 1,
      "hasBondSpecified": true,
      "hasJudgment": 1,
      "hasJudgmentSpecified": true,
      "hasInvstgn": 1,
      "hasInvstgnSpecified": true,
      "hasCustComp": 1,
      "hasCustCompSpecified": true,
      "hasTermination": 1,
      "hasTerminationSpecified": true
    }
  ]
}