{
  "Info": {
    "lastNm": "DALLEN",
    "firstNm": "TRACY",
    "midNm": "ELLEN",
    "sufNm": null,
    "indvlPK": "3188650",
    "actvAGReg": 0,
    "link": "http://www.adviserinfo.sec.gov/IAPD/Individual/3188650"
  },
  "OthrNms": [
    {
      "lastNm": "DALLEN",
      "firstNm": "TRACY",
      "midNm": null,
      "sufNm": null
    },
    {
      "lastNm": "GYGAX",
      "firstNm": "TRACY",
      "midNm": "KNAPP",
      "sufNm": null
    },
    {
      "lastNm": "KNAPP",
      "firstNm": "TRACY",
      "midNm": "ELLEN",
      "sufNm": null
    }
  ],
  "CrntEmps": [
    {
      "CrntRgstns": [
        {
          "regAuth": 50,
          "regCat": 0,
          "st": 2,
          "stDt": "1999-03-25T00:00:00"
        }
      ],
      "BrnchOfLocs": [
        {
          "str1": "18000 W SARAH LN",
          "str2": "STE 230",
          "city": "BROOKFIELD",
          "state": 50,
          "stateSpecified": true,
          "cntry": "United States",
          "postlCd": "53045-5853"
        }
      ],
      "orgNm": "AMERIPRISE FINANCIAL SERVICES, INC.",
      "orgPK": "6363",
      "str1": "707 2ND AVENUE SOUTH",
      "str2": null,
      "city": "MINNEAPOLIS",
      "state": 24,
      "stateSpecified": true,
      "cntry": "United States",
      "postlCd": "55402"
    }
  ],
  "Exms": [
    {
      "exmCd": 0,
      "exmNm": "Uniform Securities Agent State Law Examination",
      "exmDt": "1999-03-03T00:00:00",
      "exmDtSpecified": true
    }
  ],
  "Dsgntns": [],
  "PrevRgstns": [],
  "EmpHss": [
    {
      "fromDt": "08/1998",
      "toDt": null,
      "orgNm": "LINUX PPC",
      "city": "HALES CORNERS",
      "state": 50,
      "stateSpecified": true
    },
    {
      "fromDt": "10/1998",
      "toDt": null,
      "orgNm": "SEASONS 4 FLOWERS & GIFTS",
      "city": "NEW BERLIN",
      "state": 50,
      "stateSpecified": true
    },
    {
      "fromDt": "02/1999",
      "toDt": "07/2007",
      "orgNm": "AMERICAN EXPRESS FINANCIAL ADVISORS INC.",
      "city": "BROOKFIELD",
      "state": 50,
      "stateSpecified": true
    },
    {
      "fromDt": "02/1999",
      "toDt": "07/2007",
      "orgNm": "IDS LIFE INSURANCE COMPANY",
      "city": "BROOKFIELD",
      "state": 50,
      "stateSpecified": true
    },
    {
      "fromDt": "08/2007",
      "toDt": null,
      "orgNm": "AMERIPRISE FINANCIAL SERVICES, INC.",
      "city": "BROOKFIELD",
      "state": 50,
      "stateSpecified": true
    }
  ],
  "OthrBuss": {
    "OthrBus": null
  },
  "DRPs": []
}