{
  "Info": {
    "lastNm": "KITTREDGE",
    "firstNm": "ADAM",
    "midNm": "PATRICK",
    "sufNm": null,
    "indvlPK": "3192184",
    "actvAGReg": 0,
    "link": "http://www.adviserinfo.sec.gov/IAPD/Individual/3192184"
  },
  "OthrNms": [],
  "CrntEmps": [
    {
      "CrntRgstns": [
        {
          "regAuth": 20,
          "regCat": 0,
          "st": 2,
          "stDt": "2015-10-07T00:00:00"
        }
      ],
      "BrnchOfLocs": [
        {
          "str1": "85 MAIN STREET",
          "str2": null,
          "city": "FLORENCE",
          "state": 20,
          "stateSpecified": true,
          "cntry": "United States",
          "postlCd": "01062"
        }
      ],
      "orgNm": "COMMONWEALTH FINANCIAL NETWORK",
      "orgPK": "8032",
      "str1": "29 SAWYER ROAD",
      "str2": null,
      "city": "WALTHAM",
      "state": 20,
      "stateSpecified": true,
      "cntry": "United States",
      "postlCd": "02453-3483"
    }
  ],
  "Exms": [
    {
      "exmCd": 0,
      "exmNm": "Uniform Securities Agent State Law Examination",
      "exmDt": "2002-07-29T00:00:00",
      "exmDtSpecified": true
    },
    {
      "exmCd": 3,
      "exmNm": "Uniform Combined State Law Examination",
      "exmDt": "2003-05-06T00:00:00",
      "exmDtSpecified": true
    }
  ],
  "Dsgntns": [],
  "PrevRgstns": [
    {
      "BrnchOfLocs": [
        {
          "city": "WALNUT CREEK",
          "state": 4,
          "stateSpecified": true
        }
      ],
      "orgNm": "STRATEGIC ADVISERS, INC.",
      "orgPK": "104555",
      "regBeginDt": "2005-06-16T00:00:00",
      "regBeginDtSpecified": true,
      "regEndDt": "2008-11-07T00:00:00",
      "regEndDtSpecified": true
    },
    {
      "BrnchOfLocs": [
        {
          "city": "SAN FRANCISCO",
          "state": 4,
          "stateSpecified": true
        },
        {
          "city": "SAN FRANCISCO",
          "state": 4,
          "stateSpecified": true
        },
        {
          "city": "SAN FRANCISCO",
          "state": 4,
          "stateSpecified": true
        }
      ],
      "orgNm": "CHARLES SCHWAB & CO., INC.",
      "orgPK": "5393",
      "regBeginDt": "2008-12-05T00:00:00",
      "regBeginDtSpecified": true,
      "regEndDt": "2011-04-25T00:00:00",
      "regEndDtSpecified": true
    },
    {
      "BrnchOfLocs": [
        {
          "city": "SAN FRANCISCO",
          "state": 4,
          "stateSpecified": true
        }
      ],
      "orgNm": "MML INVESTORS SERVICES, LLC",
      "orgPK": "10409",
      "regBeginDt": "2012-08-22T00:00:00",
      "regBeginDtSpecified": true,
      "regEndDt": "2013-04-10T00:00:00",
      "regEndDtSpecified": true
    },
    {
      "BrnchOfLocs": [
        {
          "city": "HADLEY",
          "state": 20,
          "stateSpecified": true
        }
      ],
      "orgNm": "CUSO FINANCIAL SERVICES, L.P.",
      "orgPK": "42132",
      "regBeginDt": "2013-07-01T00:00:00",
      "regBeginDtSpecified": true,
      "regEndDt": "2015-07-08T00:00:00",
      "regEndDtSpecified": true
    }
  ],
  "EmpHss": [
    {
      "fromDt": "05/2005",
      "toDt": "11/2008",
      "orgNm": "FIDELITY BROKERAGE SERVICES LLC",
      "city": "WALNUT CREEK",
      "state": 4,
      "stateSpecified": true
    },
    {
      "fromDt": "11/2008",
      "toDt": "04/2011",
      "orgNm": "CHARLES SCHWAB & CO, INC",
      "city": "SAN FRANCISCO",
      "state": 4,
      "stateSpecified": true
    },
    {
      "fromDt": "04/2011",
      "toDt": "10/2011",
      "orgNm": "ADVENT SOFTWARE",
      "city": "SAN FRANCISCO",
      "state": 4,
      "stateSpecified": true
    },
    {
      "fromDt": "11/2011",
      "toDt": "05/2012",
      "orgNm": "UNEMPLOYED",
      "city": "SAN FRANCISCO",
      "state": 4,
      "stateSpecified": true
    },
    {
      "fromDt": "06/2012",
      "toDt": "04/2013",
      "orgNm": "MASSMUTUAL LIFE INSURANCE COMPANY",
      "city": "SAN FRANCISCO",
      "state": 4,
      "stateSpecified": true
    },
    {
      "fromDt": "08/2012",
      "toDt": "04/2013",
      "orgNm": "MML INVESTORS SERVICES LLC",
      "city": "SAN FRANCISCO",
      "state": 4,
      "stateSpecified": true
    },
    {
      "fromDt": "06/2013",
      "toDt": "09/2015",
      "orgNm": "CUSO FINANCIAL SERVICES, LP",
      "city": "SAN DIEGO",
      "state": 4,
      "stateSpecified": true
    },
    {
      "fromDt": "09/2015",
      "toDt": null,
      "orgNm": "FSB FINANCIAL GROUP",
      "city": "FLORENCE",
      "state": 20,
      "stateSpecified": true
    }
  ],
  "OthrBuss": {
    "OthrBus": null
  },
  "DRPs": [
    {
      "hasRegAction": 1,
      "hasRegActionSpecified": true,
      "hasCriminal": 1,
      "hasCriminalSpecified": true,
      "hasBankrupt": 1,
      "hasBankruptSpecified": true,
      "hasCivilJudc": 1,
      "hasCivilJudcSpecified": true,
      "hasBond": 1,
      "hasBondSpecified": true,
      "hasJudgment": 0,
      "hasJudgmentSpecified": true,
      "hasInvstgn": 1,
      "hasInvstgnSpecified": true,
      "hasCustComp": 1,
      "hasCustCompSpecified": true,
      "hasTermination": 1,
      "hasTerminationSpecified": true
    }
  ]
}