{
  "Info": {
    "lastNm": "DIEL",
    "firstNm": "KENNETH",
    "midNm": "ROBERT",
    "sufNm": null,
    "indvlPK": "3192724",
    "actvAGReg": 1,
    "link": "http://www.adviserinfo.sec.gov/IAPD/Individual/3192724"
  },
  "OthrNms": [],
  "CrntEmps": [
    {
      "CrntRgstns": [
        {
          "regAuth": 15,
          "regCat": 0,
          "st": 2,
          "stDt": "1999-02-25T00:00:00"
        },
        {
          "regAuth": 25,
          "regCat": 0,
          "st": 2,
          "stDt": "1999-07-30T00:00:00"
        }
      ],
      "BrnchOfLocs": [
        {
          "str1": "852 CAMBRIDGE BLVD",
          "str2": "SUITE 100",
          "city": "O'FALLON",
          "state": 15,
          "stateSpecified": true,
          "cntry": "United States",
          "postlCd": "62269"
        }
      ],
      "orgNm": "CAMBRIDGE CAPITAL MANAGEMENT, LLC",
      "orgPK": "110932",
      "str1": "852 CAMBRIDGE BOULEVARD",
      "str2": "SUITE 300",
      "city": "O'FALLON",
      "state": 15,
      "stateSpecified": true,
      "cntry": "United States",
      "postlCd": "62269"
    }
  ],
  "Exms": [
    {
      "exmCd": 2,
      "exmNm": "Uniform Investment Adviser Law Examination",
      "exmDt": "1999-02-17T00:00:00",
      "exmDtSpecified": true
    }
  ],
  "Dsgntns": [],
  "PrevRgstns": [],
  "EmpHss": [
    {
      "fromDt": "02/1988",
      "toDt": null,
      "orgNm": "PENSION ADMINISTRATION SERVICES, INC.",
      "city": "O'FALLON",
      "state": 15,
      "stateSpecified": true
    },
    {
      "fromDt": "07/1998",
      "toDt": null,
      "orgNm": "DIEL & FORGUSON LLC",
      "city": "O'FALLON",
      "state": 15,
      "stateSpecified": true
    },
    {
      "fromDt": "07/1998",
      "toDt": null,
      "orgNm": "STRATEGIC BUSINESS SOLUTIONS, INC.",
      "city": "O'FALLON",
      "state": 15,
      "stateSpecified": true
    },
    {
      "fromDt": "07/1998",
      "toDt": null,
      "orgNm": "SUNSET INVESTMENTS, LLC",
      "city": "O'FALLON",
      "state": 15,
      "stateSpecified": true
    },
    {
      "fromDt": "09/1998",
      "toDt": null,
      "orgNm": "PROFESSIONAL INVESTMENT MANAGEMENT SERVICES, LLC",
      "city": "O'FALLON",
      "state": 15,
      "stateSpecified": true
    }
  ],
  "OthrBuss": {
    "OthrBus": {
      "desc": "ADDRESS FOR ALL 4 FOLLOWING COMPANIES IS 852 CAMBRIDGE BLVD, STE 100, O'FALLON, IL 62269:  DIEL & FORGUSON, LLC, NOT INVESTMENT RELATED, CERTIFIED PUBLIC ACCOUNTANTS, OWNER/MEMBER SINCE 7/1998, 150 HRS/MO, 90 HRS DURING TRADING, ADMINISTRATIVE & CONSULTING; STRATEGIC BUSINESS SOLUTIONS, INC, NOT INVESTMENT RELATED, COMPUTER CONSULTING COMPANY, SHAREHOLDER/PRESIDENT SINCE 7/1/1998, 25 HRS/MONTH, 15 HRS DURING TRADING, CONSULTING;   PENSION ADMINISTRATION SERVICES, INC, NOT INVESTMENT RELATED, EMPLOYEE BENEFIT ADMINISTRATION SERVICES,  SHAREHOLDER/PRESIDENT SINCE 2/1/1988, 25 HRS/MO, 15 HRS DURING TRADING, CONSULTING;   SUNSET INVESTMENTS, LLC, INVESTMENT RELATED, REAL ESTATE RENTAL, OWNER/MEMBER SINCE 7/1/98, 12 HRS/MO, 7 HRS DURING TRADING, LANDLORD"
    }
  },
  "DRPs": []
}