{
  "Info": {
    "lastNm": "JOHNSON",
    "firstNm": "KRISTIN",
    "midNm": "ANNE",
    "sufNm": null,
    "indvlPK": "3196072",
    "actvAGReg": 0,
    "link": "http://www.adviserinfo.sec.gov/IAPD/Individual/3196072"
  },
  "OthrNms": [
    {
      "lastNm": "HOLDER",
      "firstNm": "KRISTIN",
      "midNm": "ANNE",
      "sufNm": null
    }
  ],
  "CrntEmps": [
    {
      "CrntRgstns": [
        {
          "regAuth": 9,
          "regCat": 0,
          "st": 2,
          "stDt": "2012-08-15T00:00:00"
        }
      ],
      "BrnchOfLocs": [
        {
          "str1": "3030 NORTH ROCKY POINT DR. WEST",
          "str2": "SUITE 700",
          "city": "TAMPA",
          "state": 9,
          "stateSpecified": true,
          "cntry": "United States",
          "postlCd": "33607"
        }
      ],
      "orgNm": "INDEPENDENT FINANCIAL PARTNERS",
      "orgPK": "125112",
      "str1": "3030 NORTH ROCKY POINT DR. WEST",
      "str2": "SUITE 700",
      "city": "TAMPA",
      "state": 9,
      "stateSpecified": true,
      "cntry": "United States",
      "postlCd": "33607"
    }
  ],
  "Exms": [
    {
      "exmCd": 3,
      "exmNm": "Uniform Combined State Law Examination",
      "exmDt": "2003-12-05T00:00:00",
      "exmDtSpecified": true
    }
  ],
  "Dsgntns": [],
  "PrevRgstns": [
    {
      "BrnchOfLocs": [
        {
          "city": "TAMPA",
          "state": 9,
          "stateSpecified": true
        },
        {
          "city": "TAMPA",
          "state": 9,
          "stateSpecified": true
        }
      ],
      "orgNm": "VALIC FINANCIAL ADVISORS, INC.",
      "orgPK": "42803",
      "regBeginDt": "2003-12-10T00:00:00",
      "regBeginDtSpecified": true,
      "regEndDt": "2012-08-09T00:00:00",
      "regEndDtSpecified": true
    }
  ],
  "EmpHss": [
    {
      "fromDt": "11/2002",
      "toDt": "08/2012",
      "orgNm": "VFA",
      "city": "TAMPA",
      "state": 9,
      "stateSpecified": true
    },
    {
      "fromDt": "08/2012",
      "toDt": null,
      "orgNm": "LPL FINANCIAL LLC",
      "city": "TAMPA",
      "state": 9,
      "stateSpecified": true
    },
    {
      "fromDt": "09/2012",
      "toDt": null,
      "orgNm": "INDEPENDENT FINANCIAL PARTNERS",
      "city": "TAMPA",
      "state": 9,
      "stateSpecified": true
    }
  ],
  "OthrBuss": {
    "OthrBus": {
      "desc": "1. 07/11/2012 - Bay Area Wealth Management - INV REL - AT REPORTED LOCATION - DBA for LPL Business (entity for LPL business)   2. 09/20/2012: REGISTERED INVESTMENT ADVISOR - INDEPENDENT FINANCIAL PARTNERS - SERVE AS AN INDEPENDENT ADVISOR REPRESENTATIVE OF THE IFP RIA. ACTIVITIES MAY INCLUDE FINANCIAL PLANNING, RENDERING INVESTMENT ADVICE FOR A FEE, RETIREMENT PLAN CONSULTING, OR OTHER RELATED FINANCIAL PLANNING.  - (HYBRID) INDEPENDENT FINANCIAL PARTNERS - TIME SPENT 20% - TAMPA, FL.      3. 11/07/2012 - Kristin A Johnson Inc. - INV REL - AT REPORTED LOCATION - DBA for LPL Business (entity for LPL business)    4. 04/25/2014 - INDEPENDENT FINANCIAL PARTNERS - REGISTERED INVESTMENT ADVISOR - (HYBRID) IFP - TIAA CREF OFFERS A 403B/457B GROUP PLAN OFFERING FOR PINELLAS CO. SCHOOLS. AS THE ADVISOR ON THE ACCOUNT I CAN CHARGE UP TO 1.25% PER ANNUM IN ADVISORY FEES WITH CLIENT'S SIGNED CONSENT. - 15% OF TIME SPENT - TAMPA, FL    5. 03/01/2016 - NO BUSINESS NAME - INV REL - Non-Variable Insurance - START 02/19/2015 - 20 HOURS PER MONTH - I am interested in selling Medicare supplement/Advantage plans to my existing clients."
    }
  },
  "DRPs": []
}