{
  "Info": {
    "lastNm": "MAYER",
    "firstNm": "ADAM",
    "midNm": "DAVIS",
    "sufNm": null,
    "indvlPK": "3198703",
    "actvAGReg": 0,
    "link": "http://www.adviserinfo.sec.gov/IAPD/Individual/3198703"
  },
  "OthrNms": [],
  "CrntEmps": [
    {
      "CrntRgstns": [
        {
          "regAuth": 10,
          "regCat": 0,
          "st": 2,
          "stDt": "2008-06-30T00:00:00"
        }
      ],
      "BrnchOfLocs": [
        {
          "str1": "28025 IH-10 WEST",
          "str2": null,
          "city": "BOERNE",
          "state": 45,
          "stateSpecified": true,
          "cntry": "United States",
          "postlCd": "78006"
        },
        {
          "str1": "4618 BUCKLINE CIRCLE",
          "str2": null,
          "city": "DUNWOODY",
          "state": 10,
          "stateSpecified": true,
          "cntry": "United States",
          "postlCd": "30338"
        }
      ],
      "orgNm": "ADVISORS ASSET MANAGEMENT, INC.",
      "orgPK": "46727",
      "str1": "18925 BASE CAMP ROAD",
      "str2": "SUITE 203",
      "city": "MONUMENT",
      "state": 5,
      "stateSpecified": true,
      "cntry": "United States",
      "postlCd": "80132"
    }
  ],
  "Exms": [
    {
      "exmCd": 0,
      "exmNm": "Uniform Securities Agent State Law Examination",
      "exmDt": "1999-09-01T00:00:00",
      "exmDtSpecified": true
    },
    {
      "exmCd": 3,
      "exmNm": "Uniform Combined State Law Examination",
      "exmDt": "2008-06-23T00:00:00",
      "exmDtSpecified": true
    }
  ],
  "Dsgntns": [],
  "PrevRgstns": [],
  "EmpHss": [
    {
      "fromDt": "02/2005",
      "toDt": null,
      "orgNm": "ADVISORS ASSET MANAGEMENT, INC",
      "city": "MONUMENT",
      "state": 5,
      "stateSpecified": true
    }
  ],
  "OthrBuss": {
    "OthrBus": null
  },
  "DRPs": []
}