{
  "Info": {
    "lastNm": "WILLIAMS",
    "firstNm": "ALEXANDER",
    "midNm": "JON",
    "sufNm": null,
    "indvlPK": "3198469",
    "actvAGReg": 0,
    "link": "http://www.adviserinfo.sec.gov/IAPD/Individual/3198469"
  },
  "OthrNms": [
    {
      "lastNm": "WILLIAMS",
      "firstNm": "ALEX",
      "midNm": null,
      "sufNm": null
    },
    {
      "lastNm": "WILLIAMS",
      "firstNm": "ALEX",
      "midNm": "JON",
      "sufNm": null
    }
  ],
  "CrntEmps": [
    {
      "CrntRgstns": [
        {
          "regAuth": 49,
          "regCat": 0,
          "st": 2,
          "stDt": "2007-01-29T00:00:00"
        }
      ],
      "BrnchOfLocs": [
        {
          "str1": "6939 LITTLEROCK RD SW STE A",
          "str2": null,
          "city": "TUMWATER",
          "state": 49,
          "stateSpecified": true,
          "cntry": "United States",
          "postlCd": "98512-7246"
        }
      ],
      "orgNm": "EDWARD JONES",
      "orgPK": "250",
      "str1": "12555 MANCHESTER RD",
      "str2": null,
      "city": "ST. LOUIS",
      "state": 25,
      "stateSpecified": true,
      "cntry": "United States",
      "postlCd": "63131"
    }
  ],
  "Exms": [
    {
      "exmCd": 0,
      "exmNm": "Uniform Securities Agent State Law Examination",
      "exmDt": "1999-09-09T00:00:00",
      "exmDtSpecified": true
    },
    {
      "exmCd": 3,
      "exmNm": "Uniform Combined State Law Examination",
      "exmDt": "2007-01-15T00:00:00",
      "exmDtSpecified": true
    }
  ],
  "Dsgntns": [],
  "PrevRgstns": [],
  "EmpHss": [
    {
      "fromDt": "07/1999",
      "toDt": null,
      "orgNm": "EDWARD D. JONES & CO., L.P.",
      "city": "ST. LOUIS",
      "state": 25,
      "stateSpecified": true
    }
  ],
  "OthrBuss": {
    "OthrBus": {
      "desc": "WHISKEY RIVER LLC TENINO, WA  START DATE: 2/10/2011  PARTNER  HOURS PER MONTH: 0  HOURS DURING TRADING: 0  PROPERTY MAINTENANCE"
    }
  },
  "DRPs": []
}