{
  "Info": {
    "lastNm": "HARRISON",
    "firstNm": "WILLIAM",
    "midNm": "ERNEST",
    "sufNm": null,
    "indvlPK": "3198586",
    "actvAGReg": 0,
    "link": "http://www.adviserinfo.sec.gov/IAPD/Individual/3198586"
  },
  "OthrNms": [
    {
      "lastNm": "HARRISON",
      "firstNm": "CHIP",
      "midNm": null,
      "sufNm": "JR"
    },
    {
      "lastNm": "HARRISON",
      "firstNm": "WILLIAM",
      "midNm": "ERNEST JR",
      "sufNm": null
    },
    {
      "lastNm": "HARRISON",
      "firstNm": "WILLIAM",
      "midNm": "ERNEST",
      "sufNm": "JR"
    }
  ],
  "CrntEmps": [
    {
      "CrntRgstns": [
        {
          "regAuth": 45,
          "regCat": 0,
          "st": 3,
          "stDt": "2016-03-08T00:00:00"
        }
      ],
      "BrnchOfLocs": [
        {
          "str1": "901 E. BYRD STREET",
          "str2": "SUITE 2000",
          "city": "RICHMOND",
          "state": 47,
          "stateSpecified": true,
          "cntry": "United States",
          "postlCd": "23219"
        }
      ],
      "orgNm": "MORGAN STANLEY",
      "orgPK": "149777",
      "str1": "2000 WESTCHESTER AVENUE",
      "str2": null,
      "city": "PURCHASE",
      "state": 35,
      "stateSpecified": true,
      "cntry": "United States",
      "postlCd": "10577-2530"
    }
  ],
  "Exms": [
    {
      "exmCd": 0,
      "exmNm": "Uniform Securities Agent State Law Examination",
      "exmDt": "1999-05-05T00:00:00",
      "exmDtSpecified": true
    }
  ],
  "Dsgntns": [],
  "PrevRgstns": [],
  "EmpHss": [
    {
      "fromDt": "04/1998",
      "toDt": "10/2009",
      "orgNm": "BANK OF AMERICA, N.A.",
      "city": "RICHMOND",
      "state": 47,
      "stateSpecified": true
    },
    {
      "fromDt": "03/1999",
      "toDt": "10/2009",
      "orgNm": "BANC OF AMERICA INVESTMENT SERVICES, INC.",
      "city": "RICHMOND",
      "state": 47,
      "stateSpecified": true
    },
    {
      "fromDt": "10/2009",
      "toDt": "02/2016",
      "orgNm": "MERRILL LYNCH, PIERCE, FENNER & SMITH INCORPORATED",
      "city": "RICHMOND",
      "state": 47,
      "stateSpecified": true
    },
    {
      "fromDt": "02/2015",
      "toDt": null,
      "orgNm": "MORGAN STANLEY PRIVATE BANK, N.A.",
      "city": "RICHMOND",
      "state": 47,
      "stateSpecified": true
    },
    {
      "fromDt": "02/2015",
      "toDt": null,
      "orgNm": "MORGAN STANLEY SMITH BARNEY LLC",
      "city": "RICHMOND",
      "state": 47,
      "stateSpecified": true
    }
  ],
  "OthrBuss": {
    "OthrBus": null
  },
  "DRPs": []
}