{
  "Info": {
    "lastNm": "BEAUCHAMP",
    "firstNm": "BRANDON",
    "midNm": "LEE",
    "sufNm": null,
    "indvlPK": "3203473",
    "actvAGReg": 0,
    "link": "http://www.adviserinfo.sec.gov/IAPD/Individual/3203473"
  },
  "OthrNms": [],
  "CrntEmps": [
    {
      "CrntRgstns": [
        {
          "regAuth": 20,
          "regCat": 0,
          "st": 2,
          "stDt": "2010-09-01T00:00:00"
        }
      ],
      "BrnchOfLocs": [
        {
          "str1": "One Adams Place",
          "str2": "859 WILLARD ST, STE. 105",
          "city": "QUINCY",
          "state": 20,
          "stateSpecified": true,
          "cntry": "United States",
          "postlCd": "02169"
        }
      ],
      "orgNm": "AMERIVEST INVESTMENT MANAGEMENT, LLC",
      "orgPK": "111514",
      "str1": "200 SOUTH 108TH AVENUE",
      "str2": null,
      "city": "OMAHA",
      "state": 30,
      "stateSpecified": true,
      "cntry": "United States",
      "postlCd": "68154"
    },
    {
      "CrntRgstns": [
        {
          "regAuth": 20,
          "regCat": 0,
          "st": 2,
          "stDt": "2010-09-01T00:00:00"
        }
      ],
      "BrnchOfLocs": [
        {
          "str1": "ONE ADAMS PLACE",
          "str2": "859 WILLARD ST., STE. 105",
          "city": "QUINCY",
          "state": 20,
          "stateSpecified": true,
          "cntry": "United States",
          "postlCd": "02169"
        }
      ],
      "orgNm": "TD AMERITRADE, INC.",
      "orgPK": "7870",
      "str1": "200 SOUTH 108TH AVENUE",
      "str2": null,
      "city": "OMAHA",
      "state": 30,
      "stateSpecified": true,
      "cntry": "United States",
      "postlCd": "68154"
    }
  ],
  "Exms": [
    {
      "exmCd": 0,
      "exmNm": "Uniform Securities Agent State Law Examination",
      "exmDt": "1999-07-19T00:00:00",
      "exmDtSpecified": true
    },
    {
      "exmCd": 3,
      "exmNm": "Uniform Combined State Law Examination",
      "exmDt": "2010-08-27T00:00:00",
      "exmDtSpecified": true
    }
  ],
  "Dsgntns": [],
  "PrevRgstns": [],
  "EmpHss": [
    {
      "fromDt": "09/2005",
      "toDt": null,
      "orgNm": "TD WATERHOUSE INVESTOR SERVICES INC",
      "city": "SAN DIEGO",
      "state": 4,
      "stateSpecified": true
    }
  ],
  "OthrBuss": {
    "OthrBus": null
  },
  "DRPs": []
}