{
  "Info": {
    "lastNm": "SCHOONOVER",
    "firstNm": "MARTIN",
    "midNm": "LEO",
    "sufNm": null,
    "indvlPK": "3203095",
    "actvAGReg": 1,
    "link": "http://www.adviserinfo.sec.gov/IAPD/Individual/3203095"
  },
  "OthrNms": [],
  "CrntEmps": [
    {
      "CrntRgstns": [
        {
          "regAuth": 45,
          "regCat": 0,
          "st": 2,
          "stDt": "2012-08-15T00:00:00"
        }
      ],
      "BrnchOfLocs": [
        {
          "str1": "101 N. SHORELINE BLVD.",
          "str2": "SUITE 304",
          "city": "CORPUS CHRISTI",
          "state": 45,
          "stateSpecified": true,
          "cntry": "United States",
          "postlCd": "78401"
        }
      ],
      "orgNm": "OAK TREE WEALTH MANAGEMENT",
      "orgPK": "164685",
      "str1": "101 N. SHORELINE BLVD.",
      "str2": "SUITE 304",
      "city": "CORPUS CHRISTI",
      "state": 45,
      "stateSpecified": true,
      "cntry": "United States",
      "postlCd": "78401"
    }
  ],
  "Exms": [
    {
      "exmCd": 0,
      "exmNm": "Uniform Securities Agent State Law Examination",
      "exmDt": "2007-05-15T00:00:00",
      "exmDtSpecified": true
    },
    {
      "exmCd": 2,
      "exmNm": "Uniform Investment Adviser Law Examination",
      "exmDt": "2007-07-14T00:00:00",
      "exmDtSpecified": true
    }
  ],
  "Dsgntns": [],
  "PrevRgstns": [
    {
      "BrnchOfLocs": [
        {
          "city": "CIBOLO",
          "state": 45,
          "stateSpecified": true
        },
        {
          "city": "CORPUS CHRISTI",
          "state": 45,
          "stateSpecified": true
        },
        {
          "city": "HOUSTON",
          "state": 45,
          "stateSpecified": true
        }
      ],
      "orgNm": "FIRST COMMAND FINANCIAL PLANNING, INC.",
      "orgPK": "3641",
      "regBeginDt": "2007-07-19T00:00:00",
      "regBeginDtSpecified": true,
      "regEndDt": "2012-01-31T00:00:00",
      "regEndDtSpecified": true
    }
  ],
  "EmpHss": [
    {
      "fromDt": "06/2003",
      "toDt": "06/2007",
      "orgNm": "MPB CATHOLIC SCHOOL",
      "city": "CORPUS CHRISTI",
      "state": 45,
      "stateSpecified": true
    },
    {
      "fromDt": "02/2007",
      "toDt": "01/2012",
      "orgNm": "FIRST COMMAND FINANCIAL PLANNING, INC.",
      "city": "FORT WORTH",
      "state": 45,
      "stateSpecified": true
    },
    {
      "fromDt": "02/2007",
      "toDt": "01/2012",
      "orgNm": "FIRST COMMAND FINANCIAL SERVICES, INC.",
      "city": "FORT WORTH",
      "state": 45,
      "stateSpecified": true
    },
    {
      "fromDt": "02/2012",
      "toDt": "06/2012",
      "orgNm": "WARREN FINANCIAL SERVICES, LLC",
      "city": "CORPUS CHRISTI",
      "state": 45,
      "stateSpecified": true
    },
    {
      "fromDt": "06/2012",
      "toDt": null,
      "orgNm": "OAK TREE WEALTH MANAGEMENT",
      "city": "CORPUS CHRISTI",
      "state": 45,
      "stateSpecified": true
    }
  ],
  "OthrBuss": {
    "OthrBus": {
      "desc": "MR. SCHOONOVER IS A LICENSED INSURANCE AGENT AND CAN SELL LIFE, HEALTH, ANNUITIES AND OTHER LINES OF INSURANCE FOR VARIOUS INSURANCE COMPANIES.  HE SPENDS APPROXIMATELY 10 TO 15 HOURS PER MONTH ON THIS TYPE OF ACTIVITY.   MR. SCHOONOVER IS THE SOLE PROPRIETOR WITH 100% OWNERSHIP OF TEXAN AUTOPLEX, LLC, 7110 SARATOGA BLVD., CORPUS CHRISTI, TX 78411, AN AUTO DEALERSHIP.  HE SPENDS APPROXIMATELY 3 HOURS A WEEK ON THE WEEKEND ON ACTIVITIES RELATED TO THIS ENTITY."
    }
  },
  "DRPs": []
}