{
  "Info": {
    "lastNm": "DELGADO",
    "firstNm": "HEATHER",
    "midNm": null,
    "sufNm": null,
    "indvlPK": "3204233",
    "actvAGReg": 1,
    "link": "http://www.adviserinfo.sec.gov/IAPD/Individual/3204233"
  },
  "OthrNms": [
    {
      "lastNm": "DELGADO",
      "firstNm": "HEATHER",
      "midNm": "RENEE",
      "sufNm": null
    }
  ],
  "CrntEmps": [
    {
      "CrntRgstns": [
        {
          "regAuth": 45,
          "regCat": 0,
          "st": 2,
          "stDt": "2015-07-06T00:00:00"
        }
      ],
      "BrnchOfLocs": [
        {
          "str1": "ONE RIVERWAY",
          "str2": "SUITE 2000",
          "city": "HOUSTON",
          "state": 45,
          "stateSpecified": true,
          "cntry": "United States",
          "postlCd": "77056"
        }
      ],
      "orgNm": "CAZ INVESTMENTS L.P.",
      "orgPK": "113931",
      "str1": "ONE RIVERWAY",
      "str2": "SUITE 2000",
      "city": "HOUSTON",
      "state": 45,
      "stateSpecified": true,
      "cntry": "United States",
      "postlCd": "77056"
    }
  ],
  "Exms": [
    {
      "exmCd": 2,
      "exmNm": "Uniform Investment Adviser Law Examination",
      "exmDt": "2015-06-26T00:00:00",
      "exmDtSpecified": true
    }
  ],
  "Dsgntns": [],
  "PrevRgstns": [],
  "EmpHss": [
    {
      "fromDt": "02/1999",
      "toDt": "01/2011",
      "orgNm": "SECURITIES MANAGEMENT & RESEARCH, INC.",
      "city": "LEAGUE CITY",
      "state": 45,
      "stateSpecified": true
    },
    {
      "fromDt": "02/2011",
      "toDt": "02/2014",
      "orgNm": "MERRILL LYNCH",
      "city": "HOUSTON",
      "state": 45,
      "stateSpecified": true
    },
    {
      "fromDt": "02/2014",
      "toDt": null,
      "orgNm": "CAZ INVESTMENTS L.P.",
      "city": "HOUSTON",
      "state": 45,
      "stateSpecified": true
    }
  ],
  "OthrBuss": {
    "OthrBus": null
  },
  "DRPs": []
}