{
  "Info": {
    "lastNm": "LUGAUER",
    "firstNm": "JOHN",
    "midNm": "MARK",
    "sufNm": null,
    "indvlPK": "3207856",
    "actvAGReg": 0,
    "link": "http://www.adviserinfo.sec.gov/IAPD/Individual/3207856"
  },
  "OthrNms": [],
  "CrntEmps": [
    {
      "CrntRgstns": [
        {
          "regAuth": 36,
          "regCat": 0,
          "st": 2,
          "stDt": "2006-06-14T00:00:00"
        },
        {
          "regAuth": 9,
          "regCat": 0,
          "st": 2,
          "stDt": "2007-01-08T00:00:00"
        },
        {
          "regAuth": 4,
          "regCat": 0,
          "st": 2,
          "stDt": "2008-02-04T00:00:00"
        },
        {
          "regAuth": 23,
          "regCat": 0,
          "st": 2,
          "stDt": "2010-09-21T00:00:00"
        },
        {
          "regAuth": 16,
          "regCat": 0,
          "st": 2,
          "stDt": "2013-06-20T00:00:00"
        },
        {
          "regAuth": 3,
          "regCat": 0,
          "st": 2,
          "stDt": "2013-07-02T00:00:00"
        },
        {
          "regAuth": 27,
          "regCat": 0,
          "st": 2,
          "stDt": "2013-08-13T00:00:00"
        },
        {
          "regAuth": 8,
          "regCat": 0,
          "st": 2,
          "stDt": "2015-01-09T00:00:00"
        },
        {
          "regAuth": 51,
          "regCat": 0,
          "st": 2,
          "stDt": "2015-02-05T00:00:00"
        },
        {
          "regAuth": 17,
          "regCat": 0,
          "st": 2,
          "stDt": "2015-05-11T00:00:00"
        },
        {
          "regAuth": 15,
          "regCat": 0,
          "st": 2,
          "stDt": "2015-08-31T00:00:00"
        }
      ],
      "BrnchOfLocs": [
        {
          "str1": "142 WASHINGTON ST",
          "str2": null,
          "city": "MANISTEE",
          "state": 23,
          "stateSpecified": true,
          "cntry": "United States",
          "postlCd": "49660"
        },
        {
          "str1": "223 N GRAND",
          "str2": null,
          "city": "SCHOOLCRAFT",
          "state": 23,
          "stateSpecified": true,
          "cntry": "United States",
          "postlCd": "49087"
        },
        {
          "str1": "223 N. Grand",
          "str2": "#219",
          "city": "Schoolcraft",
          "state": 23,
          "stateSpecified": true,
          "cntry": "United States",
          "postlCd": "49087"
        }
      ],
      "orgNm": "INVESTMENT CENTERS OF AMERICA, INC.",
      "orgPK": "16443",
      "str1": "5555 W GRANDE MARKET DRIVE",
      "str2": null,
      "city": "APPLETON",
      "state": 50,
      "stateSpecified": true,
      "cntry": "United States",
      "postlCd": "54913-8403"
    }
  ],
  "Exms": [
    {
      "exmCd": 0,
      "exmNm": "Uniform Securities Agent State Law Examination",
      "exmDt": "1999-05-05T00:00:00",
      "exmDtSpecified": true
    },
    {
      "exmCd": 2,
      "exmNm": "Uniform Investment Adviser Law Examination",
      "exmDt": "1999-10-08T00:00:00",
      "exmDtSpecified": true
    },
    {
      "exmCd": 3,
      "exmNm": "Uniform Combined State Law Examination",
      "exmDt": "2004-09-27T00:00:00",
      "exmDtSpecified": true
    }
  ],
  "Dsgntns": [
    {
      "dsgntnNm": "Certified Financial Planner"
    }
  ],
  "PrevRgstns": [],
  "EmpHss": [
    {
      "fromDt": "03/1999",
      "toDt": null,
      "orgNm": "INVESTMENT CENTERS OF AMERICA, INC.",
      "city": "SCHOOLCRAFT",
      "state": 23,
      "stateSpecified": true
    }
  ],
  "OthrBuss": {
    "OthrBus": {
      "desc": "1) SW MI CHAPTER OF SOCIETY OF FINANCIAL SERVICES PROFESSIONALS - DIRECTOR, PROMOTING PROFESSIONAL MEMBERSHIP AND PROVIDING CONTINUING EDUCATION TO FINANCIAL SERVICE PROFESSIONALS.  2)  LARRY BUMGART-INDEPENDENT INSURANCE AGENT--LICENSED AGENT INVOLVED IN SELLING AND SPLITTING COMMISSIONS ON DISABILITY INSURANCE."
    }
  },
  "DRPs": []
}