{
  "Info": {
    "lastNm": "GARNTO",
    "firstNm": "ELIZABETH",
    "midNm": null,
    "sufNm": null,
    "indvlPK": "3208367",
    "actvAGReg": 1,
    "link": "http://www.adviserinfo.sec.gov/IAPD/Individual/3208367"
  },
  "OthrNms": [
    {
      "lastNm": "MARIN",
      "firstNm": "ELIZABETH",
      "midNm": null,
      "sufNm": null
    },
    {
      "lastNm": "MCKENNA",
      "firstNm": "ELIZABETH",
      "midNm": null,
      "sufNm": null
    }
  ],
  "CrntEmps": [
    {
      "CrntRgstns": [
        {
          "regAuth": 39,
          "regCat": 0,
          "st": 2,
          "stDt": "2014-05-16T00:00:00"
        }
      ],
      "BrnchOfLocs": [
        {
          "str1": "4905 WEST TILGHMAN STREET",
          "str2": "SUITE 210",
          "city": "ALLENTOWN",
          "state": 39,
          "stateSpecified": true,
          "cntry": "United States",
          "postlCd": "18104"
        },
        {
          "str1": "612 WHEELERS FARMS ROAD",
          "str2": null,
          "city": "MILFORD",
          "state": 6,
          "stateSpecified": true,
          "cntry": "United States",
          "postlCd": "06461"
        }
      ],
      "orgNm": "BEIRNE WEALTH CONSULTING SERVICES, LLC",
      "orgPK": "167103",
      "str1": "612 WHEELERS FARMS ROAD",
      "str2": null,
      "city": "MILFORD",
      "state": 6,
      "stateSpecified": true,
      "cntry": "United States",
      "postlCd": "06461"
    }
  ],
  "Exms": [
    {
      "exmCd": 3,
      "exmNm": "Uniform Combined State Law Examination",
      "exmDt": "2001-08-10T00:00:00",
      "exmDtSpecified": true
    },
    {
      "exmCd": 0,
      "exmNm": "Uniform Securities Agent State Law Examination",
      "exmDt": "2012-11-21T00:00:00",
      "exmDtSpecified": true
    },
    {
      "exmCd": 2,
      "exmNm": "Uniform Investment Adviser Law Examination",
      "exmDt": "2014-05-16T00:00:00",
      "exmDtSpecified": true
    }
  ],
  "Dsgntns": [],
  "PrevRgstns": [
    {
      "BrnchOfLocs": [
        {
          "city": "BETHLEHEM",
          "state": 39,
          "stateSpecified": true
        },
        {
          "city": "BETHLEHEM",
          "state": 39,
          "stateSpecified": true
        }
      ],
      "orgNm": "RYAN BECK & CO.",
      "orgPK": "3248",
      "regBeginDt": "2005-03-08T00:00:00",
      "regBeginDtSpecified": true,
      "regEndDt": "2007-07-10T00:00:00",
      "regEndDtSpecified": true
    },
    {
      "BrnchOfLocs": [
        {
          "city": "BETHLEHEM",
          "state": 39,
          "stateSpecified": true
        }
      ],
      "orgNm": "STIFEL, NICOLAUS & COMPANY, INCORPORATED",
      "orgPK": "793",
      "regBeginDt": "2007-07-10T00:00:00",
      "regBeginDtSpecified": true,
      "regEndDt": "2009-04-14T00:00:00",
      "regEndDtSpecified": true
    }
  ],
  "EmpHss": [
    {
      "fromDt": "03/2004",
      "toDt": "04/2009",
      "orgNm": "STIFEL, NICOLAUS & COMPANY, INCORPORATED",
      "city": "BETHLEHEM",
      "state": 39,
      "stateSpecified": true
    },
    {
      "fromDt": "04/2009",
      "toDt": "12/2009",
      "orgNm": "UNEMPLOYED",
      "city": "MACUNGIE",
      "state": 39,
      "stateSpecified": true
    },
    {
      "fromDt": "12/2009",
      "toDt": "05/2011",
      "orgNm": "LEHIGH CARBON COMMUNITY COLLEGE",
      "city": "ALLENTOWN",
      "state": 39,
      "stateSpecified": true
    },
    {
      "fromDt": "05/2011",
      "toDt": "01/2014",
      "orgNm": "MORGAN STANLEY SMITH BARNEY",
      "city": "ALLENTOWN",
      "state": 39,
      "stateSpecified": true
    },
    {
      "fromDt": "01/2014",
      "toDt": null,
      "orgNm": "BEIRNE WEALTH CONSULTING SERVICES, LLC",
      "city": "MILFORD",
      "state": 6,
      "stateSpecified": true
    }
  ],
  "OthrBuss": {
    "OthrBus": null
  },
  "DRPs": []
}