{
  "Info": {
    "lastNm": "SUTTON",
    "firstNm": "CASEY",
    "midNm": "AARON",
    "sufNm": null,
    "indvlPK": "3209207",
    "actvAGReg": 0,
    "link": "http://www.adviserinfo.sec.gov/IAPD/Individual/3209207"
  },
  "OthrNms": [
    {
      "lastNm": "Sutton",
      "firstNm": "Casey",
      "midNm": "Aaron",
      "sufNm": null
    }
  ],
  "CrntEmps": [
    {
      "CrntRgstns": [
        {
          "regAuth": 28,
          "regCat": 0,
          "st": 2,
          "stDt": "2015-05-06T00:00:00"
        }
      ],
      "BrnchOfLocs": [
        {
          "str1": "11215 NORTH COMMUNITY HOUSE ROAD",
          "str2": "WOODWARD BUILDING 1ST FLOOR",
          "city": "CHARLOTTE",
          "state": 28,
          "stateSpecified": true,
          "cntry": "United States",
          "postlCd": "28277"
        }
      ],
      "orgNm": "MSI FINANCIAL SERVICES, INC.",
      "orgPK": "14251",
      "str1": "1095 AVENUE OF THE AMERICAS",
      "str2": null,
      "city": "NEW YORK",
      "state": 35,
      "stateSpecified": true,
      "cntry": "United States",
      "postlCd": "10036"
    }
  ],
  "Exms": [
    {
      "exmCd": 0,
      "exmNm": "Uniform Securities Agent State Law Examination",
      "exmDt": "1999-04-26T00:00:00",
      "exmDtSpecified": true
    }
  ],
  "Dsgntns": [
    {
      "dsgntnNm": "Chartered Financial Consultant"
    }
  ],
  "PrevRgstns": [
    {
      "BrnchOfLocs": [
        {
          "city": "CHARLOTTE",
          "state": 28,
          "stateSpecified": true
        }
      ],
      "orgNm": "MUTUAL SERVICE CORPORATION",
      "orgPK": "4806",
      "regBeginDt": "2004-02-06T00:00:00",
      "regBeginDtSpecified": true,
      "regEndDt": "2004-12-31T00:00:00",
      "regEndDtSpecified": true
    }
  ],
  "EmpHss": [
    {
      "fromDt": "02/2003",
      "toDt": "05/2007",
      "orgNm": "PACIFIC LIFE INSURANCE COMPANY",
      "city": "CHARLOTTE",
      "state": 28,
      "stateSpecified": true
    },
    {
      "fromDt": "04/2007",
      "toDt": "01/2008",
      "orgNm": "AXA DISTRIBUTORS, LLC",
      "city": "NEW YORK",
      "state": 35,
      "stateSpecified": true
    },
    {
      "fromDt": "01/2008",
      "toDt": "01/2010",
      "orgNm": "AMERICAN GENERAL LIFE INSURANCE COMPANY",
      "city": "WAXHAM",
      "state": 28,
      "stateSpecified": true
    },
    {
      "fromDt": "04/2008",
      "toDt": "01/2010",
      "orgNm": "AMERICAN GENERAL EQUITY SERVICES CORPORATION",
      "city": "HOUSTON",
      "state": 45,
      "stateSpecified": true
    },
    {
      "fromDt": "01/2010",
      "toDt": "01/2012",
      "orgNm": "AIM SYSTEMS INC",
      "city": "ALPHARETTA",
      "state": 10,
      "stateSpecified": true
    },
    {
      "fromDt": "01/2010",
      "toDt": "12/2011",
      "orgNm": "THE LEADERS GROUP INC",
      "city": "LITTLETON",
      "state": 5,
      "stateSpecified": true
    },
    {
      "fromDt": "01/2012",
      "toDt": "07/2012",
      "orgNm": "BRIAN K ADAMS & ASSOCIATES",
      "city": "ELMIRA",
      "state": 35,
      "stateSpecified": true
    },
    {
      "fromDt": "02/2012",
      "toDt": "03/2013",
      "orgNm": "ING FINANCIAL PARTNERS, INC.",
      "city": "WAXHAW",
      "state": 28,
      "stateSpecified": true
    },
    {
      "fromDt": "03/2012",
      "toDt": "01/2014",
      "orgNm": "THE LEADERS GROUP INC",
      "city": "LITTLETON",
      "state": 5,
      "stateSpecified": true
    },
    {
      "fromDt": "07/2012",
      "toDt": "03/2013",
      "orgNm": "DIVERSIFIED BROKERAGE SVCS",
      "city": "WATHAM",
      "state": 28,
      "stateSpecified": true
    },
    {
      "fromDt": "03/2013",
      "toDt": "01/2014",
      "orgNm": "BRIAN K ADAMS & ASSOCIATES",
      "city": "ELMIRA",
      "state": 35,
      "stateSpecified": true
    },
    {
      "fromDt": "01/2014",
      "toDt": "01/2015",
      "orgNm": "PRUCO SECURITIES, LLC",
      "city": "CHARLOTTE",
      "state": 28,
      "stateSpecified": true
    },
    {
      "fromDt": "01/2014",
      "toDt": "01/2015",
      "orgNm": "PRUDENTIAL INSURANCE CO OF AMERICA",
      "city": "CHARLOTTE",
      "state": 28,
      "stateSpecified": true
    },
    {
      "fromDt": "03/2015",
      "toDt": null,
      "orgNm": "METLIFE SECURITIES",
      "city": "CHARLOTTE",
      "state": 28,
      "stateSpecified": true
    }
  ],
  "OthrBuss": {
    "OthrBus": {
      "desc": "Independent Insurance Agent - from business address - Property & Casualty- 1 security hours and 0 non security hours - since 03/2016    1% PART OWNER OF TAMARAISK TECHNOLOGIES LLC - 0HRS/WK & WKND SINCE 2/2011"
    }
  },
  "DRPs": [
    {
      "hasRegAction": 1,
      "hasRegActionSpecified": true,
      "hasCriminal": 1,
      "hasCriminalSpecified": true,
      "hasBankrupt": 1,
      "hasBankruptSpecified": true,
      "hasCivilJudc": 1,
      "hasCivilJudcSpecified": true,
      "hasBond": 1,
      "hasBondSpecified": true,
      "hasJudgment": 1,
      "hasJudgmentSpecified": true,
      "hasInvstgn": 1,
      "hasInvstgnSpecified": true,
      "hasCustComp": 1,
      "hasCustCompSpecified": true,
      "hasTermination": 0,
      "hasTerminationSpecified": true
    }
  ]
}