{
  "Info": {
    "lastNm": "WISSNER",
    "firstNm": "MITCHELL",
    "midNm": null,
    "sufNm": null,
    "indvlPK": "3212018",
    "actvAGReg": 0,
    "link": "http://www.adviserinfo.sec.gov/IAPD/Individual/3212018"
  },
  "OthrNms": [],
  "CrntEmps": [
    {
      "CrntRgstns": [
        {
          "regAuth": 3,
          "regCat": 0,
          "st": 2,
          "stDt": "2016-06-14T00:00:00"
        }
      ],
      "BrnchOfLocs": [
        {
          "str1": "1831 EAST HWY 69",
          "str2": null,
          "city": "PRESCOTT",
          "state": 3,
          "stateSpecified": true,
          "cntry": "United States",
          "postlCd": "86301"
        },
        {
          "str1": "8601 N SCOTTSDALE RD STE 150",
          "str2": "[TM-RBO]",
          "city": "SCOTTSDALE",
          "state": 3,
          "stateSpecified": true,
          "cntry": "United States",
          "postlCd": "85253"
        }
      ],
      "orgNm": "WELLS FARGO ADVISORS, LLC",
      "orgPK": "19616",
      "str1": "ONE NORTH JEFFERSON AVENUE",
      "str2": "MAIL CODE: H0004-050",
      "city": "ST. LOUIS",
      "state": 25,
      "stateSpecified": true,
      "cntry": "United States",
      "postlCd": "63103-2205"
    }
  ],
  "Exms": [
    {
      "exmCd": 0,
      "exmNm": "Uniform Securities Agent State Law Examination",
      "exmDt": "1999-07-15T00:00:00",
      "exmDtSpecified": true
    },
    {
      "exmCd": 3,
      "exmNm": "Uniform Combined State Law Examination",
      "exmDt": "2007-11-10T00:00:00",
      "exmDtSpecified": true
    }
  ],
  "Dsgntns": [],
  "PrevRgstns": [
    {
      "BrnchOfLocs": [
        {
          "city": "WEAVERVILLE",
          "state": 4,
          "stateSpecified": true
        }
      ],
      "orgNm": "EDWARD JONES",
      "orgPK": "250",
      "regBeginDt": "2007-11-13T00:00:00",
      "regBeginDtSpecified": true,
      "regEndDt": "2016-05-31T00:00:00",
      "regEndDtSpecified": true
    }
  ],
  "EmpHss": [
    {
      "fromDt": "04/1999",
      "toDt": "05/2016",
      "orgNm": "EDWARD D. JONES & CO., L.P.",
      "city": "ST. LOUIS",
      "state": 25,
      "stateSpecified": true
    },
    {
      "fromDt": "05/2016",
      "toDt": null,
      "orgNm": "WELLS FARGO ADVISORS, LLC",
      "city": "PRESCOTT",
      "state": 3,
      "stateSpecified": true
    }
  ],
  "OthrBuss": {
    "OthrBus": null
  },
  "DRPs": []
}