{
  "Info": {
    "lastNm": "FLOHR",
    "firstNm": "RICHARD",
    "midNm": "EVAN",
    "sufNm": null,
    "indvlPK": "3215202",
    "actvAGReg": 1,
    "link": "http://www.adviserinfo.sec.gov/IAPD/Individual/3215202"
  },
  "OthrNms": [],
  "CrntEmps": [
    {
      "CrntRgstns": [
        {
          "regAuth": 44,
          "regCat": 0,
          "st": 2,
          "stDt": "2004-02-02T00:00:00"
        }
      ],
      "BrnchOfLocs": [
        {
          "str1": "555 GREAT CIRCLE ROAD",
          "str2": "SUITE 200",
          "city": "NASHVILLE",
          "state": 44,
          "stateSpecified": true,
          "cntry": "United States",
          "postlCd": "37228"
        }
      ],
      "orgNm": "KRAFT ASSET MANAGEMENT, LLC",
      "orgPK": "119139",
      "str1": "555 GREAT CIRCLE ROAD",
      "str2": null,
      "city": "NASHVILLE",
      "state": 44,
      "stateSpecified": true,
      "cntry": "United States",
      "postlCd": "37228"
    }
  ],
  "Exms": [
    {
      "exmCd": 0,
      "exmNm": "Uniform Securities Agent State Law Examination",
      "exmDt": "1999-05-21T00:00:00",
      "exmDtSpecified": true
    }
  ],
  "Dsgntns": [
    {
      "dsgntnNm": "Certified Financial Planner"
    }
  ],
  "PrevRgstns": [],
  "EmpHss": [
    {
      "fromDt": "12/2001",
      "toDt": null,
      "orgNm": "KRAFT ASSET MANAGEMENT, LLC",
      "city": "NASHVILLE",
      "state": 44,
      "stateSpecified": true
    }
  ],
  "OthrBuss": {
    "OthrBus": {
      "desc": "KRAFT FINANCIAL SERVICES, LLC (PREVIOUSLY KNOWN AS KRAFT INSURANCE SERVICES, LLC). KRAFT FINANCIAL SERVICES (KFS) IS NOT INVESTMENT RELATED. THE MAILING ADDRESS IS 555 GREAT CIRCLE ROAD, SUITE 200, NASHVILLE, TENNESSEE 37228. THE PRIMARY NATURE OF THIS BUSINESS IS TO PROVIDE INSURANCE SERVICES (I.E. DISABILITY INCOME, LONG TERM CARE, AND LIFE INSURANCE WITH A GUARANTEED DEATH BENEFIT) TO OUR ASSOCIATED ACCOUNTING FIRM CLIENTS. KFS DOES NOT EMPLOY PERSONS WITH SECURITIES LICENSES. AS A RESULT WE ONLY DEAL WITH LIFE INSURANCE PRODUCTS THAT ARE NON-VARIABLE (I.E. PRODUCTS WITH ONLY GUARANTEED DEATH BENEFITS). I AM EMPLOYED BY KFS AS A CONSULTANT/AGENT AND HAVE ALL APPROPRIATE INSURANCE LICENSES. I HAVE BEEN EMPLOYED BY KFS SINCE ITS INCEPTION ON DECEMBER 2, 2002. CURRENTLY, I SPEND LESS THAN 4 HOURS PER MONTH ON KFS ACTIVITIES. MY DUTIES HAVE PRIMARILY CONSISTED OF CONSULTING WITH INSURANCE PROVIDERS AND HELPING CLIENTS WITH THEIR INSURANCE NEEDS."
    }
  },
  "DRPs": []
}