{
  "Info": {
    "lastNm": "MENDIETA",
    "firstNm": "SUZEL",
    "midNm": "ANNETTE",
    "sufNm": null,
    "indvlPK": "3217555",
    "actvAGReg": 0,
    "link": "http://www.adviserinfo.sec.gov/IAPD/Individual/3217555"
  },
  "OthrNms": [],
  "CrntEmps": [
    {
      "CrntRgstns": [
        {
          "regAuth": 45,
          "regCat": 0,
          "st": 2,
          "stDt": "2008-01-01T00:00:00"
        }
      ],
      "BrnchOfLocs": [
        {
          "str1": "800 N SHORELINE BLVD",
          "str2": "STE 1500, NORTH TOWER",
          "city": "CORPUS CHRISTI",
          "state": 45,
          "stateSpecified": true,
          "cntry": "United States",
          "postlCd": "78401"
        }
      ],
      "orgNm": "WELLS FARGO ADVISORS, LLC",
      "orgPK": "19616",
      "str1": "ONE NORTH JEFFERSON AVENUE",
      "str2": "MAIL CODE: H0004-050",
      "city": "ST. LOUIS",
      "state": 25,
      "stateSpecified": true,
      "cntry": "United States",
      "postlCd": "63103-2205"
    }
  ],
  "Exms": [
    {
      "exmCd": 0,
      "exmNm": "Uniform Securities Agent State Law Examination",
      "exmDt": "1999-05-14T00:00:00",
      "exmDtSpecified": true
    },
    {
      "exmCd": 2,
      "exmNm": "Uniform Investment Adviser Law Examination",
      "exmDt": "1999-12-13T00:00:00",
      "exmDtSpecified": true
    }
  ],
  "Dsgntns": [],
  "PrevRgstns": [
    {
      "BrnchOfLocs": [
        {
          "city": "CORPUS CHRISTI",
          "state": 45,
          "stateSpecified": true
        }
      ],
      "orgNm": "WELLS FARGO ADVISORS, LLC",
      "orgPK": "19616",
      "regBeginDt": "1999-05-17T00:00:00",
      "regBeginDtSpecified": true,
      "regEndDt": "2005-09-15T00:00:00",
      "regEndDtSpecified": true
    },
    {
      "BrnchOfLocs": [
        {
          "city": "CORPUS CHRISTI",
          "state": 45,
          "stateSpecified": true
        },
        {
          "city": "CORPUS CHRISTI",
          "state": 45,
          "stateSpecified": true
        },
        {
          "city": "ST. LOUIS",
          "state": 25,
          "stateSpecified": true
        }
      ],
      "orgNm": "A. G. EDWARDS & SONS, INC.",
      "orgPK": "4",
      "regBeginDt": "2005-09-30T00:00:00",
      "regBeginDtSpecified": true,
      "regEndDt": "2008-01-01T00:00:00",
      "regEndDtSpecified": true
    }
  ],
  "EmpHss": [
    {
      "fromDt": "09/2005",
      "toDt": "01/2008",
      "orgNm": "A.G. EDWARDS",
      "city": "CORPUS CHRISTI",
      "state": 45,
      "stateSpecified": true
    },
    {
      "fromDt": "01/2008",
      "toDt": "05/2009",
      "orgNm": "WACHOVIA SECURITIES, LLC",
      "city": "CORPUS CHRISTI",
      "state": 45,
      "stateSpecified": true
    },
    {
      "fromDt": "05/2009",
      "toDt": null,
      "orgNm": "WELLS FARGO ADVISORS LLC",
      "city": "CORPUS CHRISTI",
      "state": 45,
      "stateSpecified": true
    }
  ],
  "OthrBuss": {
    "OthrBus": {
      "desc": "CORPUS CHRISTI PUBLIC LIBRARY FOUNDATION, 805 COMANCHE ST, CORPUS CHRISTI, TX 78401.  HOLDS TITLE: VICE PRESIDENT - BOARD OF DIRECTORS.  DUTIES: SERVE ON BOARD OF DIRECTORS.  WORKS 1 HOUR PER QUARTER DURING MARKET HOURS."
    }
  },
  "DRPs": []
}