{
  "Info": {
    "lastNm": "MARX",
    "firstNm": "THOMAS",
    "midNm": "HUTCHISON",
    "sufNm": null,
    "indvlPK": "322004",
    "actvAGReg": 0,
    "link": "http://www.adviserinfo.sec.gov/IAPD/Individual/322004"
  },
  "OthrNms": [],
  "CrntEmps": [
    {
      "CrntRgstns": [
        {
          "regAuth": 4,
          "regCat": 0,
          "st": 2,
          "stDt": "1997-07-08T00:00:00"
        }
      ],
      "BrnchOfLocs": [
        {
          "str1": "2998 DOUGLAS BLVD",
          "str2": null,
          "city": "ROSEVILLE",
          "state": 4,
          "stateSpecified": true,
          "cntry": "United States",
          "postlCd": "95661"
        }
      ],
      "orgNm": "MERRILL LYNCH, PIERCE, FENNER & SMITH INCORPORATED",
      "orgPK": "7691",
      "str1": "ONE BRYANT PARK",
      "str2": null,
      "city": "NEW YORK",
      "state": 35,
      "stateSpecified": true,
      "cntry": "United States",
      "postlCd": "10036"
    }
  ],
  "Exms": [
    {
      "exmCd": 0,
      "exmNm": "Uniform Securities Agent State Law Examination",
      "exmDt": "1987-01-21T00:00:00",
      "exmDtSpecified": true
    },
    {
      "exmCd": 2,
      "exmNm": "Uniform Investment Adviser Law Examination",
      "exmDt": "1994-08-25T00:00:00",
      "exmDtSpecified": true
    }
  ],
  "Dsgntns": [],
  "PrevRgstns": [],
  "EmpHss": [
    {
      "fromDt": "08/1973",
      "toDt": null,
      "orgNm": "MERRILL LYNCH, PIERCE, FENNER & SMITH INCORPORATED",
      "city": "SACRAMENTO",
      "state": 4,
      "stateSpecified": true
    },
    {
      "fromDt": "08/2009",
      "toDt": null,
      "orgNm": "BANK OF AMERICA, NA",
      "city": "ROSEVILLE",
      "state": 4,
      "stateSpecified": true
    }
  ],
  "OthrBuss": {
    "OthrBus": {
      "desc": "(1) I*83476 FOR PROFIT OR NOT FOR PROFIT: FOR-PROFIT ORGANIZATION  NAME OF OUTSIDE BUSINESS ORGANIZATION: LANDMARX REAL ESTATE, LLC  INVESTMENT RELATED: N  ADDRESS OF BUSINESS:  LOOMIS, CALIFORNIA 95650  NATURE OF BUSINESS: FAMILY BUSINESS,  POSITION, TITLE, ASSOCIATION: FAMILY HELD,   START DATE OF RELATIONSHIP: 7/1/1996  NUMBER OF HOURS DEVOTED: 0 HOUR(S) ANNUALLY  NUMBER OF HOURS DEVOTED DURING TRADING HOURS: 0  DUTIES: REAL ESTATE, LLC WIFE'S BUSINESS    (2) I*83477  FOR PROFIT OR NOT FOR PROFIT: FOR-PROFIT ORGANIZATION  NAME OF OUTSIDE BUSINESS ORGANIZATION: VILLA LA ESTANCIA  INVESTMENT RELATED: N  ADDRESS OF BUSINESS:  EL MEDANO, BAJA CALIFORNIA NORTE 23450  NATURE OF BUSINESS: FAMILY BUSINESS,  POSITION, TITLE, ASSOCIATION: FAMILY HELD,   START DATE OF RELATIONSHIP: 7/29/2015  NUMBER OF HOURS DEVOTED: 1 HOUR(S) ANNUALLY  NUMBER OF HOURS DEVOTED DURING TRADING HOURS: 0  DUTIES: 2ND HOME"
    }
  },
  "DRPs": []
}