{
  "Info": {
    "lastNm": "KILCOYNE",
    "firstNm": "JOHN",
    "midNm": "MICHAEL",
    "sufNm": null,
    "indvlPK": "3221909",
    "actvAGReg": 0,
    "link": "http://www.adviserinfo.sec.gov/IAPD/Individual/3221909"
  },
  "OthrNms": [],
  "CrntEmps": [
    {
      "CrntRgstns": [
        {
          "regAuth": 36,
          "regCat": 0,
          "st": 2,
          "stDt": "2013-09-04T00:00:00"
        }
      ],
      "BrnchOfLocs": [
        {
          "str1": "9360 MONTGOMERY ROAD",
          "str2": null,
          "city": "CINCINNATI",
          "state": 36,
          "stateSpecified": true,
          "cntry": "United States",
          "postlCd": "45242"
        }
      ],
      "orgNm": "HBK WEALTH MANAGEMENT",
      "orgPK": "168419",
      "str1": "9360 MONTGOMERY ROAD",
      "str2": null,
      "city": "CINCINNATI",
      "state": 36,
      "stateSpecified": true,
      "cntry": "United States",
      "postlCd": "45242"
    }
  ],
  "Exms": [
    {
      "exmCd": 0,
      "exmNm": "Uniform Securities Agent State Law Examination",
      "exmDt": "1999-05-19T00:00:00",
      "exmDtSpecified": true
    }
  ],
  "Dsgntns": [
    {
      "dsgntnNm": "Certified Financial Planner"
    }
  ],
  "PrevRgstns": [],
  "EmpHss": [
    {
      "fromDt": "03/2001",
      "toDt": "08/2013",
      "orgNm": "LPL FINANCIAL",
      "city": "WEST CHESTER",
      "state": 36,
      "stateSpecified": true
    },
    {
      "fromDt": "03/2001",
      "toDt": null,
      "orgNm": "LPL FINANCIAL LLC",
      "city": "WEST CHESTER",
      "state": 36,
      "stateSpecified": true
    },
    {
      "fromDt": "08/2013",
      "toDt": null,
      "orgNm": "HBK WEALTH MANAGEMENT",
      "city": "CINCINNATI",
      "state": 36,
      "stateSpecified": true
    }
  ],
  "OthrBuss": {
    "OthrBus": {
      "desc": "(1) 03/19/2002 - DBA ONLY - HAIRE BOHMER WEALTH MANAGEMENT GROUP - WEST CHESTER, OH    (2) 12/11/2009 - TAX PREPARATION, TAX PREP / ACCOUNTING / BOOKKEEPING - 1% OF TIME SPENT     (3) 01/11/2012 - JOHN M. KILCOYNE - TAX PREPARATION - TAX PREP / ACCOUNTING / BOOKKEEPING - 1% OF TIME SPENT     (4) 09/12/2013 - HBK WEALTH MANAGEMENT - REGISTERED INVESTMENT ADVISOR - (HYBRID) HBK WEALTH MANAGEMENT - I DO NOT PROVIDE FINANCIAL PLANS FOR HOURLY AND/OR FIXED FEES. - 50% OF TIME SPENT - WEST CHESTER, OH  (5)10/21/2014 - HAT CREEK CAPITAL PARTNERS -REAL ESTATE RENTAL - TIME SPENT 4 HOURS PER MONTH -  WEST CHESTER, OH  (6) 11/04/2014 - HBK WEALTH MANAGEMENT - DBA FOR LPL BUSINESS (ENTITY FOR LPL BUSINESS) - WEST CHESTER, OH"
    }
  },
  "DRPs": []
}