{
  "Info": {
    "lastNm": "FRITCH",
    "firstNm": "PAUL",
    "midNm": "EDWARD",
    "sufNm": null,
    "indvlPK": "3226397",
    "actvAGReg": 0,
    "link": "http://www.adviserinfo.sec.gov/IAPD/Individual/3226397"
  },
  "OthrNms": [
    {
      "lastNm": "FRITCH",
      "firstNm": "PAUL",
      "midNm": "E",
      "sufNm": null
    }
  ],
  "CrntEmps": [
    {
      "CrntRgstns": [
        {
          "regAuth": 4,
          "regCat": 0,
          "st": 2,
          "stDt": "2008-06-20T00:00:00"
        },
        {
          "regAuth": 46,
          "regCat": 0,
          "st": 2,
          "stDt": "2008-06-20T00:00:00"
        }
      ],
      "BrnchOfLocs": [
        {
          "str1": null,
          "str2": null,
          "city": "GRANADA HILLS",
          "state": 4,
          "stateSpecified": true,
          "cntry": "United States",
          "postlCd": null
        },
        {
          "str1": "3456 CAMINO DEL RIO NORTH",
          "str2": "SUITE 212",
          "city": "SAN DIEGO",
          "state": 4,
          "stateSpecified": true,
          "cntry": "USA",
          "postlCd": "92108"
        },
        {
          "str1": "3456 CAMINO DEL RIO NORTH",
          "str2": "SUITE 212",
          "city": "SAN DIEGO",
          "state": 4,
          "stateSpecified": true,
          "cntry": "United States",
          "postlCd": "92108"
        },
        {
          "str1": "3456 CAMINO DEL RIO NORTH",
          "str2": "SUITE 212",
          "city": "SAN DIEGO",
          "state": 4,
          "stateSpecified": true,
          "cntry": "United States",
          "postlCd": "92108"
        }
      ],
      "orgNm": "WBB SECURITIES, LLC",
      "orgPK": "118440",
      "str1": "3456 CAMINO DEL RIO NORTH",
      "str2": "SUITE 212",
      "city": "SAN DIEGO",
      "state": 4,
      "stateSpecified": true,
      "cntry": "United States",
      "postlCd": "92108"
    }
  ],
  "Exms": [
    {
      "exmCd": 0,
      "exmNm": "Uniform Securities Agent State Law Examination",
      "exmDt": "1999-08-11T00:00:00",
      "exmDtSpecified": true
    },
    {
      "exmCd": 2,
      "exmNm": "Uniform Investment Adviser Law Examination",
      "exmDt": "2007-04-23T00:00:00",
      "exmDtSpecified": true
    }
  ],
  "Dsgntns": [],
  "PrevRgstns": [
    {
      "BrnchOfLocs": [
        {
          "city": "GRANADA HILLS",
          "state": 4,
          "stateSpecified": true
        }
      ],
      "orgNm": "H.D. VEST ADVISORY SERVICES, INC",
      "orgPK": "104556",
      "regBeginDt": "2000-04-10T00:00:00",
      "regBeginDtSpecified": true,
      "regEndDt": "2004-07-14T00:00:00",
      "regEndDtSpecified": true
    },
    {
      "BrnchOfLocs": [
        {
          "city": "GRANADA HILLS",
          "state": 4,
          "stateSpecified": true
        },
        {
          "city": "SAN JUAN CAPISTRANO",
          "state": 4,
          "stateSpecified": true
        }
      ],
      "orgNm": "BROOKSTREET SECURITIES CORPORATION",
      "orgPK": "14667",
      "regBeginDt": "2007-05-03T00:00:00",
      "regBeginDtSpecified": true,
      "regEndDt": "2007-07-12T00:00:00",
      "regEndDtSpecified": true
    },
    {
      "BrnchOfLocs": [
        {
          "city": "GRANADA HILLS",
          "state": 4,
          "stateSpecified": true
        }
      ],
      "orgNm": "NATIONAL ASSET MANAGEMENT, INC.",
      "orgPK": "115927",
      "regBeginDt": "2007-07-26T00:00:00",
      "regBeginDtSpecified": true,
      "regEndDt": "2008-04-30T00:00:00",
      "regEndDtSpecified": true
    }
  ],
  "EmpHss": [
    {
      "fromDt": "08/1974",
      "toDt": "07/2007",
      "orgNm": "PAUL E. FRITCH CPA (SELF)",
      "city": "GRANADA HILLS",
      "state": 4,
      "stateSpecified": true
    },
    {
      "fromDt": "09/2004",
      "toDt": "09/2006",
      "orgNm": "SECURITIES AMERICA, INC",
      "city": "LA CRESCRENTA",
      "state": 4,
      "stateSpecified": true
    },
    {
      "fromDt": "09/2006",
      "toDt": "06/2007",
      "orgNm": "BOOKSTREET SECURITIES CORPORATION",
      "city": "GRANADA HILLS",
      "state": 4,
      "stateSpecified": true
    },
    {
      "fromDt": "07/2007",
      "toDt": "04/2008",
      "orgNm": "NATIONAL ASSET MANAGEMENT, INC",
      "city": "SEATTLE",
      "state": 49,
      "stateSpecified": true
    },
    {
      "fromDt": "07/2007",
      "toDt": "04/2008",
      "orgNm": "NATIONAL SECURITIES CORPORATION",
      "city": "TORRANCE",
      "state": 4,
      "stateSpecified": true
    },
    {
      "fromDt": "04/2008",
      "toDt": "06/2008",
      "orgNm": "UNEMPLOYED",
      "city": "GRANDA HILLS",
      "state": 4,
      "stateSpecified": true
    },
    {
      "fromDt": "06/2008",
      "toDt": null,
      "orgNm": "WBB SECURITIES, LLC",
      "city": "SAN DIEGO",
      "state": 4,
      "stateSpecified": true
    }
  ],
  "OthrBuss": {
    "OthrBus": {
      "desc": "I WILL CONTINUE TO PRACTICE AS A CALIF. C.P.A. AS PAUL FRITCH, CPA PRINCIPAL,SOLE PROPRIETOR.100% OWNERSHIP. INC TAXES,TAX ADVISORY,ACCOUNTING,BOOKKEEPING,MANAGEMENT SERVICES. APPROX 140 HRS PER MO.$40,000 PER YR COMPENSATION."
    }
  },
  "DRPs": []
}