{
  "Info": {
    "lastNm": "REHBERG",
    "firstNm": "HENRY",
    "midNm": "JOHN",
    "sufNm": null,
    "indvlPK": "3226621",
    "actvAGReg": 0,
    "link": "http://www.adviserinfo.sec.gov/IAPD/Individual/3226621"
  },
  "OthrNms": [
    {
      "lastNm": "REHBERG",
      "firstNm": "HENRY",
      "midNm": "J",
      "sufNm": null
    }
  ],
  "CrntEmps": [
    {
      "CrntRgstns": [
        {
          "regAuth": 20,
          "regCat": 0,
          "st": 2,
          "stDt": "2013-01-22T00:00:00"
        }
      ],
      "BrnchOfLocs": [
        {
          "str1": "TWO INTERNATIONAL PLACE",
          "str2": null,
          "city": "BOSTON",
          "state": 20,
          "stateSpecified": true,
          "cntry": "United States",
          "postlCd": "02110"
        }
      ],
      "orgNm": "EATON VANCE MANAGEMENT",
      "orgPK": "104859",
      "str1": "TWO INTERNATIONAL PLACE",
      "str2": null,
      "city": "BOSTON",
      "state": 20,
      "stateSpecified": true,
      "cntry": "United States",
      "postlCd": "02110"
    }
  ],
  "Exms": [
    {
      "exmCd": 3,
      "exmNm": "Uniform Combined State Law Examination",
      "exmDt": "2001-06-30T00:00:00",
      "exmDtSpecified": true
    }
  ],
  "Dsgntns": [],
  "PrevRgstns": [
    {
      "BrnchOfLocs": [
        {
          "city": "JERSEY CITY",
          "state": 32,
          "stateSpecified": true
        },
        {
          "city": "JERSEY CITY",
          "state": 32,
          "stateSpecified": true
        }
      ],
      "orgNm": "LORD, ABBETT & CO. LLC",
      "orgPK": "110391",
      "regBeginDt": "2001-08-02T00:00:00",
      "regBeginDtSpecified": true,
      "regEndDt": "2013-01-17T00:00:00",
      "regEndDtSpecified": true
    }
  ],
  "EmpHss": [
    {
      "fromDt": "02/2001",
      "toDt": "01/2013",
      "orgNm": "LORD ABBETT & CO. LLC",
      "city": "JERSEY CITY",
      "state": 32,
      "stateSpecified": true
    },
    {
      "fromDt": "02/2001",
      "toDt": "01/2013",
      "orgNm": "LORD ABBETT DISTRIBUTOR, LLC",
      "city": "JERSEY CITY",
      "state": 32,
      "stateSpecified": true
    },
    {
      "fromDt": "01/2013",
      "toDt": null,
      "orgNm": "EATON VANCE DISTRIBUTORS, INC.",
      "city": "BOSTON",
      "state": 20,
      "stateSpecified": true
    },
    {
      "fromDt": "01/2013",
      "toDt": null,
      "orgNm": "EATON VANCE MANAGEMENT",
      "city": "BOSTON",
      "state": 20,
      "stateSpecified": true
    }
  ],
  "OthrBuss": {
    "OthrBus": null
  },
  "DRPs": []
}