{
  "Info": {
    "lastNm": "CANNON",
    "firstNm": "ERIC",
    "midNm": "MATTHEW",
    "sufNm": null,
    "indvlPK": "3232489",
    "actvAGReg": 0,
    "link": "http://www.adviserinfo.sec.gov/IAPD/Individual/3232489"
  },
  "OthrNms": [],
  "CrntEmps": [
    {
      "CrntRgstns": [
        {
          "regAuth": 37,
          "regCat": 0,
          "st": 2,
          "stDt": "2012-03-30T00:00:00"
        },
        {
          "regAuth": 45,
          "regCat": 0,
          "st": 2,
          "stDt": "2012-03-30T00:00:00"
        }
      ],
      "BrnchOfLocs": [
        {
          "str1": "2200 SOUTH UTICA PLACE",
          "str2": "SUITE 150",
          "city": "TULSA",
          "state": 37,
          "stateSpecified": true,
          "cntry": "United States",
          "postlCd": "74114"
        },
        {
          "str1": "3001 DALLAS PARKWAY",
          "str2": "SUITE 540",
          "city": "FRISCO",
          "state": 45,
          "stateSpecified": true,
          "cntry": "United States",
          "postlCd": "75034"
        }
      ],
      "orgNm": "CAPITAL ADVISORS, INC.",
      "orgPK": "104643",
      "str1": "2200 SOUTH UTICA PLACE",
      "str2": "SUITE 150",
      "city": "TULSA",
      "state": 37,
      "stateSpecified": true,
      "cntry": "United States",
      "postlCd": "74114"
    }
  ],
  "Exms": [
    {
      "exmCd": 0,
      "exmNm": "Uniform Securities Agent State Law Examination",
      "exmDt": "1999-08-19T00:00:00",
      "exmDtSpecified": true
    },
    {
      "exmCd": 2,
      "exmNm": "Uniform Investment Adviser Law Examination",
      "exmDt": "2012-03-28T00:00:00",
      "exmDtSpecified": true
    }
  ],
  "Dsgntns": [],
  "PrevRgstns": [],
  "EmpHss": [
    {
      "fromDt": "11/2000",
      "toDt": "05/2008",
      "orgNm": "JEFFERIES & COMPANY, INC.",
      "city": "DALLAS",
      "state": 45,
      "stateSpecified": true
    },
    {
      "fromDt": "05/2008",
      "toDt": "02/2012",
      "orgNm": "STIFEL NICOLAUS",
      "city": "DALLAS",
      "state": 45,
      "stateSpecified": true
    },
    {
      "fromDt": "03/2012",
      "toDt": null,
      "orgNm": "CAPITAL ADVISORS, INC.",
      "city": "TULSA",
      "state": 37,
      "stateSpecified": true
    },
    {
      "fromDt": "04/2012",
      "toDt": null,
      "orgNm": "MINSHALL & CO., INC.",
      "city": "TULSA",
      "state": 37,
      "stateSpecified": true
    }
  ],
  "OthrBuss": {
    "OthrBus": {
      "desc": "Owner of Soccer Genius, a company which helps provides measurement computation for youth soccer development - non investment related - operates out of home - about 20 hours per month (none during trading hours) - started Nov 2013"
    }
  },
  "DRPs": []
}