{
  "Info": {
    "lastNm": "PLAYER",
    "firstNm": "MICHAEL",
    "midNm": "SHAWN",
    "sufNm": null,
    "indvlPK": "3233378",
    "actvAGReg": 0,
    "link": "http://www.adviserinfo.sec.gov/IAPD/Individual/3233378"
  },
  "OthrNms": [
    {
      "lastNm": "PLAYER",
      "firstNm": "MICHAEL",
      "midNm": "S",
      "sufNm": null
    }
  ],
  "CrntEmps": [
    {
      "CrntRgstns": [
        {
          "regAuth": 1,
          "regCat": 0,
          "st": 2,
          "stDt": "2000-02-09T00:00:00"
        },
        {
          "regAuth": 45,
          "regCat": 0,
          "st": 3,
          "stDt": "2001-02-23T00:00:00"
        }
      ],
      "BrnchOfLocs": [
        {
          "str1": "100 GRANDVIEW PL",
          "str2": null,
          "city": "BIRMINGHAM",
          "state": 1,
          "stateSpecified": true,
          "cntry": "United States",
          "postlCd": "35243"
        }
      ],
      "orgNm": "MERRILL LYNCH, PIERCE, FENNER & SMITH INCORPORATED",
      "orgPK": "7691",
      "str1": "ONE BRYANT PARK",
      "str2": null,
      "city": "NEW YORK",
      "state": 35,
      "stateSpecified": true,
      "cntry": "United States",
      "postlCd": "10036"
    }
  ],
  "Exms": [
    {
      "exmCd": 3,
      "exmNm": "Uniform Combined State Law Examination",
      "exmDt": "1999-09-20T00:00:00",
      "exmDtSpecified": true
    }
  ],
  "Dsgntns": [],
  "PrevRgstns": [],
  "EmpHss": [
    {
      "fromDt": "05/1999",
      "toDt": null,
      "orgNm": "MERRILL LYNCH, PIERCE, FENNER & SMITH INCORPORATED",
      "city": "BIRMINGHAM",
      "state": 1,
      "stateSpecified": true
    }
  ],
  "OthrBuss": {
    "OthrBus": {
      "desc": "(1)FOR PROFIT OR NOT FOR PROFIT: FOR-PROFIT ORGANIZATION NAME OF OUTSIDE BUSINESS ORGANIZATION: SIKES SHOE COMPANY  INVESTMENT RELATED: N  ADDRESS OF BUSINESS:  HOMEWOOD, ALABAMA 35209  NATURE OF BUSINESS: COOPERATIVE,  POSITION, TITLE, ASSOCIATION: OWNER,   START DATE OF RELATIONSHIP: 11/8/2013  NUMBER OF HOURS DEVOTED: 10 HOUR(S) MONTHLY  NUMBER OF HOURS DEVOTED DURING TRADING HOURS: 0  DUTIES: SIKES SHOE COMPANY IS A BOUTIQUE CHILDRENS SHOE AND CLOTHING COMPANY.  MY WIFE HAS BEEN EMPLOYED THERE FOR OVER 20 YEARS AND IS CURRENTLY THE MANAGER OF THE STORE.  SHE AND I WOULD BE PURCHASING THE COMPANY FROM THE EXISTING OWNER WHO IS RETIRING.    I*22826  FOR PROFIT OR NOT FOR PROFIT: FOR-PROFIT ORGANIZATION  NAME OF OUTSIDE BUSINESS ORGANIZATION: MAJESTIC BEACH RESORT CONDO UNIT #1402  INVESTMENT RELATED: N  ADDRESS OF BUSINESS:   10901 FRON BEACH RD UNIT #1402,   PANAMA CITY BEACH, FLORIDA 32407  NATURE OF BUSINESS: OTHER,INDIVIDUAL TIN - ALL INC FLOWS TO PERSONAL TIN  POSITION, TITLE, ASSOCIATION: OWNER,   START DATE OF RELATIONSHIP: 0001-01-01  NUMBER OF HOURS DEVOTED: 3 HOUR(S) MONTHLY  NUMBER OF HOURS DEVOTED DURING TRADING HOURS: 0  DUTIES: PARTNER"
    }
  },
  "DRPs": []
}