{
  "Info": {
    "lastNm": "Ridley",
    "firstNm": "Damon",
    "midNm": "Patrick",
    "sufNm": null,
    "indvlPK": "3235076",
    "actvAGReg": 0,
    "link": "http://www.adviserinfo.sec.gov/IAPD/Individual/3235076"
  },
  "OthrNms": [
    {
      "lastNm": "RIDLEY",
      "firstNm": "DAMON",
      "midNm": "PATRICK",
      "sufNm": null
    }
  ],
  "CrntEmps": [
    {
      "CrntRgstns": [
        {
          "regAuth": 14,
          "regCat": 0,
          "st": 2,
          "stDt": "2013-03-05T00:00:00"
        }
      ],
      "BrnchOfLocs": [
        {
          "str1": "2539 CHANNING WAY SUITE #200",
          "str2": null,
          "city": "IDAHO FALLS",
          "state": 14,
          "stateSpecified": true,
          "cntry": "United States",
          "postlCd": "83404"
        }
      ],
      "orgNm": "EDWARD JONES",
      "orgPK": "250",
      "str1": "12555 MANCHESTER RD",
      "str2": null,
      "city": "ST. LOUIS",
      "state": 25,
      "stateSpecified": true,
      "cntry": "United States",
      "postlCd": "63131"
    }
  ],
  "Exms": [
    {
      "exmCd": 0,
      "exmNm": "Uniform Securities Agent State Law Examination",
      "exmDt": "1999-07-26T00:00:00",
      "exmDtSpecified": true
    },
    {
      "exmCd": 2,
      "exmNm": "Uniform Investment Adviser Law Examination",
      "exmDt": "1999-08-12T00:00:00",
      "exmDtSpecified": true
    },
    {
      "exmCd": 3,
      "exmNm": "Uniform Combined State Law Examination",
      "exmDt": "2013-01-04T00:00:00",
      "exmDtSpecified": true
    }
  ],
  "Dsgntns": [],
  "PrevRgstns": [],
  "EmpHss": [
    {
      "fromDt": "12/2005",
      "toDt": "11/2006",
      "orgNm": "CREATIVE FUNDING SERVICES GROUP",
      "city": "IDAHO FALLS",
      "state": 14,
      "stateSpecified": true
    },
    {
      "fromDt": "11/2006",
      "toDt": "08/2012",
      "orgNm": "GEM STATE PAPER AND SUPPLY",
      "city": "POCATELLO",
      "state": 14,
      "stateSpecified": true
    },
    {
      "fromDt": "08/2012",
      "toDt": "11/2012",
      "orgNm": "UNEMPLOYED",
      "city": "LEWISVILLE",
      "state": 14,
      "stateSpecified": true
    },
    {
      "fromDt": "11/2012",
      "toDt": null,
      "orgNm": "EDWARD JONES",
      "city": "ST LOUIS",
      "state": 25,
      "stateSpecified": true
    }
  ],
  "OthrBuss": {
    "OthrBus": null
  },
  "DRPs": []
}