{
  "Info": {
    "lastNm": "MAYORGA",
    "firstNm": "ANDRES",
    "midNm": null,
    "sufNm": null,
    "indvlPK": "3242674",
    "actvAGReg": 0,
    "link": "http://www.adviserinfo.sec.gov/IAPD/Individual/3242674"
  },
  "OthrNms": [
    {
      "lastNm": "MAYORGA",
      "firstNm": "ANDY",
      "midNm": null,
      "sufNm": null
    }
  ],
  "CrntEmps": [
    {
      "CrntRgstns": [
        {
          "regAuth": 45,
          "regCat": 0,
          "st": 2,
          "stDt": "2013-11-20T00:00:00"
        }
      ],
      "BrnchOfLocs": [
        {
          "str1": "9800 FREDERICKSBURG ROAD",
          "str2": null,
          "city": "SAN ANTONIO",
          "state": 45,
          "stateSpecified": true,
          "cntry": "United States",
          "postlCd": "78288-0227"
        }
      ],
      "orgNm": "USAA INVESTMENT MANAGEMENT COMPANY",
      "orgPK": "5475",
      "str1": "9800 FREDERICKSBURG ROAD",
      "str2": null,
      "city": "SAN ANTONIO",
      "state": 45,
      "stateSpecified": true,
      "cntry": "United States",
      "postlCd": "78288-0227"
    }
  ],
  "Exms": [
    {
      "exmCd": 0,
      "exmNm": "Uniform Securities Agent State Law Examination",
      "exmDt": "1999-07-19T00:00:00",
      "exmDtSpecified": true
    },
    {
      "exmCd": 2,
      "exmNm": "Uniform Investment Adviser Law Examination",
      "exmDt": "2002-08-27T00:00:00",
      "exmDtSpecified": true
    }
  ],
  "Dsgntns": [],
  "PrevRgstns": [
    {
      "BrnchOfLocs": [
        {
          "city": "SAN ANTONIO",
          "state": 45,
          "stateSpecified": true
        },
        {
          "city": "SAN ANTONIO",
          "state": 45,
          "stateSpecified": true
        },
        {
          "city": "SAN ANTONIO",
          "state": 45,
          "stateSpecified": true
        },
        {
          "city": "SAN ANTONIO",
          "state": 45,
          "stateSpecified": true
        }
      ],
      "orgNm": "USAA INVESTMENT MANAGEMENT COMPANY",
      "orgPK": "5475",
      "regBeginDt": "2002-09-03T00:00:00",
      "regBeginDtSpecified": true,
      "regEndDt": "2008-12-31T00:00:00",
      "regEndDtSpecified": true
    },
    {
      "BrnchOfLocs": [
        {
          "city": "SAN ANTONIO",
          "state": 45,
          "stateSpecified": true
        }
      ],
      "orgNm": "USAA FINANCIAL PLANNING SERVICES",
      "orgPK": "106352",
      "regBeginDt": "2008-08-01T00:00:00",
      "regBeginDtSpecified": true,
      "regEndDt": "2013-12-05T00:00:00",
      "regEndDtSpecified": true
    }
  ],
  "EmpHss": [
    {
      "fromDt": "06/1999",
      "toDt": null,
      "orgNm": "USAA INVESTMENT MANAGEMENT COMPANY",
      "city": "SAN ANTONIO",
      "state": 45,
      "stateSpecified": true
    },
    {
      "fromDt": "09/2007",
      "toDt": "11/2013",
      "orgNm": "USAA FINANCIAL ADVISORS, INC.",
      "city": "SAN ANTONIO",
      "state": 45,
      "stateSpecified": true
    },
    {
      "fromDt": "09/2007",
      "toDt": "11/2013",
      "orgNm": "USAA LIFE INSURANCE COMPANY",
      "city": "SAN ANTONIO",
      "state": 45,
      "stateSpecified": true
    },
    {
      "fromDt": "07/2008",
      "toDt": "11/2013",
      "orgNm": "USAA FINANCIAL PLANNING SERVICES",
      "city": "SAN ANTONIO",
      "state": 45,
      "stateSpecified": true
    }
  ],
  "OthrBuss": {
    "OthrBus": null
  },
  "DRPs": []
}