{
  "Info": {
    "lastNm": "SCHRIMSHER",
    "firstNm": "JASON",
    "midNm": "LEE",
    "sufNm": null,
    "indvlPK": "3242021",
    "actvAGReg": 0,
    "link": "http://www.adviserinfo.sec.gov/IAPD/Individual/3242021"
  },
  "OthrNms": [],
  "CrntEmps": [
    {
      "CrntRgstns": [
        {
          "regAuth": 1,
          "regCat": 0,
          "st": 2,
          "stDt": "2009-01-16T00:00:00"
        },
        {
          "regAuth": 45,
          "regCat": 0,
          "st": 3,
          "stDt": "2009-06-04T00:00:00"
        }
      ],
      "BrnchOfLocs": [
        {
          "str1": "116 JEFFERSON STREET SOUTH",
          "str2": null,
          "city": "HUNTSVILLE",
          "state": 1,
          "stateSpecified": true,
          "cntry": "United States",
          "postlCd": "35801"
        }
      ],
      "orgNm": "UBS FINANCIAL SERVICES INC.",
      "orgPK": "8174",
      "str1": "1200 HARBOR BOULEVARD",
      "str2": null,
      "city": "WEEHAWKEN",
      "state": 32,
      "stateSpecified": true,
      "cntry": "United States",
      "postlCd": "07086"
    }
  ],
  "Exms": [
    {
      "exmCd": 0,
      "exmNm": "Uniform Securities Agent State Law Examination",
      "exmDt": "1999-08-11T00:00:00",
      "exmDtSpecified": true
    },
    {
      "exmCd": 2,
      "exmNm": "Uniform Investment Adviser Law Examination",
      "exmDt": "2003-08-14T00:00:00",
      "exmDtSpecified": true
    }
  ],
  "Dsgntns": [],
  "PrevRgstns": [
    {
      "BrnchOfLocs": [
        {
          "city": "HUNTSVILLE",
          "state": 1,
          "stateSpecified": true
        },
        {
          "city": "HUNTSVILLE",
          "state": 1,
          "stateSpecified": true
        }
      ],
      "orgNm": "MORGAN STANLEY DW INC.",
      "orgPK": "7556",
      "regBeginDt": "2003-07-09T00:00:00",
      "regBeginDtSpecified": true,
      "regEndDt": "2007-04-02T00:00:00",
      "regEndDtSpecified": true
    },
    {
      "BrnchOfLocs": [
        {
          "city": "HUNTSVILLE",
          "state": 1,
          "stateSpecified": true
        }
      ],
      "orgNm": "MORGAN STANLEY & CO. LLC",
      "orgPK": "8209",
      "regBeginDt": "2007-04-02T00:00:00",
      "regBeginDtSpecified": true,
      "regEndDt": "2009-01-22T00:00:00",
      "regEndDtSpecified": true
    }
  ],
  "EmpHss": [
    {
      "fromDt": "04/2001",
      "toDt": "04/2007",
      "orgNm": "MORGAN STANLEY DW INC.",
      "city": "HUNTSVILLE",
      "state": 1,
      "stateSpecified": true
    },
    {
      "fromDt": "04/2007",
      "toDt": "01/2009",
      "orgNm": "MORGAN STANLEY & CO., INCORPORATED",
      "city": "HUNTSVILLE",
      "state": 1,
      "stateSpecified": true
    },
    {
      "fromDt": "01/2009",
      "toDt": null,
      "orgNm": "UBS FINANCIAL SERVICES INC",
      "city": "HUNTSVILLE",
      "state": 1,
      "stateSpecified": true
    }
  ],
  "OthrBuss": {
    "OthrBus": {
      "desc": "MAKE A WISH FOUNDATION OF GEORGIA/ALABAMA ADVISORY BOARD MEMBER"
    }
  },
  "DRPs": []
}