{
  "Info": {
    "lastNm": "KRAMER",
    "firstNm": "RAYMOND",
    "midNm": "JOSEPH",
    "sufNm": null,
    "indvlPK": "3247207",
    "actvAGReg": 0,
    "link": "http://www.adviserinfo.sec.gov/IAPD/Individual/3247207"
  },
  "OthrNms": [
    {
      "lastNm": "KRAMER",
      "firstNm": "RAYMOND",
      "midNm": "J",
      "sufNm": null
    }
  ],
  "CrntEmps": [
    {
      "CrntRgstns": [
        {
          "regAuth": 16,
          "regCat": 0,
          "st": 2,
          "stDt": "2014-11-03T00:00:00"
        }
      ],
      "BrnchOfLocs": [
        {
          "str1": "99 E CARMEL DR",
          "str2": "STE 160",
          "city": "CARMEL",
          "state": 16,
          "stateSpecified": true,
          "cntry": "United States",
          "postlCd": "46032"
        }
      ],
      "orgNm": "WELLS FARGO ADVISORS FINANCIAL NETWORK, LLC",
      "orgPK": "11025",
      "str1": "ONE NORTH JEFFERSON AVENUE",
      "str2": "MAIL CODE: H0004-050",
      "city": "ST. LOUIS",
      "state": 25,
      "stateSpecified": true,
      "cntry": "United States",
      "postlCd": "63103"
    }
  ],
  "Exms": [
    {
      "exmCd": 0,
      "exmNm": "Uniform Securities Agent State Law Examination",
      "exmDt": "1999-11-22T00:00:00",
      "exmDtSpecified": true
    },
    {
      "exmCd": 2,
      "exmNm": "Uniform Investment Adviser Law Examination",
      "exmDt": "2006-04-19T00:00:00",
      "exmDtSpecified": true
    }
  ],
  "Dsgntns": [],
  "PrevRgstns": [
    {
      "BrnchOfLocs": [
        {
          "city": "AVON",
          "state": 16,
          "stateSpecified": true
        },
        {
          "city": "BEDFORD",
          "state": 16,
          "stateSpecified": true
        },
        {
          "city": "BLOOMINGTON",
          "state": 16,
          "stateSpecified": true
        },
        {
          "city": "BLOOMINGTON",
          "state": 16,
          "stateSpecified": true
        },
        {
          "city": "BLOOMINGTON",
          "state": 16,
          "stateSpecified": true
        },
        {
          "city": "BLOOMINGTON",
          "state": 16,
          "stateSpecified": true
        },
        {
          "city": "BLOOMINGTON",
          "state": 16,
          "stateSpecified": true
        },
        {
          "city": "BROWNSBURG",
          "state": 16,
          "stateSpecified": true
        },
        {
          "city": "CARMEL",
          "state": 16,
          "stateSpecified": true
        },
        {
          "city": "CARMEL",
          "state": 16,
          "stateSpecified": true
        },
        {
          "city": "CARMEL",
          "state": 16,
          "stateSpecified": true
        },
        {
          "city": "CARMEL",
          "state": 16,
          "stateSpecified": true
        },
        {
          "city": "CARMEL",
          "state": 16,
          "stateSpecified": true
        },
        {
          "city": "CEDAR LAKE",
          "state": 16,
          "stateSpecified": true
        },
        {
          "city": "CHARLESTOWN",
          "state": 16,
          "stateSpecified": true
        },
        {
          "city": "CHESTERTON",
          "state": 16,
          "stateSpecified": true
        },
        {
          "city": "CLARKSVILLE",
          "state": 16,
          "stateSpecified": true
        },
        {
          "city": "CLARKSVILLE",
          "state": 16,
          "stateSpecified": true
        },
        {
          "city": "CORYDON",
          "state": 16,
          "stateSpecified": true
        },
        {
          "city": "CORYDON",
          "state": 16,
          "stateSpecified": true
        },
        {
          "city": "CRAWFORDSVILLE",
          "state": 16,
          "stateSpecified": true
        },
        {
          "city": "CRAWFORDSVILLE",
          "state": 16,
          "stateSpecified": true
        },
        {
          "city": "CROWN POINT",
          "state": 16,
          "stateSpecified": true
        },
        {
          "city": "CROWN POINT",
          "state": 16,
          "stateSpecified": true
        },
        {
          "city": "DYER",
          "state": 16,
          "stateSpecified": true
        },
        {
          "city": "FISHERS",
          "state": 16,
          "stateSpecified": true
        },
        {
          "city": "FISHERS",
          "state": 16,
          "stateSpecified": true
        },
        {
          "city": "FISHERS",
          "state": 16,
          "stateSpecified": true
        },
        {
          "city": "FLOYDS KNOBS",
          "state": 16,
          "stateSpecified": true
        },
        {
          "city": "FRANKLIN",
          "state": 16,
          "stateSpecified": true
        },
        {
          "city": "GARY",
          "state": 16,
          "stateSpecified": true
        },
        {
          "city": "GARY",
          "state": 16,
          "stateSpecified": true
        },
        {
          "city": "GARY",
          "state": 16,
          "stateSpecified": true
        },
        {
          "city": "GARY",
          "state": 16,
          "stateSpecified": true
        },
        {
          "city": "GREENWOOD",
          "state": 16,
          "stateSpecified": true
        },
        {
          "city": "GREENWOOD",
          "state": 16,
          "stateSpecified": true
        },
        {
          "city": "GREENWOOD",
          "state": 16,
          "stateSpecified": true
        },
        {
          "city": "GRIFFITH",
          "state": 16,
          "stateSpecified": true
        },
        {
          "city": "HAMMOND",
          "state": 16,
          "stateSpecified": true
        },
        {
          "city": "HAMMOND",
          "state": 16,
          "stateSpecified": true
        },
        {
          "city": "HAMMOND",
          "state": 16,
          "stateSpecified": true
        },
        {
          "city": "HIGHLAND",
          "state": 16,
          "stateSpecified": true
        },
        {
          "city": "HOBART",
          "state": 16,
          "stateSpecified": true
        },
        {
          "city": "INDIANAPOLIS",
          "state": 16,
          "stateSpecified": true
        },
        {
          "city": "INDIANAPOLIS",
          "state": 16,
          "stateSpecified": true
        },
        {
          "city": "INDIANAPOLIS",
          "state": 16,
          "stateSpecified": true
        },
        {
          "city": "INDIANAPOLIS",
          "state": 16,
          "stateSpecified": true
        },
        {
          "city": "INDIANAPOLIS",
          "state": 16,
          "stateSpecified": true
        },
        {
          "city": "INDIANAPOLIS",
          "state": 16,
          "stateSpecified": true
        },
        {
          "city": "INDIANAPOLIS",
          "state": 16,
          "stateSpecified": true
        },
        {
          "city": "INDIANAPOLIS",
          "state": 16,
          "stateSpecified": true
        },
        {
          "city": "INDIANAPOLIS",
          "state": 16,
          "stateSpecified": true
        },
        {
          "city": "INDIANAPOLIS",
          "state": 16,
          "stateSpecified": true
        },
        {
          "city": "INDIANAPOLIS",
          "state": 16,
          "stateSpecified": true
        },
        {
          "city": "JEFFERSONVILLE",
          "state": 16,
          "stateSpecified": true
        },
        {
          "city": "JEFFERSONVILLE",
          "state": 16,
          "stateSpecified": true
        },
        {
          "city": "JEFFERSONVILLE",
          "state": 16,
          "stateSpecified": true
        },
        {
          "city": "KOUTS",
          "state": 16,
          "stateSpecified": true
        },
        {
          "city": "LAFAYETTE",
          "state": 16,
          "stateSpecified": true
        },
        {
          "city": "LAFAYETTE",
          "state": 16,
          "stateSpecified": true
        },
        {
          "city": "LAFAYETTE",
          "state": 16,
          "stateSpecified": true
        },
        {
          "city": "LAFAYETTE",
          "state": 16,
          "stateSpecified": true
        },
        {
          "city": "LAKE STATION",
          "state": 16,
          "stateSpecified": true
        },
        {
          "city": "LOWELL",
          "state": 16,
          "stateSpecified": true
        },
        {
          "city": "MERRILLVILLE",
          "state": 16,
          "stateSpecified": true
        },
        {
          "city": "MERRILLVILLE",
          "state": 16,
          "stateSpecified": true
        },
        {
          "city": "MERRILLVILLE",
          "state": 16,
          "stateSpecified": true
        },
        {
          "city": "MERRILLVILLE",
          "state": 16,
          "stateSpecified": true
        },
        {
          "city": "MICHIGAN CITY",
          "state": 16,
          "stateSpecified": true
        },
        {
          "city": "MOORESVILLE",
          "state": 16,
          "stateSpecified": true
        },
        {
          "city": "NEW ALBANY",
          "state": 16,
          "stateSpecified": true
        },
        {
          "city": "NEW ALBANY",
          "state": 16,
          "stateSpecified": true
        },
        {
          "city": "NEW SALISBURY",
          "state": 16,
          "stateSpecified": true
        },
        {
          "city": "NOBLESVILLE",
          "state": 16,
          "stateSpecified": true
        },
        {
          "city": "NOBLESVILLE",
          "state": 16,
          "stateSpecified": true
        },
        {
          "city": "PLAINFIELD",
          "state": 16,
          "stateSpecified": true
        },
        {
          "city": "PORTAGE",
          "state": 16,
          "stateSpecified": true
        },
        {
          "city": "PORTAGE",
          "state": 16,
          "stateSpecified": true
        },
        {
          "city": "SCHERERVILLE",
          "state": 16,
          "stateSpecified": true
        },
        {
          "city": "ST. JOHN",
          "state": 16,
          "stateSpecified": true
        },
        {
          "city": "VALPARAISO",
          "state": 16,
          "stateSpecified": true
        },
        {
          "city": "VALPARAISO",
          "state": 16,
          "stateSpecified": true
        },
        {
          "city": "VALPARAISO",
          "state": 16,
          "stateSpecified": true
        },
        {
          "city": "VALPARAISO",
          "state": 16,
          "stateSpecified": true
        },
        {
          "city": "WEST LAFAYETTE",
          "state": 16,
          "stateSpecified": true
        },
        {
          "city": "WEST LAFAYETTE",
          "state": 16,
          "stateSpecified": true
        },
        {
          "city": "WESTFIELD",
          "state": 16,
          "stateSpecified": true
        },
        {
          "city": "WESTFIELD",
          "state": 16,
          "stateSpecified": true
        },
        {
          "city": "ZIONSVILLE",
          "state": 16,
          "stateSpecified": true
        }
      ],
      "orgNm": "CHASE INVESTMENT SERVICES CORP.",
      "orgPK": "25574",
      "regBeginDt": "2006-04-20T00:00:00",
      "regBeginDtSpecified": true,
      "regEndDt": "2007-04-12T00:00:00",
      "regEndDtSpecified": true
    },
    {
      "BrnchOfLocs": [
        {
          "city": "NOBLESVILLE",
          "state": 16,
          "stateSpecified": true
        },
        {
          "city": "ZIONSVILLE",
          "state": 16,
          "stateSpecified": true
        }
      ],
      "orgNm": "THE HUNTINGTON INVESTMENT COMPANY",
      "orgPK": "16986",
      "regBeginDt": "2007-04-27T00:00:00",
      "regBeginDtSpecified": true,
      "regEndDt": "2009-06-24T00:00:00",
      "regEndDtSpecified": true
    },
    {
      "BrnchOfLocs": [
        {
          "city": "CARMEL",
          "state": 16,
          "stateSpecified": true
        },
        {
          "city": "CARMEL",
          "state": 16,
          "stateSpecified": true
        },
        {
          "city": "CARMEL",
          "state": 16,
          "stateSpecified": true
        },
        {
          "city": "FISHERS",
          "state": 16,
          "stateSpecified": true
        },
        {
          "city": "INDIANAPOLIS",
          "state": 16,
          "stateSpecified": true
        },
        {
          "city": "INDIANAPOLIS",
          "state": 16,
          "stateSpecified": true
        },
        {
          "city": "INDIANAPOLIS",
          "state": 16,
          "stateSpecified": true
        },
        {
          "city": "INDIANAPOLIS",
          "state": 16,
          "stateSpecified": true
        },
        {
          "city": "INDIANAPOLIS",
          "state": 16,
          "stateSpecified": true
        },
        {
          "city": "INDIANAPOLIS",
          "state": 16,
          "stateSpecified": true
        },
        {
          "city": "INDIANAPOLIS",
          "state": 16,
          "stateSpecified": true
        },
        {
          "city": "INDIANAPOLIS",
          "state": 16,
          "stateSpecified": true
        },
        {
          "city": "LAFAYETTE",
          "state": 16,
          "stateSpecified": true
        },
        {
          "city": "WEST LAFAYETTE",
          "state": 16,
          "stateSpecified": true
        },
        {
          "city": "WESTFIELD",
          "state": 16,
          "stateSpecified": true
        }
      ],
      "orgNm": "FIFTH THIRD SECURITIES, INC.",
      "orgPK": "628",
      "regBeginDt": "2009-07-17T00:00:00",
      "regBeginDtSpecified": true,
      "regEndDt": "2014-10-09T00:00:00",
      "regEndDtSpecified": true
    }
  ],
  "EmpHss": [
    {
      "fromDt": "08/2005",
      "toDt": "04/2007",
      "orgNm": "CHASE INVESTMENT SERVICES CORP",
      "city": "INDIANAPOLIS",
      "state": 16,
      "stateSpecified": true
    },
    {
      "fromDt": "04/2007",
      "toDt": "07/2009",
      "orgNm": "THE HUNTINGTON INVESTMENT CO.",
      "city": "NOBLESVILLE",
      "state": 16,
      "stateSpecified": true
    },
    {
      "fromDt": "07/2009",
      "toDt": "10/2014",
      "orgNm": "FIFTH THIRD SECURITIES",
      "city": "INDIANAPOLIS",
      "state": 16,
      "stateSpecified": true
    },
    {
      "fromDt": "10/2014",
      "toDt": null,
      "orgNm": "WELLS FARGO ADVISORS FINANCIAL NETWORK, LLC",
      "city": "CARMEL",
      "state": 16,
      "stateSpecified": true
    }
  ],
  "OthrBuss": {
    "OthrBus": null
  },
  "DRPs": [
    {
      "hasRegAction": 1,
      "hasRegActionSpecified": true,
      "hasCriminal": 1,
      "hasCriminalSpecified": true,
      "hasBankrupt": 1,
      "hasBankruptSpecified": true,
      "hasCivilJudc": 1,
      "hasCivilJudcSpecified": true,
      "hasBond": 1,
      "hasBondSpecified": true,
      "hasJudgment": 1,
      "hasJudgmentSpecified": true,
      "hasInvstgn": 1,
      "hasInvstgnSpecified": true,
      "hasCustComp": 0,
      "hasCustCompSpecified": true,
      "hasTermination": 1,
      "hasTerminationSpecified": true
    }
  ]
}