{
  "Info": {
    "lastNm": "SANFILIPPO",
    "firstNm": "JOHN",
    "midNm": "ANDREW",
    "sufNm": null,
    "indvlPK": "3248590",
    "actvAGReg": 0,
    "link": "http://www.adviserinfo.sec.gov/IAPD/Individual/3248590"
  },
  "OthrNms": [
    {
      "lastNm": "SANFILIPPO",
      "firstNm": "JOHN",
      "midNm": "A",
      "sufNm": null
    }
  ],
  "CrntEmps": [
    {
      "CrntRgstns": [
        {
          "regAuth": 32,
          "regCat": 0,
          "st": 2,
          "stDt": "2008-05-29T00:00:00"
        },
        {
          "regAuth": 22,
          "regCat": 0,
          "st": 2,
          "stDt": "2016-03-23T00:00:00"
        }
      ],
      "BrnchOfLocs": [
        {
          "str1": "331 CENTRAL PARK AVENUE",
          "str2": null,
          "city": "SCARSDALE",
          "state": 35,
          "stateSpecified": true,
          "cntry": "United States",
          "postlCd": "10583-1301"
        }
      ],
      "orgNm": "CHARLES SCHWAB & CO., INC.",
      "orgPK": "5393",
      "str1": "211 MAIN STREET",
      "str2": null,
      "city": "SAN FRANCISCO",
      "state": 4,
      "stateSpecified": true,
      "cntry": "United States",
      "postlCd": "94105"
    }
  ],
  "Exms": [
    {
      "exmCd": 3,
      "exmNm": "Uniform Combined State Law Examination",
      "exmDt": "1999-08-20T00:00:00",
      "exmDtSpecified": true
    }
  ],
  "Dsgntns": [],
  "PrevRgstns": [
    {
      "BrnchOfLocs": [
        {
          "city": "WHITE PLAINS",
          "state": 35,
          "stateSpecified": true
        }
      ],
      "orgNm": "MERRILL LYNCH, PIERCE, FENNER & SMITH INCORPORATED",
      "orgPK": "7691",
      "regBeginDt": "2004-08-17T00:00:00",
      "regBeginDtSpecified": true,
      "regEndDt": "2005-10-12T00:00:00",
      "regEndDtSpecified": true
    },
    {
      "BrnchOfLocs": [
        {
          "city": "NEW YORK",
          "state": 35,
          "stateSpecified": true
        },
        {
          "city": "NEW YORK",
          "state": 35,
          "stateSpecified": true
        }
      ],
      "orgNm": "DOMINICK & DICKERMAN LLC",
      "orgPK": "7344",
      "regBeginDt": "2006-03-23T00:00:00",
      "regBeginDtSpecified": true,
      "regEndDt": "2008-01-14T00:00:00",
      "regEndDtSpecified": true
    }
  ],
  "EmpHss": [
    {
      "fromDt": "10/2005",
      "toDt": "01/2008",
      "orgNm": "DOMINICK & DOMINICK LLC",
      "city": "NEW YORK",
      "state": 35,
      "stateSpecified": true
    },
    {
      "fromDt": "01/2008",
      "toDt": "05/2008",
      "orgNm": "UNEMPLOYED",
      "city": "STAMFORD",
      "state": 6,
      "stateSpecified": true
    },
    {
      "fromDt": "05/2008",
      "toDt": null,
      "orgNm": "CHARLES SCHWAB & CO., INC.",
      "city": "SCARSDALE",
      "state": 35,
      "stateSpecified": true
    },
    {
      "fromDt": "07/2008",
      "toDt": null,
      "orgNm": "CHARLES SCHWAB BANK",
      "city": "SCARSDALE",
      "state": 35,
      "stateSpecified": true
    }
  ],
  "OthrBuss": {
    "OthrBus": {
      "desc": "CHARLES SCHWAB BANK, 331 CENTRAL PARK AVENUE, SCARSDALE, NY  10583-1301, INVESTMENT RELATED, 07/01/2008, DUAL EMPLOYEE, BANK PRODUCTS, REFERRALS OF HELOC, MORTGAGES AND INVESTOR CHECKING PRODUCTS FOR APPROXIMATELY 20 HOURS PER MONTH."
    }
  },
  "DRPs": []
}