{
  "Info": {
    "lastNm": "HAHN",
    "firstNm": "SUSAN",
    "midNm": "LYNN",
    "sufNm": null,
    "indvlPK": "3257405",
    "actvAGReg": 0,
    "link": "http://www.adviserinfo.sec.gov/IAPD/Individual/3257405"
  },
  "OthrNms": [],
  "CrntEmps": [
    {
      "CrntRgstns": [
        {
          "regAuth": 15,
          "regCat": 0,
          "st": 2,
          "stDt": "2012-10-09T00:00:00"
        },
        {
          "regAuth": 45,
          "regCat": 0,
          "st": 3,
          "stDt": "2013-09-19T00:00:00"
        }
      ],
      "BrnchOfLocs": [
        {
          "str1": "120 E. WESLEY STREET",
          "str2": null,
          "city": "WHEATON",
          "state": 15,
          "stateSpecified": true,
          "cntry": "United States",
          "postlCd": "60187"
        },
        {
          "str1": "411 S. SCHMALE ROAD",
          "str2": null,
          "city": "CAROL STREAM",
          "state": 15,
          "stateSpecified": true,
          "cntry": "United States",
          "postlCd": "60188"
        },
        {
          "str1": "727 ROOSEVELT ROAD",
          "str2": null,
          "city": "GLEN ELLYN",
          "state": 15,
          "stateSpecified": true,
          "cntry": "United States",
          "postlCd": "60137"
        }
      ],
      "orgNm": "J.P. MORGAN SECURITIES LLC",
      "orgPK": "79",
      "str1": "277 PARK AVENUE",
      "str2": null,
      "city": "NEW YORK",
      "state": 35,
      "stateSpecified": true,
      "cntry": "United States",
      "postlCd": "10172"
    }
  ],
  "Exms": [
    {
      "exmCd": 0,
      "exmNm": "Uniform Securities Agent State Law Examination",
      "exmDt": "2001-04-27T00:00:00",
      "exmDtSpecified": true
    },
    {
      "exmCd": 2,
      "exmNm": "Uniform Investment Adviser Law Examination",
      "exmDt": "2002-02-13T00:00:00",
      "exmDtSpecified": true
    }
  ],
  "Dsgntns": [],
  "PrevRgstns": [
    {
      "BrnchOfLocs": [
        {
          "city": "CHICAGO",
          "state": 15,
          "stateSpecified": true
        },
        {
          "city": "CHICAGO",
          "state": 15,
          "stateSpecified": true
        },
        {
          "city": "CHICAGO",
          "state": 15,
          "stateSpecified": true
        }
      ],
      "orgNm": "BANC ONE SECURITIES CORPORATION",
      "orgPK": "16999",
      "regBeginDt": "2002-04-12T00:00:00",
      "regBeginDtSpecified": true,
      "regEndDt": "2006-09-27T00:00:00",
      "regEndDtSpecified": true
    },
    {
      "BrnchOfLocs": [
        {
          "city": "CHICAGO",
          "state": 15,
          "stateSpecified": true
        },
        {
          "city": "CHICAGO",
          "state": 15,
          "stateSpecified": true
        }
      ],
      "orgNm": "J.P. MORGAN SECURITIES INC.",
      "orgPK": "18718",
      "regBeginDt": "2006-09-27T00:00:00",
      "regBeginDtSpecified": true,
      "regEndDt": "2008-10-01T00:00:00",
      "regEndDtSpecified": true
    }
  ],
  "EmpHss": [
    {
      "fromDt": "07/2006",
      "toDt": "10/2012",
      "orgNm": "J.P. MORGAN SECURITIES INC.",
      "city": "CHICAGO",
      "state": 15,
      "stateSpecified": true
    },
    {
      "fromDt": "10/2008",
      "toDt": "10/2008",
      "orgNm": "BEAR, STEARNS & CO. INC.",
      "city": "CHICAGO",
      "state": 15,
      "stateSpecified": true
    },
    {
      "fromDt": "10/2012",
      "toDt": null,
      "orgNm": "JP MORGAN SECURITIES LLC",
      "city": "CHICAGO",
      "state": 15,
      "stateSpecified": true
    },
    {
      "fromDt": "04/2013",
      "toDt": "11/2014",
      "orgNm": "WOO PARTNERS LLC",
      "city": "LAKE GENEVA",
      "state": 50,
      "stateSpecified": true
    }
  ],
  "OthrBuss": {
    "OthrBus": null
  },
  "DRPs": []
}