{
  "Info": {
    "lastNm": "MCCLAIN",
    "firstNm": "ALAN",
    "midNm": "THOMAS",
    "sufNm": null,
    "indvlPK": "3265334",
    "actvAGReg": 0,
    "link": "http://www.adviserinfo.sec.gov/IAPD/Individual/3265334"
  },
  "OthrNms": [],
  "CrntEmps": [
    {
      "CrntRgstns": [
        {
          "regAuth": 5,
          "regCat": 0,
          "st": 2,
          "stDt": "2006-02-21T00:00:00"
        },
        {
          "regAuth": 45,
          "regCat": 0,
          "st": 2,
          "stDt": "2006-02-21T00:00:00"
        }
      ],
      "BrnchOfLocs": [
        {
          "str1": "1177 WEST LOOP SOUTH",
          "str2": "SUITE 1685",
          "city": "HOUSTON",
          "state": 45,
          "stateSpecified": true,
          "cntry": "United States",
          "postlCd": "77027"
        }
      ],
      "orgNm": "UNITED CAPITAL FINANCIAL ADVISERS",
      "orgPK": "134600",
      "str1": "620 NEWPORT CENTER DRIVE",
      "str2": "SUITE 500",
      "city": "NEWPORT BEACH",
      "state": 4,
      "stateSpecified": true,
      "cntry": "United States",
      "postlCd": "92660"
    }
  ],
  "Exms": [
    {
      "exmCd": 3,
      "exmNm": "Uniform Combined State Law Examination",
      "exmDt": "2010-12-07T00:00:00",
      "exmDtSpecified": true
    }
  ],
  "Dsgntns": [],
  "PrevRgstns": [
    {
      "BrnchOfLocs": [
        {
          "city": "CORPUS CHRISTI",
          "state": 45,
          "stateSpecified": true
        }
      ],
      "orgNm": "STABIL CAPITAL MANAGEMENT, INC.",
      "orgPK": "108535",
      "regBeginDt": "2001-03-15T00:00:00",
      "regBeginDtSpecified": true,
      "regEndDt": "2006-05-01T00:00:00",
      "regEndDtSpecified": true
    },
    {
      "BrnchOfLocs": [
        {
          "city": "HOUSTON",
          "state": 45,
          "stateSpecified": true
        }
      ],
      "orgNm": "FINANCIAL SYNERGIES ADVISORY, LTD.",
      "orgPK": "104970",
      "regBeginDt": "2005-11-03T00:00:00",
      "regBeginDtSpecified": true,
      "regEndDt": "2006-04-26T00:00:00",
      "regEndDtSpecified": true
    },
    {
      "BrnchOfLocs": [
        {
          "city": "HOUSTON",
          "state": 45,
          "stateSpecified": true
        }
      ],
      "orgNm": "UNITED CAPITAL INVESTMENT ADVISERS, INC",
      "orgPK": "134627",
      "regBeginDt": "2006-02-02T00:00:00",
      "regBeginDtSpecified": true,
      "regEndDt": "2006-12-31T00:00:00",
      "regEndDtSpecified": true
    }
  ],
  "EmpHss": [
    {
      "fromDt": "02/2006",
      "toDt": "06/2009",
      "orgNm": "UNITED CAPITAL FINANCIAL ADVISERS, INC.",
      "city": "NEWPORT BEACH",
      "state": 4,
      "stateSpecified": true
    },
    {
      "fromDt": "02/2006",
      "toDt": "12/2006",
      "orgNm": "UNITED CAPITAL INVESTMENT ADVISERS",
      "city": "NEWPORT BEACH",
      "state": 4,
      "stateSpecified": true
    },
    {
      "fromDt": "06/2009",
      "toDt": null,
      "orgNm": "UNITED CAPITAL FINANCIAL ADVISERS, LLC",
      "city": "NEWPORT BEACH",
      "state": 4,
      "stateSpecified": true
    },
    {
      "fromDt": "04/2010",
      "toDt": null,
      "orgNm": "GIRARD SECURITIES, INC.",
      "city": "SAN DIEGO",
      "state": 4,
      "stateSpecified": true
    }
  ],
  "OthrBuss": {
    "OthrBus": {
      "desc": "I AM CURRENTLY AN INVESTMENT ADVISORY REPRESENTATIVE OF UNITED CAPITAL FINANCIAL ADVISERS INC (UCFA). UCFA IS AN INVESTMENT ADVISORY FIRM REGISTERED WITH THE SEC AND NOTICED FILED VARIOUS STATES.  I AM NOTICE FILED WHERE MY OFFICE IS LOCATED AND WHERE I MEET WITH CLIENTS.  IN ADDITION, I MAY REFER CLIENTS TO ALTERNATIVE INVESTMENTS STRATEGIES, HEDGE FUNDS. I WILL NOT RECEIVE ANY DIRECT COMPENSATION FROM THE HEDGE FUND. THIS BUSINESS IS CONDUCTED WITH THE MUTUAL PERMISSION OF GIRARD SECURITIES AND UCFA AND IS OUTSIDE THE SCOPE OF MY RELATIONSHIP WITH GIRARD SECURITIES, INC. I SPEND APPROXIMATELY 50 OF MY TIME ON THESE ACTIVITIES. UNITED CAPITAL RISK MANAGEMENT (UCRM) IS A TRADITIONAL LIFE AND HEALTH INSURANCE AGENCY OF UNITED CAPITAL. UCRM IS LICENSED IN THE STATES IN WHICH IT CONDUCTS BUSINESS. I AM A LICENSED INSURANCE AGENT OF UCRM SINCE AUGUST 2010 WHO CONDUCTS INSURANCE BUSINESS IN THOSE STATES IN WHICH I AM LICENSED. UCRM OFFERS TERM LIFE, WHOLE LIFE, UNIVERSAL LIFE, DISABILITY INCOME, LONG TERM CARE INSURANCE, FIXED ANNUITY AND SINGLE PREMIUM ANNUITY PRODUCTS. I SPEND APPROXIMATELY 10 HOURS A WEEK ON THESE ACTIVITIES. I AM AN EMPLOYEE OF UCFA PERFORMING MANAGING DIRECTOR DUTIES. THESE DUTIES INCLUDE INVESTMENT ADVISORY SERVICES TO OUR CLIENTS AND OFFICE MANAGEMENT FUNCTIONS."
    }
  },
  "DRPs": []
}