{
  "Info": {
    "lastNm": "WIRHOUSKI",
    "firstNm": "JACLYNN",
    "midNm": "C",
    "sufNm": null,
    "indvlPK": "3266640",
    "actvAGReg": 0,
    "link": "http://www.adviserinfo.sec.gov/IAPD/Individual/3266640"
  },
  "OthrNms": [
    {
      "lastNm": "LUEBECK",
      "firstNm": "JACLYNN",
      "midNm": "C",
      "sufNm": null
    },
    {
      "lastNm": "WIRHOUSKI",
      "firstNm": "JACKIE",
      "midNm": null,
      "sufNm": null
    }
  ],
  "CrntEmps": [
    {
      "CrntRgstns": [
        {
          "regAuth": 32,
          "regCat": 0,
          "st": 2,
          "stDt": "2011-10-11T00:00:00"
        },
        {
          "regAuth": 45,
          "regCat": 0,
          "st": 3,
          "stDt": "2012-03-23T00:00:00"
        }
      ],
      "BrnchOfLocs": [
        {
          "str1": "120 ALBANY ST 4TH FLOOR",
          "str2": null,
          "city": "NEW BRUNSWICK",
          "state": 32,
          "stateSpecified": true,
          "cntry": "United States",
          "postlCd": "08901"
        }
      ],
      "orgNm": "MORGAN STANLEY",
      "orgPK": "149777",
      "str1": "2000 WESTCHESTER AVENUE",
      "str2": null,
      "city": "PURCHASE",
      "state": 35,
      "stateSpecified": true,
      "cntry": "United States",
      "postlCd": "10577-2530"
    }
  ],
  "Exms": [
    {
      "exmCd": 3,
      "exmNm": "Uniform Combined State Law Examination",
      "exmDt": "2004-12-13T00:00:00",
      "exmDtSpecified": true
    }
  ],
  "Dsgntns": [],
  "PrevRgstns": [
    {
      "BrnchOfLocs": [
        {
          "city": "EAST BRUNSWICK",
          "state": 32,
          "stateSpecified": true
        },
        {
          "city": "FORT LEE",
          "state": 32,
          "stateSpecified": true
        }
      ],
      "orgNm": "MERRILL LYNCH, PIERCE, FENNER & SMITH INCORPORATED",
      "orgPK": "7691",
      "regBeginDt": "2004-12-14T00:00:00",
      "regBeginDtSpecified": true,
      "regEndDt": "2007-04-17T00:00:00",
      "regEndDtSpecified": true
    },
    {
      "BrnchOfLocs": [
        {
          "city": "SHORT HILLS",
          "state": 32,
          "stateSpecified": true
        }
      ],
      "orgNm": "MORGAN STANLEY & CO. LLC",
      "orgPK": "8209",
      "regBeginDt": "2007-04-13T00:00:00",
      "regBeginDtSpecified": true,
      "regEndDt": "2009-06-01T00:00:00",
      "regEndDtSpecified": true
    },
    {
      "BrnchOfLocs": [
        {
          "city": "SHORT HILLS",
          "state": 32,
          "stateSpecified": true
        }
      ],
      "orgNm": "MORGAN STANLEY",
      "orgPK": "149777",
      "regBeginDt": "2009-06-01T00:00:00",
      "regBeginDtSpecified": true,
      "regEndDt": "2010-11-10T00:00:00",
      "regEndDtSpecified": true
    }
  ],
  "EmpHss": [
    {
      "fromDt": "03/2004",
      "toDt": "04/2007",
      "orgNm": "MERRILL LYNCH, PIERCE, FENNER & SMITH INCORPORATED",
      "city": "PARAMUS",
      "state": 32,
      "stateSpecified": true
    },
    {
      "fromDt": "04/2007",
      "toDt": "06/2009",
      "orgNm": "MORGAN STANLEY & CO., INCORPORATED",
      "city": "SHORT HILLS",
      "state": 32,
      "stateSpecified": true
    },
    {
      "fromDt": "06/2009",
      "toDt": "11/2010",
      "orgNm": "MORGAN STANLEY SMITH BARNEY",
      "city": "SHORT HILLS",
      "state": 32,
      "stateSpecified": true
    },
    {
      "fromDt": "11/2010",
      "toDt": "10/2011",
      "orgNm": "UNEMPLOYED",
      "city": "ABERDEEN",
      "state": 32,
      "stateSpecified": true
    },
    {
      "fromDt": "10/2011",
      "toDt": "08/2014",
      "orgNm": "MORGAN STANLEY SMITH BARNEY",
      "city": "SHORT HILLS",
      "state": 32,
      "stateSpecified": true
    },
    {
      "fromDt": "08/2014",
      "toDt": null,
      "orgNm": "MORGAN STANLEY SMITH BARNEY",
      "city": "NEW BRUNSWICK",
      "state": 32,
      "stateSpecified": true
    }
  ],
  "OthrBuss": {
    "OthrBus": null
  },
  "DRPs": []
}