{
  "Info": {
    "lastNm": "MCMURDIE",
    "firstNm": "SCOTT",
    "midNm": "GREGORY",
    "sufNm": null,
    "indvlPK": "3267423",
    "actvAGReg": 0,
    "link": "http://www.adviserinfo.sec.gov/IAPD/Individual/3267423"
  },
  "OthrNms": [],
  "CrntEmps": [
    {
      "CrntRgstns": [
        {
          "regAuth": 45,
          "regCat": 0,
          "st": 2,
          "stDt": "2005-01-10T00:00:00"
        },
        {
          "regAuth": 46,
          "regCat": 0,
          "st": 2,
          "stDt": "2008-01-11T00:00:00"
        },
        {
          "regAuth": 22,
          "regCat": 0,
          "st": 2,
          "stDt": "2009-04-08T00:00:00"
        },
        {
          "regAuth": 32,
          "regCat": 0,
          "st": 2,
          "stDt": "2014-05-13T00:00:00"
        },
        {
          "regAuth": 38,
          "regCat": 0,
          "st": 2,
          "stDt": "2015-01-23T00:00:00"
        }
      ],
      "BrnchOfLocs": [
        {
          "str1": "2435 NORTH CENTRAL EXPRESSWAY",
          "str2": "SUITE 1020",
          "city": "RICHARDSON",
          "state": 45,
          "stateSpecified": true,
          "cntry": "United States",
          "postlCd": "75080"
        }
      ],
      "orgNm": "FSC SECURITIES CORPORATION",
      "orgPK": "7461",
      "str1": "2300 WINDY RIDGE PKWY, STE 1100",
      "str2": null,
      "city": "ATLANTA",
      "state": 10,
      "stateSpecified": true,
      "cntry": "United States",
      "postlCd": "30339"
    }
  ],
  "Exms": [
    {
      "exmCd": 0,
      "exmNm": "Uniform Securities Agent State Law Examination",
      "exmDt": "2000-05-30T00:00:00",
      "exmDtSpecified": true
    },
    {
      "exmCd": 3,
      "exmNm": "Uniform Combined State Law Examination",
      "exmDt": "2006-02-10T00:00:00",
      "exmDtSpecified": true
    }
  ],
  "Dsgntns": [
    {
      "dsgntnNm": "Certified Financial Planner"
    }
  ],
  "PrevRgstns": [
    {
      "BrnchOfLocs": [
        {
          "city": "RICHARDSON",
          "state": 45,
          "stateSpecified": true
        }
      ],
      "orgNm": "LINCOLN FINANCIAL ADVISORS CORPORATION",
      "orgPK": "3978",
      "regBeginDt": "2000-06-06T00:00:00",
      "regBeginDtSpecified": true,
      "regEndDt": "2004-12-31T00:00:00",
      "regEndDtSpecified": true
    }
  ],
  "EmpHss": [
    {
      "fromDt": "01/2005",
      "toDt": null,
      "orgNm": "FSC SECURITIES CORPORATIPN",
      "city": "RICHARDSON",
      "state": 45,
      "stateSpecified": true
    }
  ],
  "OthrBuss": {
    "OthrBus": {
      "desc": "1) THE MCMURDIE GRP; 100 N CENTRAL EXPY STE 1214, RICHARDSON TX 75080; OWNER/PARTNER SINCE 08/2002; SALE OF GRP HEALlTH INS AND RETIRE PRO.    2) SHEA & AMP; MCMURDIE FINANCIAL--DBA NAME USED FOR THE MARKETING OF LIFE INS, GRP INS PRO AND EMPLOYEE BENEFITS. 3) SHEA & MCMURDIE RETIRE--USED FOR THE MARKETING OF CO SPONSORED RETIRE PLANS IE 401K PLANS.  4) CHURCH OF JESUS CHRIST OF LATTER DAY SAINTS; POS: COUNSELOR IN BISHOPRIC; NATURE: NON-PROF CHURCH RESP; INVEST REL: NO;  HRS: 40; SEC TRADING HRS: 0; START : 12/01/2013; ADD: 2701 N GARLAND RD, GARLAND TX 75040; DESC: I HAVE PASTORAL RESP FOR OUR CONGREGATION AT CHURCH. I WORK WITH THE BISHOP(PASTOR) WITH RESPECT TO THE ADMIN OF THE CHURCH CONGREGATION. PART OF MY RESP IS TO ACCT. FOR THE TITHES AND OFFERINGS TO THE CHURCH ALONG WITH A FEW OTHER INDIV. I CAN ALSO SIGN AS A SECOND SIGNOR ON CHECKS MADE PAYABLE BY THE CHURCH TO INDIV OR ORGS. I DO NOT MAKE THE DECISION THE CHECKS, BUT I AM AN AUTHORIZED SIGNOR. THIS ACTIVITY DOES IN NO WAY RELATE TO MY BUS. OR THE B/D.  5) THE MCMURDIE GRP INC; POS: CORP SECRETARY/TREASURER; NATURE: I AM AN EMPLOYEE OF THE MCMURDIE GRP INC. A SUB-S CORP THAT PAYS MY SALARY. ALL OF MY COMMISSIONS AND FEES ARE ASSIGNED TO THE CORP AND THEN I AM PAID; INVEST REL: NO;  HRS: 5; SEC TRADING HRS: 0; START : 01/01/2007; ADD: 100 N CENTRAL EXPY STE 1214, RICHARDSON TX 75080; DESC: AS A CORP OFFICER, I AM RESP FOR DECISIONS MADE IN OUR CORP AS THEY RELATE TO HIRING, FIRING AND CORP POLICY.  6) GARLAND ISD EDUCATION FNDN POS: Board Member NATURE: This is a NON-PROF education fndn for which I sit on as a board member. INVEST REL: No  HRS: 10 SEC TRADING HRS: 0 START : 08/01/2015 ADD: 501 South Jupiter RD, Garland TX 75042 DESC: I work with the fndn to approve the bus. of the fndn. Additionally we approve grants to the teachers and educators in the district.  7)THE MCMURDIE GRP, INC. POS: Corp Secretary/Treasurer NATURE: I am an employee of the McMurdie Grp Inc. A Sub-S corp that pays my salary. All of my commissions and fees are assigned to the corp and then I am paid. INVEST REL: No  HRS: 5 SEC TRADING HRS: 0 START : 01/01/2007 ADD: 2435 N Central EXPY, STE 1020, Richardson TX 75080 DESC: As a corp officer, i am resp for decisions made in our corp as they relate to hiring, firing and corp policy.  8)CHURCH OF JESUS CHRIST OF LATTER DAY SAINTS POS: Bishop NATURE: NON-PROF church resp INVEST REL: No  HRS: 80 SEC TRADING HRS: 0 START : 01/01/2016 ADD: 2701 N Garland RD, Garland TX 75040 DESC: I have pastoral resp for our congregation at church. I work with the leadership with respect to the ADMIN of the church congregation. Part of my resp is to acct. for the tithes and offerings to the church along with a few other INDIV. I can also sign as a second signor on checks made payable by the church to INDIV or ORGS..  This activity does in no way relate to my bus. or the B/D.  9)DBA NAME SHEA & MCMURDIE RETIRE--WE HELP DESIGN, DEVELOP, MAINTAIN, MANAGE CO RETIRE PLANS, PREDOMINANTLY 401K PLANS.  THESE ARE DONE MAINLY ON A FEE BASIS THROUGH THE CORP RIA POS: Partner - NATURE: Corp - INVEST REL: Yes  HRS: 50 SEC TRADING HRS: 40 START : 10/01/2011 ADD: 2435 N Central EXPY, STE 1020, Richardson TX 75080 DESC: Prospecting for new clients and current client support and maintenance  10)SHEA & MCMURDIE FINANCIAL IS OUR DBA NAME POS: Partner - NATURE: Corp - INVEST REL: No  HRS: 0 SEC TRADING HRS: 0 START : 03/01/2003 ADD: 2435 N Central EXPY, STE 1020, Richardson TX 75080 DESC: This name is used as a marketing name for our bus.  11)THE MCMURDIE GRP POS: Partner - NATURE: Other - S corp INVEST REL: No  HRS: 20 SEC TRADING HRS: 15 START : 01/01/2005 ADD: 2435 N Central EXPY, STE 1020, Richardson TX 75080 DESC: Sales and design of grp INS plans for CO. Secondly sales of individual life INS as part of financial plans for INDIV"
    }
  },
  "DRPs": []
}