{
  "Info": {
    "lastNm": "MILLER",
    "firstNm": "MICHAEL",
    "midNm": "LERON",
    "sufNm": null,
    "indvlPK": "3276636",
    "actvAGReg": 0,
    "link": "http://www.adviserinfo.sec.gov/IAPD/Individual/3276636"
  },
  "OthrNms": [],
  "CrntEmps": [
    {
      "CrntRgstns": [
        {
          "regAuth": 15,
          "regCat": 0,
          "st": 2,
          "stDt": "2015-03-20T00:00:00"
        }
      ],
      "BrnchOfLocs": [
        {
          "str1": "325 N. MILWAUKEE AVE.",
          "str2": "HUB",
          "city": "LIBERTYVILLE",
          "state": 15,
          "stateSpecified": true,
          "cntry": "United States",
          "postlCd": "60048"
        }
      ],
      "orgNm": "PNC INVESTMENTS",
      "orgPK": "129052",
      "str1": "300 FIFTH AVENUE",
      "str2": "26TH FLOOR",
      "city": "PITTSBURGH",
      "state": 39,
      "stateSpecified": true,
      "cntry": "United States",
      "postlCd": "15222-2722"
    }
  ],
  "Exms": [
    {
      "exmCd": 0,
      "exmNm": "Uniform Securities Agent State Law Examination",
      "exmDt": "2006-08-23T00:00:00",
      "exmDtSpecified": true
    },
    {
      "exmCd": 2,
      "exmNm": "Uniform Investment Adviser Law Examination",
      "exmDt": "2013-11-15T00:00:00",
      "exmDtSpecified": true
    }
  ],
  "Dsgntns": [],
  "PrevRgstns": [
    {
      "BrnchOfLocs": [
        {
          "city": "LIBERTYVILLE",
          "state": 15,
          "stateSpecified": true
        },
        {
          "city": "PALM BEACH GARDENS",
          "state": 9,
          "stateSpecified": true
        },
        {
          "city": "PALM BEACH GARDENS",
          "state": 9,
          "stateSpecified": true
        }
      ],
      "orgNm": "MONEY CONCEPTS CAPITAL CORP",
      "orgPK": "12963",
      "regBeginDt": "2013-11-16T00:00:00",
      "regBeginDtSpecified": true,
      "regEndDt": "2015-02-17T00:00:00",
      "regEndDtSpecified": true
    }
  ],
  "EmpHss": [
    {
      "fromDt": "07/2006",
      "toDt": "01/2012",
      "orgNm": "CHASE BANK",
      "city": "LIBERTYVILLE",
      "state": 15,
      "stateSpecified": true
    },
    {
      "fromDt": "07/2006",
      "toDt": "01/2012",
      "orgNm": "JP MORGAN CHASE",
      "city": "LIBERTYVILLE",
      "state": 15,
      "stateSpecified": true
    },
    {
      "fromDt": "01/2012",
      "toDt": "05/2013",
      "orgNm": "FIFTH THIRD BANK",
      "city": "GURNEE",
      "state": 15,
      "stateSpecified": true
    },
    {
      "fromDt": "02/2012",
      "toDt": "05/2013",
      "orgNm": "FIFTH THIRD SECURITIES",
      "city": "GURNEE",
      "state": 15,
      "stateSpecified": true
    },
    {
      "fromDt": "06/2013",
      "toDt": "02/2015",
      "orgNm": "MONEY CONCEPTS CAPITAL CORP",
      "city": "PALM BEACH GARDENS",
      "state": 9,
      "stateSpecified": true
    },
    {
      "fromDt": "02/2015",
      "toDt": null,
      "orgNm": "PNC BANK",
      "city": "LIBERTYVILLE",
      "state": 15,
      "stateSpecified": true
    },
    {
      "fromDt": "02/2015",
      "toDt": null,
      "orgNm": "PNC INVESTMENTS",
      "city": "LIBERTYVILLE",
      "state": 15,
      "stateSpecified": true
    }
  ],
  "OthrBuss": {
    "OthrBus": null
  },
  "DRPs": []
}