{
  "Info": {
    "lastNm": "HON",
    "firstNm": "CHING",
    "midNm": "LOU",
    "sufNm": null,
    "indvlPK": "3277337",
    "actvAGReg": 0,
    "link": "http://www.adviserinfo.sec.gov/IAPD/Individual/3277337"
  },
  "OthrNms": [
    {
      "lastNm": "GOH",
      "firstNm": "CHING",
      "midNm": "LOU",
      "sufNm": null
    },
    {
      "lastNm": "GOH",
      "firstNm": "CHING",
      "midNm": "LOU",
      "sufNm": null
    },
    {
      "lastNm": "GOH",
      "firstNm": "JENNIE",
      "midNm": null,
      "sufNm": null
    },
    {
      "lastNm": "LOU",
      "firstNm": "CHING",
      "midNm": "MEI",
      "sufNm": null
    }
  ],
  "CrntEmps": [
    {
      "CrntRgstns": [
        {
          "regAuth": 4,
          "regCat": 0,
          "st": 2,
          "stDt": "2014-09-04T00:00:00"
        }
      ],
      "BrnchOfLocs": [
        {
          "str1": "1994 TICE VALLEY BLVD.",
          "str2": null,
          "city": "WALNUT CREEK",
          "state": 4,
          "stateSpecified": true,
          "cntry": "United States",
          "postlCd": "94595"
        }
      ],
      "orgNm": "J.P. MORGAN SECURITIES LLC",
      "orgPK": "79",
      "str1": "277 PARK AVENUE",
      "str2": null,
      "city": "NEW YORK",
      "state": 35,
      "stateSpecified": true,
      "cntry": "United States",
      "postlCd": "10172"
    }
  ],
  "Exms": [
    {
      "exmCd": 0,
      "exmNm": "Uniform Securities Agent State Law Examination",
      "exmDt": "1999-11-17T00:00:00",
      "exmDtSpecified": true
    },
    {
      "exmCd": 3,
      "exmNm": "Uniform Combined State Law Examination",
      "exmDt": "2006-03-09T00:00:00",
      "exmDtSpecified": true
    }
  ],
  "Dsgntns": [],
  "PrevRgstns": [
    {
      "BrnchOfLocs": [
        {
          "city": "SAN FRANCISCO",
          "state": 4,
          "stateSpecified": true
        },
        {
          "city": "SAN FRANCISCO",
          "state": 4,
          "stateSpecified": true
        }
      ],
      "orgNm": "CITICORP INVESTMENT SERVICES",
      "orgPK": "23988",
      "regBeginDt": "2006-04-19T00:00:00",
      "regBeginDtSpecified": true,
      "regEndDt": "2007-05-29T00:00:00",
      "regEndDtSpecified": true
    },
    {
      "BrnchOfLocs": [
        {
          "city": "SAN FRANCISCO",
          "state": 4,
          "stateSpecified": true
        },
        {
          "city": "SAN FRANCISCO",
          "state": 4,
          "stateSpecified": true
        },
        {
          "city": "SAN FRANCISCO",
          "state": 4,
          "stateSpecified": true
        }
      ],
      "orgNm": "CITIGROUP GLOBAL MARKETS INC.",
      "orgPK": "7059",
      "regBeginDt": "2007-05-29T00:00:00",
      "regBeginDtSpecified": true,
      "regEndDt": "2008-09-17T00:00:00",
      "regEndDtSpecified": true
    },
    {
      "BrnchOfLocs": [
        {
          "city": "DANVILLE",
          "state": 4,
          "stateSpecified": true
        }
      ],
      "orgNm": "CHASE INVESTMENT SERVICES CORP.",
      "orgPK": "25574",
      "regBeginDt": "2009-12-09T00:00:00",
      "regBeginDtSpecified": true,
      "regEndDt": "2012-09-18T00:00:00",
      "regEndDtSpecified": true
    }
  ],
  "EmpHss": [
    {
      "fromDt": "08/2005",
      "toDt": "05/2007",
      "orgNm": "CITICORP INVESTMENT SERVICES",
      "city": "SAN FRANCISCO",
      "state": 4,
      "stateSpecified": true
    },
    {
      "fromDt": "05/2007",
      "toDt": "09/2008",
      "orgNm": "CITIGROUP GLOBAL MARKETS INC.",
      "city": "SAN FRANCISCO",
      "state": 4,
      "stateSpecified": true
    },
    {
      "fromDt": "09/2008",
      "toDt": "11/2009",
      "orgNm": "UNEMPLOYED",
      "city": "DANVILLE",
      "state": 4,
      "stateSpecified": true
    },
    {
      "fromDt": "11/2009",
      "toDt": "09/2012",
      "orgNm": "CHASE INVESTMENT SERVICES CORP.",
      "city": "DANVILLE",
      "state": 4,
      "stateSpecified": true
    },
    {
      "fromDt": "11/2009",
      "toDt": null,
      "orgNm": "JPMORGAN CHASE BANK NA",
      "city": "WALNUT CREEK",
      "state": 4,
      "stateSpecified": true
    },
    {
      "fromDt": "08/2014",
      "toDt": null,
      "orgNm": "JP MORGAN SECURITIES LLC",
      "city": "WALNUT CREEK",
      "state": 4,
      "stateSpecified": true
    }
  ],
  "OthrBuss": {
    "OthrBus": {
      "desc": "NAME OF ENTITY: (SELF) POSITION: OWNER / LANDLORD - RENTAL PROPERTY  DETAILS: 1081 DANVILLE, CA.  start date 01/01/2016, 0 hours per month spent on property, 0 hours during securities trading, investment related."
    }
  },
  "DRPs": []
}