{
  "Info": {
    "lastNm": "MCNEELY",
    "firstNm": "JOHN",
    "midNm": "MICHAEL",
    "sufNm": null,
    "indvlPK": "3277132",
    "actvAGReg": 0,
    "link": "http://www.adviserinfo.sec.gov/IAPD/Individual/3277132"
  },
  "OthrNms": [
    {
      "lastNm": "MCNEELY",
      "firstNm": "MIKE",
      "midNm": null,
      "sufNm": null
    }
  ],
  "CrntEmps": [
    {
      "CrntRgstns": [
        {
          "regAuth": 28,
          "regCat": 0,
          "st": 2,
          "stDt": "2001-12-31T00:00:00"
        },
        {
          "regAuth": 16,
          "regCat": 0,
          "st": 2,
          "stDt": "2010-09-15T00:00:00"
        }
      ],
      "BrnchOfLocs": [
        {
          "str1": "134 SUNSET AVE",
          "str2": null,
          "city": "ASHEBORO",
          "state": 28,
          "stateSpecified": true,
          "cntry": "United States",
          "postlCd": "27203"
        }
      ],
      "orgNm": "AXA ADVISORS, LLC",
      "orgPK": "6627",
      "str1": "1290 AVENUE OF THE AMERICAS",
      "str2": null,
      "city": "NEW YORK",
      "state": 35,
      "stateSpecified": true,
      "cntry": "United States",
      "postlCd": "10104"
    }
  ],
  "Exms": [
    {
      "exmCd": 3,
      "exmNm": "Uniform Combined State Law Examination",
      "exmDt": "2001-05-15T00:00:00",
      "exmDtSpecified": true
    }
  ],
  "Dsgntns": [],
  "PrevRgstns": [],
  "EmpHss": [
    {
      "fromDt": "03/2001",
      "toDt": null,
      "orgNm": "AXA ADVISORS, LLC",
      "city": "NEW YORK",
      "state": 35,
      "stateSpecified": true
    }
  ],
  "OthrBuss": {
    "OthrBus": {
      "desc": "INSURANCE BROKERAGE BUSINESS BOY SCOUTS OF AMERICA RANDOLPH NC DIST. (COUNSELOR);  FIRST PRESBYTERIAN CHURCH (COMMITTEE MEMBER)"
    }
  },
  "DRPs": []
}