{
  "Info": {
    "lastNm": "RAGEN",
    "firstNm": "BROOKS",
    "midNm": "GEER",
    "sufNm": null,
    "indvlPK": "370117",
    "actvAGReg": 0,
    "link": "http://www.adviserinfo.sec.gov/IAPD/Individual/370117"
  },
  "OthrNms": [],
  "CrntEmps": [
    {
      "CrntRgstns": [
        {
          "regAuth": 45,
          "regCat": 0,
          "st": 3,
          "stDt": "2014-11-07T00:00:00"
        },
        {
          "regAuth": 49,
          "regCat": 0,
          "st": 2,
          "stDt": "2014-11-07T00:00:00"
        }
      ],
      "BrnchOfLocs": [
        {
          "str1": "925 Fourth Ave Ste 3600",
          "str2": null,
          "city": "Seattle",
          "state": 49,
          "stateSpecified": true,
          "cntry": "United States",
          "postlCd": "98104"
        }
      ],
      "orgNm": "ROBERT W. BAIRD & CO. INCORPORATED",
      "orgPK": "8158",
      "str1": "777 E. WISCONSIN AVE",
      "str2": null,
      "city": "MILWAUKEE",
      "state": 50,
      "stateSpecified": true,
      "cntry": "United States",
      "postlCd": "53202-5391"
    }
  ],
  "Exms": [
    {
      "exmCd": 0,
      "exmNm": "Uniform Securities Agent State Law Examination",
      "exmDt": "1983-05-16T00:00:00",
      "exmDtSpecified": true
    }
  ],
  "Dsgntns": [],
  "PrevRgstns": [
    {
      "BrnchOfLocs": [
        {
          "city": "SEATTLE",
          "state": 49,
          "stateSpecified": true
        },
        {
          "city": "SEATTLE",
          "state": 49,
          "stateSpecified": true
        }
      ],
      "orgNm": "MCADAMS WRIGHT RAGEN, INC.",
      "orgPK": "45899",
      "regBeginDt": "1998-11-05T00:00:00",
      "regBeginDtSpecified": true,
      "regEndDt": "2014-11-07T00:00:00",
      "regEndDtSpecified": true
    }
  ],
  "EmpHss": [
    {
      "fromDt": "07/1998",
      "toDt": "11/2014",
      "orgNm": "MCADAMS WRIGHT RAGEN, INC.",
      "city": "SEATTLE",
      "state": 49,
      "stateSpecified": true
    },
    {
      "fromDt": "11/2014",
      "toDt": null,
      "orgNm": "ROBERT W. BAIRD & CO. INCORPORATED",
      "city": "Seattle",
      "state": 49,
      "stateSpecified": true
    }
  ],
  "OthrBuss": {
    "OthrBus": {
      "desc": "1. PP HOLDINGS LLC REAL ESTATE AND SECURITIES  ACTS IN THE CAPACITY AS MANAGER FOR AN INDEFINITE TERM  2. NAME AND ADDRESS: SEATTLE ART MUSEUM 1300 FIRST AVENUE SEATTLE, WA 96101  NATURE OF ENTITY: ART MUSEUM   RESPONSIBILITIES IN THIS ROLE: BOARD MEMBER, ATTEND AND PARTICIPATE IN QUARTERLY MEETINGS FOR FINANCE COMMITTEE, INVESTMENT COMMITTEE (ADVICE IN MAKING POLICY), AUDIT COMMITTEE, AND MAJOR GIFTS COMMITTEE.   HOURS DEVOTED: 40 HOURS A YEAR. NONE DURING SECURITIES TRADING HOURS.    3. SEATTLE CANCER CARE ALLIANCE  IN THE CAPACITY AS A TRUSTEE FOR A TERM OF 3 YEARS  4. THE NATURE CONSERVANCY  AN ENVIRONMENTAL PROTECTION ORGANIZATION ACTING IN THE CAPACITY AS VOLUNTEER FOR AN INDEFINITE PERIOD OF TIME  5. UOFW PRESS - AUTHOR OF A BOOK"
    }
  },
  "DRPs": []
}