{
  "Info": {
    "lastNm": "RENNER",
    "firstNm": "JOSEPH",
    "midNm": "STEVEN",
    "sufNm": "SR",
    "indvlPK": "374159",
    "actvAGReg": 1,
    "link": "http://www.adviserinfo.sec.gov/IAPD/Individual/374159"
  },
  "OthrNms": [
    {
      "lastNm": "RENNER",
      "firstNm": "JOSEPH",
      "midNm": "STEVEN",
      "sufNm": null
    },
    {
      "lastNm": "RENNER",
      "firstNm": "STEVE",
      "midNm": null,
      "sufNm": null
    }
  ],
  "CrntEmps": [
    {
      "CrntRgstns": [
        {
          "regAuth": 18,
          "regCat": 0,
          "st": 2,
          "stDt": "2006-08-22T00:00:00"
        },
        {
          "regAuth": 44,
          "regCat": 0,
          "st": 2,
          "stDt": "2006-09-12T00:00:00"
        }
      ],
      "BrnchOfLocs": [
        {
          "str1": "4301 HILLSBORO PIKE",
          "str2": "SUITE 210",
          "city": "NASHVILLE",
          "state": 44,
          "stateSpecified": true,
          "cntry": "United States",
          "postlCd": "37215"
        }
      ],
      "orgNm": "COORDINATED WEALTH MANAGEMENT, L.L.C.",
      "orgPK": "141348",
      "str1": "4301 HILLSBORO PIKE",
      "str2": "SUITE 210",
      "city": "NASHVILLE",
      "state": 44,
      "stateSpecified": true,
      "cntry": "United States",
      "postlCd": "37215"
    }
  ],
  "Exms": [
    {
      "exmCd": 0,
      "exmNm": "Uniform Securities Agent State Law Examination",
      "exmDt": "1992-07-21T00:00:00",
      "exmDtSpecified": true
    }
  ],
  "Dsgntns": [],
  "PrevRgstns": [
    {
      "BrnchOfLocs": [
        {
          "city": "BRENTWOOD",
          "state": 44,
          "stateSpecified": true
        },
        {
          "city": "BRENTWOOD",
          "state": 44,
          "stateSpecified": true
        }
      ],
      "orgNm": "LPL FINANCIAL LLC",
      "orgPK": "6413",
      "regBeginDt": "2004-04-06T00:00:00",
      "regBeginDtSpecified": true,
      "regEndDt": "2006-09-08T00:00:00",
      "regEndDtSpecified": true
    }
  ],
  "EmpHss": [
    {
      "fromDt": "10/1998",
      "toDt": null,
      "orgNm": "Steve Renner & Associates",
      "city": "Nashville",
      "state": 44,
      "stateSpecified": true
    },
    {
      "fromDt": "07/2006",
      "toDt": null,
      "orgNm": "COORDINATED WEALTH MANAGEMENT, LLC",
      "city": "Nashville",
      "state": 44,
      "stateSpecified": true
    }
  ],
  "OthrBuss": {
    "OthrBus": null
  },
  "DRPs": [
    {
      "hasRegAction": 1,
      "hasRegActionSpecified": true,
      "hasCriminal": 1,
      "hasCriminalSpecified": true,
      "hasBankrupt": 1,
      "hasBankruptSpecified": true,
      "hasCivilJudc": 1,
      "hasCivilJudcSpecified": true,
      "hasBond": 1,
      "hasBondSpecified": true,
      "hasJudgment": 1,
      "hasJudgmentSpecified": true,
      "hasInvstgn": 1,
      "hasInvstgnSpecified": true,
      "hasCustComp": 0,
      "hasCustCompSpecified": true,
      "hasTermination": 1,
      "hasTerminationSpecified": true
    }
  ]
}