{
  "Info": {
    "lastNm": "MOFFATT",
    "firstNm": "JOSH",
    "midNm": "THOMAS",
    "sufNm": null,
    "indvlPK": "4008120",
    "actvAGReg": 0,
    "link": "http://www.adviserinfo.sec.gov/IAPD/Individual/4008120"
  },
  "OthrNms": [
    {
      "lastNm": "MOFFATT",
      "firstNm": "JOSHUA",
      "midNm": "THOMAS",
      "sufNm": null
    }
  ],
  "CrntEmps": [
    {
      "CrntRgstns": [
        {
          "regAuth": 33,
          "regCat": 0,
          "st": 2,
          "stDt": "2006-01-05T00:00:00"
        },
        {
          "regAuth": 5,
          "regCat": 0,
          "st": 2,
          "stDt": "2006-01-11T00:00:00"
        }
      ],
      "BrnchOfLocs": [
        {
          "str1": "9875 SCHWAB WAY",
          "str2": null,
          "city": "LONE TREE",
          "state": 5,
          "stateSpecified": true,
          "cntry": "United States",
          "postlCd": "80124"
        }
      ],
      "orgNm": "CHARLES SCHWAB & CO., INC.",
      "orgPK": "5393",
      "str1": "211 MAIN STREET",
      "str2": null,
      "city": "SAN FRANCISCO",
      "state": 4,
      "stateSpecified": true,
      "cntry": "United States",
      "postlCd": "94105"
    }
  ],
  "Exms": [
    {
      "exmCd": 0,
      "exmNm": "Uniform Securities Agent State Law Examination",
      "exmDt": "1999-11-04T00:00:00",
      "exmDtSpecified": true
    },
    {
      "exmCd": 3,
      "exmNm": "Uniform Combined State Law Examination",
      "exmDt": "2005-09-26T00:00:00",
      "exmDtSpecified": true
    }
  ],
  "Dsgntns": [
    {
      "dsgntnNm": "Certified Financial Planner"
    }
  ],
  "PrevRgstns": [],
  "EmpHss": [
    {
      "fromDt": "07/1999",
      "toDt": null,
      "orgNm": "CHARLES SCHWAB & CO., INC.",
      "city": "LONE TREE",
      "state": 5,
      "stateSpecified": true
    },
    {
      "fromDt": "09/2005",
      "toDt": null,
      "orgNm": "CHARLES SCHWAB BANK",
      "city": "LONE TREE",
      "state": 5,
      "stateSpecified": true
    },
    {
      "fromDt": "06/2010",
      "toDt": null,
      "orgNm": "RENTALS",
      "city": "LITTLETON",
      "state": 5,
      "stateSpecified": true
    },
    {
      "fromDt": "11/2011",
      "toDt": null,
      "orgNm": "RENTAL PROPERTY",
      "city": "LITTLETON",
      "state": 5,
      "stateSpecified": true
    },
    {
      "fromDt": "03/2012",
      "toDt": "03/2013",
      "orgNm": "SELF",
      "city": "LITTLETON",
      "state": 5,
      "stateSpecified": true
    }
  ],
  "OthrBuss": {
    "OthrBus": {
      "desc": "(1) CHARLES SCHWAB BANK, INVESTMENT RELATED, 03/01/2012, BANK PRODUCTS, DUAL EMPLOYEE,  REFERRALS OF HELOC, MORTGAGES, INVESTOR CHECKING PRODUCTS, APPROX 20 HOURS PER MONTH; (2) REAL ESTATE RENTALS, NOT INVESTMENT RELATED, DENVER, COLORADO, RENTALS, 06/17/2010, OWNER OF RENTAL PROPERTIES, LESS THAN 10 HOURS PER MONTH, 0 HOURS DURING SECURITIES TRADING HOURS.  OWN RENTAL (3) RENTAL, NOT INVESTMENT RELATED, LITTLETON, COLORADO, RENTAL PROPERTY, 11/30/2011, OWNER OF RENTAL PROPERTY, LESS THAN 10 HOURS PER MONTH, 0 HOURS DURING SECURITIES TRADING HOURS. OWN RENTAL (4) RENTAL, NOT INVESTMENT RELATED, LITTLETON, COLORADO, RENTAL PROPERTY, OWNER,10/04/2014,  LESS THAN 20 HOURS PER MONTH, 0 HOURS DURING SECURITIES TRADING HOURS, RENTAL PROPERTY. LANDLORD"
    }
  },
  "DRPs": []
}