{
  "Info": {
    "lastNm": "LINDERMANN",
    "firstNm": "SCOTT",
    "midNm": "AARON",
    "sufNm": null,
    "indvlPK": "4016726",
    "actvAGReg": 0,
    "link": "http://www.adviserinfo.sec.gov/IAPD/Individual/4016726"
  },
  "OthrNms": [],
  "CrntEmps": [
    {
      "CrntRgstns": [
        {
          "regAuth": 39,
          "regCat": 0,
          "st": 2,
          "stDt": "2013-08-07T00:00:00"
        }
      ],
      "BrnchOfLocs": [
        {
          "str1": "235 ST. CHARLES WAY",
          "str2": "SUITE #200",
          "city": "YORK",
          "state": 39,
          "stateSpecified": true,
          "cntry": "United States",
          "postlCd": "17402"
        }
      ],
      "orgNm": "STIFEL, NICOLAUS & COMPANY, INCORPORATED",
      "orgPK": "793",
      "str1": "501 N BROADWAY",
      "str2": null,
      "city": "ST LOUIS",
      "state": 25,
      "stateSpecified": true,
      "cntry": "United States",
      "postlCd": "63102"
    }
  ],
  "Exms": [
    {
      "exmCd": 0,
      "exmNm": "Uniform Securities Agent State Law Examination",
      "exmDt": "1999-12-13T00:00:00",
      "exmDtSpecified": true
    },
    {
      "exmCd": 2,
      "exmNm": "Uniform Investment Adviser Law Examination",
      "exmDt": "2006-07-05T00:00:00",
      "exmDtSpecified": true
    }
  ],
  "Dsgntns": [],
  "PrevRgstns": [
    {
      "BrnchOfLocs": [
        {
          "city": "DOVER",
          "state": 39,
          "stateSpecified": true
        },
        {
          "city": "YORK",
          "state": 39,
          "stateSpecified": true
        },
        {
          "city": "YORK",
          "state": 39,
          "stateSpecified": true
        }
      ],
      "orgNm": "JANNEY MONTGOMERY SCOTT LLC",
      "orgPK": "463",
      "regBeginDt": "2006-07-06T00:00:00",
      "regBeginDtSpecified": true,
      "regEndDt": "2013-09-05T00:00:00",
      "regEndDtSpecified": true
    }
  ],
  "EmpHss": [
    {
      "fromDt": "12/2000",
      "toDt": "08/2013",
      "orgNm": "JANNEY MONTGOMERY SCOTT LLC",
      "city": "PHILADELPHIA",
      "state": 39,
      "stateSpecified": true
    },
    {
      "fromDt": "08/2013",
      "toDt": null,
      "orgNm": "STIFEL NICOLAUS & CO INC",
      "city": "YORK",
      "state": 39,
      "stateSpecified": true
    }
  ],
  "OthrBuss": {
    "OthrBus": {
      "desc": "REAL ESTATE - OWNER. COLLECTS RENT, FIXES PROBLEMS, MAINTENANCE. LESS THAN 1-2 HRS MONTHLY. COMPENSATED. 2. BOB HOFFMAN YMCA; BOARD MEMBER; HELP WITH DECISIONS IN REGARD TO PROGRAMS WITHIN THE ORGANIZATION; 5 HOURS PER MONTH; NOT DURING SECURITIES TRADING HOURS."
    }
  },
  "DRPs": [
    {
      "hasRegAction": 1,
      "hasRegActionSpecified": true,
      "hasCriminal": 1,
      "hasCriminalSpecified": true,
      "hasBankrupt": 1,
      "hasBankruptSpecified": true,
      "hasCivilJudc": 1,
      "hasCivilJudcSpecified": true,
      "hasBond": 1,
      "hasBondSpecified": true,
      "hasJudgment": 1,
      "hasJudgmentSpecified": true,
      "hasInvstgn": 1,
      "hasInvstgnSpecified": true,
      "hasCustComp": 1,
      "hasCustCompSpecified": true,
      "hasTermination": 0,
      "hasTerminationSpecified": true
    }
  ]
}