{
  "Info": {
    "lastNm": "CHILTON",
    "firstNm": "JOHN",
    "midNm": "EDWARD",
    "sufNm": null,
    "indvlPK": "4018222",
    "actvAGReg": 0,
    "link": "http://www.adviserinfo.sec.gov/IAPD/Individual/4018222"
  },
  "OthrNms": [],
  "CrntEmps": [
    {
      "CrntRgstns": [
        {
          "regAuth": 18,
          "regCat": 0,
          "st": 2,
          "stDt": "2014-07-03T00:00:00"
        },
        {
          "regAuth": 3,
          "regCat": 0,
          "st": 2,
          "stDt": "2014-07-07T00:00:00"
        },
        {
          "regAuth": 4,
          "regCat": 0,
          "st": 2,
          "stDt": "2014-07-08T00:00:00"
        }
      ],
      "BrnchOfLocs": [
        {
          "str1": "2600 MEIDINGER TOWER",
          "str2": "462 SOUTH FOURTH STREET",
          "city": "LOUISVILLE",
          "state": 18,
          "stateSpecified": true,
          "cntry": "United States",
          "postlCd": "40202"
        }
      ],
      "orgNm": "MWM ADVISORY",
      "orgPK": "166411",
      "str1": "2600 MEIDINGER TOWER",
      "str2": "462 SOUTH FOURTH STREET",
      "city": "LOUISVILLE",
      "state": 18,
      "stateSpecified": true,
      "cntry": "United States",
      "postlCd": "40202"
    },
    {
      "CrntRgstns": [
        {
          "regAuth": 18,
          "regCat": 0,
          "st": 2,
          "stDt": "2012-05-31T00:00:00"
        }
      ],
      "BrnchOfLocs": [
        {
          "str1": "462 S.4TH ST,STE 2600",
          "str2": null,
          "city": "LOUISVILLE",
          "state": 18,
          "stateSpecified": true,
          "cntry": "United States",
          "postlCd": "40202-3452"
        }
      ],
      "orgNm": "LPL FINANCIAL LLC",
      "orgPK": "6413",
      "str1": "75 STATE STREET, 22ND FLOOR",
      "str2": null,
      "city": "BOSTON",
      "state": 20,
      "stateSpecified": true,
      "cntry": "United States",
      "postlCd": "02109"
    }
  ],
  "Exms": [
    {
      "exmCd": 3,
      "exmNm": "Uniform Combined State Law Examination",
      "exmDt": "1999-12-14T00:00:00",
      "exmDtSpecified": true
    }
  ],
  "Dsgntns": [],
  "PrevRgstns": [
    {
      "BrnchOfLocs": [
        {
          "city": "LOUISVILLE",
          "state": 18,
          "stateSpecified": true
        }
      ],
      "orgNm": "TRUSTED SECURITIES ADVISORS CORP.",
      "orgPK": "24049",
      "regBeginDt": "2002-10-29T00:00:00",
      "regBeginDtSpecified": true,
      "regEndDt": "2003-12-02T00:00:00",
      "regEndDtSpecified": true
    },
    {
      "BrnchOfLocs": [
        {
          "city": "LOUISVILLE",
          "state": 18,
          "stateSpecified": true
        }
      ],
      "orgNm": "MONY SECURITIES CORPORATION",
      "orgPK": "4386",
      "regBeginDt": "2003-12-02T00:00:00",
      "regBeginDtSpecified": true,
      "regEndDt": "2005-01-13T00:00:00",
      "regEndDtSpecified": true
    }
  ],
  "EmpHss": [
    {
      "fromDt": "01/2000",
      "toDt": null,
      "orgNm": "MERITRUST WEALTH MANAGEMENT",
      "city": "LOUISVILLE",
      "state": 18,
      "stateSpecified": true
    },
    {
      "fromDt": "02/2005",
      "toDt": null,
      "orgNm": "LPL FINANCIAL LLC",
      "city": "LOUISVILLE",
      "state": 18,
      "stateSpecified": true
    },
    {
      "fromDt": "12/2015",
      "toDt": null,
      "orgNm": "Kentucky State Government",
      "city": "Frankfort",
      "state": 18,
      "stateSpecified": true
    }
  ],
  "OthrBuss": {
    "OthrBus": {
      "desc": "1. 11/2/2005 - Prodigal Ministries, Inc. - Not Investment Related - For-Profit Board Member - Time Spent 1%.   2. 1/29/2010: Meritrust Wealth Management - Investment Related - At Reported Business Location(s) - DBA for LPL Business (entity for LPL business).    3. 2/19/2010: Meritrust LLC - Investment Related - At Reported Business Location(s) - DBA for LPL Business (entity for LPL business).    4. 8/31/2011: Mountjoy Chilton Medley LLP - Investment Related - At Reported Business Location(s) - CPA Affiliate Program - Time Spent 95% - Partner in CPA Firm that provides tax, accounting, auditing, business valuations, litigation support, estate planning, financial planning, business planning, succession planning, M&A assistance.    5.  9/30/2014: MWM Advisory - DBA: Meritrust Wealth Management - Investment Related - At Reported Business Location(s) - Registered Investment Advisor Hybrid - Started 07/24/2014 - 160 Hours Per Month/8 Hours During Securities Trading - Serve as an Investment Advisor Representative under Meritrust LLC RIA. Activities may include financial planning, rendering investment advice for a fee, retirement planning consulting, or other related financial consulting.  6.  9/30/2014: MWM Advisory - DBA: Meritrust, LLC - Investment Related - At Reported Business Location(s) - Registered Investment Advisor Hybrid - Started 7/24/2014 - 160 Hours Per Month/8 Hours During Securities Trading - Serve as an Investment Advisor Representative under Meritrust LLC RIA. Activities may include financial planning, rendering investment advice for a fee, retirement planning consulting, or other related financial consulting.    8. 01/08/2016 * Kentucky State Government * Other - Director * NOT INV REL * AT REPORTED BUSINESS LOCATION(S) * START 12/08/2015 * 162 HRS/MO; 40 HRS/MO DURING SECS TRDG HRS."
    }
  },
  "DRPs": []
}