{
  "Info": {
    "lastNm": "ROGAT",
    "firstNm": "KENNETH",
    "midNm": "LEE",
    "sufNm": null,
    "indvlPK": "402626",
    "actvAGReg": 0,
    "link": "http://www.adviserinfo.sec.gov/IAPD/Individual/402626"
  },
  "OthrNms": [],
  "CrntEmps": [
    {
      "CrntRgstns": [
        {
          "regAuth": 36,
          "regCat": 0,
          "st": 2,
          "stDt": "2005-09-07T00:00:00"
        }
      ],
      "BrnchOfLocs": [
        {
          "str1": "5885 LANDERBROOK DRIVE",
          "str2": "SUITE 200",
          "city": "MAYFIELD HEIGHTS",
          "state": 36,
          "stateSpecified": true,
          "cntry": "United States",
          "postlCd": "44124"
        }
      ],
      "orgNm": "SECURITIES AMERICA ADVISORS, INC.",
      "orgPK": "110518",
      "str1": "12325 PORT GRACE BLVD.",
      "str2": null,
      "city": "LA VISTA",
      "state": 30,
      "stateSpecified": true,
      "cntry": "United States",
      "postlCd": "68128-8204"
    }
  ],
  "Exms": [
    {
      "exmCd": 0,
      "exmNm": "Uniform Securities Agent State Law Examination",
      "exmDt": "2007-01-15T00:00:00",
      "exmDtSpecified": true
    }
  ],
  "Dsgntns": [],
  "PrevRgstns": [
    {
      "BrnchOfLocs": [
        {
          "city": "CLEVELAND",
          "state": 36,
          "stateSpecified": true
        }
      ],
      "orgNm": "LINCOLN FINANCIAL ADVISORS CORPORATION",
      "orgPK": "3978",
      "regBeginDt": "2000-01-01T00:00:00",
      "regBeginDtSpecified": true,
      "regEndDt": "2005-09-02T00:00:00",
      "regEndDtSpecified": true
    }
  ],
  "EmpHss": [
    {
      "fromDt": "04/1966",
      "toDt": null,
      "orgNm": "GOODMAN, ROGAT CO",
      "city": "CLEVELAND",
      "state": 36,
      "stateSpecified": true
    },
    {
      "fromDt": "08/2005",
      "toDt": null,
      "orgNm": "SECURITIES AMERICA, INC.",
      "city": "MAYFIELD HEIGHTS",
      "state": 36,
      "stateSpecified": true
    },
    {
      "fromDt": "09/2005",
      "toDt": null,
      "orgNm": "CEDAR BROOK FINANCIAL PARTNERS, LLC",
      "city": "MAYFIELD HEIGHTS",
      "state": 36,
      "stateSpecified": true
    },
    {
      "fromDt": "09/2005",
      "toDt": null,
      "orgNm": "SECURITIES AMERICA ADVISORS INC.",
      "city": "MAYFIELD HEIGHTS",
      "state": 36,
      "stateSpecified": true
    },
    {
      "fromDt": "06/2006",
      "toDt": null,
      "orgNm": "TAMSEK",
      "city": "CLEVELAND",
      "state": 36,
      "stateSpecified": true
    }
  ],
  "OthrBuss": {
    "OthrBus": {
      "desc": "CEDARBROOK/ASH BROKERAGE; INSURANCE AGENT; CLEVELAND, OH; BEGINNING AUGUST 2008. -80% TIME SPENT   ROGAT & COMPANY INC; INSURANCE AGENT; CLEVELAND, OH; BEGINNING JANUARY 1960. - 80% TIME SPENT    SECURITIES AMERICA ADVISORS, INC. - INVESTMENT ADVISORY - INVESTMENT ADVISOR REPRESENTATIVE - INVESTMENT RELATED - START DATE: 08/2005 - LOCATED AT 5885 LANDERBROOK DR STE 200, MAYFIELD HEIGHTS OH 44124-4031    CEDAR BROOK GROUP  POSITION: FINANCIAL ADVISORY NATURE: FINANCIAL PLANNING INVESTMENT ADVISORY SERVICES AND INSURANCE INVESTMENT RELATED: YES NUMBER OF HOURS: 100 SECURITIES TRADING HOURS: 12 START DATE: 07/15/2015  ADDRESS: 5885 LANDERBROOK DR  SUITE 200, CLEVELAND OH 44124  DESCRIPTION: FINANCIAL PLANNING, INVESTMENT ADVISORY SERVICES AND INSURANCE"
    }
  },
  "DRPs": [
    {
      "hasRegAction": 1,
      "hasRegActionSpecified": true,
      "hasCriminal": 1,
      "hasCriminalSpecified": true,
      "hasBankrupt": 1,
      "hasBankruptSpecified": true,
      "hasCivilJudc": 1,
      "hasCivilJudcSpecified": true,
      "hasBond": 1,
      "hasBondSpecified": true,
      "hasJudgment": 1,
      "hasJudgmentSpecified": true,
      "hasInvstgn": 1,
      "hasInvstgnSpecified": true,
      "hasCustComp": 0,
      "hasCustCompSpecified": true,
      "hasTermination": 1,
      "hasTerminationSpecified": true
    }
  ]
}