{
  "Info": {
    "lastNm": "SHORE",
    "firstNm": "MATT",
    "midNm": "A",
    "sufNm": null,
    "indvlPK": "4027284",
    "actvAGReg": 0,
    "link": "http://www.adviserinfo.sec.gov/IAPD/Individual/4027284"
  },
  "OthrNms": [
    {
      "lastNm": "SHORE",
      "firstNm": "MATT",
      "midNm": "ADAM",
      "sufNm": null
    },
    {
      "lastNm": "SHORE",
      "firstNm": "MATT",
      "midNm": "ADAM",
      "sufNm": null
    },
    {
      "lastNm": "SHORE",
      "firstNm": "MATTHEW",
      "midNm": "ADAM",
      "sufNm": null
    }
  ],
  "CrntEmps": [
    {
      "CrntRgstns": [
        {
          "regAuth": 9,
          "regCat": 0,
          "st": 2,
          "stDt": "2011-12-06T00:00:00"
        }
      ],
      "BrnchOfLocs": [
        {
          "str1": "100 NORTH TAMPA",
          "str2": "SUITE 3000",
          "city": "TAMPA",
          "state": 9,
          "stateSpecified": true,
          "cntry": "United States",
          "postlCd": "33602-5198"
        }
      ],
      "orgNm": "MORGAN STANLEY",
      "orgPK": "149777",
      "str1": "2000 WESTCHESTER AVENUE",
      "str2": null,
      "city": "PURCHASE",
      "state": 35,
      "stateSpecified": true,
      "cntry": "United States",
      "postlCd": "10577-2530"
    }
  ],
  "Exms": [
    {
      "exmCd": 0,
      "exmNm": "Uniform Securities Agent State Law Examination",
      "exmDt": "2003-03-17T00:00:00",
      "exmDtSpecified": true
    },
    {
      "exmCd": 3,
      "exmNm": "Uniform Combined State Law Examination",
      "exmDt": "2011-12-02T00:00:00",
      "exmDtSpecified": true
    }
  ],
  "Dsgntns": [],
  "PrevRgstns": [],
  "EmpHss": [
    {
      "fromDt": "03/2004",
      "toDt": "04/2007",
      "orgNm": "MORGAN STANLEY DW INC.",
      "city": "ORLANDO",
      "state": 9,
      "stateSpecified": true
    },
    {
      "fromDt": "04/2007",
      "toDt": null,
      "orgNm": "MORGAN STANLEY & CO., INCORPORATED",
      "city": "ORLANDO",
      "state": 9,
      "stateSpecified": true
    },
    {
      "fromDt": "06/2009",
      "toDt": null,
      "orgNm": "MORGAN STANLEY SMITH BARNEY",
      "city": "ORLANDO",
      "state": 9,
      "stateSpecified": true
    }
  ],
  "OthrBuss": {
    "OthrBus": {
      "desc": "1. UBER, DRIVER; START DATE: 01/2016; DURING BUSINESS HOURS- 0, AFTER BUSINESS HOURS- 5; 2. LYFT, DRIVER; START DATE: 01/2016; DURING BUSINESS HOURS- 0, AFTER BUSINESS HOURS- 5;"
    }
  },
  "DRPs": []
}