{
  "Info": {
    "lastNm": "CLEMENTS",
    "firstNm": "MICHAEL",
    "midNm": "S",
    "sufNm": null,
    "indvlPK": "4029864",
    "actvAGReg": 0,
    "link": "http://www.adviserinfo.sec.gov/IAPD/Individual/4029864"
  },
  "OthrNms": [
    {
      "lastNm": "CLEMENTS",
      "firstNm": "MIKE",
      "midNm": "SCOTT",
      "sufNm": null
    }
  ],
  "CrntEmps": [
    {
      "CrntRgstns": [
        {
          "regAuth": 36,
          "regCat": 0,
          "st": 2,
          "stDt": "2004-10-05T00:00:00"
        },
        {
          "regAuth": 45,
          "regCat": 0,
          "st": 3,
          "stDt": "2015-01-05T00:00:00"
        }
      ],
      "BrnchOfLocs": [
        {
          "str1": "3230 CENTRAL PARK WEST",
          "str2": "SUITE 100",
          "city": "TOLEDO",
          "state": 36,
          "stateSpecified": true,
          "cntry": "United States",
          "postlCd": "43617"
        }
      ],
      "orgNm": "SECURIAN FINANCIAL SERVICES, INC.",
      "orgPK": "15296",
      "str1": "400 ROBERT STREET NORTH",
      "str2": null,
      "city": "ST PAUL",
      "state": 24,
      "stateSpecified": true,
      "cntry": "United States",
      "postlCd": "55101-2098"
    }
  ],
  "Exms": [
    {
      "exmCd": 0,
      "exmNm": "Uniform Securities Agent State Law Examination",
      "exmDt": "2000-01-05T00:00:00",
      "exmDtSpecified": true
    },
    {
      "exmCd": 2,
      "exmNm": "Uniform Investment Adviser Law Examination",
      "exmDt": "2001-03-05T00:00:00",
      "exmDtSpecified": true
    }
  ],
  "Dsgntns": [],
  "PrevRgstns": [
    {
      "BrnchOfLocs": [
        {
          "city": "TOLEDO",
          "state": 36,
          "stateSpecified": true
        }
      ],
      "orgNm": "SECURIAN FINANCIAL SERVICES, INC.",
      "orgPK": "15296",
      "regBeginDt": "2000-05-22T00:00:00",
      "regBeginDtSpecified": true,
      "regEndDt": "2002-06-03T00:00:00",
      "regEndDtSpecified": true
    },
    {
      "BrnchOfLocs": [
        {
          "city": "TOLEDO",
          "state": 36,
          "stateSpecified": true
        }
      ],
      "orgNm": "CARILLON INVESTMENTS, INC.",
      "orgPK": "14646",
      "regBeginDt": "2004-01-15T00:00:00",
      "regBeginDtSpecified": true,
      "regEndDt": "2004-09-21T00:00:00",
      "regEndDtSpecified": true
    }
  ],
  "EmpHss": [
    {
      "fromDt": "09/2004",
      "toDt": null,
      "orgNm": "FINANCIAL DESIGN GROUP",
      "city": "TOLEDO",
      "state": 36,
      "stateSpecified": true
    },
    {
      "fromDt": "09/2004",
      "toDt": null,
      "orgNm": "MINNESOTA LIFE",
      "city": "ST. PAUL",
      "state": 24,
      "stateSpecified": true
    },
    {
      "fromDt": "09/2004",
      "toDt": null,
      "orgNm": "SECURIAN FINANCIAL SERVICES INC.",
      "city": "ST. PAUL",
      "state": 24,
      "stateSpecified": true
    }
  ],
  "OthrBuss": {
    "OthrBus": {
      "desc": "1716 INV CORP. LTD; SYLVANIA, OH; NON INVESTMENT RELATED; MANAGING MEMBER; 03/2007; 2 HRS/MNTH WITH 2 HRS/MNTH DURING TRADING HOURS. *FINANCIAL DESIGN GROUP, LLC, TOLEDO, OH; NON INVESTMENT RELATED; FIXED INSURANCE SALES; AGENT; 10/2004 TO PRESENT; 20 HRS/MNTH WITH 10 HRS/MNTH DURING TRADING HOURS."
    }
  },
  "DRPs": []
}