{
  "Info": {
    "lastNm": "BRODER",
    "firstNm": "YVETTE",
    "midNm": "ELLISON",
    "sufNm": null,
    "indvlPK": "4030423",
    "actvAGReg": 0,
    "link": "http://www.adviserinfo.sec.gov/IAPD/Individual/4030423"
  },
  "OthrNms": [
    {
      "lastNm": "ELLISON",
      "firstNm": "YVETTE",
      "midNm": null,
      "sufNm": null
    }
  ],
  "CrntEmps": [
    {
      "CrntRgstns": [
        {
          "regAuth": 9,
          "regCat": 0,
          "st": 2,
          "stDt": "2006-08-22T00:00:00"
        },
        {
          "regAuth": 4,
          "regCat": 0,
          "st": 2,
          "stDt": "2015-10-29T00:00:00"
        }
      ],
      "BrnchOfLocs": [
        {
          "str1": null,
          "str2": null,
          "city": "DAVIE",
          "state": 9,
          "stateSpecified": true,
          "cntry": "United States",
          "postlCd": null
        },
        {
          "str1": "ONE WORLD TRADE CENTER",
          "str2": "SUITE 2340",
          "city": "LONG BEACH",
          "state": 4,
          "stateSpecified": true,
          "cntry": "United States",
          "postlCd": "90831"
        }
      ],
      "orgNm": "LINCOLN FINANCIAL SECURITIES CORPORATION",
      "orgPK": "3870",
      "str1": "1300 SOUTH CLINTON STREET",
      "str2": null,
      "city": "FORT WAYNE",
      "state": 16,
      "stateSpecified": true,
      "cntry": "United States",
      "postlCd": "46802"
    }
  ],
  "Exms": [
    {
      "exmCd": 0,
      "exmNm": "Uniform Securities Agent State Law Examination",
      "exmDt": "2000-01-18T00:00:00",
      "exmDtSpecified": true
    },
    {
      "exmCd": 2,
      "exmNm": "Uniform Investment Adviser Law Examination",
      "exmDt": "2006-08-17T00:00:00",
      "exmDtSpecified": true
    }
  ],
  "Dsgntns": [],
  "PrevRgstns": [],
  "EmpHss": [
    {
      "fromDt": "02/1995",
      "toDt": null,
      "orgNm": "AMERICAN & INTL FINANCIAL GRP INC",
      "city": "DAVIE",
      "state": 9,
      "stateSpecified": true
    },
    {
      "fromDt": "01/2000",
      "toDt": null,
      "orgNm": "ING RELIASTAR LIFE INS CO",
      "city": "DAVIE",
      "state": 9,
      "stateSpecified": true
    },
    {
      "fromDt": "10/2002",
      "toDt": "07/2008",
      "orgNm": "JEFFERSON PILOT SECURITIES",
      "city": "DAVIE",
      "state": 9,
      "stateSpecified": true
    },
    {
      "fromDt": "07/2008",
      "toDt": null,
      "orgNm": "LINCOLN FINANCIAL SECURITIES",
      "city": "DAVIE",
      "state": 9,
      "stateSpecified": true
    }
  ],
  "OthrBuss": {
    "OthrBus": {
      "desc": "1)AMERICAN & INTERNATIONAL FINANCIAL GROUP, INVESTMENT RELATED. 13700 SW 20TH STREET DAVIE, FL 33325. INSURANCE & INVESTMENTS, PRESIDENT, SALES + OPS.  02/2001-PRESENT. 25HRS PER WEEK    2)NAME AND ADDRESS: WEALTH STRATEGIES, 13700 SW 20TH STREET, DAVIE, FL 33325  CATEGORY:   INSURANCE  INVESTMENT-RELATED: YES  TITLE: PRESIDENT  DUTIES:  OFFERS DISABILITY INSURANCE, FIXED/INDEXED ANNUITIES, LIFE SETTLEMENTS, LONG-TERM CARE INSURANCE AND TRADITIONAL LIFE INSURANCE PRODUCTS  START DATE: 6/2006  HOURS PER MONTH: 120  HOURS PER MONTH DURING TRADING HOURS: 90    3)Flexible Insurance Plans, One World Trade Center, Long Beach, CA  Category: Insurance  Investment-Related:  Yes  Title:  Agent  Duties: offers disability insurance, fixed/indexed annuities, long-term care insurance and traditional life insurance products  Start Date:  11/2015  Hours per month:  40  Hours per month during trading hours:  40"
    }
  },
  "DRPs": []
}