{
  "Info": {
    "lastNm": "CASTORINA",
    "firstNm": "DONNA",
    "midNm": "LYNN",
    "sufNm": null,
    "indvlPK": "4032544",
    "actvAGReg": 0,
    "link": "http://www.adviserinfo.sec.gov/IAPD/Individual/4032544"
  },
  "OthrNms": [
    {
      "lastNm": "MANISCALCO",
      "firstNm": "DONNA",
      "midNm": "L.",
      "sufNm": null
    },
    {
      "lastNm": "MANISCALCO",
      "firstNm": "DONNA",
      "midNm": "LYNN",
      "sufNm": null
    },
    {
      "lastNm": "WENZ",
      "firstNm": "DONNA",
      "midNm": "LYNN",
      "sufNm": null
    }
  ],
  "CrntEmps": [
    {
      "CrntRgstns": [
        {
          "regAuth": 6,
          "regCat": 0,
          "st": 2,
          "stDt": "2009-06-01T00:00:00"
        },
        {
          "regAuth": 45,
          "regCat": 0,
          "st": 3,
          "stDt": "2014-02-11T00:00:00"
        }
      ],
      "BrnchOfLocs": [
        {
          "str1": "1229 POST ROAD",
          "str2": null,
          "city": "FAIRFIELD",
          "state": 6,
          "stateSpecified": true,
          "cntry": "United States",
          "postlCd": "06824"
        }
      ],
      "orgNm": "MORGAN STANLEY",
      "orgPK": "149777",
      "str1": "2000 WESTCHESTER AVENUE",
      "str2": null,
      "city": "PURCHASE",
      "state": 35,
      "stateSpecified": true,
      "cntry": "United States",
      "postlCd": "10577-2530"
    }
  ],
  "Exms": [
    {
      "exmCd": 0,
      "exmNm": "Uniform Securities Agent State Law Examination",
      "exmDt": "2003-01-17T00:00:00",
      "exmDtSpecified": true
    },
    {
      "exmCd": 2,
      "exmNm": "Uniform Investment Adviser Law Examination",
      "exmDt": "2009-01-03T00:00:00",
      "exmDtSpecified": true
    }
  ],
  "Dsgntns": [],
  "PrevRgstns": [
    {
      "BrnchOfLocs": [
        {
          "city": "FAIRFIELD",
          "state": 6,
          "stateSpecified": true
        }
      ],
      "orgNm": "MORGAN STANLEY & CO. LLC",
      "orgPK": "8209",
      "regBeginDt": "2009-01-07T00:00:00",
      "regBeginDtSpecified": true,
      "regEndDt": "2009-06-01T00:00:00",
      "regEndDtSpecified": true
    }
  ],
  "EmpHss": [
    {
      "fromDt": "10/1999",
      "toDt": "11/2007",
      "orgNm": "WACHOVIA SECURITIES,LLC",
      "city": "WESTPORT",
      "state": 6,
      "stateSpecified": true
    },
    {
      "fromDt": "11/2007",
      "toDt": "06/2009",
      "orgNm": "MORGAN STANLEY & CO., INCORPORATED",
      "city": "FAIRFIELD",
      "state": 6,
      "stateSpecified": true
    },
    {
      "fromDt": "06/2009",
      "toDt": "09/2015",
      "orgNm": "MORGAN STANLEY SMITH BARNEY",
      "city": "FAIRFIELD",
      "state": 6,
      "stateSpecified": true
    },
    {
      "fromDt": "09/2015",
      "toDt": null,
      "orgNm": "Morgan Stanley",
      "city": "Fairfield",
      "state": 6,
      "stateSpecified": true
    }
  ],
  "OthrBuss": {
    "OthrBus": null
  },
  "DRPs": []
}