{
  "Info": {
    "lastNm": "ROSE",
    "firstNm": "RONALD",
    "midNm": "RAY",
    "sufNm": null,
    "indvlPK": "404082",
    "actvAGReg": 0,
    "link": "http://www.adviserinfo.sec.gov/IAPD/Individual/404082"
  },
  "OthrNms": [],
  "CrntEmps": [
    {
      "CrntRgstns": [
        {
          "regAuth": 4,
          "regCat": 0,
          "st": 2,
          "stDt": "1998-03-30T00:00:00"
        }
      ],
      "BrnchOfLocs": [
        {
          "str1": null,
          "str2": null,
          "city": "STOCKTON",
          "state": 4,
          "stateSpecified": true,
          "cntry": "United States",
          "postlCd": null
        }
      ],
      "orgNm": "AMERICAN INVESTORS COMPANY",
      "orgPK": "38",
      "str1": "2440 CAMINO RAMON, SUITE 103",
      "str2": null,
      "city": "SAN RAMON",
      "state": 4,
      "stateSpecified": true,
      "cntry": "United States",
      "postlCd": "94583"
    }
  ],
  "Exms": [
    {
      "exmCd": 0,
      "exmNm": "Uniform Securities Agent State Law Examination",
      "exmDt": "1987-02-18T00:00:00",
      "exmDtSpecified": true
    }
  ],
  "Dsgntns": [],
  "PrevRgstns": [],
  "EmpHss": [
    {
      "fromDt": "03/1973",
      "toDt": null,
      "orgNm": "RONALD ROSE - SOLE PROPRIETOR",
      "city": "STOCKTON",
      "state": 4,
      "stateSpecified": true
    },
    {
      "fromDt": "04/1991",
      "toDt": null,
      "orgNm": "AMERICAN INVESTORS COMPANY",
      "city": "SAN RAMON",
      "state": 4,
      "stateSpecified": true
    },
    {
      "fromDt": "03/1998",
      "toDt": null,
      "orgNm": "AMERICAN INVESTORS COMPANY",
      "city": "SAN RAMON",
      "state": 4,
      "stateSpecified": true
    }
  ],
  "OthrBuss": {
    "OthrBus": {
      "desc": "RONALD ROSE - SOLE PROPRIETOR, INDEPENDENT INSURANCE AGENT SINCE 03/1973. NOT INVESTMENT-RELATED. 2339 WEST HAMMER LANE PMB#270, STOCKTON, CA 95209.  LICENSED TO SELL HEALTH AND LIFE INSURANCE.  CURRENTLY NOT WRITING NEW BUSINESS AND HAVE NOT WRITTEN ANY IN OVER TEN YEARS."
    }
  },
  "DRPs": []
}