{
  "Info": {
    "lastNm": "HARRIS",
    "firstNm": "STEPHEN",
    "midNm": null,
    "sufNm": null,
    "indvlPK": "4061380",
    "actvAGReg": 0,
    "link": "http://www.adviserinfo.sec.gov/IAPD/Individual/4061380"
  },
  "OthrNms": [
    {
      "lastNm": "HARRIS",
      "firstNm": "M",
      "midNm": "STEPHEN",
      "sufNm": null
    },
    {
      "lastNm": "HARRIS",
      "firstNm": "M.",
      "midNm": "STEPHAN",
      "sufNm": null
    },
    {
      "lastNm": "HARRIS",
      "firstNm": "M.",
      "midNm": "STEPHEN",
      "sufNm": null
    }
  ],
  "CrntEmps": [
    {
      "CrntRgstns": [
        {
          "regAuth": 9,
          "regCat": 0,
          "st": 2,
          "stDt": "2007-02-16T00:00:00"
        },
        {
          "regAuth": 45,
          "regCat": 0,
          "st": 3,
          "stDt": "2016-05-13T00:00:00"
        }
      ],
      "BrnchOfLocs": [
        {
          "str1": "777 E ATLANTIC AVE",
          "str2": null,
          "city": "DELRAY BEACH",
          "state": 9,
          "stateSpecified": true,
          "cntry": "United States",
          "postlCd": "33483"
        }
      ],
      "orgNm": "MERRILL LYNCH, PIERCE, FENNER & SMITH INCORPORATED",
      "orgPK": "7691",
      "str1": "ONE BRYANT PARK",
      "str2": null,
      "city": "NEW YORK",
      "state": 35,
      "stateSpecified": true,
      "cntry": "United States",
      "postlCd": "10036"
    }
  ],
  "Exms": [
    {
      "exmCd": 3,
      "exmNm": "Uniform Combined State Law Examination",
      "exmDt": "2000-01-28T00:00:00",
      "exmDtSpecified": true
    }
  ],
  "Dsgntns": [],
  "PrevRgstns": [
    {
      "BrnchOfLocs": [
        {
          "city": "BOCA RATON",
          "state": 9,
          "stateSpecified": true
        },
        {
          "city": "DELRAY BEACH",
          "state": 9,
          "stateSpecified": true
        },
        {
          "city": "DELRAY BEACH",
          "state": 9,
          "stateSpecified": true
        }
      ],
      "orgNm": "MORGAN STANLEY DW INC.",
      "orgPK": "7556",
      "regBeginDt": "2000-01-21T00:00:00",
      "regBeginDtSpecified": true,
      "regEndDt": "2007-02-16T00:00:00",
      "regEndDtSpecified": true
    }
  ],
  "EmpHss": [
    {
      "fromDt": "10/1999",
      "toDt": "02/2007",
      "orgNm": "DEAN WITTER REYNOLDS",
      "city": "BOCA RATON",
      "state": 9,
      "stateSpecified": true
    },
    {
      "fromDt": "02/2007",
      "toDt": null,
      "orgNm": "MERRILL LYNCH, PIERCE, FENNER & SMITH",
      "city": "DELRAY BEACH",
      "state": 9,
      "stateSpecified": true
    },
    {
      "fromDt": "08/2009",
      "toDt": null,
      "orgNm": "BANK OF AMERICA,NA",
      "city": "DELRAY BEACH",
      "state": 9,
      "stateSpecified": true
    }
  ],
  "OthrBuss": {
    "OthrBus": null
  },
  "DRPs": []
}