{
  "Info": {
    "lastNm": "GILLISS",
    "firstNm": "EVERETT",
    "midNm": "NEIL",
    "sufNm": null,
    "indvlPK": "4064036",
    "actvAGReg": 1,
    "link": "http://www.adviserinfo.sec.gov/IAPD/Individual/4064036"
  },
  "OthrNms": [],
  "CrntEmps": [
    {
      "CrntRgstns": [
        {
          "regAuth": 47,
          "regCat": 0,
          "st": 2,
          "stDt": "2012-10-01T00:00:00"
        }
      ],
      "BrnchOfLocs": [
        {
          "str1": "1401 E. CARY STREET",
          "str2": "SUITE 401",
          "city": "RICHMOND",
          "state": 47,
          "stateSpecified": true,
          "cntry": "United States",
          "postlCd": "23219"
        }
      ],
      "orgNm": "CANAL CAPITAL MANAGEMENT, LLC",
      "orgPK": "164971",
      "str1": "1401 E. CARY STREET",
      "str2": "SUITE 401",
      "city": "RICHMOND",
      "state": 47,
      "stateSpecified": true,
      "cntry": "United States",
      "postlCd": "23219"
    }
  ],
  "Exms": [
    {
      "exmCd": 0,
      "exmNm": "Uniform Securities Agent State Law Examination",
      "exmDt": "2002-03-13T00:00:00",
      "exmDtSpecified": true
    },
    {
      "exmCd": 2,
      "exmNm": "Uniform Investment Adviser Law Examination",
      "exmDt": "2002-08-01T00:00:00",
      "exmDtSpecified": true
    }
  ],
  "Dsgntns": [],
  "PrevRgstns": [
    {
      "BrnchOfLocs": [
        {
          "city": "RICHMOND",
          "state": 47,
          "stateSpecified": true
        },
        {
          "city": "RICHMOND",
          "state": 47,
          "stateSpecified": true
        },
        {
          "city": "VIENNA",
          "state": 47,
          "stateSpecified": true
        }
      ],
      "orgNm": "LINCOLN FINANCIAL ADVISORS CORPORATION",
      "orgPK": "3978",
      "regBeginDt": "2002-08-05T00:00:00",
      "regBeginDtSpecified": true,
      "regEndDt": "2006-12-04T00:00:00",
      "regEndDtSpecified": true
    },
    {
      "BrnchOfLocs": [
        {
          "city": "RICHMOND",
          "state": 47,
          "stateSpecified": true
        },
        {
          "city": "RICHMOND",
          "state": 47,
          "stateSpecified": true
        }
      ],
      "orgNm": "COMMONWEALTH FINANCIAL NETWORK",
      "orgPK": "8032",
      "regBeginDt": "2006-12-01T00:00:00",
      "regBeginDtSpecified": true,
      "regEndDt": "2012-09-28T00:00:00",
      "regEndDtSpecified": true
    }
  ],
  "EmpHss": [
    {
      "fromDt": "05/2002",
      "toDt": "11/2006",
      "orgNm": "LINCOLN FINANCIAL ADVISORS CORP.",
      "city": "RICHMOND",
      "state": 47,
      "stateSpecified": true
    },
    {
      "fromDt": "11/2006",
      "toDt": "09/2012",
      "orgNm": "COMMONWEALTH FINANCIAL NETWORK",
      "city": "WALTHAM",
      "state": 20,
      "stateSpecified": true
    },
    {
      "fromDt": "11/2006",
      "toDt": "04/2011",
      "orgNm": "JOHNSON AND GILLISS WEALTH MANAGEMENT GROUP",
      "city": "RICHMOND",
      "state": 47,
      "stateSpecified": true
    },
    {
      "fromDt": "04/2011",
      "toDt": null,
      "orgNm": "CANAL CAPITAL MANAGEMENT",
      "city": "RICHMOND",
      "state": 47,
      "stateSpecified": true
    },
    {
      "fromDt": "09/2012",
      "toDt": null,
      "orgNm": "PURSHE KAPLAN STERLING INVESTMENTS",
      "city": "ALBANY",
      "state": 35,
      "stateSpecified": true
    }
  ],
  "OthrBuss": {
    "OthrBus": {
      "desc": "1. CANAL CAPITAL MANAGEMENT, LLC - SOLE MEMBER OF OPERATING COMPANY FOR SECURITIES AND INSURANCE BUSINESS,INVESTMENT RELATED. 2. FIXED INSURANCE SALES AT BRANCH LOCATION, INVESTMENT RELATED.  3. SAILFISH CAPITAL, LLC - MEMBER AND 50% OWNER OF REAL ESTATE HOLDING COMPANY, NOT AT BRANCH LOCATION, NOT INVESTMENT RELATED."
    }
  },
  "DRPs": [
    {
      "hasRegAction": 1,
      "hasRegActionSpecified": true,
      "hasCriminal": 0,
      "hasCriminalSpecified": true,
      "hasBankrupt": 1,
      "hasBankruptSpecified": true,
      "hasCivilJudc": 1,
      "hasCivilJudcSpecified": true,
      "hasBond": 1,
      "hasBondSpecified": true,
      "hasJudgment": 1,
      "hasJudgmentSpecified": true,
      "hasInvstgn": 1,
      "hasInvstgnSpecified": true,
      "hasCustComp": 1,
      "hasCustCompSpecified": true,
      "hasTermination": 1,
      "hasTerminationSpecified": true
    }
  ]
}