{
  "Info": {
    "lastNm": "DUPLISSEY",
    "firstNm": "SANDY",
    "midNm": "RENEE",
    "sufNm": null,
    "indvlPK": "4065383",
    "actvAGReg": 0,
    "link": "http://www.adviserinfo.sec.gov/IAPD/Individual/4065383"
  },
  "OthrNms": [
    {
      "lastNm": "DUPLISSEY",
      "firstNm": "SANDY",
      "midNm": "RENEE",
      "sufNm": null
    },
    {
      "lastNm": "DUPLISSEY",
      "firstNm": "SANDY",
      "midNm": "RENEE",
      "sufNm": "MS"
    },
    {
      "lastNm": "DURHAM",
      "firstNm": "SANDY",
      "midNm": "DUPLISSEY",
      "sufNm": null
    },
    {
      "lastNm": "JOHNSTON",
      "firstNm": "SANDY",
      "midNm": "DUPLISSEY",
      "sufNm": null
    },
    {
      "lastNm": "JOHNSTON",
      "firstNm": "SANDY",
      "midNm": "DUPLISSEY",
      "sufNm": "MS."
    }
  ],
  "CrntEmps": [
    {
      "CrntRgstns": [
        {
          "regAuth": 19,
          "regCat": 0,
          "st": 2,
          "stDt": "2010-11-01T00:00:00"
        }
      ],
      "BrnchOfLocs": [
        {
          "str1": "1890 HUDSON CIRCLE",
          "str2": "SUITE 9",
          "city": "MONROE",
          "state": 19,
          "stateSpecified": true,
          "cntry": "United States",
          "postlCd": "71201"
        }
      ],
      "orgNm": "FSC SECURITIES CORPORATION",
      "orgPK": "7461",
      "str1": "2300 WINDY RIDGE PKWY, STE 1100",
      "str2": null,
      "city": "ATLANTA",
      "state": 10,
      "stateSpecified": true,
      "cntry": "United States",
      "postlCd": "30339"
    }
  ],
  "Exms": [
    {
      "exmCd": 3,
      "exmNm": "Uniform Combined State Law Examination",
      "exmDt": "2005-12-22T00:00:00",
      "exmDtSpecified": true
    }
  ],
  "Dsgntns": [],
  "PrevRgstns": [
    {
      "BrnchOfLocs": [
        {
          "city": "MONROE",
          "state": 19,
          "stateSpecified": true
        }
      ],
      "orgNm": "WELLS FARGO ADVISORS, LLC",
      "orgPK": "19616",
      "regBeginDt": "2009-06-19T00:00:00",
      "regBeginDtSpecified": true,
      "regEndDt": "2010-10-20T00:00:00",
      "regEndDtSpecified": true
    }
  ],
  "EmpHss": [
    {
      "fromDt": "10/2005",
      "toDt": "01/2008",
      "orgNm": "A. G. EDWARDS & SONS, INC.",
      "city": "MONROE",
      "state": 19,
      "stateSpecified": true
    },
    {
      "fromDt": "01/2008",
      "toDt": "10/2010",
      "orgNm": "WACHOVIA SECURITIES, LLC",
      "city": "MONROE",
      "state": 19,
      "stateSpecified": true
    },
    {
      "fromDt": "10/2010",
      "toDt": null,
      "orgNm": "FSC SECURITIES",
      "city": "MONROE",
      "state": 19,
      "stateSpecified": true
    }
  ],
  "OthrBuss": {
    "OthrBus": {
      "desc": "1) CORPORATE RIA: FSC SECURITIES, INVESTMENT RELATED, 1890 HUDSON CIRCLE, SUITE 9, MONROE, LA 71201, AGENT, STARTED 10/20/2010, 160 HRS/MONTH, 160 HRS DURING TRADING HRS, HELPING CLIENTS MANAGE INVESTMENT ACCOUNTS.   2) NOTARY: NON-INVESTMENT RELATED, 1890 HUDSON CIRCLE, SUITE 9, MONROE, LA 71201, NOTARY PUBLIC, NOTARIZE DOCUMENTS AS A CLIENT SERVICE, NO COMPENSATION."
    }
  },
  "DRPs": []
}