{
  "Info": {
    "lastNm": "MAYBERRY",
    "firstNm": "TRAVIS",
    "midNm": "JOHN",
    "sufNm": null,
    "indvlPK": "4072168",
    "actvAGReg": 0,
    "link": "http://www.adviserinfo.sec.gov/IAPD/Individual/4072168"
  },
  "OthrNms": [],
  "CrntEmps": [
    {
      "CrntRgstns": [
        {
          "regAuth": 5,
          "regCat": 0,
          "st": 2,
          "stDt": "2015-04-24T00:00:00"
        },
        {
          "regAuth": 45,
          "regCat": 0,
          "st": 3,
          "stDt": "2015-04-28T00:00:00"
        }
      ],
      "BrnchOfLocs": [
        {
          "str1": "6501 S FIDDLER'S GREEN CIRCLE",
          "str2": "STE 400 - 600",
          "city": "GREENWOOD VILLAGE",
          "state": 5,
          "stateSpecified": true,
          "cntry": "United States",
          "postlCd": "80111-4932"
        }
      ],
      "orgNm": "STRATEGIC ADVISERS, INC.",
      "orgPK": "104555",
      "str1": "245 SUMMER STREET, V10G",
      "str2": null,
      "city": "BOSTON",
      "state": 20,
      "stateSpecified": true,
      "cntry": "United States",
      "postlCd": "02210"
    }
  ],
  "Exms": [
    {
      "exmCd": 3,
      "exmNm": "Uniform Combined State Law Examination",
      "exmDt": "2001-07-12T00:00:00",
      "exmDtSpecified": true
    }
  ],
  "Dsgntns": [],
  "PrevRgstns": [
    {
      "BrnchOfLocs": [
        {
          "city": "LITTLETON",
          "state": 5,
          "stateSpecified": true
        },
        {
          "city": "LITTLETON",
          "state": 5,
          "stateSpecified": true
        }
      ],
      "orgNm": "MERRILL LYNCH, PIERCE, FENNER & SMITH INCORPORATED",
      "orgPK": "7691",
      "regBeginDt": "2001-07-20T00:00:00",
      "regBeginDtSpecified": true,
      "regEndDt": "2006-04-26T00:00:00",
      "regEndDtSpecified": true
    },
    {
      "BrnchOfLocs": [
        {
          "city": "DENVER",
          "state": 5,
          "stateSpecified": true
        }
      ],
      "orgNm": "UBS FINANCIAL SERVICES INC.",
      "orgPK": "8174",
      "regBeginDt": "2006-05-31T00:00:00",
      "regBeginDtSpecified": true,
      "regEndDt": "2012-10-23T00:00:00",
      "regEndDtSpecified": true
    },
    {
      "BrnchOfLocs": [
        {
          "city": "GREENWOOD VILLAGE",
          "state": 5,
          "stateSpecified": true
        },
        {
          "city": "SAN FRANCISCO",
          "state": 4,
          "stateSpecified": true
        }
      ],
      "orgNm": "SANCTUARY WEALTH ADVISORS LLC",
      "orgPK": "150212",
      "regBeginDt": "2012-10-29T00:00:00",
      "regBeginDtSpecified": true,
      "regEndDt": "2015-03-02T00:00:00",
      "regEndDtSpecified": true
    }
  ],
  "EmpHss": [
    {
      "fromDt": "05/2006",
      "toDt": "10/2012",
      "orgNm": "UBS FINANCIAL SERVICES INC.",
      "city": "DENVER",
      "state": 5,
      "stateSpecified": true
    },
    {
      "fromDt": "10/2012",
      "toDt": "03/2015",
      "orgNm": "SANCTUARY SECURITIES LLC",
      "city": "GREENWOOD VILLAGE",
      "state": 5,
      "stateSpecified": true
    },
    {
      "fromDt": "10/2012",
      "toDt": "03/2015",
      "orgNm": "SANCTUARY WEALTH ADVISORS, LLC",
      "city": "GREENWOOD VILLAGE",
      "state": 5,
      "stateSpecified": true
    },
    {
      "fromDt": "04/2015",
      "toDt": null,
      "orgNm": "FIDELITY BROKERAGE SERVICES LLC",
      "city": "GREENWOOD VILLAGE",
      "state": 5,
      "stateSpecified": true
    }
  ],
  "OthrBuss": {
    "OthrBus": null
  },
  "DRPs": []
}