{
  "Info": {
    "lastNm": "ROSS",
    "firstNm": "SUZAN",
    "midNm": "JONES",
    "sufNm": null,
    "indvlPK": "4074017",
    "actvAGReg": 0,
    "link": "http://www.adviserinfo.sec.gov/IAPD/Individual/4074017"
  },
  "OthrNms": [
    {
      "lastNm": "HAUGHABOO ROSS",
      "firstNm": "SUZAN",
      "midNm": "JONES",
      "sufNm": null
    },
    {
      "lastNm": "HAUGHABOO",
      "firstNm": "SUZAN",
      "midNm": "JONES",
      "sufNm": null
    },
    {
      "lastNm": "LYNN",
      "firstNm": "SUZAB",
      "midNm": "JONES",
      "sufNm": null
    },
    {
      "lastNm": "LYNN",
      "firstNm": "SUZAN",
      "midNm": "JONES",
      "sufNm": null
    }
  ],
  "CrntEmps": [
    {
      "CrntRgstns": [
        {
          "regAuth": 18,
          "regCat": 0,
          "st": 2,
          "stDt": "2006-09-19T00:00:00"
        }
      ],
      "BrnchOfLocs": [
        {
          "str1": "116 SUTTON STREET",
          "str2": null,
          "city": "MAYSVILLE",
          "state": 18,
          "stateSpecified": true,
          "cntry": "United States",
          "postlCd": "41056"
        }
      ],
      "orgNm": "CETERA INVESTMENT ADVISERS LLC",
      "orgPK": "105644",
      "str1": "200 NORTH MARTINGALE ROAD",
      "str2": null,
      "city": "SCHAUMBURG",
      "state": 15,
      "stateSpecified": true,
      "cntry": "United States",
      "postlCd": "60173-2096"
    }
  ],
  "Exms": [
    {
      "exmCd": 0,
      "exmNm": "Uniform Securities Agent State Law Examination",
      "exmDt": "2000-01-25T00:00:00",
      "exmDtSpecified": true
    },
    {
      "exmCd": 2,
      "exmNm": "Uniform Investment Adviser Law Examination",
      "exmDt": "2006-09-18T00:00:00",
      "exmDtSpecified": true
    }
  ],
  "Dsgntns": [],
  "PrevRgstns": [],
  "EmpHss": [
    {
      "fromDt": "12/1988",
      "toDt": "12/2010",
      "orgNm": "SUZAN HAUGHABOO ROSS, CPA",
      "city": "MAYSVILLE",
      "state": 18,
      "stateSpecified": true
    },
    {
      "fromDt": "10/1999",
      "toDt": null,
      "orgNm": "CETERA FINANCIAL SPECIALISTS LLC",
      "city": "SCHAUMBURG",
      "state": 15,
      "stateSpecified": true
    },
    {
      "fromDt": "07/2006",
      "toDt": null,
      "orgNm": "CETERA INVESTMENT ADVISERS LLC",
      "city": "SCHAUMBURG",
      "state": 15,
      "stateSpecified": true
    },
    {
      "fromDt": "01/2011",
      "toDt": null,
      "orgNm": "BALDWIN CPAS",
      "city": "MAYSVILLE",
      "state": 18,
      "stateSpecified": true
    }
  ],
  "OthrBuss": {
    "OthrBus": {
      "desc": "1) BALDWIN CPA'S; NOT INV, REL; MAYSVILLE,KY; ACCOUNTING FIRM, MEMBER IN CHARGE OF MANAGING DAY TO DAY OPERATIONS; MEMBER; START DATE 1/1/11; 75 HRS/MTH: 2) FIRST PRESBYTERIAN CHURCH;; NOT INV REL;  MAYSVILLE, KY; TITLE: ORGANIST - STARTED 1990 OR 1992; DUTIES: ORGANIST FOR REGULAR CHURCH SERVICES AND WEDDINGS, FUNERALS, AND OTHER SPECIAL OCCASSIONS;   WORK 4 HRS/WK: 3) BALDWIN WEALTH, LLC, DBA FOR INVESTMENT PRACTICE - INV REL: 4)CLHCPA, LLC; NON-INV. RELATED; LOUISVILLE, KY; COMMERCIAL REAL ESTATE RENTAL; PARTNER/MEMBER; SINCE 01/2012; 1 HR/YEAR OUTSIDE SECURITIES TRADING HOURS: 5) MAYSVILLE-MASON COUNTY CHAMBER OF COMMERCE; NON INV. REL; MAYSVILLE, KY; MEMBER BOARD OF DIRECTORS; SINCE 01/2011; 6)MEADOWVIEW REGIONAL HOSPITAL; NON INV. REL; 989 MEDICAL PARK DR. MAYSVILLE, KY 41058; HOSPITAL BOARD MEMBER; SINCE 01/01/2016; VICE PRESIDENT; .5 HRS/WK; VARIES DURING TRADING HRS; PRESIDE OVER BOARD MEETINGS IN THE ABSENCE OF THE PRESIDENT:"
    }
  },
  "DRPs": []
}