{
  "Info": {
    "lastNm": "RUSSELL",
    "firstNm": "JAMES",
    "midNm": "ARTHUR",
    "sufNm": null,
    "indvlPK": "407576",
    "actvAGReg": 0,
    "link": "http://www.adviserinfo.sec.gov/IAPD/Individual/407576"
  },
  "OthrNms": [
    {
      "lastNm": "RUSSELL",
      "firstNm": "JIM",
      "midNm": null,
      "sufNm": null
    }
  ],
  "CrntEmps": [
    {
      "CrntRgstns": [
        {
          "regAuth": 13,
          "regCat": 0,
          "st": 2,
          "stDt": "2002-01-01T00:00:00"
        }
      ],
      "BrnchOfLocs": [
        {
          "str1": "225 2ND STREET SE SUITE 350",
          "str2": null,
          "city": "CEDAR RAPIDS",
          "state": 13,
          "stateSpecified": true,
          "cntry": "United States",
          "postlCd": "52401"
        }
      ],
      "orgNm": "CREATIVE FINANCIAL DESIGNS, INC.",
      "orgPK": "109032",
      "str1": "2704 S GOYER RD",
      "str2": null,
      "city": "KOKOMO",
      "state": 16,
      "stateSpecified": true,
      "cntry": "United States",
      "postlCd": "46902"
    }
  ],
  "Exms": [
    {
      "exmCd": 0,
      "exmNm": "Uniform Securities Agent State Law Examination",
      "exmDt": "1987-06-11T00:00:00",
      "exmDtSpecified": true
    },
    {
      "exmCd": 2,
      "exmNm": "Uniform Investment Adviser Law Examination",
      "exmDt": "2001-10-30T00:00:00",
      "exmDtSpecified": true
    }
  ],
  "Dsgntns": [],
  "PrevRgstns": [],
  "EmpHss": [
    {
      "fromDt": "08/1979",
      "toDt": "09/2010",
      "orgNm": "INDIANAPOLIS LIFE INSURANCE COMPANY",
      "city": "CEDAR RAPIDS",
      "state": 13,
      "stateSpecified": true
    },
    {
      "fromDt": "08/1979",
      "toDt": null,
      "orgNm": "JIM RUSSELL FINANCIAL SERVICES",
      "city": "CEDAR RAPIDS",
      "state": 13,
      "stateSpecified": true
    },
    {
      "fromDt": "07/1991",
      "toDt": null,
      "orgNm": "CFD INVESTMENTS, INC.",
      "city": "KOKOMO",
      "state": 16,
      "stateSpecified": true
    },
    {
      "fromDt": "02/1995",
      "toDt": null,
      "orgNm": "CREATIVE FINANCIAL DESIGNS, INC.",
      "city": "KOKOMO",
      "state": 16,
      "stateSpecified": true
    },
    {
      "fromDt": "09/1995",
      "toDt": "09/2010",
      "orgNm": "AMERICAN UNITED LIFE",
      "city": "INDIANAPOLIS",
      "state": 16,
      "stateSpecified": true
    }
  ],
  "OthrBuss": {
    "OthrBus": {
      "desc": "1. INDEPENDENT INSURANCE SALES. PO BOX 2514 CEDAR RAPIDS, IA 52406. 120 HRS/MONTH   2. CREATIVE FINANCIAL DESIGNS, INC. 2704 S GOYER RD, KOKOMO, IN 46902. INVESTMENT ADVISER REPRESENTATIVE"
    }
  },
  "DRPs": []
}