{
  "Info": {
    "lastNm": "McDaniel",
    "firstNm": "Ashly",
    "midNm": "Ann",
    "sufNm": null,
    "indvlPK": "4081721",
    "actvAGReg": 0,
    "link": "http://www.adviserinfo.sec.gov/IAPD/Individual/4081721"
  },
  "OthrNms": [
    {
      "lastNm": "MCDANIEL",
      "firstNm": "ASHLY",
      "midNm": "ANN",
      "sufNm": null
    },
    {
      "lastNm": "RICHARDSON",
      "firstNm": "ASHLY",
      "midNm": "ANN",
      "sufNm": null
    }
  ],
  "CrntEmps": [
    {
      "CrntRgstns": [
        {
          "regAuth": 17,
          "regCat": 0,
          "st": 2,
          "stDt": "2015-02-23T00:00:00"
        }
      ],
      "BrnchOfLocs": [
        {
          "str1": "1003 W 11TH",
          "str2": null,
          "city": "COFFEYVILLE",
          "state": 17,
          "stateSpecified": true,
          "cntry": "United States",
          "postlCd": "67337"
        }
      ],
      "orgNm": "EDWARD JONES",
      "orgPK": "250",
      "str1": "12555 MANCHESTER RD",
      "str2": null,
      "city": "ST. LOUIS",
      "state": 25,
      "stateSpecified": true,
      "cntry": "United States",
      "postlCd": "63131"
    }
  ],
  "Exms": [
    {
      "exmCd": 3,
      "exmNm": "Uniform Combined State Law Examination",
      "exmDt": "2015-02-20T00:00:00",
      "exmDtSpecified": true
    }
  ],
  "Dsgntns": [],
  "PrevRgstns": [],
  "EmpHss": [
    {
      "fromDt": "06/1999",
      "toDt": "01/2010",
      "orgNm": "EDWARD JONES",
      "city": "COFFEYVILLE",
      "state": 17,
      "stateSpecified": true
    },
    {
      "fromDt": "09/1999",
      "toDt": "12/2014",
      "orgNm": "JANE PHILLIPS MEDICAL CENTER",
      "city": "BARTLESVILLE",
      "state": 37,
      "stateSpecified": true
    },
    {
      "fromDt": "01/2008",
      "toDt": "12/2014",
      "orgNm": "MOMMY & ME",
      "city": "BARTLESVILLE",
      "state": 37,
      "stateSpecified": true
    },
    {
      "fromDt": "04/2008",
      "toDt": "07/2010",
      "orgNm": "BARTLESVILLE SURGERY CENTER",
      "city": "BARTLESVILLE",
      "state": 37,
      "stateSpecified": true
    },
    {
      "fromDt": "05/2010",
      "toDt": "12/2014",
      "orgNm": "THIRTY-ONE GIFTS",
      "city": "COLOMBUS",
      "state": 36,
      "stateSpecified": true
    },
    {
      "fromDt": "12/2014",
      "toDt": null,
      "orgNm": "EDWARD JONES",
      "city": "12/29/2014",
      "state": 25,
      "stateSpecified": true
    }
  ],
  "OthrBuss": {
    "OthrBus": {
      "desc": "MOMMY & ME   BARTLESVILLE, OK  TYPE OF BUSINESS - BREAST FEEDING SUPPLIES  STARTED - 1/15/2008  POSITION HELD - OWNER  RESPONSIBILITIES - RENTAL OF SUPPLIES"
    }
  },
  "DRPs": []
}