{
  "Info": {
    "lastNm": "SCHELLER",
    "firstNm": "TIMOTHY",
    "midNm": "ALLEN",
    "sufNm": null,
    "indvlPK": "4087613",
    "actvAGReg": 0,
    "link": "http://www.adviserinfo.sec.gov/IAPD/Individual/4087613"
  },
  "OthrNms": [
    {
      "lastNm": "SCHELLER",
      "firstNm": "TIM",
      "midNm": null,
      "sufNm": null
    },
    {
      "lastNm": "SCHELLER",
      "firstNm": "TIMOTHY",
      "midNm": "A",
      "sufNm": null
    }
  ],
  "CrntEmps": [
    {
      "CrntRgstns": [
        {
          "regAuth": 45,
          "regCat": 0,
          "st": 2,
          "stDt": "2014-10-09T00:00:00"
        }
      ],
      "BrnchOfLocs": [
        {
          "str1": "9800 FREDERICKSBURG ROAD",
          "str2": null,
          "city": "SAN ANTONIO",
          "state": 45,
          "stateSpecified": true,
          "cntry": "United States",
          "postlCd": "78288-0227"
        }
      ],
      "orgNm": "USAA FINANCIAL PLANNING SERVICES",
      "orgPK": "106352",
      "str1": "9800 FREDERICKSBURG ROAD",
      "str2": null,
      "city": "SAN ANTONIO",
      "state": 45,
      "stateSpecified": true,
      "cntry": "United States",
      "postlCd": "78288-0227"
    }
  ],
  "Exms": [
    {
      "exmCd": 0,
      "exmNm": "Uniform Securities Agent State Law Examination",
      "exmDt": "2013-10-01T00:00:00",
      "exmDtSpecified": true
    },
    {
      "exmCd": 2,
      "exmNm": "Uniform Investment Adviser Law Examination",
      "exmDt": "2014-10-02T00:00:00",
      "exmDtSpecified": true
    }
  ],
  "Dsgntns": [],
  "PrevRgstns": [],
  "EmpHss": [
    {
      "fromDt": "11/2002",
      "toDt": "10/2006",
      "orgNm": "ALLIANCE CAPITAL",
      "city": "SAN ANTONIO",
      "state": 45,
      "stateSpecified": true
    },
    {
      "fromDt": "10/2006",
      "toDt": "11/2007",
      "orgNm": "THE 401(K) COMPANY",
      "city": "SAN ANTONIO",
      "state": 45,
      "stateSpecified": true
    },
    {
      "fromDt": "11/2007",
      "toDt": "09/2008",
      "orgNm": "WAMU INVESTMENTS INC.",
      "city": "SAN ANTONIO",
      "state": 45,
      "stateSpecified": true
    },
    {
      "fromDt": "10/2008",
      "toDt": "03/2009",
      "orgNm": "CONN'S CREDIT CORPORATION",
      "city": "SAN ANTONIO",
      "state": 45,
      "stateSpecified": true
    },
    {
      "fromDt": "04/2009",
      "toDt": "07/2011",
      "orgNm": "WEST CORPORATION",
      "city": "UNIVERSAL CITY",
      "state": 45,
      "stateSpecified": true
    },
    {
      "fromDt": "07/2011",
      "toDt": "10/2011",
      "orgNm": "NATIONWIDE SALES SOLUTIONS",
      "city": "SAN ANTONIO",
      "state": 45,
      "stateSpecified": true
    },
    {
      "fromDt": "10/2011",
      "toDt": "12/2012",
      "orgNm": "STATE OF TX HEALTH & HUMAN SERVICES",
      "city": "SAN ANTONIO",
      "state": 45,
      "stateSpecified": true
    },
    {
      "fromDt": "01/2013",
      "toDt": "06/2013",
      "orgNm": "PEYTON RESOURCE GROUP",
      "city": "SAN ANTONIO",
      "state": 45,
      "stateSpecified": true
    },
    {
      "fromDt": "07/2013",
      "toDt": null,
      "orgNm": "USAA FINANCIAL ADVISORS, INC.",
      "city": "SAN ANTONIO",
      "state": 45,
      "stateSpecified": true
    },
    {
      "fromDt": "07/2013",
      "toDt": null,
      "orgNm": "USAA FINANCIAL PLANNING SERVICES",
      "city": "SAN ANTONIO",
      "state": 45,
      "stateSpecified": true
    }
  ],
  "OthrBuss": {
    "OthrBus": null
  },
  "DRPs": [
    {
      "hasRegAction": 1,
      "hasRegActionSpecified": true,
      "hasCriminal": 1,
      "hasCriminalSpecified": true,
      "hasBankrupt": 0,
      "hasBankruptSpecified": true,
      "hasCivilJudc": 1,
      "hasCivilJudcSpecified": true,
      "hasBond": 1,
      "hasBondSpecified": true,
      "hasJudgment": 1,
      "hasJudgmentSpecified": true,
      "hasInvstgn": 1,
      "hasInvstgnSpecified": true,
      "hasCustComp": 1,
      "hasCustCompSpecified": true,
      "hasTermination": 1,
      "hasTerminationSpecified": true
    }
  ]
}