{
  "Info": {
    "lastNm": "HALTEMAN",
    "firstNm": "JANIS",
    "midNm": "HIESTAND",
    "sufNm": null,
    "indvlPK": "4090744",
    "actvAGReg": 0,
    "link": "http://www.adviserinfo.sec.gov/IAPD/Individual/4090744"
  },
  "OthrNms": [
    {
      "lastNm": "HIESTAND",
      "firstNm": "JANIS",
      "midNm": "KAYE",
      "sufNm": null
    }
  ],
  "CrntEmps": [
    {
      "CrntRgstns": [
        {
          "regAuth": 36,
          "regCat": 0,
          "st": 2,
          "stDt": "2012-09-11T00:00:00"
        }
      ],
      "BrnchOfLocs": [
        {
          "str1": "5131 POST ROAD",
          "str2": "SUITE 340",
          "city": "DUBLIN",
          "state": 36,
          "stateSpecified": true,
          "cntry": "United States",
          "postlCd": "43017"
        }
      ],
      "orgNm": "COMMONWEALTH FINANCIAL NETWORK",
      "orgPK": "8032",
      "str1": "29 SAWYER ROAD",
      "str2": null,
      "city": "WALTHAM",
      "state": 20,
      "stateSpecified": true,
      "cntry": "United States",
      "postlCd": "02453-3483"
    }
  ],
  "Exms": [
    {
      "exmCd": 0,
      "exmNm": "Uniform Securities Agent State Law Examination",
      "exmDt": "2000-02-23T00:00:00",
      "exmDtSpecified": true
    },
    {
      "exmCd": 2,
      "exmNm": "Uniform Investment Adviser Law Examination",
      "exmDt": "2012-08-20T00:00:00",
      "exmDtSpecified": true
    }
  ],
  "Dsgntns": [],
  "PrevRgstns": [],
  "EmpHss": [
    {
      "fromDt": "12/1999",
      "toDt": "01/2008",
      "orgNm": "MASS MUTUAL LIFE INSURANCE",
      "city": "SPFLD",
      "state": 20,
      "stateSpecified": true
    },
    {
      "fromDt": "12/1999",
      "toDt": "01/2008",
      "orgNm": "MML INVESTORS SERVICES",
      "city": "DUBLIN",
      "state": 36,
      "stateSpecified": true
    },
    {
      "fromDt": "01/2008",
      "toDt": null,
      "orgNm": "COMMONWEALTH FINANCIAL NETWORK",
      "city": "WALTHAM",
      "state": 20,
      "stateSpecified": true
    },
    {
      "fromDt": "01/2008",
      "toDt": null,
      "orgNm": "STONEBURNER & FRANK WEALTH MANAGEMENT GROUP, LTD.",
      "city": "DUBLIN",
      "state": 36,
      "stateSpecified": true
    }
  ],
  "OthrBuss": {
    "OthrBus": {
      "desc": "1. FIXED INSURANCE; AS AN AGENT UNDER THE DBA NAME STONEBURNER WEALTH MANAGEMENT LLC; CONDUCTED FROM BRANCH LOCATION; INVESTMENT RELATED. 2. INDIVIDUAL & GROUP HEALTH INSURANCE PLANS; UNDER THE NAME JANIS HALTEMAN; CONDUCTED FROM BRANCH LOCATION; INVESTMENT RELATED."
    }
  },
  "DRPs": []
}