{
  "Info": {
    "lastNm": "BOWMAN",
    "firstNm": "MARTA",
    "midNm": "CHRISTINE",
    "sufNm": null,
    "indvlPK": "4096924",
    "actvAGReg": 0,
    "link": "http://www.adviserinfo.sec.gov/IAPD/Individual/4096924"
  },
  "OthrNms": [],
  "CrntEmps": [
    {
      "CrntRgstns": [
        {
          "regAuth": 4,
          "regCat": 0,
          "st": 2,
          "stDt": "2011-01-03T00:00:00"
        },
        {
          "regAuth": 24,
          "regCat": 0,
          "st": 2,
          "stDt": "2013-11-04T00:00:00"
        }
      ],
      "BrnchOfLocs": [
        {
          "str1": "430 WABASHA ST N, 3RD FL",
          "str2": "[GJ-RBO]",
          "city": "SAINT PAUL",
          "state": 24,
          "stateSpecified": true,
          "cntry": "United States",
          "postlCd": "55101"
        },
        {
          "str1": "90 S 7TH ST 10TH & 11TH FLS",
          "str2": "[GE-RBO]",
          "city": "MINNEAPOLIS",
          "state": 24,
          "stateSpecified": true,
          "cntry": "United States",
          "postlCd": "55402"
        }
      ],
      "orgNm": "WELLS FARGO ADVISORS, LLC",
      "orgPK": "19616",
      "str1": "ONE NORTH JEFFERSON AVENUE",
      "str2": "MAIL CODE: H0004-050",
      "city": "ST. LOUIS",
      "state": 25,
      "stateSpecified": true,
      "cntry": "United States",
      "postlCd": "63103-2205"
    }
  ],
  "Exms": [
    {
      "exmCd": 3,
      "exmNm": "Uniform Combined State Law Examination",
      "exmDt": "2000-07-26T00:00:00",
      "exmDtSpecified": true
    }
  ],
  "Dsgntns": [],
  "PrevRgstns": [
    {
      "BrnchOfLocs": [
        {
          "city": "MINNEAPOLIS",
          "state": 24,
          "stateSpecified": true
        },
        {
          "city": "MINNEAPOLIS",
          "state": 24,
          "stateSpecified": true
        },
        {
          "city": "MINNEAPOLIS",
          "state": 24,
          "stateSpecified": true
        },
        {
          "city": "MINNEAPOLIS",
          "state": 24,
          "stateSpecified": true
        },
        {
          "city": "MINNEAPOLIS",
          "state": 24,
          "stateSpecified": true
        },
        {
          "city": "MINNEAPOLIS",
          "state": 24,
          "stateSpecified": true
        }
      ],
      "orgNm": "WELLS FARGO INVESTMENTS, LLC",
      "orgPK": "10582",
      "regBeginDt": "2005-04-21T00:00:00",
      "regBeginDtSpecified": true,
      "regEndDt": "2011-01-03T00:00:00",
      "regEndDtSpecified": true
    }
  ],
  "EmpHss": [
    {
      "fromDt": "12/2000",
      "toDt": "01/2011",
      "orgNm": "WELLS FARGO INVESTMENTS, LLC",
      "city": "MINNEAPOLIS",
      "state": 24,
      "stateSpecified": true
    },
    {
      "fromDt": "01/2011",
      "toDt": null,
      "orgNm": "WELLS FARGO ADVISORS LLC",
      "city": "MINNEAPOLIS",
      "state": 24,
      "stateSpecified": true
    }
  ],
  "OthrBuss": {
    "OthrBus": {
      "desc": "TOWNHOME ASSOCIATION; NOT INVESTMENT RELATED; MINNEAPOLIS, MN; HOMEOWNERS ASSOCIATION; SECRETARY; START 2/1/2000; 1 HOUR PER MONTH; 0 DURING TRADING; DUTIES ARE TO TAKE NOTES AT MEETINGS AND WRITE MINUTES. CITY OF MINNEAPOLIS, WARD 10, PRECINCT 01 ELECTION JUDGE; NOT INV. RELATED; MINNEAPOLIS, MN; CHAIR JUDGE; START DATE SEPTEMBER 1990; 14 HRS PR MONTH; 6.50 HRS DURING TRADING; OPENING, SETTING UP, TEARING DOWN AND CLOSING ELECTION POLE, HELPING VOTERS, ETC."
    }
  },
  "DRPs": []
}