{
  "Info": {
    "lastNm": "HODGES",
    "firstNm": "ANDREW",
    "midNm": "BURKE",
    "sufNm": null,
    "indvlPK": "4099266",
    "actvAGReg": 0,
    "link": "http://www.adviserinfo.sec.gov/IAPD/Individual/4099266"
  },
  "OthrNms": [
    {
      "lastNm": "HODGES",
      "firstNm": "ANDREW",
      "midNm": null,
      "sufNm": null
    },
    {
      "lastNm": "HODGES",
      "firstNm": "ANDREW",
      "midNm": "BURKE",
      "sufNm": null
    },
    {
      "lastNm": "HODGES",
      "firstNm": "ANDY",
      "midNm": null,
      "sufNm": null
    }
  ],
  "CrntEmps": [
    {
      "CrntRgstns": [
        {
          "regAuth": 45,
          "regCat": 0,
          "st": 2,
          "stDt": "2016-04-20T00:00:00"
        }
      ],
      "BrnchOfLocs": [
        {
          "str1": "2900 WESLAYAN",
          "str2": null,
          "city": "HOUSTON",
          "state": 45,
          "stateSpecified": true,
          "cntry": "United States",
          "postlCd": "77027"
        }
      ],
      "orgNm": "J.P. MORGAN SECURITIES LLC",
      "orgPK": "79",
      "str1": "277 PARK AVENUE",
      "str2": null,
      "city": "NEW YORK",
      "state": 35,
      "stateSpecified": true,
      "cntry": "United States",
      "postlCd": "10172"
    }
  ],
  "Exms": [
    {
      "exmCd": 0,
      "exmNm": "Uniform Securities Agent State Law Examination",
      "exmDt": "2001-07-18T00:00:00",
      "exmDtSpecified": true
    },
    {
      "exmCd": 2,
      "exmNm": "Uniform Investment Adviser Law Examination",
      "exmDt": "2008-02-26T00:00:00",
      "exmDtSpecified": true
    }
  ],
  "Dsgntns": [],
  "PrevRgstns": [
    {
      "BrnchOfLocs": [
        {
          "city": "HOUSTON",
          "state": 45,
          "stateSpecified": true
        },
        {
          "city": "SALT LAKE CITY",
          "state": 46,
          "stateSpecified": true
        }
      ],
      "orgNm": "ZIONS CAPITAL ADVISORS, INC.",
      "orgPK": "131308",
      "regBeginDt": "2008-03-11T00:00:00",
      "regBeginDtSpecified": true,
      "regEndDt": "2009-01-06T00:00:00",
      "regEndDtSpecified": true
    },
    {
      "BrnchOfLocs": [
        {
          "city": "CYPRESS",
          "state": 45,
          "stateSpecified": true
        },
        {
          "city": "HOUSTON",
          "state": 45,
          "stateSpecified": true
        },
        {
          "city": "HOUSTON",
          "state": 45,
          "stateSpecified": true
        }
      ],
      "orgNm": "AMEGY INVESTMENTS, INC.",
      "orgPK": "120145",
      "regBeginDt": "2009-01-13T00:00:00",
      "regBeginDtSpecified": true,
      "regEndDt": "2009-05-06T00:00:00",
      "regEndDtSpecified": true
    },
    {
      "BrnchOfLocs": [
        {
          "city": "BELLAIRE",
          "state": 45,
          "stateSpecified": true
        },
        {
          "city": "HOUSTON",
          "state": 45,
          "stateSpecified": true
        },
        {
          "city": "MCKINNEY",
          "state": 45,
          "stateSpecified": true
        },
        {
          "city": "TULSA",
          "state": 37,
          "stateSpecified": true
        }
      ],
      "orgNm": "BOSC, INC.",
      "orgPK": "17530",
      "regBeginDt": "2010-10-05T00:00:00",
      "regBeginDtSpecified": true,
      "regEndDt": "2015-06-26T00:00:00",
      "regEndDtSpecified": true
    }
  ],
  "EmpHss": [
    {
      "fromDt": "06/2003",
      "toDt": "07/2011",
      "orgNm": "KELLER WILLIAMS",
      "city": "HOUSTON",
      "state": 45,
      "stateSpecified": true
    },
    {
      "fromDt": "10/2004",
      "toDt": "12/2006",
      "orgNm": "AMEGY BANK N.A.",
      "city": "HOUSTON",
      "state": 45,
      "stateSpecified": true
    },
    {
      "fromDt": "03/2005",
      "toDt": "12/2006",
      "orgNm": "AMEGY INVESTMENTS, INC.",
      "city": "HOUSTON",
      "state": 45,
      "stateSpecified": true
    },
    {
      "fromDt": "01/2007",
      "toDt": "01/2009",
      "orgNm": "ZIONS NATIONAL BANK",
      "city": "Houston",
      "state": 45,
      "stateSpecified": true
    },
    {
      "fromDt": "01/2009",
      "toDt": "05/2009",
      "orgNm": "AMEGY BANK NA",
      "city": "HOUSTON",
      "state": 45,
      "stateSpecified": true
    },
    {
      "fromDt": "01/2009",
      "toDt": "05/2009",
      "orgNm": "AMEGY INVESTMENTS, INC.",
      "city": "HOUSTON",
      "state": 45,
      "stateSpecified": true
    },
    {
      "fromDt": "06/2009",
      "toDt": "11/2009",
      "orgNm": "UNEMPLOYED",
      "city": "HOUSTON",
      "state": 45,
      "stateSpecified": true
    },
    {
      "fromDt": "10/2010",
      "toDt": "08/2015",
      "orgNm": "BANK OF TEXAS",
      "city": "BELLAIRE",
      "state": 45,
      "stateSpecified": true
    },
    {
      "fromDt": "10/2010",
      "toDt": "06/2015",
      "orgNm": "BOSC, INC.",
      "city": "BELLAIRE",
      "state": 45,
      "stateSpecified": true
    },
    {
      "fromDt": "08/2015",
      "toDt": "04/2016",
      "orgNm": "UNEMPLOYED",
      "city": "HOUSTON",
      "state": 45,
      "stateSpecified": true
    },
    {
      "fromDt": "04/2016",
      "toDt": null,
      "orgNm": "JP MORGAN SECURITIES LLC",
      "city": "HOUSTON",
      "state": 45,
      "stateSpecified": true
    },
    {
      "fromDt": "04/2016",
      "toDt": null,
      "orgNm": "JPMORGAN CHASE BANK",
      "city": "HOUSTON",
      "state": 45,
      "stateSpecified": true
    }
  ],
  "OthrBuss": {
    "OthrBus": null
  },
  "DRPs": []
}