{
  "Info": {
    "lastNm": "ROOT",
    "firstNm": "STEPHEN",
    "midNm": "BENJAMIN",
    "sufNm": null,
    "indvlPK": "4103144",
    "actvAGReg": 0,
    "link": "http://www.adviserinfo.sec.gov/IAPD/Individual/4103144"
  },
  "OthrNms": [
    {
      "lastNm": "ROOT",
      "firstNm": "STEPHEN",
      "midNm": "B.",
      "sufNm": null
    }
  ],
  "CrntEmps": [
    {
      "CrntRgstns": [
        {
          "regAuth": 21,
          "regCat": 0,
          "st": 2,
          "stDt": "2009-03-10T00:00:00"
        },
        {
          "regAuth": 45,
          "regCat": 0,
          "st": 3,
          "stDt": "2009-04-17T00:00:00"
        }
      ],
      "BrnchOfLocs": [
        {
          "str1": "2661 RIVA RD STE 1011",
          "str2": null,
          "city": "ANNAPOLIS",
          "state": 21,
          "stateSpecified": true,
          "cntry": "United States",
          "postlCd": "21401"
        }
      ],
      "orgNm": "WELLS FARGO ADVISORS, LLC",
      "orgPK": "19616",
      "str1": "ONE NORTH JEFFERSON AVENUE",
      "str2": "MAIL CODE: H0004-050",
      "city": "ST. LOUIS",
      "state": 25,
      "stateSpecified": true,
      "cntry": "United States",
      "postlCd": "63103-2205"
    }
  ],
  "Exms": [
    {
      "exmCd": 3,
      "exmNm": "Uniform Combined State Law Examination",
      "exmDt": "2005-07-11T00:00:00",
      "exmDtSpecified": true
    }
  ],
  "Dsgntns": [],
  "PrevRgstns": [
    {
      "BrnchOfLocs": [
        {
          "city": "ANNAPOLIS",
          "state": 21,
          "stateSpecified": true
        }
      ],
      "orgNm": "LEGG MASON WOOD WALKER, INCORPORATED",
      "orgPK": "6555",
      "regBeginDt": "2005-07-12T00:00:00",
      "regBeginDtSpecified": true,
      "regEndDt": "2006-02-21T00:00:00",
      "regEndDtSpecified": true
    },
    {
      "BrnchOfLocs": [
        {
          "city": "ANNAPOLIS",
          "state": 21,
          "stateSpecified": true
        },
        {
          "city": "ANNAPOLIS",
          "state": 21,
          "stateSpecified": true
        },
        {
          "city": "NEW YORK",
          "state": 35,
          "stateSpecified": true
        }
      ],
      "orgNm": "CITIGROUP GLOBAL MARKETS INC.",
      "orgPK": "7059",
      "regBeginDt": "2006-02-21T00:00:00",
      "regBeginDtSpecified": true,
      "regEndDt": "2009-03-24T00:00:00",
      "regEndDtSpecified": true
    }
  ],
  "EmpHss": [
    {
      "fromDt": "02/2006",
      "toDt": "03/2009",
      "orgNm": "CITIGROUP GLOBAL MARKETS INC.",
      "city": "ANNAPOLIS",
      "state": 21,
      "stateSpecified": true
    },
    {
      "fromDt": "03/2009",
      "toDt": "05/2009",
      "orgNm": "WACHOVIA SECURITIES",
      "city": "ANAPOLIS",
      "state": 21,
      "stateSpecified": true
    },
    {
      "fromDt": "05/2009",
      "toDt": null,
      "orgNm": "WELLS FARGO ADVISORS LLC",
      "city": "ANNAPOLIS",
      "state": 21,
      "stateSpecified": true
    }
  ],
  "OthrBuss": {
    "OthrBus": null
  },
  "DRPs": []
}