{
  "Info": {
    "lastNm": "ROHDE",
    "firstNm": "MATTHEW",
    "midNm": "WILLIAM",
    "sufNm": null,
    "indvlPK": "4119277",
    "actvAGReg": 0,
    "link": "http://www.adviserinfo.sec.gov/IAPD/Individual/4119277"
  },
  "OthrNms": [],
  "CrntEmps": [
    {
      "CrntRgstns": [
        {
          "regAuth": 36,
          "regCat": 0,
          "st": 2,
          "stDt": "2010-12-22T00:00:00"
        }
      ],
      "BrnchOfLocs": [
        {
          "str1": "4379 WEST 219TH ST STE 101",
          "str2": null,
          "city": "FAIRVIEW PARK",
          "state": 36,
          "stateSpecified": true,
          "cntry": "United States",
          "postlCd": "44126"
        }
      ],
      "orgNm": "CETERA ADVISOR NETWORKS LLC",
      "orgPK": "13572",
      "str1": "200 N. SEPULVEDA BLVD.",
      "str2": "SUITE 1300",
      "city": "EL SEGUNDO",
      "state": 4,
      "stateSpecified": true,
      "cntry": "United States",
      "postlCd": "90245-5672"
    }
  ],
  "Exms": [
    {
      "exmCd": 0,
      "exmNm": "Uniform Securities Agent State Law Examination",
      "exmDt": "2008-04-18T00:00:00",
      "exmDtSpecified": true
    }
  ],
  "Dsgntns": [],
  "PrevRgstns": [
    {
      "BrnchOfLocs": [
        {
          "city": "FAIRVIEW PARK",
          "state": 36,
          "stateSpecified": true
        },
        {
          "city": "NORTH OLMSTED",
          "state": 36,
          "stateSpecified": true
        },
        {
          "city": "OLMSTED TOWNSHIP",
          "state": 36,
          "stateSpecified": true
        },
        {
          "city": "ROCKY RIVER",
          "state": 36,
          "stateSpecified": true
        }
      ],
      "orgNm": "CETERA ADVISOR NETWORKS LLC",
      "orgPK": "13572",
      "regBeginDt": "2000-05-01T00:00:00",
      "regBeginDtSpecified": true,
      "regEndDt": "2008-06-03T00:00:00",
      "regEndDtSpecified": true
    },
    {
      "BrnchOfLocs": [
        {
          "city": "VALLEY VIEW",
          "state": 36,
          "stateSpecified": true
        }
      ],
      "orgNm": "FINANCIAL MANAGEMENT STRATEGIES, INC.",
      "orgPK": "120818",
      "regBeginDt": "2009-08-04T00:00:00",
      "regBeginDtSpecified": true,
      "regEndDt": "2010-12-03T00:00:00",
      "regEndDtSpecified": true
    }
  ],
  "EmpHss": [
    {
      "fromDt": "12/1999",
      "toDt": "05/2008",
      "orgNm": "FINANCIAL NETWORK INV. CORP.",
      "city": "ROCKY RIVER",
      "state": 36,
      "stateSpecified": true
    },
    {
      "fromDt": "09/2001",
      "toDt": "05/2008",
      "orgNm": "FIRST FEDERAL OF LAKEWOOD",
      "city": "LAKEWOOD",
      "state": 36,
      "stateSpecified": true
    },
    {
      "fromDt": "06/2008",
      "toDt": "11/2010",
      "orgNm": "FINANCIAL MANAGEMENT STRATEGIES, INC.",
      "city": "VALLEY VIEW",
      "state": 36,
      "stateSpecified": true
    },
    {
      "fromDt": "06/2008",
      "toDt": "11/2010",
      "orgNm": "PLANCORP, INC.",
      "city": "VALLEY VIEW",
      "state": 36,
      "stateSpecified": true
    },
    {
      "fromDt": "06/2008",
      "toDt": "11/2010",
      "orgNm": "WALNUT STREET SECURITIES INC",
      "city": "VALLEY VIEW",
      "state": 36,
      "stateSpecified": true
    },
    {
      "fromDt": "12/2010",
      "toDt": "12/2012",
      "orgNm": "FINANCIAL NETWORK",
      "city": "EL SEGUNDO",
      "state": 4,
      "stateSpecified": true
    },
    {
      "fromDt": "01/2013",
      "toDt": null,
      "orgNm": "CETERA ADVISOR NETWORKS LLC",
      "city": "EL SEGUNDO",
      "state": 4,
      "stateSpecified": true
    }
  ],
  "OthrBuss": {
    "OthrBus": {
      "desc": "1. NAME OF OTHER BUSINESS: FIXED INSURANCE WITH VARIOUS COMPANIES  INVESTMENT RELATED: YES   ADDRESS: SAME AS REGISTERED LOCATION   NATURE OF BUSINESS: FIXED INSURANCE  POSITION/TITLE/RELATIONSHIP: INSURANCE AGENT   BRIEF DESCRIPTION OF DUTIES: SELLS LIFE,  ANNUITIES AND LONG TERM CARE             2. 2. NAME OF OTHER BUSINESS: LRS  NOT INVESTMENT RELATED  ADDRESS: SAME AS REGISTERED ADDRESS  NATURE OF BUSINESS: OFFICE PAYROLL  START DATE: 05/2014  POSITION/TITLE/RELATIONSHIP: VP  APX NUMBER OF HOURS PER WEEK: 1  NONE DURING TRADING HOURS  BRIEF DESCRIPTION OF DUTIES: WORKS WITH ACCOUNTANT ON OFFICE PAYROLL"
    }
  },
  "DRPs": [
    {
      "hasRegAction": 1,
      "hasRegActionSpecified": true,
      "hasCriminal": 1,
      "hasCriminalSpecified": true,
      "hasBankrupt": 1,
      "hasBankruptSpecified": true,
      "hasCivilJudc": 1,
      "hasCivilJudcSpecified": true,
      "hasBond": 1,
      "hasBondSpecified": true,
      "hasJudgment": 1,
      "hasJudgmentSpecified": true,
      "hasInvstgn": 1,
      "hasInvstgnSpecified": true,
      "hasCustComp": 0,
      "hasCustCompSpecified": true,
      "hasTermination": 1,
      "hasTerminationSpecified": true
    }
  ]
}