{
  "Info": {
    "lastNm": "MATHIAS",
    "firstNm": "JESSICA",
    "midNm": "ELLEN",
    "sufNm": null,
    "indvlPK": "4121117",
    "actvAGReg": 0,
    "link": "http://www.adviserinfo.sec.gov/IAPD/Individual/4121117"
  },
  "OthrNms": [
    {
      "lastNm": "SINDRIC",
      "firstNm": "JESSICA",
      "midNm": "ELLEN",
      "sufNm": null
    },
    {
      "lastNm": "SINDRIC",
      "firstNm": "JESSICA",
      "midNm": "ELLEN",
      "sufNm": null
    }
  ],
  "CrntEmps": [
    {
      "CrntRgstns": [
        {
          "regAuth": 50,
          "regCat": 0,
          "st": 2,
          "stDt": "2007-08-01T00:00:00"
        }
      ],
      "BrnchOfLocs": [
        {
          "str1": "606 E WISCONSIN AVE",
          "str2": "STE 1",
          "city": "OCONOMOWOC",
          "state": 50,
          "stateSpecified": true,
          "cntry": "United States",
          "postlCd": "53066-3044"
        }
      ],
      "orgNm": "AMERIPRISE FINANCIAL SERVICES, INC.",
      "orgPK": "6363",
      "str1": "707 2ND AVENUE SOUTH",
      "str2": null,
      "city": "MINNEAPOLIS",
      "state": 24,
      "stateSpecified": true,
      "cntry": "United States",
      "postlCd": "55402"
    }
  ],
  "Exms": [
    {
      "exmCd": 3,
      "exmNm": "Uniform Combined State Law Examination",
      "exmDt": "2005-08-25T00:00:00",
      "exmDtSpecified": true
    }
  ],
  "Dsgntns": [],
  "PrevRgstns": [
    {
      "BrnchOfLocs": [
        {
          "city": "DELAFIELD",
          "state": 50,
          "stateSpecified": true
        },
        {
          "city": "WAUKESHA",
          "state": 50,
          "stateSpecified": true
        },
        {
          "city": "WAUKESHA",
          "state": 50,
          "stateSpecified": true
        }
      ],
      "orgNm": "WELLS FARGO INVESTMENTS, LLC",
      "orgPK": "10582",
      "regBeginDt": "2005-08-31T00:00:00",
      "regBeginDtSpecified": true,
      "regEndDt": "2007-08-03T00:00:00",
      "regEndDtSpecified": true
    }
  ],
  "EmpHss": [
    {
      "fromDt": "11/2002",
      "toDt": "08/2007",
      "orgNm": "WELLS FARGO BANK",
      "city": "WAUKESHA",
      "state": 50,
      "stateSpecified": true
    },
    {
      "fromDt": "03/2005",
      "toDt": "08/2007",
      "orgNm": "WELLS FARGO INVESTMENTS LLC",
      "city": "WAUKESHA",
      "state": 50,
      "stateSpecified": true
    },
    {
      "fromDt": "08/2007",
      "toDt": null,
      "orgNm": "AMERIPRISE FINANCIAL SERVICES INC",
      "city": "APPLETON",
      "state": 50,
      "stateSpecified": true
    }
  ],
  "OthrBuss": {
    "OthrBus": {
      "desc": "REAL ESTATE OWNERSHIP:LOT/LAND,SOHOLT ROAD LOT 5 OF BUTTERNUT ESTATES SARONA, WI 54870,INC:$0/COMMERCIAL,606 E WISCONSIN OCONOMWOC, WI 53066,INC:$1-$999. BUSINESS OWNERSHIP:MATHIAS PROPERTIES, LLC.,MANAGING PARTNER,THIS LLC IS BEING ESTABLISHED TO HOLD THE COMMERCIAL PROPERTY AT 606 E. WISCONSIN  OCONOMOWOC, WI 53066,INC:$1-$999,HRS:1-9."
    }
  },
  "DRPs": []
}