{
  "Info": {
    "lastNm": "BHARARA",
    "firstNm": "ASHU",
    "midNm": null,
    "sufNm": null,
    "indvlPK": "4127603",
    "actvAGReg": 0,
    "link": "http://www.adviserinfo.sec.gov/IAPD/Individual/4127603"
  },
  "OthrNms": [],
  "CrntEmps": [
    {
      "CrntRgstns": [
        {
          "regAuth": 19,
          "regCat": 0,
          "st": 2,
          "stDt": "2012-10-01T00:00:00"
        },
        {
          "regAuth": 45,
          "regCat": 0,
          "st": 3,
          "stDt": "2014-06-11T00:00:00"
        },
        {
          "regAuth": 32,
          "regCat": 0,
          "st": 2,
          "stDt": "2015-01-30T00:00:00"
        }
      ],
      "BrnchOfLocs": [
        {
          "str1": "1 UNITED NATIONS PLAZA",
          "str2": null,
          "city": "NEW YORK",
          "state": 35,
          "stateSpecified": true,
          "cntry": "United States",
          "postlCd": "10017"
        },
        {
          "str1": "2 PARK AVENUE",
          "str2": null,
          "city": "NEW YORK",
          "state": 35,
          "stateSpecified": true,
          "cntry": "United States",
          "postlCd": "10016"
        },
        {
          "str1": "260 MADISON AVENUE",
          "str2": null,
          "city": "NEW YORK",
          "state": 35,
          "stateSpecified": true,
          "cntry": "United States",
          "postlCd": "10016"
        },
        {
          "str1": "277 PARK AVENUE",
          "str2": null,
          "city": "NEW YORK",
          "state": 35,
          "stateSpecified": true,
          "cntry": "United States",
          "postlCd": "10172"
        },
        {
          "str1": "277 Park Avenue",
          "str2": null,
          "city": "New York",
          "state": 35,
          "stateSpecified": true,
          "cntry": "United States",
          "postlCd": "10172"
        },
        {
          "str1": "355 LEXINGTON",
          "str2": null,
          "city": "NEW YORK",
          "state": 35,
          "stateSpecified": true,
          "cntry": "United States",
          "postlCd": "10017"
        },
        {
          "str1": "360 PARK AVENUE AT 52ND STREET",
          "str2": null,
          "city": "NEW YORK",
          "state": 35,
          "stateSpecified": true,
          "cntry": "United States",
          "postlCd": "10022"
        },
        {
          "str1": "386 PARK AVE SOUTH",
          "str2": null,
          "city": "NEW YORK",
          "state": 35,
          "stateSpecified": true,
          "cntry": "United States",
          "postlCd": "10016"
        },
        {
          "str1": "401 MADISON AVE",
          "str2": null,
          "city": "NEW YORK",
          "state": 35,
          "stateSpecified": true,
          "cntry": "United States",
          "postlCd": "10017"
        },
        {
          "str1": "405 LEXINGTON AVE",
          "str2": null,
          "city": "NEW YORK",
          "state": 35,
          "stateSpecified": true,
          "cntry": "United States",
          "postlCd": "10174"
        },
        {
          "str1": "450 THIRD AVENUE",
          "str2": null,
          "city": "NEW YORK",
          "state": 35,
          "stateSpecified": true,
          "cntry": "United States",
          "postlCd": "10016"
        },
        {
          "str1": "460 PARK AVE",
          "str2": null,
          "city": "NEW YORK",
          "state": 35,
          "stateSpecified": true,
          "cntry": "United States",
          "postlCd": "10016"
        },
        {
          "str1": "466 LEXINGTON AVE.",
          "str2": null,
          "city": "NEW YORK",
          "state": 35,
          "stateSpecified": true,
          "cntry": "United States",
          "postlCd": "10017"
        },
        {
          "str1": "60 EAST 42ND STREET",
          "str2": null,
          "city": "NEW YORK",
          "state": 35,
          "stateSpecified": true,
          "cntry": "United States",
          "postlCd": "10165"
        },
        {
          "str1": "633 THIRD AVENUE",
          "str2": null,
          "city": "NEW YORK",
          "state": 35,
          "stateSpecified": true,
          "cntry": "United States",
          "postlCd": "10017"
        },
        {
          "str1": "801 SECOND AVE.",
          "str2": null,
          "city": "NEW YORK",
          "state": 35,
          "stateSpecified": true,
          "cntry": "United States",
          "postlCd": "10017"
        },
        {
          "str1": "850 THIRD AVENUE",
          "str2": null,
          "city": "NEW YORK",
          "state": 35,
          "stateSpecified": true,
          "cntry": "United States",
          "postlCd": "10022"
        },
        {
          "str1": "900 FIRST AVE.",
          "str2": null,
          "city": "NEW YORK",
          "state": 35,
          "stateSpecified": true,
          "cntry": "United States",
          "postlCd": "10022"
        }
      ],
      "orgNm": "J.P. MORGAN SECURITIES LLC",
      "orgPK": "79",
      "str1": "277 PARK AVENUE",
      "str2": null,
      "city": "NEW YORK",
      "state": 35,
      "stateSpecified": true,
      "cntry": "United States",
      "postlCd": "10172"
    }
  ],
  "Exms": [
    {
      "exmCd": 0,
      "exmNm": "Uniform Securities Agent State Law Examination",
      "exmDt": "2000-03-22T00:00:00",
      "exmDtSpecified": true
    },
    {
      "exmCd": 2,
      "exmNm": "Uniform Investment Adviser Law Examination",
      "exmDt": "2007-08-27T00:00:00",
      "exmDtSpecified": true
    }
  ],
  "Dsgntns": [],
  "PrevRgstns": [
    {
      "BrnchOfLocs": [
        {
          "city": "ABBEVILLE",
          "state": 19,
          "stateSpecified": true
        },
        {
          "city": "ABBEVILLE",
          "state": 19,
          "stateSpecified": true
        },
        {
          "city": "ABBEVILLE",
          "state": 19,
          "stateSpecified": true
        },
        {
          "city": "ALEXANDRIA",
          "state": 19,
          "stateSpecified": true
        },
        {
          "city": "ALEXANDRIA",
          "state": 19,
          "stateSpecified": true
        },
        {
          "city": "ALEXANDRIA",
          "state": 19,
          "stateSpecified": true
        },
        {
          "city": "ALEXANDRIA",
          "state": 19,
          "stateSpecified": true
        },
        {
          "city": "ALEXANDRIA",
          "state": 19,
          "stateSpecified": true
        },
        {
          "city": "ALEXANDRIA",
          "state": 19,
          "stateSpecified": true
        },
        {
          "city": "BAKER",
          "state": 19,
          "stateSpecified": true
        },
        {
          "city": "BALL",
          "state": 19,
          "stateSpecified": true
        },
        {
          "city": "BALL",
          "state": 19,
          "stateSpecified": true
        },
        {
          "city": "BATON ROUGE",
          "state": 19,
          "stateSpecified": true
        },
        {
          "city": "BATON ROUGE",
          "state": 19,
          "stateSpecified": true
        },
        {
          "city": "BATON ROUGE",
          "state": 19,
          "stateSpecified": true
        },
        {
          "city": "BATON ROUGE",
          "state": 19,
          "stateSpecified": true
        },
        {
          "city": "BATON ROUGE",
          "state": 19,
          "stateSpecified": true
        },
        {
          "city": "BATON ROUGE",
          "state": 19,
          "stateSpecified": true
        },
        {
          "city": "BATON ROUGE",
          "state": 19,
          "stateSpecified": true
        },
        {
          "city": "BATON ROUGE",
          "state": 19,
          "stateSpecified": true
        },
        {
          "city": "BATON ROUGE",
          "state": 19,
          "stateSpecified": true
        },
        {
          "city": "BATON ROUGE",
          "state": 19,
          "stateSpecified": true
        },
        {
          "city": "BATON ROUGE",
          "state": 19,
          "stateSpecified": true
        },
        {
          "city": "BATON ROUGE",
          "state": 19,
          "stateSpecified": true
        },
        {
          "city": "BATON ROUGE",
          "state": 19,
          "stateSpecified": true
        },
        {
          "city": "BATON ROUGE",
          "state": 19,
          "stateSpecified": true
        },
        {
          "city": "BATON ROUGE",
          "state": 19,
          "stateSpecified": true
        },
        {
          "city": "BATON ROUGE",
          "state": 19,
          "stateSpecified": true
        },
        {
          "city": "BATON ROUGE",
          "state": 19,
          "stateSpecified": true
        },
        {
          "city": "BATON ROUGE",
          "state": 19,
          "stateSpecified": true
        },
        {
          "city": "BATON ROUGE",
          "state": 19,
          "stateSpecified": true
        },
        {
          "city": "BATON ROUGE",
          "state": 19,
          "stateSpecified": true
        },
        {
          "city": "BATON ROUGE",
          "state": 19,
          "stateSpecified": true
        },
        {
          "city": "BATON ROUGE",
          "state": 19,
          "stateSpecified": true
        },
        {
          "city": "BATON ROUGE",
          "state": 19,
          "stateSpecified": true
        },
        {
          "city": "BATON ROUGE",
          "state": 19,
          "stateSpecified": true
        },
        {
          "city": "BATON ROUGE",
          "state": 19,
          "stateSpecified": true
        },
        {
          "city": "BATON ROUGE",
          "state": 19,
          "stateSpecified": true
        },
        {
          "city": "BATON ROUGE",
          "state": 19,
          "stateSpecified": true
        },
        {
          "city": "BATON ROUGE",
          "state": 19,
          "stateSpecified": true
        },
        {
          "city": "BATON ROUGE",
          "state": 19,
          "stateSpecified": true
        },
        {
          "city": "BROUSSARD",
          "state": 19,
          "stateSpecified": true
        },
        {
          "city": "BROUSSARD",
          "state": 19,
          "stateSpecified": true
        },
        {
          "city": "BROUSSARD",
          "state": 19,
          "stateSpecified": true
        },
        {
          "city": "CARENCRO",
          "state": 19,
          "stateSpecified": true
        },
        {
          "city": "CARENCRO",
          "state": 19,
          "stateSpecified": true
        },
        {
          "city": "CARENCRO",
          "state": 19,
          "stateSpecified": true
        },
        {
          "city": "DENHAM SPRINGS",
          "state": 19,
          "stateSpecified": true
        },
        {
          "city": "DEQUINCY",
          "state": 19,
          "stateSpecified": true
        },
        {
          "city": "DEQUINCY",
          "state": 19,
          "stateSpecified": true
        },
        {
          "city": "DERIDDER",
          "state": 19,
          "stateSpecified": true
        },
        {
          "city": "DERIDDER",
          "state": 19,
          "stateSpecified": true
        },
        {
          "city": "GONZALES",
          "state": 19,
          "stateSpecified": true
        },
        {
          "city": "GREENWELL SPRINGS",
          "state": 19,
          "stateSpecified": true
        },
        {
          "city": "LAFAYETTE",
          "state": 19,
          "stateSpecified": true
        },
        {
          "city": "LAFAYETTE",
          "state": 19,
          "stateSpecified": true
        },
        {
          "city": "LAFAYETTE",
          "state": 19,
          "stateSpecified": true
        },
        {
          "city": "LAFAYETTE",
          "state": 19,
          "stateSpecified": true
        },
        {
          "city": "LAFAYETTE",
          "state": 19,
          "stateSpecified": true
        },
        {
          "city": "LAFAYETTE",
          "state": 19,
          "stateSpecified": true
        },
        {
          "city": "LAFAYETTE",
          "state": 19,
          "stateSpecified": true
        },
        {
          "city": "LAFAYETTE",
          "state": 19,
          "stateSpecified": true
        },
        {
          "city": "LAFAYETTE",
          "state": 19,
          "stateSpecified": true
        },
        {
          "city": "LAFAYETTE",
          "state": 19,
          "stateSpecified": true
        },
        {
          "city": "LAFAYETTE",
          "state": 19,
          "stateSpecified": true
        },
        {
          "city": "LAFAYETTE",
          "state": 19,
          "stateSpecified": true
        },
        {
          "city": "LAFAYETTE",
          "state": 19,
          "stateSpecified": true
        },
        {
          "city": "LAFAYETTE",
          "state": 19,
          "stateSpecified": true
        },
        {
          "city": "LAFAYETTE",
          "state": 19,
          "stateSpecified": true
        },
        {
          "city": "LAFAYETTE",
          "state": 19,
          "stateSpecified": true
        },
        {
          "city": "LAFAYETTE",
          "state": 19,
          "stateSpecified": true
        },
        {
          "city": "LAFAYETTE",
          "state": 19,
          "stateSpecified": true
        },
        {
          "city": "LAFAYETTE",
          "state": 19,
          "stateSpecified": true
        },
        {
          "city": "LAFAYETTE",
          "state": 19,
          "stateSpecified": true
        },
        {
          "city": "LAFAYETTE",
          "state": 19,
          "stateSpecified": true
        },
        {
          "city": "LAFAYETTE",
          "state": 19,
          "stateSpecified": true
        },
        {
          "city": "LAFAYETTE",
          "state": 19,
          "stateSpecified": true
        },
        {
          "city": "LAFAYETTE",
          "state": 19,
          "stateSpecified": true
        },
        {
          "city": "LAFAYETTE",
          "state": 19,
          "stateSpecified": true
        },
        {
          "city": "LAFAYETTE",
          "state": 19,
          "stateSpecified": true
        },
        {
          "city": "LAFAYETTE",
          "state": 19,
          "stateSpecified": true
        },
        {
          "city": "LAFAYETTE",
          "state": 19,
          "stateSpecified": true
        },
        {
          "city": "LAFAYETTE",
          "state": 19,
          "stateSpecified": true
        },
        {
          "city": "LAFAYETTE",
          "state": 19,
          "stateSpecified": true
        },
        {
          "city": "LAFAYETTE",
          "state": 19,
          "stateSpecified": true
        },
        {
          "city": "LAFAYETTE",
          "state": 19,
          "stateSpecified": true
        },
        {
          "city": "LAFAYETTE",
          "state": 19,
          "stateSpecified": true
        },
        {
          "city": "LAFAYETTE",
          "state": 19,
          "stateSpecified": true
        },
        {
          "city": "LAFAYETTE",
          "state": 19,
          "stateSpecified": true
        },
        {
          "city": "LAFAYETTE",
          "state": 19,
          "stateSpecified": true
        },
        {
          "city": "LAKE CHARLES",
          "state": 19,
          "stateSpecified": true
        },
        {
          "city": "LAKE CHARLES",
          "state": 19,
          "stateSpecified": true
        },
        {
          "city": "LAKE CHARLES",
          "state": 19,
          "stateSpecified": true
        },
        {
          "city": "LAKE CHARLES",
          "state": 19,
          "stateSpecified": true
        },
        {
          "city": "LAKE CHARLES",
          "state": 19,
          "stateSpecified": true
        },
        {
          "city": "LAKE CHARLES",
          "state": 19,
          "stateSpecified": true
        },
        {
          "city": "LAKE CHARLES",
          "state": 19,
          "stateSpecified": true
        },
        {
          "city": "LAKE CHARLES",
          "state": 19,
          "stateSpecified": true
        },
        {
          "city": "LAKE CHARLES",
          "state": 19,
          "stateSpecified": true
        },
        {
          "city": "LAKE CHARLES",
          "state": 19,
          "stateSpecified": true
        },
        {
          "city": "LAKE CHARLES",
          "state": 19,
          "stateSpecified": true
        },
        {
          "city": "LAKE CHARLES",
          "state": 19,
          "stateSpecified": true
        },
        {
          "city": "LAKE CHARLES",
          "state": 19,
          "stateSpecified": true
        },
        {
          "city": "LAKE CHARLES",
          "state": 19,
          "stateSpecified": true
        },
        {
          "city": "MOSS BLUFF",
          "state": 19,
          "stateSpecified": true
        },
        {
          "city": "MOSS BLUFF",
          "state": 19,
          "stateSpecified": true
        },
        {
          "city": "NEW IBERIA",
          "state": 19,
          "stateSpecified": true
        },
        {
          "city": "NEW IBERIA",
          "state": 19,
          "stateSpecified": true
        },
        {
          "city": "NEW IBERIA",
          "state": 19,
          "stateSpecified": true
        },
        {
          "city": "NEW IBERIA",
          "state": 19,
          "stateSpecified": true
        },
        {
          "city": "NEW IBERIA",
          "state": 19,
          "stateSpecified": true
        },
        {
          "city": "NEW IBERIA",
          "state": 19,
          "stateSpecified": true
        },
        {
          "city": "NEW IBERIA",
          "state": 19,
          "stateSpecified": true
        },
        {
          "city": "NEW IBERIA",
          "state": 19,
          "stateSpecified": true
        },
        {
          "city": "NEW IBERIA",
          "state": 19,
          "stateSpecified": true
        },
        {
          "city": "OPELOUSAS",
          "state": 19,
          "stateSpecified": true
        },
        {
          "city": "OPELOUSAS",
          "state": 19,
          "stateSpecified": true
        },
        {
          "city": "OPELOUSAS",
          "state": 19,
          "stateSpecified": true
        },
        {
          "city": "OPELOUSAS",
          "state": 19,
          "stateSpecified": true
        },
        {
          "city": "OPELOUSAS",
          "state": 19,
          "stateSpecified": true
        },
        {
          "city": "OPELOUSAS",
          "state": 19,
          "stateSpecified": true
        },
        {
          "city": "PINEVILLE",
          "state": 19,
          "stateSpecified": true
        },
        {
          "city": "PINEVILLE",
          "state": 19,
          "stateSpecified": true
        },
        {
          "city": "PINEVILLE",
          "state": 19,
          "stateSpecified": true
        },
        {
          "city": "PINEVILLE",
          "state": 19,
          "stateSpecified": true
        },
        {
          "city": "PORT BARRE",
          "state": 19,
          "stateSpecified": true
        },
        {
          "city": "PORT BARRE",
          "state": 19,
          "stateSpecified": true
        },
        {
          "city": "PORT BARRE",
          "state": 19,
          "stateSpecified": true
        },
        {
          "city": "SCOTT",
          "state": 19,
          "stateSpecified": true
        },
        {
          "city": "SCOTT",
          "state": 19,
          "stateSpecified": true
        },
        {
          "city": "SCOTT",
          "state": 19,
          "stateSpecified": true
        },
        {
          "city": "SULPHUR",
          "state": 19,
          "stateSpecified": true
        },
        {
          "city": "SULPHUR",
          "state": 19,
          "stateSpecified": true
        },
        {
          "city": "SUNSET",
          "state": 19,
          "stateSpecified": true
        },
        {
          "city": "SUNSET",
          "state": 19,
          "stateSpecified": true
        },
        {
          "city": "SUNSET",
          "state": 19,
          "stateSpecified": true
        },
        {
          "city": "WEST LAKE",
          "state": 19,
          "stateSpecified": true
        },
        {
          "city": "WEST LAKE",
          "state": 19,
          "stateSpecified": true
        },
        {
          "city": "WEST MONROE",
          "state": 19,
          "stateSpecified": true
        },
        {
          "city": "ZACHARY",
          "state": 19,
          "stateSpecified": true
        }
      ],
      "orgNm": "CHASE INVESTMENT SERVICES CORP.",
      "orgPK": "25574",
      "regBeginDt": "2007-08-29T00:00:00",
      "regBeginDtSpecified": true,
      "regEndDt": "2012-10-01T00:00:00",
      "regEndDtSpecified": true
    }
  ],
  "EmpHss": [
    {
      "fromDt": "02/2006",
      "toDt": "10/2012",
      "orgNm": "CHASE INVESTMENT SERVICES CORP",
      "city": "WEST MONROE",
      "state": 19,
      "stateSpecified": true
    },
    {
      "fromDt": "10/2012",
      "toDt": null,
      "orgNm": "J.P. MORGAN SECURITIES LLC",
      "city": "SUNSET",
      "state": 19,
      "stateSpecified": true
    }
  ],
  "OthrBuss": {
    "OthrBus": null
  },
  "DRPs": []
}