{
  "Info": {
    "lastNm": "SHODJA",
    "firstNm": "JASMINE",
    "midNm": "SAMAN",
    "sufNm": null,
    "indvlPK": "4132920",
    "actvAGReg": 0,
    "link": "http://www.adviserinfo.sec.gov/IAPD/Individual/4132920"
  },
  "OthrNms": [
    {
      "lastNm": "SHODJA",
      "firstNm": "SAMAN",
      "midNm": null,
      "sufNm": null
    }
  ],
  "CrntEmps": [
    {
      "CrntRgstns": [
        {
          "regAuth": 4,
          "regCat": 0,
          "st": 2,
          "stDt": "2011-01-03T00:00:00"
        }
      ],
      "BrnchOfLocs": [
        {
          "str1": "5 PARK PLAZA 19TH FL",
          "str2": "[SB-RBO]",
          "city": "IRVINE",
          "state": 4,
          "stateSpecified": true,
          "cntry": "United States",
          "postlCd": "92614"
        },
        {
          "str1": "625 MARQUETTE AVE 12TH FL STE 1200",
          "str2": "[REGIONAL SUPERVISION]",
          "city": "MINNEAPOLIS",
          "state": 24,
          "stateSpecified": true,
          "cntry": "United States",
          "postlCd": "55402"
        }
      ],
      "orgNm": "WELLS FARGO ADVISORS, LLC",
      "orgPK": "19616",
      "str1": "ONE NORTH JEFFERSON AVENUE",
      "str2": "MAIL CODE: H0004-050",
      "city": "ST. LOUIS",
      "state": 25,
      "stateSpecified": true,
      "cntry": "United States",
      "postlCd": "63103-2205"
    }
  ],
  "Exms": [
    {
      "exmCd": 3,
      "exmNm": "Uniform Combined State Law Examination",
      "exmDt": "2010-06-15T00:00:00",
      "exmDtSpecified": true
    }
  ],
  "Dsgntns": [],
  "PrevRgstns": [
    {
      "BrnchOfLocs": [
        {
          "city": "NEWPORT BEACH",
          "state": 4,
          "stateSpecified": true
        }
      ],
      "orgNm": "WELLS FARGO INVESTMENTS, LLC",
      "orgPK": "10582",
      "regBeginDt": "2010-06-16T00:00:00",
      "regBeginDtSpecified": true,
      "regEndDt": "2011-01-03T00:00:00",
      "regEndDtSpecified": true
    }
  ],
  "EmpHss": [
    {
      "fromDt": "08/2002",
      "toDt": null,
      "orgNm": "WELLS FARGO BANK",
      "city": "NEWPORT BEACH",
      "state": 4,
      "stateSpecified": true
    },
    {
      "fromDt": "09/2009",
      "toDt": "01/2011",
      "orgNm": "WELLS FARGO INVESTMENTS, LLC.",
      "city": "NEWPORT BEACH",
      "state": 4,
      "stateSpecified": true
    },
    {
      "fromDt": "01/2011",
      "toDt": null,
      "orgNm": "WELLS FARGO ADVISORS LLC",
      "city": "NEWPORT BEACH",
      "state": 4,
      "stateSpecified": true
    }
  ],
  "OthrBuss": {
    "OthrBus": {
      "desc": "HOMEOWNER OF RENTAL PROPERTY, WORKING OUT OF THE HOME. HAD PROPERTY SINCE 2004.  DUTIES INCLUDE COLLECT MONTHLY RENT.  APPROXIMATE NUMBER OF HOURS PER MONTH DEVOTED TO THIS BUINSSS IS 1 HOUR; NON DURING SECURTIIES TRADING HOURS.   RENTAL PROPERTY; INV RELATED; LAGUNA NIGUEL, CA; 100% OWNERSHIP; START 3/8/2016; 1 HOUR PER MONTH, 0 DURING TRADING; LANDLORD.    RENTAL PROPERTY; INV RELATED; ALISO VIEJO, CA; 100% OWNERSHIP; START 3/18/2016; 1 HOUR PER MONTH, 0 DURING TRADING; LANDLORD.    RENTAL PROPERTY; INV RELATED; LAGUNA NIGUEL, CA; 100% OWNERSHIP; START 4/1/2016; 1 HOUR PER MONTH, 0 DURING TRADING; LANDLORD."
    }
  },
  "DRPs": []
}