{
  "Info": {
    "lastNm": "BODMER",
    "firstNm": "ROBERT",
    "midNm": "EUGENE",
    "sufNm": null,
    "indvlPK": "4139669",
    "actvAGReg": 0,
    "link": "http://www.adviserinfo.sec.gov/IAPD/Individual/4139669"
  },
  "OthrNms": [],
  "CrntEmps": [
    {
      "CrntRgstns": [
        {
          "regAuth": 28,
          "regCat": 0,
          "st": 2,
          "stDt": "2002-03-19T00:00:00"
        },
        {
          "regAuth": 45,
          "regCat": 0,
          "st": 3,
          "stDt": "2011-07-18T00:00:00"
        }
      ],
      "BrnchOfLocs": [
        {
          "str1": "5000 VALLEYSTONE DR",
          "str2": null,
          "city": "CARY",
          "state": 28,
          "stateSpecified": true,
          "cntry": "United States",
          "postlCd": "27519"
        }
      ],
      "orgNm": "MERRILL LYNCH, PIERCE, FENNER & SMITH INCORPORATED",
      "orgPK": "7691",
      "str1": "ONE BRYANT PARK",
      "str2": null,
      "city": "NEW YORK",
      "state": 35,
      "stateSpecified": true,
      "cntry": "United States",
      "postlCd": "10036"
    }
  ],
  "Exms": [
    {
      "exmCd": 3,
      "exmNm": "Uniform Combined State Law Examination",
      "exmDt": "2000-05-12T00:00:00",
      "exmDtSpecified": true
    }
  ],
  "Dsgntns": [],
  "PrevRgstns": [],
  "EmpHss": [
    {
      "fromDt": "02/2000",
      "toDt": null,
      "orgNm": "MERRILL LYNCH",
      "city": "GREENVILLE",
      "state": 28,
      "stateSpecified": true
    }
  ],
  "OthrBuss": {
    "OthrBus": {
      "desc": "I*34111 FOR PROFIT OR NOT FOR PROFIT: FOR-PROFIT ORGANIZATION  NAME OF OUTSIDE BUSINESS ORGANIZATION: APEX EXPRESS, LLC  INVESTMENT RELATED: N  ADDRESS OF BUSINESS:  APEX, NORTH CAROLINA 27502  NATURE OF BUSINESS: LLC,LIMITED LIABILITY CORPORATION (LLC)  POSITION, TITLE, ASSOCIATION: LIMITED PARTNER,   START DATE OF RELATIONSHIP: 6/1/2008  NUMBER OF HOURS DEVOTED: 10 HOUR(S) QUARTERLY  NUMBER OF HOURS DEVOTED DURING TRADING HOURS: 0  DUTIES: VOLUNTEER COACH AND TEACH KIDS SOFTBALL FUNDAMENTALS AND ALSO VOLUNTEER IN HOSTING LEARNING CLINICS AT NO COST FOR YOUTH ATHLETES. THE LLC BASICALLY FORMED SO I COULD OBTAIN A SIGNED WAIVER OF LIABILITY FROM YOUTH PARTICIPANTS    (2)FOR PROFIT OR NOT FOR PROFIT: NON-PROFIT  NAME OF OUTSIDE BUSINESS ORGANIZATION: SOFTBALL COACH- VOLUNTEER  INVESTMENT RELATED: Y  ADDRESS OF BUSINESS: APEX, NC 27502  NATURE OF BUSINESS: SOFTBALL TEAM  POSITION, TITLE, ASSOCIATION:  COACH YOUTH SOFTBALL TEAM AS A VOLUNTEER  START DATE OF RELATIONSHIP: 06/01/2008  NUMBER OF HOURS DEVOTED PER MONTH:  1-10  NUMBER OF HOURS DEVOTED DURING SECURITIES TRADING HOURS: NONE  DUTIES:  BILL PAYING CHECK WRITING FINANCIAL OVERSIGHT. PAY FOR TOURNAMENTS, UNIFORMS, EQUIPMENT PERSONAL FUNDS AND COLLECT TEAM REIMBURSEMENTS FROM PARENTS FOR UNIFORMS AND EQUIPMENT AND TOURNAMENT COSTS"
    }
  },
  "DRPs": []
}