{
  "Info": {
    "lastNm": "BOYKIN",
    "firstNm": "TONY",
    "midNm": "BERNARD",
    "sufNm": null,
    "indvlPK": "4140408",
    "actvAGReg": 0,
    "link": "http://www.adviserinfo.sec.gov/IAPD/Individual/4140408"
  },
  "OthrNms": [],
  "CrntEmps": [
    {
      "CrntRgstns": [
        {
          "regAuth": 1,
          "regCat": 0,
          "st": 2,
          "stDt": "2000-07-20T00:00:00"
        },
        {
          "regAuth": 44,
          "regCat": 0,
          "st": 2,
          "stDt": "2004-03-01T00:00:00"
        },
        {
          "regAuth": 45,
          "regCat": 0,
          "st": 3,
          "stDt": "2009-08-19T00:00:00"
        }
      ],
      "BrnchOfLocs": [
        {
          "str1": "751 Cool Springs Blvd",
          "str2": "STE 200",
          "city": "FRANKLIN",
          "state": 44,
          "stateSpecified": true,
          "cntry": "United States",
          "postlCd": "37067-2730"
        }
      ],
      "orgNm": "AMERIPRISE FINANCIAL SERVICES, INC.",
      "orgPK": "6363",
      "str1": "707 2ND AVENUE SOUTH",
      "str2": null,
      "city": "MINNEAPOLIS",
      "state": 24,
      "stateSpecified": true,
      "cntry": "United States",
      "postlCd": "55402"
    }
  ],
  "Exms": [
    {
      "exmCd": 0,
      "exmNm": "Uniform Securities Agent State Law Examination",
      "exmDt": "2000-03-14T00:00:00",
      "exmDtSpecified": true
    }
  ],
  "Dsgntns": [],
  "PrevRgstns": [],
  "EmpHss": [
    {
      "fromDt": "02/2000",
      "toDt": null,
      "orgNm": "AMERICAN EXPRESS FIANACIAL ADVISORS",
      "city": "CHATTANOOGA",
      "state": 44,
      "stateSpecified": true
    },
    {
      "fromDt": "02/2000",
      "toDt": null,
      "orgNm": "IDS LIFE INSURANCE COMPANY",
      "city": "CHATTANOOGA",
      "state": 44,
      "stateSpecified": true
    }
  ],
  "OthrBuss": {
    "OthrBus": {
      "desc": "REAL ESTATE OWNERSHIP ; SINGLE FAMILY ; HUNTSVILLE, AL 35811; NO; FEBRUARY 2002/SINGLE FAMILY ; HUNTSVILLE, AL; NO; FEBRUARY 2013/SINGLE FAMILY ; HUNTSVILLE, AL; NO; MAY 2013.   BUSINESS OWNERSHIP ; P2 REAL ESTATE PARTNERS LLC; PARTNER; I FORMED AN LLC WITH OTHER AMERIPRISE FINANCIAL ADVISORS TO SAHRE OFFICE SPACE: 1. MATT ROBINS 2. JOE CREECY 3. VANCE LAHEY 4. DAVID WULLER; FRANKIN, TN 37067; 0 HRS PER MONTH.    BOARDS OF DIRECTORS ; PERFECTING FAITH MINISTRIES BOARD OF TRUSTEES; CHURCH; BOARD MEMBER; ANTIOCH, TN 37013; NO; 1-9 HRS PER MONTH."
    }
  },
  "DRPs": []
}