{
  "Info": {
    "lastNm": "MCCLURE",
    "firstNm": "KIMBERLY",
    "midNm": "KAY",
    "sufNm": null,
    "indvlPK": "4142740",
    "actvAGReg": 0,
    "link": "http://www.adviserinfo.sec.gov/IAPD/Individual/4142740"
  },
  "OthrNms": [
    {
      "lastNm": "ADAMS",
      "firstNm": "KIMBERLY",
      "midNm": "KAY",
      "sufNm": null
    }
  ],
  "CrntEmps": [
    {
      "CrntRgstns": [
        {
          "regAuth": 45,
          "regCat": 0,
          "st": 2,
          "stDt": "2010-12-07T00:00:00"
        }
      ],
      "BrnchOfLocs": [
        {
          "str1": "6643 OAK HILL BLVD",
          "str2": null,
          "city": "TYLER",
          "state": 45,
          "stateSpecified": true,
          "cntry": "United States",
          "postlCd": "75703"
        }
      ],
      "orgNm": "SECURIAN FINANCIAL SERVICES, INC.",
      "orgPK": "15296",
      "str1": "400 ROBERT STREET NORTH",
      "str2": null,
      "city": "ST PAUL",
      "state": 24,
      "stateSpecified": true,
      "cntry": "United States",
      "postlCd": "55101-2098"
    }
  ],
  "Exms": [
    {
      "exmCd": 0,
      "exmNm": "Uniform Securities Agent State Law Examination",
      "exmDt": "2000-11-09T00:00:00",
      "exmDtSpecified": true
    },
    {
      "exmCd": 2,
      "exmNm": "Uniform Investment Adviser Law Examination",
      "exmDt": "2009-12-18T00:00:00",
      "exmDtSpecified": true
    }
  ],
  "Dsgntns": [],
  "PrevRgstns": [],
  "EmpHss": [
    {
      "fromDt": "05/1999",
      "toDt": "12/2010",
      "orgNm": "ADAMS FINANCIAL GROUP",
      "city": "TYLER",
      "state": 45,
      "stateSpecified": true
    },
    {
      "fromDt": "12/2005",
      "toDt": "12/2010",
      "orgNm": "SECURIAN FINANCIAL SERVICES, INC.",
      "city": "ST. PAUL",
      "state": 24,
      "stateSpecified": true
    },
    {
      "fromDt": "12/2010",
      "toDt": null,
      "orgNm": "MARTIN FINANCIAL GROUP",
      "city": "TYLER",
      "state": 45,
      "stateSpecified": true
    },
    {
      "fromDt": "12/2010",
      "toDt": null,
      "orgNm": "MINNESOTA LIFE INSURANCE CO",
      "city": "ST. PAUL",
      "state": 24,
      "stateSpecified": true
    },
    {
      "fromDt": "12/2010",
      "toDt": null,
      "orgNm": "SECURIAN FINANCIAL SERVICES",
      "city": "ST. PAUL",
      "state": 24,
      "stateSpecified": true
    }
  ],
  "OthrBuss": {
    "OthrBus": {
      "desc": "SPECIAL WISH CHILD, TYLER, TX; NON INVSESTMENT RELATED; BOARD MEMBER; 07/2011 TO PRESENT; <1 HOUR/MNTH WITH <1 HOUR/MNTH DURING TRADING HOURS. *FIXED INSURANCE, TYLER, TX; NON INVESTMENT RELATED; AGENT; 07/1996 TO PRESENT; 2 HOURS/MNTH WITH 2 HOURS/MNTH DURING TRADING HOURS. *NOTARY PUBLIC, TYLER, TX; NON INVESTMENT RELATED; NOTARY; 10/2007 TO PRESENT; 0 HRS/MNTH WITH 0 HRS/MNTH DURING TRADING HOURS."
    }
  },
  "DRPs": []
}