{
  "Info": {
    "lastNm": "CARR",
    "firstNm": "JOHN",
    "midNm": "BARNES",
    "sufNm": "JR",
    "indvlPK": "41448",
    "actvAGReg": 1,
    "link": "http://www.adviserinfo.sec.gov/IAPD/Individual/41448"
  },
  "OthrNms": [],
  "CrntEmps": [
    {
      "CrntRgstns": [
        {
          "regAuth": 47,
          "regCat": 0,
          "st": 2,
          "stDt": "2015-05-22T00:00:00"
        },
        {
          "regAuth": 26,
          "regCat": 0,
          "st": 2,
          "stDt": "2015-09-11T00:00:00"
        },
        {
          "regAuth": 44,
          "regCat": 0,
          "st": 2,
          "stDt": "2015-09-23T00:00:00"
        }
      ],
      "BrnchOfLocs": [
        {
          "str1": null,
          "str2": null,
          "city": "KESWICK",
          "state": 47,
          "stateSpecified": true,
          "cntry": "United States",
          "postlCd": null
        }
      ],
      "orgNm": "CARR CAPITAL MANAGEMENT",
      "orgPK": "201512",
      "str1": null,
      "str2": null,
      "city": "KESWICK",
      "state": 47,
      "stateSpecified": true,
      "cntry": "United States",
      "postlCd": null
    }
  ],
  "Exms": [
    {
      "exmCd": 0,
      "exmNm": "Uniform Securities Agent State Law Examination",
      "exmDt": "1981-04-21T00:00:00",
      "exmDtSpecified": true
    },
    {
      "exmCd": 2,
      "exmNm": "Uniform Investment Adviser Law Examination",
      "exmDt": "2014-11-21T00:00:00",
      "exmDtSpecified": true
    }
  ],
  "Dsgntns": [],
  "PrevRgstns": [
    {
      "BrnchOfLocs": [
        {
          "city": "MEMPHIS",
          "state": 44,
          "stateSpecified": true
        },
        {
          "city": "MEMPHIS",
          "state": 44,
          "stateSpecified": true
        },
        {
          "city": "MEMPHIS",
          "state": 44,
          "stateSpecified": true
        },
        {
          "city": "MEMPHIS",
          "state": 44,
          "stateSpecified": true
        }
      ],
      "orgNm": "MORGAN KEEGAN & COMPANY, LLC",
      "orgPK": "4161",
      "regBeginDt": "2004-03-15T00:00:00",
      "regBeginDtSpecified": true,
      "regEndDt": "2010-10-07T00:00:00",
      "regEndDtSpecified": true
    }
  ],
  "EmpHss": [
    {
      "fromDt": "10/1973",
      "toDt": "10/2010",
      "orgNm": "MORGAN KEEGAN & COMPANY",
      "city": "MEMPHIS",
      "state": 44,
      "stateSpecified": true
    },
    {
      "fromDt": "10/2010",
      "toDt": "03/2015",
      "orgNm": "RETIRED",
      "city": "MEMPHIS",
      "state": 44,
      "stateSpecified": true
    },
    {
      "fromDt": "03/2015",
      "toDt": null,
      "orgNm": "CARR CAPITAL MANAGEMENT",
      "city": "KESWICK",
      "state": 47,
      "stateSpecified": true
    }
  ],
  "OthrBuss": {
    "OthrBus": null
  },
  "DRPs": []
}