{
  "Info": {
    "lastNm": "KLEE",
    "firstNm": "SZABLIS",
    "midNm": "M",
    "sufNm": null,
    "indvlPK": "4146503",
    "actvAGReg": 0,
    "link": "http://www.adviserinfo.sec.gov/IAPD/Individual/4146503"
  },
  "OthrNms": [
    {
      "lastNm": "KLEE",
      "firstNm": "SZABLIS",
      "midNm": "MONIQUE",
      "sufNm": null
    },
    {
      "lastNm": "KRUGER",
      "firstNm": "SZABLIS",
      "midNm": "MONIQUE",
      "sufNm": null
    },
    {
      "lastNm": "KRUGER",
      "firstNm": "SZABLIS",
      "midNm": "MONIQUE",
      "sufNm": null
    },
    {
      "lastNm": "RUSKJER",
      "firstNm": "SZABLIS",
      "midNm": "MONIQUE",
      "sufNm": null
    }
  ],
  "CrntEmps": [
    {
      "CrntRgstns": [
        {
          "regAuth": 24,
          "regCat": 0,
          "st": 2,
          "stDt": "2013-12-19T00:00:00"
        }
      ],
      "BrnchOfLocs": [
        {
          "str1": "300  1ST AVE NW",
          "str2": "SUITE 300",
          "city": "ROCHESTER",
          "state": 24,
          "stateSpecified": true,
          "cntry": "United States",
          "postlCd": "55901"
        }
      ],
      "orgNm": "PROEQUITIES, INC.",
      "orgPK": "15708",
      "str1": "2801 HIGHWAY 280 SOUTH",
      "str2": null,
      "city": "BIRMINGHAM",
      "state": 1,
      "stateSpecified": true,
      "cntry": "United States",
      "postlCd": "35223"
    }
  ],
  "Exms": [
    {
      "exmCd": 3,
      "exmNm": "Uniform Combined State Law Examination",
      "exmDt": "2000-05-30T00:00:00",
      "exmDtSpecified": true
    }
  ],
  "Dsgntns": [],
  "PrevRgstns": [
    {
      "BrnchOfLocs": [
        {
          "city": "ROCHESTER",
          "state": 24,
          "stateSpecified": true
        },
        {
          "city": "ROCHESTER",
          "state": 24,
          "stateSpecified": true
        }
      ],
      "orgNm": "GENEOS WEALTH MANAGEMENT, INC.",
      "orgPK": "120894",
      "regBeginDt": "2006-08-23T00:00:00",
      "regBeginDtSpecified": true,
      "regEndDt": "2011-11-21T00:00:00",
      "regEndDtSpecified": true
    }
  ],
  "EmpHss": [
    {
      "fromDt": "01/2006",
      "toDt": "11/2011",
      "orgNm": "GENEOS WEALTH MANAGEMENT INC",
      "city": "ROCHESTER",
      "state": 24,
      "stateSpecified": true
    },
    {
      "fromDt": "01/2008",
      "toDt": null,
      "orgNm": "FULL CIRCLE FINANCIAL CORPORATION",
      "city": "ROCHESTER",
      "state": 24,
      "stateSpecified": true
    },
    {
      "fromDt": "11/2011",
      "toDt": null,
      "orgNm": "PROEQUITIES, INC",
      "city": "ROCHESTER",
      "state": 24,
      "stateSpecified": true
    }
  ],
  "OthrBuss": {
    "OthrBus": {
      "desc": "DBA: FULL CIRCLE FINANCIAL  FULL CIRCLE FINANCIAL; 300 1ST AVE NW, STE 300, ROCHESTER, MN 55901; FINANCIAL ADVISOR/OWNER; START-01/2008; 300 HRS/MONTH.  SBKC POSITION: REGISTERED FINANCIAL REP/ADVISOR NATURE: MARKETING INTEL INVESTMENT RELATED: NO NUMBER OF HOURS: 0 INVESTMENT RELATED HOURS: 0 START DATE: 01/02/2008 ADDRESS: 300 1ST AVE NW, SUITE 300, ROCHESTER MN 55901 DESCRIPTION: MARKETING INTEL ONLY.  LEGALSHEILD POSITION: ASSOCIATE NATURE: PREPAID LEGAL AND IDENTITY THEFT PLAN INVESTMENT RELATED: NO NUMBER OF HOURS: 3 INVESTMENT RELATED HOURS: 0 START DATE: 09/17/2012 ADDRESS: ONE PRE-PAID WAY, ADA OK 74820 DESCRIPTION: PROVIDE INFORMATION ABOUT THE PROGRAM TO INDIVIDUALS AND SMALL BUSINESSES WHO WISH TO LEARN ABOUT IT, AND ASSIST THEM WITH THE APPLICAITON PROCESS.  WOMEN'S WEALTH STUDIO POSITION: OWNER/DIRECTOR NATURE: WOMEN'S WEALTH MANAGEMENT AND LIFE ENHANCEMENT SERVICES INVESTMENT RELATED: YES NUMBER OF HOURS: 80 INVESTMENT RELATED HOURS: 80 START DATE: 01/22/2013 ADDRESS: 300 FIRST AVENUE NW, SUITE 300, ROCHESTER MN 55901 DESCRIPTION: I AM FORMING THIS BRAND TO MARKET MY FINANCIAL PLANNING AND LIFE COACHING SERVICES TO WOMEN. THE SAME TYPE OF FINANCIAL PLANNING SERVICES I OFFER UNDER FULL CIRCLE FINANCIAL, BUT A LOT MORE NONFINANCIAL VALUE-ADD AND SERVICES WILL BE DELIVERED TO CLIENTS UNDER THIS BRAND.  IFC NATIONAL MARKETING POSITION: AGENT NATURE: FIXED INS INVESTMENT RELATED: NO NUMBER OF HOURS: 40 INVESTMENT RELATED HOURS: 40 START DATE: 01/01/2005 ADDRESS: 1130 SPRUCE ST, FAIRMONT MN 56031 DESCRIPTION: I OFFER FIXED INSURANCE, HEALTH INSURANCE, DISABILITY INSURANCE TO ALL MY CLIENTS IF IT FITS INTO THEIR LIFE PLAN.  FULL CIRCLE FINANCIAL POSITION: AGENT NATURE: FINANCIAL ADVISORY/INSURANCE INVESTMENT RELATED: NO NUMBER OF HOURS: 1 INVESTMENT RELATED HOURS: 1 START DATE: 07/01/2010 ADDRESS: 300 FIRST AVE NW, SUITE 300, ROCHESTER MN 55901 DESCRIPTION: ASSESS SUITABIITY AND RECOMMEND EIA IF APPROPRIATE  FULL CIRCLE LIFE CORPORATION POSITION: Officer NATURE: S Corp supporting administrative functions of PES and Insurance and Advisory business INVESTMENT RELATED: No NUMBER OF HOURS: 5 SECURITIES TRADING HOURS: 0 START DATE: 01/01/2016 ADDRESS: 300 First Ave NW, Suite 300, Rochester MN 55901 DESCRIPTION: Business pays the expenses of advisor salaries, overhead, and employee salaries/benefits."
    }
  },
  "DRPs": []
}