{
  "Info": {
    "lastNm": "RIGTRUP",
    "firstNm": "JAMES",
    "midNm": "MARK",
    "sufNm": null,
    "indvlPK": "4148341",
    "actvAGReg": 0,
    "link": "http://www.adviserinfo.sec.gov/IAPD/Individual/4148341"
  },
  "OthrNms": [],
  "CrntEmps": [
    {
      "CrntRgstns": [
        {
          "regAuth": 46,
          "regCat": 0,
          "st": 2,
          "stDt": "2006-07-27T00:00:00"
        }
      ],
      "BrnchOfLocs": [
        {
          "str1": null,
          "str2": null,
          "city": "BLUFFDALE",
          "state": 46,
          "stateSpecified": true,
          "cntry": "United States",
          "postlCd": null
        },
        {
          "str1": "9980 SOUTH 300 WEST, SUITE 200",
          "str2": null,
          "city": "SANDY",
          "state": 46,
          "stateSpecified": true,
          "cntry": "United States",
          "postlCd": "84070"
        }
      ],
      "orgNm": "LPL FINANCIAL LLC",
      "orgPK": "6413",
      "str1": "75 STATE STREET, 22ND FLOOR",
      "str2": null,
      "city": "BOSTON",
      "state": 20,
      "stateSpecified": true,
      "cntry": "United States",
      "postlCd": "02109"
    }
  ],
  "Exms": [
    {
      "exmCd": 0,
      "exmNm": "Uniform Securities Agent State Law Examination",
      "exmDt": "2000-05-03T00:00:00",
      "exmDtSpecified": true
    },
    {
      "exmCd": 2,
      "exmNm": "Uniform Investment Adviser Law Examination",
      "exmDt": "2006-07-26T00:00:00",
      "exmDtSpecified": true
    }
  ],
  "Dsgntns": [],
  "PrevRgstns": [],
  "EmpHss": [
    {
      "fromDt": "01/2005",
      "toDt": null,
      "orgNm": "LPL FINANCIAL LLC",
      "city": "SALT LAKE CITY",
      "state": 46,
      "stateSpecified": true
    }
  ],
  "OthrBuss": {
    "OthrBus": {
      "desc": "1. 9/25/2007 - DBA - KEYSTONE WEALTH MANAGEMENT GROUP."
    }
  },
  "DRPs": []
}