{
  "Info": {
    "lastNm": "D'AMICO",
    "firstNm": "PAUL",
    "midNm": "R",
    "sufNm": null,
    "indvlPK": "4154876",
    "actvAGReg": 0,
    "link": "http://www.adviserinfo.sec.gov/IAPD/Individual/4154876"
  },
  "OthrNms": [
    {
      "lastNm": "D AMICO",
      "firstNm": "PAUL",
      "midNm": "RONALD",
      "sufNm": null
    },
    {
      "lastNm": "D'AMICO",
      "firstNm": "PAUL",
      "midNm": null,
      "sufNm": null
    },
    {
      "lastNm": "DAMICO",
      "firstNm": "PAUL",
      "midNm": null,
      "sufNm": null
    }
  ],
  "CrntEmps": [
    {
      "CrntRgstns": [
        {
          "regAuth": 45,
          "regCat": 0,
          "st": 3,
          "stDt": "2010-08-17T00:00:00"
        },
        {
          "regAuth": 31,
          "regCat": 0,
          "st": 2,
          "stDt": "2010-11-05T00:00:00"
        }
      ],
      "BrnchOfLocs": [
        {
          "str1": "TWO CONTRA WAY",
          "str2": null,
          "city": "MERRIMACK",
          "state": 31,
          "stateSpecified": true,
          "cntry": "United States",
          "postlCd": "03054"
        }
      ],
      "orgNm": "STRATEGIC ADVISERS, INC.",
      "orgPK": "104555",
      "str1": "245 SUMMER STREET, V10G",
      "str2": null,
      "city": "BOSTON",
      "state": 20,
      "stateSpecified": true,
      "cntry": "United States",
      "postlCd": "02210"
    }
  ],
  "Exms": [
    {
      "exmCd": 0,
      "exmNm": "Uniform Securities Agent State Law Examination",
      "exmDt": "2000-12-18T00:00:00",
      "exmDtSpecified": true
    },
    {
      "exmCd": 3,
      "exmNm": "Uniform Combined State Law Examination",
      "exmDt": "2010-11-04T00:00:00",
      "exmDtSpecified": true
    }
  ],
  "Dsgntns": [],
  "PrevRgstns": [],
  "EmpHss": [
    {
      "fromDt": "07/2006",
      "toDt": "02/2007",
      "orgNm": "ADP BROKER DEALER",
      "city": "SALEM",
      "state": 31,
      "stateSpecified": true
    },
    {
      "fromDt": "02/2007",
      "toDt": null,
      "orgNm": "FIDELITY INVESTMENTS",
      "city": "MERRIMACK",
      "state": 31,
      "stateSpecified": true
    }
  ],
  "OthrBuss": {
    "OthrBus": null
  },
  "DRPs": []
}