{
  "Info": {
    "lastNm": "LOGWOOD",
    "firstNm": "JAY",
    "midNm": "JACKSON",
    "sufNm": null,
    "indvlPK": "4154341",
    "actvAGReg": 0,
    "link": "http://www.adviserinfo.sec.gov/IAPD/Individual/4154341"
  },
  "OthrNms": [],
  "CrntEmps": [
    {
      "CrntRgstns": [
        {
          "regAuth": 21,
          "regCat": 0,
          "st": 2,
          "stDt": "2014-09-05T00:00:00"
        },
        {
          "regAuth": 47,
          "regCat": 0,
          "st": 2,
          "stDt": "2014-09-16T00:00:00"
        },
        {
          "regAuth": 7,
          "regCat": 0,
          "st": 2,
          "stDt": "2014-10-03T00:00:00"
        },
        {
          "regAuth": 39,
          "regCat": 0,
          "st": 2,
          "stDt": "2015-01-15T00:00:00"
        },
        {
          "regAuth": 8,
          "regCat": 0,
          "st": 2,
          "stDt": "2015-02-26T00:00:00"
        }
      ],
      "BrnchOfLocs": [
        {
          "str1": "1304 CONCOURSE DRIVE",
          "str2": "SUITE 150",
          "city": "LINTHICUM",
          "state": 21,
          "stateSpecified": true,
          "cntry": "United States",
          "postlCd": "21090"
        }
      ],
      "orgNm": "VALIC FINANCIAL ADVISORS, INC.",
      "orgPK": "42803",
      "str1": "2929 ALLEN PKWY; L3-20",
      "str2": null,
      "city": "HOUSTON",
      "state": 45,
      "stateSpecified": true,
      "cntry": "United States",
      "postlCd": "77019"
    }
  ],
  "Exms": [
    {
      "exmCd": 0,
      "exmNm": "Uniform Securities Agent State Law Examination",
      "exmDt": "2000-05-04T00:00:00",
      "exmDtSpecified": true
    },
    {
      "exmCd": 3,
      "exmNm": "Uniform Combined State Law Examination",
      "exmDt": "2014-09-04T00:00:00",
      "exmDtSpecified": true
    }
  ],
  "Dsgntns": [],
  "PrevRgstns": [],
  "EmpHss": [
    {
      "fromDt": "04/2006",
      "toDt": "04/2014",
      "orgNm": "GENUINE TITLE LLC",
      "city": "OWINGS MILLS",
      "state": 21,
      "stateSpecified": true
    },
    {
      "fromDt": "07/2014",
      "toDt": null,
      "orgNm": "VALIC FINANCIAL ADVISORS, INC.",
      "city": "LINTHICUM",
      "state": 21,
      "stateSpecified": true
    }
  ],
  "OthrBuss": {
    "OthrBus": null
  },
  "DRPs": []
}