{
  "Info": {
    "lastNm": "ROSE",
    "firstNm": "RICHARD",
    "midNm": "WILLIAM",
    "sufNm": "II",
    "indvlPK": "4155090",
    "actvAGReg": 0,
    "link": "http://www.adviserinfo.sec.gov/IAPD/Individual/4155090"
  },
  "OthrNms": [
    {
      "lastNm": "ROSE II",
      "firstNm": "RICHARD",
      "midNm": "WILLIAM",
      "sufNm": null
    }
  ],
  "CrntEmps": [
    {
      "CrntRgstns": [
        {
          "regAuth": 45,
          "regCat": 0,
          "st": 2,
          "stDt": "2007-10-08T00:00:00"
        },
        {
          "regAuth": 15,
          "regCat": 0,
          "st": 2,
          "stDt": "2009-11-05T00:00:00"
        },
        {
          "regAuth": 16,
          "regCat": 0,
          "st": 2,
          "stDt": "2009-11-05T00:00:00"
        },
        {
          "regAuth": 36,
          "regCat": 0,
          "st": 2,
          "stDt": "2009-11-06T00:00:00"
        },
        {
          "regAuth": 23,
          "regCat": 0,
          "st": 2,
          "stDt": "2009-11-19T00:00:00"
        }
      ],
      "BrnchOfLocs": [
        {
          "str1": "10750 ROBERT F. MCDERMOTT FREEWAY",
          "str2": null,
          "city": "SAN ANTONIO",
          "state": 45,
          "stateSpecified": true,
          "cntry": "United States",
          "postlCd": "78288"
        }
      ],
      "orgNm": "USAA FINANCIAL PLANNING SERVICES",
      "orgPK": "106352",
      "str1": "9800 FREDERICKSBURG ROAD",
      "str2": null,
      "city": "SAN ANTONIO",
      "state": 45,
      "stateSpecified": true,
      "cntry": "United States",
      "postlCd": "78288-0227"
    }
  ],
  "Exms": [
    {
      "exmCd": 0,
      "exmNm": "Uniform Securities Agent State Law Examination",
      "exmDt": "2000-05-11T00:00:00",
      "exmDtSpecified": true
    },
    {
      "exmCd": 2,
      "exmNm": "Uniform Investment Adviser Law Examination",
      "exmDt": "2002-08-26T00:00:00",
      "exmDtSpecified": true
    }
  ],
  "Dsgntns": [
    {
      "dsgntnNm": "Certified Financial Planner"
    }
  ],
  "PrevRgstns": [
    {
      "BrnchOfLocs": [
        {
          "city": "SAN ANTONIO",
          "state": 45,
          "stateSpecified": true
        },
        {
          "city": "SAN ANTONIO",
          "state": 45,
          "stateSpecified": true
        },
        {
          "city": "SAN ANTONIO",
          "state": 45,
          "stateSpecified": true
        }
      ],
      "orgNm": "USAA INVESTMENT MANAGEMENT COMPANY",
      "orgPK": "5475",
      "regBeginDt": "2002-08-27T00:00:00",
      "regBeginDtSpecified": true,
      "regEndDt": "2007-10-15T00:00:00",
      "regEndDtSpecified": true
    }
  ],
  "EmpHss": [
    {
      "fromDt": "08/2000",
      "toDt": "10/2007",
      "orgNm": "USAA INVESTMENT MANAGEMENT COMPANY",
      "city": "SAN ANTONIO",
      "state": 45,
      "stateSpecified": true
    },
    {
      "fromDt": "09/2007",
      "toDt": null,
      "orgNm": "USAA FINANCIAL ADVISORS, INC.",
      "city": "SAN ANTONIO",
      "state": 45,
      "stateSpecified": true
    },
    {
      "fromDt": "09/2007",
      "toDt": "10/2007",
      "orgNm": "USAA LIFE INSURANCE COMPANY",
      "city": "SAN ANTONIO",
      "state": 45,
      "stateSpecified": true
    },
    {
      "fromDt": "10/2007",
      "toDt": null,
      "orgNm": "USAA FINANCIAL PLANNING SERVICES",
      "city": "SAN ANTONIO",
      "state": 45,
      "stateSpecified": true
    },
    {
      "fromDt": "08/2011",
      "toDt": "09/2014",
      "orgNm": "DYNAMAXX",
      "city": "IRVING",
      "state": 45,
      "stateSpecified": true
    }
  ],
  "OthrBuss": {
    "OthrBus": null
  },
  "DRPs": []
}