{
  "Info": {
    "lastNm": "BALL",
    "firstNm": "ALEXIA",
    "midNm": "LEA",
    "sufNm": null,
    "indvlPK": "4162008",
    "actvAGReg": 0,
    "link": "http://www.adviserinfo.sec.gov/IAPD/Individual/4162008"
  },
  "OthrNms": [],
  "CrntEmps": [
    {
      "CrntRgstns": [
        {
          "regAuth": 1,
          "regCat": 0,
          "st": 2,
          "stDt": "2015-12-15T00:00:00"
        },
        {
          "regAuth": 10,
          "regCat": 0,
          "st": 2,
          "stDt": "2015-12-15T00:00:00"
        },
        {
          "regAuth": 45,
          "regCat": 0,
          "st": 2,
          "stDt": "2015-12-15T00:00:00"
        }
      ],
      "BrnchOfLocs": [
        {
          "str1": "1 FIRSTCOMM PLAZA",
          "str2": null,
          "city": "FORT WORTH",
          "state": 45,
          "stateSpecified": true,
          "cntry": null,
          "postlCd": "76109"
        }
      ],
      "orgNm": "FIRST COMMAND ADVISORY SERVICES",
      "orgPK": "281958",
      "str1": "1 FIRSTCOMM PLAZA",
      "str2": null,
      "city": "FORT WORTH",
      "state": 45,
      "stateSpecified": true,
      "cntry": "United States",
      "postlCd": "76109"
    }
  ],
  "Exms": [
    {
      "exmCd": 0,
      "exmNm": "Uniform Securities Agent State Law Examination",
      "exmDt": "2000-04-03T00:00:00",
      "exmDtSpecified": true
    },
    {
      "exmCd": 2,
      "exmNm": "Uniform Investment Adviser Law Examination",
      "exmDt": "2005-11-14T00:00:00",
      "exmDtSpecified": true
    }
  ],
  "Dsgntns": [],
  "PrevRgstns": [],
  "EmpHss": [
    {
      "fromDt": "03/2000",
      "toDt": null,
      "orgNm": "FIRST COMMAND FINANCIAL PLANNING, INC.",
      "city": "FT WORTH",
      "state": 45,
      "stateSpecified": true
    },
    {
      "fromDt": "01/2006",
      "toDt": null,
      "orgNm": "FIRST COMMAND FINANCIAL SERVICES, INC",
      "city": "FORT WORTH",
      "state": 45,
      "stateSpecified": true
    },
    {
      "fromDt": "12/2015",
      "toDt": null,
      "orgNm": "FIRST COMMAND ADVISORY SERVICES",
      "city": "FORT WORTH",
      "state": 45,
      "stateSpecified": true
    }
  ],
  "OthrBuss": {
    "OthrBus": null
  },
  "DRPs": []
}