{
  "Info": {
    "lastNm": "BEATTLE",
    "firstNm": "EBONY",
    "midNm": "ELAINE",
    "sufNm": null,
    "indvlPK": "4173750",
    "actvAGReg": 0,
    "link": "http://www.adviserinfo.sec.gov/IAPD/Individual/4173750"
  },
  "OthrNms": [],
  "CrntEmps": [
    {
      "CrntRgstns": [
        {
          "regAuth": 25,
          "regCat": 0,
          "st": 2,
          "stDt": "2015-07-02T00:00:00"
        }
      ],
      "BrnchOfLocs": [
        {
          "str1": "12555 MANCHESTER ROAD",
          "str2": null,
          "city": "ST. LOUIS",
          "state": 25,
          "stateSpecified": true,
          "cntry": "United States",
          "postlCd": "63131"
        }
      ],
      "orgNm": "EDWARD JONES",
      "orgPK": "250",
      "str1": "12555 MANCHESTER RD",
      "str2": null,
      "city": "ST. LOUIS",
      "state": 25,
      "stateSpecified": true,
      "cntry": "United States",
      "postlCd": "63131"
    }
  ],
  "Exms": [
    {
      "exmCd": 3,
      "exmNm": "Uniform Combined State Law Examination",
      "exmDt": "2015-07-01T00:00:00",
      "exmDtSpecified": true
    }
  ],
  "Dsgntns": [],
  "PrevRgstns": [],
  "EmpHss": [
    {
      "fromDt": "04/2000",
      "toDt": null,
      "orgNm": "EDWARD JONES",
      "city": "ST. LOUIS",
      "state": 25,
      "stateSpecified": true
    }
  ],
  "OthrBuss": {
    "OthrBus": {
      "desc": "BETTER DAYS ENTERTAINMENT, LLC DBA CUETOPIA II BAR & GRILL  ST. LOUIS, MO  START DATE: 10/1/2012  FINANCIAL MANAGER  HOURS PER MONTH: 20  HOURS DURING TRADING: 0  MANAGEMENT OF BUSINESS FINANCES"
    }
  },
  "DRPs": [
    {
      "hasRegAction": 1,
      "hasRegActionSpecified": true,
      "hasCriminal": 1,
      "hasCriminalSpecified": true,
      "hasBankrupt": 1,
      "hasBankruptSpecified": true,
      "hasCivilJudc": 1,
      "hasCivilJudcSpecified": true,
      "hasBond": 1,
      "hasBondSpecified": true,
      "hasJudgment": 0,
      "hasJudgmentSpecified": true,
      "hasInvstgn": 1,
      "hasInvstgnSpecified": true,
      "hasCustComp": 1,
      "hasCustCompSpecified": true,
      "hasTermination": 1,
      "hasTerminationSpecified": true
    }
  ]
}