{
  "Info": {
    "lastNm": "ROGERS",
    "firstNm": "TRACY",
    "midNm": "WARREN",
    "sufNm": null,
    "indvlPK": "4178132",
    "actvAGReg": 1,
    "link": "http://www.adviserinfo.sec.gov/IAPD/Individual/4178132"
  },
  "OthrNms": [],
  "CrntEmps": [
    {
      "CrntRgstns": [
        {
          "regAuth": 22,
          "regCat": 0,
          "st": 2,
          "stDt": "2004-11-10T00:00:00"
        }
      ],
      "BrnchOfLocs": [
        {
          "str1": "130 MIDDLE STREET",
          "str2": "2ND FLOOR",
          "city": "PORTLAND",
          "state": 22,
          "stateSpecified": true,
          "cntry": "United States",
          "postlCd": "04101"
        }
      ],
      "orgNm": "OLD PORT ADVISORS, INC",
      "orgPK": "108228",
      "str1": "130 MIDDLE STREET",
      "str2": "2ND FLOOR",
      "city": "PORTLAND",
      "state": 22,
      "stateSpecified": true,
      "cntry": "United States",
      "postlCd": "04101"
    }
  ],
  "Exms": [
    {
      "exmCd": 3,
      "exmNm": "Uniform Combined State Law Examination",
      "exmDt": "2000-07-06T00:00:00",
      "exmDtSpecified": true
    }
  ],
  "Dsgntns": [],
  "PrevRgstns": [
    {
      "BrnchOfLocs": [
        {
          "city": "PORTLAND",
          "state": 22,
          "stateSpecified": true
        }
      ],
      "orgNm": "CAMBRIDGE INVESTMENT RESEARCH, INC.",
      "orgPK": "39543",
      "regBeginDt": "2002-09-30T00:00:00",
      "regBeginDtSpecified": true,
      "regEndDt": "2004-08-06T00:00:00",
      "regEndDtSpecified": true
    }
  ],
  "EmpHss": [
    {
      "fromDt": "09/2002",
      "toDt": null,
      "orgNm": "CAMBRIDGE INVESTMENT RESEARCH, INC.",
      "city": "FAIRFIELD",
      "state": 13,
      "stateSpecified": true
    },
    {
      "fromDt": "09/2004",
      "toDt": null,
      "orgNm": "OLD PORT ADVISORS, INC",
      "city": "PORTLAND",
      "state": 22,
      "stateSpecified": true
    }
  ],
  "OthrBuss": {
    "OthrBus": null
  },
  "DRPs": []
}