{
  "Info": {
    "lastNm": "PUNO",
    "firstNm": "CECILIA",
    "midNm": "RIVERA",
    "sufNm": null,
    "indvlPK": "4182806",
    "actvAGReg": 0,
    "link": "http://www.adviserinfo.sec.gov/IAPD/Individual/4182806"
  },
  "OthrNms": [],
  "CrntEmps": [
    {
      "CrntRgstns": [
        {
          "regAuth": 45,
          "regCat": 0,
          "st": 3,
          "stDt": "2007-10-30T00:00:00"
        },
        {
          "regAuth": 18,
          "regCat": 0,
          "st": 2,
          "stDt": "2007-12-03T00:00:00"
        }
      ],
      "BrnchOfLocs": [
        {
          "str1": "100 HOWE DRIVE",
          "str2": null,
          "city": "COVINGTON",
          "state": 18,
          "stateSpecified": true,
          "cntry": "United States",
          "postlCd": "41015"
        }
      ],
      "orgNm": "STRATEGIC ADVISERS, INC.",
      "orgPK": "104555",
      "str1": "245 SUMMER STREET, V10G",
      "str2": null,
      "city": "BOSTON",
      "state": 20,
      "stateSpecified": true,
      "cntry": "United States",
      "postlCd": "02210"
    }
  ],
  "Exms": [
    {
      "exmCd": 0,
      "exmNm": "Uniform Securities Agent State Law Examination",
      "exmDt": "2000-06-08T00:00:00",
      "exmDtSpecified": true
    },
    {
      "exmCd": 3,
      "exmNm": "Uniform Combined State Law Examination",
      "exmDt": "2007-11-30T00:00:00",
      "exmDtSpecified": true
    }
  ],
  "Dsgntns": [],
  "PrevRgstns": [],
  "EmpHss": [
    {
      "fromDt": "10/1999",
      "toDt": null,
      "orgNm": "FIDELITY INVESTMENTS",
      "city": "BLUE ASH",
      "state": 36,
      "stateSpecified": true
    }
  ],
  "OthrBuss": {
    "OthrBus": {
      "desc": "OAA#: 31043 | ORG NAME:GARNISH CATERING | ORG ADDR:CINCINNATI, OH, US | NATURE OF BUS:CATERING PARTIES | INVST REL:N | TITLE:PARTY SERVER | DUTIES:DUTIES CENTER AROUND ATTENDING TO THE FOOD NEEDS OF PARTY, INCLUDING SERVING/REPLENESHING FOOD. | START DT:10/18/2014 | TOTAL HRS P/M:20 | SEC TRDNG HRS P/M:0"
    }
  },
  "DRPs": []
}