{
  "Info": {
    "lastNm": "PIERRE",
    "firstNm": "GUY",
    "midNm": "EVANS",
    "sufNm": null,
    "indvlPK": "4184401",
    "actvAGReg": 0,
    "link": "http://www.adviserinfo.sec.gov/IAPD/Individual/4184401"
  },
  "OthrNms": [],
  "CrntEmps": [
    {
      "CrntRgstns": [
        {
          "regAuth": 9,
          "regCat": 0,
          "st": 2,
          "stDt": "2016-03-16T00:00:00"
        }
      ],
      "BrnchOfLocs": [
        {
          "str1": "301 E Las Olas Blvd Ste 120",
          "str2": null,
          "city": "Fort Lauderdale",
          "state": 9,
          "stateSpecified": true,
          "cntry": "United States",
          "postlCd": "33301-2254"
        }
      ],
      "orgNm": "AMERIVEST INVESTMENT MANAGEMENT, LLC",
      "orgPK": "111514",
      "str1": "200 SOUTH 108TH AVENUE",
      "str2": null,
      "city": "OMAHA",
      "state": 30,
      "stateSpecified": true,
      "cntry": "United States",
      "postlCd": "68154"
    },
    {
      "CrntRgstns": [
        {
          "regAuth": 9,
          "regCat": 0,
          "st": 2,
          "stDt": "2016-03-07T00:00:00"
        }
      ],
      "BrnchOfLocs": [
        {
          "str1": "301 EAST LAS OLAS BLVD",
          "str2": "SUITE 120",
          "city": "FT. LAUDERDALE",
          "state": 9,
          "stateSpecified": true,
          "cntry": "United States",
          "postlCd": "33301"
        }
      ],
      "orgNm": "TD AMERITRADE, INC.",
      "orgPK": "7870",
      "str1": "200 SOUTH 108TH AVENUE",
      "str2": null,
      "city": "OMAHA",
      "state": 30,
      "stateSpecified": true,
      "cntry": "United States",
      "postlCd": "68154"
    }
  ],
  "Exms": [
    {
      "exmCd": 0,
      "exmNm": "Uniform Securities Agent State Law Examination",
      "exmDt": "2004-06-23T00:00:00",
      "exmDtSpecified": true
    },
    {
      "exmCd": 2,
      "exmNm": "Uniform Investment Adviser Law Examination",
      "exmDt": "2011-03-01T00:00:00",
      "exmDtSpecified": true
    }
  ],
  "Dsgntns": [],
  "PrevRgstns": [
    {
      "BrnchOfLocs": [
        {
          "city": "BOCA RATON",
          "state": 9,
          "stateSpecified": true
        },
        {
          "city": "BOCA RATON",
          "state": 9,
          "stateSpecified": true
        },
        {
          "city": "BOCA RATON",
          "state": 9,
          "stateSpecified": true
        },
        {
          "city": "BOCA RATON",
          "state": 9,
          "stateSpecified": true
        },
        {
          "city": "BOCA RATON",
          "state": 9,
          "stateSpecified": true
        },
        {
          "city": "BOCA RATON",
          "state": 9,
          "stateSpecified": true
        },
        {
          "city": "BOCA RATON",
          "state": 9,
          "stateSpecified": true
        },
        {
          "city": "COCONUT CREEK",
          "state": 9,
          "stateSpecified": true
        },
        {
          "city": "CORAL SPRINGS",
          "state": 9,
          "stateSpecified": true
        },
        {
          "city": "DEERFIELD",
          "state": 9,
          "stateSpecified": true
        },
        {
          "city": "FORT LAUDERDALE",
          "state": 9,
          "stateSpecified": true
        },
        {
          "city": "FORT LAUDERDALE",
          "state": 9,
          "stateSpecified": true
        },
        {
          "city": "FORT LAUDERDALE",
          "state": 9,
          "stateSpecified": true
        },
        {
          "city": "FORT LAUDERDALE",
          "state": 9,
          "stateSpecified": true
        },
        {
          "city": "HOLLYWOOD",
          "state": 9,
          "stateSpecified": true
        },
        {
          "city": "MIRAMAR",
          "state": 9,
          "stateSpecified": true
        },
        {
          "city": "NORTH MIAMI BEACH",
          "state": 9,
          "stateSpecified": true
        },
        {
          "city": "PARKLAND",
          "state": 9,
          "stateSpecified": true
        },
        {
          "city": "POMPANO BEACH",
          "state": 9,
          "stateSpecified": true
        },
        {
          "city": "POMPANO BEACH",
          "state": 9,
          "stateSpecified": true
        },
        {
          "city": "TAMARAC",
          "state": 9,
          "stateSpecified": true
        },
        {
          "city": "WESTON",
          "state": 9,
          "stateSpecified": true
        },
        {
          "city": "WESTON",
          "state": 9,
          "stateSpecified": true
        }
      ],
      "orgNm": "PNC INVESTMENTS",
      "orgPK": "129052",
      "regBeginDt": "2011-03-03T00:00:00",
      "regBeginDtSpecified": true,
      "regEndDt": "2012-04-19T00:00:00",
      "regEndDtSpecified": true
    },
    {
      "BrnchOfLocs": [
        {
          "city": "BOCA RATON",
          "state": 9,
          "stateSpecified": true
        },
        {
          "city": "BOCA RATON",
          "state": 9,
          "stateSpecified": true
        },
        {
          "city": "POMPANO BEACH",
          "state": 9,
          "stateSpecified": true
        }
      ],
      "orgNm": "VALIC FINANCIAL ADVISORS, INC.",
      "orgPK": "42803",
      "regBeginDt": "2012-04-27T00:00:00",
      "regBeginDtSpecified": true,
      "regEndDt": "2016-02-18T00:00:00",
      "regEndDtSpecified": true
    }
  ],
  "EmpHss": [
    {
      "fromDt": "10/2005",
      "toDt": "01/2008",
      "orgNm": "METLIFE SECURITIES INC.",
      "city": "PLANTATION",
      "state": 9,
      "stateSpecified": true
    },
    {
      "fromDt": "10/2005",
      "toDt": "01/2008",
      "orgNm": "METROPOLITAN LIFE INSURANCE COMPANY",
      "city": "PLANTATION",
      "state": 9,
      "stateSpecified": true
    },
    {
      "fromDt": "01/2008",
      "toDt": "02/2010",
      "orgNm": "BANKATLANTIC",
      "city": "AVENTURA",
      "state": 9,
      "stateSpecified": true
    },
    {
      "fromDt": "01/2008",
      "toDt": "01/2010",
      "orgNm": "PRIMEVEST FINANCIAL SERVICES, INC",
      "city": "ST. CLOUD",
      "state": 24,
      "stateSpecified": true
    },
    {
      "fromDt": "01/2010",
      "toDt": "02/2010",
      "orgNm": "LPL FINANCIAL",
      "city": "CHARLOTTE",
      "state": 28,
      "stateSpecified": true
    },
    {
      "fromDt": "04/2010",
      "toDt": "04/2012",
      "orgNm": "PNC INVESTMENTS INC",
      "city": "PITTSBURGH",
      "state": 39,
      "stateSpecified": true
    },
    {
      "fromDt": "04/2012",
      "toDt": "02/2016",
      "orgNm": "VALIC FINANCIAL ADVISORS, INC.",
      "city": "WEST PALM BEACH",
      "state": 9,
      "stateSpecified": true
    },
    {
      "fromDt": "02/2016",
      "toDt": null,
      "orgNm": "TD Ameritrade",
      "city": "Fort Lauderdale",
      "state": 9,
      "stateSpecified": true
    }
  ],
  "OthrBuss": {
    "OthrBus": null
  },
  "DRPs": [
    {
      "hasRegAction": 1,
      "hasRegActionSpecified": true,
      "hasCriminal": 0,
      "hasCriminalSpecified": true,
      "hasBankrupt": 1,
      "hasBankruptSpecified": true,
      "hasCivilJudc": 1,
      "hasCivilJudcSpecified": true,
      "hasBond": 1,
      "hasBondSpecified": true,
      "hasJudgment": 1,
      "hasJudgmentSpecified": true,
      "hasInvstgn": 1,
      "hasInvstgnSpecified": true,
      "hasCustComp": 0,
      "hasCustCompSpecified": true,
      "hasTermination": 1,
      "hasTerminationSpecified": true
    }
  ]
}