{
  "Info": {
    "lastNm": "HOVLAND",
    "firstNm": "DANIEL",
    "midNm": "JAMES",
    "sufNm": null,
    "indvlPK": "4187800",
    "actvAGReg": 0,
    "link": "http://www.adviserinfo.sec.gov/IAPD/Individual/4187800"
  },
  "OthrNms": [],
  "CrntEmps": [
    {
      "CrntRgstns": [
        {
          "regAuth": 24,
          "regCat": 0,
          "st": 2,
          "stDt": "2013-11-13T00:00:00"
        },
        {
          "regAuth": 45,
          "regCat": 0,
          "st": 2,
          "stDt": "2016-01-04T00:00:00"
        }
      ],
      "BrnchOfLocs": [
        {
          "str1": "8681 Eagle Point Blvd",
          "str2": null,
          "city": "Lake Elmo",
          "state": 24,
          "stateSpecified": true,
          "cntry": "United States",
          "postlCd": "55042"
        }
      ],
      "orgNm": "CAMBRIDGE INVESTMENT RESEARCH ADVISORS, INC.",
      "orgPK": "134139",
      "str1": "1776 PLEASANT PLAIN RD.",
      "str2": null,
      "city": "FAIRFIELD",
      "state": 13,
      "stateSpecified": true,
      "cntry": "United States",
      "postlCd": "52556-8757"
    }
  ],
  "Exms": [
    {
      "exmCd": 0,
      "exmNm": "Uniform Securities Agent State Law Examination",
      "exmDt": "2000-07-12T00:00:00",
      "exmDtSpecified": true
    },
    {
      "exmCd": 3,
      "exmNm": "Uniform Combined State Law Examination",
      "exmDt": "2013-08-06T00:00:00",
      "exmDtSpecified": true
    }
  ],
  "Dsgntns": [
    {
      "dsgntnNm": "Certified Financial Planner"
    }
  ],
  "PrevRgstns": [
    {
      "BrnchOfLocs": [
        {
          "city": "BURNSVILLE",
          "state": 24,
          "stateSpecified": true
        }
      ],
      "orgNm": "EDWARD JONES",
      "orgPK": "250",
      "regBeginDt": "2007-09-06T00:00:00",
      "regBeginDtSpecified": true,
      "regEndDt": "2008-12-02T00:00:00",
      "regEndDtSpecified": true
    }
  ],
  "EmpHss": [
    {
      "fromDt": "05/2000",
      "toDt": "11/2008",
      "orgNm": "EDWARD JONES",
      "city": "ST LOUIS",
      "state": 25,
      "stateSpecified": true
    },
    {
      "fromDt": "11/2008",
      "toDt": "12/2011",
      "orgNm": "COMMONWEALTH FINANCIAL NETWORK",
      "city": "WALTHAM",
      "state": 20,
      "stateSpecified": true
    },
    {
      "fromDt": "11/2008",
      "toDt": null,
      "orgNm": "GRUBA, HOVLAND, & CO.",
      "city": "WOODBURY",
      "state": 24,
      "stateSpecified": true
    },
    {
      "fromDt": "01/2012",
      "toDt": null,
      "orgNm": "CAMBRIDGE INVESTMENT RESEARCH ADVISORS, INC",
      "city": "FAIRFIELD",
      "state": 13,
      "stateSpecified": true
    },
    {
      "fromDt": "01/2012",
      "toDt": null,
      "orgNm": "CAMBRIDGE INVESTMENT RESEARCH, INC",
      "city": "FAIRFIELD",
      "state": 13,
      "stateSpecified": true
    }
  ],
  "OthrBuss": {
    "OthrBus": {
      "desc": "1)INDEPENDENT INSURANCE AGENT FOR VARIOUS INDEPENDENT INSURANCE COMPANIES.   2)DBA TAILORED WEALTH STRATEGIES. LAKE ELMO, MN. STARTED 11/2008. SPENDS 2 HR/WK, 2 HR/TRADING.    3-EAST RIDGE BASEBALL ASSOCIATION, WOODBURY, MN, 10/2015 AS TREASURER. NIR - 5 HR/MO - 0/TRADING."
    }
  },
  "DRPs": []
}