{
  "Info": {
    "lastNm": "HORVAT",
    "firstNm": "ANGELA",
    "midNm": "CARMONA",
    "sufNm": null,
    "indvlPK": "4187903",
    "actvAGReg": 0,
    "link": "http://www.adviserinfo.sec.gov/IAPD/Individual/4187903"
  },
  "OthrNms": [
    {
      "lastNm": "CARMONA",
      "firstNm": "ANGELA",
      "midNm": "INEZ",
      "sufNm": null
    },
    {
      "lastNm": "RASK",
      "firstNm": "ANGELA",
      "midNm": "CARMONA",
      "sufNm": null
    },
    {
      "lastNm": "RASK",
      "firstNm": "ANGELA",
      "midNm": "CARMONA",
      "sufNm": null
    }
  ],
  "CrntEmps": [
    {
      "CrntRgstns": [
        {
          "regAuth": 4,
          "regCat": 0,
          "st": 2,
          "stDt": "2016-01-29T00:00:00"
        }
      ],
      "BrnchOfLocs": [
        {
          "str1": null,
          "str2": null,
          "city": "Redondo Beach",
          "state": 4,
          "stateSpecified": true,
          "cntry": "United States",
          "postlCd": null
        }
      ],
      "orgNm": "TRANSAMERICA RETIREMENT ADVISORS, LLC",
      "orgPK": "107319",
      "str1": "408 ST PETER ST",
      "str2": "SUITE 240",
      "city": "ST PAUL",
      "state": 24,
      "stateSpecified": true,
      "cntry": "United States",
      "postlCd": "55101"
    }
  ],
  "Exms": [
    {
      "exmCd": 3,
      "exmNm": "Uniform Combined State Law Examination",
      "exmDt": "2000-10-13T00:00:00",
      "exmDtSpecified": true
    }
  ],
  "Dsgntns": [],
  "PrevRgstns": [
    {
      "BrnchOfLocs": [
        {
          "city": "TORRANCE",
          "state": 4,
          "stateSpecified": true
        }
      ],
      "orgNm": "MORGAN STANLEY DW INC.",
      "orgPK": "7556",
      "regBeginDt": "2002-05-02T00:00:00",
      "regBeginDtSpecified": true,
      "regEndDt": "2004-06-09T00:00:00",
      "regEndDtSpecified": true
    }
  ],
  "EmpHss": [
    {
      "fromDt": "06/2004",
      "toDt": null,
      "orgNm": "Diversified Investment Advisors",
      "city": "LOS ANGELES",
      "state": 4,
      "stateSpecified": true
    },
    {
      "fromDt": "06/2006",
      "toDt": null,
      "orgNm": "Diversified Investors Securities Corporation",
      "city": "Orange",
      "state": 4,
      "stateSpecified": true
    }
  ],
  "OthrBuss": {
    "OthrBus": {
      "desc": "NAME: THE DANCING BROOM,LLC NATURE OF BUSINESS: NOT INVESTMENT RELATED, THE COMPANY PROVIDES RESIDENTIAL AND COMMERCIAL CLEANING SERVICES  ADDRESS: 204 S PROSPECT AVE #B REDONDO BEACH, CA 90277  POSITION: OWNER  START DATE: OCTOBER 2010  APPROXIMATE NUMBER OF HOURS /MONTH: 30HRS/MONTH  HOURS DURING SECURITIES TRADING HOURS: 3HRS/MONTH  DUTIES: ADVERTISE FOR NEW CLIENTS AND TELL THE HOUSEKEEPERS WHICH HOUSED TO CLEAN"
    }
  },
  "DRPs": []
}