{
  "Info": {
    "lastNm": "LYNCH",
    "firstNm": "THOMAS",
    "midNm": "J",
    "sufNm": null,
    "indvlPK": "4204979",
    "actvAGReg": 1,
    "link": "http://www.adviserinfo.sec.gov/IAPD/Individual/4204979"
  },
  "OthrNms": [
    {
      "lastNm": "LYNCH",
      "firstNm": "TOM",
      "midNm": null,
      "sufNm": null
    }
  ],
  "CrntEmps": [
    {
      "CrntRgstns": [
        {
          "regAuth": 39,
          "regCat": 0,
          "st": 2,
          "stDt": "2007-05-03T00:00:00"
        }
      ],
      "BrnchOfLocs": [
        {
          "str1": "THREE RADNOR CORPORATE CENTER",
          "str2": "SUITE 450",
          "city": "RADNOR",
          "state": 39,
          "stateSpecified": true,
          "cntry": "United States",
          "postlCd": "19087-4546"
        }
      ],
      "orgNm": "HAVERFORD FINANCIAL SERVICES, INC.",
      "orgPK": "130007",
      "str1": "THREE RADNOR CORPORATE CENTER",
      "str2": "SUITE 450",
      "city": "RADNOR",
      "state": 39,
      "stateSpecified": true,
      "cntry": "United States",
      "postlCd": "19087-4546"
    }
  ],
  "Exms": [],
  "Dsgntns": [],
  "PrevRgstns": [],
  "EmpHss": [
    {
      "fromDt": "02/2000",
      "toDt": null,
      "orgNm": "THE HAVERFORD TRUST COMPANY",
      "city": "RADNOR",
      "state": 39,
      "stateSpecified": true
    },
    {
      "fromDt": "07/2001",
      "toDt": null,
      "orgNm": "HAVERFORD TRUST SECURITIES",
      "city": "RADNOR",
      "state": 39,
      "stateSpecified": true
    },
    {
      "fromDt": "02/2007",
      "toDt": null,
      "orgNm": "HAVERFORD FINANCIAL SERVICES, INC.",
      "city": "RADNOR",
      "state": 39,
      "stateSpecified": true
    }
  ],
  "OthrBuss": {
    "OthrBus": null
  },
  "DRPs": []
}