{
  "Info": {
    "lastNm": "BABICZ",
    "firstNm": "TINA",
    "midNm": "MARIE",
    "sufNm": null,
    "indvlPK": "4206444",
    "actvAGReg": 1,
    "link": "http://www.adviserinfo.sec.gov/IAPD/Individual/4206444"
  },
  "OthrNms": [
    {
      "lastNm": "BABICZ",
      "firstNm": "TINA",
      "midNm": "M",
      "sufNm": null
    }
  ],
  "CrntEmps": [
    {
      "CrntRgstns": [
        {
          "regAuth": 47,
          "regCat": 0,
          "st": 2,
          "stDt": "2006-02-21T00:00:00"
        },
        {
          "regAuth": 19,
          "regCat": 0,
          "st": 2,
          "stDt": "2011-05-05T00:00:00"
        }
      ],
      "BrnchOfLocs": [
        {
          "str1": "11320 RANDOM HILLS ROAD",
          "str2": "SUITE 250",
          "city": "FAIRFAX",
          "state": 47,
          "stateSpecified": true,
          "cntry": "United States",
          "postlCd": "22030"
        }
      ],
      "orgNm": "CJM WEALTH ADVISERS, LTD.",
      "orgPK": "107750",
      "str1": "11320 RANDOM HILLS ROAD",
      "str2": "SUITE 250",
      "city": "FAIRFAX",
      "state": 47,
      "stateSpecified": true,
      "cntry": "United States",
      "postlCd": "22030-7478"
    }
  ],
  "Exms": [
    {
      "exmCd": 0,
      "exmNm": "Uniform Securities Agent State Law Examination",
      "exmDt": "2001-02-07T00:00:00",
      "exmDtSpecified": true
    },
    {
      "exmCd": 2,
      "exmNm": "Uniform Investment Adviser Law Examination",
      "exmDt": "2001-03-27T00:00:00",
      "exmDtSpecified": true
    }
  ],
  "Dsgntns": [
    {
      "dsgntnNm": "Certified Financial Planner"
    }
  ],
  "PrevRgstns": [],
  "EmpHss": [
    {
      "fromDt": "03/2000",
      "toDt": null,
      "orgNm": "CJM WEALTH ADVISERS, LTD.",
      "city": "FAIRFAX",
      "state": 47,
      "stateSpecified": true
    },
    {
      "fromDt": "05/2005",
      "toDt": null,
      "orgNm": "FAIRFAX PUBLIC SCHOOLS",
      "city": "FAIRFAX",
      "state": 47,
      "stateSpecified": true
    },
    {
      "fromDt": "03/2011",
      "toDt": null,
      "orgNm": "PURSHE KAPLAN STERLING INVESTMENTS",
      "city": "ALBANY",
      "state": 35,
      "stateSpecified": true
    }
  ],
  "OthrBuss": {
    "OthrBus": {
      "desc": "1.CJM WEALTH ADVISERS, LTD., -FINANCIAL PLANNER.11320 RANDOM HILLS RD, FAIRFAX, VA 22030, INVESTMENT RELATED, 03/2000, 160HR/M, ADMINISTRATIVE, TRADING, DEVELOPMENT, FINANCIAL PLANNING.  2. FAIRFAX SCHOOLS, NOT INVESTMENT RELATED, FAIRFAX, VA, ADULT EDUCATION INSTRUCTOR, 02/2005, 5 WEEKS FOR FALL, WINTER/SPRING TERM. INSTRUCTOR OF BASIC FINANCIAL PLANNING."
    }
  },
  "DRPs": []
}