{
  "Info": {
    "lastNm": "BARDWELL",
    "firstNm": "THOMAS",
    "midNm": "R.",
    "sufNm": null,
    "indvlPK": "4207750",
    "actvAGReg": 0,
    "link": "http://www.adviserinfo.sec.gov/IAPD/Individual/4207750"
  },
  "OthrNms": [],
  "CrntEmps": [
    {
      "CrntRgstns": [
        {
          "regAuth": 45,
          "regCat": 0,
          "st": 3,
          "stDt": "2014-08-21T00:00:00"
        },
        {
          "regAuth": 9,
          "regCat": 0,
          "st": 2,
          "stDt": "2014-08-22T00:00:00"
        },
        {
          "regAuth": 15,
          "regCat": 0,
          "st": 2,
          "stDt": "2016-02-03T00:00:00"
        }
      ],
      "BrnchOfLocs": [
        {
          "str1": "2 NORTH TAMIAMI TRAIL",
          "str2": "SUITE 1100",
          "city": "SARASOTA",
          "state": 9,
          "stateSpecified": true,
          "cntry": "United States",
          "postlCd": "34236"
        },
        {
          "str1": "401 NORTH MAIN STREET",
          "str2": "SUITE 1000",
          "city": "PEORIA",
          "state": 15,
          "stateSpecified": true,
          "cntry": "United States",
          "postlCd": "61602"
        }
      ],
      "orgNm": "MORGAN STANLEY",
      "orgPK": "149777",
      "str1": "2000 WESTCHESTER AVENUE",
      "str2": null,
      "city": "PURCHASE",
      "state": 35,
      "stateSpecified": true,
      "cntry": "United States",
      "postlCd": "10577-2530"
    }
  ],
  "Exms": [
    {
      "exmCd": 0,
      "exmNm": "Uniform Securities Agent State Law Examination",
      "exmDt": "2000-08-15T00:00:00",
      "exmDtSpecified": true
    },
    {
      "exmCd": 2,
      "exmNm": "Uniform Investment Adviser Law Examination",
      "exmDt": "2001-07-23T00:00:00",
      "exmDtSpecified": true
    }
  ],
  "Dsgntns": [],
  "PrevRgstns": [
    {
      "BrnchOfLocs": [
        {
          "city": "PEORIA",
          "state": 15,
          "stateSpecified": true
        }
      ],
      "orgNm": "MORGAN STANLEY DW INC.",
      "orgPK": "7556",
      "regBeginDt": "2003-02-26T00:00:00",
      "regBeginDtSpecified": true,
      "regEndDt": "2007-04-02T00:00:00",
      "regEndDtSpecified": true
    },
    {
      "BrnchOfLocs": [
        {
          "city": "PEORIA",
          "state": 15,
          "stateSpecified": true
        }
      ],
      "orgNm": "MORGAN STANLEY & CO. LLC",
      "orgPK": "8209",
      "regBeginDt": "2007-04-02T00:00:00",
      "regBeginDtSpecified": true,
      "regEndDt": "2009-06-01T00:00:00",
      "regEndDtSpecified": true
    }
  ],
  "EmpHss": [
    {
      "fromDt": "06/2002",
      "toDt": "04/2007",
      "orgNm": "MORGAN STANLEY DW INC.",
      "city": "NASHVILLE",
      "state": 44,
      "stateSpecified": true
    },
    {
      "fromDt": "04/2007",
      "toDt": null,
      "orgNm": "MORGAN STANLEY & CO., INCORPORATED",
      "city": "PEORIA",
      "state": 15,
      "stateSpecified": true
    },
    {
      "fromDt": "06/2009",
      "toDt": null,
      "orgNm": "MORGAN STANLEY SMITH BARNEY",
      "city": "PEORIA",
      "state": 15,
      "stateSpecified": true
    },
    {
      "fromDt": "01/2015",
      "toDt": null,
      "orgNm": "MORGAN STANLEY PRIVATE BANK, NATIONAL ASSOCIATION",
      "city": "NEW YORK",
      "state": 35,
      "stateSpecified": true
    }
  ],
  "OthrBuss": {
    "OthrBus": {
      "desc": ". HEART OF ILLINOIS UNITED WAY 911 HIGH ST PEORIA IL, NON PROFIT, CAMPAIGN VOLUNTEER, HELPS TO COORDINATE FUNDRAISING, RELATIONSHIP STARTED 9-2008 0 DURING OFFICE HOURS 4 HOURS PER MONTH OUTSIDE OF OFFICE HOURS   3. HELLO INDUSTRY MUSIC BAND- 506 E. MELBOURNE  PEORIA, IL 61603- BOARD OF DIRECTORS, HELP PROVIDE BUSINESS STRATEGY ADVICE, ACCOUNTABILITY FOR ACTIVITY OF BAND MEMBERS- 1 TO 2 HOURS OUTSIDE BUSINESS HOURS, 0 DURING TRADING HOURS, 0 SHARES HELD- NON INVESTMENT RELATED"
    }
  },
  "DRPs": [
    {
      "hasRegAction": 1,
      "hasRegActionSpecified": true,
      "hasCriminal": 0,
      "hasCriminalSpecified": true,
      "hasBankrupt": 1,
      "hasBankruptSpecified": true,
      "hasCivilJudc": 1,
      "hasCivilJudcSpecified": true,
      "hasBond": 1,
      "hasBondSpecified": true,
      "hasJudgment": 1,
      "hasJudgmentSpecified": true,
      "hasInvstgn": 1,
      "hasInvstgnSpecified": true,
      "hasCustComp": 1,
      "hasCustCompSpecified": true,
      "hasTermination": 1,
      "hasTerminationSpecified": true
    }
  ]
}