{
  "Info": {
    "lastNm": "BROWN",
    "firstNm": "ANN",
    "midNm": "MARIE",
    "sufNm": null,
    "indvlPK": "4214896",
    "actvAGReg": 0,
    "link": "http://www.adviserinfo.sec.gov/IAPD/Individual/4214896"
  },
  "OthrNms": [
    {
      "lastNm": "WILSON",
      "firstNm": "ANN",
      "midNm": "MARIE",
      "sufNm": null
    },
    {
      "lastNm": "WILSON",
      "firstNm": "ANN",
      "midNm": "MARIE",
      "sufNm": null
    }
  ],
  "CrntEmps": [
    {
      "CrntRgstns": [
        {
          "regAuth": 30,
          "regCat": 0,
          "st": 2,
          "stDt": "2004-05-07T00:00:00"
        }
      ],
      "BrnchOfLocs": [
        {
          "str1": "12325 PORT GRACE BLVD",
          "str2": null,
          "city": "LA VISTA",
          "state": 30,
          "stateSpecified": true,
          "cntry": "United States",
          "postlCd": "68128"
        }
      ],
      "orgNm": "SECURITIES AMERICA ADVISORS, INC.",
      "orgPK": "110518",
      "str1": "12325 PORT GRACE BLVD.",
      "str2": null,
      "city": "LA VISTA",
      "state": 30,
      "stateSpecified": true,
      "cntry": "United States",
      "postlCd": "68128-8204"
    }
  ],
  "Exms": [
    {
      "exmCd": 3,
      "exmNm": "Uniform Combined State Law Examination",
      "exmDt": "2004-04-29T00:00:00",
      "exmDtSpecified": true
    }
  ],
  "Dsgntns": [],
  "PrevRgstns": [],
  "EmpHss": [
    {
      "fromDt": "06/2000",
      "toDt": null,
      "orgNm": "SECURITIES AMERICA, INC.",
      "city": "OMAHA",
      "state": 30,
      "stateSpecified": true
    },
    {
      "fromDt": "05/2004",
      "toDt": null,
      "orgNm": "SECURITIES AMERICA ADVISORS, INC.",
      "city": "OMAHA",
      "state": 30,
      "stateSpecified": true
    },
    {
      "fromDt": "02/2005",
      "toDt": "01/2010",
      "orgNm": "ZALES THE DIAMOND STORE",
      "city": "OMAHA",
      "state": 30,
      "stateSpecified": true
    },
    {
      "fromDt": "08/2011",
      "toDt": null,
      "orgNm": "CABELA'S",
      "city": "LA VISTA",
      "state": 30,
      "stateSpecified": true
    }
  ],
  "OthrBuss": {
    "OthrBus": {
      "desc": "SECURITIES AMERICA ADVISORS - INVESTMENT ADVISORY - IAR - INVESTMENT RELATED - START DATE: 06/2000 - LOCATED AT 12325 PORT GRACE BLVD, LAVISTA, NE 68128  TEAM BEACHBODY(R) COACH POSITION: Health coach NATURE: Selling health and fitness products. INVESTMENT RELATED: No NUMBER OF HOURS: 5 SECURITIES TRADING HOURS: 0 START DATE: 01/22/2016 ADDRESS: 10787 Brentwood Dr, Apt 2B, LaVista NE 68128 DESCRIPTION: Selling of health and fitness products to individuals wanting a healthier lifestyle.  KOHL'S POSITION: Part-time employee NATURE: Retail Sales Associate at Kohl's INVESTMENT RELATED: No NUMBER OF HOURS: 40 SECURITIES TRADING HOURS: 0 START DATE: 05/12/2016 ADDRESS: 8909 S 71st Plz, Papillion NE 68133 DESCRIPTION: I will be a part-time retail associate.  GENESIS HEALTH CLUBS POSITION: Group Fitness instructor NATURE: Teaching Group Fitness to members of Genesis Health Clubs INVESTMENT RELATED: No NUMBER OF HOURS: 12 SECURITIES TRADING HOURS: 0 START DATE: 06/15/2016 ADDRESS: 2718 N. 118th St, Omaha NE 68164 DESCRIPTION: I will be a group exercise instructor teaching group fitness to members of Genesis Health Clubs. I will be eligible to teach at any club in the Omaha metro area."
    }
  },
  "DRPs": [
    {
      "hasRegAction": 1,
      "hasRegActionSpecified": true,
      "hasCriminal": 1,
      "hasCriminalSpecified": true,
      "hasBankrupt": 0,
      "hasBankruptSpecified": true,
      "hasCivilJudc": 1,
      "hasCivilJudcSpecified": true,
      "hasBond": 1,
      "hasBondSpecified": true,
      "hasJudgment": 1,
      "hasJudgmentSpecified": true,
      "hasInvstgn": 1,
      "hasInvstgnSpecified": true,
      "hasCustComp": 1,
      "hasCustCompSpecified": true,
      "hasTermination": 1,
      "hasTerminationSpecified": true
    }
  ]
}