{
  "Info": {
    "lastNm": "CLARK",
    "firstNm": "ANDREW",
    "midNm": "DAVID",
    "sufNm": null,
    "indvlPK": "4214491",
    "actvAGReg": 0,
    "link": "http://www.adviserinfo.sec.gov/IAPD/Individual/4214491"
  },
  "OthrNms": [],
  "CrntEmps": [
    {
      "CrntRgstns": [
        {
          "regAuth": 1,
          "regCat": 0,
          "st": 2,
          "stDt": "2012-03-05T00:00:00"
        },
        {
          "regAuth": 19,
          "regCat": 0,
          "st": 2,
          "stDt": "2015-04-02T00:00:00"
        },
        {
          "regAuth": 45,
          "regCat": 0,
          "st": 2,
          "stDt": "2016-02-05T00:00:00"
        }
      ],
      "BrnchOfLocs": [
        {
          "str1": "1153 HALEY DRIVE",
          "str2": null,
          "city": "CHEROKEE",
          "state": 1,
          "stateSpecified": true,
          "cntry": "United States",
          "postlCd": "35616"
        },
        {
          "str1": "13400 HWY 43",
          "str2": null,
          "city": "RUSSELVILLE",
          "state": 1,
          "stateSpecified": true,
          "cntry": "United States",
          "postlCd": "35653"
        },
        {
          "str1": "1489 HWY 72 EAST",
          "str2": null,
          "city": "KILLEN",
          "state": 1,
          "stateSpecified": true,
          "cntry": "United States",
          "postlCd": "35645"
        },
        {
          "str1": "15365 HWY 278",
          "str2": null,
          "city": "DOUBLE SPRINGS",
          "state": 1,
          "stateSpecified": true,
          "cntry": "United States",
          "postlCd": "35553"
        },
        {
          "str1": "17051 HWY 72",
          "str2": null,
          "city": "ROGERSVILLE",
          "state": 1,
          "stateSpecified": true,
          "cntry": "United States",
          "postlCd": "35652"
        },
        {
          "str1": "1850-I CHEROKEE AVE SW",
          "str2": null,
          "city": "CULLMAN",
          "state": 1,
          "stateSpecified": true,
          "cntry": "United States",
          "postlCd": "35055"
        },
        {
          "str1": "2201 MILITART STREET SOUTH",
          "str2": null,
          "city": "HAMILTON",
          "state": 1,
          "stateSpecified": true,
          "cntry": "United States",
          "postlCd": "35570"
        },
        {
          "str1": "2796 US HWY 43",
          "str2": null,
          "city": "WINFIELD",
          "state": 1,
          "stateSpecified": true,
          "cntry": "United States",
          "postlCd": "35594"
        },
        {
          "str1": "2995 HOUGH ROAD",
          "str2": null,
          "city": "FLORENCE",
          "state": 1,
          "stateSpecified": true,
          "cntry": "United States",
          "postlCd": "35630"
        },
        {
          "str1": "301 W. COLLEGE STREET",
          "str2": null,
          "city": "FLORENCE",
          "state": 1,
          "stateSpecified": true,
          "cntry": "United States",
          "postlCd": "35630"
        },
        {
          "str1": "3400 WOODWARD AVENUE",
          "str2": null,
          "city": "MUSCLE SHOALS",
          "state": 1,
          "stateSpecified": true,
          "cntry": "United States",
          "postlCd": "35661"
        },
        {
          "str1": "3701 CLOVERDALE ROAD",
          "str2": null,
          "city": "FLORENCE",
          "state": 1,
          "stateSpecified": true,
          "cntry": "United States",
          "postlCd": "35633"
        },
        {
          "str1": "42213 HWY 195",
          "str2": null,
          "city": "HALEYVILLE",
          "state": 1,
          "stateSpecified": true,
          "cntry": "United States",
          "postlCd": "35565"
        },
        {
          "str1": "4790 E. 2ND ST",
          "str2": null,
          "city": "MUSCLE SHOALS",
          "state": 1,
          "stateSpecified": true,
          "cntry": "United States",
          "postlCd": "35661"
        },
        {
          "str1": "703 MONTGOMERY AVENUE",
          "str2": null,
          "city": "SHEFFIELD",
          "state": 1,
          "stateSpecified": true,
          "cntry": "United States",
          "postlCd": "35660"
        }
      ],
      "orgNm": "LPL FINANCIAL LLC",
      "orgPK": "6413",
      "str1": "75 STATE STREET, 22ND FLOOR",
      "str2": null,
      "city": "BOSTON",
      "state": 20,
      "stateSpecified": true,
      "cntry": "United States",
      "postlCd": "02109"
    }
  ],
  "Exms": [
    {
      "exmCd": 3,
      "exmNm": "Uniform Combined State Law Examination",
      "exmDt": "2000-09-29T00:00:00",
      "exmDtSpecified": true
    }
  ],
  "Dsgntns": [
    {
      "dsgntnNm": "Certified Financial Planner"
    }
  ],
  "PrevRgstns": [
    {
      "BrnchOfLocs": [
        {
          "city": "MUSCHLE SHOALS",
          "state": 1,
          "stateSpecified": true
        },
        {
          "city": "MUSCLE SHOALS",
          "state": 1,
          "stateSpecified": true
        }
      ],
      "orgNm": "CUNA BROKERAGE SERVICES, INC.",
      "orgPK": "13941",
      "regBeginDt": "2001-09-05T00:00:00",
      "regBeginDtSpecified": true,
      "regEndDt": "2012-03-06T00:00:00",
      "regEndDtSpecified": true
    }
  ],
  "EmpHss": [
    {
      "fromDt": "07/2001",
      "toDt": "02/2012",
      "orgNm": "CUNA BROKERAGE SERVICES, INC.",
      "city": "WAVERLY",
      "state": 13,
      "stateSpecified": true
    },
    {
      "fromDt": "07/2001",
      "toDt": "02/2012",
      "orgNm": "CUNA MUTUAL INSURANCE SOCIETY",
      "city": "WAVERLY",
      "state": 13,
      "stateSpecified": true
    },
    {
      "fromDt": "02/2012",
      "toDt": null,
      "orgNm": "LPL FINANCIAL",
      "city": "MUSCLE SHOALS",
      "state": 1,
      "stateSpecified": true
    }
  ],
  "OthrBuss": {
    "OthrBus": {
      "desc": "1. 1/24/2012: DBA ONLY - LISTERHILL FINANCIAL SERVICES - LISTERHILL CREDIT UNION - TIME SPENT 100%"
    }
  },
  "DRPs": []
}