{
  "Info": {
    "lastNm": "THOMPSON",
    "firstNm": "MARK",
    "midNm": "CHRISTOPHER",
    "sufNm": null,
    "indvlPK": "4217068",
    "actvAGReg": 0,
    "link": "http://www.adviserinfo.sec.gov/IAPD/Individual/4217068"
  },
  "OthrNms": [
    {
      "lastNm": "THOMPSON",
      "firstNm": "MARK",
      "midNm": null,
      "sufNm": null
    },
    {
      "lastNm": "THOMPSON",
      "firstNm": "MARK",
      "midNm": "CHRISTOPHER",
      "sufNm": null
    }
  ],
  "CrntEmps": [
    {
      "CrntRgstns": [
        {
          "regAuth": 15,
          "regCat": 0,
          "st": 2,
          "stDt": "2013-12-12T00:00:00"
        }
      ],
      "BrnchOfLocs": [
        {
          "str1": "222 W ADAMS ST",
          "str2": null,
          "city": "CHICAGO",
          "state": 15,
          "stateSpecified": true,
          "cntry": "United States",
          "postlCd": "60606"
        },
        {
          "str1": "222 W. ADAMS",
          "str2": null,
          "city": "CHICAGO",
          "state": 15,
          "stateSpecified": true,
          "cntry": "United States",
          "postlCd": "60606"
        },
        {
          "str1": "222 WEST ADAMS ST",
          "str2": null,
          "city": "CHICAGO",
          "state": 15,
          "stateSpecified": true,
          "cntry": "UNITED STATES",
          "postlCd": "60606-5312"
        }
      ],
      "orgNm": "WILLIAM BLAIR",
      "orgPK": "1252",
      "str1": "222 W ADAMS ST",
      "str2": null,
      "city": "CHICAGO",
      "state": 15,
      "stateSpecified": true,
      "cntry": "United States",
      "postlCd": "60606"
    }
  ],
  "Exms": [
    {
      "exmCd": 3,
      "exmNm": "Uniform Combined State Law Examination",
      "exmDt": "2007-01-22T00:00:00",
      "exmDtSpecified": true
    }
  ],
  "Dsgntns": [],
  "PrevRgstns": [
    {
      "BrnchOfLocs": [
        {
          "city": "CHICAGO",
          "state": 15,
          "stateSpecified": true
        },
        {
          "city": "CHICAGO",
          "state": 15,
          "stateSpecified": true
        }
      ],
      "orgNm": "WILLIAM BLAIR",
      "orgPK": "1252",
      "regBeginDt": "2007-01-23T00:00:00",
      "regBeginDtSpecified": true,
      "regEndDt": "2012-01-30T00:00:00",
      "regEndDtSpecified": true
    }
  ],
  "EmpHss": [
    {
      "fromDt": "08/2006",
      "toDt": null,
      "orgNm": "WILLIAM BLAIR & COMPANY",
      "city": "CHICAGO",
      "state": 15,
      "stateSpecified": true
    }
  ],
  "OthrBuss": {
    "OthrBus": null
  },
  "DRPs": []
}