{
  "Info": {
    "lastNm": "WALTON",
    "firstNm": "JESSE",
    "midNm": null,
    "sufNm": "JR",
    "indvlPK": "4219527",
    "actvAGReg": 0,
    "link": "http://www.adviserinfo.sec.gov/IAPD/Individual/4219527"
  },
  "OthrNms": [
    {
      "lastNm": "WALTON",
      "firstNm": "JESSE",
      "midNm": null,
      "sufNm": null
    }
  ],
  "CrntEmps": [
    {
      "CrntRgstns": [
        {
          "regAuth": 10,
          "regCat": 0,
          "st": 2,
          "stDt": "2009-06-01T00:00:00"
        },
        {
          "regAuth": 45,
          "regCat": 0,
          "st": 3,
          "stDt": "2009-06-01T00:00:00"
        }
      ],
      "BrnchOfLocs": [
        {
          "str1": "5 CONCOURSE PARKWAY - SUITE 2000",
          "str2": null,
          "city": "ATLANTA",
          "state": 10,
          "stateSpecified": true,
          "cntry": "United States",
          "postlCd": "30328"
        }
      ],
      "orgNm": "MORGAN STANLEY",
      "orgPK": "149777",
      "str1": "2000 WESTCHESTER AVENUE",
      "str2": null,
      "city": "PURCHASE",
      "state": 35,
      "stateSpecified": true,
      "cntry": "United States",
      "postlCd": "10577-2530"
    }
  ],
  "Exms": [
    {
      "exmCd": 0,
      "exmNm": "Uniform Securities Agent State Law Examination",
      "exmDt": "2000-08-02T00:00:00",
      "exmDtSpecified": true
    },
    {
      "exmCd": 2,
      "exmNm": "Uniform Investment Adviser Law Examination",
      "exmDt": "2000-08-10T00:00:00",
      "exmDtSpecified": true
    }
  ],
  "Dsgntns": [
    {
      "dsgntnNm": "Certified Financial Planner"
    }
  ],
  "PrevRgstns": [
    {
      "BrnchOfLocs": [
        {
          "city": "ALPHARETTA",
          "state": 10,
          "stateSpecified": true
        }
      ],
      "orgNm": "CITIGROUP GLOBAL MARKETS INC.",
      "orgPK": "7059",
      "regBeginDt": "2003-04-30T00:00:00",
      "regBeginDtSpecified": true,
      "regEndDt": "2005-11-25T00:00:00",
      "regEndDtSpecified": true
    },
    {
      "BrnchOfLocs": [
        {
          "city": "ALPHARETTA",
          "state": 10,
          "stateSpecified": true
        }
      ],
      "orgNm": "MORGAN STANLEY DW INC.",
      "orgPK": "7556",
      "regBeginDt": "2005-11-14T00:00:00",
      "regBeginDtSpecified": true,
      "regEndDt": "2007-04-02T00:00:00",
      "regEndDtSpecified": true
    },
    {
      "BrnchOfLocs": [
        {
          "city": "ALPHARETTA",
          "state": 10,
          "stateSpecified": true
        }
      ],
      "orgNm": "MORGAN STANLEY & CO. LLC",
      "orgPK": "8209",
      "regBeginDt": "2007-04-02T00:00:00",
      "regBeginDtSpecified": true,
      "regEndDt": "2009-06-01T00:00:00",
      "regEndDtSpecified": true
    }
  ],
  "EmpHss": [
    {
      "fromDt": "11/2005",
      "toDt": "04/2007",
      "orgNm": "MORGAN STANLEY DW INC.",
      "city": "ALPHARETTA",
      "state": 10,
      "stateSpecified": true
    },
    {
      "fromDt": "04/2007",
      "toDt": null,
      "orgNm": "MORGAN STANLEY & CO., INCORPORATED",
      "city": "ALPHARETTA",
      "state": 10,
      "stateSpecified": true
    },
    {
      "fromDt": "06/2009",
      "toDt": null,
      "orgNm": "MORGAN STANLEY SMITH BARNEY",
      "city": "ALPHARETTA",
      "state": 10,
      "stateSpecified": true
    },
    {
      "fromDt": "01/2015",
      "toDt": null,
      "orgNm": "MORGAN STANLEY PRIVATE BANK, NATIONAL ASSOCIATION",
      "city": "NEW YORK",
      "state": 35,
      "stateSpecified": true
    }
  ],
  "OthrBuss": {
    "OthrBus": null
  },
  "DRPs": [
    {
      "hasRegAction": 1,
      "hasRegActionSpecified": true,
      "hasCriminal": 0,
      "hasCriminalSpecified": true,
      "hasBankrupt": 1,
      "hasBankruptSpecified": true,
      "hasCivilJudc": 1,
      "hasCivilJudcSpecified": true,
      "hasBond": 1,
      "hasBondSpecified": true,
      "hasJudgment": 1,
      "hasJudgmentSpecified": true,
      "hasInvstgn": 1,
      "hasInvstgnSpecified": true,
      "hasCustComp": 0,
      "hasCustCompSpecified": true,
      "hasTermination": 1,
      "hasTerminationSpecified": true
    }
  ]
}