{
  "Info": {
    "lastNm": "SCHMIDT",
    "firstNm": "BENNIE",
    "midNm": "JOSEPH",
    "sufNm": null,
    "indvlPK": "4221969",
    "actvAGReg": 0,
    "link": "http://www.adviserinfo.sec.gov/IAPD/Individual/4221969"
  },
  "OthrNms": [
    {
      "lastNm": "SCHMIDT",
      "firstNm": "BENNIE",
      "midNm": null,
      "sufNm": null
    },
    {
      "lastNm": "SCHMIDT",
      "firstNm": "BERNIE",
      "midNm": "JOSEPH",
      "sufNm": null
    }
  ],
  "CrntEmps": [
    {
      "CrntRgstns": [
        {
          "regAuth": 4,
          "regCat": 0,
          "st": 2,
          "stDt": "2015-07-27T00:00:00"
        },
        {
          "regAuth": 45,
          "regCat": 0,
          "st": 3,
          "stDt": "2015-07-28T00:00:00"
        }
      ],
      "BrnchOfLocs": [
        {
          "str1": "1566 E South St",
          "str2": null,
          "city": "Globe",
          "state": 3,
          "stateSpecified": true,
          "cntry": "United States",
          "postlCd": "85501-1402"
        },
        {
          "str1": "4417 N 40th St",
          "str2": "Ste 200",
          "city": "Phoenix",
          "state": 3,
          "stateSpecified": true,
          "cntry": "United States",
          "postlCd": "85018-4146"
        }
      ],
      "orgNm": "AMERIPRISE FINANCIAL SERVICES, INC.",
      "orgPK": "6363",
      "str1": "707 2ND AVENUE SOUTH",
      "str2": null,
      "city": "MINNEAPOLIS",
      "state": 24,
      "stateSpecified": true,
      "cntry": "United States",
      "postlCd": "55402"
    }
  ],
  "Exms": [
    {
      "exmCd": 3,
      "exmNm": "Uniform Combined State Law Examination",
      "exmDt": "2000-10-12T00:00:00",
      "exmDtSpecified": true
    }
  ],
  "Dsgntns": [],
  "PrevRgstns": [
    {
      "BrnchOfLocs": [
        {
          "city": "GLOBE",
          "state": 3,
          "stateSpecified": true
        },
        {
          "city": "PHOENIX",
          "state": 3,
          "stateSpecified": true
        },
        {
          "city": "SCOTTSDALE",
          "state": 3,
          "stateSpecified": true
        },
        {
          "city": "SCOTTSDALE",
          "state": 3,
          "stateSpecified": true
        }
      ],
      "orgNm": "WADDELL & REED",
      "orgPK": "866",
      "regBeginDt": "2001-02-23T00:00:00",
      "regBeginDtSpecified": true,
      "regEndDt": "2015-07-30T00:00:00",
      "regEndDtSpecified": true
    }
  ],
  "EmpHss": [
    {
      "fromDt": "06/2000",
      "toDt": "07/2015",
      "orgNm": "WADDELL & REED INC",
      "city": "PHOENIX",
      "state": 3,
      "stateSpecified": true
    },
    {
      "fromDt": "11/2000",
      "toDt": "07/2015",
      "orgNm": "VARIOUS INSURANCE CARRIERS FOR W&R INSURANCE AGENCIES, INC.",
      "city": "CHANDLER",
      "state": 3,
      "stateSpecified": true
    },
    {
      "fromDt": "01/2006",
      "toDt": "07/2015",
      "orgNm": "FP DESIGN, INC.",
      "city": "CHANDLER",
      "state": 3,
      "stateSpecified": true
    },
    {
      "fromDt": "10/2011",
      "toDt": "07/2015",
      "orgNm": "BNI",
      "city": "SCOTTSDALE",
      "state": 3,
      "stateSpecified": true
    },
    {
      "fromDt": "07/2015",
      "toDt": null,
      "orgNm": "AMERIPRISE FINANCIAL SERVICES INC",
      "city": "PHOENIX",
      "state": 3,
      "stateSpecified": true
    }
  ],
  "OthrBuss": {
    "OthrBus": {
      "desc": "Real Estate Ownership; Commercial; Phoenix, AZ 85018; not Investment Related; December 2015.   BUSINESS OWNERSHIP; FP DESIGN, INC; PRESIDENT; I ONLY HAVE THIS ENTITY AS A PASS-THROUGH FOR BUSINESS ON THE ADVICE OF MY CPA. I DON'T HAVE A PHYSICAL/ACTING BUSINESS. ONLY TO PAY TAXES AND USE FOR MY PAYROLL AND BUSINESS EXPENSES; CHANDLER, AZ 85248; NOT INVESTMENT RELATED; JULY 2006; 0 HOURS PER MONTH, 0 DURING TRADING HOURS.    BUSINESS OWNERSHIP; Arcadia Vibe, LLC; Owner; LLC to hold real estate for commercial property;  AZ 85018; NOT INVESTMENT RELATED; January 2016; 0 HOURS PER MONTH, 0 DURING TRADING HOURS."
    }
  },
  "DRPs": [
    {
      "hasRegAction": 1,
      "hasRegActionSpecified": true,
      "hasCriminal": 1,
      "hasCriminalSpecified": true,
      "hasBankrupt": 0,
      "hasBankruptSpecified": true,
      "hasCivilJudc": 1,
      "hasCivilJudcSpecified": true,
      "hasBond": 1,
      "hasBondSpecified": true,
      "hasJudgment": 1,
      "hasJudgmentSpecified": true,
      "hasInvstgn": 1,
      "hasInvstgnSpecified": true,
      "hasCustComp": 1,
      "hasCustCompSpecified": true,
      "hasTermination": 1,
      "hasTerminationSpecified": true
    }
  ]
}