{
  "Info": {
    "lastNm": "HONG",
    "firstNm": "AUDREY",
    "midNm": "FU-YIN",
    "sufNm": null,
    "indvlPK": "4225120",
    "actvAGReg": 0,
    "link": "http://www.adviserinfo.sec.gov/IAPD/Individual/4225120"
  },
  "OthrNms": [],
  "CrntEmps": [
    {
      "CrntRgstns": [
        {
          "regAuth": 4,
          "regCat": 0,
          "st": 2,
          "stDt": "2007-03-02T00:00:00"
        }
      ],
      "BrnchOfLocs": [
        {
          "str1": "10540 TALBERT AVE. STE 270",
          "str2": null,
          "city": "FOUNTAIN VALLEY",
          "state": 4,
          "stateSpecified": true,
          "cntry": "United States",
          "postlCd": "92708"
        }
      ],
      "orgNm": "LPL FINANCIAL LLC",
      "orgPK": "6413",
      "str1": "75 STATE STREET, 22ND FLOOR",
      "str2": null,
      "city": "BOSTON",
      "state": 20,
      "stateSpecified": true,
      "cntry": "United States",
      "postlCd": "02109"
    }
  ],
  "Exms": [
    {
      "exmCd": 3,
      "exmNm": "Uniform Combined State Law Examination",
      "exmDt": "2000-10-09T00:00:00",
      "exmDtSpecified": true
    }
  ],
  "Dsgntns": [],
  "PrevRgstns": [
    {
      "BrnchOfLocs": [
        {
          "city": "IRVINE",
          "state": 4,
          "stateSpecified": true
        }
      ],
      "orgNm": "AMERIPRISE FINANCIAL SERVICES, INC.",
      "orgPK": "6363",
      "regBeginDt": "2000-10-12T00:00:00",
      "regBeginDtSpecified": true,
      "regEndDt": "2003-05-09T00:00:00",
      "regEndDtSpecified": true
    },
    {
      "BrnchOfLocs": [
        {
          "city": "FOUNTAIN VALLEY",
          "state": 4,
          "stateSpecified": true
        },
        {
          "city": "FOUNTAIN VALLEY",
          "state": 4,
          "stateSpecified": true
        }
      ],
      "orgNm": "CITICORP INVESTMENT SERVICES",
      "orgPK": "23988",
      "regBeginDt": "2003-05-05T00:00:00",
      "regBeginDtSpecified": true,
      "regEndDt": "2007-03-09T00:00:00",
      "regEndDtSpecified": true
    }
  ],
  "EmpHss": [
    {
      "fromDt": "05/2003",
      "toDt": "03/2007",
      "orgNm": "CITICORP INVESTMENT SERVICES",
      "city": "FOUNTAIN VALLEY",
      "state": 4,
      "stateSpecified": true
    },
    {
      "fromDt": "03/2007",
      "toDt": null,
      "orgNm": "LINSCO/PRIVATE LEDGER",
      "city": "FOUNTAIN VALLEY",
      "state": 4,
      "stateSpecified": true
    }
  ],
  "OthrBuss": {
    "OthrBus": {
      "desc": "1. 03/02/2007 / SELLING INSURANCE, FIXED AND LONG TERM CARE INSURANCE / ORANGE COUNTY INVESTMENT GROUP / DBA / 5% OR HOURS / 10000.00 PROJECTED COMMISSION INCOME / 32 PROMENADE, IRVINE, CA 92612."
    }
  },
  "DRPs": []
}