{
  "Info": {
    "lastNm": "WESTPFAHL",
    "firstNm": "JENNIFER",
    "midNm": "J",
    "sufNm": null,
    "indvlPK": "4230070",
    "actvAGReg": 0,
    "link": "http://www.adviserinfo.sec.gov/IAPD/Individual/4230070"
  },
  "OthrNms": [],
  "CrntEmps": [
    {
      "CrntRgstns": [
        {
          "regAuth": 4,
          "regCat": 0,
          "st": 2,
          "stDt": "2009-06-01T00:00:00"
        }
      ],
      "BrnchOfLocs": [
        {
          "str1": "2000 WESTCHESTER AVENUE, 1 NC",
          "str2": "NEW YORK METRO - REGION 7",
          "city": "PURCHASE",
          "state": 35,
          "stateSpecified": true,
          "cntry": "United States",
          "postlCd": "10577"
        }
      ],
      "orgNm": "MORGAN STANLEY",
      "orgPK": "149777",
      "str1": "2000 WESTCHESTER AVENUE",
      "str2": null,
      "city": "PURCHASE",
      "state": 35,
      "stateSpecified": true,
      "cntry": "United States",
      "postlCd": "10577-2530"
    }
  ],
  "Exms": [
    {
      "exmCd": 3,
      "exmNm": "Uniform Combined State Law Examination",
      "exmDt": "2008-05-23T00:00:00",
      "exmDtSpecified": true
    }
  ],
  "Dsgntns": [],
  "PrevRgstns": [
    {
      "BrnchOfLocs": [
        {
          "city": "LOS ANGELES",
          "state": 4,
          "stateSpecified": true
        },
        {
          "city": "NEW YORK",
          "state": 35,
          "stateSpecified": true
        },
        {
          "city": "NEW YORK",
          "state": 35,
          "stateSpecified": true
        }
      ],
      "orgNm": "CITIGROUP GLOBAL MARKETS INC.",
      "orgPK": "7059",
      "regBeginDt": "2008-05-28T00:00:00",
      "regBeginDtSpecified": true,
      "regEndDt": "2009-06-01T00:00:00",
      "regEndDtSpecified": true
    }
  ],
  "EmpHss": [
    {
      "fromDt": "12/2004",
      "toDt": "06/2012",
      "orgNm": "CITIGROUP GLOBAL MARKETS INC.",
      "city": "NEW YORK",
      "state": 35,
      "stateSpecified": true
    },
    {
      "fromDt": "06/2009",
      "toDt": null,
      "orgNm": "MORGAN STANLEY SMITH BARNEY",
      "city": "LOS ANGELES",
      "state": 4,
      "stateSpecified": true
    }
  ],
  "OthrBuss": {
    "OthrBus": {
      "desc": "NASD INVESTMENT RELATED - YES  LOCATION - NEW YORK CITY DISTRICT  POSITION - ARBITRATOR  START DATE - JANUARY 2006  DETAILS: THE NASD ARBITRATOR POSITION IS ON A RANDOMLY SELECTED BASIS AS FAR AS THE AMOUNT OF TIME DEVOTED TO THE POSITION.  THE NASD WILL CALL TO SIT ON A PANEL AND THEN IF MY SCHEDULE PERMITS I WILL SIT ON THE PANEL.  THE NORMAL LENGTH OF AN ARBITRATION HEARING IS 1/2 OF A TRADING DAY.  I ANTICIPATE BEING ON TWO PANELS A YEAR; THEREFORE TIME SPENT WOULD APPROXIMATELY BE 1 TRADING DAY A YEAR.  AS AN ARBITRATOR I WILL HEAR CASES BROUGHT AGAINST FIRMS OR BROKERS AND HELP DETERMINE IF THE CASE IS VALID AND THE CLIENT SHOULD BE AWARDED."
    }
  },
  "DRPs": []
}