{
  "Info": {
    "lastNm": "PORATH",
    "firstNm": "DAVID",
    "midNm": "MICHAEL",
    "sufNm": null,
    "indvlPK": "4236620",
    "actvAGReg": 0,
    "link": "http://www.adviserinfo.sec.gov/IAPD/Individual/4236620"
  },
  "OthrNms": [],
  "CrntEmps": [
    {
      "CrntRgstns": [
        {
          "regAuth": 23,
          "regCat": 0,
          "st": 2,
          "stDt": "2010-10-06T00:00:00"
        }
      ],
      "BrnchOfLocs": [
        {
          "str1": "409 ASHMAN ST",
          "str2": "STE 2",
          "city": "MIDLAND",
          "state": 23,
          "stateSpecified": true,
          "cntry": "United States",
          "postlCd": "48640"
        }
      ],
      "orgNm": "WELLS FARGO ADVISORS, LLC",
      "orgPK": "19616",
      "str1": "ONE NORTH JEFFERSON AVENUE",
      "str2": "MAIL CODE: H0004-050",
      "city": "ST. LOUIS",
      "state": 25,
      "stateSpecified": true,
      "cntry": "United States",
      "postlCd": "63103-2205"
    }
  ],
  "Exms": [
    {
      "exmCd": 0,
      "exmNm": "Uniform Securities Agent State Law Examination",
      "exmDt": "2000-10-12T00:00:00",
      "exmDtSpecified": true
    },
    {
      "exmCd": 2,
      "exmNm": "Uniform Investment Adviser Law Examination",
      "exmDt": "2010-09-09T00:00:00",
      "exmDtSpecified": true
    }
  ],
  "Dsgntns": [],
  "PrevRgstns": [],
  "EmpHss": [
    {
      "fromDt": "07/2000",
      "toDt": "01/2008",
      "orgNm": "A.G. EDWARDS",
      "city": "MIDLAND",
      "state": 23,
      "stateSpecified": true
    },
    {
      "fromDt": "01/2008",
      "toDt": "05/2009",
      "orgNm": "WACHOVIA SECURITIES, LLC",
      "city": "MIDLAND",
      "state": 23,
      "stateSpecified": true
    },
    {
      "fromDt": "05/2009",
      "toDt": null,
      "orgNm": "WELLS FARGO ADVISORS LLC",
      "city": "MIDLAND",
      "state": 23,
      "stateSpecified": true
    }
  ],
  "OthrBuss": {
    "OthrBus": null
  },
  "DRPs": []
}