{
  "Info": {
    "lastNm": "GARDNER",
    "firstNm": "JEFFERY",
    "midNm": "ALAN",
    "sufNm": null,
    "indvlPK": "4244723",
    "actvAGReg": 0,
    "link": "http://www.adviserinfo.sec.gov/IAPD/Individual/4244723"
  },
  "OthrNms": [],
  "CrntEmps": [
    {
      "CrntRgstns": [
        {
          "regAuth": 36,
          "regCat": 0,
          "st": 2,
          "stDt": "2016-03-10T00:00:00"
        }
      ],
      "BrnchOfLocs": [
        {
          "str1": "10 WEST NATIONWIDE BLVD",
          "str2": "MAIL CODE 5-02-301J",
          "city": "COLUMBUS",
          "state": 36,
          "stateSpecified": true,
          "cntry": "United States",
          "postlCd": "43215"
        }
      ],
      "orgNm": "NATIONWIDE INVESTMENT ADVISORS, LLC",
      "orgPK": "142373",
      "str1": "10 WEST NATIONWIDE BLVD",
      "str2": "MAIL CODE 5-02-301J",
      "city": "COLUMBUS",
      "state": 36,
      "stateSpecified": true,
      "cntry": "United States",
      "postlCd": "43215"
    }
  ],
  "Exms": [
    {
      "exmCd": 3,
      "exmNm": "Uniform Combined State Law Examination",
      "exmDt": "2001-01-05T00:00:00",
      "exmDtSpecified": true
    }
  ],
  "Dsgntns": [
    {
      "dsgntnNm": "Certified Financial Planner"
    }
  ],
  "PrevRgstns": [
    {
      "BrnchOfLocs": [
        {
          "city": "ALPHARETTA",
          "state": 10,
          "stateSpecified": true
        }
      ],
      "orgNm": "PRUDENTIAL INVESTMENTS LLC",
      "orgPK": "105670",
      "regBeginDt": "2002-09-05T00:00:00",
      "regBeginDtSpecified": true,
      "regEndDt": "2007-11-06T00:00:00",
      "regEndDtSpecified": true
    },
    {
      "BrnchOfLocs": [
        {
          "city": "COLUMBUS",
          "state": 36,
          "stateSpecified": true
        }
      ],
      "orgNm": "NATIONWIDE INVESTMENT ADVISORS, LLC",
      "orgPK": "142373",
      "regBeginDt": "2009-11-06T00:00:00",
      "regBeginDtSpecified": true,
      "regEndDt": "2012-05-15T00:00:00",
      "regEndDtSpecified": true
    },
    {
      "BrnchOfLocs": [
        {
          "city": "COLUMBUS",
          "state": 36,
          "stateSpecified": true
        }
      ],
      "orgNm": "NATIONWIDE SECURITIES, LLC",
      "orgPK": "11173",
      "regBeginDt": "2012-05-15T00:00:00",
      "regBeginDtSpecified": true,
      "regEndDt": "2016-03-21T00:00:00",
      "regEndDtSpecified": true
    }
  ],
  "EmpHss": [
    {
      "fromDt": "06/2002",
      "toDt": "11/2007",
      "orgNm": "PRUDENTIAL INVESTMENTS",
      "city": "ALPHARETTA",
      "state": 10,
      "stateSpecified": true
    },
    {
      "fromDt": "07/2002",
      "toDt": "11/2007",
      "orgNm": "PRUDENTIAL INVESTMENT MANAGEMENT SERVICES LLC",
      "city": "ALPHARETTA",
      "state": 10,
      "stateSpecified": true
    },
    {
      "fromDt": "11/2007",
      "toDt": null,
      "orgNm": "NATIONWIDE INVESTMENT SERVICES INCORPORATION",
      "city": "COLUMBUS",
      "state": 36,
      "stateSpecified": true
    }
  ],
  "OthrBuss": {
    "OthrBus": null
  },
  "DRPs": []
}