{
  "Info": {
    "lastNm": "GOULIAMIS",
    "firstNm": "MICHAEL",
    "midNm": "PAUL",
    "sufNm": null,
    "indvlPK": "4248214",
    "actvAGReg": 0,
    "link": "http://www.adviserinfo.sec.gov/IAPD/Individual/4248214"
  },
  "OthrNms": [],
  "CrntEmps": [
    {
      "CrntRgstns": [
        {
          "regAuth": 8,
          "regCat": 0,
          "st": 2,
          "stDt": "2014-05-15T00:00:00"
        }
      ],
      "BrnchOfLocs": [
        {
          "str1": "200 CONTINENTAL DRIVE",
          "str2": "SUITE 401",
          "city": "NEWARK",
          "state": 8,
          "stateSpecified": true,
          "cntry": "United States",
          "postlCd": "19713"
        }
      ],
      "orgNm": "TIAA-CREF INDIVIDUAL & INSTITUTIONAL SERVICES, LLC",
      "orgPK": "20472",
      "str1": "730 THIRD AVENUE",
      "str2": null,
      "city": "NEW YORK",
      "state": 35,
      "stateSpecified": true,
      "cntry": "United States",
      "postlCd": "10017-3206"
    }
  ],
  "Exms": [
    {
      "exmCd": 0,
      "exmNm": "Uniform Securities Agent State Law Examination",
      "exmDt": "2001-01-15T00:00:00",
      "exmDtSpecified": true
    },
    {
      "exmCd": 2,
      "exmNm": "Uniform Investment Adviser Law Examination",
      "exmDt": "2001-05-30T00:00:00",
      "exmDtSpecified": true
    }
  ],
  "Dsgntns": [],
  "PrevRgstns": [
    {
      "BrnchOfLocs": [
        {
          "city": "LAWERENCEVILLE",
          "state": 32,
          "stateSpecified": true
        }
      ],
      "orgNm": "CITIGROUP GLOBAL MARKETS INC.",
      "orgPK": "7059",
      "regBeginDt": "2002-04-04T00:00:00",
      "regBeginDtSpecified": true,
      "regEndDt": "2004-07-20T00:00:00",
      "regEndDtSpecified": true
    }
  ],
  "EmpHss": [
    {
      "fromDt": "07/2004",
      "toDt": "07/2007",
      "orgNm": "SEI INVESTMENTS",
      "city": "OAKS",
      "state": 39,
      "stateSpecified": true
    },
    {
      "fromDt": "08/2007",
      "toDt": null,
      "orgNm": "TIAA",
      "city": "NEWARK",
      "state": 8,
      "stateSpecified": true
    },
    {
      "fromDt": "08/2007",
      "toDt": null,
      "orgNm": "TIAA-CREF INDIVIDUAL & INSTITUTIONAL SERVICES, LLC",
      "city": "NEWARK",
      "state": 8,
      "stateSpecified": true
    }
  ],
  "OthrBuss": {
    "OthrBus": null
  },
  "DRPs": []
}