{
  "Info": {
    "lastNm": "PALACIOS",
    "firstNm": "MORENA",
    "midNm": "F",
    "sufNm": null,
    "indvlPK": "4251906",
    "actvAGReg": 0,
    "link": "http://www.adviserinfo.sec.gov/IAPD/Individual/4251906"
  },
  "OthrNms": [
    {
      "lastNm": "PALOCIOS",
      "firstNm": "MORENA",
      "midNm": "I",
      "sufNm": null
    }
  ],
  "CrntEmps": [
    {
      "CrntRgstns": [
        {
          "regAuth": 4,
          "regCat": 0,
          "st": 2,
          "stDt": "2004-07-28T00:00:00"
        }
      ],
      "BrnchOfLocs": [
        {
          "str1": "ONE ALMADEN BLVD",
          "str2": "STE 1000, 10TH FL",
          "city": "SAN JOSE",
          "state": 4,
          "stateSpecified": true,
          "cntry": "United States",
          "postlCd": "95113"
        }
      ],
      "orgNm": "WELLS FARGO ADVISORS, LLC",
      "orgPK": "19616",
      "str1": "ONE NORTH JEFFERSON AVENUE",
      "str2": "MAIL CODE: H0004-050",
      "city": "ST. LOUIS",
      "state": 25,
      "stateSpecified": true,
      "cntry": "United States",
      "postlCd": "63103-2205"
    }
  ],
  "Exms": [
    {
      "exmCd": 3,
      "exmNm": "Uniform Combined State Law Examination",
      "exmDt": "2002-08-23T00:00:00",
      "exmDtSpecified": true
    }
  ],
  "Dsgntns": [],
  "PrevRgstns": [],
  "EmpHss": [
    {
      "fromDt": "07/2003",
      "toDt": "05/2009",
      "orgNm": "WACHOVIA SECURITIES LLC",
      "city": "SAN JOSE",
      "state": 4,
      "stateSpecified": true
    },
    {
      "fromDt": "05/2009",
      "toDt": null,
      "orgNm": "WELLS FARGO ADVISORS LLC",
      "city": "SAN JOSE",
      "state": 4,
      "stateSpecified": true
    }
  ],
  "OthrBuss": {
    "OthrBus": null
  },
  "DRPs": []
}