{
  "Info": {
    "lastNm": "DZENIS",
    "firstNm": "HUGH",
    "midNm": "V",
    "sufNm": null,
    "indvlPK": "4257166",
    "actvAGReg": 0,
    "link": "http://www.adviserinfo.sec.gov/IAPD/Individual/4257166"
  },
  "OthrNms": [],
  "CrntEmps": [
    {
      "CrntRgstns": [
        {
          "regAuth": 32,
          "regCat": 0,
          "st": 2,
          "stDt": "2015-07-21T00:00:00"
        }
      ],
      "BrnchOfLocs": [
        {
          "str1": "1433 HOOPER AVE",
          "str2": "SUITE 339",
          "city": "TOMS RIVER",
          "state": 32,
          "stateSpecified": true,
          "cntry": "United States",
          "postlCd": "08753"
        }
      ],
      "orgNm": "AXA ADVISORS, LLC",
      "orgPK": "6627",
      "str1": "1290 AVENUE OF THE AMERICAS",
      "str2": null,
      "city": "NEW YORK",
      "state": 35,
      "stateSpecified": true,
      "cntry": "United States",
      "postlCd": "10104"
    }
  ],
  "Exms": [
    {
      "exmCd": 0,
      "exmNm": "Uniform Securities Agent State Law Examination",
      "exmDt": "2001-10-12T00:00:00",
      "exmDtSpecified": true
    },
    {
      "exmCd": 3,
      "exmNm": "Uniform Combined State Law Examination",
      "exmDt": "2015-07-09T00:00:00",
      "exmDtSpecified": true
    }
  ],
  "Dsgntns": [],
  "PrevRgstns": [],
  "EmpHss": [
    {
      "fromDt": "06/2002",
      "toDt": null,
      "orgNm": "AXA ADVISORS, LLC",
      "city": "NEW YORK",
      "state": 35,
      "stateSpecified": true
    }
  ],
  "OthrBuss": {
    "OthrBus": {
      "desc": "Board member-Manasquan Environmental Commission- Educate community about environmental issues. Review development plans to make sure they are compliance with environmental rules/regulations. Spends 2 hrs/ mo on this activity."
    }
  },
  "DRPs": []
}