{
  "Info": {
    "lastNm": "MAES",
    "firstNm": "ROBERT",
    "midNm": "JOHN",
    "sufNm": null,
    "indvlPK": "4271900",
    "actvAGReg": 0,
    "link": "http://www.adviserinfo.sec.gov/IAPD/Individual/4271900"
  },
  "OthrNms": [],
  "CrntEmps": [
    {
      "CrntRgstns": [
        {
          "regAuth": 32,
          "regCat": 0,
          "st": 2,
          "stDt": "2011-12-22T00:00:00"
        }
      ],
      "BrnchOfLocs": [
        {
          "str1": "1967 State Route 34",
          "str2": "Ste 101",
          "city": "Wall Township",
          "state": 32,
          "stateSpecified": true,
          "cntry": "United States",
          "postlCd": "07719-9738"
        }
      ],
      "orgNm": "AMERIPRISE FINANCIAL SERVICES, INC.",
      "orgPK": "6363",
      "str1": "707 2ND AVENUE SOUTH",
      "str2": null,
      "city": "MINNEAPOLIS",
      "state": 24,
      "stateSpecified": true,
      "cntry": "United States",
      "postlCd": "55402"
    }
  ],
  "Exms": [
    {
      "exmCd": 3,
      "exmNm": "Uniform Combined State Law Examination",
      "exmDt": "2011-04-21T00:00:00",
      "exmDtSpecified": true
    }
  ],
  "Dsgntns": [],
  "PrevRgstns": [
    {
      "BrnchOfLocs": [
        {
          "city": "BRIELLE",
          "state": 32,
          "stateSpecified": true
        },
        {
          "city": "BRIELLE",
          "state": 32,
          "stateSpecified": true
        },
        {
          "city": "LINCROFT",
          "state": 32,
          "stateSpecified": true
        },
        {
          "city": "WALL",
          "state": 32,
          "stateSpecified": true
        }
      ],
      "orgNm": "TFS SECURITIES, INC.",
      "orgPK": "20626",
      "regBeginDt": "2011-04-22T00:00:00",
      "regBeginDtSpecified": true,
      "regEndDt": "2011-12-22T00:00:00",
      "regEndDtSpecified": true
    }
  ],
  "EmpHss": [
    {
      "fromDt": "04/2002",
      "toDt": "12/2011",
      "orgNm": "TFS SECURITIES, INC.",
      "city": "LINCROFT",
      "state": 32,
      "stateSpecified": true
    },
    {
      "fromDt": "12/2011",
      "toDt": null,
      "orgNm": "AMERIPRISE FINANCIAL SERVICES INC",
      "city": "BRIELLE",
      "state": 32,
      "stateSpecified": true
    }
  ],
  "OthrBuss": {
    "OthrBus": {
      "desc": "Fiduciary Activities; Named or act in a fiduciary capacity; such as attorney-in-fact, trustee, conservator, guardian, executor or personal representative.   Tax Activities; Robert J. Maes CPA; tax preparation; December 2011."
    }
  },
  "DRPs": []
}