{
  "Info": {
    "lastNm": "HENRY",
    "firstNm": "DANIEL",
    "midNm": "EDWARD",
    "sufNm": null,
    "indvlPK": "4271808",
    "actvAGReg": 0,
    "link": "http://www.adviserinfo.sec.gov/IAPD/Individual/4271808"
  },
  "OthrNms": [],
  "CrntEmps": [
    {
      "CrntRgstns": [
        {
          "regAuth": 36,
          "regCat": 0,
          "st": 2,
          "stDt": "2007-09-13T00:00:00"
        }
      ],
      "BrnchOfLocs": [
        {
          "str1": null,
          "str2": null,
          "city": "YOUNGSTOWN",
          "state": 36,
          "stateSpecified": true,
          "cntry": "United States",
          "postlCd": null
        }
      ],
      "orgNm": "CETERA ADVISORS LLC",
      "orgPK": "10299",
      "str1": "4600 S. SYRACUSE",
      "str2": "SUITE 600",
      "city": "DENVER",
      "state": 5,
      "stateSpecified": true,
      "cntry": "United States",
      "postlCd": "80237"
    }
  ],
  "Exms": [
    {
      "exmCd": 0,
      "exmNm": "Uniform Securities Agent State Law Examination",
      "exmDt": "2002-04-29T00:00:00",
      "exmDtSpecified": true
    }
  ],
  "Dsgntns": [],
  "PrevRgstns": [
    {
      "BrnchOfLocs": [
        {
          "city": "WESTLAKE",
          "state": 36,
          "stateSpecified": true
        },
        {
          "city": "YOUNGSTOWN",
          "state": 36,
          "stateSpecified": true
        }
      ],
      "orgNm": "NEW ENGLAND SECURITIES",
      "orgPK": "615",
      "regBeginDt": "2005-01-24T00:00:00",
      "regBeginDtSpecified": true,
      "regEndDt": "2007-09-24T00:00:00",
      "regEndDtSpecified": true
    }
  ],
  "EmpHss": [
    {
      "fromDt": "09/2000",
      "toDt": "09/2007",
      "orgNm": "NEW ENGLAND SECURITIES",
      "city": "CLEVELAND",
      "state": 36,
      "stateSpecified": true
    },
    {
      "fromDt": "09/2007",
      "toDt": "12/2012",
      "orgNm": "MULTI-FINANCIAL SECURITIES CORPORATION",
      "city": "DENVER",
      "state": 5,
      "stateSpecified": true
    },
    {
      "fromDt": "01/2013",
      "toDt": null,
      "orgNm": "CETERA ADVISORS LLC",
      "city": "DENVER",
      "state": 5,
      "stateSpecified": true
    }
  ],
  "OthrBuss": {
    "OthrBus": {
      "desc": "1.FIXED INSURANCE AGENT 2.TRUSTEE IN SISTERS ESTATE, LAKELAND FL, START 11/04, HANDLES INVESTMENTS FOR THE TRUST"
    }
  },
  "DRPs": [
    {
      "hasRegAction": 1,
      "hasRegActionSpecified": true,
      "hasCriminal": 1,
      "hasCriminalSpecified": true,
      "hasBankrupt": 1,
      "hasBankruptSpecified": true,
      "hasCivilJudc": 1,
      "hasCivilJudcSpecified": true,
      "hasBond": 1,
      "hasBondSpecified": true,
      "hasJudgment": 0,
      "hasJudgmentSpecified": true,
      "hasInvstgn": 1,
      "hasInvstgnSpecified": true,
      "hasCustComp": 1,
      "hasCustCompSpecified": true,
      "hasTermination": 1,
      "hasTerminationSpecified": true
    }
  ]
}