{
  "Info": {
    "lastNm": "SLAVICH",
    "firstNm": "JEFFREY",
    "midNm": "L",
    "sufNm": null,
    "indvlPK": "4274483",
    "actvAGReg": 0,
    "link": "http://www.adviserinfo.sec.gov/IAPD/Individual/4274483"
  },
  "OthrNms": [
    {
      "lastNm": "SLAVICH",
      "firstNm": "JEFFREY",
      "midNm": "LYN",
      "sufNm": null
    }
  ],
  "CrntEmps": [
    {
      "CrntRgstns": [
        {
          "regAuth": 39,
          "regCat": 0,
          "st": 2,
          "stDt": "2015-10-20T00:00:00"
        }
      ],
      "BrnchOfLocs": [
        {
          "str1": "3701 CORPORATE PARKWAY",
          "str2": "SUITE 320",
          "city": "CENTER VALLEY",
          "state": 39,
          "stateSpecified": true,
          "cntry": "United States",
          "postlCd": "18034"
        },
        {
          "str1": "3701 Corporate Parkway",
          "str2": "Suite 350",
          "city": "Center Valley",
          "state": 39,
          "stateSpecified": true,
          "cntry": "United States",
          "postlCd": "18034"
        }
      ],
      "orgNm": "MML INVESTORS SERVICES, LLC",
      "orgPK": "10409",
      "str1": "1295 STATE STREET",
      "str2": null,
      "city": "SPRINGFIELD",
      "state": 20,
      "stateSpecified": true,
      "cntry": "United States",
      "postlCd": "01111-0001"
    }
  ],
  "Exms": [
    {
      "exmCd": 0,
      "exmNm": "Uniform Securities Agent State Law Examination",
      "exmDt": "2000-12-04T00:00:00",
      "exmDtSpecified": true
    },
    {
      "exmCd": 2,
      "exmNm": "Uniform Investment Adviser Law Examination",
      "exmDt": "2001-01-03T00:00:00",
      "exmDtSpecified": true
    }
  ],
  "Dsgntns": [],
  "PrevRgstns": [
    {
      "BrnchOfLocs": [
        {
          "city": "PENNINGTON",
          "state": 32,
          "stateSpecified": true
        }
      ],
      "orgNm": "MERRILL LYNCH, PIERCE, FENNER & SMITH INCORPORATED",
      "orgPK": "7691",
      "regBeginDt": "2002-05-06T00:00:00",
      "regBeginDtSpecified": true,
      "regEndDt": "2003-04-24T00:00:00",
      "regEndDtSpecified": true
    },
    {
      "BrnchOfLocs": [
        {
          "city": "HAVERTOWN",
          "state": 39,
          "stateSpecified": true
        }
      ],
      "orgNm": "WELLS FARGO ADVISORS, LLC",
      "orgPK": "19616",
      "regBeginDt": "2003-05-16T00:00:00",
      "regBeginDtSpecified": true,
      "regEndDt": "2005-11-28T00:00:00",
      "regEndDtSpecified": true
    },
    {
      "BrnchOfLocs": [
        {
          "city": "LANSDOWNE",
          "state": 39,
          "stateSpecified": true
        },
        {
          "city": "PROSPECT PARK",
          "state": 39,
          "stateSpecified": true
        },
        {
          "city": "SPRINGFIELD",
          "state": 39,
          "stateSpecified": true
        }
      ],
      "orgNm": "PNC INVESTMENTS",
      "orgPK": "129052",
      "regBeginDt": "2005-11-29T00:00:00",
      "regBeginDtSpecified": true,
      "regEndDt": "2010-04-26T00:00:00",
      "regEndDtSpecified": true
    },
    {
      "BrnchOfLocs": [
        {
          "city": "BRYN MAWR",
          "state": 39,
          "stateSpecified": true
        },
        {
          "city": "HAVERFORD",
          "state": 39,
          "stateSpecified": true
        },
        {
          "city": "NARBERTH",
          "state": 39,
          "stateSpecified": true
        },
        {
          "city": "PHILADELPHIA",
          "state": 39,
          "stateSpecified": true
        },
        {
          "city": "PLYMOUTH MEETING",
          "state": 39,
          "stateSpecified": true
        },
        {
          "city": "WAYNE",
          "state": 39,
          "stateSpecified": true
        },
        {
          "city": "WEST CHESTER",
          "state": 39,
          "stateSpecified": true
        }
      ],
      "orgNm": "CITIZENS SECURITIES, INC.",
      "orgPK": "39550",
      "regBeginDt": "2010-05-06T00:00:00",
      "regBeginDtSpecified": true,
      "regEndDt": "2015-09-23T00:00:00",
      "regEndDtSpecified": true
    }
  ],
  "EmpHss": [
    {
      "fromDt": "11/2005",
      "toDt": "04/2010",
      "orgNm": "PNC INVESTMENTS",
      "city": "PROSPECT PARK",
      "state": 39,
      "stateSpecified": true
    },
    {
      "fromDt": "04/2010",
      "toDt": "09/2015",
      "orgNm": "CCO INVESTMENT SERVICES CORP",
      "city": "HAVERFORD",
      "state": 39,
      "stateSpecified": true
    },
    {
      "fromDt": "09/2015",
      "toDt": null,
      "orgNm": "MASSMUTUAL",
      "city": "CENTER VALLEY",
      "state": 39,
      "stateSpecified": true
    },
    {
      "fromDt": "10/2015",
      "toDt": null,
      "orgNm": "MML INVESTORS SERVICES",
      "city": "CENTER VALLEY",
      "state": 39,
      "stateSpecified": true
    }
  ],
  "OthrBuss": {
    "OthrBus": {
      "desc": "(1)NAME:JEFFREY L SLAVICH INV REL:Y ADDR:3701 CORPORATE PARKWAY SUITE 320 CENTER VALLEY PA 18034, NATURE:LIFE, POSITION:AGENT, START:9/15/15, NO HR/MO:10 NO HR/MO DUR TRADING:10."
    }
  },
  "DRPs": [
    {
      "hasRegAction": 1,
      "hasRegActionSpecified": true,
      "hasCriminal": 1,
      "hasCriminalSpecified": true,
      "hasBankrupt": 1,
      "hasBankruptSpecified": true,
      "hasCivilJudc": 1,
      "hasCivilJudcSpecified": true,
      "hasBond": 1,
      "hasBondSpecified": true,
      "hasJudgment": 1,
      "hasJudgmentSpecified": true,
      "hasInvstgn": 1,
      "hasInvstgnSpecified": true,
      "hasCustComp": 0,
      "hasCustCompSpecified": true,
      "hasTermination": 1,
      "hasTerminationSpecified": true
    }
  ]
}