{
  "Info": {
    "lastNm": "SULLIVAN",
    "firstNm": "MARK",
    "midNm": "DANIEL",
    "sufNm": null,
    "indvlPK": "4279479",
    "actvAGReg": 0,
    "link": "http://www.adviserinfo.sec.gov/IAPD/Individual/4279479"
  },
  "OthrNms": [],
  "CrntEmps": [
    {
      "CrntRgstns": [
        {
          "regAuth": 32,
          "regCat": 0,
          "st": 2,
          "stDt": "2005-11-03T00:00:00"
        }
      ],
      "BrnchOfLocs": [
        {
          "str1": "605 THIRD AVE.",
          "str2": null,
          "city": "NEW YORK",
          "state": 35,
          "stateSpecified": true,
          "cntry": "United States",
          "postlCd": "10158"
        }
      ],
      "orgNm": "NEUBERGER BERMAN LLC",
      "orgPK": "2908",
      "str1": "605 THIRD AVENUE",
      "str2": null,
      "city": "NEW YORK",
      "state": 35,
      "stateSpecified": true,
      "cntry": "United States",
      "postlCd": "10158"
    }
  ],
  "Exms": [
    {
      "exmCd": 0,
      "exmNm": "Uniform Securities Agent State Law Examination",
      "exmDt": "2001-09-27T00:00:00",
      "exmDtSpecified": true
    },
    {
      "exmCd": 3,
      "exmNm": "Uniform Combined State Law Examination",
      "exmDt": "2005-10-05T00:00:00",
      "exmDtSpecified": true
    }
  ],
  "Dsgntns": [],
  "PrevRgstns": [],
  "EmpHss": [
    {
      "fromDt": "09/2000",
      "toDt": null,
      "orgNm": "NEUBERGER BERMAN, LLC",
      "city": "NEW YORK",
      "state": 35,
      "stateSpecified": true
    }
  ],
  "OthrBuss": {
    "OthrBus": null
  },
  "DRPs": []
}