{
  "Info": {
    "lastNm": "MCKENZIE",
    "firstNm": "JODIE",
    "midNm": "LYN",
    "sufNm": null,
    "indvlPK": "4280684",
    "actvAGReg": 0,
    "link": "http://www.adviserinfo.sec.gov/IAPD/Individual/4280684"
  },
  "OthrNms": [
    {
      "lastNm": "CORDOVA",
      "firstNm": "JODIE",
      "midNm": "LYN",
      "sufNm": null
    },
    {
      "lastNm": "CORDOVA-MCKENZIE",
      "firstNm": "JODIE",
      "midNm": "LYN",
      "sufNm": null
    },
    {
      "lastNm": "MCKENZIE",
      "firstNm": "JODIE",
      "midNm": "L",
      "sufNm": null
    }
  ],
  "CrntEmps": [
    {
      "CrntRgstns": [
        {
          "regAuth": 5,
          "regCat": 0,
          "st": 2,
          "stDt": "2016-06-08T00:00:00"
        },
        {
          "regAuth": 45,
          "regCat": 0,
          "st": 3,
          "stDt": "2016-06-10T00:00:00"
        }
      ],
      "BrnchOfLocs": [
        {
          "str1": "1125 17TH STREET",
          "str2": null,
          "city": "DENVER",
          "state": 5,
          "stateSpecified": true,
          "cntry": "United States",
          "postlCd": "80202"
        }
      ],
      "orgNm": "J.P. MORGAN SECURITIES LLC",
      "orgPK": "79",
      "str1": "277 PARK AVENUE",
      "str2": null,
      "city": "NEW YORK",
      "state": 35,
      "stateSpecified": true,
      "cntry": "United States",
      "postlCd": "10172"
    }
  ],
  "Exms": [
    {
      "exmCd": 0,
      "exmNm": "Uniform Securities Agent State Law Examination",
      "exmDt": "2001-03-07T00:00:00",
      "exmDtSpecified": true
    },
    {
      "exmCd": 3,
      "exmNm": "Uniform Combined State Law Examination",
      "exmDt": "2013-08-26T00:00:00",
      "exmDtSpecified": true
    }
  ],
  "Dsgntns": [],
  "PrevRgstns": [
    {
      "BrnchOfLocs": [
        {
          "city": "DENVER",
          "state": 5,
          "stateSpecified": true
        }
      ],
      "orgNm": "J.P. MORGAN SECURITIES LLC",
      "orgPK": "79",
      "regBeginDt": "2013-08-26T00:00:00",
      "regBeginDtSpecified": true,
      "regEndDt": "2015-06-17T00:00:00",
      "regEndDtSpecified": true
    },
    {
      "BrnchOfLocs": [
        {
          "city": "LONE TREE",
          "state": 5,
          "stateSpecified": true
        }
      ],
      "orgNm": "STRATEGIC ADVISERS, INC.",
      "orgPK": "104555",
      "regBeginDt": "2015-08-17T00:00:00",
      "regBeginDtSpecified": true,
      "regEndDt": "2016-06-03T00:00:00",
      "regEndDtSpecified": true
    }
  ],
  "EmpHss": [
    {
      "fromDt": "09/2000",
      "toDt": "06/2013",
      "orgNm": "CHARLES SCHWAB & CO., INC.",
      "city": "DENVER",
      "state": 5,
      "stateSpecified": true
    },
    {
      "fromDt": "06/2013",
      "toDt": "06/2015",
      "orgNm": "J.P. MORGAN SECURITIES LLC",
      "city": "DENVER",
      "state": 5,
      "stateSpecified": true
    },
    {
      "fromDt": "06/2015",
      "toDt": "05/2016",
      "orgNm": "FIDELITY BROKERAGE SERVICES LLC",
      "city": "LONE TREE",
      "state": 5,
      "stateSpecified": true
    },
    {
      "fromDt": "05/2016",
      "toDt": null,
      "orgNm": "J.P. MORGAN SECURITIES LLC",
      "city": "DENVER",
      "state": 5,
      "stateSpecified": true
    }
  ],
  "OthrBuss": {
    "OthrBus": null
  },
  "DRPs": [
    {
      "hasRegAction": 1,
      "hasRegActionSpecified": true,
      "hasCriminal": 1,
      "hasCriminalSpecified": true,
      "hasBankrupt": 0,
      "hasBankruptSpecified": true,
      "hasCivilJudc": 1,
      "hasCivilJudcSpecified": true,
      "hasBond": 1,
      "hasBondSpecified": true,
      "hasJudgment": 1,
      "hasJudgmentSpecified": true,
      "hasInvstgn": 1,
      "hasInvstgnSpecified": true,
      "hasCustComp": 1,
      "hasCustCompSpecified": true,
      "hasTermination": 1,
      "hasTerminationSpecified": true
    }
  ]
}