{
  "Info": {
    "lastNm": "SMITH",
    "firstNm": "RANDALL",
    "midNm": "NOLEN",
    "sufNm": null,
    "indvlPK": "428578",
    "actvAGReg": 0,
    "link": "http://www.adviserinfo.sec.gov/IAPD/Individual/428578"
  },
  "OthrNms": [
    {
      "lastNm": "SMITH",
      "firstNm": "RANDY",
      "midNm": null,
      "sufNm": null
    }
  ],
  "CrntEmps": [
    {
      "CrntRgstns": [
        {
          "regAuth": 4,
          "regCat": 0,
          "st": 2,
          "stDt": "2014-12-19T00:00:00"
        }
      ],
      "BrnchOfLocs": [
        {
          "str1": null,
          "str2": null,
          "city": "BEVERLY HILLS",
          "state": 4,
          "stateSpecified": true,
          "cntry": "United States",
          "postlCd": null
        },
        {
          "str1": "800 EAST NORTH ST.",
          "str2": "2ND FLOOR",
          "city": "GREENVILLE",
          "state": 42,
          "stateSpecified": true,
          "cntry": "United States",
          "postlCd": "29601"
        }
      ],
      "orgNm": "SANDLAPPER WEALTH MANAGEMENT, LLC",
      "orgPK": "41534",
      "str1": "800 EAST NORTH ST.",
      "str2": "2ND FLOOR",
      "city": "GREENVILLE",
      "state": 42,
      "stateSpecified": true,
      "cntry": "United States",
      "postlCd": "29601"
    }
  ],
  "Exms": [
    {
      "exmCd": 0,
      "exmNm": "Uniform Securities Agent State Law Examination",
      "exmDt": "1992-05-27T00:00:00",
      "exmDtSpecified": true
    },
    {
      "exmCd": 2,
      "exmNm": "Uniform Investment Adviser Law Examination",
      "exmDt": "1994-03-14T00:00:00",
      "exmDtSpecified": true
    }
  ],
  "Dsgntns": [
    {
      "dsgntnNm": "Certified Financial Planner"
    }
  ],
  "PrevRgstns": [
    {
      "BrnchOfLocs": [
        {
          "city": "GREENVILLE",
          "state": 42,
          "stateSpecified": true
        }
      ],
      "orgNm": "SANDLAPPER WEALTH MANAGEMENT, LLC",
      "orgPK": "164443",
      "regBeginDt": "2013-06-24T00:00:00",
      "regBeginDtSpecified": true,
      "regEndDt": "2014-12-01T00:00:00",
      "regEndDtSpecified": true
    }
  ],
  "EmpHss": [
    {
      "fromDt": "04/2001",
      "toDt": null,
      "orgNm": "INSITE MEDIACOM",
      "city": "BEVERLY HILLS",
      "state": 4,
      "stateSpecified": true
    },
    {
      "fromDt": "05/2003",
      "toDt": "11/2010",
      "orgNm": "NOESIS CAPITAL CORP.",
      "city": "BOCA RATON",
      "state": 9,
      "stateSpecified": true
    },
    {
      "fromDt": "11/2010",
      "toDt": "08/2011",
      "orgNm": "CAPWEST SECURITIES",
      "city": "LAKEWOOD",
      "state": 5,
      "stateSpecified": true
    },
    {
      "fromDt": "08/2011",
      "toDt": null,
      "orgNm": "SANDLAPPER SECURITIES, LLC",
      "city": "GREENVILLE",
      "state": 42,
      "stateSpecified": true
    },
    {
      "fromDt": "01/2015",
      "toDt": null,
      "orgNm": "SANDLAPPER WEALTH MANAGEMENT, LLC",
      "city": "BEVERLY HILLS",
      "state": 4,
      "stateSpecified": true
    }
  ],
  "OthrBuss": {
    "OthrBus": {
      "desc": "1)INSITE MEDIA LLC; INV RELATED;150 NW 70TH AVE #3 PLANTATION FL 33317;OUTDOOR ADVERTISING; CHAIRMAN AND CEO; START DATE 2001; 160 HRS/MO; 160 HRS/MO/TRD   2)MENACHE, LLC; NON INV; 5214 BONSAI AVE. MOORPARK, CA 93021;WIRELESS TECHNOLOGY; DIRECTOR; 2003; 0 HRS/MO; 0 HRS/MO/TRD      3)JOHN WAYNE CANCER INSTITUTE - BOARD OF ADVISORS - BOARD MEMBER - NON INVESTMENT RELATED"
    }
  },
  "DRPs": [
    {
      "hasRegAction": 0,
      "hasRegActionSpecified": true,
      "hasCriminal": 1,
      "hasCriminalSpecified": true,
      "hasBankrupt": 1,
      "hasBankruptSpecified": true,
      "hasCivilJudc": 1,
      "hasCivilJudcSpecified": true,
      "hasBond": 1,
      "hasBondSpecified": true,
      "hasJudgment": 1,
      "hasJudgmentSpecified": true,
      "hasInvstgn": 1,
      "hasInvstgnSpecified": true,
      "hasCustComp": 0,
      "hasCustCompSpecified": true,
      "hasTermination": 1,
      "hasTerminationSpecified": true
    }
  ]
}