{
  "Info": {
    "lastNm": "KAPUR",
    "firstNm": "PAUL",
    "midNm": "K",
    "sufNm": null,
    "indvlPK": "4285978",
    "actvAGReg": 0,
    "link": "http://www.adviserinfo.sec.gov/IAPD/Individual/4285978"
  },
  "OthrNms": [],
  "CrntEmps": [
    {
      "CrntRgstns": [
        {
          "regAuth": 20,
          "regCat": 0,
          "st": 2,
          "stDt": "2016-06-15T00:00:00"
        }
      ],
      "BrnchOfLocs": [
        {
          "str1": "2345 WASHINGTON STREET",
          "str2": "SUITE 101",
          "city": "NEWTON LOWER FALLS",
          "state": 20,
          "stateSpecified": true,
          "cntry": "United States",
          "postlCd": "02462"
        }
      ],
      "orgNm": "RAYMOND JAMES FINANCIAL SERVICES ADVISORS, INC",
      "orgPK": "149018",
      "str1": "880 CARILLON PARKWAY",
      "str2": null,
      "city": "SAINT PETERSBURG",
      "state": 9,
      "stateSpecified": true,
      "cntry": "United States",
      "postlCd": "33716"
    }
  ],
  "Exms": [
    {
      "exmCd": 0,
      "exmNm": "Uniform Securities Agent State Law Examination",
      "exmDt": "2001-02-28T00:00:00",
      "exmDtSpecified": true
    },
    {
      "exmCd": 3,
      "exmNm": "Uniform Combined State Law Examination",
      "exmDt": "2001-07-03T00:00:00",
      "exmDtSpecified": true
    }
  ],
  "Dsgntns": [],
  "PrevRgstns": [
    {
      "BrnchOfLocs": [
        {
          "city": "WORCESTER",
          "state": 20,
          "stateSpecified": true
        }
      ],
      "orgNm": "STRATEGIC ADVISERS, INC.",
      "orgPK": "104555",
      "regBeginDt": "2001-08-25T00:00:00",
      "regBeginDtSpecified": true,
      "regEndDt": "2005-09-21T00:00:00",
      "regEndDtSpecified": true
    },
    {
      "BrnchOfLocs": [
        {
          "city": "BOSTON",
          "state": 20,
          "stateSpecified": true
        },
        {
          "city": "BOSTON",
          "state": 20,
          "stateSpecified": true
        },
        {
          "city": "BOSTON",
          "state": 20,
          "stateSpecified": true
        },
        {
          "city": "BOSTON",
          "state": 20,
          "stateSpecified": true
        },
        {
          "city": "MARLBOROUGH",
          "state": 20,
          "stateSpecified": true
        },
        {
          "city": "NORTHBOROUGH",
          "state": 20,
          "stateSpecified": true
        },
        {
          "city": "WESTBOROUGH",
          "state": 20,
          "stateSpecified": true
        },
        {
          "city": "WESTBOROUGH",
          "state": 20,
          "stateSpecified": true
        }
      ],
      "orgNm": "BANC OF AMERICA INVESTMENT SERVICES, INC.",
      "orgPK": "16361",
      "regBeginDt": "2005-09-09T00:00:00",
      "regBeginDtSpecified": true,
      "regEndDt": "2009-10-23T00:00:00",
      "regEndDtSpecified": true
    },
    {
      "BrnchOfLocs": [
        {
          "city": "BOSTON",
          "state": 20,
          "stateSpecified": true
        },
        {
          "city": "BOSTON",
          "state": 20,
          "stateSpecified": true
        },
        {
          "city": "BOSTON",
          "state": 20,
          "stateSpecified": true
        },
        {
          "city": "BOSTON",
          "state": 20,
          "stateSpecified": true
        },
        {
          "city": "WESTBOROUGH",
          "state": 20,
          "stateSpecified": true
        }
      ],
      "orgNm": "MERRILL LYNCH, PIERCE, FENNER & SMITH INCORPORATED",
      "orgPK": "7691",
      "regBeginDt": "2009-10-23T00:00:00",
      "regBeginDtSpecified": true,
      "regEndDt": "2010-04-20T00:00:00",
      "regEndDtSpecified": true
    },
    {
      "BrnchOfLocs": [
        {
          "city": "Boston",
          "state": 20,
          "stateSpecified": true
        },
        {
          "city": "CHARLESTOWN",
          "state": 20,
          "stateSpecified": true
        }
      ],
      "orgNm": "AMERIPRISE FINANCIAL SERVICES, INC.",
      "orgPK": "6363",
      "regBeginDt": "2010-04-23T00:00:00",
      "regBeginDtSpecified": true,
      "regEndDt": "2016-02-26T00:00:00",
      "regEndDtSpecified": true
    }
  ],
  "EmpHss": [
    {
      "fromDt": "05/2005",
      "toDt": "03/2010",
      "orgNm": "BANC OF AMERICA INSURANCE SERVICES, INC.",
      "city": "BOSTON",
      "state": 20,
      "stateSpecified": true
    },
    {
      "fromDt": "09/2005",
      "toDt": "10/2009",
      "orgNm": "BANC OF AMERICA INVESTMENT SERVICES, INC.",
      "city": "BOSTON",
      "state": 20,
      "stateSpecified": true
    },
    {
      "fromDt": "10/2009",
      "toDt": "03/2010",
      "orgNm": "MERRILL LYNCH, PIERCE, FENNER & SMITH INCORPORATED",
      "city": "BOSTON",
      "state": 20,
      "stateSpecified": true
    },
    {
      "fromDt": "03/2010",
      "toDt": "01/2016",
      "orgNm": "AMERIPRISE FINANCIAL SERVICES, INC.",
      "city": "CHARLESTOWN",
      "state": 20,
      "stateSpecified": true
    },
    {
      "fromDt": "01/2016",
      "toDt": null,
      "orgNm": "Raymond James Financial Services, Inc",
      "city": "Newton",
      "state": 20,
      "stateSpecified": true
    },
    {
      "fromDt": "06/2016",
      "toDt": null,
      "orgNm": "RAYMOND JAMES FINANCIAL SERVICES ADVISORS INC.",
      "city": "NEWTON LOWER FALLS",
      "state": 20,
      "stateSpecified": true
    }
  ],
  "OthrBuss": {
    "OthrBus": {
      "desc": "Aimco  Auburn, MA, Investment related -no , 0hrs during trading time, 0hrs devoted to business. Partial owner.     KTS Financial Group LLC   Partner/DBA   40 hrs. a month, 32 hrs. during trading time.     Rental Property 49 Bownell Street . Worchester, MA.  Owner, 0 hours during trading time, 0 hours devoted to this business.     Rental Property -125 Temple Street LLC  Partner, 0 hours during trading time, 0 hours devoted."
    }
  },
  "DRPs": [
    {
      "hasRegAction": 0,
      "hasRegActionSpecified": true,
      "hasCriminal": 0,
      "hasCriminalSpecified": true,
      "hasBankrupt": 1,
      "hasBankruptSpecified": true,
      "hasCivilJudc": 1,
      "hasCivilJudcSpecified": true,
      "hasBond": 1,
      "hasBondSpecified": true,
      "hasJudgment": 1,
      "hasJudgmentSpecified": true,
      "hasInvstgn": 1,
      "hasInvstgnSpecified": true,
      "hasCustComp": 0,
      "hasCustCompSpecified": true,
      "hasTermination": 0,
      "hasTerminationSpecified": true
    }
  ]
}