{
  "Info": {
    "lastNm": "PETERSEN",
    "firstNm": "AARON",
    "midNm": "BARTLETT",
    "sufNm": null,
    "indvlPK": "4292747",
    "actvAGReg": 0,
    "link": "http://www.adviserinfo.sec.gov/IAPD/Individual/4292747"
  },
  "OthrNms": [],
  "CrntEmps": [
    {
      "CrntRgstns": [
        {
          "regAuth": 24,
          "regCat": 0,
          "st": 2,
          "stDt": "2013-11-18T00:00:00"
        }
      ],
      "BrnchOfLocs": [
        {
          "str1": "10405 6TH AVE N",
          "str2": "STE 220",
          "city": "PLYMOUTH",
          "state": 24,
          "stateSpecified": true,
          "cntry": "United States",
          "postlCd": "55441-6393"
        }
      ],
      "orgNm": "AMERIPRISE FINANCIAL SERVICES, INC.",
      "orgPK": "6363",
      "str1": "707 2ND AVENUE SOUTH",
      "str2": null,
      "city": "MINNEAPOLIS",
      "state": 24,
      "stateSpecified": true,
      "cntry": "United States",
      "postlCd": "55402"
    }
  ],
  "Exms": [
    {
      "exmCd": 3,
      "exmNm": "Uniform Combined State Law Examination",
      "exmDt": "2001-10-16T00:00:00",
      "exmDtSpecified": true
    }
  ],
  "Dsgntns": [
    {
      "dsgntnNm": "Certified Financial Planner"
    }
  ],
  "PrevRgstns": [],
  "EmpHss": [
    {
      "fromDt": "02/2001",
      "toDt": null,
      "orgNm": "AMERICAN EXPRESS FINANCIAL ADVISORS INC.",
      "city": "PLYMOUTH",
      "state": 24,
      "stateSpecified": true
    },
    {
      "fromDt": "02/2001",
      "toDt": null,
      "orgNm": "IDS LIFE INSURANCE COMPANY",
      "city": "PLYMOUTH",
      "state": 24,
      "stateSpecified": true
    }
  ],
  "OthrBuss": {
    "OthrBus": null
  },
  "DRPs": []
}