{
  "Info": {
    "lastNm": "CROW",
    "firstNm": "NATHAN",
    "midNm": "JAMES",
    "sufNm": null,
    "indvlPK": "4295054",
    "actvAGReg": 0,
    "link": "http://www.adviserinfo.sec.gov/IAPD/Individual/4295054"
  },
  "OthrNms": [],
  "CrntEmps": [
    {
      "CrntRgstns": [
        {
          "regAuth": 5,
          "regCat": 0,
          "st": 2,
          "stDt": "2006-10-25T00:00:00"
        }
      ],
      "BrnchOfLocs": [
        {
          "str1": "9825 SCHWAB WAY",
          "str2": null,
          "city": "LONE TREE",
          "state": 5,
          "stateSpecified": true,
          "cntry": "United States",
          "postlCd": "80124"
        }
      ],
      "orgNm": "CHARLES SCHWAB & CO., INC.",
      "orgPK": "5393",
      "str1": "211 MAIN STREET",
      "str2": null,
      "city": "SAN FRANCISCO",
      "state": 4,
      "stateSpecified": true,
      "cntry": "United States",
      "postlCd": "94105"
    }
  ],
  "Exms": [
    {
      "exmCd": 3,
      "exmNm": "Uniform Combined State Law Examination",
      "exmDt": "2006-02-07T00:00:00",
      "exmDtSpecified": true
    }
  ],
  "Dsgntns": [],
  "PrevRgstns": [
    {
      "BrnchOfLocs": [
        {
          "city": "DENVER",
          "state": 5,
          "stateSpecified": true
        }
      ],
      "orgNm": "WADDELL & REED",
      "orgPK": "866",
      "regBeginDt": "2006-02-08T00:00:00",
      "regBeginDtSpecified": true,
      "regEndDt": "2006-07-14T00:00:00",
      "regEndDtSpecified": true
    }
  ],
  "EmpHss": [
    {
      "fromDt": "03/2003",
      "toDt": "08/2007",
      "orgNm": "THE HIGHEST STATE BAR & RESTAURANT",
      "city": "PUEBLO",
      "state": 5,
      "stateSpecified": true
    },
    {
      "fromDt": "10/2006",
      "toDt": null,
      "orgNm": "CHARLES SHWAB & CO., INC.",
      "city": "ENGLEWOOD",
      "state": 5,
      "stateSpecified": true
    }
  ],
  "OthrBuss": {
    "OthrBus": null
  },
  "DRPs": []
}