{
  "Info": {
    "lastNm": "CALLAHAN",
    "firstNm": "MICHAEL",
    "midNm": "PATRICK",
    "sufNm": null,
    "indvlPK": "4300313",
    "actvAGReg": 0,
    "link": "http://www.adviserinfo.sec.gov/IAPD/Individual/4300313"
  },
  "OthrNms": [
    {
      "lastNm": "CALLAHAN",
      "firstNm": "M",
      "midNm": "PATRICK",
      "sufNm": null
    },
    {
      "lastNm": "CALLAHAN",
      "firstNm": "MICHAEL",
      "midNm": "PATRICK",
      "sufNm": null
    },
    {
      "lastNm": "CALLAHAN",
      "firstNm": "PATRICK",
      "midNm": null,
      "sufNm": null
    }
  ],
  "CrntEmps": [
    {
      "CrntRgstns": [
        {
          "regAuth": 10,
          "regCat": 0,
          "st": 2,
          "stDt": "2014-07-25T00:00:00"
        }
      ],
      "BrnchOfLocs": [
        {
          "str1": "1050 CROWN POINTE PARKWAY",
          "str2": "SUITE 1800",
          "city": "ATLANTA",
          "state": 10,
          "stateSpecified": true,
          "cntry": "United States",
          "postlCd": "30338"
        }
      ],
      "orgNm": "MML INVESTORS SERVICES, LLC",
      "orgPK": "10409",
      "str1": "1295 STATE STREET",
      "str2": null,
      "city": "SPRINGFIELD",
      "state": 20,
      "stateSpecified": true,
      "cntry": "United States",
      "postlCd": "01111-0001"
    }
  ],
  "Exms": [
    {
      "exmCd": 0,
      "exmNm": "Uniform Securities Agent State Law Examination",
      "exmDt": "2012-06-18T00:00:00",
      "exmDtSpecified": true
    },
    {
      "exmCd": 2,
      "exmNm": "Uniform Investment Adviser Law Examination",
      "exmDt": "2014-06-26T00:00:00",
      "exmDtSpecified": true
    }
  ],
  "Dsgntns": [],
  "PrevRgstns": [],
  "EmpHss": [
    {
      "fromDt": "08/2006",
      "toDt": "04/2009",
      "orgNm": "MENDEN, FREIMAN & ZITRON, LLP",
      "city": "ATLANTA",
      "state": 10,
      "stateSpecified": true
    },
    {
      "fromDt": "04/2009",
      "toDt": "10/2011",
      "orgNm": "M. PATRICK CALLAHAN, LLC",
      "city": "ATLANTA",
      "state": 10,
      "stateSpecified": true
    },
    {
      "fromDt": "10/2011",
      "toDt": "05/2014",
      "orgNm": "NORTHWESTERN MUTUAL LIFE INSURANCE COMPANY",
      "city": "MILWAUKEE",
      "state": 50,
      "stateSpecified": true
    },
    {
      "fromDt": "12/2011",
      "toDt": "05/2014",
      "orgNm": "NORTHWESTERN MUTUAL INVESTMENT SERVICES, LLC",
      "city": "ATLANTA",
      "state": 10,
      "stateSpecified": true
    },
    {
      "fromDt": "03/2013",
      "toDt": "05/2014",
      "orgNm": "NORTHWESTERN MUTUAL WEALTH MANAGEMENT COMPANY",
      "city": "MILWAUKEE",
      "state": 50,
      "stateSpecified": true
    },
    {
      "fromDt": "05/2014",
      "toDt": null,
      "orgNm": "MASSACHUSETTS MUTUAL LIFE INSURANCE CO",
      "city": "ATLANTA",
      "state": 10,
      "stateSpecified": true
    },
    {
      "fromDt": "06/2014",
      "toDt": null,
      "orgNm": "MML INVESTORS SERVICES, LLC",
      "city": "ATLANTA",
      "state": 10,
      "stateSpecified": true
    }
  ],
  "OthrBuss": {
    "OthrBus": {
      "desc": "(1)NAME:INTREPID, INV REL: Y ADDR:400 INTERSTATE NORTH PKWY SUITE 600 ATLANTA GA 30339, NATURE:LIFE, HEALTH, GROUP LIFE, GROUP HEALTH, POSITION:SALES, START:1/1/2012, NO HR/MO:10 NO HR/MO DUR TRADING;10. (2)NAME:KAN CLARK LLP, INV REL:Y ADDR:2849 PACES FERRY RD, SUITE 640, ATLANTA GA 30339, NATURE:TRANSACTIONAL LEGAL SERVICES,START:10/1/2012, NO HR/MO:20 NO HR/MO DUR TRADING:20.(3)NAME:NATIONAL INSURANCE BROKERAGE, INV REL:Y ADDR:3535 ROSEWELL RD, SUITE 16 MARIETTA GA 30062, NATURE:NON MMLIA INSURANCE BROKERAGE, POSITION:SALES, START:1/1/2012, NO HR/MO:10 NO HR/MO DUR TRADING:10."
    }
  },
  "DRPs": []
}