{
  "Info": {
    "lastNm": "ANIANO",
    "firstNm": "JOSEPH",
    "midNm": "NICHOLAS",
    "sufNm": null,
    "indvlPK": "4303290",
    "actvAGReg": 0,
    "link": "http://www.adviserinfo.sec.gov/IAPD/Individual/4303290"
  },
  "OthrNms": [],
  "CrntEmps": [
    {
      "CrntRgstns": [
        {
          "regAuth": 32,
          "regCat": 0,
          "st": 2,
          "stDt": "2010-01-01T00:00:00"
        }
      ],
      "BrnchOfLocs": [
        {
          "str1": "1200 HARBOR BOULEVARD",
          "str2": null,
          "city": "WEEHAWKEN",
          "state": 32,
          "stateSpecified": true,
          "cntry": "UNITED STATES",
          "postlCd": "07086"
        }
      ],
      "orgNm": "UBS FINANCIAL SERVICES INC.",
      "orgPK": "8174",
      "str1": "1200 HARBOR BOULEVARD",
      "str2": null,
      "city": "WEEHAWKEN",
      "state": 32,
      "stateSpecified": true,
      "cntry": "United States",
      "postlCd": "07086"
    }
  ],
  "Exms": [
    {
      "exmCd": 3,
      "exmNm": "Uniform Combined State Law Examination",
      "exmDt": "2008-10-30T00:00:00",
      "exmDtSpecified": true
    }
  ],
  "Dsgntns": [],
  "PrevRgstns": [
    {
      "BrnchOfLocs": [
        {
          "city": "NEW YORK",
          "state": 35,
          "stateSpecified": true
        }
      ],
      "orgNm": "UBS INTERNATIONAL INC.",
      "orgPK": "107726",
      "regBeginDt": "2008-11-05T00:00:00",
      "regBeginDtSpecified": true,
      "regEndDt": "2010-01-01T00:00:00",
      "regEndDtSpecified": true
    }
  ],
  "EmpHss": [
    {
      "fromDt": "07/2001",
      "toDt": "08/2007",
      "orgNm": "BBR PARTNERS LLC",
      "city": "NEW YORK",
      "state": 35,
      "stateSpecified": true
    },
    {
      "fromDt": "08/2007",
      "toDt": null,
      "orgNm": "UBS AG",
      "city": "NEW YORK",
      "state": 35,
      "stateSpecified": true
    },
    {
      "fromDt": "08/2007",
      "toDt": null,
      "orgNm": "UBS INTERNATIONAL INC.",
      "city": "NEW YORK",
      "state": 35,
      "stateSpecified": true
    },
    {
      "fromDt": "01/2010",
      "toDt": null,
      "orgNm": "UBS FINANCIAL SERVICES INC.",
      "city": "WEEHAWKEN",
      "state": 32,
      "stateSpecified": true
    }
  ],
  "OthrBuss": {
    "OthrBus": null
  },
  "DRPs": []
}