{
  "Info": {
    "lastNm": "SWINGLE",
    "firstNm": "GARY",
    "midNm": "LESLIE",
    "sufNm": null,
    "indvlPK": "4313916",
    "actvAGReg": 1,
    "link": "http://www.adviserinfo.sec.gov/IAPD/Individual/4313916"
  },
  "OthrNms": [],
  "CrntEmps": [
    {
      "CrntRgstns": [
        {
          "regAuth": 51,
          "regCat": 0,
          "st": 2,
          "stDt": "2002-03-04T00:00:00"
        }
      ],
      "BrnchOfLocs": [
        {
          "str1": "101 WASHINGTON STREET EAST",
          "str2": null,
          "city": "CHARLESTON",
          "state": 51,
          "stateSpecified": true,
          "cntry": "United States",
          "postlCd": "25301"
        }
      ],
      "orgNm": "ARNETT CARBIS TOOTHMAN WEALTH ADVISORS LLC",
      "orgPK": "119092",
      "str1": "101 WASHINGTON STREET, EAST",
      "str2": null,
      "city": "CHARLESTON",
      "state": 51,
      "stateSpecified": true,
      "cntry": "United States",
      "postlCd": "25301"
    }
  ],
  "Exms": [
    {
      "exmCd": 0,
      "exmNm": "Uniform Securities Agent State Law Examination",
      "exmDt": "2001-01-30T00:00:00",
      "exmDtSpecified": true
    },
    {
      "exmCd": 2,
      "exmNm": "Uniform Investment Adviser Law Examination",
      "exmDt": "2001-08-23T00:00:00",
      "exmDtSpecified": true
    }
  ],
  "Dsgntns": [
    {
      "dsgntnNm": "Personal Financial Specialist"
    }
  ],
  "PrevRgstns": [],
  "EmpHss": [
    {
      "fromDt": "05/1971",
      "toDt": "12/2014",
      "orgNm": "ARNETT FOSTER TOOTHMAN PLLC",
      "city": "CHARLESTON",
      "state": 51,
      "stateSpecified": true
    },
    {
      "fromDt": "08/1994",
      "toDt": "12/2014",
      "orgNm": "AF CONSULTING, LLC",
      "city": "CHARLESTON",
      "state": 51,
      "stateSpecified": true
    },
    {
      "fromDt": "12/1998",
      "toDt": null,
      "orgNm": "AF REALTY, LLC",
      "city": "CHARLESTON",
      "state": 51,
      "stateSpecified": true
    },
    {
      "fromDt": "12/2001",
      "toDt": "12/2014",
      "orgNm": "A&F FINANCIAL ADVISORS LLC",
      "city": "CHARLESTON",
      "state": 51,
      "stateSpecified": true
    },
    {
      "fromDt": "12/2001",
      "toDt": null,
      "orgNm": "A&F FINANCIAL HOLDINGS LLC",
      "city": "CHARLESTON",
      "state": 51,
      "stateSpecified": true
    },
    {
      "fromDt": "12/2001",
      "toDt": null,
      "orgNm": "A&F INSURANCE ADVISORS LLC",
      "city": "CHARLESTON",
      "state": 51,
      "stateSpecified": true
    },
    {
      "fromDt": "01/2015",
      "toDt": null,
      "orgNm": "ARNETT CARBIS TOOTHMAN WEALTH ADVISORS LLC",
      "city": "CHARLESTON",
      "state": 51,
      "stateSpecified": true
    }
  ],
  "OthrBuss": {
    "OthrBus": null
  },
  "DRPs": []
}