{
  "Info": {
    "lastNm": "KURZER",
    "firstNm": "MICHAEL",
    "midNm": "ALAN",
    "sufNm": null,
    "indvlPK": "4314706",
    "actvAGReg": 0,
    "link": "http://www.adviserinfo.sec.gov/IAPD/Individual/4314706"
  },
  "OthrNms": [],
  "CrntEmps": [
    {
      "CrntRgstns": [
        {
          "regAuth": 32,
          "regCat": 0,
          "st": 2,
          "stDt": "2002-05-22T00:00:00"
        }
      ],
      "BrnchOfLocs": [
        {
          "str1": "999 RIVERVIEW DR STE 201",
          "str2": null,
          "city": "TOTOWA",
          "state": 32,
          "stateSpecified": true,
          "cntry": "United States",
          "postlCd": "07512"
        }
      ],
      "orgNm": "LPL FINANCIAL LLC",
      "orgPK": "6413",
      "str1": "75 STATE STREET, 22ND FLOOR",
      "str2": null,
      "city": "BOSTON",
      "state": 20,
      "stateSpecified": true,
      "cntry": "United States",
      "postlCd": "02109"
    }
  ],
  "Exms": [
    {
      "exmCd": 3,
      "exmNm": "Uniform Combined State Law Examination",
      "exmDt": "2001-01-15T00:00:00",
      "exmDtSpecified": true
    }
  ],
  "Dsgntns": [],
  "PrevRgstns": [],
  "EmpHss": [
    {
      "fromDt": "08/2001",
      "toDt": null,
      "orgNm": "LINSCO/PRIVATE LEDGER CORP.",
      "city": "CLIFTON",
      "state": 32,
      "stateSpecified": true
    }
  ],
  "OthrBuss": {
    "OthrBus": {
      "desc": "1. THE KURZER GROUP, LLC / CLIFTON, NJ / FULL MEMBER, CPA PERFORMING ACCOUNTING FUNCTIONS, ONLY HAVE CUSTODY OVER THE FIRM'S ACCOUNTS.  EFFECTIVE 9/5/01  2. INDEPENDENT FIXED INSURANCE BUSINESS / FIXED INSURANCE SALES OF TERM LIFE, UL AND FIXED ANNUITIES / CLIFTON, NJ / APPROVED OCTOBER 5, 2005  3. 03/04/2009 / COMMUNITY, CIVIC AND CHARITABLE BOARD / I WAS ASKED TO BE A MEMBER OF THE VALLEY NATIONAL BANK ADVISORY BOARD.  THERE IS NO COMPENSATION FOR THIS ACTIVITY.  NO AUTHORITY OVER MONIES, CHECKWRITING OR BANK DECISIONS. / VALLEY NATIONAL BANK ADVISORY BOARD / CLIFTON, NJ"
    }
  },
  "DRPs": []
}