{
  "Info": {
    "lastNm": "SPENCE",
    "firstNm": "G.",
    "midNm": "STUART",
    "sufNm": "JR",
    "indvlPK": "431759",
    "actvAGReg": 0,
    "link": "http://www.adviserinfo.sec.gov/IAPD/Individual/431759"
  },
  "OthrNms": [
    {
      "lastNm": "SPENCE JR.",
      "firstNm": "G.",
      "midNm": "JR.,G.",
      "sufNm": null
    },
    {
      "lastNm": "SPENCE JR.",
      "firstNm": "STUART",
      "midNm": "G",
      "sufNm": null
    },
    {
      "lastNm": "SPENCE",
      "firstNm": "G.",
      "midNm": "STUART",
      "sufNm": "JR"
    },
    {
      "lastNm": "SPENCE",
      "firstNm": "GEORGE",
      "midNm": "STUART",
      "sufNm": "JR"
    },
    {
      "lastNm": "SPENCE",
      "firstNm": "STUART",
      "midNm": "G",
      "sufNm": "JR"
    }
  ],
  "CrntEmps": [
    {
      "CrntRgstns": [
        {
          "regAuth": 4,
          "regCat": 0,
          "st": 2,
          "stDt": "2001-06-16T00:00:00"
        },
        {
          "regAuth": 45,
          "regCat": 0,
          "st": 3,
          "stDt": "2002-09-23T00:00:00"
        }
      ],
      "BrnchOfLocs": [
        {
          "str1": "555 CALIFORNIA ST",
          "str2": "34TH, 36TH & 46TH FLOORS",
          "city": "SAN FRANCISCO",
          "state": 4,
          "stateSpecified": true,
          "cntry": "United States",
          "postlCd": "94104"
        },
        {
          "str1": "555 CALIFORNIA STREET",
          "str2": "SUITE 3200",
          "city": "SAN FRANCISCO",
          "state": 4,
          "stateSpecified": true,
          "cntry": "United States",
          "postlCd": "94104"
        }
      ],
      "orgNm": "UBS FINANCIAL SERVICES INC.",
      "orgPK": "8174",
      "str1": "1200 HARBOR BOULEVARD",
      "str2": null,
      "city": "WEEHAWKEN",
      "state": 32,
      "stateSpecified": true,
      "cntry": "United States",
      "postlCd": "07086"
    }
  ],
  "Exms": [
    {
      "exmCd": 0,
      "exmNm": "Uniform Securities Agent State Law Examination",
      "exmDt": "1989-04-05T00:00:00",
      "exmDtSpecified": true
    },
    {
      "exmCd": 2,
      "exmNm": "Uniform Investment Adviser Law Examination",
      "exmDt": "1992-01-20T00:00:00",
      "exmDtSpecified": true
    }
  ],
  "Dsgntns": [],
  "PrevRgstns": [],
  "EmpHss": [
    {
      "fromDt": "05/1962",
      "toDt": null,
      "orgNm": "KIDDER, PEABODY & CO.",
      "city": "SAN FRANCISCO",
      "state": 4,
      "stateSpecified": true
    },
    {
      "fromDt": "01/1995",
      "toDt": null,
      "orgNm": "UBS FINANCIAL SERVICES INC.",
      "city": "SAN FRANCISCO",
      "state": 4,
      "stateSpecified": true
    }
  ],
  "OthrBuss": {
    "OthrBus": {
      "desc": "University of Calif fundraiser committee class '52 / 200 California Hall Berkeley,CA 94720 / Other/ Education  / Fundraising for library / Member of Board of Directors /  / Support the board / Start Date 3/2/80 Education  /"
    }
  },
  "DRPs": [
    {
      "hasRegAction": 1,
      "hasRegActionSpecified": true,
      "hasCriminal": 1,
      "hasCriminalSpecified": true,
      "hasBankrupt": 1,
      "hasBankruptSpecified": true,
      "hasCivilJudc": 1,
      "hasCivilJudcSpecified": true,
      "hasBond": 1,
      "hasBondSpecified": true,
      "hasJudgment": 1,
      "hasJudgmentSpecified": true,
      "hasInvstgn": 1,
      "hasInvstgnSpecified": true,
      "hasCustComp": 0,
      "hasCustCompSpecified": true,
      "hasTermination": 1,
      "hasTerminationSpecified": true
    }
  ]
}