{
  "Info": {
    "lastNm": "FITZGERALD",
    "firstNm": "KENNETH",
    "midNm": "SEAN",
    "sufNm": null,
    "indvlPK": "4324592",
    "actvAGReg": 0,
    "link": "http://www.adviserinfo.sec.gov/IAPD/Individual/4324592"
  },
  "OthrNms": [],
  "CrntEmps": [
    {
      "CrntRgstns": [
        {
          "regAuth": 36,
          "regCat": 0,
          "st": 2,
          "stDt": "2012-10-01T00:00:00"
        },
        {
          "regAuth": 45,
          "regCat": 0,
          "st": 3,
          "stDt": "2014-09-15T00:00:00"
        }
      ],
      "BrnchOfLocs": [
        {
          "str1": "331 WEST MAIN STREET",
          "str2": null,
          "city": "WILLIAMSBURG",
          "state": 36,
          "stateSpecified": true,
          "cntry": "United States",
          "postlCd": "45176"
        },
        {
          "str1": "601 WEST PLANE STREET",
          "str2": null,
          "city": "BETHEL",
          "state": 36,
          "stateSpecified": true,
          "cntry": "United States",
          "postlCd": "45106"
        },
        {
          "str1": "867 WYLER PARK DR",
          "str2": null,
          "city": "CINCINNATI",
          "state": 36,
          "stateSpecified": true,
          "cntry": "United States",
          "postlCd": "45245"
        }
      ],
      "orgNm": "J.P. MORGAN SECURITIES LLC",
      "orgPK": "79",
      "str1": "277 PARK AVENUE",
      "str2": null,
      "city": "NEW YORK",
      "state": 35,
      "stateSpecified": true,
      "cntry": "United States",
      "postlCd": "10172"
    }
  ],
  "Exms": [
    {
      "exmCd": 0,
      "exmNm": "Uniform Securities Agent State Law Examination",
      "exmDt": "2011-02-23T00:00:00",
      "exmDtSpecified": true
    },
    {
      "exmCd": 2,
      "exmNm": "Uniform Investment Adviser Law Examination",
      "exmDt": "2011-04-07T00:00:00",
      "exmDtSpecified": true
    }
  ],
  "Dsgntns": [],
  "PrevRgstns": [
    {
      "BrnchOfLocs": [
        {
          "city": "BETHEL",
          "state": 36,
          "stateSpecified": true
        },
        {
          "city": "CHICAGO",
          "state": 15,
          "stateSpecified": true
        },
        {
          "city": "CINCINNATI",
          "state": 36,
          "stateSpecified": true
        },
        {
          "city": "CINCINNATI",
          "state": 36,
          "stateSpecified": true
        },
        {
          "city": "MILFORD",
          "state": 36,
          "stateSpecified": true
        },
        {
          "city": "MILFORD",
          "state": 36,
          "stateSpecified": true
        },
        {
          "city": "WILLIAMSBURG",
          "state": 36,
          "stateSpecified": true
        }
      ],
      "orgNm": "CHASE INVESTMENT SERVICES CORP.",
      "orgPK": "25574",
      "regBeginDt": "2011-04-08T00:00:00",
      "regBeginDtSpecified": true,
      "regEndDt": "2012-10-01T00:00:00",
      "regEndDtSpecified": true
    }
  ],
  "EmpHss": [
    {
      "fromDt": "07/2005",
      "toDt": "10/2012",
      "orgNm": "CHASE INVESTMENT SERVICES CORP.",
      "city": "CHICAGO",
      "state": 15,
      "stateSpecified": true
    },
    {
      "fromDt": "08/2006",
      "toDt": "08/2006",
      "orgNm": "TENABLE SECURITY",
      "city": "MILFORD",
      "state": 45,
      "stateSpecified": true
    },
    {
      "fromDt": "10/2010",
      "toDt": "12/2011",
      "orgNm": "ANDERSON HILL UNITED METHODIST CHURCH",
      "city": "CINCINNATI",
      "state": 36,
      "stateSpecified": true
    },
    {
      "fromDt": "10/2012",
      "toDt": null,
      "orgNm": "J.P. MORGAN SECURITIES LLC",
      "city": "WILLIAMSBURG",
      "state": 36,
      "stateSpecified": true
    }
  ],
  "OthrBuss": {
    "OthrBus": null
  },
  "DRPs": []
}