{
  "Info": {
    "lastNm": "HANSON",
    "firstNm": "SCOT",
    "midNm": "SPENCER",
    "sufNm": null,
    "indvlPK": "4325375",
    "actvAGReg": 0,
    "link": "http://www.adviserinfo.sec.gov/IAPD/Individual/4325375"
  },
  "OthrNms": [],
  "CrntEmps": [
    {
      "CrntRgstns": [
        {
          "regAuth": 24,
          "regCat": 0,
          "st": 2,
          "stDt": "2013-11-01T00:00:00"
        }
      ],
      "BrnchOfLocs": [
        {
          "str1": null,
          "str2": null,
          "city": "SHOREVIEW",
          "state": 24,
          "stateSpecified": true,
          "cntry": "United States",
          "postlCd": null
        },
        {
          "str1": "440 EMERSON ST N SUITE 2",
          "str2": null,
          "city": "CAMBRIDGE",
          "state": 24,
          "stateSpecified": true,
          "cntry": "United States",
          "postlCd": "55008"
        }
      ],
      "orgNm": "EFS ADVISORS",
      "orgPK": "115211",
      "str1": "440 EMERSON ST N SUITE 2",
      "str2": null,
      "city": "CAMBRIDGE",
      "state": 24,
      "stateSpecified": true,
      "cntry": "United States",
      "postlCd": "55008"
    },
    {
      "CrntRgstns": [
        {
          "regAuth": 24,
          "regCat": 0,
          "st": 2,
          "stDt": "2013-11-01T00:00:00"
        }
      ],
      "BrnchOfLocs": [
        {
          "str1": null,
          "str2": null,
          "city": "SHOREVIEW",
          "state": 24,
          "stateSpecified": true,
          "cntry": "United States",
          "postlCd": null
        },
        {
          "str1": "440 EMERSON STREET N",
          "str2": "SUITE 2",
          "city": "CAMBRIDGE",
          "state": 24,
          "stateSpecified": true,
          "cntry": "United States",
          "postlCd": "55008"
        },
        {
          "str1": "440 EMERSON STREET N.",
          "str2": "SUITE 4",
          "city": "CAMBRIDGE",
          "state": 24,
          "stateSpecified": true,
          "cntry": null,
          "postlCd": "55008"
        }
      ],
      "orgNm": "ADVANCED ADVISOR GROUP, LLC",
      "orgPK": "140393",
      "str1": "440 EMERSON STREET N., SUITE 4",
      "str2": null,
      "city": "CAMBRIDGE",
      "state": 24,
      "stateSpecified": true,
      "cntry": "United States",
      "postlCd": "55008"
    }
  ],
  "Exms": [
    {
      "exmCd": 0,
      "exmNm": "Uniform Securities Agent State Law Examination",
      "exmDt": "2000-12-22T00:00:00",
      "exmDtSpecified": true
    },
    {
      "exmCd": 2,
      "exmNm": "Uniform Investment Adviser Law Examination",
      "exmDt": "2008-02-22T00:00:00",
      "exmDtSpecified": true
    }
  ],
  "Dsgntns": [
    {
      "dsgntnNm": "Certified Financial Planner"
    }
  ],
  "PrevRgstns": [],
  "EmpHss": [
    {
      "fromDt": "11/2003",
      "toDt": null,
      "orgNm": "EDUCATORS FINANCIAL",
      "city": "CAMBRIDGE",
      "state": 24,
      "stateSpecified": true
    },
    {
      "fromDt": "02/2005",
      "toDt": "10/2006",
      "orgNm": "GREAT AMERICAN ADVISORS, INC.",
      "city": "CINCINNATI",
      "state": 36,
      "stateSpecified": true
    },
    {
      "fromDt": "08/2006",
      "toDt": null,
      "orgNm": "ADVANCED ADVISOR GROUP",
      "city": "CAMBRIDGE",
      "state": 24,
      "stateSpecified": true
    }
  ],
  "OthrBuss": {
    "OthrBus": null
  },
  "DRPs": []
}