{
  "Info": {
    "lastNm": "MCALHANY",
    "firstNm": "JOHN",
    "midNm": "WILLIAM",
    "sufNm": null,
    "indvlPK": "4330373",
    "actvAGReg": 1,
    "link": "http://www.adviserinfo.sec.gov/IAPD/Individual/4330373"
  },
  "OthrNms": [],
  "CrntEmps": [
    {
      "CrntRgstns": [
        {
          "regAuth": 42,
          "regCat": 0,
          "st": 2,
          "stDt": "2009-05-21T00:00:00"
        }
      ],
      "BrnchOfLocs": [
        {
          "str1": "104 MAXWELL AVENUE",
          "str2": "GREENWOOD BLDG., 5TH FLOOR",
          "city": "GREENWOOD",
          "state": 42,
          "stateSpecified": true,
          "cntry": "United States",
          "postlCd": "29646"
        }
      ],
      "orgNm": "GREENWOOD CAPITAL ASSOCIATES, LLC",
      "orgPK": "115015",
      "str1": "104 MAXWELL AVENUE",
      "str2": "GREENWOOD BUILDING, 5TH FLOOR",
      "city": "GREENWOOD",
      "state": 42,
      "stateSpecified": true,
      "cntry": "United States",
      "postlCd": "29646"
    }
  ],
  "Exms": [
    {
      "exmCd": 2,
      "exmNm": "Uniform Investment Adviser Law Examination",
      "exmDt": "2009-05-18T00:00:00",
      "exmDtSpecified": true
    }
  ],
  "Dsgntns": [],
  "PrevRgstns": [],
  "EmpHss": [
    {
      "fromDt": "09/2001",
      "toDt": null,
      "orgNm": "GREENWOOD CAPITAL ASSOCIATES, LLC",
      "city": "GREENWOOD",
      "state": 42,
      "stateSpecified": true
    }
  ],
  "OthrBuss": {
    "OthrBus": null
  },
  "DRPs": []
}