{
  "Info": {
    "lastNm": "WHITE",
    "firstNm": "SHERRI",
    "midNm": "NIX",
    "sufNm": null,
    "indvlPK": "4334600",
    "actvAGReg": 1,
    "link": "http://www.adviserinfo.sec.gov/IAPD/Individual/4334600"
  },
  "OthrNms": [
    {
      "lastNm": "NIX",
      "firstNm": "SHERRI ",
      "midNm": "L.",
      "sufNm": null
    },
    {
      "lastNm": "WHITE",
      "firstNm": "SHERRI ",
      "midNm": "L. ",
      "sufNm": null
    }
  ],
  "CrntEmps": [
    {
      "CrntRgstns": [
        {
          "regAuth": 42,
          "regCat": 0,
          "st": 2,
          "stDt": "2010-09-07T00:00:00"
        }
      ],
      "BrnchOfLocs": [
        {
          "str1": "9 HALTON GREEN WAY",
          "str2": null,
          "city": "GREENVILLE",
          "state": 42,
          "stateSpecified": true,
          "cntry": "United States",
          "postlCd": "29607"
        }
      ],
      "orgNm": "PLANFIRST INC",
      "orgPK": "108941",
      "str1": "9 HALTON GREEN WAY",
      "str2": null,
      "city": "GREENVILLE",
      "state": 42,
      "stateSpecified": true,
      "cntry": "United States",
      "postlCd": "29607"
    }
  ],
  "Exms": [
    {
      "exmCd": 3,
      "exmNm": "Uniform Combined State Law Examination",
      "exmDt": "2001-02-13T00:00:00",
      "exmDtSpecified": true
    }
  ],
  "Dsgntns": [
    {
      "dsgntnNm": "Personal Financial Specialist"
    }
  ],
  "PrevRgstns": [
    {
      "BrnchOfLocs": [
        {
          "city": "GREENVILLE",
          "state": 42,
          "stateSpecified": true
        },
        {
          "city": "PIEDMONT",
          "state": 42,
          "stateSpecified": true
        },
        {
          "city": "PIEDMONT",
          "state": 42,
          "stateSpecified": true
        }
      ],
      "orgNm": "PROEQUITIES, INC.",
      "orgPK": "15708",
      "regBeginDt": "2001-05-09T00:00:00",
      "regBeginDtSpecified": true,
      "regEndDt": "2010-09-07T00:00:00",
      "regEndDtSpecified": true
    }
  ],
  "EmpHss": [
    {
      "fromDt": "01/2001",
      "toDt": "08/2010",
      "orgNm": "PROEQUITIES",
      "city": "BIRMINGHAM",
      "state": 1,
      "stateSpecified": true
    },
    {
      "fromDt": "09/2010",
      "toDt": null,
      "orgNm": "PLANFIRST",
      "city": "GREENVILLE",
      "state": 42,
      "stateSpecified": true
    }
  ],
  "OthrBuss": {
    "OthrBus": {
      "desc": "SELF EMPLOYED PROVIDING QUICKBOOKS ASSISTANCE, GENERALLY LESS THAN 5 HOURS PER MONTH (ALL OUTSIDE OF SECURITIES TRADING HOURS)"
    }
  },
  "DRPs": []
}