{
  "Info": {
    "lastNm": "KEITH",
    "firstNm": "BRENT",
    "midNm": "DALE",
    "sufNm": null,
    "indvlPK": "4334208",
    "actvAGReg": 0,
    "link": "http://www.adviserinfo.sec.gov/IAPD/Individual/4334208"
  },
  "OthrNms": [],
  "CrntEmps": [
    {
      "CrntRgstns": [
        {
          "regAuth": 37,
          "regCat": 0,
          "st": 2,
          "stDt": "2011-07-05T00:00:00"
        },
        {
          "regAuth": 19,
          "regCat": 0,
          "st": 2,
          "stDt": "2013-05-29T00:00:00"
        },
        {
          "regAuth": 45,
          "regCat": 0,
          "st": 2,
          "stDt": "2013-05-29T00:00:00"
        }
      ],
      "BrnchOfLocs": [
        {
          "str1": "8601 NORTH GARNETT",
          "str2": null,
          "city": "OWASSO",
          "state": 37,
          "stateSpecified": true,
          "cntry": "United States",
          "postlCd": "74055"
        }
      ],
      "orgNm": "LPL FINANCIAL LLC",
      "orgPK": "6413",
      "str1": "75 STATE STREET, 22ND FLOOR",
      "str2": null,
      "city": "BOSTON",
      "state": 20,
      "stateSpecified": true,
      "cntry": "United States",
      "postlCd": "02109"
    }
  ],
  "Exms": [
    {
      "exmCd": 0,
      "exmNm": "Uniform Securities Agent State Law Examination",
      "exmDt": "2001-05-11T00:00:00",
      "exmDtSpecified": true
    }
  ],
  "Dsgntns": [
    {
      "dsgntnNm": "Chartered Financial Consultant"
    }
  ],
  "PrevRgstns": [
    {
      "BrnchOfLocs": [
        {
          "city": "OWASSO",
          "state": 37,
          "stateSpecified": true
        },
        {
          "city": "OWASSO",
          "state": 37,
          "stateSpecified": true
        }
      ],
      "orgNm": "UVEST FINANCIAL SERVICES GROUP, INC.",
      "orgPK": "13787",
      "regBeginDt": "2009-02-02T00:00:00",
      "regBeginDtSpecified": true,
      "regEndDt": "2011-07-05T00:00:00",
      "regEndDtSpecified": true
    }
  ],
  "EmpHss": [
    {
      "fromDt": "07/2003",
      "toDt": null,
      "orgNm": "FIRST BANK OF OWASSO",
      "city": "OWASSO",
      "state": 37,
      "stateSpecified": true
    },
    {
      "fromDt": "07/2011",
      "toDt": null,
      "orgNm": "LPL FINANCIAL LLC",
      "city": "OWASSO",
      "state": 37,
      "stateSpecified": true
    }
  ],
  "OthrBuss": {
    "OthrBus": {
      "desc": "1. 05/27/2011 - DBA ONLY - FIRST BANK OF OWASSO-FIRST FINANCIAL SERVICES"
    }
  },
  "DRPs": []
}