{
  "Info": {
    "lastNm": "MAIER",
    "firstNm": "KATE",
    "midNm": "ELIZABETH",
    "sufNm": null,
    "indvlPK": "4339483",
    "actvAGReg": 0,
    "link": "http://www.adviserinfo.sec.gov/IAPD/Individual/4339483"
  },
  "OthrNms": [],
  "CrntEmps": [
    {
      "CrntRgstns": [
        {
          "regAuth": 24,
          "regCat": 0,
          "st": 2,
          "stDt": "2014-01-02T00:00:00"
        }
      ],
      "BrnchOfLocs": [
        {
          "str1": "505 NORTH HWY 169",
          "str2": "SUITE 900",
          "city": "PLYMOUTH",
          "state": 24,
          "stateSpecified": true,
          "cntry": "United States",
          "postlCd": "55441"
        }
      ],
      "orgNm": "WEALTH ENHANCEMENT ADVISORY SERVICES, LLC",
      "orgPK": "116407",
      "str1": "505 NORTH HWY 169",
      "str2": "SUITE 900",
      "city": "PLYMOUTH",
      "state": 24,
      "stateSpecified": true,
      "cntry": "United States",
      "postlCd": "55441"
    }
  ],
  "Exms": [
    {
      "exmCd": 3,
      "exmNm": "Uniform Combined State Law Examination",
      "exmDt": "2007-09-25T00:00:00",
      "exmDtSpecified": true
    }
  ],
  "Dsgntns": [
    {
      "dsgntnNm": "Certified Financial Planner"
    }
  ],
  "PrevRgstns": [],
  "EmpHss": [
    {
      "fromDt": "08/2004",
      "toDt": "03/2007",
      "orgNm": "WELLS FARGO DBA LOWRY HILL",
      "city": "MINNEAPOLIS",
      "state": 24,
      "stateSpecified": true
    },
    {
      "fromDt": "05/2007",
      "toDt": null,
      "orgNm": "LPL FINANCIAL, LLC",
      "city": "PLYMOUTH",
      "state": 24,
      "stateSpecified": true
    },
    {
      "fromDt": "05/2007",
      "toDt": null,
      "orgNm": "WEALTH ENHANCEMENT GROUP, LLC",
      "city": "PLYMOUTH",
      "state": 24,
      "stateSpecified": true
    },
    {
      "fromDt": "09/2007",
      "toDt": null,
      "orgNm": "WEALTH ENHANCEMENT BROKERAGE SERVICES, LLC",
      "city": "PLYMOUTH",
      "state": 24,
      "stateSpecified": true
    },
    {
      "fromDt": "01/2014",
      "toDt": null,
      "orgNm": "WEALTH ENHANCEMENT ADSVISORY SERVICES",
      "city": "PLYMOUTH",
      "state": 24,
      "stateSpecified": true
    }
  ],
  "OthrBuss": {
    "OthrBus": {
      "desc": "1. 07/26/2007 - DBA ONLY - WEG - WEALTH ENHANCEMENT GROUP, LLC - PLYMOUTH, MN.   2. 07/26/2007 - NON-VARIABLE INSURANCE DBA - SELLING TRADITIONAL INSURANCE FIXED ANNUITIES DISABILITY AND LTC. - PLYMOUTH, MN.    3. 11/7/2007 - REGISTERED INVESTMENT ADVISOR - WEALTH ENHANCEMENT ADVISORY SERVICES, LLC - RIA - PLYMOUTH, MN.     4. 11/21/2013: OTHER - NOTARY PUBLIC - TIME SPENT 1% - PLYMOUTH, MN."
    }
  },
  "DRPs": []
}