{
  "Info": {
    "lastNm": "PAYNE",
    "firstNm": "T.",
    "midNm": "TAYLOR",
    "sufNm": null,
    "indvlPK": "4346409",
    "actvAGReg": 1,
    "link": "http://www.adviserinfo.sec.gov/IAPD/Individual/4346409"
  },
  "OthrNms": [],
  "CrntEmps": [
    {
      "CrntRgstns": [
        {
          "regAuth": 9,
          "regCat": 0,
          "st": 2,
          "stDt": "1997-01-06T00:00:00"
        },
        {
          "regAuth": 16,
          "regCat": 0,
          "st": 2,
          "stDt": "1998-12-15T00:00:00"
        },
        {
          "regAuth": 15,
          "regCat": 0,
          "st": 2,
          "stDt": "2006-03-27T00:00:00"
        },
        {
          "regAuth": 45,
          "regCat": 0,
          "st": 3,
          "stDt": "2009-04-13T00:00:00"
        },
        {
          "regAuth": 18,
          "regCat": 0,
          "st": 2,
          "stDt": "2013-04-02T00:00:00"
        }
      ],
      "BrnchOfLocs": [
        {
          "str1": "601 N. CROSS POINTE BOULEVARD",
          "str2": null,
          "city": "EVANSVILLE",
          "state": 16,
          "stateSpecified": true,
          "cntry": "United States",
          "postlCd": "47715"
        }
      ],
      "orgNm": "PAYNE WEALTH PARTNERS, INC.",
      "orgPK": "105904",
      "str1": "601 N. CROSS POINTE BOULEVARD",
      "str2": null,
      "city": "EVANSVILLE",
      "state": 16,
      "stateSpecified": true,
      "cntry": "United States",
      "postlCd": "47715"
    }
  ],
  "Exms": [],
  "Dsgntns": [
    {
      "dsgntnNm": "Certified Financial Planner"
    },
    {
      "dsgntnNm": "Personal Financial Specialist"
    }
  ],
  "PrevRgstns": [],
  "EmpHss": [
    {
      "fromDt": "01/1989",
      "toDt": null,
      "orgNm": "PAYNE WEALTH PARTNERS, INC.",
      "city": "EVANSVILLE",
      "state": 16,
      "stateSpecified": true
    }
  ],
  "OthrBuss": {
    "OthrBus": null
  },
  "DRPs": []
}