{
  "Info": {
    "lastNm": "MCDONALD",
    "firstNm": "LEANA",
    "midNm": "D.",
    "sufNm": null,
    "indvlPK": "4354392",
    "actvAGReg": 0,
    "link": "http://www.adviserinfo.sec.gov/IAPD/Individual/4354392"
  },
  "OthrNms": [
    {
      "lastNm": "D'ALOISIO",
      "firstNm": "LEANA",
      "midNm": "LYNN",
      "sufNm": null
    },
    {
      "lastNm": "STIFFLER",
      "firstNm": null,
      "midNm": null,
      "sufNm": null
    },
    {
      "lastNm": "STIFFLER",
      "firstNm": "LEANA",
      "midNm": "LYNN",
      "sufNm": null
    }
  ],
  "CrntEmps": [
    {
      "CrntRgstns": [
        {
          "regAuth": 10,
          "regCat": 0,
          "st": 2,
          "stDt": "2012-06-15T00:00:00"
        }
      ],
      "BrnchOfLocs": [
        {
          "str1": "1690 STONE VILLAGE NW",
          "str2": "SUITE 221",
          "city": "KENNESAW",
          "state": 10,
          "stateSpecified": true,
          "cntry": "United States",
          "postlCd": "30152"
        }
      ],
      "orgNm": "INDEPENDENT FINANCIAL PARTNERS",
      "orgPK": "125112",
      "str1": "3030 NORTH ROCKY POINT DR. WEST",
      "str2": "SUITE 700",
      "city": "TAMPA",
      "state": 9,
      "stateSpecified": true,
      "cntry": "United States",
      "postlCd": "33607"
    }
  ],
  "Exms": [
    {
      "exmCd": 0,
      "exmNm": "Uniform Securities Agent State Law Examination",
      "exmDt": "2001-04-19T00:00:00",
      "exmDtSpecified": true
    },
    {
      "exmCd": 2,
      "exmNm": "Uniform Investment Adviser Law Examination",
      "exmDt": "2002-12-30T00:00:00",
      "exmDtSpecified": true
    }
  ],
  "Dsgntns": [],
  "PrevRgstns": [
    {
      "BrnchOfLocs": [
        {
          "city": "RALEIGH",
          "state": 28,
          "stateSpecified": true
        }
      ],
      "orgNm": "PRUCO SECURITIES, LLC.",
      "orgPK": "5685",
      "regBeginDt": "2003-05-05T00:00:00",
      "regBeginDtSpecified": true,
      "regEndDt": "2003-08-04T00:00:00",
      "regEndDtSpecified": true
    },
    {
      "BrnchOfLocs": [
        {
          "city": "ATLANTA",
          "state": 10,
          "stateSpecified": true
        },
        {
          "city": "ATLANTA",
          "state": 10,
          "stateSpecified": true
        }
      ],
      "orgNm": "CITIGROUP GLOBAL MARKETS INC.",
      "orgPK": "7059",
      "regBeginDt": "2003-08-06T00:00:00",
      "regBeginDtSpecified": true,
      "regEndDt": "2009-06-01T00:00:00",
      "regEndDtSpecified": true
    },
    {
      "BrnchOfLocs": [
        {
          "city": "ATLANTA",
          "state": 10,
          "stateSpecified": true
        }
      ],
      "orgNm": "MORGAN STANLEY",
      "orgPK": "149777",
      "regBeginDt": "2009-06-01T00:00:00",
      "regBeginDtSpecified": true,
      "regEndDt": "2012-07-09T00:00:00",
      "regEndDtSpecified": true
    }
  ],
  "EmpHss": [
    {
      "fromDt": "08/2003",
      "toDt": "06/2012",
      "orgNm": "CITIGROUP GLOBAL MARKETS INC.",
      "city": "ATLANTA",
      "state": 10,
      "stateSpecified": true
    },
    {
      "fromDt": "06/2009",
      "toDt": "06/2012",
      "orgNm": "MORGAN STANLEY SMITH BARNEY",
      "city": "ATLANTA",
      "state": 10,
      "stateSpecified": true
    },
    {
      "fromDt": "06/2012",
      "toDt": null,
      "orgNm": "LPL FINANCIAL",
      "city": "KENNESAW",
      "state": 10,
      "stateSpecified": true
    }
  ],
  "OthrBuss": {
    "OthrBus": {
      "desc": "1. 06/12/2012: FREEDOM WEALTH PARTNERS/ DBA ONLY/ KENNESAW, GA   2. 07/09/2012: INDEPENDENT FINANCIAL PARTNERS / FREEDOM WEALTH PARTNERS, INC. / REGISTERED INVESTMENT ADVISOR DBA / TIME SPENT 100%"
    }
  },
  "DRPs": []
}