{
  "Info": {
    "lastNm": "KUPI",
    "firstNm": "ARBEN",
    "midNm": null,
    "sufNm": null,
    "indvlPK": "4357815",
    "actvAGReg": 0,
    "link": "http://www.adviserinfo.sec.gov/IAPD/Individual/4357815"
  },
  "OthrNms": [],
  "CrntEmps": [
    {
      "CrntRgstns": [
        {
          "regAuth": 49,
          "regCat": 0,
          "st": 2,
          "stDt": "2015-06-02T00:00:00"
        },
        {
          "regAuth": 32,
          "regCat": 0,
          "st": 2,
          "stDt": "2015-06-03T00:00:00"
        }
      ],
      "BrnchOfLocs": [
        {
          "str1": "739 PULASKI ROAD",
          "str2": null,
          "city": "GREENLAWN",
          "state": 35,
          "stateSpecified": true,
          "cntry": "United States",
          "postlCd": "11740"
        },
        {
          "str1": "83 SOUTH KING STREET",
          "str2": "SUITE 700",
          "city": "SEATTLE",
          "state": 49,
          "stateSpecified": true,
          "cntry": "United States",
          "postlCd": "98104"
        }
      ],
      "orgNm": "CAPITAL ONE ADVISORS, LLC",
      "orgPK": "136865",
      "str1": "83 SOUTH KING STREET",
      "str2": "SUITE 700",
      "city": "SEATTLE",
      "state": 49,
      "stateSpecified": true,
      "cntry": "United States",
      "postlCd": "98104"
    }
  ],
  "Exms": [
    {
      "exmCd": 0,
      "exmNm": "Uniform Securities Agent State Law Examination",
      "exmDt": "2001-07-11T00:00:00",
      "exmDtSpecified": true
    },
    {
      "exmCd": 3,
      "exmNm": "Uniform Combined State Law Examination",
      "exmDt": "2005-03-09T00:00:00",
      "exmDtSpecified": true
    }
  ],
  "Dsgntns": [],
  "PrevRgstns": [
    {
      "BrnchOfLocs": [
        {
          "city": "JERICHO",
          "state": 35,
          "stateSpecified": true
        }
      ],
      "orgNm": "MORGAN STANLEY DW INC.",
      "orgPK": "7556",
      "regBeginDt": "2005-09-19T00:00:00",
      "regBeginDtSpecified": true,
      "regEndDt": "2005-11-04T00:00:00",
      "regEndDtSpecified": true
    },
    {
      "BrnchOfLocs": [
        {
          "city": "MASPETH",
          "state": 35,
          "stateSpecified": true
        },
        {
          "city": "NEW YORK",
          "state": 35,
          "stateSpecified": true
        },
        {
          "city": "NEW YORK",
          "state": 35,
          "stateSpecified": true
        },
        {
          "city": "RIDGEWOOD",
          "state": 35,
          "stateSpecified": true
        }
      ],
      "orgNm": "CHASE INVESTMENT SERVICES CORP.",
      "orgPK": "25574",
      "regBeginDt": "2006-01-20T00:00:00",
      "regBeginDtSpecified": true,
      "regEndDt": "2011-05-17T00:00:00",
      "regEndDtSpecified": true
    },
    {
      "BrnchOfLocs": [
        {
          "city": "NEW YORK",
          "state": 35,
          "stateSpecified": true
        }
      ],
      "orgNm": "CHASE INVESTMENT SERVICES CORP.",
      "orgPK": "25574",
      "regBeginDt": "2011-08-26T00:00:00",
      "regBeginDtSpecified": true,
      "regEndDt": "2012-10-01T00:00:00",
      "regEndDtSpecified": true
    },
    {
      "BrnchOfLocs": [
        {
          "city": "NEW YORK",
          "state": 35,
          "stateSpecified": true
        }
      ],
      "orgNm": "J.P. MORGAN SECURITIES LLC",
      "orgPK": "79",
      "regBeginDt": "2012-10-01T00:00:00",
      "regBeginDtSpecified": true,
      "regEndDt": "2013-12-31T00:00:00",
      "regEndDtSpecified": true
    },
    {
      "BrnchOfLocs": [
        {
          "city": "NEW YORK",
          "state": 35,
          "stateSpecified": true
        },
        {
          "city": "NEW YORK",
          "state": 35,
          "stateSpecified": true
        }
      ],
      "orgNm": "J.P. MORGAN SECURITIES LLC",
      "orgPK": "79",
      "regBeginDt": "2014-11-10T00:00:00",
      "regBeginDtSpecified": true,
      "regEndDt": "2015-02-27T00:00:00",
      "regEndDtSpecified": true
    }
  ],
  "EmpHss": [
    {
      "fromDt": "01/2006",
      "toDt": "05/2011",
      "orgNm": "CHASE INVESTMENT SERVICES CORP",
      "city": "NEW YORK",
      "state": 35,
      "stateSpecified": true
    },
    {
      "fromDt": "02/2006",
      "toDt": "10/2007",
      "orgNm": "JPMORGAN CHASE",
      "city": "NEW YORK",
      "state": 35,
      "stateSpecified": true
    },
    {
      "fromDt": "10/2007",
      "toDt": "10/2014",
      "orgNm": "JPMORGAN CHASE",
      "city": "NEW YORK",
      "state": 35,
      "stateSpecified": true
    },
    {
      "fromDt": "07/2011",
      "toDt": "10/2012",
      "orgNm": "CHASE INVESTMENT SERVICES CORP.",
      "city": "NEW YORK",
      "state": 35,
      "stateSpecified": true
    },
    {
      "fromDt": "10/2012",
      "toDt": "12/2013",
      "orgNm": "J.P. MORGAN SECURITIES LLC",
      "city": "NEW YORK",
      "state": 35,
      "stateSpecified": true
    },
    {
      "fromDt": "02/2015",
      "toDt": null,
      "orgNm": "J.P. MORGAN SECURITIES LLC",
      "city": "NEW YORK",
      "state": 35,
      "stateSpecified": true
    },
    {
      "fromDt": "04/2015",
      "toDt": null,
      "orgNm": "CAPITAL ONE INVESTING",
      "city": "SEATTLE",
      "state": 49,
      "stateSpecified": true
    }
  ],
  "OthrBuss": {
    "OthrBus": null
  },
  "DRPs": [
    {
      "hasRegAction": 1,
      "hasRegActionSpecified": true,
      "hasCriminal": 1,
      "hasCriminalSpecified": true,
      "hasBankrupt": 1,
      "hasBankruptSpecified": true,
      "hasCivilJudc": 1,
      "hasCivilJudcSpecified": true,
      "hasBond": 1,
      "hasBondSpecified": true,
      "hasJudgment": 1,
      "hasJudgmentSpecified": true,
      "hasInvstgn": 1,
      "hasInvstgnSpecified": true,
      "hasCustComp": 1,
      "hasCustCompSpecified": true,
      "hasTermination": 0,
      "hasTerminationSpecified": true
    }
  ]
}