{
  "Info": {
    "lastNm": "BONAGUIDI",
    "firstNm": "MATTHEW",
    "midNm": "S.",
    "sufNm": null,
    "indvlPK": "4359600",
    "actvAGReg": 1,
    "link": "http://www.adviserinfo.sec.gov/IAPD/Individual/4359600"
  },
  "OthrNms": [],
  "CrntEmps": [
    {
      "CrntRgstns": [
        {
          "regAuth": 45,
          "regCat": 0,
          "st": 3,
          "stDt": "2006-07-21T00:00:00"
        }
      ],
      "BrnchOfLocs": [
        {
          "str1": "333 W. WACKER DRIVE",
          "str2": "SUITE 700",
          "city": "CHICAGO",
          "state": 15,
          "stateSpecified": true,
          "cntry": "United States",
          "postlCd": "60606"
        }
      ],
      "orgNm": "GRESHAM PARTNERS, LLC",
      "orgPK": "108668",
      "str1": "333 W. WACKER DRIVE",
      "str2": "SUITE 700",
      "city": "CHICAGO",
      "state": 15,
      "stateSpecified": true,
      "cntry": "United States",
      "postlCd": "60606"
    }
  ],
  "Exms": [
    {
      "exmCd": 2,
      "exmNm": "Uniform Investment Adviser Law Examination",
      "exmDt": "1999-12-20T00:00:00",
      "exmDtSpecified": true
    }
  ],
  "Dsgntns": [],
  "PrevRgstns": [],
  "EmpHss": [
    {
      "fromDt": "12/1997",
      "toDt": null,
      "orgNm": "GRESHAM PARTNERS, LLC",
      "city": "CHICAGO",
      "state": 15,
      "stateSpecified": true
    }
  ],
  "OthrBuss": {
    "OthrBus": null
  },
  "DRPs": []
}