{
  "Info": {
    "lastNm": "Johnston",
    "firstNm": "Francis",
    "midNm": "Claiborne",
    "sufNm": null,
    "indvlPK": "4360952",
    "actvAGReg": 0,
    "link": "http://www.adviserinfo.sec.gov/IAPD/Individual/4360952"
  },
  "OthrNms": [
    {
      "lastNm": "JOHNSTON",
      "firstNm": "FRANCIS",
      "midNm": "CLAIBORNE",
      "sufNm": null
    },
    {
      "lastNm": "JOHNSTON",
      "firstNm": "FRANCIS",
      "midNm": "CLAIBORNE",
      "sufNm": null
    },
    {
      "lastNm": "JOHNSTON",
      "firstNm": "FRANCIS",
      "midNm": "CLAIBORNE",
      "sufNm": "III"
    }
  ],
  "CrntEmps": [
    {
      "CrntRgstns": [
        {
          "regAuth": 45,
          "regCat": 0,
          "st": 2,
          "stDt": "2012-10-17T00:00:00"
        }
      ],
      "BrnchOfLocs": [
        {
          "str1": "1166 AVENUE OF THE AMERICAS",
          "str2": null,
          "city": "NEW YORK",
          "state": 35,
          "stateSpecified": true,
          "cntry": "United States",
          "postlCd": "10036"
        },
        {
          "str1": "1555 PEACHTREE STREET, N.E.",
          "str2": null,
          "city": "ATLANTA",
          "state": 10,
          "stateSpecified": true,
          "cntry": "United States",
          "postlCd": "30309"
        }
      ],
      "orgNm": "INVESCO ADVISERS, INC.",
      "orgPK": "105360",
      "str1": "1555 PEACHTREE STREET, N.E.",
      "str2": null,
      "city": "ATLANTA",
      "state": 10,
      "stateSpecified": true,
      "cntry": "United States",
      "postlCd": "30309"
    }
  ],
  "Exms": [
    {
      "exmCd": 3,
      "exmNm": "Uniform Combined State Law Examination",
      "exmDt": "2002-03-05T00:00:00",
      "exmDtSpecified": true
    }
  ],
  "Dsgntns": [],
  "PrevRgstns": [],
  "EmpHss": [
    {
      "fromDt": "02/2001",
      "toDt": "06/2012",
      "orgNm": "MORGAN STANLEY DW INC",
      "city": "NEW YORK",
      "state": 35,
      "stateSpecified": true
    },
    {
      "fromDt": "06/2012",
      "toDt": null,
      "orgNm": "INVESCO ADVISERS, INC",
      "city": "ATLANTA",
      "state": 10,
      "stateSpecified": true
    },
    {
      "fromDt": "06/2012",
      "toDt": null,
      "orgNm": "INVESCO DISTRIBUTORS, INC",
      "city": "HOUSTON",
      "state": 45,
      "stateSpecified": true
    }
  ],
  "OthrBuss": {
    "OthrBus": {
      "desc": "(1) JAMES MADISON UNIVERSITY FOUNDATION, INC., A 501(C)3 ORGANIZATION FOR THE PURPOSE OF RAISING, INVESTING AND ADMINISTERING PRIVATE GIFT FUNDS FOR THE BENEFIT OF JAMES MADISON UNIVERSITY. ACTIVE BEGINNING IN SEPTEMBER 2012. DEVOTE APPROXIMATELY 1 HOUR PER MONTH. DUTIES ACTING AS FIDUCIARY IN INVESTMENT ALLOCATION ACTIVITIES. 1320 S. MAIN STREET, MSC 8501  HARRISONBURG, VIRGINIA 22807 (2) CCH COLLECTION; NOT INVESTMENT RELATED; 5718 GROVE AVE, RICHMOND, VIRGINIA, 23226; WOMAN'S CLOTHING SALES; NONE; START: 02/2015; NONE; NONE."
    }
  },
  "DRPs": []
}