{
  "Info": {
    "lastNm": "DOYLE",
    "firstNm": "TIMOTHY",
    "midNm": "ROBERT",
    "sufNm": null,
    "indvlPK": "4360768",
    "actvAGReg": 0,
    "link": "http://www.adviserinfo.sec.gov/IAPD/Individual/4360768"
  },
  "OthrNms": [],
  "CrntEmps": [
    {
      "CrntRgstns": [
        {
          "regAuth": 9,
          "regCat": 0,
          "st": 2,
          "stDt": "2009-12-21T00:00:00"
        }
      ],
      "BrnchOfLocs": [
        {
          "str1": "15120 COUNTY LINE ROAD",
          "str2": "SUITE 100",
          "city": "SPRING HILL",
          "state": 9,
          "stateSpecified": true,
          "cntry": "United States",
          "postlCd": "34608"
        }
      ],
      "orgNm": "J. W. COLE ADVISORS, INC.",
      "orgPK": "112294",
      "str1": "4301 ANCHOR PLAZA PARKWAY",
      "str2": "SUITE # 450",
      "city": "TAMPA",
      "state": 9,
      "stateSpecified": true,
      "cntry": "United States",
      "postlCd": "33634"
    }
  ],
  "Exms": [
    {
      "exmCd": 0,
      "exmNm": "Uniform Securities Agent State Law Examination",
      "exmDt": "2002-06-05T00:00:00",
      "exmDtSpecified": true
    },
    {
      "exmCd": 3,
      "exmNm": "Uniform Combined State Law Examination",
      "exmDt": "2009-12-18T00:00:00",
      "exmDtSpecified": true
    }
  ],
  "Dsgntns": [],
  "PrevRgstns": [
    {
      "BrnchOfLocs": [
        {
          "city": "SPRING HILL",
          "state": 9,
          "stateSpecified": true
        },
        {
          "city": "SPRING HILL",
          "state": 9,
          "stateSpecified": true
        }
      ],
      "orgNm": "RAYMOND JAMES FINANCIAL SERVICES, INC.",
      "orgPK": "6694",
      "regBeginDt": "2004-11-23T00:00:00",
      "regBeginDtSpecified": true,
      "regEndDt": "2009-10-12T00:00:00",
      "regEndDtSpecified": true
    },
    {
      "BrnchOfLocs": [
        {
          "city": "SAINT PETERSBURG",
          "state": 9,
          "stateSpecified": true
        }
      ],
      "orgNm": "RAYMOND JAMES FINANCIAL SERVICES ADVISORS, INC",
      "orgPK": "149018",
      "regBeginDt": "2009-01-02T00:00:00",
      "regBeginDtSpecified": true,
      "regEndDt": "2009-11-09T00:00:00",
      "regEndDtSpecified": true
    }
  ],
  "EmpHss": [
    {
      "fromDt": "02/2001",
      "toDt": "11/2009",
      "orgNm": "RAYMOND JAMES FINANCIAL SERVICES, INC.",
      "city": "SPRING HILL",
      "state": 9,
      "stateSpecified": true
    },
    {
      "fromDt": "09/2005",
      "toDt": null,
      "orgNm": "REAL ESTATE",
      "city": "SPRING HILL",
      "state": 9,
      "stateSpecified": true
    },
    {
      "fromDt": "01/2009",
      "toDt": "11/2009",
      "orgNm": "RAYMOND JAMES FINANCIAL SERVICES ADVISORS, INC",
      "city": "SAINT PETERSBURG",
      "state": 9,
      "stateSpecified": true
    },
    {
      "fromDt": "11/2009",
      "toDt": null,
      "orgNm": "J.W. COLE FINANCIAL, INC.",
      "city": "TAMPA",
      "state": 9,
      "stateSpecified": true
    },
    {
      "fromDt": "11/2009",
      "toDt": null,
      "orgNm": "JONATHAN ROBERTS ADVISORY GROUP, INC.",
      "city": "TAMPA",
      "state": 9,
      "stateSpecified": true
    }
  ],
  "OthrBuss": {
    "OthrBus": {
      "desc": "A) NATURE COAST DEVELOPMENT, LLC B) INVESTMENT RELATED C) 15120 COUNTY LINE RD SPRING HILL, FL 34610 D) COMMERCIAL REAL ESTATE DEVELOPMENT ENTITY E) LIMITED PARTNER F) 2001 G) 4 HRS/MONTH H) 0 DURING TRADING I) INITIAL CONTRIBUTION J) OFFICER K) NO CLIENTS INVOLVED L) NO COMPENSATION"
    }
  },
  "DRPs": []
}