{
  "Info": {
    "lastNm": "FERGUSON",
    "firstNm": "ALLISON",
    "midNm": "TUNNICLIFF",
    "sufNm": null,
    "indvlPK": "4360472",
    "actvAGReg": 0,
    "link": "http://www.adviserinfo.sec.gov/IAPD/Individual/4360472"
  },
  "OthrNms": [
    {
      "lastNm": "COVINGTON",
      "firstNm": "ALLISON",
      "midNm": "TUNNICLIFF",
      "sufNm": null
    }
  ],
  "CrntEmps": [
    {
      "CrntRgstns": [
        {
          "regAuth": 4,
          "regCat": 0,
          "st": 2,
          "stDt": "2012-01-06T00:00:00"
        }
      ],
      "BrnchOfLocs": [
        {
          "str1": "1835 W. ORANGEWOOD AVE.",
          "str2": "SUITE 302",
          "city": "ORANGE",
          "state": 4,
          "stateSpecified": true,
          "cntry": "United States",
          "postlCd": "92868"
        }
      ],
      "orgNm": "TRANSAMERICA FINANCIAL ADVISORS, INC",
      "orgPK": "16164",
      "str1": "570 CARILLON PARKWAY",
      "str2": null,
      "city": "ST PETERSBURG",
      "state": 9,
      "stateSpecified": true,
      "cntry": "United States",
      "postlCd": "33716-1202"
    }
  ],
  "Exms": [
    {
      "exmCd": 0,
      "exmNm": "Uniform Securities Agent State Law Examination",
      "exmDt": "2001-04-04T00:00:00",
      "exmDtSpecified": true
    },
    {
      "exmCd": 2,
      "exmNm": "Uniform Investment Adviser Law Examination",
      "exmDt": "2007-09-04T00:00:00",
      "exmDtSpecified": true
    }
  ],
  "Dsgntns": [],
  "PrevRgstns": [
    {
      "BrnchOfLocs": [
        {
          "city": "LAGUNA HILLS",
          "state": 4,
          "stateSpecified": true
        },
        {
          "city": "ORANGE",
          "state": 4,
          "stateSpecified": true
        }
      ],
      "orgNm": "INVESTMENT ADVISORS INTERNATIONAL, INC.",
      "orgPK": "139233",
      "regBeginDt": "2007-10-17T00:00:00",
      "regBeginDtSpecified": true,
      "regEndDt": "2012-01-06T00:00:00",
      "regEndDtSpecified": true
    }
  ],
  "EmpHss": [
    {
      "fromDt": "03/2003",
      "toDt": null,
      "orgNm": "WORLD FINANCIAL GROUP, INC.",
      "city": "ORANGE",
      "state": 4,
      "stateSpecified": true
    },
    {
      "fromDt": "04/2003",
      "toDt": "09/2007",
      "orgNm": "TOTAL DEBT SOLUTIONS",
      "city": "SALT LAKE CITY",
      "state": 46,
      "stateSpecified": true
    },
    {
      "fromDt": "04/2003",
      "toDt": "01/2012",
      "orgNm": "WORLD GROUP SECURITIES, INC.",
      "city": "LAGUNA HILLS",
      "state": 4,
      "stateSpecified": true
    },
    {
      "fromDt": "01/2005",
      "toDt": "06/2011",
      "orgNm": "BLUE SHIELD",
      "city": "LODI",
      "state": 4,
      "stateSpecified": true
    },
    {
      "fromDt": "09/2005",
      "toDt": "06/2011",
      "orgNm": "BLUE CROSS",
      "city": "ORANGE",
      "state": 4,
      "stateSpecified": true
    },
    {
      "fromDt": "09/2005",
      "toDt": null,
      "orgNm": "FERGUSON, INC",
      "city": "LAGUNA NIGUEL",
      "state": 4,
      "stateSpecified": true
    },
    {
      "fromDt": "11/2006",
      "toDt": "09/2007",
      "orgNm": "COMUNITY LENDING",
      "city": "RIVERSIDE",
      "state": 4,
      "stateSpecified": true
    },
    {
      "fromDt": "09/2007",
      "toDt": "01/2012",
      "orgNm": "INVESTMENT ADVISORS INTERNATIONAL, INC",
      "city": "LAGUNA HILLS",
      "state": 4,
      "stateSpecified": true
    },
    {
      "fromDt": "02/2008",
      "toDt": "06/2008",
      "orgNm": "INNERGY LENDING",
      "city": "DULUTH",
      "state": 10,
      "stateSpecified": true
    },
    {
      "fromDt": "09/2009",
      "toDt": "06/2011",
      "orgNm": "BENELECT",
      "city": "VISALIA",
      "state": 4,
      "stateSpecified": true
    },
    {
      "fromDt": "10/2010",
      "toDt": "12/2012",
      "orgNm": "AMERICAN FUNDING CENTER",
      "city": "RIVERSIDE",
      "state": 4,
      "stateSpecified": true
    },
    {
      "fromDt": "02/2011",
      "toDt": null,
      "orgNm": "BRIDEBOD, INC",
      "city": "ALISO VIEJO",
      "state": 4,
      "stateSpecified": true
    },
    {
      "fromDt": "01/2012",
      "toDt": null,
      "orgNm": "TRANSAMERICA FINANCIAL ADVISORS, INC",
      "city": "ORANGE",
      "state": 4,
      "stateSpecified": true
    }
  ],
  "OthrBuss": {
    "OthrBus": null
  },
  "DRPs": [
    {
      "hasRegAction": 1,
      "hasRegActionSpecified": true,
      "hasCriminal": 1,
      "hasCriminalSpecified": true,
      "hasBankrupt": 1,
      "hasBankruptSpecified": true,
      "hasCivilJudc": 1,
      "hasCivilJudcSpecified": true,
      "hasBond": 1,
      "hasBondSpecified": true,
      "hasJudgment": 1,
      "hasJudgmentSpecified": true,
      "hasInvstgn": 1,
      "hasInvstgnSpecified": true,
      "hasCustComp": 0,
      "hasCustCompSpecified": true,
      "hasTermination": 1,
      "hasTerminationSpecified": true
    }
  ]
}