{
  "Info": {
    "lastNm": "PADDOCK",
    "firstNm": "LAWRENCE",
    "midNm": "C.",
    "sufNm": "JR",
    "indvlPK": "4361371",
    "actvAGReg": 1,
    "link": "http://www.adviserinfo.sec.gov/IAPD/Individual/4361371"
  },
  "OthrNms": [
    {
      "lastNm": "PADDOCK",
      "firstNm": "LANCE",
      "midNm": null,
      "sufNm": null
    },
    {
      "lastNm": "PADDOCK",
      "firstNm": "LANCE",
      "midNm": null,
      "sufNm": "JR"
    },
    {
      "lastNm": "PADDOCK",
      "firstNm": "LAWRENCE",
      "midNm": "CASTON",
      "sufNm": null
    }
  ],
  "CrntEmps": [
    {
      "CrntRgstns": [
        {
          "regAuth": 19,
          "regCat": 0,
          "st": 2,
          "stDt": "2009-11-30T00:00:00"
        },
        {
          "regAuth": 45,
          "regCat": 0,
          "st": 2,
          "stDt": "2015-10-13T00:00:00"
        }
      ],
      "BrnchOfLocs": [
        {
          "str1": null,
          "str2": null,
          "city": "ST. FRANCISVILLE",
          "state": 19,
          "stateSpecified": true,
          "cntry": "United States",
          "postlCd": null
        }
      ],
      "orgNm": "THOMPSON CREEK WEALTH ADVISORS",
      "orgPK": "151363",
      "str1": "804 MAIN STREET",
      "str2": null,
      "city": "BATON ROUGE",
      "state": 19,
      "stateSpecified": true,
      "cntry": "United States",
      "postlCd": "70802"
    }
  ],
  "Exms": [
    {
      "exmCd": 3,
      "exmNm": "Uniform Combined State Law Examination",
      "exmDt": "2001-05-02T00:00:00",
      "exmDtSpecified": true
    }
  ],
  "Dsgntns": [],
  "PrevRgstns": [
    {
      "BrnchOfLocs": [
        {
          "city": "FT. WORTH",
          "state": 45,
          "stateSpecified": true
        }
      ],
      "orgNm": "MORGAN STANLEY DW INC.",
      "orgPK": "7556",
      "regBeginDt": "2001-05-03T00:00:00",
      "regBeginDtSpecified": true,
      "regEndDt": "2003-10-31T00:00:00",
      "regEndDtSpecified": true
    }
  ],
  "EmpHss": [
    {
      "fromDt": "11/2003",
      "toDt": "07/2009",
      "orgNm": "PETERS FINANCIAL SERVICES LLC",
      "city": "BATON ROUGE",
      "state": 19,
      "stateSpecified": true
    },
    {
      "fromDt": "08/2009",
      "toDt": null,
      "orgNm": "THOMPSON CREEK WEALTH ADVISORS",
      "city": "ST. FRANCISVILLE",
      "state": 19,
      "stateSpecified": true
    }
  ],
  "OthrBuss": {
    "OthrBus": null
  },
  "DRPs": []
}