{
  "Info": {
    "lastNm": "SOHN",
    "firstNm": "MELISSA",
    "midNm": "SIPHRON",
    "sufNm": null,
    "indvlPK": "4363171",
    "actvAGReg": 1,
    "link": "http://www.adviserinfo.sec.gov/IAPD/Individual/4363171"
  },
  "OthrNms": [
    {
      "lastNm": "SIPHRON",
      "firstNm": "MELISSA",
      "midNm": "LAMBRECHT",
      "sufNm": null
    }
  ],
  "CrntEmps": [
    {
      "CrntRgstns": [
        {
          "regAuth": 4,
          "regCat": 0,
          "st": 2,
          "stDt": "2014-06-20T00:00:00"
        }
      ],
      "BrnchOfLocs": [
        {
          "str1": "3500 WEST OLIVE AVENUE",
          "str2": "SUITE 300",
          "city": "BURBANK",
          "state": 4,
          "stateSpecified": true,
          "cntry": "United States",
          "postlCd": "91505"
        }
      ],
      "orgNm": "SIPHRON CAPITAL MANAGEMENT",
      "orgPK": "107098",
      "str1": "3500 WEST OLIVE AVENUE",
      "str2": "SUITE 300",
      "city": "BURBANK",
      "state": 4,
      "stateSpecified": true,
      "cntry": "United States",
      "postlCd": "91505"
    }
  ],
  "Exms": [],
  "Dsgntns": [
    {
      "dsgntnNm": "Chartered Financial Analyst"
    }
  ],
  "PrevRgstns": [],
  "EmpHss": [
    {
      "fromDt": "06/1996",
      "toDt": null,
      "orgNm": "SIPHRON CAPITAL MANAGEMENT",
      "city": "BEVERLY HILLS",
      "state": 4,
      "stateSpecified": true
    }
  ],
  "OthrBuss": {
    "OthrBus": null
  },
  "DRPs": []
}