{
  "Info": {
    "lastNm": "CINOTTO",
    "firstNm": "JAMIE",
    "midNm": "CHRISTOPHER",
    "sufNm": null,
    "indvlPK": "4363855",
    "actvAGReg": 0,
    "link": "http://www.adviserinfo.sec.gov/IAPD/Individual/4363855"
  },
  "OthrNms": [],
  "CrntEmps": [
    {
      "CrntRgstns": [
        {
          "regAuth": 17,
          "regCat": 0,
          "st": 2,
          "stDt": "2015-03-17T00:00:00"
        }
      ],
      "BrnchOfLocs": [
        {
          "str1": "4200 WEST 115TH STREET",
          "str2": "SUITE 100",
          "city": "LEAWOOD",
          "state": 17,
          "stateSpecified": true,
          "cntry": "United States",
          "postlCd": "66211"
        }
      ],
      "orgNm": "MARINER WEALTH ADVISORS, LLC",
      "orgPK": "140195",
      "str1": "4200 WEST 115TH STREET",
      "str2": "SUITE 100",
      "city": "LEAWOOD",
      "state": 17,
      "stateSpecified": true,
      "cntry": "United States",
      "postlCd": "66211"
    },
    {
      "CrntRgstns": [
        {
          "regAuth": 17,
          "regCat": 0,
          "st": 2,
          "stDt": "2015-05-21T00:00:00"
        }
      ],
      "BrnchOfLocs": [
        {
          "str1": "4200 WEST 115TH STREET",
          "str2": "SUITE 100",
          "city": "LEAWOOD",
          "state": 17,
          "stateSpecified": true,
          "cntry": "United States",
          "postlCd": "66211"
        }
      ],
      "orgNm": "FIRSTPOINT FINANCIAL, LLC",
      "orgPK": "175252",
      "str1": "4200 WEST 115TH STREET",
      "str2": "SUITE 100",
      "city": "LEAWOOD",
      "state": 17,
      "stateSpecified": true,
      "cntry": "United States",
      "postlCd": "66211"
    }
  ],
  "Exms": [
    {
      "exmCd": 0,
      "exmNm": "Uniform Securities Agent State Law Examination",
      "exmDt": "2001-04-05T00:00:00",
      "exmDtSpecified": true
    },
    {
      "exmCd": 2,
      "exmNm": "Uniform Investment Adviser Law Examination",
      "exmDt": "2013-07-12T00:00:00",
      "exmDtSpecified": true
    }
  ],
  "Dsgntns": [],
  "PrevRgstns": [
    {
      "BrnchOfLocs": [
        {
          "city": "PRAIRIE VILLAGE",
          "state": 17,
          "stateSpecified": true
        }
      ],
      "orgNm": "MADISON AVENUE SECURITIES, LLC",
      "orgPK": "23224",
      "regBeginDt": "2013-07-22T00:00:00",
      "regBeginDtSpecified": true,
      "regEndDt": "2014-02-28T00:00:00",
      "regEndDtSpecified": true
    },
    {
      "BrnchOfLocs": [
        {
          "city": "LENEXA",
          "state": 17,
          "stateSpecified": true
        },
        {
          "city": "Lenexa",
          "state": 17,
          "stateSpecified": true
        },
        {
          "city": "TOPEKA",
          "state": 17,
          "stateSpecified": true
        }
      ],
      "orgNm": "MWA FINANCIAL SERVICES INC.",
      "orgPK": "112630",
      "regBeginDt": "2014-07-24T00:00:00",
      "regBeginDtSpecified": true,
      "regEndDt": "2014-11-17T00:00:00",
      "regEndDtSpecified": true
    },
    {
      "BrnchOfLocs": [
        {
          "city": "LEAWOOD",
          "state": 17,
          "stateSpecified": true
        }
      ],
      "orgNm": "FIRSTPOINT FINANCIAL, LLC",
      "orgPK": "168793",
      "regBeginDt": "2014-12-15T00:00:00",
      "regBeginDtSpecified": true,
      "regEndDt": "2016-01-21T00:00:00",
      "regEndDtSpecified": true
    }
  ],
  "EmpHss": [
    {
      "fromDt": "10/1999",
      "toDt": "01/2013",
      "orgNm": "UMB BANK",
      "city": "KANSAS CITY",
      "state": 25,
      "stateSpecified": true
    },
    {
      "fromDt": "02/2001",
      "toDt": "01/2013",
      "orgNm": "UMB SCOUT BROKERAGE SERVICES INC.",
      "city": "KANSAS CITY",
      "state": 25,
      "stateSpecified": true
    },
    {
      "fromDt": "02/2013",
      "toDt": "05/2013",
      "orgNm": "FARMERS INSURANCE GROUP",
      "city": "OVERLAND PARK",
      "state": 17,
      "stateSpecified": true
    },
    {
      "fromDt": "03/2013",
      "toDt": "05/2013",
      "orgNm": "FARMERS FINANCIAL SOLUTIONS",
      "city": "OVERLAND PARK",
      "state": 17,
      "stateSpecified": true
    },
    {
      "fromDt": "05/2013",
      "toDt": "02/2014",
      "orgNm": "CHANDLER FINANCIAL GROUP, INC.",
      "city": "PRAIRIE VILLAGE",
      "state": 17,
      "stateSpecified": true
    },
    {
      "fromDt": "05/2013",
      "toDt": null,
      "orgNm": "SELF EMPLOYED",
      "city": "LENEXA",
      "state": 17,
      "stateSpecified": true
    },
    {
      "fromDt": "06/2013",
      "toDt": "02/2014",
      "orgNm": "MADISON AVENUE SECURITIES, INC.",
      "city": "PRAIRIE VILLAGE",
      "state": 17,
      "stateSpecified": true
    },
    {
      "fromDt": "04/2014",
      "toDt": "11/2014",
      "orgNm": "MODERN WOODMEN OF AMERICA",
      "city": "ROCK ISLAND",
      "state": 15,
      "stateSpecified": true
    },
    {
      "fromDt": "05/2014",
      "toDt": "11/2014",
      "orgNm": "MWA FINANCIAL SERVICES INC",
      "city": "ROCK ISLAND",
      "state": 15,
      "stateSpecified": true
    },
    {
      "fromDt": "11/2014",
      "toDt": null,
      "orgNm": "FIRSTPOINT FINANCIAL",
      "city": "LEAWOOD",
      "state": 17,
      "stateSpecified": true
    },
    {
      "fromDt": "11/2014",
      "toDt": null,
      "orgNm": "MONTAGE SECURITIES",
      "city": "LEAWOOD",
      "state": 17,
      "stateSpecified": true
    }
  ],
  "OthrBuss": {
    "OthrBus": {
      "desc": "MONTAGE SECURITIES, LLC, 4200 W. 115TH ST., SUITE 100, LEAWOOD, KS  66211; INVESTMENT RELATED; WEALTH ADVISOR ; 40 HRS/WK DURING SECURITIES HOURS. FIRSTPOINT FINANCIAL CRD #168793, 4200 W. 115TH ST., SUITE 100, LEAWOOD, KS  66211; WEALTH ADVISOR; 40 HR/WK DURING SECURITIES HOURS.  FIRSTPOINT FINANCIAL CRD #175252, 4200 W. 115TH ST., SUITE 100, LEAWOOD, KS  66211; WEALTH ADVISOR; 40 HR/WK DURING SECURITIES HOURS.  ALLIANZ LIFE INSURANCE COMPANY, 5701 GOLDEN HILLS DRIVE, MINNEAPOLIS, MN  55416-1297; NON-INVESTMENT RELATED; LIFE INSURANCE; 0 HRS DURING AND NOT DURING SECURITIES HOURS; NO LONGER PERFORMING ANY DUTIES; SIMPLY RECEIVING COMMISSION ON PREMIUM PAYMENTS.  BANNER LIFE INSURANCE, 3275 BENNETT CREEK AVE., FREDERICK, MD  21704; NOT INVESTMENT RELATED; LIFE INSURANCE; 0 HRS DURING AND NOT DURING SECURITIES HOURS; NOT PERFORMING ANY DUTIES; SIMPLY RECEIVING COMMISSION ON PREMIUM PAYMENTS.  NORTH AMERICAN LIFE, ONE SAMMONS PLAZA, SIOUX FALLS, SD  57193; NOT INVESTMENT RELATED; LIFE INSURANCE; 0 HRS DURING AND NOT DURING SECURITIES HOURS; NOT PERFORMING ANY DUTIES; SIMPLY RECEIVING COMMISSION ON PREMIUM PAYMENTS."
    }
  },
  "DRPs": []
}