{
  "Info": {
    "lastNm": "HAUGEN",
    "firstNm": "JONATHAN",
    "midNm": "KEITH",
    "sufNm": null,
    "indvlPK": "4364414",
    "actvAGReg": 0,
    "link": "http://www.adviserinfo.sec.gov/IAPD/Individual/4364414"
  },
  "OthrNms": [
    {
      "lastNm": "HAUGEN",
      "firstNm": "JON",
      "midNm": "KEITH",
      "sufNm": null
    }
  ],
  "CrntEmps": [
    {
      "CrntRgstns": [
        {
          "regAuth": 29,
          "regCat": 0,
          "st": 2,
          "stDt": "2015-11-02T00:00:00"
        }
      ],
      "BrnchOfLocs": [
        {
          "str1": "4401 Coleman St.",
          "str2": "Ste. 103",
          "city": "Bismarck",
          "state": 29,
          "stateSpecified": true,
          "cntry": "United States",
          "postlCd": "58503"
        },
        {
          "str1": "5850 GRANITE PARKWAY",
          "str2": "SUITE 270",
          "city": "PLANO",
          "state": 45,
          "stateSpecified": true,
          "cntry": "United States",
          "postlCd": "75024"
        }
      ],
      "orgNm": "LEVEL FOUR ADVISORY SERVICES",
      "orgPK": "134086",
      "str1": "5850 GRANITE PARKWAY",
      "str2": "SUITE 270",
      "city": "PLANO",
      "state": 45,
      "stateSpecified": true,
      "cntry": "United States",
      "postlCd": "75024"
    }
  ],
  "Exms": [
    {
      "exmCd": 0,
      "exmNm": "Uniform Securities Agent State Law Examination",
      "exmDt": "2001-03-13T00:00:00",
      "exmDtSpecified": true
    },
    {
      "exmCd": 3,
      "exmNm": "Uniform Combined State Law Examination",
      "exmDt": "2005-06-17T00:00:00",
      "exmDtSpecified": true
    }
  ],
  "Dsgntns": [],
  "PrevRgstns": [
    {
      "BrnchOfLocs": [
        {
          "city": "MORGANTON",
          "state": 28,
          "stateSpecified": true
        },
        {
          "city": "MORGANTON",
          "state": 28,
          "stateSpecified": true
        }
      ],
      "orgNm": "WELLS FARGO ADVISORS, LLC",
      "orgPK": "19616",
      "regBeginDt": "2006-03-01T00:00:00",
      "regBeginDtSpecified": true,
      "regEndDt": "2007-02-05T00:00:00",
      "regEndDtSpecified": true
    },
    {
      "BrnchOfLocs": [
        {
          "city": "BISMARCK",
          "state": 29,
          "stateSpecified": true
        },
        {
          "city": "Bismark",
          "state": 29,
          "stateSpecified": true
        },
        {
          "city": "FARGO",
          "state": 29,
          "stateSpecified": true
        },
        {
          "city": "HAZEN",
          "state": 29,
          "stateSpecified": true
        }
      ],
      "orgNm": "THRIVENT INVESTMENT MANAGEMENT INC.",
      "orgPK": "18387",
      "regBeginDt": "2007-02-08T00:00:00",
      "regBeginDtSpecified": true,
      "regEndDt": "2015-10-22T00:00:00",
      "regEndDtSpecified": true
    }
  ],
  "EmpHss": [
    {
      "fromDt": "03/2005",
      "toDt": "02/2007",
      "orgNm": "WACHOVIA SECURITIES",
      "city": "MORGANTON",
      "state": 28,
      "stateSpecified": true
    },
    {
      "fromDt": "02/2007",
      "toDt": "10/2015",
      "orgNm": "THRIVENT FINANCIAL FOR LUTHERANS",
      "city": "APPLETON",
      "state": 50,
      "stateSpecified": true
    },
    {
      "fromDt": "02/2007",
      "toDt": "10/2015",
      "orgNm": "THRIVENT INVESTMENT MANAGEMENT INC",
      "city": "BISMARCK",
      "state": 29,
      "stateSpecified": true
    },
    {
      "fromDt": "10/2015",
      "toDt": null,
      "orgNm": "LPL FINANCIAL, LLC",
      "city": "BISMARCK",
      "state": 29,
      "stateSpecified": true
    },
    {
      "fromDt": "10/2015",
      "toDt": null,
      "orgNm": "Level Four Advisory Services",
      "city": "Bismarck",
      "state": 29,
      "stateSpecified": true
    }
  ],
  "OthrBuss": {
    "OthrBus": {
      "desc": "1. 10/22/2015 - North Point Financial Planners/ DBA for LPL Business (entity for LPL business)/ 80%/ BISMARCK, ND   2. 10/28/2015 * Level Four Advisory Services LLC * Registered Investment Advisor Hybrid * (HYBRID) Level Four Advisory Services LLC * START 10/30/2015 * TIME SPENT 20%"
    }
  },
  "DRPs": []
}