{
  "Info": {
    "lastNm": "FINN",
    "firstNm": "KERRY-MICHAEL",
    "midNm": null,
    "sufNm": null,
    "indvlPK": "4366139",
    "actvAGReg": 1,
    "link": "http://www.adviserinfo.sec.gov/IAPD/Individual/4366139"
  },
  "OthrNms": [],
  "CrntEmps": [
    {
      "CrntRgstns": [
        {
          "regAuth": 4,
          "regCat": 0,
          "st": 2,
          "stDt": "2015-06-29T00:00:00"
        }
      ],
      "BrnchOfLocs": [
        {
          "str1": "111 WEST OCEAN BOULEVARD",
          "str2": "SUITE 2300",
          "city": "LONG BEACH",
          "state": 4,
          "stateSpecified": true,
          "cntry": "United States",
          "postlCd": "90802-7908"
        }
      ],
      "orgNm": "HALBERT HARGROVE",
      "orgPK": "105515",
      "str1": "111 WEST OCEAN BOULEVARD",
      "str2": "SUITE 2300",
      "city": "LONG BEACH",
      "state": 4,
      "stateSpecified": true,
      "cntry": "United States",
      "postlCd": "90802-7908"
    }
  ],
  "Exms": [],
  "Dsgntns": [
    {
      "dsgntnNm": "Certified Financial Planner"
    }
  ],
  "PrevRgstns": [],
  "EmpHss": [
    {
      "fromDt": "06/2006",
      "toDt": "08/2008",
      "orgNm": "KM FINN & ASSOCIATES",
      "city": "NEWPORT BEACH",
      "state": 4,
      "stateSpecified": true
    },
    {
      "fromDt": "08/2008",
      "toDt": "06/2010",
      "orgNm": "FIRST FOUNDATION ADVISORS",
      "city": "IRVINE",
      "state": 4,
      "stateSpecified": true
    },
    {
      "fromDt": "06/2010",
      "toDt": "06/2011",
      "orgNm": "KM FINN & ASSOCIATES",
      "city": "NEWPORT BEACH",
      "state": 4,
      "stateSpecified": true
    },
    {
      "fromDt": "05/2011",
      "toDt": "05/2015",
      "orgNm": "FIDUCIARY TRUST COMPANY",
      "city": "LOS ANGELES",
      "state": 4,
      "stateSpecified": true
    },
    {
      "fromDt": "06/2015",
      "toDt": null,
      "orgNm": "HALBERT HARGROVE GLOBAL ADVISORS, LLC",
      "city": "LONG BEACH",
      "state": 4,
      "stateSpecified": true
    }
  ],
  "OthrBuss": {
    "OthrBus": null
  },
  "DRPs": []
}