{
  "Info": {
    "lastNm": "MEANEY",
    "firstNm": "JONATHAN",
    "midNm": "RICHARD",
    "sufNm": null,
    "indvlPK": "4371249",
    "actvAGReg": 0,
    "link": "http://www.adviserinfo.sec.gov/IAPD/Individual/4371249"
  },
  "OthrNms": [],
  "CrntEmps": [
    {
      "CrntRgstns": [
        {
          "regAuth": 45,
          "regCat": 0,
          "st": 2,
          "stDt": "2007-05-09T00:00:00"
        }
      ],
      "BrnchOfLocs": [
        {
          "str1": "12222 MERIT DRIVE",
          "str2": "SUITE 1800",
          "city": "DALLAS",
          "state": 45,
          "stateSpecified": true,
          "cntry": "United States",
          "postlCd": "75251"
        }
      ],
      "orgNm": "CARTER ADVISORY SERVICES, INC",
      "orgPK": "116249",
      "str1": "12222 MERIT DRIVE",
      "str2": "SUITE 1800",
      "city": "DALLAS",
      "state": 45,
      "stateSpecified": true,
      "cntry": "United States",
      "postlCd": "75251"
    },
    {
      "CrntRgstns": [
        {
          "regAuth": 45,
          "regCat": 0,
          "st": 2,
          "stDt": "2009-01-02T00:00:00"
        },
        {
          "regAuth": 19,
          "regCat": 0,
          "st": 2,
          "stDt": "2013-05-29T00:00:00"
        }
      ],
      "BrnchOfLocs": [
        {
          "str1": "12222 MERIT DRIVE",
          "str2": "SUITE 1800",
          "city": "DALLAS",
          "state": 45,
          "stateSpecified": true,
          "cntry": "United States",
          "postlCd": "75251"
        }
      ],
      "orgNm": "RAYMOND JAMES FINANCIAL SERVICES ADVISORS, INC",
      "orgPK": "149018",
      "str1": "880 CARILLON PARKWAY",
      "str2": null,
      "city": "SAINT PETERSBURG",
      "state": 9,
      "stateSpecified": true,
      "cntry": "United States",
      "postlCd": "33716"
    }
  ],
  "Exms": [
    {
      "exmCd": 0,
      "exmNm": "Uniform Securities Agent State Law Examination",
      "exmDt": "2002-04-12T00:00:00",
      "exmDtSpecified": true
    },
    {
      "exmCd": 3,
      "exmNm": "Uniform Combined State Law Examination",
      "exmDt": "2005-07-06T00:00:00",
      "exmDtSpecified": true
    }
  ],
  "Dsgntns": [],
  "PrevRgstns": [
    {
      "BrnchOfLocs": [
        {
          "city": "DALLAS",
          "state": 45,
          "stateSpecified": true
        }
      ],
      "orgNm": "HILLTOP SECURITIES INC.",
      "orgPK": "6220",
      "regBeginDt": "2005-07-11T00:00:00",
      "regBeginDtSpecified": true,
      "regEndDt": "2006-03-28T00:00:00",
      "regEndDtSpecified": true
    }
  ],
  "EmpHss": [
    {
      "fromDt": "05/2006",
      "toDt": null,
      "orgNm": "CARTER ADVISORY SERVICES",
      "city": "DALLAS",
      "state": 45,
      "stateSpecified": true
    },
    {
      "fromDt": "05/2006",
      "toDt": null,
      "orgNm": "RAYMOND JAMES FINANCIAL SERVICES,INC.",
      "city": "DALLAS",
      "state": 45,
      "stateSpecified": true
    },
    {
      "fromDt": "03/2007",
      "toDt": null,
      "orgNm": "CARTER FINANCIAL MANAGEMENT",
      "city": "DALLAS",
      "state": 45,
      "stateSpecified": true
    },
    {
      "fromDt": "01/2009",
      "toDt": null,
      "orgNm": "RAYMOND JAMES FINANCIAL SERVICES ADVISORS, INC",
      "city": "DALLAS",
      "state": 45,
      "stateSpecified": true
    },
    {
      "fromDt": "07/2010",
      "toDt": null,
      "orgNm": "ASH BROKERAGE",
      "city": "DALLAS",
      "state": 45,
      "stateSpecified": true
    },
    {
      "fromDt": "09/2010",
      "toDt": "01/2016",
      "orgNm": "NON-VARIABLE INSURANCE",
      "city": "DALLAS",
      "state": 45,
      "stateSpecified": true
    }
  ],
  "OthrBuss": {
    "OthrBus": {
      "desc": "2.  CARTER FINANCIAL MANAGEMENT, DALLAS, TX, INDEPENDENT RIA, INVESTMENT RELATED, ADVISOR, 03/23/2007, 12 HRS PER MONTH, 3 DURING TRADING, INVESTMENT ADVISOR REPRESENTATIVE 3. JM WEALTH MANAGEMENT LLC, DALLAS, TX, OWNER - OFFICER - CEO, NON-INVESTMENT RELATED, 04/2014, 0 HRS PER MONTH, 0 HRS DURING TRADING,  4. ASH BROKERAGE; DALLAS, TX; NON-VARIABLE INSURANCE; AGENT; INVESTMENT RELATED; 07/2010-PRESENT; 2 HOURS PER MONTH, 1 HOUR DURING TRADING.  5. CARTER ADVISORY SERVICES; DALLAS, TX; INDEPENDENT RIA; ADVISOR; INVESTMENT RELATED; 03/2007-PRESENT; 12 HOURS PER MONTH, 3 HOURS DURING TRADING; INVESTMENT ADVISOR REPRESENTATIVE."
    }
  },
  "DRPs": [
    {
      "hasRegAction": 1,
      "hasRegActionSpecified": true,
      "hasCriminal": 0,
      "hasCriminalSpecified": true,
      "hasBankrupt": 1,
      "hasBankruptSpecified": true,
      "hasCivilJudc": 1,
      "hasCivilJudcSpecified": true,
      "hasBond": 1,
      "hasBondSpecified": true,
      "hasJudgment": 1,
      "hasJudgmentSpecified": true,
      "hasInvstgn": 1,
      "hasInvstgnSpecified": true,
      "hasCustComp": 1,
      "hasCustCompSpecified": true,
      "hasTermination": 1,
      "hasTerminationSpecified": true
    }
  ]
}