{
  "Info": {
    "lastNm": "RAMIREZ",
    "firstNm": "LARK",
    "midNm": "LEE",
    "sufNm": null,
    "indvlPK": "4377391",
    "actvAGReg": 0,
    "link": "http://www.adviserinfo.sec.gov/IAPD/Individual/4377391"
  },
  "OthrNms": [
    {
      "lastNm": "RAINS",
      "firstNm": "LARK",
      "midNm": "L",
      "sufNm": null
    },
    {
      "lastNm": "RAINS",
      "firstNm": "LARK",
      "midNm": "LEE",
      "sufNm": null
    },
    {
      "lastNm": "RAINS",
      "firstNm": "LARK",
      "midNm": "LEE",
      "sufNm": null
    }
  ],
  "CrntEmps": [
    {
      "CrntRgstns": [
        {
          "regAuth": 15,
          "regCat": 0,
          "st": 2,
          "stDt": "2005-10-19T00:00:00"
        }
      ],
      "BrnchOfLocs": [
        {
          "str1": "233 S WACKER DR 84TH FLOOR",
          "str2": null,
          "city": "CHICAGO",
          "state": 15,
          "stateSpecified": true,
          "cntry": "United States",
          "postlCd": "60606"
        }
      ],
      "orgNm": "WOODBURY FINANCIAL SERVICES, INC.",
      "orgPK": "421",
      "str1": "7755 3RD STREET NORTH",
      "str2": null,
      "city": "OAKDALE",
      "state": 24,
      "stateSpecified": true,
      "cntry": "United States",
      "postlCd": "55128"
    }
  ],
  "Exms": [
    {
      "exmCd": 0,
      "exmNm": "Uniform Securities Agent State Law Examination",
      "exmDt": "2003-12-01T00:00:00",
      "exmDtSpecified": true
    },
    {
      "exmCd": 3,
      "exmNm": "Uniform Combined State Law Examination",
      "exmDt": "2005-04-18T00:00:00",
      "exmDtSpecified": true
    }
  ],
  "Dsgntns": [],
  "PrevRgstns": [],
  "EmpHss": [
    {
      "fromDt": "10/2005",
      "toDt": null,
      "orgNm": "WOODBURY FINANCIAL SERVICES",
      "city": "OAK BROOK",
      "state": 15,
      "stateSpecified": true
    }
  ],
  "OthrBuss": {
    "OthrBus": {
      "desc": "1)RAMIREZ & RAINS; NONINV RELATED; 233 S WACKER DR 84TH FLR CHICAGO,IL; SELL LIFE/DI/LTC W/OUTSIDE INS BROKERAGES; SALES/SERVICE; 09/01/2003; 4HR/MON; 0HR/MON; OUTSIDE INS BROKERAGE BUSINESS  2) HEALTH INSURANCE SALES, 233 S WACKER DR 84TH FLOOR CHICAGO IL, SERVICE REP FOR HEALTH INSURANCE INDIVIDUAL POLICIES, BEGAN 10/03, 1HR/MON; 0HR/MON"
    }
  },
  "DRPs": [
    {
      "hasRegAction": 1,
      "hasRegActionSpecified": true,
      "hasCriminal": 1,
      "hasCriminalSpecified": true,
      "hasBankrupt": 0,
      "hasBankruptSpecified": true,
      "hasCivilJudc": 1,
      "hasCivilJudcSpecified": true,
      "hasBond": 1,
      "hasBondSpecified": true,
      "hasJudgment": 1,
      "hasJudgmentSpecified": true,
      "hasInvstgn": 1,
      "hasInvstgnSpecified": true,
      "hasCustComp": 1,
      "hasCustCompSpecified": true,
      "hasTermination": 1,
      "hasTerminationSpecified": true
    }
  ]
}