{
  "Info": {
    "lastNm": "SHANNON",
    "firstNm": "JON",
    "midNm": "CHRISTOPHER",
    "sufNm": null,
    "indvlPK": "4380689",
    "actvAGReg": 0,
    "link": "http://www.adviserinfo.sec.gov/IAPD/Individual/4380689"
  },
  "OthrNms": [],
  "CrntEmps": [
    {
      "CrntRgstns": [
        {
          "regAuth": 45,
          "regCat": 0,
          "st": 2,
          "stDt": "2012-04-03T00:00:00"
        }
      ],
      "BrnchOfLocs": [
        {
          "str1": "ONE DESTINY WAY",
          "str2": null,
          "city": "WESTLAKE",
          "state": 45,
          "stateSpecified": true,
          "cntry": "United States",
          "postlCd": "76262"
        }
      ],
      "orgNm": "STRATEGIC ADVISERS, INC.",
      "orgPK": "104555",
      "str1": "245 SUMMER STREET, V10G",
      "str2": null,
      "city": "BOSTON",
      "state": 20,
      "stateSpecified": true,
      "cntry": "United States",
      "postlCd": "02210"
    }
  ],
  "Exms": [
    {
      "exmCd": 3,
      "exmNm": "Uniform Combined State Law Examination",
      "exmDt": "2012-04-02T00:00:00",
      "exmDtSpecified": true
    }
  ],
  "Dsgntns": [],
  "PrevRgstns": [
    {
      "BrnchOfLocs": [
        {
          "city": "PORTLAND",
          "state": 22,
          "stateSpecified": true
        }
      ],
      "orgNm": "MORGAN STANLEY DW INC.",
      "orgPK": "7556",
      "regBeginDt": "2002-05-14T00:00:00",
      "regBeginDtSpecified": true,
      "regEndDt": "2004-02-02T00:00:00",
      "regEndDtSpecified": true
    },
    {
      "BrnchOfLocs": [
        {
          "city": "PORTLAND",
          "state": 22,
          "stateSpecified": true
        }
      ],
      "orgNm": "LPL FINANCIAL LLC",
      "orgPK": "6413",
      "regBeginDt": "2004-02-19T00:00:00",
      "regBeginDtSpecified": true,
      "regEndDt": "2005-10-21T00:00:00",
      "regEndDtSpecified": true
    }
  ],
  "EmpHss": [
    {
      "fromDt": "10/2005",
      "toDt": null,
      "orgNm": "FIDELITY BROKERAGE SERVICES LLC",
      "city": "WESTLAKE",
      "state": 45,
      "stateSpecified": true
    }
  ],
  "OthrBuss": {
    "OthrBus": null
  },
  "DRPs": []
}