{
  "Info": {
    "lastNm": "MANESS",
    "firstNm": "SAMUEL",
    "midNm": "GARRETT",
    "sufNm": null,
    "indvlPK": "4381794",
    "actvAGReg": 0,
    "link": "http://www.adviserinfo.sec.gov/IAPD/Individual/4381794"
  },
  "OthrNms": [
    {
      "lastNm": "MANESS",
      "firstNm": "SAM",
      "midNm": "GARRETT",
      "sufNm": null
    },
    {
      "lastNm": "MANESS",
      "firstNm": "SAMUEL",
      "midNm": "G",
      "sufNm": null
    }
  ],
  "CrntEmps": [
    {
      "CrntRgstns": [
        {
          "regAuth": 47,
          "regCat": 0,
          "st": 2,
          "stDt": "2015-06-23T00:00:00"
        }
      ],
      "BrnchOfLocs": [
        {
          "str1": "11951 FREEDOM DRIVE",
          "str2": null,
          "city": "RESTON",
          "state": 47,
          "stateSpecified": true,
          "cntry": "United States",
          "postlCd": "20190"
        },
        {
          "str1": "880 CARILLON PARKWAY",
          "str2": null,
          "city": "ST. PETERSBURG",
          "state": 9,
          "stateSpecified": true,
          "cntry": "UNITED STATES",
          "postlCd": "33716"
        }
      ],
      "orgNm": "RAYMOND JAMES & ASSOCIATES, INC.",
      "orgPK": "705",
      "str1": "880 CARILLON PARKWAY",
      "str2": null,
      "city": "ST PETERSBURG",
      "state": 9,
      "stateSpecified": true,
      "cntry": "United States",
      "postlCd": "33716"
    }
  ],
  "Exms": [
    {
      "exmCd": 3,
      "exmNm": "Uniform Combined State Law Examination",
      "exmDt": "2003-11-20T00:00:00",
      "exmDtSpecified": true
    }
  ],
  "Dsgntns": [],
  "PrevRgstns": [
    {
      "BrnchOfLocs": [
        {
          "city": "RESTON",
          "state": 47,
          "stateSpecified": true
        },
        {
          "city": "RESTON",
          "state": 47,
          "stateSpecified": true
        }
      ],
      "orgNm": "SCOTT & STRINGFELLOW, LLC",
      "orgPK": "6255",
      "regBeginDt": "2003-11-21T00:00:00",
      "regBeginDtSpecified": true,
      "regEndDt": "2013-01-02T00:00:00",
      "regEndDtSpecified": true
    },
    {
      "BrnchOfLocs": [
        {
          "city": "RESTON",
          "state": 47,
          "stateSpecified": true
        }
      ],
      "orgNm": "BB&T SECURITIES, LLC",
      "orgPK": "142785",
      "regBeginDt": "2013-01-02T00:00:00",
      "regBeginDtSpecified": true,
      "regEndDt": "2015-07-01T00:00:00",
      "regEndDtSpecified": true
    }
  ],
  "EmpHss": [
    {
      "fromDt": "07/2001",
      "toDt": "06/2015",
      "orgNm": "BB&T CAPITAL MARKETS/SCOTT & STRINGFELLOW",
      "city": "RESTON",
      "state": 47,
      "stateSpecified": true
    },
    {
      "fromDt": "01/2013",
      "toDt": "06/2015",
      "orgNm": "BB&T SECURITIES, LLC",
      "city": "RESTON",
      "state": 47,
      "stateSpecified": true
    },
    {
      "fromDt": "06/2015",
      "toDt": null,
      "orgNm": "RAYMOND JAMES & ASSOCIATES",
      "city": "RESTON",
      "state": 47,
      "stateSpecified": true
    }
  ],
  "OthrBuss": {
    "OthrBus": {
      "desc": "1.) ARTEL INVESTMENT COMPANY LLC: RESTON VA, INVESTED $150K, NOT A PUBLICLY TRADED COMPANY, DOES NOT COMPETE WITH BB&T OR AFFILIATES, DESIGNS AND PROVIDES TURNKEY MANAGED NETWORK SERVICES INVOLVING LAND BASED AND COMMERCIAL SATELLITE COMMUNICATIONS CAPACITY."
    }
  },
  "DRPs": []
}