{
  "Info": {
    "lastNm": "RAMIREZ",
    "firstNm": "JUSTIN",
    "midNm": "DAVID",
    "sufNm": null,
    "indvlPK": "4381696",
    "actvAGReg": 1,
    "link": "http://www.adviserinfo.sec.gov/IAPD/Individual/4381696"
  },
  "OthrNms": [
    {
      "lastNm": "RAMIREZ",
      "firstNm": "DAVID",
      "midNm": null,
      "sufNm": null
    }
  ],
  "CrntEmps": [
    {
      "CrntRgstns": [
        {
          "regAuth": 4,
          "regCat": 0,
          "st": 2,
          "stDt": "2013-04-22T00:00:00"
        }
      ],
      "BrnchOfLocs": [
        {
          "str1": "350 TOWNSEND ST.",
          "str2": "SUITE 422A",
          "city": "SAN FRANCISCO",
          "state": 4,
          "stateSpecified": true,
          "cntry": "United States",
          "postlCd": "94107"
        }
      ],
      "orgNm": "FORUS ADVISORS, LLC",
      "orgPK": "167241",
      "str1": "350 TOWNSEND ST.",
      "str2": "SUITE 422A",
      "city": "SAN FRANCISCO",
      "state": 4,
      "stateSpecified": true,
      "cntry": "United States",
      "postlCd": "94107"
    }
  ],
  "Exms": [
    {
      "exmCd": 0,
      "exmNm": "Uniform Securities Agent State Law Examination",
      "exmDt": "2001-04-30T00:00:00",
      "exmDtSpecified": true
    }
  ],
  "Dsgntns": [
    {
      "dsgntnNm": "Chartered Financial Analyst"
    }
  ],
  "PrevRgstns": [
    {
      "BrnchOfLocs": [
        {
          "city": "SUNNYVALE",
          "state": 4,
          "stateSpecified": true
        }
      ],
      "orgNm": "FINANCIAL ENGINES ADVISORS L.L.C.",
      "orgPK": "104510",
      "regBeginDt": "2007-08-17T00:00:00",
      "regBeginDtSpecified": true,
      "regEndDt": "2012-06-20T00:00:00",
      "regEndDtSpecified": true
    },
    {
      "BrnchOfLocs": [
        {
          "city": "REDWOOD CITY",
          "state": 4,
          "stateSpecified": true
        }
      ],
      "orgNm": "FORUS",
      "orgPK": "164845",
      "regBeginDt": "2012-09-20T00:00:00",
      "regBeginDtSpecified": true,
      "regEndDt": "2013-05-09T00:00:00",
      "regEndDtSpecified": true
    }
  ],
  "EmpHss": [
    {
      "fromDt": "07/2004",
      "toDt": "06/2012",
      "orgNm": "FINANCIAL ENGINES",
      "city": "PALO ALTO",
      "state": 4,
      "stateSpecified": true
    },
    {
      "fromDt": "07/2012",
      "toDt": "04/2013",
      "orgNm": "FORUS",
      "city": "REDWOOD CITY",
      "state": 4,
      "stateSpecified": true
    },
    {
      "fromDt": "04/2013",
      "toDt": null,
      "orgNm": "FORUS ADVISORS, LLC",
      "city": "SAN FRANCISCO",
      "state": 4,
      "stateSpecified": true
    }
  ],
  "OthrBuss": {
    "OthrBus": null
  },
  "DRPs": []
}