{
  "Info": {
    "lastNm": "FOXWORTH",
    "firstNm": "CATHERINE",
    "midNm": "K",
    "sufNm": null,
    "indvlPK": "4384814",
    "actvAGReg": 0,
    "link": "http://www.adviserinfo.sec.gov/IAPD/Individual/4384814"
  },
  "OthrNms": [
    {
      "lastNm": "MCCOMBS",
      "firstNm": "CATHERINE",
      "midNm": "KELLY",
      "sufNm": null
    }
  ],
  "CrntEmps": [
    {
      "CrntRgstns": [
        {
          "regAuth": 4,
          "regCat": 0,
          "st": 2,
          "stDt": "2008-09-30T00:00:00"
        },
        {
          "regAuth": 45,
          "regCat": 0,
          "st": 2,
          "stDt": "2009-06-17T00:00:00"
        }
      ],
      "BrnchOfLocs": [
        {
          "str1": "9595 WILSHIRE BLVD",
          "str2": null,
          "city": "BEVERLY HILLS",
          "state": 4,
          "stateSpecified": true,
          "cntry": "United States",
          "postlCd": "90212"
        }
      ],
      "orgNm": "MERRILL LYNCH, PIERCE, FENNER & SMITH INCORPORATED",
      "orgPK": "7691",
      "str1": "ONE BRYANT PARK",
      "str2": null,
      "city": "NEW YORK",
      "state": 35,
      "stateSpecified": true,
      "cntry": "United States",
      "postlCd": "10036"
    }
  ],
  "Exms": [
    {
      "exmCd": 3,
      "exmNm": "Uniform Combined State Law Examination",
      "exmDt": "2008-04-21T00:00:00",
      "exmDtSpecified": true
    }
  ],
  "Dsgntns": [],
  "PrevRgstns": [
    {
      "BrnchOfLocs": [
        {
          "city": "BEVERLY HILLS",
          "state": 4,
          "stateSpecified": true
        }
      ],
      "orgNm": "UBS FINANCIAL SERVICES INC.",
      "orgPK": "8174",
      "regBeginDt": "2008-04-24T00:00:00",
      "regBeginDtSpecified": true,
      "regEndDt": "2008-10-03T00:00:00",
      "regEndDtSpecified": true
    }
  ],
  "EmpHss": [
    {
      "fromDt": "08/2000",
      "toDt": "09/2007",
      "orgNm": "UBS FINANCIAL SERVICES INC.",
      "city": "RALEIGH",
      "state": 28,
      "stateSpecified": true
    },
    {
      "fromDt": "10/2007",
      "toDt": "09/2008",
      "orgNm": "UBS FINANCIAL SERVICES INC.",
      "city": "BEVERLY HILLS",
      "state": 4,
      "stateSpecified": true
    },
    {
      "fromDt": "09/2008",
      "toDt": null,
      "orgNm": "MERRILL LYNCH, PIERCE, FENNER & SMITH INCORPORATED",
      "city": "BEVERLY HILLS",
      "state": 4,
      "stateSpecified": true
    }
  ],
  "OthrBuss": {
    "OthrBus": null
  },
  "DRPs": []
}