{
  "Info": {
    "lastNm": "NOWAK",
    "firstNm": "JASON",
    "midNm": "JAY",
    "sufNm": null,
    "indvlPK": "4384942",
    "actvAGReg": 0,
    "link": "http://www.adviserinfo.sec.gov/IAPD/Individual/4384942"
  },
  "OthrNms": [],
  "CrntEmps": [
    {
      "CrntRgstns": [
        {
          "regAuth": 36,
          "regCat": 0,
          "st": 2,
          "stDt": "2011-12-23T00:00:00"
        }
      ],
      "BrnchOfLocs": [
        {
          "str1": "3700 EMBASSY PARKWAY",
          "str2": "SUITE 330",
          "city": "AKRON",
          "state": 36,
          "stateSpecified": true,
          "cntry": "United States",
          "postlCd": "44333"
        }
      ],
      "orgNm": "AXA ADVISORS, LLC",
      "orgPK": "6627",
      "str1": "1290 AVENUE OF THE AMERICAS",
      "str2": null,
      "city": "NEW YORK",
      "state": 35,
      "stateSpecified": true,
      "cntry": "United States",
      "postlCd": "10104"
    }
  ],
  "Exms": [
    {
      "exmCd": 3,
      "exmNm": "Uniform Combined State Law Examination",
      "exmDt": "2001-06-29T00:00:00",
      "exmDtSpecified": true
    }
  ],
  "Dsgntns": [],
  "PrevRgstns": [
    {
      "BrnchOfLocs": [
        {
          "city": "AKRON",
          "state": 36,
          "stateSpecified": true
        },
        {
          "city": "AKRON",
          "state": 36,
          "stateSpecified": true
        }
      ],
      "orgNm": "AXA ADVISORS, LLC",
      "orgPK": "6627",
      "regBeginDt": "2003-01-22T00:00:00",
      "regBeginDtSpecified": true,
      "regEndDt": "2011-11-14T00:00:00",
      "regEndDtSpecified": true
    }
  ],
  "EmpHss": [
    {
      "fromDt": "04/2001",
      "toDt": null,
      "orgNm": "AXA ADVISORS, LLC",
      "city": "NEW YORK",
      "state": 35,
      "stateSpecified": true
    }
  ],
  "OthrBuss": {
    "OthrBus": null
  },
  "DRPs": []
}