{
  "Info": {
    "lastNm": "JOHNSON",
    "firstNm": "MONTE",
    "midNm": "LEROY",
    "sufNm": null,
    "indvlPK": "4389677",
    "actvAGReg": 1,
    "link": "http://www.adviserinfo.sec.gov/IAPD/Individual/4389677"
  },
  "OthrNms": [],
  "CrntEmps": [
    {
      "CrntRgstns": [
        {
          "regAuth": 38,
          "regCat": 0,
          "st": 2,
          "stDt": "1985-04-01T00:00:00"
        }
      ],
      "BrnchOfLocs": [
        {
          "str1": "ONE SW COLUMBIA ST.",
          "str2": "SUITE 1100",
          "city": "PORTLAND",
          "state": 38,
          "stateSpecified": true,
          "cntry": "United States",
          "postlCd": "97258"
        }
      ],
      "orgNm": "QUEST INVESTMENT MANAGEMENT, LLC",
      "orgPK": "110640",
      "str1": "ONE SW COLUMBIA ST.",
      "str2": "SUITE 1100",
      "city": "PORTLAND",
      "state": 38,
      "stateSpecified": true,
      "cntry": "United States",
      "postlCd": "97258"
    }
  ],
  "Exms": [],
  "Dsgntns": [],
  "PrevRgstns": [],
  "EmpHss": [
    {
      "fromDt": "02/1985",
      "toDt": null,
      "orgNm": "QUEST INVESTMENT MANAGEMENT, INC.",
      "city": "PORTLAND",
      "state": 38,
      "stateSpecified": true
    }
  ],
  "OthrBuss": {
    "OthrBus": null
  },
  "DRPs": []
}