{
  "Info": {
    "lastNm": "BANNON",
    "firstNm": "MARIA",
    "midNm": null,
    "sufNm": null,
    "indvlPK": "4390845",
    "actvAGReg": 0,
    "link": "http://www.adviserinfo.sec.gov/IAPD/Individual/4390845"
  },
  "OthrNms": [
    {
      "lastNm": "ANDREWS",
      "firstNm": null,
      "midNm": null,
      "sufNm": null
    },
    {
      "lastNm": "ANDREWS",
      "firstNm": "MARIA",
      "midNm": "KAY",
      "sufNm": null
    },
    {
      "lastNm": "BANNON",
      "firstNm": "MARIA",
      "midNm": "ANDREWS",
      "sufNm": null
    }
  ],
  "CrntEmps": [
    {
      "CrntRgstns": [
        {
          "regAuth": 10,
          "regCat": 0,
          "st": 2,
          "stDt": "2011-11-07T00:00:00"
        }
      ],
      "BrnchOfLocs": [
        {
          "str1": "8 MACON ST",
          "str2": null,
          "city": "MC DONOUGH",
          "state": 10,
          "stateSpecified": true,
          "cntry": "United States",
          "postlCd": "30253"
        }
      ],
      "orgNm": "NATIONWIDE SECURITIES, LLC",
      "orgPK": "11173",
      "str1": "10 WEST NATIONWIDE BLVD.",
      "str2": "MAIL CODE: 5-01-103",
      "city": "COLUMBUS",
      "state": 36,
      "stateSpecified": true,
      "cntry": "United States",
      "postlCd": "43215"
    }
  ],
  "Exms": [
    {
      "exmCd": 3,
      "exmNm": "Uniform Combined State Law Examination",
      "exmDt": "2011-09-16T00:00:00",
      "exmDtSpecified": true
    }
  ],
  "Dsgntns": [],
  "PrevRgstns": [
    {
      "BrnchOfLocs": [
        {
          "city": "JACKSONVILLE",
          "state": 9,
          "stateSpecified": true
        }
      ],
      "orgNm": "MORGAN STANLEY DW INC.",
      "orgPK": "7556",
      "regBeginDt": "2004-09-30T00:00:00",
      "regBeginDtSpecified": true,
      "regEndDt": "2005-10-03T00:00:00",
      "regEndDtSpecified": true
    }
  ],
  "EmpHss": [
    {
      "fromDt": "09/2005",
      "toDt": "09/2007",
      "orgNm": "UNEMPLOYED",
      "city": "STOCKBRIDGE",
      "state": 10,
      "stateSpecified": true
    },
    {
      "fromDt": "09/2007",
      "toDt": "08/2008",
      "orgNm": "1717 CAPITAL MANAGEMENT",
      "city": "NEWARK",
      "state": 8,
      "stateSpecified": true
    },
    {
      "fromDt": "09/2007",
      "toDt": "08/2008",
      "orgNm": "NATIONWIDE FINANCIAL NETWORK",
      "city": "STOCKBRIDGE",
      "state": 10,
      "stateSpecified": true
    },
    {
      "fromDt": "08/2008",
      "toDt": null,
      "orgNm": "NATIONWIDE SECURITIES, LLC",
      "city": "STOCKBRIDGE",
      "state": 10,
      "stateSpecified": true
    }
  ],
  "OthrBuss": {
    "OthrBus": {
      "desc": "- APPOINTED WITH NATIONWIDE INSURANCE COMPANIES, AFFILIATES OF NSLLC, TO SELL FIXED INSURANCE/ ANNUITY PRODUCTS AS WELL AS PROPERTY/CASUALTY INSURANCE DURING NORMAL MARKET HOURS AT THE BRANCH LOCATION."
    }
  },
  "DRPs": []
}