{
  "Info": {
    "lastNm": "KEARNS",
    "firstNm": "PATRICK",
    "midNm": "ABBOTT",
    "sufNm": "JR.",
    "indvlPK": "4397945",
    "actvAGReg": 0,
    "link": "http://www.adviserinfo.sec.gov/IAPD/Individual/4397945"
  },
  "OthrNms": [],
  "CrntEmps": [
    {
      "CrntRgstns": [
        {
          "regAuth": 4,
          "regCat": 0,
          "st": 2,
          "stDt": "2009-06-29T00:00:00"
        },
        {
          "regAuth": 23,
          "regCat": 0,
          "st": 2,
          "stDt": "2010-04-16T00:00:00"
        },
        {
          "regAuth": 36,
          "regCat": 0,
          "st": 2,
          "stDt": "2010-05-25T00:00:00"
        },
        {
          "regAuth": 49,
          "regCat": 0,
          "st": 2,
          "stDt": "2010-06-18T00:00:00"
        },
        {
          "regAuth": 18,
          "regCat": 0,
          "st": 2,
          "stDt": "2010-09-15T00:00:00"
        },
        {
          "regAuth": 34,
          "regCat": 0,
          "st": 2,
          "stDt": "2010-09-24T00:00:00"
        },
        {
          "regAuth": 5,
          "regCat": 0,
          "st": 2,
          "stDt": "2014-01-14T00:00:00"
        },
        {
          "regAuth": 24,
          "regCat": 0,
          "st": 2,
          "stDt": "2014-02-12T00:00:00"
        },
        {
          "regAuth": 3,
          "regCat": 0,
          "st": 2,
          "stDt": "2014-02-14T00:00:00"
        },
        {
          "regAuth": 9,
          "regCat": 0,
          "st": 2,
          "stDt": "2014-03-17T00:00:00"
        }
      ],
      "BrnchOfLocs": [
        {
          "str1": "8329 WEST SUNSET RD.",
          "str2": "STE. # 220",
          "city": "LAS VEGAS",
          "state": 34,
          "stateSpecified": true,
          "cntry": "United States",
          "postlCd": "89113"
        }
      ],
      "orgNm": "AXA ADVISORS, LLC",
      "orgPK": "6627",
      "str1": "1290 AVENUE OF THE AMERICAS",
      "str2": null,
      "city": "NEW YORK",
      "state": 35,
      "stateSpecified": true,
      "cntry": "United States",
      "postlCd": "10104"
    }
  ],
  "Exms": [
    {
      "exmCd": 3,
      "exmNm": "Uniform Combined State Law Examination",
      "exmDt": "2001-06-22T00:00:00",
      "exmDtSpecified": true
    }
  ],
  "Dsgntns": [],
  "PrevRgstns": [],
  "EmpHss": [
    {
      "fromDt": "05/2001",
      "toDt": null,
      "orgNm": "AXA ADVISORS, LLC",
      "city": "NEW YORK",
      "state": 35,
      "stateSpecified": true
    }
  ],
  "OthrBuss": {
    "OthrBus": null
  },
  "DRPs": [
    {
      "hasRegAction": 1,
      "hasRegActionSpecified": true,
      "hasCriminal": 1,
      "hasCriminalSpecified": true,
      "hasBankrupt": 0,
      "hasBankruptSpecified": true,
      "hasCivilJudc": 1,
      "hasCivilJudcSpecified": true,
      "hasBond": 1,
      "hasBondSpecified": true,
      "hasJudgment": 1,
      "hasJudgmentSpecified": true,
      "hasInvstgn": 1,
      "hasInvstgnSpecified": true,
      "hasCustComp": 1,
      "hasCustCompSpecified": true,
      "hasTermination": 1,
      "hasTerminationSpecified": true
    }
  ]
}