{
  "Info": {
    "lastNm": "SINHA",
    "firstNm": "NIKHIL",
    "midNm": "JOSEPH",
    "sufNm": null,
    "indvlPK": "4403019",
    "actvAGReg": 0,
    "link": "http://www.adviserinfo.sec.gov/IAPD/Individual/4403019"
  },
  "OthrNms": [
    {
      "lastNm": "SINNA",
      "firstNm": "NIKHIL",
      "midNm": "JOSEPH",
      "sufNm": null
    }
  ],
  "CrntEmps": [
    {
      "CrntRgstns": [
        {
          "regAuth": 4,
          "regCat": 0,
          "st": 2,
          "stDt": "2016-04-05T00:00:00"
        }
      ],
      "BrnchOfLocs": [
        {
          "str1": "1 MARKET STREET, SUITE 1600",
          "str2": null,
          "city": "SAN FRANCISCO",
          "state": 4,
          "stateSpecified": true,
          "cntry": "United States",
          "postlCd": "94105"
        }
      ],
      "orgNm": "PARNASSUS INVESTMENTS",
      "orgPK": "149193",
      "str1": "1 MARKET STREET, SUITE 1600",
      "str2": null,
      "city": "SAN FRANCISCO",
      "state": 4,
      "stateSpecified": true,
      "cntry": "United States",
      "postlCd": "94105"
    }
  ],
  "Exms": [
    {
      "exmCd": 0,
      "exmNm": "Uniform Securities Agent State Law Examination",
      "exmDt": "2001-11-23T00:00:00",
      "exmDtSpecified": true
    },
    {
      "exmCd": 3,
      "exmNm": "Uniform Combined State Law Examination",
      "exmDt": "2005-12-01T00:00:00",
      "exmDtSpecified": true
    }
  ],
  "Dsgntns": [],
  "PrevRgstns": [
    {
      "BrnchOfLocs": [
        {
          "city": "SAN FRANCISCO",
          "state": 4,
          "stateSpecified": true
        }
      ],
      "orgNm": "WELLS FARGO FUNDS MANAGEMENT, LLC",
      "orgPK": "110841",
      "regBeginDt": "2005-01-14T00:00:00",
      "regBeginDtSpecified": true,
      "regEndDt": "2014-12-31T00:00:00",
      "regEndDtSpecified": true
    }
  ],
  "EmpHss": [
    {
      "fromDt": "04/2005",
      "toDt": "05/2007",
      "orgNm": "WELLS FARGO FUNDS DISTRIBUTOR",
      "city": "SAN FRANCISCO",
      "state": 4,
      "stateSpecified": true
    },
    {
      "fromDt": "03/2007",
      "toDt": "05/2007",
      "orgNm": "WELLS FARGO FUNDS DISTRIBUTOR, LLC",
      "city": "SAN FRANCISCO",
      "state": 4,
      "stateSpecified": true
    },
    {
      "fromDt": "05/2007",
      "toDt": "03/2009",
      "orgNm": "WELLS FARGO FUNDS MANAGEMENT, LLC",
      "city": "SAN FRANCISCO",
      "state": 4,
      "stateSpecified": true
    },
    {
      "fromDt": "03/2009",
      "toDt": "03/2012",
      "orgNm": "WELLS FARGO FUNDS MANAGEMENT, LLC",
      "city": "SAN FRANCISCO",
      "state": 4,
      "stateSpecified": true
    },
    {
      "fromDt": "03/2012",
      "toDt": "04/2015",
      "orgNm": "WELLS FARGO FUNDS MANAGEMENT, LLC",
      "city": "SAN FRANCISCO",
      "state": 4,
      "stateSpecified": true
    },
    {
      "fromDt": "05/2015",
      "toDt": null,
      "orgNm": "PARNASSUS INVESTMENTS",
      "city": "SAN FRANCISCO",
      "state": 4,
      "stateSpecified": true
    }
  ],
  "OthrBuss": {
    "OthrBus": null
  },
  "DRPs": []
}