{
  "Info": {
    "lastNm": "WALLIN",
    "firstNm": "ERIK",
    "midNm": "RANDALL",
    "sufNm": null,
    "indvlPK": "4406538",
    "actvAGReg": 0,
    "link": "http://www.adviserinfo.sec.gov/IAPD/Individual/4406538"
  },
  "OthrNms": [],
  "CrntEmps": [
    {
      "CrntRgstns": [
        {
          "regAuth": 20,
          "regCat": 0,
          "st": 2,
          "stDt": "2015-11-24T00:00:00"
        }
      ],
      "BrnchOfLocs": [
        {
          "str1": "99 DERBY STREET",
          "str2": null,
          "city": "HINGHAM",
          "state": 20,
          "stateSpecified": true,
          "cntry": "United States",
          "postlCd": "02043"
        }
      ],
      "orgNm": "ONE CHARLES PRIVATE WEALTH, LLC",
      "orgPK": "281121",
      "str1": "99 DERBY STREET",
      "str2": null,
      "city": "HINGHAM",
      "state": 20,
      "stateSpecified": true,
      "cntry": "United States",
      "postlCd": "02043"
    }
  ],
  "Exms": [
    {
      "exmCd": 3,
      "exmNm": "Uniform Combined State Law Examination",
      "exmDt": "2005-02-07T00:00:00",
      "exmDtSpecified": true
    }
  ],
  "Dsgntns": [],
  "PrevRgstns": [
    {
      "BrnchOfLocs": [
        {
          "city": "HYANNIS",
          "state": 20,
          "stateSpecified": true
        },
        {
          "city": "HYANNIS",
          "state": 20,
          "stateSpecified": true
        }
      ],
      "orgNm": "MERRILL LYNCH, PIERCE, FENNER & SMITH INCORPORATED",
      "orgPK": "7691",
      "regBeginDt": "2005-02-08T00:00:00",
      "regBeginDtSpecified": true,
      "regEndDt": "2015-11-16T00:00:00",
      "regEndDtSpecified": true
    }
  ],
  "EmpHss": [
    {
      "fromDt": "07/2002",
      "toDt": "11/2015",
      "orgNm": "MERRILL LYNCH, PIERCE, FENNER & SMITH INCORPORATED",
      "city": "NEW YORK",
      "state": 35,
      "stateSpecified": true
    },
    {
      "fromDt": "09/2009",
      "toDt": "11/2015",
      "orgNm": "BANK OF AMERICA ,NA",
      "city": "HYANNIS",
      "state": 20,
      "stateSpecified": true
    },
    {
      "fromDt": "11/2015",
      "toDt": null,
      "orgNm": "One Charles Private Wealth, LLC",
      "city": "Hingham",
      "state": 20,
      "stateSpecified": true
    },
    {
      "fromDt": "11/2015",
      "toDt": null,
      "orgNm": "PURSHE KAPLAN STERLING INVESTMENTS",
      "city": "ALBANY",
      "state": 35,
      "stateSpecified": true
    }
  ],
  "OthrBuss": {
    "OthrBus": {
      "desc": "1) ONE CHARLES PRIVATE WEALTH.  INVESTMENT RELATED.  99 DERBY ST SUITE 101 HINGHAM, MA 02043.  RIA.  MANAGING PARTNER.  START 11/13/2015. 200 HOURS/MONTH, 200 DURING TRADING.  PROVIDE PORTFOLIO AND STRATEGY MANAGEMENT.   2) PKS Financial-Investment related-Insurance aservices-Insurance agent-11/13/15-30 hrs/mth-100% during securities hrs-Researches & implements fixed insurance products for clients."
    }
  },
  "DRPs": [
    {
      "hasRegAction": 1,
      "hasRegActionSpecified": true,
      "hasCriminal": 1,
      "hasCriminalSpecified": true,
      "hasBankrupt": 1,
      "hasBankruptSpecified": true,
      "hasCivilJudc": 1,
      "hasCivilJudcSpecified": true,
      "hasBond": 1,
      "hasBondSpecified": true,
      "hasJudgment": 1,
      "hasJudgmentSpecified": true,
      "hasInvstgn": 1,
      "hasInvstgnSpecified": true,
      "hasCustComp": 0,
      "hasCustCompSpecified": true,
      "hasTermination": 1,
      "hasTerminationSpecified": true
    }
  ]
}