{
  "Info": {
    "lastNm": "BRENNAN",
    "firstNm": "JOHN",
    "midNm": "PAUL",
    "sufNm": "III",
    "indvlPK": "4411585",
    "actvAGReg": 1,
    "link": "http://www.adviserinfo.sec.gov/IAPD/Individual/4411585"
  },
  "OthrNms": [
    {
      "lastNm": "BRENNAN, III",
      "firstNm": "JOHN",
      "midNm": "PATRICK",
      "sufNm": null
    },
    {
      "lastNm": "BRENNAN, III",
      "firstNm": "JOHN",
      "midNm": "PATRICK",
      "sufNm": null
    },
    {
      "lastNm": "BRENNAN",
      "firstNm": "JOHN ",
      "midNm": "PAUL",
      "sufNm": "III"
    }
  ],
  "CrntEmps": [
    {
      "CrntRgstns": [
        {
          "regAuth": 31,
          "regCat": 0,
          "st": 2,
          "stDt": "2007-06-22T00:00:00"
        },
        {
          "regAuth": 45,
          "regCat": 0,
          "st": 2,
          "stDt": "2007-06-22T00:00:00"
        }
      ],
      "BrnchOfLocs": [
        {
          "str1": "TWO CONTRA WAY",
          "str2": null,
          "city": "MERRIMACK",
          "state": 31,
          "stateSpecified": true,
          "cntry": "United States",
          "postlCd": "03054"
        }
      ],
      "orgNm": "STRATEGIC ADVISERS, INC.",
      "orgPK": "104555",
      "str1": "245 SUMMER STREET, V10G",
      "str2": null,
      "city": "BOSTON",
      "state": 20,
      "stateSpecified": true,
      "cntry": "United States",
      "postlCd": "02210"
    }
  ],
  "Exms": [
    {
      "exmCd": 0,
      "exmNm": "Uniform Securities Agent State Law Examination",
      "exmDt": "2002-02-06T00:00:00",
      "exmDtSpecified": true
    },
    {
      "exmCd": 3,
      "exmNm": "Uniform Combined State Law Examination",
      "exmDt": "2007-06-13T00:00:00",
      "exmDtSpecified": true
    }
  ],
  "Dsgntns": [],
  "PrevRgstns": [],
  "EmpHss": [
    {
      "fromDt": "08/2005",
      "toDt": null,
      "orgNm": "FIDELITY INVESTMENTS LLC.",
      "city": "MERRIMACK",
      "state": 31,
      "stateSpecified": true
    }
  ],
  "OthrBuss": {
    "OthrBus": {
      "desc": "OAA#: 7928 | ORG NAME:MERRIMACK COUNTY DIVERSION CENTER | ORG ADDR:CONCORD, NH, US | NATURE OF BUS:DIVERSION PROGRAM | INVST REL:N | TITLE:INSTRUCTOR | DUTIES:TEACHLIFE SKILLS CLASSES. TOPICS INCLUDE FINANCIAL PLANNING BASICS AND TAX PREPERATION CLASSES. | START DT:04/20/2010 | TOTAL HRS P/M:2 | SEC TRDNG HRS P/M:0"
    }
  },
  "DRPs": []
}