{
  "Info": {
    "lastNm": "MOSCHETTA",
    "firstNm": "MICHAEL",
    "midNm": "DAVID",
    "sufNm": null,
    "indvlPK": "4415528",
    "actvAGReg": 0,
    "link": "http://www.adviserinfo.sec.gov/IAPD/Individual/4415528"
  },
  "OthrNms": [],
  "CrntEmps": [
    {
      "CrntRgstns": [
        {
          "regAuth": 36,
          "regCat": 0,
          "st": 2,
          "stDt": "2012-02-01T00:00:00"
        },
        {
          "regAuth": 15,
          "regCat": 0,
          "st": 2,
          "stDt": "2014-12-26T00:00:00"
        }
      ],
      "BrnchOfLocs": [
        {
          "str1": null,
          "str2": null,
          "city": "POWELL",
          "state": 36,
          "stateSpecified": true,
          "cntry": "United States",
          "postlCd": null
        },
        {
          "str1": "190 SOUTH LASALLE STREET",
          "str2": "23RD & 24TH & 27TH  FLOOR",
          "city": "CHICAGO",
          "state": 15,
          "stateSpecified": true,
          "cntry": "United States",
          "postlCd": "60603"
        }
      ],
      "orgNm": "NEUBERGER BERMAN LLC",
      "orgPK": "2908",
      "str1": "605 THIRD AVENUE",
      "str2": null,
      "city": "NEW YORK",
      "state": 35,
      "stateSpecified": true,
      "cntry": "United States",
      "postlCd": "10158"
    }
  ],
  "Exms": [
    {
      "exmCd": 0,
      "exmNm": "Uniform Securities Agent State Law Examination",
      "exmDt": "2003-09-05T00:00:00",
      "exmDtSpecified": true
    },
    {
      "exmCd": 2,
      "exmNm": "Uniform Investment Adviser Law Examination",
      "exmDt": "2012-01-31T00:00:00",
      "exmDtSpecified": true
    }
  ],
  "Dsgntns": [],
  "PrevRgstns": [],
  "EmpHss": [
    {
      "fromDt": "06/2001",
      "toDt": "06/2007",
      "orgNm": "NATIONWIDE INVESTMENT SERVICES CORPORATION",
      "city": "COLUMBUS",
      "state": 36,
      "stateSpecified": true
    },
    {
      "fromDt": "06/2007",
      "toDt": "02/2008",
      "orgNm": "MFS FUND DISTRIBUTORS, INC.",
      "city": "BOSTON",
      "state": 20,
      "stateSpecified": true
    },
    {
      "fromDt": "02/2008",
      "toDt": "09/2008",
      "orgNm": "HARTFORD SECURITIES DISTRIBUTION COMPANY, INC.",
      "city": "NORTH ANDOVER",
      "state": 20,
      "stateSpecified": true
    },
    {
      "fromDt": "09/2008",
      "toDt": null,
      "orgNm": "NEUBERGER BERMAN MANAGEMENT LLC",
      "city": "CHICAGO",
      "state": 15,
      "stateSpecified": true
    },
    {
      "fromDt": "03/2011",
      "toDt": null,
      "orgNm": "NEUBERGER BERMAN LLC",
      "city": "CHICAGO",
      "state": 15,
      "stateSpecified": true
    }
  ],
  "OthrBuss": {
    "OthrBus": null
  },
  "DRPs": []
}