{
  "Info": {
    "lastNm": "WRIGHT",
    "firstNm": "TIMOTHY",
    "midNm": "GEORGE",
    "sufNm": null,
    "indvlPK": "4421340",
    "actvAGReg": 0,
    "link": "http://www.adviserinfo.sec.gov/IAPD/Individual/4421340"
  },
  "OthrNms": [],
  "CrntEmps": [
    {
      "CrntRgstns": [
        {
          "regAuth": 46,
          "regCat": 0,
          "st": 2,
          "stDt": "2015-09-29T00:00:00"
        }
      ],
      "BrnchOfLocs": [
        {
          "str1": "299 S MAIN ST 2ND FL STE 200",
          "str2": "[ME-RBO]",
          "city": "SALT LAKE CITY",
          "state": 46,
          "stateSpecified": true,
          "cntry": "United States",
          "postlCd": "84111"
        },
        {
          "str1": "3889 CAMPUS DRIVE",
          "str2": null,
          "city": "WEST JORDAN",
          "state": 46,
          "stateSpecified": true,
          "cntry": "United States",
          "postlCd": "84084"
        }
      ],
      "orgNm": "WELLS FARGO ADVISORS, LLC",
      "orgPK": "19616",
      "str1": "ONE NORTH JEFFERSON AVENUE",
      "str2": "MAIL CODE: H0004-050",
      "city": "ST. LOUIS",
      "state": 25,
      "stateSpecified": true,
      "cntry": "United States",
      "postlCd": "63103-2205"
    }
  ],
  "Exms": [
    {
      "exmCd": 0,
      "exmNm": "Uniform Securities Agent State Law Examination",
      "exmDt": "2009-11-17T00:00:00",
      "exmDtSpecified": true
    },
    {
      "exmCd": 2,
      "exmNm": "Uniform Investment Adviser Law Examination",
      "exmDt": "2011-09-13T00:00:00",
      "exmDtSpecified": true
    }
  ],
  "Dsgntns": [],
  "PrevRgstns": [
    {
      "BrnchOfLocs": [
        {
          "city": "AKRON",
          "state": 36,
          "stateSpecified": true
        },
        {
          "city": "AKRON",
          "state": 36,
          "stateSpecified": true
        },
        {
          "city": "AKRON",
          "state": 36,
          "stateSpecified": true
        },
        {
          "city": "AKRON",
          "state": 36,
          "stateSpecified": true
        },
        {
          "city": "AKRON",
          "state": 36,
          "stateSpecified": true
        }
      ],
      "orgNm": "PNC INVESTMENTS",
      "orgPK": "129052",
      "regBeginDt": "2011-08-01T00:00:00",
      "regBeginDtSpecified": true,
      "regEndDt": "2011-10-24T00:00:00",
      "regEndDtSpecified": true
    },
    {
      "BrnchOfLocs": [
        {
          "city": "ALLIANCE",
          "state": 36,
          "stateSpecified": true
        }
      ],
      "orgNm": "CHASE INVESTMENT SERVICES CORP.",
      "orgPK": "25574",
      "regBeginDt": "2011-11-09T00:00:00",
      "regBeginDtSpecified": true,
      "regEndDt": "2012-10-01T00:00:00",
      "regEndDtSpecified": true
    },
    {
      "BrnchOfLocs": [
        {
          "city": "ALLIANCE",
          "state": 36,
          "stateSpecified": true
        },
        {
          "city": "ALLIANCE",
          "state": 36,
          "stateSpecified": true
        }
      ],
      "orgNm": "J.P. MORGAN SECURITIES LLC",
      "orgPK": "79",
      "regBeginDt": "2012-10-01T00:00:00",
      "regBeginDtSpecified": true,
      "regEndDt": "2015-10-07T00:00:00",
      "regEndDtSpecified": true
    }
  ],
  "EmpHss": [
    {
      "fromDt": "07/2005",
      "toDt": "10/2006",
      "orgNm": "CHASE INVESTMENT SERVICES CORP.",
      "city": "CHICAGO",
      "state": 15,
      "stateSpecified": true
    },
    {
      "fromDt": "10/2006",
      "toDt": "07/2011",
      "orgNm": "KEY BANK",
      "city": "LOUISVILLE",
      "state": 36,
      "stateSpecified": true
    },
    {
      "fromDt": "12/2006",
      "toDt": "07/2011",
      "orgNm": "KEY INVESTMENT SERVICES LLC",
      "city": "CANTON",
      "state": 36,
      "stateSpecified": true
    },
    {
      "fromDt": "07/2011",
      "toDt": "10/2011",
      "orgNm": "PNC INVESTMENTS LLC",
      "city": "AKRON",
      "state": 36,
      "stateSpecified": true
    },
    {
      "fromDt": "10/2011",
      "toDt": "10/2012",
      "orgNm": "CHASE INVESTMENT SERVICES CORP.",
      "city": "ALLIANCE",
      "state": 36,
      "stateSpecified": true
    },
    {
      "fromDt": "10/2012",
      "toDt": "09/2015",
      "orgNm": "J.P. MORGAN SECURITIES LLC",
      "city": "ALLIANCE",
      "state": 36,
      "stateSpecified": true
    },
    {
      "fromDt": "09/2015",
      "toDt": null,
      "orgNm": "WELLS FARGO ADVISORS, LLC",
      "city": "SALT LAKE CITY",
      "state": 46,
      "stateSpecified": true
    }
  ],
  "OthrBuss": {
    "OthrBus": null
  },
  "DRPs": []
}