{
  "Info": {
    "lastNm": "HANSON",
    "firstNm": "JAMIN",
    "midNm": "S.",
    "sufNm": null,
    "indvlPK": "4426407",
    "actvAGReg": 0,
    "link": "http://www.adviserinfo.sec.gov/IAPD/Individual/4426407"
  },
  "OthrNms": [
    {
      "lastNm": "HANSON",
      "firstNm": "JAMIN",
      "midNm": "S.",
      "sufNm": null
    },
    {
      "lastNm": "HANSON",
      "firstNm": "JAMIN S.",
      "midNm": "S.",
      "sufNm": null
    }
  ],
  "CrntEmps": [
    {
      "CrntRgstns": [
        {
          "regAuth": 30,
          "regCat": 0,
          "st": 2,
          "stDt": "2008-12-10T00:00:00"
        },
        {
          "regAuth": 45,
          "regCat": 0,
          "st": 3,
          "stDt": "2014-10-21T00:00:00"
        }
      ],
      "BrnchOfLocs": [
        {
          "str1": "ONE VALMONT PLAZA; SUITE 300",
          "str2": null,
          "city": "OMAHA",
          "state": 30,
          "stateSpecified": true,
          "cntry": "United States",
          "postlCd": "68154-5220"
        }
      ],
      "orgNm": "UBS FINANCIAL SERVICES INC.",
      "orgPK": "8174",
      "str1": "1200 HARBOR BOULEVARD",
      "str2": null,
      "city": "WEEHAWKEN",
      "state": 32,
      "stateSpecified": true,
      "cntry": "United States",
      "postlCd": "07086"
    }
  ],
  "Exms": [
    {
      "exmCd": 3,
      "exmNm": "Uniform Combined State Law Examination",
      "exmDt": "2001-09-27T00:00:00",
      "exmDtSpecified": true
    },
    {
      "exmCd": 2,
      "exmNm": "Uniform Investment Adviser Law Examination",
      "exmDt": "2004-11-16T00:00:00",
      "exmDtSpecified": true
    }
  ],
  "Dsgntns": [],
  "PrevRgstns": [
    {
      "BrnchOfLocs": [
        {
          "city": "OMAHA",
          "state": 30,
          "stateSpecified": true
        },
        {
          "city": "OMAHA",
          "state": 30,
          "stateSpecified": true
        }
      ],
      "orgNm": "MERRILL LYNCH, PIERCE, FENNER & SMITH INCORPORATED",
      "orgPK": "7691",
      "regBeginDt": "2001-11-14T00:00:00",
      "regBeginDtSpecified": true,
      "regEndDt": "2008-12-10T00:00:00",
      "regEndDtSpecified": true
    }
  ],
  "EmpHss": [
    {
      "fromDt": "07/2001",
      "toDt": "12/2008",
      "orgNm": "MERRILL LYNCH",
      "city": "OMAHA",
      "state": 30,
      "stateSpecified": true
    },
    {
      "fromDt": "12/2008",
      "toDt": null,
      "orgNm": "UBS FINANCIAL SERVICES INC",
      "city": "OMAHA",
      "state": 30,
      "stateSpecified": true
    }
  ],
  "OthrBuss": {
    "OthrBus": null
  },
  "DRPs": []
}