{
  "Info": {
    "lastNm": "HEIER",
    "firstNm": "CONNIE",
    "midNm": "LYNN",
    "sufNm": null,
    "indvlPK": "4428370",
    "actvAGReg": 0,
    "link": "http://www.adviserinfo.sec.gov/IAPD/Individual/4428370"
  },
  "OthrNms": [],
  "CrntEmps": [
    {
      "CrntRgstns": [
        {
          "regAuth": 15,
          "regCat": 0,
          "st": 2,
          "stDt": "2004-10-22T00:00:00"
        },
        {
          "regAuth": 45,
          "regCat": 0,
          "st": 2,
          "stDt": "2010-02-17T00:00:00"
        },
        {
          "regAuth": 19,
          "regCat": 0,
          "st": 2,
          "stDt": "2012-04-16T00:00:00"
        }
      ],
      "BrnchOfLocs": [
        {
          "str1": "901 WARRENVILLE ROAD",
          "str2": "SUITE 205",
          "city": "LISLE",
          "state": 15,
          "stateSpecified": true,
          "cntry": "United States",
          "postlCd": "60532"
        }
      ],
      "orgNm": "MOSER & HEIER FINANCIAL SOLUTIONS",
      "orgPK": "123726",
      "str1": "901 WARRENVILLE ROAD SUITE 100",
      "str2": null,
      "city": "LISLE",
      "state": 15,
      "stateSpecified": true,
      "cntry": "United States",
      "postlCd": "60532"
    }
  ],
  "Exms": [
    {
      "exmCd": 3,
      "exmNm": "Uniform Combined State Law Examination",
      "exmDt": "2001-08-14T00:00:00",
      "exmDtSpecified": true
    }
  ],
  "Dsgntns": [
    {
      "dsgntnNm": "Certified Financial Planner"
    }
  ],
  "PrevRgstns": [],
  "EmpHss": [
    {
      "fromDt": "10/1998",
      "toDt": null,
      "orgNm": "ROYAL ALLIANCE ASSOCIATES, INC.",
      "city": "ROSEVILLE",
      "state": 24,
      "stateSpecified": true
    },
    {
      "fromDt": "09/2004",
      "toDt": "09/2008",
      "orgNm": "BENSON FINANCIAL GROUP, INC.",
      "city": "LISLE",
      "state": 15,
      "stateSpecified": true
    },
    {
      "fromDt": "11/2005",
      "toDt": null,
      "orgNm": "MOSER & HEIER CPA INC.",
      "city": "LISLE",
      "state": 15,
      "stateSpecified": true
    },
    {
      "fromDt": "09/2008",
      "toDt": null,
      "orgNm": "MOSER & HEIER FINANCIAL SOLUTIONS",
      "city": "LISLE",
      "state": 15,
      "stateSpecified": true
    }
  ],
  "OthrBuss": {
    "OthrBus": {
      "desc": "MOSER & HEIER CPA, INC. DBA MOSER & HEIER FINANCIAL SOLUTIONS CORPORATE OFFICER 901 WARRENVILLE RD, STE 205 LISLE, IL 60532 630-322-9160 INVESTMENT ADVISORY SERVICES REGISTERED INVESTMENT ADVISOR TAX AND ACCOUNTING SERVICES LIFE INSURANCE, LONG-TERM CARE INSURANCE, FIXED ANNUITY SALES  DATE INCORPORATED: 11/18/2005 AMOUNT OF TIME SPENT ON ABOVE BUSINESS: 90%."
    }
  },
  "DRPs": []
}