{
  "Info": {
    "lastNm": "SAVOLAINEN",
    "firstNm": "NAOMI",
    "midNm": "MARIE",
    "sufNm": null,
    "indvlPK": "4430796",
    "actvAGReg": 0,
    "link": "http://www.adviserinfo.sec.gov/IAPD/Individual/4430796"
  },
  "OthrNms": [],
  "CrntEmps": [
    {
      "CrntRgstns": [
        {
          "regAuth": 24,
          "regCat": 0,
          "st": 2,
          "stDt": "2015-09-03T00:00:00"
        }
      ],
      "BrnchOfLocs": [
        {
          "str1": "60 LIVINGSTON AVENUE",
          "str2": null,
          "city": "SAINT PAUL",
          "state": 24,
          "stateSpecified": true,
          "cntry": "United States",
          "postlCd": "55107"
        }
      ],
      "orgNm": "U.S. BANCORP INVESTMENTS, INC.",
      "orgPK": "17868",
      "str1": "60 LIVINGSTON AVENUE",
      "str2": "EP-MN-WN3C",
      "city": "SAINT PAUL",
      "state": 24,
      "stateSpecified": true,
      "cntry": "United States",
      "postlCd": "55107"
    }
  ],
  "Exms": [
    {
      "exmCd": 0,
      "exmNm": "Uniform Securities Agent State Law Examination",
      "exmDt": "2005-08-24T00:00:00",
      "exmDtSpecified": true
    },
    {
      "exmCd": 2,
      "exmNm": "Uniform Investment Adviser Law Examination",
      "exmDt": "2015-09-03T00:00:00",
      "exmDtSpecified": true
    }
  ],
  "Dsgntns": [],
  "PrevRgstns": [],
  "EmpHss": [
    {
      "fromDt": "04/2000",
      "toDt": "10/2009",
      "orgNm": "WELLS FARGO INVESTMENTS LLC",
      "city": "MINNEAPOLIS",
      "state": 24,
      "stateSpecified": true
    },
    {
      "fromDt": "10/2009",
      "toDt": "01/2011",
      "orgNm": "WELLS FARGO INVESTMENTS LLC",
      "city": "MINNEAPOLIS",
      "state": 24,
      "stateSpecified": true
    },
    {
      "fromDt": "01/2011",
      "toDt": "10/2011",
      "orgNm": "WELLS FARGO ADVISORS LLC",
      "city": "MINNEAPOLIS",
      "state": 24,
      "stateSpecified": true
    },
    {
      "fromDt": "10/2011",
      "toDt": "01/2012",
      "orgNm": "WELLS FARGO ADVISORS, LLC",
      "city": "MINNEAPOLIS",
      "state": 24,
      "stateSpecified": true
    },
    {
      "fromDt": "01/2012",
      "toDt": "06/2012",
      "orgNm": "FIRST CLEARING, LLC",
      "city": "MINNEAPOLIS",
      "state": 24,
      "stateSpecified": true
    },
    {
      "fromDt": "06/2012",
      "toDt": "07/2013",
      "orgNm": "WELLS FARGO SHARE-OWNER SERVICES",
      "city": "MENDOTA HEIGHTS",
      "state": 24,
      "stateSpecified": true
    },
    {
      "fromDt": "07/2013",
      "toDt": "09/2013",
      "orgNm": "WELLS FARGO ADVISORS, LLC",
      "city": "MINNEAPOLIS",
      "state": 24,
      "stateSpecified": true
    },
    {
      "fromDt": "10/2013",
      "toDt": null,
      "orgNm": "U.S. BANCORP INVESTMENTS, INC.",
      "city": "ST. PAUL",
      "state": 24,
      "stateSpecified": true
    }
  ],
  "OthrBuss": {
    "OthrBus": {
      "desc": "MIMIOMI JEWELERY; NOT I/R; ST. PAUL, MN; JEWELRY DESIGN AND FABRICATION; OWNER; 07/01/2004; 32 HRS/MTH; 0 HRS/TRADING; DESIGN, FABRICATE AND SELL JEWELRY."
    }
  },
  "DRPs": []
}