{
  "Info": {
    "lastNm": "Virgil",
    "firstNm": "Chadwick",
    "midNm": "Douglas",
    "sufNm": null,
    "indvlPK": "4434664",
    "actvAGReg": 0,
    "link": "http://www.adviserinfo.sec.gov/IAPD/Individual/4434664"
  },
  "OthrNms": [
    {
      "lastNm": "VIRGIL",
      "firstNm": "CHADWICK",
      "midNm": "DOUGLAS",
      "sufNm": null
    }
  ],
  "CrntEmps": [
    {
      "CrntRgstns": [
        {
          "regAuth": 28,
          "regCat": 0,
          "st": 2,
          "stDt": "2006-10-03T00:00:00"
        }
      ],
      "BrnchOfLocs": [
        {
          "str1": "630 EAST ST SUITE 2",
          "str2": null,
          "city": "PITTSBORO",
          "state": 28,
          "stateSpecified": true,
          "cntry": "United States",
          "postlCd": "27312"
        }
      ],
      "orgNm": "EDWARD JONES",
      "orgPK": "250",
      "str1": "12555 MANCHESTER RD",
      "str2": null,
      "city": "ST. LOUIS",
      "state": 25,
      "stateSpecified": true,
      "cntry": "United States",
      "postlCd": "63131"
    }
  ],
  "Exms": [
    {
      "exmCd": 0,
      "exmNm": "Uniform Securities Agent State Law Examination",
      "exmDt": "2001-09-27T00:00:00",
      "exmDtSpecified": true
    }
  ],
  "Dsgntns": [
    {
      "dsgntnNm": "Certified Financial Planner"
    }
  ],
  "PrevRgstns": [],
  "EmpHss": [
    {
      "fromDt": "07/2001",
      "toDt": null,
      "orgNm": "EDWARD JONES",
      "city": "ST. LOUIS",
      "state": 25,
      "stateSpecified": true
    }
  ],
  "OthrBuss": {
    "OthrBus": {
      "desc": "EASTWICK FARMS FARM  MONCURE, NC  START DATE: 8/1/2007  CO OWNER  HOURS PER MONTH: 14  HOURS DURING TRADING: 0  ANIMAL CARE AND COLLECTION OF PRODUCE.      CHATHAM STOCK AND RANGE  AGRICULTURAL HOLDING COMPANY  MONCURE, NC  START DATE: 1/1/2014  MEMBER/MINORITY OWNER  HOURS PER MONTH: 1  HOURS DURING TRADING: 0  MANAGE A HOLDING COMPANY FOR AGRICULTURAL INVESTMENTS INCLUDING LIVESTOCK, TIMBER, CROPS, AND OTHER FARM PRODUCTS.    CENTRAL CAROLINA COMMUNITY COLLEGE  COLLEGE  PITTSBORO, NC  START DATE: 1/1/2015  COMMUNITY ED INSTRUCTOR  HOURS PER MONTH: 2  HOURS DURING TRADING: 0  TEACH A 16 HOUR COMMUNITY ED CLASS ABOUT PERSONAL FINANCE EVERY SEMESTER."
    }
  },
  "DRPs": [
    {
      "hasRegAction": 1,
      "hasRegActionSpecified": true,
      "hasCriminal": 1,
      "hasCriminalSpecified": true,
      "hasBankrupt": 1,
      "hasBankruptSpecified": true,
      "hasCivilJudc": 1,
      "hasCivilJudcSpecified": true,
      "hasBond": 1,
      "hasBondSpecified": true,
      "hasJudgment": 1,
      "hasJudgmentSpecified": true,
      "hasInvstgn": 1,
      "hasInvstgnSpecified": true,
      "hasCustComp": 0,
      "hasCustCompSpecified": true,
      "hasTermination": 1,
      "hasTerminationSpecified": true
    }
  ]
}