{
  "Info": {
    "lastNm": "METZGER",
    "firstNm": "CURTIS",
    "midNm": "EVAN",
    "sufNm": null,
    "indvlPK": "4436662",
    "actvAGReg": 0,
    "link": "http://www.adviserinfo.sec.gov/IAPD/Individual/4436662"
  },
  "OthrNms": [],
  "CrntEmps": [
    {
      "CrntRgstns": [
        {
          "regAuth": 18,
          "regCat": 0,
          "st": 2,
          "stDt": "2012-05-04T00:00:00"
        },
        {
          "regAuth": 45,
          "regCat": 0,
          "st": 2,
          "stDt": "2012-05-04T00:00:00"
        }
      ],
      "BrnchOfLocs": [
        {
          "str1": "100 HOWE DRIVE",
          "str2": null,
          "city": "COVINGTON",
          "state": 18,
          "stateSpecified": true,
          "cntry": "United States",
          "postlCd": "41015"
        }
      ],
      "orgNm": "STRATEGIC ADVISERS, INC.",
      "orgPK": "104555",
      "str1": "245 SUMMER STREET, V10G",
      "str2": null,
      "city": "BOSTON",
      "state": 20,
      "stateSpecified": true,
      "cntry": "United States",
      "postlCd": "02210"
    }
  ],
  "Exms": [
    {
      "exmCd": 0,
      "exmNm": "Uniform Securities Agent State Law Examination",
      "exmDt": "2001-11-28T00:00:00",
      "exmDtSpecified": true
    },
    {
      "exmCd": 3,
      "exmNm": "Uniform Combined State Law Examination",
      "exmDt": "2012-05-03T00:00:00",
      "exmDtSpecified": true
    }
  ],
  "Dsgntns": [],
  "PrevRgstns": [],
  "EmpHss": [
    {
      "fromDt": "10/2000",
      "toDt": null,
      "orgNm": "FIDELITY INVESTMENTS",
      "city": "CINCINNATI",
      "state": 36,
      "stateSpecified": true
    }
  ],
  "OthrBuss": {
    "OthrBus": {
      "desc": "OAA#: 1830 | ORG NAME:METZGER EQUIPMENT LLC | ORG ADDR:CINCINNATI, OH, US | NATURE OF BUS:FIRE SUPPRESSION AND RELATED EQUIPMENT | INVST REL:N | TITLE:FIRE SUPPRESSION MARKETING AND DEMO | DUTIES:MAINLY MANUAL LABOR | START DT:01/01/2009 | TOTAL HRS P/M:5 | SEC TRDNG HRS P/M:0"
    }
  },
  "DRPs": []
}