{
  "Info": {
    "lastNm": "BENNETT",
    "firstNm": "TROY",
    "midNm": "J",
    "sufNm": null,
    "indvlPK": "4437705",
    "actvAGReg": 0,
    "link": "http://www.adviserinfo.sec.gov/IAPD/Individual/4437705"
  },
  "OthrNms": [],
  "CrntEmps": [
    {
      "CrntRgstns": [
        {
          "regAuth": 38,
          "regCat": 0,
          "st": 2,
          "stDt": "2010-05-24T00:00:00"
        }
      ],
      "BrnchOfLocs": [
        {
          "str1": "1150 CRATER LAKE AVENUE, SUITE K",
          "str2": null,
          "city": "MEDFORD",
          "state": 38,
          "stateSpecified": true,
          "cntry": "United States",
          "postlCd": "97504"
        },
        {
          "str1": "12671 HIGH BLUFF DR",
          "str2": "SUITE 200",
          "city": "SAN DIEGO",
          "state": 4,
          "stateSpecified": true,
          "cntry": "United States",
          "postlCd": "92130"
        },
        {
          "str1": "12671 HIGH BLUFF DRIVE",
          "str2": "SUITE 200",
          "city": "SAN DIEGO",
          "state": 4,
          "stateSpecified": true,
          "cntry": "UNITED STATES",
          "postlCd": "92130"
        }
      ],
      "orgNm": "INDEPENDENT FINANCIAL GROUP, LLC",
      "orgPK": "7717",
      "str1": "12671 HIGH BLUFF DR",
      "str2": "SUITE 200",
      "city": "SAN DIEGO",
      "state": 4,
      "stateSpecified": true,
      "cntry": "United States",
      "postlCd": "92130"
    }
  ],
  "Exms": [
    {
      "exmCd": 0,
      "exmNm": "Uniform Securities Agent State Law Examination",
      "exmDt": "2001-08-16T00:00:00",
      "exmDtSpecified": true
    },
    {
      "exmCd": 2,
      "exmNm": "Uniform Investment Adviser Law Examination",
      "exmDt": "2004-02-12T00:00:00",
      "exmDtSpecified": true
    }
  ],
  "Dsgntns": [],
  "PrevRgstns": [
    {
      "BrnchOfLocs": [
        {
          "city": "MEDFORD",
          "state": 38,
          "stateSpecified": true
        },
        {
          "city": "MEDFORD",
          "state": 38,
          "stateSpecified": true
        }
      ],
      "orgNm": "CARILLON INVESTMENTS, INC.",
      "orgPK": "14646",
      "regBeginDt": "2004-03-01T00:00:00",
      "regBeginDtSpecified": true,
      "regEndDt": "2006-06-30T00:00:00",
      "regEndDtSpecified": true
    },
    {
      "BrnchOfLocs": [
        {
          "city": "MEDFORD",
          "state": 38,
          "stateSpecified": true
        }
      ],
      "orgNm": "AMERITAS INVESTMENT CORP.",
      "orgPK": "14869",
      "regBeginDt": "2006-06-30T00:00:00",
      "regBeginDtSpecified": true,
      "regEndDt": "2010-06-16T00:00:00",
      "regEndDtSpecified": true
    }
  ],
  "EmpHss": [
    {
      "fromDt": "03/2001",
      "toDt": "03/2011",
      "orgNm": "INTEGRITY BUSINESS LOANS",
      "city": "MEDFORD",
      "state": 38,
      "stateSpecified": true
    },
    {
      "fromDt": "10/2003",
      "toDt": "05/2010",
      "orgNm": "CARILLON INVESTMENTS, INC.",
      "city": "MEDFORD",
      "state": 38,
      "stateSpecified": true
    },
    {
      "fromDt": "06/2006",
      "toDt": "05/2010",
      "orgNm": "AMERITAS INVESTMENT CORP.",
      "city": "MEDFORD",
      "state": 38,
      "stateSpecified": true
    },
    {
      "fromDt": "05/2010",
      "toDt": null,
      "orgNm": "INDEPENDENT FINANCIAL GROUP",
      "city": "SAN DIEGO",
      "state": 4,
      "stateSpecified": true
    }
  ],
  "OthrBuss": {
    "OthrBus": null
  },
  "DRPs": []
}