{
  "Info": {
    "lastNm": "HOFFMAN",
    "firstNm": "DONALD",
    "midNm": "NATHAN",
    "sufNm": null,
    "indvlPK": "4445738",
    "actvAGReg": 0,
    "link": "http://www.adviserinfo.sec.gov/IAPD/Individual/4445738"
  },
  "OthrNms": [],
  "CrntEmps": [
    {
      "CrntRgstns": [
        {
          "regAuth": 21,
          "regCat": 0,
          "st": 2,
          "stDt": "2005-03-02T00:00:00"
        }
      ],
      "BrnchOfLocs": [
        {
          "str1": "800 RED BROOK BOULEVARD",
          "str2": "SUITE 300",
          "city": "OWINGS MILLS",
          "state": 21,
          "stateSpecified": true,
          "cntry": "United States",
          "postlCd": "21117"
        }
      ],
      "orgNm": "THE PROSPERITY CONSULTING GROUP, LLC",
      "orgPK": "133777",
      "str1": "800 RED BROOK BOULEVARD",
      "str2": "SUITE 300",
      "city": "OWINGS MILLS",
      "state": 21,
      "stateSpecified": true,
      "cntry": "United States",
      "postlCd": "21117"
    }
  ],
  "Exms": [
    {
      "exmCd": 3,
      "exmNm": "Uniform Combined State Law Examination",
      "exmDt": "2001-12-20T00:00:00",
      "exmDtSpecified": true
    }
  ],
  "Dsgntns": [],
  "PrevRgstns": [
    {
      "BrnchOfLocs": [
        {
          "city": "OWINGS MILLS",
          "state": 21,
          "stateSpecified": true
        }
      ],
      "orgNm": "LEGG MASON WOOD WALKER, INCORPORATED",
      "orgPK": "6555",
      "regBeginDt": "2002-02-04T00:00:00",
      "regBeginDtSpecified": true,
      "regEndDt": "2004-12-31T00:00:00",
      "regEndDtSpecified": true
    },
    {
      "BrnchOfLocs": [
        {
          "city": "OWINGS MILLS",
          "state": 21,
          "stateSpecified": true
        },
        {
          "city": "OWINGS MILLS",
          "state": 21,
          "stateSpecified": true
        }
      ],
      "orgNm": "1ST GLOBAL ADVISORS INC",
      "orgPK": "111133",
      "regBeginDt": "2005-01-05T00:00:00",
      "regBeginDtSpecified": true,
      "regEndDt": "2011-12-19T00:00:00",
      "regEndDtSpecified": true
    }
  ],
  "EmpHss": [
    {
      "fromDt": "04/1980",
      "toDt": null,
      "orgNm": "HERTZBACH & COMPANY, P.A.",
      "city": "OWINGS MILLS",
      "state": 21,
      "stateSpecified": true
    },
    {
      "fromDt": "01/2000",
      "toDt": null,
      "orgNm": "THE PROSPERITY CONSULTING GROUP, LLC",
      "city": "OWINGS MILLS",
      "state": 21,
      "stateSpecified": true
    },
    {
      "fromDt": "01/2005",
      "toDt": "12/2011",
      "orgNm": "1ST GLOBAL CAPITAL CORP",
      "city": "OWINGS MILLS",
      "state": 21,
      "stateSpecified": true
    },
    {
      "fromDt": "03/2006",
      "toDt": "12/2011",
      "orgNm": "1ST GLOBAL INSURANCE SERVICES, INC.",
      "city": "OWINGS MILLS",
      "state": 21,
      "stateSpecified": true
    },
    {
      "fromDt": "12/2011",
      "toDt": null,
      "orgNm": "TRIAD ADVISORS INC",
      "city": "NORCROSS",
      "state": 10,
      "stateSpecified": true
    }
  ],
  "OthrBuss": {
    "OthrBus": {
      "desc": "1. THE PROSPERITY CONSULTING GROUP LLC; INVESTMENT RELATED; 800 RED BROOK BLVD SUITE 300 OWINGS MILLS MD 21117; FINANCIAL PLANNING, ASSET MANAGEMENT, ESTATE PLANNING; PRESIDENT/OWNER; 01/2000' 15-20 HRS/MONTH; 7 HRS/WEEK; OVERSEE AND MEET WITH CLIENT AND COMPANY EMPLOYEES    2.JOSEPH W CAMAC IRREVOCABLE TRUST; NOT INVESTMENT RELATED; 800 RED BROOK BLVD., SUITE 300 OWINGS MILLS, MD 21117; TRUSTEE; NOT A BUSINESS; .001 HURS/MONTH; ANNUALLY PREPARE & MAIL CRUMMY LETTERS TO BENEFICIARIES. ANNUALLY WRITE CHECK FOR INSURANCE PAYMENT;     3. CHILCOAT FAMILY INSURANCE TRUST; NOT INVESTMENT RELATED 800 RED BROOK BLVD SUITE 300 OWINGS MILLS MD 21117; TRUSTEE; NOT A BUSINESS; .001 HOURS; ANNUALLY PREPARE AND MAIL CRUMMY LETTERS TO BENEFICIARIES. ANNUALLY WRITE CHECK FOR INSURANCE PAYMENT    4. JACKSON S HADEN IRREVOCABLE TRUST; NOT INVESTMENT REALTED; 800 RED BROOK BLVD SUITE 300 OWINGS MILLS MD 21117; TRUSTEE; NOT A BUSINESS; .001 HRS/MONTH; ANNUALL PREPARE AND MAIL CRUMMY LETTERS TO BENEFICIARIES. ANNUALLY WRITE CHECK FOR INSURANCE PAYMENT    5. HERTZBACK & COMPANY, PA; NOT INVESTMENT RELATED; 800 RED BROOK BLVD SUITE 300 OWINGS MILLS MD 21117; CPA FIRM; STOCKHOLDER OFFICER; 04/1980; 30 HOURS/MONTH; 4 HOURS/DAY; SALARY; PARTNER - HANDLE CLIENT RELATIONSHIPS    6.  AMERICAN CONTINENTAL MORTGAGE; NOT INVESTMENT RELATED 800 RED BROOK BLVD., SUITE 300, OWINGS MILLS, MD 21117; MORTGAGE LENDER; VICE PRESIDENT/SECRETARY; 1990; 2HRS/MNTH; DISTRIBUTIONS; ASSET MANAGEMENT PROCESSING    7. ACCESS TITLE LLC; NOT INVESTMENT RELATED; 800 RED BROOK BLVD., SUITE 300 OWINGS MILLS, MD 21117; TITLE COMPANY; INVESTOR/OWNER; 2002; 0HRS/MONTH; DISTRIBUTIONS;     8. TOPSTAGE LLC; NOT INVESTMENT RELATED; 7605 SANDIGAN DRIVE, FREDERICK, MD 21702; PIZZA, SODA SALES; MEMBER; 1993; 1 HR/MONTH; DISTRIBUTIONS; PROBLEM RESOLUTION    9. STAGHORN, LLC; NOT IVNESTMENT RELATED; 7605 SANDIGAN DRIVE, FREDERICK MD 21702; REAL ESTATE DEVELOP AND RENTAL; MEMBER; 1996; 1 HR/MONTH; NOT COMPENSATED; PROBLEM RESOLUTION    10.  RENTAL PROPERTIES; NOT IVNESTMENT RELATED; 800 RED BROOK BLVD SUITE 300 OWINGS MILLS MD 21117; BUY AND RENT REAL ESTATE; OWNER; 1990; 1-2HRS/MONTH; DISTRIBUTIONS; BROBLEM RESOLUTION    11. HIT SOLUTIONS LLC; NOT INVESTMENT RELATED; 800 RED BROOK BLV SUITE 300 OWINGS MILLS, MD 21117; SOFTWARE SUPPORT; MEMBER; APPROX 1998; 2 HRS/MONTH; NOT COMPENSATED; CONSULTING    12. PROCESS PROXY CORP; NOT INVESTMENT RELATED; 800 RED BROOK BLVD SUITE 300 OWINGS MILLS MD 21117; SOFTWARE SUPPORT; PASSIVE INVESTOR; APPROX 2000; 0HRS/MONTH; NOT COMPENSATED;     13.ACTIVITY BASED SYSTEMS, LLC; NOT INVESTMENT RELATED; 800 RED BROOK BLVD SUITE 300 OWINGS MILLS MD 21117; SOFTWARE; PASSIVE INVESTOR; APPROX 2000; O HRS/MONTH; NOT COMPENSATED;     14.INTELLICOST SYSTEMS; NOT IVNESTMENT RELATED; 800 RED BROOK BLVD SUITE 300 OWINGS MILLS MD 21117; SOFTWARE SUPPORT; PASSIVE IVNESTOR;  APPROX 2000; 0 HRS/MONTH; NOT COMPENSATED"
    }
  },
  "DRPs": []
}