{
  "Info": {
    "lastNm": "Kramer",
    "firstNm": "Aaron",
    "midNm": null,
    "sufNm": null,
    "indvlPK": "4445299",
    "actvAGReg": 0,
    "link": "http://www.adviserinfo.sec.gov/IAPD/Individual/4445299"
  },
  "OthrNms": [
    {
      "lastNm": "KRAMER",
      "firstNm": "AARON",
      "midNm": "RAYMOND",
      "sufNm": null
    }
  ],
  "CrntEmps": [
    {
      "CrntRgstns": [
        {
          "regAuth": 15,
          "regCat": 0,
          "st": 2,
          "stDt": "2015-11-13T00:00:00"
        }
      ],
      "BrnchOfLocs": [
        {
          "str1": "1116 DOUGLAS RD",
          "str2": null,
          "city": "OSWEGO",
          "state": 15,
          "stateSpecified": true,
          "cntry": "United States",
          "postlCd": "60543"
        }
      ],
      "orgNm": "EDWARD JONES",
      "orgPK": "250",
      "str1": "12555 MANCHESTER RD",
      "str2": null,
      "city": "ST. LOUIS",
      "state": 25,
      "stateSpecified": true,
      "cntry": "United States",
      "postlCd": "63131"
    }
  ],
  "Exms": [
    {
      "exmCd": 0,
      "exmNm": "Uniform Securities Agent State Law Examination",
      "exmDt": "2002-04-29T00:00:00",
      "exmDtSpecified": true
    },
    {
      "exmCd": 3,
      "exmNm": "Uniform Combined State Law Examination",
      "exmDt": "2015-09-19T00:00:00",
      "exmDtSpecified": true
    }
  ],
  "Dsgntns": [],
  "PrevRgstns": [],
  "EmpHss": [
    {
      "fromDt": "01/2003",
      "toDt": "05/2008",
      "orgNm": "NIPPON LIFE INSURANCE COMPANY OF AMERICA",
      "city": "CHICAGO",
      "state": 15,
      "stateSpecified": true
    },
    {
      "fromDt": "06/2008",
      "toDt": "07/2015",
      "orgNm": "CNO FINANCIAL GROUP",
      "city": "CARMEL",
      "state": 16,
      "stateSpecified": true
    },
    {
      "fromDt": "07/2015",
      "toDt": null,
      "orgNm": "EDWARD JONES",
      "city": "SAINT LOUIS",
      "state": 25,
      "stateSpecified": true
    }
  ],
  "OthrBuss": {
    "OthrBus": null
  },
  "DRPs": []
}