{
  "Info": {
    "lastNm": "STRATZ",
    "firstNm": "TIMOTHY",
    "midNm": "ROBERT",
    "sufNm": null,
    "indvlPK": "4445565",
    "actvAGReg": 0,
    "link": "http://www.adviserinfo.sec.gov/IAPD/Individual/4445565"
  },
  "OthrNms": [],
  "CrntEmps": [
    {
      "CrntRgstns": [
        {
          "regAuth": 4,
          "regCat": 0,
          "st": 2,
          "stDt": "2003-02-03T00:00:00"
        }
      ],
      "BrnchOfLocs": [
        {
          "str1": "180 SOUTH LAKE AVENUE",
          "str2": "SUITE 400",
          "city": "PASADENA",
          "state": 4,
          "stateSpecified": true,
          "cntry": "United States",
          "postlCd": "91101"
        }
      ],
      "orgNm": "LINCOLN FINANCIAL SECURITIES CORPORATION",
      "orgPK": "3870",
      "str1": "1300 SOUTH CLINTON STREET",
      "str2": null,
      "city": "FORT WAYNE",
      "state": 16,
      "stateSpecified": true,
      "cntry": "United States",
      "postlCd": "46802"
    }
  ],
  "Exms": [
    {
      "exmCd": 3,
      "exmNm": "Uniform Combined State Law Examination",
      "exmDt": "2001-11-15T00:00:00",
      "exmDtSpecified": true
    }
  ],
  "Dsgntns": [],
  "PrevRgstns": [],
  "EmpHss": [
    {
      "fromDt": "09/1995",
      "toDt": null,
      "orgNm": "STRATZ & COMP",
      "city": "PASADENA",
      "state": 4,
      "stateSpecified": true
    },
    {
      "fromDt": "09/2002",
      "toDt": "07/2008",
      "orgNm": "JEFFERSON PILOT SECURITIES CORPORATION",
      "city": "SOUTH PASADENA",
      "state": 4,
      "stateSpecified": true
    },
    {
      "fromDt": "07/2008",
      "toDt": null,
      "orgNm": "LINCOLN FINANCIAL SECURITIES CORPORATION",
      "city": "PASADENA",
      "state": 4,
      "stateSpecified": true
    }
  ],
  "OthrBuss": {
    "OthrBus": {
      "desc": "1) STRATZ & CO FINANCIAL SERVICES  180 SOUTH LAKE AVENUE, SUITE 400, PASADENA, CA  91101  CATEGORY: INSURANCE  INVESTMENT-RELATED: YES  TITLE: AGENT  DUTIES:  OFFERING LONG-TERM CARE INSURANCE, FIXED ANNUITIES, EQUITY INDEX ANNUITIES, TRADITIONAL LIFE INSURANCE AND DISABILITY INSURANCE.     START DATE: 9-1-2002  HOURS PER MONTH: 40  HOURS PER MONTH DURING TRADING HOURS: 40"
    }
  },
  "DRPs": []
}