{
  "Info": {
    "lastNm": "KING",
    "firstNm": "KENDALL",
    "midNm": "WAYNE",
    "sufNm": null,
    "indvlPK": "4449600",
    "actvAGReg": 1,
    "link": "http://www.adviserinfo.sec.gov/IAPD/Individual/4449600"
  },
  "OthrNms": [],
  "CrntEmps": [
    {
      "CrntRgstns": [
        {
          "regAuth": 37,
          "regCat": 0,
          "st": 2,
          "stDt": "2015-05-11T00:00:00"
        },
        {
          "regAuth": 45,
          "regCat": 0,
          "st": 2,
          "stDt": "2015-09-28T00:00:00"
        }
      ],
      "BrnchOfLocs": [
        {
          "str1": "229 NORTH BROADWAY",
          "str2": null,
          "city": "EDMOND",
          "state": 37,
          "stateSpecified": true,
          "cntry": "United States",
          "postlCd": "73034"
        }
      ],
      "orgNm": "CASTLEVIEW WEALTH ADVISORS",
      "orgPK": "205512",
      "str1": "229 NORTH BROADWAY",
      "str2": null,
      "city": "EDMOND",
      "state": 37,
      "stateSpecified": true,
      "cntry": "United States",
      "postlCd": "73034"
    }
  ],
  "Exms": [
    {
      "exmCd": 3,
      "exmNm": "Uniform Combined State Law Examination",
      "exmDt": "2002-06-20T00:00:00",
      "exmDtSpecified": true
    }
  ],
  "Dsgntns": [
    {
      "dsgntnNm": "Certified Financial Planner"
    }
  ],
  "PrevRgstns": [
    {
      "BrnchOfLocs": [
        {
          "city": "OKLAHOMA CITY",
          "state": 37,
          "stateSpecified": true
        }
      ],
      "orgNm": "UBS FINANCIAL SERVICES INC.",
      "orgPK": "8174",
      "regBeginDt": "2002-07-18T00:00:00",
      "regBeginDtSpecified": true,
      "regEndDt": "2003-08-28T00:00:00",
      "regEndDtSpecified": true
    },
    {
      "BrnchOfLocs": [
        {
          "city": "TULSA",
          "state": 37,
          "stateSpecified": true
        }
      ],
      "orgNm": "THE FINANCIAL & BUSINESS RESEARCH CORPORATION",
      "orgPK": "117434",
      "regBeginDt": "2003-11-18T00:00:00",
      "regBeginDtSpecified": true,
      "regEndDt": "2005-12-31T00:00:00",
      "regEndDtSpecified": true
    },
    {
      "BrnchOfLocs": [
        {
          "city": "TULSA",
          "state": 37,
          "stateSpecified": true
        }
      ],
      "orgNm": "THE LEGACY FINANCIAL GROUP, INC.",
      "orgPK": "135059",
      "regBeginDt": "2005-06-03T00:00:00",
      "regBeginDtSpecified": true,
      "regEndDt": "2015-07-07T00:00:00",
      "regEndDtSpecified": true
    }
  ],
  "EmpHss": [
    {
      "fromDt": "04/2005",
      "toDt": "07/2015",
      "orgNm": "THE LEGACY FINANCIAL GROUP, INC.",
      "city": "TULSA",
      "state": 37,
      "stateSpecified": true
    },
    {
      "fromDt": "01/2015",
      "toDt": null,
      "orgNm": "CastleView Wealth Advisors",
      "city": "Tulsa",
      "state": 37,
      "stateSpecified": true
    }
  ],
  "OthrBuss": {
    "OthrBus": null
  },
  "DRPs": []
}