{
  "Info": {
    "lastNm": "ROSENFELD",
    "firstNm": "MARCI",
    "midNm": "ANN",
    "sufNm": null,
    "indvlPK": "4450589",
    "actvAGReg": 0,
    "link": "http://www.adviserinfo.sec.gov/IAPD/Individual/4450589"
  },
  "OthrNms": [],
  "CrntEmps": [
    {
      "CrntRgstns": [
        {
          "regAuth": 4,
          "regCat": 0,
          "st": 2,
          "stDt": "2013-05-30T00:00:00"
        }
      ],
      "BrnchOfLocs": [
        {
          "str1": "301 UNIVERSITY AVE 3RD FL",
          "str2": "[BD-RBO]",
          "city": "PALO ALTO",
          "state": 4,
          "stateSpecified": true,
          "cntry": "United States",
          "postlCd": "94301"
        },
        {
          "str1": "625 MARQUETTE AVE 12TH FL STE 1200",
          "str2": "[REGIONAL SUPERVISION]",
          "city": "MINNEAPOLIS",
          "state": 24,
          "stateSpecified": true,
          "cntry": "United States",
          "postlCd": "55402"
        }
      ],
      "orgNm": "WELLS FARGO ADVISORS, LLC",
      "orgPK": "19616",
      "str1": "ONE NORTH JEFFERSON AVENUE",
      "str2": "MAIL CODE: H0004-050",
      "city": "ST. LOUIS",
      "state": 25,
      "stateSpecified": true,
      "cntry": "United States",
      "postlCd": "63103-2205"
    }
  ],
  "Exms": [
    {
      "exmCd": 3,
      "exmNm": "Uniform Combined State Law Examination",
      "exmDt": "2005-11-14T00:00:00",
      "exmDtSpecified": true
    }
  ],
  "Dsgntns": [],
  "PrevRgstns": [
    {
      "BrnchOfLocs": [
        {
          "city": "LOS ANGELES",
          "state": 4,
          "stateSpecified": true
        },
        {
          "city": "NEW YORK",
          "state": 35,
          "stateSpecified": true
        }
      ],
      "orgNm": "CREDIT SUISSE SECURITIES (USA) LLC",
      "orgPK": "816",
      "regBeginDt": "2005-11-15T00:00:00",
      "regBeginDtSpecified": true,
      "regEndDt": "2006-09-14T00:00:00",
      "regEndDtSpecified": true
    },
    {
      "BrnchOfLocs": [
        {
          "city": "NEW YORK",
          "state": 35,
          "stateSpecified": true
        },
        {
          "city": "SAN FRANCISCO",
          "state": 4,
          "stateSpecified": true
        }
      ],
      "orgNm": "DEUTSCHE BANK SECURITIES INC.",
      "orgPK": "2525",
      "regBeginDt": "2008-07-09T00:00:00",
      "regBeginDtSpecified": true,
      "regEndDt": "2013-05-02T00:00:00",
      "regEndDtSpecified": true
    }
  ],
  "EmpHss": [
    {
      "fromDt": "01/2003",
      "toDt": "09/2006",
      "orgNm": "CREDIT SUISSE SECURITIES (USA) LLC",
      "city": "NEW YORK",
      "state": 35,
      "stateSpecified": true
    },
    {
      "fromDt": "11/2006",
      "toDt": "04/2013",
      "orgNm": "DEUTSCHE BANK SECURITIES INC",
      "city": "NEW YORK",
      "state": 35,
      "stateSpecified": true
    },
    {
      "fromDt": "11/2010",
      "toDt": "04/2013",
      "orgNm": "DB TRUST COMPANY AMERICAS",
      "city": "SAN FRANCISCO",
      "state": 4,
      "stateSpecified": true
    },
    {
      "fromDt": "04/2013",
      "toDt": null,
      "orgNm": "WELLS FARGO ADVISORS, LLC",
      "city": "PALO ALTO",
      "state": 4,
      "stateSpecified": true
    }
  ],
  "OthrBuss": {
    "OthrBus": null
  },
  "DRPs": []
}