{
  "Info": {
    "lastNm": "THENSTED",
    "firstNm": "CHARLES",
    "midNm": "FREDERICK",
    "sufNm": null,
    "indvlPK": "4454050",
    "actvAGReg": 0,
    "link": "http://www.adviserinfo.sec.gov/IAPD/Individual/4454050"
  },
  "OthrNms": [],
  "CrntEmps": [
    {
      "CrntRgstns": [
        {
          "regAuth": 45,
          "regCat": 0,
          "st": 3,
          "stDt": "2006-10-06T00:00:00"
        },
        {
          "regAuth": 19,
          "regCat": 0,
          "st": 2,
          "stDt": "2015-07-24T00:00:00"
        }
      ],
      "BrnchOfLocs": [
        {
          "str1": "1 GALLERIA BLVD",
          "str2": "STE 1620",
          "city": "METAIRIE",
          "state": 19,
          "stateSpecified": true,
          "cntry": "United States",
          "postlCd": "70001-2082"
        }
      ],
      "orgNm": "AMERIPRISE FINANCIAL SERVICES, INC.",
      "orgPK": "6363",
      "str1": "707 2ND AVENUE SOUTH",
      "str2": null,
      "city": "MINNEAPOLIS",
      "state": 24,
      "stateSpecified": true,
      "cntry": "United States",
      "postlCd": "55402"
    }
  ],
  "Exms": [
    {
      "exmCd": 3,
      "exmNm": "Uniform Combined State Law Examination",
      "exmDt": "2003-01-09T00:00:00",
      "exmDtSpecified": true
    }
  ],
  "Dsgntns": [],
  "PrevRgstns": [],
  "EmpHss": [
    {
      "fromDt": "09/1994",
      "toDt": null,
      "orgNm": "C.F. THENSTED LTD (ALC)",
      "city": "NEW ORLEANS",
      "state": 19,
      "stateSpecified": true
    },
    {
      "fromDt": "09/2001",
      "toDt": null,
      "orgNm": "AMERICAN EXPRESS FINANCIAL ADVISORS",
      "city": "METAIRIE",
      "state": 19,
      "stateSpecified": true
    },
    {
      "fromDt": "09/2001",
      "toDt": null,
      "orgNm": "IDS LIFE INSURANCE COMPANY",
      "city": "METAIRIE",
      "state": 19,
      "stateSpecified": true
    }
  ],
  "OthrBuss": {
    "OthrBus": {
      "desc": "OUTSIDE EMPLOYMENT:TULANE UNIVERSITY LAW SCHOOL,ADJUNCT PROFESSOR OF LAW,I AM AN ADJUNCT PROFESSOR OF LAW,COMP:$0,HRS:10-19. REAL ESTATE ACTIVITY:YES."
    }
  },
  "DRPs": []
}