{
  "Info": {
    "lastNm": "VANORDER",
    "firstNm": "MATTHEW",
    "midNm": "JAMES",
    "sufNm": null,
    "indvlPK": "4462037",
    "actvAGReg": 0,
    "link": "http://www.adviserinfo.sec.gov/IAPD/Individual/4462037"
  },
  "OthrNms": [],
  "CrntEmps": [
    {
      "CrntRgstns": [
        {
          "regAuth": 23,
          "regCat": 0,
          "st": 2,
          "stDt": "2014-03-03T00:00:00"
        }
      ],
      "BrnchOfLocs": [
        {
          "str1": "238 HOOVER BLVD",
          "str2": "SUITE 10",
          "city": "HOLLAND",
          "state": 23,
          "stateSpecified": true,
          "cntry": "United States",
          "postlCd": "49423"
        }
      ],
      "orgNm": "CETERA INVESTMENT ADVISERS LLC",
      "orgPK": "105644",
      "str1": "200 NORTH MARTINGALE ROAD",
      "str2": null,
      "city": "SCHAUMBURG",
      "state": 15,
      "stateSpecified": true,
      "cntry": "United States",
      "postlCd": "60173-2096"
    }
  ],
  "Exms": [
    {
      "exmCd": 0,
      "exmNm": "Uniform Securities Agent State Law Examination",
      "exmDt": "2001-11-21T00:00:00",
      "exmDtSpecified": true
    },
    {
      "exmCd": 3,
      "exmNm": "Uniform Combined State Law Examination",
      "exmDt": "2010-06-04T00:00:00",
      "exmDtSpecified": true
    }
  ],
  "Dsgntns": [],
  "PrevRgstns": [
    {
      "BrnchOfLocs": [
        {
          "city": "HOLLAND",
          "state": 23,
          "stateSpecified": true
        },
        {
          "city": "ST LOUIS",
          "state": 25,
          "stateSpecified": true
        },
        {
          "city": "ZEELAND",
          "state": 23,
          "stateSpecified": true
        }
      ],
      "orgNm": "EDWARD JONES",
      "orgPK": "250",
      "regBeginDt": "2010-07-02T00:00:00",
      "regBeginDtSpecified": true,
      "regEndDt": "2011-07-20T00:00:00",
      "regEndDtSpecified": true
    },
    {
      "BrnchOfLocs": [
        {
          "city": "HOLLAND",
          "state": 23,
          "stateSpecified": true
        },
        {
          "city": "HOLLAND",
          "state": 23,
          "stateSpecified": true
        },
        {
          "city": "SIMI VALLEY",
          "state": 4,
          "stateSpecified": true
        }
      ],
      "orgNm": "HBW ADVISORY SERVICES LLC",
      "orgPK": "143665",
      "regBeginDt": "2011-10-28T00:00:00",
      "regBeginDtSpecified": true,
      "regEndDt": "2014-03-13T00:00:00",
      "regEndDtSpecified": true
    }
  ],
  "EmpHss": [
    {
      "fromDt": "03/2006",
      "toDt": "11/2009",
      "orgNm": "NATCITY INVESTMENTS INC.",
      "city": "HOLLAND",
      "state": 23,
      "stateSpecified": true
    },
    {
      "fromDt": "10/2006",
      "toDt": "03/2008",
      "orgNm": "PAPA JOHNS",
      "city": "HOLLAND",
      "state": 23,
      "stateSpecified": true
    },
    {
      "fromDt": "11/2009",
      "toDt": "04/2010",
      "orgNm": "PNC INVESTMENTS",
      "city": "HOLLAND",
      "state": 23,
      "stateSpecified": true
    },
    {
      "fromDt": "04/2010",
      "toDt": "07/2011",
      "orgNm": "EDWARD JONES",
      "city": "ST LOUIS",
      "state": 25,
      "stateSpecified": true
    },
    {
      "fromDt": "07/2011",
      "toDt": "08/2012",
      "orgNm": "HOLLAND GLOBAL TRADING, LLC",
      "city": "HOLLAND",
      "state": 23,
      "stateSpecified": true
    },
    {
      "fromDt": "10/2011",
      "toDt": "02/2014",
      "orgNm": "HBW ADVISORY SERVICES LLC",
      "city": "SIMI VALLEY",
      "state": 4,
      "stateSpecified": true
    },
    {
      "fromDt": "10/2011",
      "toDt": "12/2011",
      "orgNm": "HBW SECURITIES LLC",
      "city": "SIMI VALLEY",
      "state": 4,
      "stateSpecified": true
    },
    {
      "fromDt": "01/2013",
      "toDt": "02/2014",
      "orgNm": "HBW SECURITIES LLC",
      "city": "SIMI VALLEY",
      "state": 4,
      "stateSpecified": true
    },
    {
      "fromDt": "09/2013",
      "toDt": "01/2014",
      "orgNm": "ENVIRO-CLEAN",
      "city": "HOLLAND",
      "state": 23,
      "stateSpecified": true
    },
    {
      "fromDt": "02/2014",
      "toDt": null,
      "orgNm": "CETERA FINANCIAL SPECIALISTS LLC",
      "city": "SCHAUMBURG",
      "state": 15,
      "stateSpecified": true
    },
    {
      "fromDt": "02/2014",
      "toDt": null,
      "orgNm": "CETERA INVESTMENT ADVISORS LLC",
      "city": "SCHAUMBURG",
      "state": 15,
      "stateSpecified": true
    },
    {
      "fromDt": "02/2014",
      "toDt": null,
      "orgNm": "DELONG & BROWER P.C.",
      "city": "HOLLAND",
      "state": 23,
      "stateSpecified": true
    },
    {
      "fromDt": "02/2014",
      "toDt": null,
      "orgNm": "EVENINGSTAR CAPITAL",
      "city": "HOLLAND",
      "state": 23,
      "stateSpecified": true
    }
  ],
  "OthrBuss": {
    "OthrBus": {
      "desc": "1) DELONG & BROWER P.C., INVESTMENT RELATED, SAME ADDRESS AS REGISTERED LOCATION, FINANCIAL SERVICES, START DATE 2/25/2014, 40 HRS/WEEK, REGISTERED REPRESENTATIVE"
    }
  },
  "DRPs": [
    {
      "hasRegAction": 1,
      "hasRegActionSpecified": true,
      "hasCriminal": 1,
      "hasCriminalSpecified": true,
      "hasBankrupt": 0,
      "hasBankruptSpecified": true,
      "hasCivilJudc": 1,
      "hasCivilJudcSpecified": true,
      "hasBond": 1,
      "hasBondSpecified": true,
      "hasJudgment": 1,
      "hasJudgmentSpecified": true,
      "hasInvstgn": 1,
      "hasInvstgnSpecified": true,
      "hasCustComp": 1,
      "hasCustCompSpecified": true,
      "hasTermination": 1,
      "hasTerminationSpecified": true
    }
  ]
}