{
  "Info": {
    "lastNm": "CULLINAN",
    "firstNm": "JOHN",
    "midNm": "FITZGERALD",
    "sufNm": null,
    "indvlPK": "4467952",
    "actvAGReg": 0,
    "link": "http://www.adviserinfo.sec.gov/IAPD/Individual/4467952"
  },
  "OthrNms": [
    {
      "lastNm": "CULLINAN",
      "firstNm": "JOHN",
      "midNm": "F",
      "sufNm": null
    }
  ],
  "CrntEmps": [
    {
      "CrntRgstns": [
        {
          "regAuth": 6,
          "regCat": 0,
          "st": 2,
          "stDt": "2014-03-21T00:00:00"
        },
        {
          "regAuth": 32,
          "regCat": 0,
          "st": 2,
          "stDt": "2014-05-08T00:00:00"
        },
        {
          "regAuth": 9,
          "regCat": 0,
          "st": 2,
          "stDt": "2014-05-21T00:00:00"
        },
        {
          "regAuth": 23,
          "regCat": 0,
          "st": 2,
          "stDt": "2014-07-03T00:00:00"
        },
        {
          "regAuth": 47,
          "regCat": 0,
          "st": 2,
          "stDt": "2014-09-30T00:00:00"
        },
        {
          "regAuth": 39,
          "regCat": 0,
          "st": 2,
          "stDt": "2014-10-01T00:00:00"
        },
        {
          "regAuth": 45,
          "regCat": 0,
          "st": 2,
          "stDt": "2014-11-25T00:00:00"
        },
        {
          "regAuth": 28,
          "regCat": 0,
          "st": 2,
          "stDt": "2014-12-01T00:00:00"
        },
        {
          "regAuth": 15,
          "regCat": 0,
          "st": 2,
          "stDt": "2016-01-27T00:00:00"
        }
      ],
      "BrnchOfLocs": [
        {
          "str1": "324 SO. SERVICE ROAD",
          "str2": null,
          "city": "MELVILLE",
          "state": 35,
          "stateSpecified": true,
          "cntry": "United States",
          "postlCd": "11747"
        }
      ],
      "orgNm": "TD PRIVATE CLIENT WEALTH LLC",
      "orgPK": "164484",
      "str1": "444 MADISON AVENUE",
      "str2": "11TH FLOOR",
      "city": "NEW YORK",
      "state": 35,
      "stateSpecified": true,
      "cntry": "United States",
      "postlCd": "10022"
    }
  ],
  "Exms": [
    {
      "exmCd": 3,
      "exmNm": "Uniform Combined State Law Examination",
      "exmDt": "2002-01-22T00:00:00",
      "exmDtSpecified": true
    }
  ],
  "Dsgntns": [],
  "PrevRgstns": [
    {
      "BrnchOfLocs": [
        {
          "city": "NEW YORK",
          "state": 35,
          "stateSpecified": true
        },
        {
          "city": "NEW YORK",
          "state": 35,
          "stateSpecified": true
        }
      ],
      "orgNm": "MERRILL LYNCH, PIERCE, FENNER & SMITH INCORPORATED",
      "orgPK": "7691",
      "regBeginDt": "2009-07-30T00:00:00",
      "regBeginDtSpecified": true,
      "regEndDt": "2014-03-03T00:00:00",
      "regEndDtSpecified": true
    }
  ],
  "EmpHss": [
    {
      "fromDt": "01/1996",
      "toDt": "02/2014",
      "orgNm": "MERRILL LYNCH",
      "city": "NEW YORK",
      "state": 35,
      "stateSpecified": true
    },
    {
      "fromDt": "03/2014",
      "toDt": null,
      "orgNm": "TD BANK, N.A.",
      "city": "MELIVILLE",
      "state": 35,
      "stateSpecified": true
    },
    {
      "fromDt": "03/2014",
      "toDt": null,
      "orgNm": "TD PRIVATE CLIENT WEALTH, LLC",
      "city": "MELVILLE",
      "state": 35,
      "stateSpecified": true
    }
  ],
  "OthrBuss": {
    "OthrBus": null
  },
  "DRPs": []
}