{
  "Info": {
    "lastNm": "SUMMERS",
    "firstNm": "DAVID",
    "midNm": "LYNN",
    "sufNm": null,
    "indvlPK": "4467480",
    "actvAGReg": 1,
    "link": "http://www.adviserinfo.sec.gov/IAPD/Individual/4467480"
  },
  "OthrNms": [],
  "CrntEmps": [
    {
      "CrntRgstns": [
        {
          "regAuth": 39,
          "regCat": 0,
          "st": 2,
          "stDt": "2012-06-08T00:00:00"
        }
      ],
      "BrnchOfLocs": [
        {
          "str1": "277 W. UWCHLAN AVE.",
          "str2": "UWCHLAN COMMONS",
          "city": "DOWNINGTOWN",
          "state": 39,
          "stateSpecified": true,
          "cntry": "United States",
          "postlCd": "19335-3361"
        }
      ],
      "orgNm": "EAGLE INVESTMENT ADVISORS",
      "orgPK": "144094",
      "str1": "277 W. UWCHLAN AVE.",
      "str2": "UWCHLAN COMMONS",
      "city": "DOWNINGTOWN",
      "state": 39,
      "stateSpecified": true,
      "cntry": "United States",
      "postlCd": "19335-3361"
    }
  ],
  "Exms": [
    {
      "exmCd": 3,
      "exmNm": "Uniform Combined State Law Examination",
      "exmDt": "2001-12-28T00:00:00",
      "exmDtSpecified": true
    }
  ],
  "Dsgntns": [],
  "PrevRgstns": [
    {
      "BrnchOfLocs": [
        {
          "city": "EXTON",
          "state": 39,
          "stateSpecified": true
        }
      ],
      "orgNm": "BONDS & PAULUS ASSOCIATES, INC.",
      "orgPK": "108626",
      "regBeginDt": "2002-09-30T00:00:00",
      "regBeginDtSpecified": true,
      "regEndDt": "2003-11-19T00:00:00",
      "regEndDtSpecified": true
    },
    {
      "BrnchOfLocs": [
        {
          "city": "EXTON",
          "state": 39,
          "stateSpecified": true
        }
      ],
      "orgNm": "PATRIOT ADVISORS, INC.",
      "orgPK": "107060",
      "regBeginDt": "2004-03-09T00:00:00",
      "regBeginDtSpecified": true,
      "regEndDt": "2004-08-11T00:00:00",
      "regEndDtSpecified": true
    },
    {
      "BrnchOfLocs": [
        {
          "city": "EXTON",
          "state": 39,
          "stateSpecified": true
        }
      ],
      "orgNm": "WEATHERVANE WEALTH MANAGEMENT, LLC",
      "orgPK": "132159",
      "regBeginDt": "2004-08-24T00:00:00",
      "regBeginDtSpecified": true,
      "regEndDt": "2006-10-10T00:00:00",
      "regEndDtSpecified": true
    },
    {
      "BrnchOfLocs": [
        {
          "city": "EXTON",
          "state": 39,
          "stateSpecified": true
        }
      ],
      "orgNm": "EAGLE INVESTMENT ADVISORS, LLC",
      "orgPK": "138999",
      "regBeginDt": "2006-07-27T00:00:00",
      "regBeginDtSpecified": true,
      "regEndDt": "2007-06-11T00:00:00",
      "regEndDtSpecified": true
    }
  ],
  "EmpHss": [
    {
      "fromDt": "07/2006",
      "toDt": null,
      "orgNm": "EAGLE INVESTMENT ADVISORS",
      "city": "EXTON",
      "state": 39,
      "stateSpecified": true
    }
  ],
  "OthrBuss": {
    "OthrBus": null
  },
  "DRPs": []
}