{
  "Info": {
    "lastNm": "KRAUSE",
    "firstNm": "BRIAN",
    "midNm": "PETER",
    "sufNm": null,
    "indvlPK": "4469710",
    "actvAGReg": 1,
    "link": "http://www.adviserinfo.sec.gov/IAPD/Individual/4469710"
  },
  "OthrNms": [],
  "CrntEmps": [
    {
      "CrntRgstns": [
        {
          "regAuth": 4,
          "regCat": 0,
          "st": 2,
          "stDt": "2016-06-01T00:00:00"
        }
      ],
      "BrnchOfLocs": [
        {
          "str1": "12760 High Bluff Drive",
          "str2": "Suite 120",
          "city": "San Diego",
          "state": 4,
          "stateSpecified": true,
          "cntry": "United States",
          "postlCd": "92130"
        },
        {
          "str1": "3400 COLLEGE BLVD",
          "str2": null,
          "city": "LEAWOOD",
          "state": 17,
          "stateSpecified": true,
          "cntry": "United States",
          "postlCd": "66211"
        }
      ],
      "orgNm": "CREATIVE PLANNING",
      "orgPK": "105348",
      "str1": "3400 COLLEGE BLVD",
      "str2": null,
      "city": "LEAWOOD",
      "state": 17,
      "stateSpecified": true,
      "cntry": "United States",
      "postlCd": "66211"
    },
    {
      "CrntRgstns": [
        {
          "regAuth": 4,
          "regCat": 0,
          "st": 2,
          "stDt": "2013-10-04T00:00:00"
        }
      ],
      "BrnchOfLocs": [
        {
          "str1": "12760 HIGH BLUFF DRIVE",
          "str2": "SUITE 120",
          "city": "SAN DIEGO",
          "state": 4,
          "stateSpecified": true,
          "cntry": "United States",
          "postlCd": "92130"
        }
      ],
      "orgNm": "GUPTA WEALTH MANAGEMENT, LLC",
      "orgPK": "161721",
      "str1": "12760 HIGH BLUFF DRIVE",
      "str2": "SUITE 120",
      "city": "SAN DIEGO",
      "state": 4,
      "stateSpecified": true,
      "cntry": "United States",
      "postlCd": "92130"
    }
  ],
  "Exms": [
    {
      "exmCd": 3,
      "exmNm": "Uniform Combined State Law Examination",
      "exmDt": "2002-01-24T00:00:00",
      "exmDtSpecified": true
    }
  ],
  "Dsgntns": [
    {
      "dsgntnNm": "Certified Financial Planner"
    }
  ],
  "PrevRgstns": [
    {
      "BrnchOfLocs": [
        {
          "city": "SAN DIEGO",
          "state": 4,
          "stateSpecified": true
        },
        {
          "city": "SAN DIEGO",
          "state": 4,
          "stateSpecified": true
        }
      ],
      "orgNm": "MERRILL LYNCH, PIERCE, FENNER & SMITH INCORPORATED",
      "orgPK": "7691",
      "regBeginDt": "2002-11-13T00:00:00",
      "regBeginDtSpecified": true,
      "regEndDt": "2008-08-28T00:00:00",
      "regEndDtSpecified": true
    },
    {
      "BrnchOfLocs": [
        {
          "city": "LA JOLLA",
          "state": 4,
          "stateSpecified": true
        }
      ],
      "orgNm": "UBS FINANCIAL SERVICES INC.",
      "orgPK": "8174",
      "regBeginDt": "2008-08-27T00:00:00",
      "regBeginDtSpecified": true,
      "regEndDt": "2013-10-15T00:00:00",
      "regEndDtSpecified": true
    }
  ],
  "EmpHss": [
    {
      "fromDt": "11/2002",
      "toDt": "08/2008",
      "orgNm": "MERRILL LYNCH, PIERCE, FENNER & SMITH INC.",
      "city": "SAN DIEGO",
      "state": 4,
      "stateSpecified": true
    },
    {
      "fromDt": "08/2008",
      "toDt": "10/2013",
      "orgNm": "UBS FINANCIAL SERVICES INC.",
      "city": "LA JOLLA",
      "state": 4,
      "stateSpecified": true
    },
    {
      "fromDt": "10/2013",
      "toDt": "05/2016",
      "orgNm": "GUPTA WEALTH MANAGEMENT, LLC",
      "city": "SAN DIEGO",
      "state": 4,
      "stateSpecified": true
    },
    {
      "fromDt": "06/2016",
      "toDt": null,
      "orgNm": "Creative Planning",
      "city": "San Diego",
      "state": 4,
      "stateSpecified": true
    }
  ],
  "OthrBuss": {
    "OthrBus": null
  },
  "DRPs": []
}