{
  "Info": {
    "lastNm": "FRAZIER",
    "firstNm": "JAMES",
    "midNm": "RICE",
    "sufNm": null,
    "indvlPK": "4469041",
    "actvAGReg": 1,
    "link": "http://www.adviserinfo.sec.gov/IAPD/Individual/4469041"
  },
  "OthrNms": [],
  "CrntEmps": [
    {
      "CrntRgstns": [
        {
          "regAuth": 49,
          "regCat": 0,
          "st": 2,
          "stDt": "2009-01-22T00:00:00"
        },
        {
          "regAuth": 12,
          "regCat": 0,
          "st": 2,
          "stDt": "2012-06-25T00:00:00"
        }
      ],
      "BrnchOfLocs": [
        {
          "str1": "1210 WATER STREET",
          "str2": null,
          "city": "PORT TOWNSEND",
          "state": 49,
          "stateSpecified": true,
          "cntry": "United States",
          "postlCd": "98368"
        }
      ],
      "orgNm": "NATURAL INVESTMENTS",
      "orgPK": "113348",
      "str1": null,
      "str2": null,
      "city": "WINDSOR",
      "state": 4,
      "stateSpecified": true,
      "cntry": "United States",
      "postlCd": null
    }
  ],
  "Exms": [],
  "Dsgntns": [
    {
      "dsgntnNm": "Chartered Financial Consultant"
    }
  ],
  "PrevRgstns": [
    {
      "BrnchOfLocs": [
        {
          "city": "BELLINGHAM",
          "state": 49,
          "stateSpecified": true
        }
      ],
      "orgNm": "FORZA CAPITAL MANAGEMENT, L.L.C.",
      "orgPK": "115386",
      "regBeginDt": "1999-09-20T00:00:00",
      "regBeginDtSpecified": true,
      "regEndDt": "2003-07-14T00:00:00",
      "regEndDtSpecified": true
    },
    {
      "BrnchOfLocs": [
        {
          "city": "SEATTLE",
          "state": 49,
          "stateSpecified": true
        }
      ],
      "orgNm": "FORZA OFFSHORE CAPITAL MANAGEMENT, L.L.C.",
      "orgPK": "115394",
      "regBeginDt": "2001-05-10T00:00:00",
      "regBeginDtSpecified": true,
      "regEndDt": "2002-12-31T00:00:00",
      "regEndDtSpecified": true
    },
    {
      "BrnchOfLocs": [
        {
          "city": "BEND",
          "state": 38,
          "stateSpecified": true
        },
        {
          "city": "BEND",
          "state": 38,
          "stateSpecified": true
        },
        {
          "city": "PORT TOWNSEND",
          "state": 49,
          "stateSpecified": true
        }
      ],
      "orgNm": "FORZA CAPITAL MANAGEMENT, L.L.C.",
      "orgPK": "115386",
      "regBeginDt": "2005-06-09T00:00:00",
      "regBeginDtSpecified": true,
      "regEndDt": "2007-11-01T00:00:00",
      "regEndDtSpecified": true
    },
    {
      "BrnchOfLocs": [
        {
          "city": "CHIMACUM",
          "state": 49,
          "stateSpecified": true
        }
      ],
      "orgNm": "CONSCIOUS FINANCIAL SOLUTIONS",
      "orgPK": "145948",
      "regBeginDt": "2008-03-03T00:00:00",
      "regBeginDtSpecified": true,
      "regEndDt": "2009-11-05T00:00:00",
      "regEndDtSpecified": true
    }
  ],
  "EmpHss": [
    {
      "fromDt": "03/1999",
      "toDt": "10/2007",
      "orgNm": "FORZA CAPITAL MANAGEMENT, L.L.C.",
      "city": "BEND",
      "state": 38,
      "stateSpecified": true
    },
    {
      "fromDt": "11/2007",
      "toDt": "11/2009",
      "orgNm": "CONSCIOUS FINANCIAL SOLUTIONS LLC",
      "city": "PORT TOWNSEND",
      "state": 49,
      "stateSpecified": true
    },
    {
      "fromDt": "01/2009",
      "toDt": null,
      "orgNm": "NATURAL INVESTMENTS, LLC",
      "city": "PAONIA",
      "state": 5,
      "stateSpecified": true
    }
  ],
  "OthrBuss": {
    "OthrBus": null
  },
  "DRPs": []
}