{
  "Info": {
    "lastNm": "BOLTON",
    "firstNm": "DAVID",
    "midNm": "SCOTT",
    "sufNm": null,
    "indvlPK": "4476264",
    "actvAGReg": 0,
    "link": "http://www.adviserinfo.sec.gov/IAPD/Individual/4476264"
  },
  "OthrNms": [],
  "CrntEmps": [
    {
      "CrntRgstns": [
        {
          "regAuth": 45,
          "regCat": 0,
          "st": 2,
          "stDt": "2004-06-08T00:00:00"
        },
        {
          "regAuth": 2,
          "regCat": 0,
          "st": 2,
          "stDt": "2005-10-12T00:00:00"
        }
      ],
      "BrnchOfLocs": [
        {
          "str1": "819 WATER STREET",
          "str2": "SUITE100",
          "city": "KERRVILLE",
          "state": 45,
          "stateSpecified": true,
          "cntry": "United States",
          "postlCd": "78028"
        }
      ],
      "orgNm": "RBC CAPITAL MARKETS, LLC",
      "orgPK": "31194",
      "str1": "3 WORLD FINANCIAL CENTER",
      "str2": "200 VESEY ST.",
      "city": "NEW YORK",
      "state": 35,
      "stateSpecified": true,
      "cntry": "United States",
      "postlCd": "10281"
    }
  ],
  "Exms": [
    {
      "exmCd": 3,
      "exmNm": "Uniform Combined State Law Examination",
      "exmDt": "2002-03-07T00:00:00",
      "exmDtSpecified": true
    }
  ],
  "Dsgntns": [],
  "PrevRgstns": [
    {
      "BrnchOfLocs": [
        {
          "city": "SNYDER",
          "state": 45,
          "stateSpecified": true
        }
      ],
      "orgNm": "INVEST FINANCIAL CORPORATION",
      "orgPK": "12984",
      "regBeginDt": "2002-04-02T00:00:00",
      "regBeginDtSpecified": true,
      "regEndDt": "2003-02-03T00:00:00",
      "regEndDtSpecified": true
    },
    {
      "BrnchOfLocs": [
        {
          "city": "MIDLAND",
          "state": 45,
          "stateSpecified": true
        }
      ],
      "orgNm": "THE ADVISORS GROUP, INC.",
      "orgPK": "14035",
      "regBeginDt": "2003-07-17T00:00:00",
      "regBeginDtSpecified": true,
      "regEndDt": "2003-12-17T00:00:00",
      "regEndDtSpecified": true
    }
  ],
  "EmpHss": [
    {
      "fromDt": "05/2004",
      "toDt": "03/2008",
      "orgNm": "RBC DAIN RAUSCHER INC.",
      "city": "WEST HOUSTON",
      "state": 45,
      "stateSpecified": true
    },
    {
      "fromDt": "03/2008",
      "toDt": null,
      "orgNm": "RBC CAPITAL MARKETS CORPORATION",
      "city": "KERRVILLE",
      "state": 45,
      "stateSpecified": true
    }
  ],
  "OthrBuss": {
    "OthrBus": {
      "desc": "BOLTON & HUTCHINSON ENTERPRISES, LLC-REAL ESTATE DEVELOPMENT & MANAGEMENT COMPANY. 2703 47TH, SNYDER TX 79549. STARTED IN 2000 NO PROJECTED END DATE. I MAKE SOME MANAGEMENT DECISIONS/OVERSIGHT. I DEVOTE 1 HOUR PER MONTH TO THIS PROJECT.    Name of Entity: Bolton Cattle  Address of Business: Kerr County  Business Description: Small cow/calf animal farm and 4H projects  Business is not investment related  Projected Start Date - 08/27/2015  Projected End Date - 08/01/2025  Capacity - Active Owner  Duties Performed - Check animals, buy feed, help kids with animals and projects   8 hours devoted to this OBA per month  0 hours devoted during security trading hours per month    BOLTON PROPERTIES - SOLE PROPRIETORSHIP OWNING AND MANAGING RENTAL PROPERTIES. 2703 47TH, SNYDER TX 79549. STARTED IN 1992 AND THERE IS NO PROJECTED END DATE. MY DUTIES INCLUDE OVERSIGHT/MANAGEMENT. I DEVOTE 1 HOUR PER MONTH TO THIS ENDEAVOR.    CATTLE-SMALL COW/CALF OPERATION ON FAMILY FARM (LEASED) - 12 COWS & 3 CALVES CURRENTLY LIQUIDATING AS MARKED CONDITIONS ALLOW (1997) EXITING BUSINESS DUE TO IN-LAWS TAKING LEASE LAND BACK AND DUT TO TAKING NEW POSITION WITH WESTERN NATION BANK AND RENTAL PROPERTIES.    CAMP BLUE HAVEN - HC81, BOX 304, MINERAL HILL ROUTE, LAS VEGAS, NM 87701. MY DUTIES INCLUDE SEVERAL NOT FOR PROFIT DUTIES, OVERSIGHT, TEACHING CHILDREN AT THE CHURCH YOUTH CAMP."
    }
  },
  "DRPs": []
}