{
  "Info": {
    "lastNm": "ROBINETTE",
    "firstNm": "CRAIG",
    "midNm": "STEPHEN",
    "sufNm": null,
    "indvlPK": "4479226",
    "actvAGReg": 0,
    "link": "http://www.adviserinfo.sec.gov/IAPD/Individual/4479226"
  },
  "OthrNms": [],
  "CrntEmps": [
    {
      "CrntRgstns": [
        {
          "regAuth": 36,
          "regCat": 0,
          "st": 2,
          "stDt": "2014-12-24T00:00:00"
        },
        {
          "regAuth": 16,
          "regCat": 0,
          "st": 2,
          "stDt": "2015-01-05T00:00:00"
        }
      ],
      "BrnchOfLocs": [
        {
          "str1": "ATRIUM II SOUTH TOWER",
          "str2": "5455 RINGS ROAD - SUITE 200",
          "city": "DUBLIN",
          "state": 36,
          "stateSpecified": true,
          "cntry": "United States",
          "postlCd": "43017"
        }
      ],
      "orgNm": "EAGLE STRATEGIES LLC",
      "orgPK": "110826",
      "str1": "51 MADISON AVENUE",
      "str2": "ROOM 913",
      "city": "NEW YORK",
      "state": 35,
      "stateSpecified": true,
      "cntry": "United States",
      "postlCd": "10010"
    }
  ],
  "Exms": [
    {
      "exmCd": 2,
      "exmNm": "Uniform Investment Adviser Law Examination",
      "exmDt": "2006-12-06T00:00:00",
      "exmDtSpecified": true
    },
    {
      "exmCd": 0,
      "exmNm": "Uniform Securities Agent State Law Examination",
      "exmDt": "2014-11-14T00:00:00",
      "exmDtSpecified": true
    }
  ],
  "Dsgntns": [],
  "PrevRgstns": [
    {
      "BrnchOfLocs": [
        {
          "city": "WESTERVILLE",
          "state": 36,
          "stateSpecified": true
        }
      ],
      "orgNm": "BEST ADVISORY SERVICES",
      "orgPK": "119858",
      "regBeginDt": "2005-06-29T00:00:00",
      "regBeginDtSpecified": true,
      "regEndDt": "2006-10-12T00:00:00",
      "regEndDtSpecified": true
    },
    {
      "BrnchOfLocs": [
        {
          "city": "WESTERVILLE",
          "state": 36,
          "stateSpecified": true
        },
        {
          "city": "WESTERVILLE",
          "state": 36,
          "stateSpecified": true
        }
      ],
      "orgNm": "ROBINETTE WEALTH MANAGEMENT",
      "orgPK": "142140",
      "regBeginDt": "2007-01-04T00:00:00",
      "regBeginDtSpecified": true,
      "regEndDt": "2014-02-11T00:00:00",
      "regEndDtSpecified": true
    }
  ],
  "EmpHss": [
    {
      "fromDt": "07/2005",
      "toDt": "10/2006",
      "orgNm": "BEST ADVISORY SERVICES, LLC",
      "city": "WESTERVILLE",
      "state": 36,
      "stateSpecified": true
    },
    {
      "fromDt": "07/2005",
      "toDt": "10/2014",
      "orgNm": "ROBINETTE RISK MANAGEMENT INC",
      "city": "WESTERVILLE",
      "state": 36,
      "stateSpecified": true
    },
    {
      "fromDt": "10/2006",
      "toDt": "03/2013",
      "orgNm": "ROBINETTE WEALTH MANAGEMENT INC",
      "city": "WESTERVILLE",
      "state": 36,
      "stateSpecified": true
    },
    {
      "fromDt": "01/2013",
      "toDt": "09/2014",
      "orgNm": "MASS MUTUAL",
      "city": "WORTHINGTON",
      "state": 36,
      "stateSpecified": true
    },
    {
      "fromDt": "02/2014",
      "toDt": "09/2014",
      "orgNm": "MML INVESTORS SERVICES",
      "city": "WORTHINGTON",
      "state": 36,
      "stateSpecified": true
    },
    {
      "fromDt": "10/2014",
      "toDt": null,
      "orgNm": "NEW YORK LIFE INSURANCE CO",
      "city": "DUBLIN",
      "state": 36,
      "stateSpecified": true
    },
    {
      "fromDt": "10/2014",
      "toDt": null,
      "orgNm": "NYLIFE SECURITIES LLC",
      "city": "DUBLIN",
      "state": 36,
      "stateSpecified": true
    },
    {
      "fromDt": "12/2014",
      "toDt": null,
      "orgNm": "EAGLE STRATEGIES LLC",
      "city": "DUBLIN",
      "state": 36,
      "stateSpecified": true
    }
  ],
  "OthrBuss": {
    "OthrBus": {
      "desc": "[ROBINETTE RISK MANAGEMENT, INC; RETAIN THIS ENTITY FOR RENEWAL ONLY.; 10 EAST SCHROCK ROAD, #206, WESTERVILLE, OHIO 43081; START DATE 07/2005; ROLE/TITLE: OWNER; INVESTMENT RELATED; 8 HOURS PER MONTH; 8 HOURS PER MONTH DURING SECURITIES TRADING HOURS]   [RENTAL PROPERTY: NON-INVESTMENT RELATED; 110 DALEVIEW DRIVE, WESTERVILLE OH 43081; I RENT OUT A PROPERTY THAT I OWN AND CURRENTLY HAVE A 3 YEAR LEASE ON SAID PROPERTY; OWNER; START 8/2012; RENTAL INCOME; 5 HRS/MONTH; 0 DURING TRADING HOURS; LANDLORD]    [NOTARY PUBLIC: NON-INVESTMENT RELATED; 10 EAST SCHROCK ROAD #206 WESTERVILLE OH 43081; I HAVE A NOTARY COMMISSION UNTIL 2018;  3/2008; 1 HR PER MO, 1 DURING TRADING HOURS; NO COMPENSATION; I HOLD A NOTARY COMMISSION IN THE STATE OF OHIO;  I AM LICENSED AND AUTHORIZED TO NOTARIZE DOCUMENTS.]    [THE SOCIETY OF FINANCIAL SERVICE PROFESSIONALS; NON-INVESTMENT RELATED; THERE IS NO COLUMBUS OH OFFICE; I SERVE ON THE MEMBERSHIP COMMITTEE AND THE YOUNG PROFESSIONALS COMMITTEE; START 6/2014; 10 HOURS PER/MO; 8 DURING TRADING HOURS;  TO BOLSTER ATTENDANCE AND MEMBERSHIP IN THE ORGANIZATION.]"
    }
  },
  "DRPs": []
}