{
  "Info": {
    "lastNm": "MITCHELL",
    "firstNm": "RONALD",
    "midNm": "A",
    "sufNm": "III",
    "indvlPK": "4484833",
    "actvAGReg": 0,
    "link": "http://www.adviserinfo.sec.gov/IAPD/Individual/4484833"
  },
  "OthrNms": [
    {
      "lastNm": "MITCHELL",
      "firstNm": "RON",
      "midNm": null,
      "sufNm": null
    },
    {
      "lastNm": "MITCHELL",
      "firstNm": "RONALD",
      "midNm": "ALEXANDER",
      "sufNm": null
    },
    {
      "lastNm": "MITCHELL",
      "firstNm": "RONALD",
      "midNm": "ALEXANDER",
      "sufNm": null
    },
    {
      "lastNm": "MITCHELL",
      "firstNm": "RONALD",
      "midNm": "ALEXANDER",
      "sufNm": "III"
    }
  ],
  "CrntEmps": [
    {
      "CrntRgstns": [
        {
          "regAuth": 45,
          "regCat": 0,
          "st": 2,
          "stDt": "2014-12-08T00:00:00"
        }
      ],
      "BrnchOfLocs": [
        {
          "str1": "1120 W CAMPBELL RD",
          "str2": "STE 101",
          "city": "RICHARDSON",
          "state": 45,
          "stateSpecified": true,
          "cntry": "United States",
          "postlCd": "75080-2977"
        }
      ],
      "orgNm": "AMERIPRISE FINANCIAL SERVICES, INC.",
      "orgPK": "6363",
      "str1": "707 2ND AVENUE SOUTH",
      "str2": null,
      "city": "MINNEAPOLIS",
      "state": 24,
      "stateSpecified": true,
      "cntry": "United States",
      "postlCd": "55402"
    }
  ],
  "Exms": [
    {
      "exmCd": 3,
      "exmNm": "Uniform Combined State Law Examination",
      "exmDt": "2002-02-08T00:00:00",
      "exmDtSpecified": true
    }
  ],
  "Dsgntns": [],
  "PrevRgstns": [
    {
      "BrnchOfLocs": [
        {
          "city": "DALLAS",
          "state": 45,
          "stateSpecified": true
        },
        {
          "city": "RICHARDSON",
          "state": 45,
          "stateSpecified": true
        }
      ],
      "orgNm": "AMERIPRISE FINANCIAL SERVICES, INC.",
      "orgPK": "6363",
      "regBeginDt": "2002-02-11T00:00:00",
      "regBeginDtSpecified": true,
      "regEndDt": "2006-12-19T00:00:00",
      "regEndDtSpecified": true
    },
    {
      "BrnchOfLocs": [
        {
          "city": "FORT WORTH",
          "state": 45,
          "stateSpecified": true
        }
      ],
      "orgNm": "TD AMERITRADE, INC.",
      "orgPK": "7870",
      "regBeginDt": "2007-01-17T00:00:00",
      "regBeginDtSpecified": true,
      "regEndDt": "2010-03-03T00:00:00",
      "regEndDtSpecified": true
    },
    {
      "BrnchOfLocs": [
        {
          "city": "JACKSONVILLE",
          "state": 9,
          "stateSpecified": true
        }
      ],
      "orgNm": "MERRILL LYNCH, PIERCE, FENNER & SMITH INCORPORATED",
      "orgPK": "7691",
      "regBeginDt": "2010-12-15T00:00:00",
      "regBeginDtSpecified": true,
      "regEndDt": "2011-03-04T00:00:00",
      "regEndDtSpecified": true
    },
    {
      "BrnchOfLocs": [
        {
          "city": "HURST",
          "state": 45,
          "stateSpecified": true
        }
      ],
      "orgNm": "AMERIPRISE FINANCIAL SERVICES, INC.",
      "orgPK": "6363",
      "regBeginDt": "2011-09-09T00:00:00",
      "regBeginDtSpecified": true,
      "regEndDt": "2013-01-02T00:00:00",
      "regEndDtSpecified": true
    },
    {
      "BrnchOfLocs": [
        {
          "city": "HURST",
          "state": 45,
          "stateSpecified": true
        }
      ],
      "orgNm": "AMERIPRISE FINANCIAL SERVICES, INC.",
      "orgPK": "6363",
      "regBeginDt": "2013-04-25T00:00:00",
      "regBeginDtSpecified": true,
      "regEndDt": "2014-11-14T00:00:00",
      "regEndDtSpecified": true
    }
  ],
  "EmpHss": [
    {
      "fromDt": "12/2001",
      "toDt": "12/2006",
      "orgNm": "AMERICAN EXPRESS FINANCIAL ADVISORS",
      "city": "RICHARDSON",
      "state": 45,
      "stateSpecified": true
    },
    {
      "fromDt": "12/2001",
      "toDt": "12/2006",
      "orgNm": "AMERICAN EXPRESS FINANCIAL ADVISORS",
      "city": "RICHARDSON",
      "state": 45,
      "stateSpecified": true
    },
    {
      "fromDt": "12/2001",
      "toDt": "12/2006",
      "orgNm": "IDS LIFE INSURANCE COMPANY",
      "city": "RICHARDSON",
      "state": 45,
      "stateSpecified": true
    },
    {
      "fromDt": "12/2006",
      "toDt": "03/2010",
      "orgNm": "TDAMERITRADE INC",
      "city": "FT WORTH",
      "state": 45,
      "stateSpecified": true
    },
    {
      "fromDt": "12/2006",
      "toDt": "04/2010",
      "orgNm": "TDAMERITRADE INC",
      "city": "FT WORTH",
      "state": 45,
      "stateSpecified": true
    },
    {
      "fromDt": "04/2010",
      "toDt": "07/2010",
      "orgNm": "NEW YORK LIFE INSURANCE CO",
      "city": "DALLAS",
      "state": 45,
      "stateSpecified": true
    },
    {
      "fromDt": "04/2010",
      "toDt": "07/2010",
      "orgNm": "NEW YORK LIFE INSURANCE CO",
      "city": "DALLAS",
      "state": 45,
      "stateSpecified": true
    },
    {
      "fromDt": "04/2010",
      "toDt": "07/2010",
      "orgNm": "NYLIFE SECURITIES LLC",
      "city": "DALLAS",
      "state": 45,
      "stateSpecified": true
    },
    {
      "fromDt": "04/2010",
      "toDt": "07/2010",
      "orgNm": "NYLIFE SECURITIES LLC",
      "city": "DALLAS",
      "state": 45,
      "stateSpecified": true
    },
    {
      "fromDt": "07/2010",
      "toDt": "11/2010",
      "orgNm": "INNOVATIVE MANAGEMENT SOLUTIONS",
      "city": "PLANO",
      "state": 45,
      "stateSpecified": true
    },
    {
      "fromDt": "11/2010",
      "toDt": "02/2011",
      "orgNm": "MERRILL LYNCH",
      "city": "JACKSONVILLE",
      "state": 9,
      "stateSpecified": true
    },
    {
      "fromDt": "03/2011",
      "toDt": "08/2011",
      "orgNm": "UNEMPLOYED",
      "city": "PLANO",
      "state": 45,
      "stateSpecified": true
    },
    {
      "fromDt": "09/2011",
      "toDt": "12/2012",
      "orgNm": "AMERIPRISE FINANCIAL SERVICES INC",
      "city": "HURST",
      "state": 45,
      "stateSpecified": true
    },
    {
      "fromDt": "01/2013",
      "toDt": "04/2013",
      "orgNm": "BEST BUY",
      "city": "HURST",
      "state": 45,
      "stateSpecified": true
    },
    {
      "fromDt": "04/2013",
      "toDt": null,
      "orgNm": "AMERIPRISE FINANCIAL SERVICES INC",
      "city": "RICHARDSON",
      "state": 45,
      "stateSpecified": true
    }
  ],
  "OthrBuss": {
    "OthrBus": null
  },
  "DRPs": [
    {
      "hasRegAction": 1,
      "hasRegActionSpecified": true,
      "hasCriminal": 1,
      "hasCriminalSpecified": true,
      "hasBankrupt": 1,
      "hasBankruptSpecified": true,
      "hasCivilJudc": 1,
      "hasCivilJudcSpecified": true,
      "hasBond": 1,
      "hasBondSpecified": true,
      "hasJudgment": 1,
      "hasJudgmentSpecified": true,
      "hasInvstgn": 1,
      "hasInvstgnSpecified": true,
      "hasCustComp": 0,
      "hasCustCompSpecified": true,
      "hasTermination": 1,
      "hasTerminationSpecified": true
    }
  ]
}