{
  "Info": {
    "lastNm": "SINGH",
    "firstNm": "AMARJIT",
    "midNm": null,
    "sufNm": null,
    "indvlPK": "4485567",
    "actvAGReg": 0,
    "link": "http://www.adviserinfo.sec.gov/IAPD/Individual/4485567"
  },
  "OthrNms": [
    {
      "lastNm": "SINGH",
      "firstNm": "AJ",
      "midNm": null,
      "sufNm": null
    },
    {
      "lastNm": "SINGH",
      "firstNm": "AMAR",
      "midNm": "JIT",
      "sufNm": null
    }
  ],
  "CrntEmps": [
    {
      "CrntRgstns": [
        {
          "regAuth": 6,
          "regCat": 0,
          "st": 2,
          "stDt": "2004-01-22T00:00:00"
        }
      ],
      "BrnchOfLocs": [
        {
          "str1": "6 CORPORATE DRIVE",
          "str2": null,
          "city": "SHELTON",
          "state": 6,
          "stateSpecified": true,
          "cntry": "United States",
          "postlCd": "06484"
        }
      ],
      "orgNm": "MSI FINANCIAL SERVICES, INC.",
      "orgPK": "14251",
      "str1": "1095 AVENUE OF THE AMERICAS",
      "str2": null,
      "city": "NEW YORK",
      "state": 35,
      "stateSpecified": true,
      "cntry": "United States",
      "postlCd": "10036"
    }
  ],
  "Exms": [
    {
      "exmCd": 0,
      "exmNm": "Uniform Securities Agent State Law Examination",
      "exmDt": "2002-02-11T00:00:00",
      "exmDtSpecified": true
    },
    {
      "exmCd": 3,
      "exmNm": "Uniform Combined State Law Examination",
      "exmDt": "2004-01-06T00:00:00",
      "exmDtSpecified": true
    }
  ],
  "Dsgntns": [],
  "PrevRgstns": [],
  "EmpHss": [
    {
      "fromDt": "12/2002",
      "toDt": "02/2008",
      "orgNm": "METLIFE SECURITIES INC.",
      "city": "WETHERSFIELD",
      "state": 6,
      "stateSpecified": true
    },
    {
      "fromDt": "12/2002",
      "toDt": "02/2008",
      "orgNm": "METROPOLITAN LIFE INSURANCE CO.",
      "city": "WETHERSFIELD",
      "state": 6,
      "stateSpecified": true
    },
    {
      "fromDt": "02/2008",
      "toDt": null,
      "orgNm": "METLIFE SECURITIES INC",
      "city": "SHELTON",
      "state": 6,
      "stateSpecified": true
    }
  ],
  "OthrBuss": {
    "OthrBus": {
      "desc": "1.) INDEPENDENT INSURANCE AGENT (LIFE/ACCIDENT/HEALTH, PROPERTY & CASUALTY) FOR 5 HRS & 2 HRS EVENING & WKENDS SINCE 2003  2.) MEMBER MULTICULTURAL ADVISORY COMMITTEE -FEDERAL BUREAU OF INVESTIGATION - 1 SECURITIES TRADING HOURS WEEKLY, 1 NON SECURITIES TRADING HOURS WEEKLY, START DATE 3/2012 3.) DEPT OF JUSTICE 1 WEEKDAY AND 1 EVENING/WEEKEND HOURS SINCE 6/12"
    }
  },
  "DRPs": []
}