{
  "Info": {
    "lastNm": "CRUDELE",
    "firstNm": "KATHY",
    "midNm": "L",
    "sufNm": null,
    "indvlPK": "4487866",
    "actvAGReg": 0,
    "link": "http://www.adviserinfo.sec.gov/IAPD/Individual/4487866"
  },
  "OthrNms": [
    {
      "lastNm": "CRUDELE",
      "firstNm": "KATHY",
      "midNm": "LOUISE",
      "sufNm": null
    },
    {
      "lastNm": "CRUDELE-YOHE",
      "firstNm": "KATHY",
      "midNm": "LOUISE",
      "sufNm": null
    }
  ],
  "CrntEmps": [
    {
      "CrntRgstns": [
        {
          "regAuth": 36,
          "regCat": 0,
          "st": 2,
          "stDt": "2016-03-04T00:00:00"
        }
      ],
      "BrnchOfLocs": [
        {
          "str1": "980 W Poe RD",
          "str2": "Suite 7",
          "city": "Bowling Green",
          "state": 36,
          "stateSpecified": true,
          "cntry": "United States",
          "postlCd": "43402"
        }
      ],
      "orgNm": "MML INVESTORS SERVICES, LLC",
      "orgPK": "10409",
      "str1": "1295 STATE STREET",
      "str2": null,
      "city": "SPRINGFIELD",
      "state": 20,
      "stateSpecified": true,
      "cntry": "United States",
      "postlCd": "01111-0001"
    }
  ],
  "Exms": [
    {
      "exmCd": 0,
      "exmNm": "Uniform Securities Agent State Law Examination",
      "exmDt": "2002-04-16T00:00:00",
      "exmDtSpecified": true
    }
  ],
  "Dsgntns": [],
  "PrevRgstns": [],
  "EmpHss": [
    {
      "fromDt": "10/1999",
      "toDt": "06/2007",
      "orgNm": "MODERN WOODMEN OF AMERICA",
      "city": "ROCK ISLAND",
      "state": 15,
      "stateSpecified": true
    },
    {
      "fromDt": "12/2001",
      "toDt": "06/2007",
      "orgNm": "MWA FINANCIAL SERVICES, INC.",
      "city": "ROCK ISLAND",
      "state": 15,
      "stateSpecified": true
    },
    {
      "fromDt": "07/2007",
      "toDt": "01/2016",
      "orgNm": "NEW YORK LIFE INSURANCE COMP.",
      "city": "Maumee",
      "state": 36,
      "stateSpecified": true
    },
    {
      "fromDt": "07/2007",
      "toDt": "01/2016",
      "orgNm": "NYLIFE SECURITIES, LLC",
      "city": "Maumee",
      "state": 36,
      "stateSpecified": true
    },
    {
      "fromDt": "07/2009",
      "toDt": "12/2012",
      "orgNm": "LEGACY PLANNING OF NWO, LLC",
      "city": "MAUMEE",
      "state": 36,
      "stateSpecified": true
    },
    {
      "fromDt": "01/2016",
      "toDt": null,
      "orgNm": "MASSMUTUAL",
      "city": "BOWLING GREEN",
      "state": 36,
      "stateSpecified": true
    },
    {
      "fromDt": "02/2016",
      "toDt": null,
      "orgNm": "MML INVESTORS SERVICES",
      "city": "BOWLING GREEN",
      "state": 36,
      "stateSpecified": true
    }
  ],
  "OthrBuss": {
    "OthrBus": {
      "desc": "(1)Name:MassMutual Ohio, Inv rel: Y  Addr:980 W Poe Ste 7 Bowling Green OH 43402, Nature:life, health, group life, group health, position:sales/agent, Start:2/1/16, No hr/mo:10 No hr/mo dur trading:0."
    }
  },
  "DRPs": []
}