{
  "Info": {
    "lastNm": "Parker",
    "firstNm": "Samuel",
    "midNm": "Joshua",
    "sufNm": "III",
    "indvlPK": "4488185",
    "actvAGReg": 0,
    "link": "http://www.adviserinfo.sec.gov/IAPD/Individual/4488185"
  },
  "OthrNms": [
    {
      "lastNm": "PARKER",
      "firstNm": "JAY",
      "midNm": null,
      "sufNm": "III"
    }
  ],
  "CrntEmps": [
    {
      "CrntRgstns": [
        {
          "regAuth": 28,
          "regCat": 0,
          "st": 2,
          "stDt": "2007-03-08T00:00:00"
        },
        {
          "regAuth": 45,
          "regCat": 0,
          "st": 3,
          "stDt": "2014-08-26T00:00:00"
        }
      ],
      "BrnchOfLocs": [
        {
          "str1": "313 B CENTER STREET",
          "str2": null,
          "city": "MEBANE",
          "state": 28,
          "stateSpecified": true,
          "cntry": "United States",
          "postlCd": "27302"
        }
      ],
      "orgNm": "EDWARD JONES",
      "orgPK": "250",
      "str1": "12555 MANCHESTER RD",
      "str2": null,
      "city": "ST. LOUIS",
      "state": 25,
      "stateSpecified": true,
      "cntry": "United States",
      "postlCd": "63131"
    }
  ],
  "Exms": [
    {
      "exmCd": 3,
      "exmNm": "Uniform Combined State Law Examination",
      "exmDt": "2007-01-31T00:00:00",
      "exmDtSpecified": true
    }
  ],
  "Dsgntns": [],
  "PrevRgstns": [
    {
      "BrnchOfLocs": [
        {
          "city": "CHAPEL HILL",
          "state": 28,
          "stateSpecified": true
        }
      ],
      "orgNm": "AXA ADVISORS, LLC",
      "orgPK": "6627",
      "regBeginDt": "2002-03-12T00:00:00",
      "regBeginDtSpecified": true,
      "regEndDt": "2002-08-12T00:00:00",
      "regEndDtSpecified": true
    }
  ],
  "EmpHss": [
    {
      "fromDt": "08/2002",
      "toDt": null,
      "orgNm": "EDWARD JONES",
      "city": "ST.LOUIS",
      "state": 25,
      "stateSpecified": true
    }
  ],
  "OthrBuss": {
    "OthrBus": {
      "desc": "JAPAR, INC., DBA VILLAGE VIDEO,  HILLSBOROUGH, NC  27278  VIDEO RENTAL BUSINESS    \"property investment  Type of business: commercial real estate  Mebane, NC  Start date: 7/13/2005  owner  Hours per week: 0  Hours during trading: 0  Maintain Property\"  Maintain Property    \"Timber Creek Estates LLC  Type of business: real estate rental  Mebane, NC  Start date: 1/30/2011  Owner  Hours per week: 0  Hours during trading: 0  Maintain Property\""
    }
  },
  "DRPs": []
}