{
  "Info": {
    "lastNm": "SCHROEDER",
    "firstNm": "WILLIAM",
    "midNm": "FREDERICK",
    "sufNm": null,
    "indvlPK": "4491520",
    "actvAGReg": 0,
    "link": "http://www.adviserinfo.sec.gov/IAPD/Individual/4491520"
  },
  "OthrNms": [
    {
      "lastNm": "SCHROEDER",
      "firstNm": "BILL",
      "midNm": null,
      "sufNm": null
    }
  ],
  "CrntEmps": [
    {
      "CrntRgstns": [
        {
          "regAuth": 32,
          "regCat": 0,
          "st": 2,
          "stDt": "2003-01-02T00:00:00"
        }
      ],
      "BrnchOfLocs": [
        {
          "str1": "200 VALLEY ROAD",
          "str2": "SUITE 300",
          "city": "MOUNT ARLINGTON",
          "state": 32,
          "stateSpecified": true,
          "cntry": "United States",
          "postlCd": "07856"
        }
      ],
      "orgNm": "1ST GLOBAL ADVISORS INC",
      "orgPK": "111133",
      "str1": "12750 MERIT DRIVE",
      "str2": "SUITE 1200",
      "city": "DALLAS",
      "state": 45,
      "stateSpecified": true,
      "cntry": "United States",
      "postlCd": "75251"
    }
  ],
  "Exms": [
    {
      "exmCd": 3,
      "exmNm": "Uniform Combined State Law Examination",
      "exmDt": "2002-08-23T00:00:00",
      "exmDtSpecified": true
    }
  ],
  "Dsgntns": [],
  "PrevRgstns": [],
  "EmpHss": [
    {
      "fromDt": "07/1981",
      "toDt": null,
      "orgNm": "NISIVOCCIA & CO, LLP",
      "city": "MOUNT ARLINGTON",
      "state": 32,
      "stateSpecified": true
    },
    {
      "fromDt": "07/2002",
      "toDt": null,
      "orgNm": "1ST GLOBAL CAPITAL CORP",
      "city": "MOUNT ARLINGTON",
      "state": 32,
      "stateSpecified": true
    },
    {
      "fromDt": "01/2003",
      "toDt": null,
      "orgNm": "1ST GLOBAL ADVISORS, INC",
      "city": "MOUNT ARLINGTON",
      "state": 32,
      "stateSpecified": true
    },
    {
      "fromDt": "05/2005",
      "toDt": null,
      "orgNm": "1ST GLOBAL INSURANCE SERVICES, INC",
      "city": "MOUNT ARLINGTON",
      "state": 32,
      "stateSpecified": true
    }
  ],
  "OthrBuss": {
    "OthrBus": {
      "desc": "1) INNOVATIVE HEALTH CARE BUSINESS SOLUTIONS, LLC; RANDOLPH, NJ; NON INVESTMENT RELATED; MEDICAL CONSULTING; PARTNER; 10% OWNER; 1/31/05; <5 HRS/WK. 2)NISIVOCCIA & COMPANY, LP; RANDOLPH, NJ; INVESTMENT RELATED; FINANCIAL ADVISOR; 1/2001; 20 HOURS/MONTH; 1 HOUR DURING TRADING; FINANCIAL SERVICES ENTITY 3)KMA; MT. ARLINGTON, NJ; INVESTMENT RELATED; PASSIVE INVESTMENT LPS; PASSIVE INVESTOR; N/A; 1993-ALL ENTITIES; N/A; N/A 4)KMA II; MT. ARLINGTON, NJ; INVESTMENT RELATED; PASSIVE INVESTMENT LPS; PASSIVE INVESTOR; N/A; 1993-ALL ENTITIES; N/A; N/A 5)R&A; MT. ARLINGTON, NJ; INVESTMENT RELATED; PASSIVE INVESTMENT LPS; PASSIVE INVESTOR; N/A; 1993-ALL ENTITIES; N/A; N/A; 6) NISIVOCCIA WEALTH ADVISORS,LLC, INVESTMENT RELATED, MOUNT ARLINGTON, NJ, FINANCIAL SERVICES ENTITY, MARKETING AND EXPENSE SHARING OF THE FINANCIAL SERVICES BUSINESS, 7.692% OWNERSHIP, REFERRING PARTNER, 02/23/2015, 10 HRS/MO, 1 HR/TRADE, REFERRING PARTNER."
    }
  },
  "DRPs": []
}