{
  "Info": {
    "lastNm": "SCHMUTTE",
    "firstNm": "MARY",
    "midNm": "ANN",
    "sufNm": null,
    "indvlPK": "4498859",
    "actvAGReg": 0,
    "link": "http://www.adviserinfo.sec.gov/IAPD/Individual/4498859"
  },
  "OthrNms": [
    {
      "lastNm": "SCHMITT",
      "firstNm": "MARY",
      "midNm": "ANN",
      "sufNm": null
    }
  ],
  "CrntEmps": [
    {
      "CrntRgstns": [
        {
          "regAuth": 36,
          "regCat": 0,
          "st": 2,
          "stDt": "2013-12-12T00:00:00"
        }
      ],
      "BrnchOfLocs": [
        {
          "str1": "11100 SPRINGFIELD PIKE",
          "str2": null,
          "city": "CINCINNATI",
          "state": 36,
          "stateSpecified": true,
          "cntry": "United States",
          "postlCd": "45246"
        },
        {
          "str1": "131 WILLIAMS STREET",
          "str2": null,
          "city": "CINCINNATI",
          "state": 36,
          "stateSpecified": true,
          "cntry": "United States",
          "postlCd": "45215"
        },
        {
          "str1": "425 LUDLOW AVENUE",
          "str2": null,
          "city": "CINCINNATI",
          "state": 36,
          "stateSpecified": true,
          "cntry": "United States",
          "postlCd": "45220"
        },
        {
          "str1": "4525 MONTGOMERY ROAD",
          "str2": null,
          "city": "CINCINNATI",
          "state": 36,
          "stateSpecified": true,
          "cntry": "United States",
          "postlCd": "45212"
        },
        {
          "str1": "530 EAST UNIVERSITY AVENUE",
          "str2": null,
          "city": "CINCINNATI",
          "state": 36,
          "stateSpecified": true,
          "cntry": "United States",
          "postlCd": "45219"
        },
        {
          "str1": "5343 HAMILTON AVE",
          "str2": null,
          "city": "CINCINNATI",
          "state": 36,
          "stateSpecified": true,
          "cntry": "United States",
          "postlCd": "45224"
        },
        {
          "str1": "563 PATTERSON BOULEVARD",
          "str2": null,
          "city": "FAIRFIELD",
          "state": 36,
          "stateSpecified": true,
          "cntry": "United States",
          "postlCd": "45014"
        },
        {
          "str1": "5655 VINE ST",
          "str2": null,
          "city": "CINCINNATI",
          "state": 36,
          "stateSpecified": true,
          "cntry": "United States",
          "postlCd": "45216"
        },
        {
          "str1": "7433 HAMILTON AVENUE",
          "str2": null,
          "city": "CINCINNATI",
          "state": 36,
          "stateSpecified": true,
          "cntry": "United States",
          "postlCd": "45231"
        },
        {
          "str1": "7797 TYLERS PLACE BLVD",
          "str2": null,
          "city": "WEST CHESTER",
          "state": 36,
          "stateSpecified": true,
          "cntry": "United States",
          "postlCd": "45069"
        },
        {
          "str1": "8250 COLERAIN AVENUE",
          "str2": null,
          "city": "CINCINNATI",
          "state": 36,
          "stateSpecified": true,
          "cntry": "United States",
          "postlCd": "45239"
        },
        {
          "str1": "8396 PRINCETON - GLENDALE RD STATE RT 747",
          "str2": null,
          "city": "WEST CHESTER",
          "state": 36,
          "stateSpecified": true,
          "cntry": "United States",
          "postlCd": "45069"
        },
        {
          "str1": "9135 COX RD",
          "str2": null,
          "city": "WEST CHESTER",
          "state": 36,
          "stateSpecified": true,
          "cntry": "United States",
          "postlCd": "45069"
        },
        {
          "str1": "9184 WINTON ROAD",
          "str2": null,
          "city": "CINCINNATI",
          "state": 36,
          "stateSpecified": true,
          "cntry": "United States",
          "postlCd": "45231"
        },
        {
          "str1": "9334 UNION CENTRE",
          "str2": "SUITE 100",
          "city": "WEST CHESTER",
          "state": 36,
          "stateSpecified": true,
          "cntry": "United States",
          "postlCd": "45069"
        },
        {
          "str1": "9430 COLERAIN AVENUE",
          "str2": "SUITE A",
          "city": "CINCINNATI",
          "state": 36,
          "stateSpecified": true,
          "cntry": "United States",
          "postlCd": "45251"
        }
      ],
      "orgNm": "U.S. BANCORP INVESTMENTS, INC.",
      "orgPK": "17868",
      "str1": "60 LIVINGSTON AVENUE",
      "str2": "EP-MN-WN3C",
      "city": "SAINT PAUL",
      "state": 24,
      "stateSpecified": true,
      "cntry": "United States",
      "postlCd": "55107"
    }
  ],
  "Exms": [
    {
      "exmCd": 0,
      "exmNm": "Uniform Securities Agent State Law Examination",
      "exmDt": "2010-05-11T00:00:00",
      "exmDtSpecified": true
    },
    {
      "exmCd": 3,
      "exmNm": "Uniform Combined State Law Examination",
      "exmDt": "2013-12-07T00:00:00",
      "exmDtSpecified": true
    }
  ],
  "Dsgntns": [],
  "PrevRgstns": [],
  "EmpHss": [
    {
      "fromDt": "01/2002",
      "toDt": null,
      "orgNm": "U.S. BANCORP INVESTMENTS, INC.",
      "city": "CINCINNATI",
      "state": 36,
      "stateSpecified": true
    },
    {
      "fromDt": "02/2010",
      "toDt": "12/2012",
      "orgNm": "U.S. BANK",
      "city": "CINCINNATI",
      "state": 36,
      "stateSpecified": true
    }
  ],
  "OthrBuss": {
    "OthrBus": null
  },
  "DRPs": []
}