{
  "Info": {
    "lastNm": "DINKINS",
    "firstNm": "JEFF",
    "midNm": "BRIAN",
    "sufNm": null,
    "indvlPK": "4503910",
    "actvAGReg": 0,
    "link": "http://www.adviserinfo.sec.gov/IAPD/Individual/4503910"
  },
  "OthrNms": [
    {
      "lastNm": "DINKINS",
      "firstNm": "JEFF",
      "midNm": "BRIAN",
      "sufNm": null
    },
    {
      "lastNm": "DINKINS",
      "firstNm": "JEFFREY",
      "midNm": "BRIAN",
      "sufNm": null
    }
  ],
  "CrntEmps": [
    {
      "CrntRgstns": [
        {
          "regAuth": 45,
          "regCat": 0,
          "st": 2,
          "stDt": "2011-10-21T00:00:00"
        }
      ],
      "BrnchOfLocs": [
        {
          "str1": "6836 DALLAS PKWY",
          "str2": null,
          "city": "PLANO",
          "state": 45,
          "stateSpecified": true,
          "cntry": "United States",
          "postlCd": "75024"
        }
      ],
      "orgNm": "MERRILL LYNCH, PIERCE, FENNER & SMITH INCORPORATED",
      "orgPK": "7691",
      "str1": "ONE BRYANT PARK",
      "str2": null,
      "city": "NEW YORK",
      "state": 35,
      "stateSpecified": true,
      "cntry": "United States",
      "postlCd": "10036"
    }
  ],
  "Exms": [
    {
      "exmCd": 3,
      "exmNm": "Uniform Combined State Law Examination",
      "exmDt": "2002-05-02T00:00:00",
      "exmDtSpecified": true
    }
  ],
  "Dsgntns": [],
  "PrevRgstns": [
    {
      "BrnchOfLocs": [
        {
          "city": "DALLAS",
          "state": 45,
          "stateSpecified": true
        },
        {
          "city": "DALLAS",
          "state": 45,
          "stateSpecified": true
        }
      ],
      "orgNm": "UBS FINANCIAL SERVICES INC.",
      "orgPK": "8174",
      "regBeginDt": "2002-05-03T00:00:00",
      "regBeginDtSpecified": true,
      "regEndDt": "2007-06-04T00:00:00",
      "regEndDtSpecified": true
    },
    {
      "BrnchOfLocs": [
        {
          "city": "PLANO",
          "state": 45,
          "stateSpecified": true
        }
      ],
      "orgNm": "MORGAN STANLEY & CO. LLC",
      "orgPK": "8209",
      "regBeginDt": "2007-05-24T00:00:00",
      "regBeginDtSpecified": true,
      "regEndDt": "2009-06-01T00:00:00",
      "regEndDtSpecified": true
    },
    {
      "BrnchOfLocs": [
        {
          "city": "PLANO",
          "state": 45,
          "stateSpecified": true
        }
      ],
      "orgNm": "MORGAN STANLEY",
      "orgPK": "149777",
      "regBeginDt": "2009-06-01T00:00:00",
      "regBeginDtSpecified": true,
      "regEndDt": "2011-10-26T00:00:00",
      "regEndDtSpecified": true
    }
  ],
  "EmpHss": [
    {
      "fromDt": "02/2002",
      "toDt": "05/2007",
      "orgNm": "UBS FINANCIAL SERVICES INC.",
      "city": "DALLAS",
      "state": 45,
      "stateSpecified": true
    },
    {
      "fromDt": "05/2007",
      "toDt": "10/2011",
      "orgNm": "MORGAN STANLEY & CO, INC.",
      "city": "PLANO",
      "state": 45,
      "stateSpecified": true
    },
    {
      "fromDt": "06/2009",
      "toDt": "10/2011",
      "orgNm": "MORGAN STANLEY SMITH BARNEY",
      "city": "PLANO",
      "state": 45,
      "stateSpecified": true
    },
    {
      "fromDt": "10/2011",
      "toDt": null,
      "orgNm": "MERRILL LYNCH, PIERCE, FENNER & SMITH INCORPORATED",
      "city": "PLANO",
      "state": 45,
      "stateSpecified": true
    },
    {
      "fromDt": "12/2011",
      "toDt": null,
      "orgNm": "BANK OF AMERICA, N.A.",
      "city": "PLANO",
      "state": 45,
      "stateSpecified": true
    }
  ],
  "OthrBuss": {
    "OthrBus": null
  },
  "DRPs": [
    {
      "hasRegAction": 1,
      "hasRegActionSpecified": true,
      "hasCriminal": 1,
      "hasCriminalSpecified": true,
      "hasBankrupt": 1,
      "hasBankruptSpecified": true,
      "hasCivilJudc": 1,
      "hasCivilJudcSpecified": true,
      "hasBond": 1,
      "hasBondSpecified": true,
      "hasJudgment": 1,
      "hasJudgmentSpecified": true,
      "hasInvstgn": 1,
      "hasInvstgnSpecified": true,
      "hasCustComp": 0,
      "hasCustCompSpecified": true,
      "hasTermination": 1,
      "hasTerminationSpecified": true
    }
  ]
}