{
  "Info": {
    "lastNm": "RIVES",
    "firstNm": "ROBERT",
    "midNm": "SCOTT",
    "sufNm": null,
    "indvlPK": "4505126",
    "actvAGReg": 0,
    "link": "http://www.adviserinfo.sec.gov/IAPD/Individual/4505126"
  },
  "OthrNms": [],
  "CrntEmps": [
    {
      "CrntRgstns": [
        {
          "regAuth": 26,
          "regCat": 0,
          "st": 2,
          "stDt": "2007-01-31T00:00:00"
        }
      ],
      "BrnchOfLocs": [
        {
          "str1": "4800 I-55 NORTH",
          "str2": "SUITE 21",
          "city": "JACKSON",
          "state": 26,
          "stateSpecified": true,
          "cntry": "United States",
          "postlCd": "39211"
        }
      ],
      "orgNm": "BALLEW ADVISORS INC",
      "orgPK": "110522",
      "str1": "4800 I-55 NORTH",
      "str2": "SUITE 21",
      "city": "JACKSON",
      "state": 26,
      "stateSpecified": true,
      "cntry": "United States",
      "postlCd": "39211"
    }
  ],
  "Exms": [
    {
      "exmCd": 3,
      "exmNm": "Uniform Combined State Law Examination",
      "exmDt": "2006-11-21T00:00:00",
      "exmDtSpecified": true
    }
  ],
  "Dsgntns": [],
  "PrevRgstns": [],
  "EmpHss": [
    {
      "fromDt": "08/2004",
      "toDt": "09/2006",
      "orgNm": "COPE DENISTRY",
      "city": "JACKSON",
      "state": 26,
      "stateSpecified": true
    },
    {
      "fromDt": "10/2006",
      "toDt": null,
      "orgNm": "BALLEW ADVISORS, INC.",
      "city": "JACKSON",
      "state": 26,
      "stateSpecified": true
    },
    {
      "fromDt": "10/2006",
      "toDt": null,
      "orgNm": "BALLEW INVESTMENTS, INC.",
      "city": "JACKSON",
      "state": 26,
      "stateSpecified": true
    },
    {
      "fromDt": "10/2006",
      "toDt": null,
      "orgNm": "INDEPENDENT PENSION SOLUTIONS, LLC",
      "city": "JACKSON",
      "state": 26,
      "stateSpecified": true
    },
    {
      "fromDt": "04/2007",
      "toDt": null,
      "orgNm": "BIA, INC.",
      "city": "JACKSON",
      "state": 26,
      "stateSpecified": true
    }
  ],
  "OthrBuss": {
    "OthrBus": {
      "desc": "BIA, INC.; INVESTMENT-RELATED; JACKSON, MS; INSURANCE AGENCY; INSURANCE AGENT; START DATE 04/2007; APPROXIMATELY 5 HRS PER MONTH, 5 DURING TRADING HOURS; SELL AND SERVICE FIXED INSURANCE PRODUCTS. INDEPENDENT PENSIONS SOLUTIONS, LLC (\"IPS\"); INVESTMENT-RELATED; JACKSON, MS; THIRD PARTY ADMINISTRATOR; ACCOUNT REPRESENTATIVE; START DATE 10/2006; APPROXIMATELY 8 HRS PER MONTH, 8 DURING TRADING HOURS; MARKET THE SERVICES OF IPS AND ASSIST CLIENTS WITH PLAN ADMINISTRATION."
    }
  },
  "DRPs": []
}