{
  "Info": {
    "lastNm": "LAUGHARN",
    "firstNm": "CLELL",
    "midNm": "JOHN",
    "sufNm": "JR",
    "indvlPK": "4507266",
    "actvAGReg": 0,
    "link": "http://www.adviserinfo.sec.gov/IAPD/Individual/4507266"
  },
  "OthrNms": [
    {
      "lastNm": "LAUGHARN",
      "firstNm": "CLELL",
      "midNm": "JOHN",
      "sufNm": null
    }
  ],
  "CrntEmps": [
    {
      "CrntRgstns": [
        {
          "regAuth": 4,
          "regCat": 0,
          "st": 2,
          "stDt": "2012-05-01T00:00:00"
        }
      ],
      "BrnchOfLocs": [
        {
          "str1": "1125 N.W. COUCH STREET",
          "str2": "SUITE 900",
          "city": "PORTLAND",
          "state": 38,
          "stateSpecified": true,
          "cntry": "UNITED STATES",
          "postlCd": "97209"
        },
        {
          "str1": "1125 N.W. COUCH STREET",
          "str2": "SUITE 900",
          "city": "PORTLAND",
          "state": 38,
          "stateSpecified": true,
          "cntry": "United States",
          "postlCd": "97209"
        },
        {
          "str1": "115 N. EL MOLINA AVE.",
          "str2": null,
          "city": "PASEDENA",
          "state": 4,
          "stateSpecified": true,
          "cntry": "United States",
          "postlCd": "91101"
        }
      ],
      "orgNm": "M HOLDINGS SECURITIES, INC.",
      "orgPK": "43285",
      "str1": "1125 N.W. COUCH STREET",
      "str2": "SUITE 900",
      "city": "PORTLAND",
      "state": 38,
      "stateSpecified": true,
      "cntry": "United States",
      "postlCd": "97209"
    }
  ],
  "Exms": [
    {
      "exmCd": 3,
      "exmNm": "Uniform Combined State Law Examination",
      "exmDt": "2002-10-08T00:00:00",
      "exmDtSpecified": true
    },
    {
      "exmCd": 0,
      "exmNm": "Uniform Securities Agent State Law Examination",
      "exmDt": "2009-05-28T00:00:00",
      "exmDtSpecified": true
    },
    {
      "exmCd": 2,
      "exmNm": "Uniform Investment Adviser Law Examination",
      "exmDt": "2011-11-23T00:00:00",
      "exmDtSpecified": true
    }
  ],
  "Dsgntns": [],
  "PrevRgstns": [
    {
      "BrnchOfLocs": [
        {
          "city": "LOS ANGELES",
          "state": 4,
          "stateSpecified": true
        }
      ],
      "orgNm": "MORGAN STANLEY DW INC.",
      "orgPK": "7556",
      "regBeginDt": "2003-02-12T00:00:00",
      "regBeginDtSpecified": true,
      "regEndDt": "2004-02-27T00:00:00",
      "regEndDtSpecified": true
    }
  ],
  "EmpHss": [
    {
      "fromDt": "01/2005",
      "toDt": "12/2007",
      "orgNm": "LEISURE WERDEN & TERRY",
      "city": "PASADENA",
      "state": 4,
      "stateSpecified": true
    },
    {
      "fromDt": "01/2008",
      "toDt": null,
      "orgNm": "THE RULE GROUP",
      "city": "NEWPORT BEACH",
      "state": 4,
      "stateSpecified": true
    },
    {
      "fromDt": "05/2009",
      "toDt": "04/2012",
      "orgNm": "ROYAL ALLIANCE ASSOCIATES, INC.",
      "city": "NEWPORT BEACH",
      "state": 4,
      "stateSpecified": true
    },
    {
      "fromDt": "04/2012",
      "toDt": null,
      "orgNm": "M HOLDING SECURITIES, INC.",
      "city": "PORTLAND",
      "state": 38,
      "stateSpecified": true
    },
    {
      "fromDt": "04/2012",
      "toDt": null,
      "orgNm": "TRG INSURANCE SERVICES",
      "city": "PASEDENA",
      "state": 4,
      "stateSpecified": true
    }
  ],
  "OthrBuss": {
    "OthrBus": {
      "desc": "TRG INSURANCE SERVICES, INVESTMENT RELATED, 3620 BIRCH STREET NEWPORT BEACH CA 92660, SENIOR BENEFIT PLAN CONSULTANT, STARTED 1/7/2007, 160 HOURS PER MONTH, MAJORITY OF BUSINESS IS EMPLOYER SPONSORED HEALTH AND WELFARE PLANS (EMPLOYEE BENEFITS) AND FIXED LIFE INSURANCE SALES. BEGINNING TO SERVICE QUALIFIED PLANS THROUGH M HOLDINGS SECURITIES."
    }
  },
  "DRPs": []
}