{
  "Info": {
    "lastNm": "JACOBSON",
    "firstNm": "KEITH",
    "midNm": "RICHARD",
    "sufNm": null,
    "indvlPK": "4514048",
    "actvAGReg": 0,
    "link": "http://www.adviserinfo.sec.gov/IAPD/Individual/4514048"
  },
  "OthrNms": [
    {
      "lastNm": "JACOBSON-BEYER",
      "firstNm": "KEITH",
      "midNm": "RICHARD",
      "sufNm": null
    },
    {
      "lastNm": "MEADE",
      "firstNm": "WALTER",
      "midNm": "KEITH",
      "sufNm": null
    }
  ],
  "CrntEmps": [
    {
      "CrntRgstns": [
        {
          "regAuth": 1,
          "regCat": 0,
          "st": 2,
          "stDt": "2010-04-16T00:00:00"
        }
      ],
      "BrnchOfLocs": [
        {
          "str1": null,
          "str2": null,
          "city": "FAIRHOPE",
          "state": 1,
          "stateSpecified": true,
          "cntry": "United States",
          "postlCd": null
        }
      ],
      "orgNm": "CETERA ADVISORS LLC",
      "orgPK": "10299",
      "str1": "4600 S. SYRACUSE",
      "str2": "SUITE 600",
      "city": "DENVER",
      "state": 5,
      "stateSpecified": true,
      "cntry": "United States",
      "postlCd": "80237"
    }
  ],
  "Exms": [
    {
      "exmCd": 0,
      "exmNm": "Uniform Securities Agent State Law Examination",
      "exmDt": "2002-06-07T00:00:00",
      "exmDtSpecified": true
    },
    {
      "exmCd": 3,
      "exmNm": "Uniform Combined State Law Examination",
      "exmDt": "2004-07-01T00:00:00",
      "exmDtSpecified": true
    }
  ],
  "Dsgntns": [],
  "PrevRgstns": [
    {
      "BrnchOfLocs": [
        {
          "city": "FAIRHOPE",
          "state": 1,
          "stateSpecified": true
        },
        {
          "city": "FAIRHOPE",
          "state": 1,
          "stateSpecified": true
        },
        {
          "city": "ST. LOUIS",
          "state": 25,
          "stateSpecified": true
        }
      ],
      "orgNm": "A. G. EDWARDS & SONS, INC.",
      "orgPK": "4",
      "regBeginDt": "2002-05-09T00:00:00",
      "regBeginDtSpecified": true,
      "regEndDt": "2008-01-01T00:00:00",
      "regEndDtSpecified": true
    },
    {
      "BrnchOfLocs": [
        {
          "city": "FAIRHOPE",
          "state": 1,
          "stateSpecified": true
        }
      ],
      "orgNm": "WELLS FARGO ADVISORS, LLC",
      "orgPK": "19616",
      "regBeginDt": "2008-01-01T00:00:00",
      "regBeginDtSpecified": true,
      "regEndDt": "2010-04-21T00:00:00",
      "regEndDtSpecified": true
    }
  ],
  "EmpHss": [
    {
      "fromDt": "03/2002",
      "toDt": "01/2008",
      "orgNm": "AG EDWARDS & SON",
      "city": "PENSACOLA",
      "state": 9,
      "stateSpecified": true
    },
    {
      "fromDt": "01/2008",
      "toDt": "04/2010",
      "orgNm": "WACHOVIA SECURITIES, LLC",
      "city": "FAIRHOPE",
      "state": 1,
      "stateSpecified": true
    },
    {
      "fromDt": "01/2008",
      "toDt": "04/2010",
      "orgNm": "WACHOVIA SECURITIES, LLC",
      "city": "FAIRHOPE",
      "state": 1,
      "stateSpecified": true
    },
    {
      "fromDt": "04/2010",
      "toDt": "12/2012",
      "orgNm": "MULTI-FINANCIAL SECURITIES CORPORATION",
      "city": "DENVER",
      "state": 5,
      "stateSpecified": true
    },
    {
      "fromDt": "01/2013",
      "toDt": null,
      "orgNm": "CETERA ADVISORS LLC",
      "city": "DENVER",
      "state": 5,
      "stateSpecified": true
    }
  ],
  "OthrBuss": {
    "OthrBus": {
      "desc": "1) INSURANCE, 304 ST. CHARLES COURT, FAIRHOPE, AL 36532. 2) TREASURER FOR NON PROFIT HOMEOWNER'S ASSOCIATION \"IDLEWILD PROPERTY OWNER'S ASSOCIATION\" P. O. BOX 181, FAIRHOPE, AL 36532.  TREASURER. NOT SECURITIES RELATED.  3)  HARRY & SHERRY JACOBSON-BEYER, 1405 SOUTH 1ST STREET, LOUISVILLE, KY, 40208, VACATION RENTAL, PROPERTY MANAGEMENT, 5HR/WK.  4) J & J BOAT OWNERS LLC, NOT INVESTMENT RELATED, ADDRESS IS THE RESIDENTIAL ADDRESS, HOLDING COMPANY FOR PERSONAL PLEASURE BOAT, START DECEMBER 2013, ONE HOUR PER WEEK - NOT DURING TRADING HOURS, CO-OWNER OF PERSONAL BOAT."
    }
  },
  "DRPs": [
    {
      "hasRegAction": 1,
      "hasRegActionSpecified": true,
      "hasCriminal": 1,
      "hasCriminalSpecified": true,
      "hasBankrupt": 1,
      "hasBankruptSpecified": true,
      "hasCivilJudc": 1,
      "hasCivilJudcSpecified": true,
      "hasBond": 1,
      "hasBondSpecified": true,
      "hasJudgment": 1,
      "hasJudgmentSpecified": true,
      "hasInvstgn": 1,
      "hasInvstgnSpecified": true,
      "hasCustComp": 0,
      "hasCustCompSpecified": true,
      "hasTermination": 1,
      "hasTerminationSpecified": true
    }
  ]
}