{
  "Info": {
    "lastNm": "GIARDINO",
    "firstNm": "JOSEPH",
    "midNm": "ANTHONY",
    "sufNm": null,
    "indvlPK": "4516004",
    "actvAGReg": 0,
    "link": "http://www.adviserinfo.sec.gov/IAPD/Individual/4516004"
  },
  "OthrNms": [
    {
      "lastNm": "GIARDINO ",
      "firstNm": "JOSEPH ",
      "midNm": "ANTHONY ",
      "sufNm": null
    }
  ],
  "CrntEmps": [
    {
      "CrntRgstns": [
        {
          "regAuth": 45,
          "regCat": 0,
          "st": 3,
          "stDt": "2014-12-10T00:00:00"
        }
      ],
      "BrnchOfLocs": [
        {
          "str1": "1010 NORTHERN BLVD",
          "str2": null,
          "city": "GREAT NECK",
          "state": 35,
          "stateSpecified": true,
          "cntry": "United States",
          "postlCd": "11021"
        }
      ],
      "orgNm": "MERRILL LYNCH, PIERCE, FENNER & SMITH INCORPORATED",
      "orgPK": "7691",
      "str1": "ONE BRYANT PARK",
      "str2": null,
      "city": "NEW YORK",
      "state": 35,
      "stateSpecified": true,
      "cntry": "United States",
      "postlCd": "10036"
    }
  ],
  "Exms": [
    {
      "exmCd": 0,
      "exmNm": "Uniform Securities Agent State Law Examination",
      "exmDt": "2002-10-23T00:00:00",
      "exmDtSpecified": true
    },
    {
      "exmCd": 2,
      "exmNm": "Uniform Investment Adviser Law Examination",
      "exmDt": "2009-10-27T00:00:00",
      "exmDtSpecified": true
    }
  ],
  "Dsgntns": [],
  "PrevRgstns": [],
  "EmpHss": [
    {
      "fromDt": "10/2000",
      "toDt": "06/2009",
      "orgNm": "CITIGROUP GLOBAL MARKETS INC.",
      "city": "JERICHO",
      "state": 35,
      "stateSpecified": true
    },
    {
      "fromDt": "06/2009",
      "toDt": null,
      "orgNm": "MERRILL LYNCH, PIERCE, FENNER & SMITH INCORPORATED",
      "city": "GREAT NECK",
      "state": 35,
      "stateSpecified": true
    },
    {
      "fromDt": "06/2009",
      "toDt": "06/2009",
      "orgNm": "MORGAN STANLEY SMITH BARNEY",
      "city": "JERICHO",
      "state": 35,
      "stateSpecified": true
    },
    {
      "fromDt": "12/2009",
      "toDt": null,
      "orgNm": "BANK OF AMERICA, N.A.",
      "city": "GREAT NECK",
      "state": 35,
      "stateSpecified": true
    }
  ],
  "OthrBuss": {
    "OthrBus": null
  },
  "DRPs": []
}