{
  "Info": {
    "lastNm": "CARAFA",
    "firstNm": "FRANCESCO",
    "midNm": "ANTONIO",
    "sufNm": null,
    "indvlPK": "4523304",
    "actvAGReg": 0,
    "link": "http://www.adviserinfo.sec.gov/IAPD/Individual/4523304"
  },
  "OthrNms": [
    {
      "lastNm": "CARAFA",
      "firstNm": "FRANCESCO",
      "midNm": "A.",
      "sufNm": null
    },
    {
      "lastNm": "CARAFA",
      "firstNm": "FRANK",
      "midNm": null,
      "sufNm": null
    }
  ],
  "CrntEmps": [
    {
      "CrntRgstns": [
        {
          "regAuth": 39,
          "regCat": 0,
          "st": 2,
          "stDt": "2014-11-26T00:00:00"
        }
      ],
      "BrnchOfLocs": [
        {
          "str1": "CHESTER ROAD AND RUTGERS AVENUE",
          "str2": null,
          "city": "SWARTHMORE",
          "state": 39,
          "stateSpecified": true,
          "cntry": "United States",
          "postlCd": "19081"
        }
      ],
      "orgNm": "PNC INVESTMENTS",
      "orgPK": "129052",
      "str1": "300 FIFTH AVENUE",
      "str2": "26TH FLOOR",
      "city": "PITTSBURGH",
      "state": 39,
      "stateSpecified": true,
      "cntry": "United States",
      "postlCd": "15222-2722"
    }
  ],
  "Exms": [
    {
      "exmCd": 0,
      "exmNm": "Uniform Securities Agent State Law Examination",
      "exmDt": "2002-05-06T00:00:00",
      "exmDtSpecified": true
    },
    {
      "exmCd": 3,
      "exmNm": "Uniform Combined State Law Examination",
      "exmDt": "2014-11-26T00:00:00",
      "exmDtSpecified": true
    }
  ],
  "Dsgntns": [],
  "PrevRgstns": [],
  "EmpHss": [
    {
      "fromDt": "05/2005",
      "toDt": "04/2009",
      "orgNm": "ALLSTATE INSURANCE COMPANY",
      "city": "BUCKINGHAM",
      "state": 39,
      "stateSpecified": true
    },
    {
      "fromDt": "04/2009",
      "toDt": "06/2012",
      "orgNm": "PNC BANK",
      "city": "MEDIA",
      "state": 39,
      "stateSpecified": true
    },
    {
      "fromDt": "04/2009",
      "toDt": "06/2012",
      "orgNm": "PNC INVESTMENTS",
      "city": "MEDIA",
      "state": 39,
      "stateSpecified": true
    },
    {
      "fromDt": "06/2012",
      "toDt": "12/2014",
      "orgNm": "PNC INVESTMENTS",
      "city": "MEDIA",
      "state": 39,
      "stateSpecified": true
    },
    {
      "fromDt": "12/2014",
      "toDt": null,
      "orgNm": "PNC INVESTMENTS LLC",
      "city": "SWARTHMORE",
      "state": 39,
      "stateSpecified": true
    }
  ],
  "OthrBuss": {
    "OthrBus": {
      "desc": "I OWN TWO CONDOS IN SOUTH JERSEY, 43 & 45 SANDRA ROAD, VOORHEES, NJ  08043.  I AM THE LANDLORD/OWNER OF THE PROPERTIES & I COLLECT RENT MONTHLY FROM THESE TENANTS.  THIS IS NOT INVESTMENT-RELATED & I HAVE OWNED THESE PROPERTIES SINCE JANUARY 2000 THUR PRESENT.  ONE HOUR PER MONTH IS DEVOTED TO MY PROPERTIES AND IS NEVER DURING BUSINESS HOURS.  MY DUTIES INCLUDE COLLECTION OF RENT & DIRECTING MAINTENANCE OF THE PROPERTIES."
    }
  },
  "DRPs": []
}