{
  "Info": {
    "lastNm": "PALADINI",
    "firstNm": "MATTHEW",
    "midNm": "MARK",
    "sufNm": null,
    "indvlPK": "4527850",
    "actvAGReg": 1,
    "link": "http://www.adviserinfo.sec.gov/IAPD/Individual/4527850"
  },
  "OthrNms": [],
  "CrntEmps": [
    {
      "CrntRgstns": [
        {
          "regAuth": 45,
          "regCat": 0,
          "st": 2,
          "stDt": "2006-04-07T00:00:00"
        },
        {
          "regAuth": 19,
          "regCat": 0,
          "st": 2,
          "stDt": "2007-09-26T00:00:00"
        },
        {
          "regAuth": 10,
          "regCat": 0,
          "st": 2,
          "stDt": "2007-10-11T00:00:00"
        },
        {
          "regAuth": 28,
          "regCat": 0,
          "st": 2,
          "stDt": "2007-10-15T00:00:00"
        },
        {
          "regAuth": 9,
          "regCat": 0,
          "st": 2,
          "stDt": "2007-11-05T00:00:00"
        },
        {
          "regAuth": 37,
          "regCat": 0,
          "st": 2,
          "stDt": "2015-08-27T00:00:00"
        },
        {
          "regAuth": 42,
          "regCat": 0,
          "st": 2,
          "stDt": "2015-09-23T00:00:00"
        }
      ],
      "BrnchOfLocs": [
        {
          "str1": "1161 CORPORATE DRIVE WEST",
          "str2": "SUITE 310",
          "city": "ARLINGTON",
          "state": 45,
          "stateSpecified": true,
          "cntry": "United States",
          "postlCd": "76006"
        }
      ],
      "orgNm": "PALADINI FINANCIAL ADVISORS, LLC",
      "orgPK": "139884",
      "str1": "1161 CORPORATE DRIVE WEST",
      "str2": "SUITE 310",
      "city": "ARLINGTON",
      "state": 45,
      "stateSpecified": true,
      "cntry": "United States",
      "postlCd": "76006"
    }
  ],
  "Exms": [
    {
      "exmCd": 2,
      "exmNm": "Uniform Investment Adviser Law Examination",
      "exmDt": "2000-12-08T00:00:00",
      "exmDtSpecified": true
    }
  ],
  "Dsgntns": [
    {
      "dsgntnNm": "Certified Financial Planner"
    }
  ],
  "PrevRgstns": [
    {
      "BrnchOfLocs": [
        {
          "city": "DALLAS",
          "state": 45,
          "stateSpecified": true
        }
      ],
      "orgNm": "ERNST & YOUNG INVESTMENT ADVISERS LLP",
      "orgPK": "110921",
      "regBeginDt": "2002-04-17T00:00:00",
      "regBeginDtSpecified": true,
      "regEndDt": "2002-12-17T00:00:00",
      "regEndDtSpecified": true
    },
    {
      "BrnchOfLocs": [
        {
          "city": "DALLAS",
          "state": 45,
          "stateSpecified": true
        }
      ],
      "orgNm": "CAIN, WATTERS & ASSOCIATES, P.L.L.C.",
      "orgPK": "111521",
      "regBeginDt": "2003-01-16T00:00:00",
      "regBeginDtSpecified": true,
      "regEndDt": "2006-08-31T00:00:00",
      "regEndDtSpecified": true
    }
  ],
  "EmpHss": [
    {
      "fromDt": "02/2006",
      "toDt": null,
      "orgNm": "PALADINI FINANCIAL MANAGEMENT, INC.",
      "city": "IRVING",
      "state": 45,
      "stateSpecified": true
    },
    {
      "fromDt": "05/2009",
      "toDt": null,
      "orgNm": "WEALTH ADVISORS TRUST COMPANY",
      "city": "IRVING",
      "state": 45,
      "stateSpecified": true
    },
    {
      "fromDt": "05/2015",
      "toDt": null,
      "orgNm": "PALADINI FINANCIAL ADVISORS, LLC",
      "city": "ARLINGTON",
      "state": 45,
      "stateSpecified": true
    }
  ],
  "OthrBuss": {
    "OthrBus": {
      "desc": "WEALTH ADVISORS TRUST COMPANY, INVESTMENT-RELATED; 330 SOUTH POPLAR AVE., STE. 103, PIERRE, SD 57501; TRUST COMPANY PARTNER SINCE 5/2009; # OF HR/MONTH = 12; # OF HR/MONTH DURING TRADING HOURS = 8; DUTIES:  OWNER AND MEMBER OF BOARD OF DIRECTORS."
    }
  },
  "DRPs": []
}