{
  "Info": {
    "lastNm": "FITZPATRICK",
    "firstNm": "RICHARD",
    "midNm": "MARK",
    "sufNm": null,
    "indvlPK": "4532918",
    "actvAGReg": 0,
    "link": "http://www.adviserinfo.sec.gov/IAPD/Individual/4532918"
  },
  "OthrNms": [
    {
      "lastNm": "FITZPATRICK",
      "firstNm": "MARK",
      "midNm": null,
      "sufNm": null
    },
    {
      "lastNm": "FITZPATRICK",
      "firstNm": "R.",
      "midNm": "MARK",
      "sufNm": null
    }
  ],
  "CrntEmps": [
    {
      "CrntRgstns": [
        {
          "regAuth": 8,
          "regCat": 0,
          "st": 2,
          "stDt": "2009-06-01T00:00:00"
        }
      ],
      "BrnchOfLocs": [
        {
          "str1": "2751 CENTERVILLE RD  SUITE 104",
          "str2": "LITTLE FALLS CENTER BUILDING # 2 NORTH",
          "city": "WILMINGTON",
          "state": 8,
          "stateSpecified": true,
          "cntry": "United States",
          "postlCd": "19808"
        }
      ],
      "orgNm": "MORGAN STANLEY",
      "orgPK": "149777",
      "str1": "2000 WESTCHESTER AVENUE",
      "str2": null,
      "city": "PURCHASE",
      "state": 35,
      "stateSpecified": true,
      "cntry": "United States",
      "postlCd": "10577-2530"
    }
  ],
  "Exms": [
    {
      "exmCd": 3,
      "exmNm": "Uniform Combined State Law Examination",
      "exmDt": "2002-07-25T00:00:00",
      "exmDtSpecified": true
    }
  ],
  "Dsgntns": [],
  "PrevRgstns": [
    {
      "BrnchOfLocs": [
        {
          "city": "WILMINGTON",
          "state": 8,
          "stateSpecified": true
        },
        {
          "city": "WILMINGTON",
          "state": 8,
          "stateSpecified": true
        }
      ],
      "orgNm": "MORGAN STANLEY DW INC.",
      "orgPK": "7556",
      "regBeginDt": "2002-08-21T00:00:00",
      "regBeginDtSpecified": true,
      "regEndDt": "2007-04-02T00:00:00",
      "regEndDtSpecified": true
    },
    {
      "BrnchOfLocs": [
        {
          "city": "WILMINGTON",
          "state": 8,
          "stateSpecified": true
        }
      ],
      "orgNm": "MORGAN STANLEY & CO. LLC",
      "orgPK": "8209",
      "regBeginDt": "2007-04-02T00:00:00",
      "regBeginDtSpecified": true,
      "regEndDt": "2009-06-01T00:00:00",
      "regEndDtSpecified": true
    }
  ],
  "EmpHss": [
    {
      "fromDt": "04/2002",
      "toDt": "04/2007",
      "orgNm": "MORGAN STANLEY DW INC.",
      "city": "WILMINGTON",
      "state": 8,
      "stateSpecified": true
    },
    {
      "fromDt": "04/2007",
      "toDt": "06/2009",
      "orgNm": "MORGAN STANLEY & CO., INCORPORATED",
      "city": "WILMINGTON",
      "state": 8,
      "stateSpecified": true
    },
    {
      "fromDt": "06/2009",
      "toDt": null,
      "orgNm": "MORGAN STANLEY SMITH BARNEY",
      "city": "WILMINGTON",
      "state": 8,
      "stateSpecified": true
    },
    {
      "fromDt": "01/2015",
      "toDt": null,
      "orgNm": "MORGAN STANLEY PRIVATE BANK, NATIONAL ASSOCIATION",
      "city": "NEW YORK",
      "state": 35,
      "stateSpecified": true
    }
  ],
  "OthrBuss": {
    "OthrBus": null
  },
  "DRPs": []
}