{
  "Info": {
    "lastNm": "KITCHEN",
    "firstNm": "WAYNE",
    "midNm": "ARNOLD",
    "sufNm": null,
    "indvlPK": "4533473",
    "actvAGReg": 0,
    "link": "http://www.adviserinfo.sec.gov/IAPD/Individual/4533473"
  },
  "OthrNms": [],
  "CrntEmps": [
    {
      "CrntRgstns": [
        {
          "regAuth": 17,
          "regCat": 0,
          "st": 2,
          "stDt": "2007-03-02T00:00:00"
        }
      ],
      "BrnchOfLocs": [
        {
          "str1": "2445 SW WANNAMAKER ROAD",
          "str2": "1ST FLOOR",
          "city": "TOPEKA",
          "state": 17,
          "stateSpecified": true,
          "cntry": "United States",
          "postlCd": "66614"
        }
      ],
      "orgNm": "STIFEL, NICOLAUS & COMPANY, INCORPORATED",
      "orgPK": "793",
      "str1": "501 N BROADWAY",
      "str2": null,
      "city": "ST LOUIS",
      "state": 25,
      "stateSpecified": true,
      "cntry": "United States",
      "postlCd": "63102"
    }
  ],
  "Exms": [
    {
      "exmCd": 3,
      "exmNm": "Uniform Combined State Law Examination",
      "exmDt": "2002-08-08T00:00:00",
      "exmDtSpecified": true
    }
  ],
  "Dsgntns": [],
  "PrevRgstns": [
    {
      "BrnchOfLocs": [
        {
          "city": "TOPEKA",
          "state": 17,
          "stateSpecified": true
        },
        {
          "city": "TOPEKA",
          "state": 17,
          "stateSpecified": true
        }
      ],
      "orgNm": "PIPER JAFFRAY & CO.",
      "orgPK": "665",
      "regBeginDt": "2002-08-12T00:00:00",
      "regBeginDtSpecified": true,
      "regEndDt": "2006-08-12T00:00:00",
      "regEndDtSpecified": true
    },
    {
      "BrnchOfLocs": [
        {
          "city": "TOPEKA",
          "state": 17,
          "stateSpecified": true
        }
      ],
      "orgNm": "UBS FINANCIAL SERVICES INC.",
      "orgPK": "8174",
      "regBeginDt": "2006-08-12T00:00:00",
      "regBeginDtSpecified": true,
      "regEndDt": "2007-03-21T00:00:00",
      "regEndDtSpecified": true
    }
  ],
  "EmpHss": [
    {
      "fromDt": "05/2002",
      "toDt": "08/2006",
      "orgNm": "U. S. BANCORP PIPER JAFFRAY INC.",
      "city": "TOPEKA",
      "state": 17,
      "stateSpecified": true
    },
    {
      "fromDt": "08/2006",
      "toDt": "03/2007",
      "orgNm": "UBS FINANCIAL SERVICES INC.",
      "city": "TOPEKA",
      "state": 17,
      "stateSpecified": true
    },
    {
      "fromDt": "03/2007",
      "toDt": null,
      "orgNm": "STIFEL, NICOLAUS & COMPANY, INCORPORATED",
      "city": "TOPEKA",
      "state": 17,
      "stateSpecified": true
    }
  ],
  "OthrBuss": {
    "OthrBus": {
      "desc": "1. FAMILY FARM; 50% OWNER;100 HOURS PER YEAR; NOT DURING SECURITY HOURS."
    }
  },
  "DRPs": []
}