{
  "Info": {
    "lastNm": "VIREN",
    "firstNm": "STEVEN",
    "midNm": "DANIEL",
    "sufNm": null,
    "indvlPK": "4540982",
    "actvAGReg": 0,
    "link": "http://www.adviserinfo.sec.gov/IAPD/Individual/4540982"
  },
  "OthrNms": [
    {
      "lastNm": "VIREN",
      "firstNm": "STEVE ",
      "midNm": "D",
      "sufNm": null
    },
    {
      "lastNm": "VIREN",
      "firstNm": "STEVE",
      "midNm": "D",
      "sufNm": null
    }
  ],
  "CrntEmps": [
    {
      "CrntRgstns": [
        {
          "regAuth": 15,
          "regCat": 0,
          "st": 2,
          "stDt": "2011-09-01T00:00:00"
        }
      ],
      "BrnchOfLocs": [
        {
          "str1": "333 WEST WACKER DRIVE",
          "str2": null,
          "city": "CHICAGO",
          "state": 15,
          "stateSpecified": true,
          "cntry": "United States",
          "postlCd": "60606"
        }
      ],
      "orgNm": "NUVEEN ASSET MANAGEMENT, LLC",
      "orgPK": "155584",
      "str1": "333 WEST WACKER DRIVE",
      "str2": null,
      "city": "CHICAGO",
      "state": 15,
      "stateSpecified": true,
      "cntry": "United States",
      "postlCd": "60606"
    }
  ],
  "Exms": [
    {
      "exmCd": 0,
      "exmNm": "Uniform Securities Agent State Law Examination",
      "exmDt": "2003-09-18T00:00:00",
      "exmDtSpecified": true
    },
    {
      "exmCd": 2,
      "exmNm": "Uniform Investment Adviser Law Examination",
      "exmDt": "2006-05-22T00:00:00",
      "exmDtSpecified": true
    }
  ],
  "Dsgntns": [],
  "PrevRgstns": [
    {
      "BrnchOfLocs": [
        {
          "city": "ANNAPOLIS",
          "state": 21,
          "stateSpecified": true
        }
      ],
      "orgNm": "1717 CAPITAL MANAGEMENT COMPANY",
      "orgPK": "4082",
      "regBeginDt": "2006-09-25T00:00:00",
      "regBeginDtSpecified": true,
      "regEndDt": "2006-10-28T00:00:00",
      "regEndDtSpecified": true
    },
    {
      "BrnchOfLocs": [
        {
          "city": "CHICAGO",
          "state": 15,
          "stateSpecified": true
        }
      ],
      "orgNm": "BROKERSXPRESS LLC",
      "orgPK": "127081",
      "regBeginDt": "2008-08-07T00:00:00",
      "regBeginDtSpecified": true,
      "regEndDt": "2010-07-12T00:00:00",
      "regEndDtSpecified": true
    },
    {
      "BrnchOfLocs": [
        {
          "city": "CHICAGO",
          "state": 15,
          "stateSpecified": true
        }
      ],
      "orgNm": "NUVEEN FUND ADVISORS, LLC",
      "orgPK": "104626",
      "regBeginDt": "2010-07-21T00:00:00",
      "regBeginDtSpecified": true,
      "regEndDt": "2011-09-01T00:00:00",
      "regEndDtSpecified": true
    }
  ],
  "EmpHss": [
    {
      "fromDt": "10/2005",
      "toDt": "10/2006",
      "orgNm": "NATIONWIDE SECURITIES, INC.",
      "city": "ANNAPOLIS",
      "state": 21,
      "stateSpecified": true
    },
    {
      "fromDt": "11/2006",
      "toDt": "02/2007",
      "orgNm": "UNEMPLOYED",
      "city": "DUBLIN",
      "state": 36,
      "stateSpecified": true
    },
    {
      "fromDt": "02/2007",
      "toDt": "07/2010",
      "orgNm": "OPTIONSXPRESS, INC.",
      "city": "CHICAGO",
      "state": 15,
      "stateSpecified": true
    },
    {
      "fromDt": "08/2008",
      "toDt": "07/2010",
      "orgNm": "BROKERSXPRESS",
      "city": "CHICAGO",
      "state": 15,
      "stateSpecified": true
    },
    {
      "fromDt": "07/2010",
      "toDt": null,
      "orgNm": "NUVEEN INVESTMENTS, LLC",
      "city": "CHICAGO",
      "state": 15,
      "stateSpecified": true
    },
    {
      "fromDt": "09/2011",
      "toDt": null,
      "orgNm": "NUVEEN ASSET MANAGEMENT, LLC",
      "city": "CHICAGO",
      "state": 15,
      "stateSpecified": true
    }
  ],
  "OthrBuss": {
    "OthrBus": null
  },
  "DRPs": []
}