{
  "Info": {
    "lastNm": "WATSON",
    "firstNm": "MARIANNE",
    "midNm": null,
    "sufNm": null,
    "indvlPK": "4546166",
    "actvAGReg": 0,
    "link": "http://www.adviserinfo.sec.gov/IAPD/Individual/4546166"
  },
  "OthrNms": [
    {
      "lastNm": "SARANEN",
      "firstNm": "MARIANNE",
      "midNm": null,
      "sufNm": null
    }
  ],
  "CrntEmps": [
    {
      "CrntRgstns": [
        {
          "regAuth": 23,
          "regCat": 0,
          "st": 2,
          "stDt": "2016-03-07T00:00:00"
        }
      ],
      "BrnchOfLocs": [
        {
          "str1": "200 East Main Street",
          "str2": null,
          "city": "Harbor Springs",
          "state": 23,
          "stateSpecified": true,
          "cntry": "United States",
          "postlCd": "49740"
        }
      ],
      "orgNm": "CETERA INVESTMENT ADVISERS LLC",
      "orgPK": "105644",
      "str1": "200 NORTH MARTINGALE ROAD",
      "str2": null,
      "city": "SCHAUMBURG",
      "state": 15,
      "stateSpecified": true,
      "cntry": "United States",
      "postlCd": "60173-2096"
    }
  ],
  "Exms": [
    {
      "exmCd": 0,
      "exmNm": "Uniform Securities Agent State Law Examination",
      "exmDt": "2002-09-27T00:00:00",
      "exmDtSpecified": true
    },
    {
      "exmCd": 2,
      "exmNm": "Uniform Investment Adviser Law Examination",
      "exmDt": "2016-02-16T00:00:00",
      "exmDtSpecified": true
    }
  ],
  "Dsgntns": [],
  "PrevRgstns": [],
  "EmpHss": [
    {
      "fromDt": "08/2001",
      "toDt": null,
      "orgNm": "FIRST COMMUNITY BANK",
      "city": "HARBOR SPRINGS",
      "state": 23,
      "stateSpecified": true
    },
    {
      "fromDt": "06/2002",
      "toDt": null,
      "orgNm": "CETERA INVESTMENT SERVICES LLC",
      "city": "ST. CLOUD",
      "state": 24,
      "stateSpecified": true
    },
    {
      "fromDt": "03/2016",
      "toDt": null,
      "orgNm": "Cetera Investment Advisers LLC",
      "city": "Harbor Springs",
      "state": 23,
      "stateSpecified": true
    }
  ],
  "OthrBuss": {
    "OthrBus": null
  },
  "DRPs": []
}