{
  "Info": {
    "lastNm": "PHILPOT",
    "firstNm": "RANDALL",
    "midNm": "EUGENE",
    "sufNm": null,
    "indvlPK": "4555767",
    "actvAGReg": 0,
    "link": "http://www.adviserinfo.sec.gov/IAPD/Individual/4555767"
  },
  "OthrNms": [
    {
      "lastNm": "PHILPOT",
      "firstNm": "RANDY",
      "midNm": null,
      "sufNm": null
    }
  ],
  "CrntEmps": [
    {
      "CrntRgstns": [
        {
          "regAuth": 2,
          "regCat": 0,
          "st": 2,
          "stDt": "2003-01-10T00:00:00"
        }
      ],
      "BrnchOfLocs": [
        {
          "str1": "3101 SOUTH 70TH",
          "str2": null,
          "city": "FORT SMITH",
          "state": 2,
          "stateSpecified": true,
          "cntry": "United States",
          "postlCd": "72903"
        }
      ],
      "orgNm": "1ST GLOBAL ADVISORS INC",
      "orgPK": "111133",
      "str1": "12750 MERIT DRIVE",
      "str2": "SUITE 1200",
      "city": "DALLAS",
      "state": 45,
      "stateSpecified": true,
      "cntry": "United States",
      "postlCd": "75251"
    }
  ],
  "Exms": [
    {
      "exmCd": 3,
      "exmNm": "Uniform Combined State Law Examination",
      "exmDt": "2002-11-05T00:00:00",
      "exmDtSpecified": true
    }
  ],
  "Dsgntns": [],
  "PrevRgstns": [
    {
      "BrnchOfLocs": [
        {
          "city": "FORT SMITH",
          "state": 2,
          "stateSpecified": true
        }
      ],
      "orgNm": "BEALL BARCLAY ADVISORS, LLC",
      "orgPK": "133278",
      "regBeginDt": "2005-05-04T00:00:00",
      "regBeginDtSpecified": true,
      "regEndDt": "2008-10-27T00:00:00",
      "regEndDtSpecified": true
    }
  ],
  "EmpHss": [
    {
      "fromDt": "06/1983",
      "toDt": null,
      "orgNm": "BEALL BARCLAY & COMPANY, PLC CPA'S",
      "city": "FORT SMTIH",
      "state": 2,
      "stateSpecified": true
    },
    {
      "fromDt": "07/2002",
      "toDt": null,
      "orgNm": "1ST GLOBAL CAPITAL CORP.",
      "city": "FORT SMITH",
      "state": 2,
      "stateSpecified": true
    },
    {
      "fromDt": "01/2003",
      "toDt": null,
      "orgNm": "1ST GLOBAL ADVISORS, INC.",
      "city": "FORT SMITH",
      "state": 2,
      "stateSpecified": true
    },
    {
      "fromDt": "02/2005",
      "toDt": "12/2008",
      "orgNm": "BEALL BARCLAY ADVISORS, LLC",
      "city": "FORT SMITH",
      "state": 2,
      "stateSpecified": true
    },
    {
      "fromDt": "06/2005",
      "toDt": null,
      "orgNm": "1ST GLOBAL INSURANCE SERVICES, INC",
      "city": "FORT SMITH",
      "state": 2,
      "stateSpecified": true
    }
  ],
  "OthrBuss": {
    "OthrBus": {
      "desc": "1)BEALL BARCLAY WEALTH MANAGEMENT, LLC,NOT INVESTMENT RELATED,3101 SOUTH 70TH FORT SMITH ARKANSAS 72903,FINANCIAL SERVICES FIRM,FINANCIAL ADVISOR/OWNER, START DATE OF JULY 2002, ESTIMATE 10 HOURS A MONTH WORKED, LESS THAN ONE HOUR A DAY DURING TRADING HOURS, OFFERING FINANCIAL SERVICES TO CLIENTS 2) 3101 PARTNERSHIP, LLC; FORT SMITH, AR; NON INVESTMENT RELATED; REAL ESTATE PARTNERSHIP; 8% OWNER; 1993  3) WEST ELM, LLC; ROGERS, AR; REAL ESTATE; LLC OWNS A BUILDING AND RENTS IT TO THE CPA FIRM; 1 OF 10+ OWNERS OF THE LLC  4) SILVER BUFFALO, LLC, INVESTMENT RELATED, CHECK SIGNING, FORT SMITH, AR, REAL ESTATE, NO SSETS ACQUIRED AT THIS TIME BUT ENTITY WAS FORMED WITH INTENT OF POSSIBLY PURCHASING RENTAL REAL ESTATE, MAYBE SINGLE FAMILY, MAYBE MULTI-FAMILY, 100% OWNER; SINGLE MEMBER LLC WITH ME AS THE OWNER, 07/31/14, 40-60 HRS MAYBE/MO, 2 OR 3 BUT I AM REFERRING CPA SO NOT TIED TO TRADING HOURS, SOLE OWNER SO WOULD DO ALL MANAGEMENT OF ENTITY IF AND WHEN ASSETS ARE ACQUIRED"
    }
  },
  "DRPs": []
}