{
  "Info": {
    "lastNm": "STROMGREN",
    "firstNm": "AMY",
    "midNm": "LYNN",
    "sufNm": null,
    "indvlPK": "4559862",
    "actvAGReg": 0,
    "link": "http://www.adviserinfo.sec.gov/IAPD/Individual/4559862"
  },
  "OthrNms": [
    {
      "lastNm": "SLYGH",
      "firstNm": "AMY",
      "midNm": "LYNN",
      "sufNm": null
    },
    {
      "lastNm": "STROMGREN",
      "firstNm": "AMY",
      "midNm": "L",
      "sufNm": null
    }
  ],
  "CrntEmps": [
    {
      "CrntRgstns": [
        {
          "regAuth": 24,
          "regCat": 0,
          "st": 2,
          "stDt": "2014-02-04T00:00:00"
        }
      ],
      "BrnchOfLocs": [
        {
          "str1": "900 LONG LAKE RD",
          "str2": "STE 220",
          "city": "NEW BRIGHTON",
          "state": 24,
          "stateSpecified": true,
          "cntry": "United States",
          "postlCd": "55112-6438"
        }
      ],
      "orgNm": "AMERIPRISE FINANCIAL SERVICES, INC.",
      "orgPK": "6363",
      "str1": "707 2ND AVENUE SOUTH",
      "str2": null,
      "city": "MINNEAPOLIS",
      "state": 24,
      "stateSpecified": true,
      "cntry": "United States",
      "postlCd": "55402"
    }
  ],
  "Exms": [
    {
      "exmCd": 0,
      "exmNm": "Uniform Securities Agent State Law Examination",
      "exmDt": "2004-07-23T00:00:00",
      "exmDtSpecified": true
    }
  ],
  "Dsgntns": [],
  "PrevRgstns": [],
  "EmpHss": [
    {
      "fromDt": "03/2004",
      "toDt": "02/2007",
      "orgNm": "PIPER JAFFRAY & CO",
      "city": "DULUTH",
      "state": 24,
      "stateSpecified": true
    },
    {
      "fromDt": "08/2006",
      "toDt": "02/2007",
      "orgNm": "UBS FINANCIAL SERVICES INC.",
      "city": "MINNEAPOLIS",
      "state": 24,
      "stateSpecified": true
    },
    {
      "fromDt": "02/2007",
      "toDt": "05/2007",
      "orgNm": "LINSCO PRIVATE LEDGER",
      "city": "VADNAIS HEIGHTS",
      "state": 24,
      "stateSpecified": true
    },
    {
      "fromDt": "02/2007",
      "toDt": "05/2007",
      "orgNm": "WEALTH ENHANCEMENT GROUP, LLC",
      "city": "WAYZATA",
      "state": 24,
      "stateSpecified": true
    },
    {
      "fromDt": "03/2007",
      "toDt": "05/2007",
      "orgNm": "WEALTH ENHANCEMENT BROKERAGE SERVICES, LLC",
      "city": "WAYZATA",
      "state": 24,
      "stateSpecified": true
    },
    {
      "fromDt": "06/2007",
      "toDt": "11/2010",
      "orgNm": "UBS FINANCIAL SERVICES INC.",
      "city": "MINNEAPOLIS",
      "state": 24,
      "stateSpecified": true
    },
    {
      "fromDt": "11/2010",
      "toDt": null,
      "orgNm": "AMERIPRISE FINANCIAL SERVICES INC.",
      "city": "EDINA",
      "state": 24,
      "stateSpecified": true
    }
  ],
  "OthrBuss": {
    "OthrBus": {
      "desc": "BUSINESS OWNERSHIP; AMY'S LIL TREASURES; OWNER; ONLINE STORE ON ETSY. I MAKE AND SELL CROCHETED ITEMS AND ITEMS FOR YOUR HAIR.; RAPIDS MN 55433; NOT INVESTMENT RELATED; SEPTEMBER 2010; 40-59 HRS PER MONTH; 0 DURING TRADING HOURS."
    }
  },
  "DRPs": []
}