{
  "Info": {
    "lastNm": "KELVINGTON",
    "firstNm": "BRUCE",
    "midNm": "DARYL",
    "sufNm": null,
    "indvlPK": "4561725",
    "actvAGReg": 1,
    "link": "http://www.adviserinfo.sec.gov/IAPD/Individual/4561725"
  },
  "OthrNms": [
    {
      "lastNm": "KELVINGTON",
      "firstNm": "BRUCE",
      "midNm": "DARYL",
      "sufNm": null
    }
  ],
  "CrntEmps": [
    {
      "CrntRgstns": [
        {
          "regAuth": 9,
          "regCat": 0,
          "st": 2,
          "stDt": "2005-01-04T00:00:00"
        }
      ],
      "BrnchOfLocs": [
        {
          "str1": null,
          "str2": null,
          "city": "ORLANDO",
          "state": 9,
          "stateSpecified": true,
          "cntry": "United States",
          "postlCd": null
        }
      ],
      "orgNm": "SKADVISORS, LLC",
      "orgPK": "133532",
      "str1": null,
      "str2": null,
      "city": "ORLANDO",
      "state": 9,
      "stateSpecified": true,
      "cntry": "United States",
      "postlCd": null
    }
  ],
  "Exms": [
    {
      "exmCd": 2,
      "exmNm": "Uniform Investment Adviser Law Examination",
      "exmDt": "1999-12-19T00:00:00",
      "exmDtSpecified": true
    }
  ],
  "Dsgntns": [],
  "PrevRgstns": [
    {
      "BrnchOfLocs": [
        {
          "city": "WINTER PARK",
          "state": 9,
          "stateSpecified": true
        }
      ],
      "orgNm": "FERRELL WEALTH MANAGEMENT INC.",
      "orgPK": "106245",
      "regBeginDt": "2001-02-23T00:00:00",
      "regBeginDtSpecified": true,
      "regEndDt": "2005-01-10T00:00:00",
      "regEndDtSpecified": true
    }
  ],
  "EmpHss": [
    {
      "fromDt": "11/2004",
      "toDt": null,
      "orgNm": "SKADVISORS, LLC",
      "city": "TITUSVILLE",
      "state": 9,
      "stateSpecified": true
    }
  ],
  "OthrBuss": {
    "OthrBus": null
  },
  "DRPs": []
}