{
  "Info": {
    "lastNm": "KAYLOR",
    "firstNm": "KANDACE",
    "midNm": "KAYE",
    "sufNm": null,
    "indvlPK": "4561084",
    "actvAGReg": 0,
    "link": "http://www.adviserinfo.sec.gov/IAPD/Individual/4561084"
  },
  "OthrNms": [
    {
      "lastNm": "JEROMIN",
      "firstNm": "KANDACE",
      "midNm": "KAYE",
      "sufNm": null
    },
    {
      "lastNm": "KAYLOR",
      "firstNm": "KANDACE",
      "midNm": "KAYE",
      "sufNm": null
    },
    {
      "lastNm": "KAYLOR",
      "firstNm": "KANDACE",
      "midNm": "KAYE",
      "sufNm": null
    }
  ],
  "CrntEmps": [
    {
      "CrntRgstns": [
        {
          "regAuth": 4,
          "regCat": 0,
          "st": 2,
          "stDt": "2016-06-03T00:00:00"
        }
      ],
      "BrnchOfLocs": [
        {
          "str1": "101 CALIFORNIA ST",
          "str2": "16TH FLOOR",
          "city": "SAN FRANCISCO",
          "state": 4,
          "stateSpecified": true,
          "cntry": "United States",
          "postlCd": "94111-6100"
        }
      ],
      "orgNm": "FORWARD MANAGEMENT, LLC",
      "orgPK": "109193",
      "str1": "101 CALIFORNIA ST",
      "str2": "16TH FLOOR",
      "city": "SAN FRANCISCO",
      "state": 4,
      "stateSpecified": true,
      "cntry": "United States",
      "postlCd": "94111-6100"
    }
  ],
  "Exms": [
    {
      "exmCd": 0,
      "exmNm": "Uniform Securities Agent State Law Examination",
      "exmDt": "2002-09-13T00:00:00",
      "exmDtSpecified": true
    },
    {
      "exmCd": 2,
      "exmNm": "Uniform Investment Adviser Law Examination",
      "exmDt": "2015-12-07T00:00:00",
      "exmDtSpecified": true
    }
  ],
  "Dsgntns": [],
  "PrevRgstns": [],
  "EmpHss": [
    {
      "fromDt": "04/2003",
      "toDt": "06/2009",
      "orgNm": "KENSINGTON INVESTMENT GROUP",
      "city": "ORINDA",
      "state": 4,
      "stateSpecified": true
    },
    {
      "fromDt": "09/2004",
      "toDt": "06/2009",
      "orgNm": "QUASAR DISTRIBUTORS, LLC",
      "city": "MILWAUKEE",
      "state": 50,
      "stateSpecified": true
    },
    {
      "fromDt": "06/2009",
      "toDt": null,
      "orgNm": "ALPS DISTRIBUTORS, INC.",
      "city": "DENVER",
      "state": 5,
      "stateSpecified": true
    },
    {
      "fromDt": "06/2009",
      "toDt": null,
      "orgNm": "FORWARD MANAGEMENT",
      "city": "SAN FRANCISCO",
      "state": 4,
      "stateSpecified": true
    }
  ],
  "OthrBuss": {
    "OthrBus": null
  },
  "DRPs": []
}