{
  "Info": {
    "lastNm": "SIMS",
    "firstNm": "DAVID",
    "midNm": "PAUL",
    "sufNm": null,
    "indvlPK": "4570683",
    "actvAGReg": 1,
    "link": "http://www.adviserinfo.sec.gov/IAPD/Individual/4570683"
  },
  "OthrNms": [],
  "CrntEmps": [
    {
      "CrntRgstns": [
        {
          "regAuth": 47,
          "regCat": 0,
          "st": 2,
          "stDt": "2015-06-22T00:00:00"
        }
      ],
      "BrnchOfLocs": [
        {
          "str1": "8263 TRUDI PLACE",
          "str2": null,
          "city": "MECHANICSVILLE",
          "state": 47,
          "stateSpecified": true,
          "cntry": "United States",
          "postlCd": "23111"
        }
      ],
      "orgNm": "RIDGEHAVEN CAPITAL LLC",
      "orgPK": "226688",
      "str1": "8263 TRUDI PLACE",
      "str2": null,
      "city": "MECHANICSVILLE",
      "state": 47,
      "stateSpecified": true,
      "cntry": "United States",
      "postlCd": "23111"
    }
  ],
  "Exms": [
    {
      "exmCd": 3,
      "exmNm": "Uniform Combined State Law Examination",
      "exmDt": "2002-09-10T00:00:00",
      "exmDtSpecified": true
    },
    {
      "exmCd": 2,
      "exmNm": "Uniform Investment Adviser Law Examination",
      "exmDt": "2015-06-09T00:00:00",
      "exmDtSpecified": true
    }
  ],
  "Dsgntns": [],
  "PrevRgstns": [],
  "EmpHss": [
    {
      "fromDt": "08/2004",
      "toDt": "01/2008",
      "orgNm": "KPMG LLP",
      "city": "RICHMOND",
      "state": 47,
      "stateSpecified": true
    },
    {
      "fromDt": "01/2008",
      "toDt": "04/2009",
      "orgNm": "TIMMONS GROUP",
      "city": "RICHMOND",
      "state": 47,
      "stateSpecified": true
    },
    {
      "fromDt": "05/2009",
      "toDt": "07/2012",
      "orgNm": "MWV",
      "city": "RICHMOND",
      "state": 47,
      "stateSpecified": true
    },
    {
      "fromDt": "07/2012",
      "toDt": "11/2013",
      "orgNm": "MCKESSON",
      "city": "RICHMOND",
      "state": 47,
      "stateSpecified": true
    },
    {
      "fromDt": "05/2013",
      "toDt": "04/2014",
      "orgNm": "BERKSHIRE HATHAWAY",
      "city": "RICHMOND",
      "state": 47,
      "stateSpecified": true
    },
    {
      "fromDt": "04/2014",
      "toDt": "04/2015",
      "orgNm": "SELF EMPLOYED DAY TRADER",
      "city": "MECHANICSVILLE",
      "state": 47,
      "stateSpecified": true
    },
    {
      "fromDt": "04/2015",
      "toDt": null,
      "orgNm": "RIDGEHAVEN CAPITAL LLC",
      "city": "MECHANICSVILLE",
      "state": 47,
      "stateSpecified": true
    }
  ],
  "OthrBuss": {
    "OthrBus": null
  },
  "DRPs": []
}