{
  "Info": {
    "lastNm": "BRYLA",
    "firstNm": "MARYANN",
    "midNm": "NMN",
    "sufNm": null,
    "indvlPK": "4570433",
    "actvAGReg": 1,
    "link": "http://www.adviserinfo.sec.gov/IAPD/Individual/4570433"
  },
  "OthrNms": [
    {
      "lastNm": "BRYLA",
      "firstNm": "MARYANN",
      "midNm": null,
      "sufNm": null
    },
    {
      "lastNm": "VASSALLO",
      "firstNm": "MARYANN",
      "midNm": null,
      "sufNm": null
    }
  ],
  "CrntEmps": [
    {
      "CrntRgstns": [
        {
          "regAuth": 32,
          "regCat": 0,
          "st": 2,
          "stDt": "2011-01-03T00:00:00"
        },
        {
          "regAuth": 39,
          "regCat": 0,
          "st": 2,
          "stDt": "2011-01-03T00:00:00"
        }
      ],
      "BrnchOfLocs": [
        {
          "str1": null,
          "str2": null,
          "city": "WOODCLIFF LAKE",
          "state": 32,
          "stateSpecified": true,
          "cntry": "United States",
          "postlCd": null
        }
      ],
      "orgNm": "LBI WEALTH MANAGEMENT, LLC",
      "orgPK": "155641",
      "str1": "177 EAST SADDLE RIVER DRIVE #413",
      "str2": null,
      "city": "SADDLE RIVER",
      "state": 32,
      "stateSpecified": true,
      "cntry": "United States",
      "postlCd": "07458"
    }
  ],
  "Exms": [
    {
      "exmCd": 2,
      "exmNm": "Uniform Investment Adviser Law Examination",
      "exmDt": "2002-11-27T00:00:00",
      "exmDtSpecified": true
    }
  ],
  "Dsgntns": [],
  "PrevRgstns": [
    {
      "BrnchOfLocs": [
        {
          "city": "OAKS",
          "state": 39,
          "stateSpecified": true
        }
      ],
      "orgNm": "SEI INVESTMENTS MANAGEMENT CORPORATION II",
      "orgPK": "117315",
      "regBeginDt": "2003-04-03T00:00:00",
      "regBeginDtSpecified": true,
      "regEndDt": "2005-12-31T00:00:00",
      "regEndDtSpecified": true
    },
    {
      "BrnchOfLocs": [
        {
          "city": "OAKS",
          "state": 39,
          "stateSpecified": true
        }
      ],
      "orgNm": "SEI INVESTMENTS MANAGEMENT CORP",
      "orgPK": "105146",
      "regBeginDt": "2006-01-04T00:00:00",
      "regBeginDtSpecified": true,
      "regEndDt": "2011-04-15T00:00:00",
      "regEndDtSpecified": true
    }
  ],
  "EmpHss": [
    {
      "fromDt": "11/2000",
      "toDt": null,
      "orgNm": "SEI INVESTMENTS",
      "city": "OAKS",
      "state": 39,
      "stateSpecified": true
    },
    {
      "fromDt": "10/2010",
      "toDt": null,
      "orgNm": "LBI WEALTH MANAGEMENT, LLC",
      "city": "WOODCLIFF LAKE",
      "state": 32,
      "stateSpecified": true
    }
  ],
  "OthrBuss": {
    "OthrBus": null
  },
  "DRPs": []
}