{
  "Info": {
    "lastNm": "ARMAS",
    "firstNm": "DANIEL",
    "midNm": "LAMOND",
    "sufNm": null,
    "indvlPK": "4572310",
    "actvAGReg": 0,
    "link": "http://www.adviserinfo.sec.gov/IAPD/Individual/4572310"
  },
  "OthrNms": [],
  "CrntEmps": [
    {
      "CrntRgstns": [
        {
          "regAuth": 32,
          "regCat": 0,
          "st": 2,
          "stDt": "2010-08-05T00:00:00"
        }
      ],
      "BrnchOfLocs": [
        {
          "str1": "379 THORNALL STREET",
          "str2": "14TH FLOOR",
          "city": "EDISON",
          "state": 32,
          "stateSpecified": true,
          "cntry": "United States",
          "postlCd": "08837"
        }
      ],
      "orgNm": "GITTERMAN WEALTH MANAGEMENT, LLC",
      "orgPK": "153062",
      "str1": "379 THORNALL STREET",
      "str2": "14TH FLOOR",
      "city": "EDISON",
      "state": 32,
      "stateSpecified": true,
      "cntry": "United States",
      "postlCd": "08837"
    }
  ],
  "Exms": [
    {
      "exmCd": 3,
      "exmNm": "Uniform Combined State Law Examination",
      "exmDt": "2002-10-30T00:00:00",
      "exmDtSpecified": true
    }
  ],
  "Dsgntns": [
    {
      "dsgntnNm": "Certified Financial Planner"
    }
  ],
  "PrevRgstns": [
    {
      "BrnchOfLocs": [
        {
          "city": "WOODBRIDGE",
          "state": 32,
          "stateSpecified": true
        },
        {
          "city": "WOODBRIDGE",
          "state": 32,
          "stateSpecified": true
        }
      ],
      "orgNm": "VOYA FINANCIAL PARTNERS, LLC",
      "orgPK": "34815",
      "regBeginDt": "2003-03-13T00:00:00",
      "regBeginDtSpecified": true,
      "regEndDt": "2010-05-05T00:00:00",
      "regEndDtSpecified": true
    }
  ],
  "EmpHss": [
    {
      "fromDt": "08/2002",
      "toDt": "05/2010",
      "orgNm": "ING",
      "city": "WOODBRIDGE",
      "state": 32,
      "stateSpecified": true
    },
    {
      "fromDt": "08/2002",
      "toDt": "05/2010",
      "orgNm": "ING FINANCIAL ADVISERS LLC",
      "city": "WOODBRIDGE",
      "state": 32,
      "stateSpecified": true
    },
    {
      "fromDt": "04/2010",
      "toDt": "08/2014",
      "orgNm": "GITTERMAN & ASSOCIATES WEALTH MANAGEMENT, LLC",
      "city": "WOODBRIDGE",
      "state": 32,
      "stateSpecified": true
    },
    {
      "fromDt": "05/2010",
      "toDt": null,
      "orgNm": "TRIAD ADVISORS INC",
      "city": "NORCROSS",
      "state": 10,
      "stateSpecified": true
    },
    {
      "fromDt": "08/2014",
      "toDt": null,
      "orgNm": "GITTERMAN WEALTH MANAGEMENT, LLC",
      "city": "EDISON",
      "state": 32,
      "stateSpecified": true
    }
  ],
  "OthrBuss": {
    "OthrBus": {
      "desc": "1-GITTERMAN WEALTH MANAGEMENT, LLC; INVESTMENT RELATED; 379 THORNALL STREET, 14TH FLOOR EDISON, NEW JERSEY 08837; BRANCH OFFICE UNDER TRIAD (B-D) & MARKET COUNSEL (RIA); SALES; 5/24/10; 160HRS/MONTH; 6.5HRS/DAY; COMPENSATED W-2; SALES  2-ASSOCIATED LIFE BROKERAGE; NON-INVESTMENT RELATED; 135 ROUTE 202/206, SUITE 7, BEDMINSTER NJ 07921; FIXED INSURANCE PRODUCTS; SALES; 4/1/11; 10HRS/MONTH; 3HRS/DAY; COMPENSATED COMMISSIONS; SALES OF FIXED PRODUCTS"
    }
  },
  "DRPs": []
}