{
  "Info": {
    "lastNm": "HOSTETLER",
    "firstNm": "MICHAEL",
    "midNm": "DAVID",
    "sufNm": null,
    "indvlPK": "4577165",
    "actvAGReg": 0,
    "link": "http://www.adviserinfo.sec.gov/IAPD/Individual/4577165"
  },
  "OthrNms": [
    {
      "lastNm": "HOSTETLER",
      "firstNm": "MICHAEL",
      "midNm": "DAVID",
      "sufNm": "MR."
    }
  ],
  "CrntEmps": [
    {
      "CrntRgstns": [
        {
          "regAuth": 10,
          "regCat": 0,
          "st": 2,
          "stDt": "2009-03-25T00:00:00"
        }
      ],
      "BrnchOfLocs": [
        {
          "str1": "202 ABBEY COURT",
          "str2": null,
          "city": "ALPHARETTA",
          "state": 10,
          "stateSpecified": true,
          "cntry": "United States",
          "postlCd": "30004"
        },
        {
          "str1": "3930 EAST JONES BRIDGE ROAD",
          "str2": "150",
          "city": "PEACHTREE CORNERS",
          "state": 10,
          "stateSpecified": true,
          "cntry": "United States",
          "postlCd": "30092"
        }
      ],
      "orgNm": "THE STRATEGIC FINANCIAL ALLIANCE, INC.",
      "orgPK": "126514",
      "str1": "2200 CENTURY PARKWAY",
      "str2": "SUITE 500",
      "city": "ATLANTA",
      "state": 10,
      "stateSpecified": true,
      "cntry": "United States",
      "postlCd": "30345"
    }
  ],
  "Exms": [
    {
      "exmCd": 3,
      "exmNm": "Uniform Combined State Law Examination",
      "exmDt": "2003-01-17T00:00:00",
      "exmDtSpecified": true
    }
  ],
  "Dsgntns": [
    {
      "dsgntnNm": "Certified Financial Planner"
    }
  ],
  "PrevRgstns": [
    {
      "BrnchOfLocs": [
        {
          "city": "ATLANTA",
          "state": 10,
          "stateSpecified": true
        },
        {
          "city": "ATLANTA",
          "state": 10,
          "stateSpecified": true
        }
      ],
      "orgNm": "MERRILL LYNCH, PIERCE, FENNER & SMITH INCORPORATED",
      "orgPK": "7691",
      "regBeginDt": "2003-01-21T00:00:00",
      "regBeginDtSpecified": true,
      "regEndDt": "2009-03-24T00:00:00",
      "regEndDtSpecified": true
    }
  ],
  "EmpHss": [
    {
      "fromDt": "08/2002",
      "toDt": "03/2009",
      "orgNm": "MERRILL LYNCH, PIERCE, FENNER & SMITH INC.",
      "city": "ATLANTA",
      "state": 10,
      "stateSpecified": true
    },
    {
      "fromDt": "03/2009",
      "toDt": null,
      "orgNm": "THE STRATEGIC FINANCIAL ALLIANCE, INC.",
      "city": "ATLANTA",
      "state": 10,
      "stateSpecified": true
    }
  ],
  "OthrBuss": {
    "OthrBus": {
      "desc": "1. CAPITAL INSIGHT GROUP. NOT INVESTMENT RELATED. 3930 EAST JONES BRIDGE RD SUITE 150, PEACHTREE CORNERS, GA 30092. DBA FOR FINANCIAL SERVICES. FINANCIAL PROFESSIONAL. 01/2016. 160 HOURS/MONTH, DURING TRADING. FINANCIAL SERVICES. 2. MT. PARAN CHRISTIAN SCHOOL.  NOT INVESTMENT RELATED.  1275 STANLEY RD, KENNESAW, GA 30152.  HIGH SCHOOL BASEBALL TEAM.  COMMUNITY COACH FOR VARSITY BASEBALL TEAM.  2012.  40 HOURS/MONTH, 10 DURING TRADING.  ASSISTANT COACH, PITCHING INSTRUCTION.  3. NORCROSS SPORTS TRAINING ACADEMY.  NOT INVESTMENT RELATED.  4825 SOUTH OLD PEACHTREE RD, SUITE 1100, NORCROSS, GA 30092.  PROFESSIONAL SPORTS TRAINING FACILITY.  PROFESSIONAL PITCHING INSTRUCTOR.  2013.  8-20 HOURS/MONTH, 0 DURING TRADING.  PITCHING INSTRUCTION."
    }
  },
  "DRPs": [
    {
      "hasRegAction": 1,
      "hasRegActionSpecified": true,
      "hasCriminal": 1,
      "hasCriminalSpecified": true,
      "hasBankrupt": 1,
      "hasBankruptSpecified": true,
      "hasCivilJudc": 1,
      "hasCivilJudcSpecified": true,
      "hasBond": 1,
      "hasBondSpecified": true,
      "hasJudgment": 0,
      "hasJudgmentSpecified": true,
      "hasInvstgn": 1,
      "hasInvstgnSpecified": true,
      "hasCustComp": 1,
      "hasCustCompSpecified": true,
      "hasTermination": 1,
      "hasTerminationSpecified": true
    }
  ]
}