{
  "Info": {
    "lastNm": "Colvin",
    "firstNm": "Ernie",
    "midNm": "Lee",
    "sufNm": "II",
    "indvlPK": "4577195",
    "actvAGReg": 0,
    "link": "http://www.adviserinfo.sec.gov/IAPD/Individual/4577195"
  },
  "OthrNms": [
    {
      "lastNm": "COLVIN",
      "firstNm": "ERNIE",
      "midNm": "LEE",
      "sufNm": "II"
    }
  ],
  "CrntEmps": [
    {
      "CrntRgstns": [
        {
          "regAuth": 44,
          "regCat": 0,
          "st": 2,
          "stDt": "2007-01-27T00:00:00"
        }
      ],
      "BrnchOfLocs": [
        {
          "str1": "1715-J S RUTHERFORD BLVD",
          "str2": null,
          "city": "MURFREESBORO",
          "state": 44,
          "stateSpecified": true,
          "cntry": "United States",
          "postlCd": "37130"
        }
      ],
      "orgNm": "EDWARD JONES",
      "orgPK": "250",
      "str1": "12555 MANCHESTER RD",
      "str2": null,
      "city": "ST. LOUIS",
      "state": 25,
      "stateSpecified": true,
      "cntry": "United States",
      "postlCd": "63131"
    }
  ],
  "Exms": [
    {
      "exmCd": 0,
      "exmNm": "Uniform Securities Agent State Law Examination",
      "exmDt": "2002-09-27T00:00:00",
      "exmDtSpecified": true
    },
    {
      "exmCd": 3,
      "exmNm": "Uniform Combined State Law Examination",
      "exmDt": "2007-01-22T00:00:00",
      "exmDtSpecified": true
    }
  ],
  "Dsgntns": [],
  "PrevRgstns": [],
  "EmpHss": [
    {
      "fromDt": "08/2005",
      "toDt": null,
      "orgNm": "EDWARD JONES",
      "city": "ST LOUIS",
      "state": 25,
      "stateSpecified": true
    }
  ],
  "OthrBuss": {
    "OthrBus": null
  },
  "DRPs": []
}