{
  "Info": {
    "lastNm": "ALEXANDER",
    "firstNm": "DIANE",
    "midNm": "LYNN",
    "sufNm": null,
    "indvlPK": "4578630",
    "actvAGReg": 0,
    "link": "http://www.adviserinfo.sec.gov/IAPD/Individual/4578630"
  },
  "OthrNms": [
    {
      "lastNm": "BIGGE",
      "firstNm": "DIANE",
      "midNm": "LYNN",
      "sufNm": null
    }
  ],
  "CrntEmps": [
    {
      "CrntRgstns": [
        {
          "regAuth": 5,
          "regCat": 0,
          "st": 2,
          "stDt": "2007-01-25T00:00:00"
        }
      ],
      "BrnchOfLocs": [
        {
          "str1": "5801 WEST 11ST STREET, SUITE 300",
          "str2": null,
          "city": "GREELEY",
          "state": 5,
          "stateSpecified": true,
          "cntry": "United States",
          "postlCd": "80634-4813"
        }
      ],
      "orgNm": "CONTRYMAN WEALTH ADVISORS",
      "orgPK": "113836",
      "str1": "5807 OSBORNE DR WEST",
      "str2": null,
      "city": "HASTINGS",
      "state": 30,
      "stateSpecified": true,
      "cntry": "United States",
      "postlCd": "68901-3607"
    }
  ],
  "Exms": [
    {
      "exmCd": 3,
      "exmNm": "Uniform Combined State Law Examination",
      "exmDt": "2002-11-20T00:00:00",
      "exmDtSpecified": true
    }
  ],
  "Dsgntns": [
    {
      "dsgntnNm": "Certified Financial Planner"
    }
  ],
  "PrevRgstns": [
    {
      "BrnchOfLocs": [
        {
          "city": "GREELEY",
          "state": 5,
          "stateSpecified": true
        }
      ],
      "orgNm": "1ST GLOBAL ADVISORS INC",
      "orgPK": "111133",
      "regBeginDt": "2003-01-14T00:00:00",
      "regBeginDtSpecified": true,
      "regEndDt": "2013-06-17T00:00:00",
      "regEndDtSpecified": true
    },
    {
      "BrnchOfLocs": [
        {
          "city": "GREELEY",
          "state": 5,
          "stateSpecified": true
        }
      ],
      "orgNm": "WEALTH ADVISORS OF COLORADO, LLC",
      "orgPK": "115129",
      "regBeginDt": "2003-01-30T00:00:00",
      "regBeginDtSpecified": true,
      "regEndDt": "2007-01-31T00:00:00",
      "regEndDtSpecified": true
    }
  ],
  "EmpHss": [
    {
      "fromDt": "12/1993",
      "toDt": null,
      "orgNm": "ANDERSON & WHITNEY, P.C.",
      "city": "GREELEY",
      "state": 5,
      "stateSpecified": true
    },
    {
      "fromDt": "08/2002",
      "toDt": "06/2013",
      "orgNm": "1ST GLOBAL CAPITAL CORP",
      "city": "GREELEY",
      "state": 5,
      "stateSpecified": true
    },
    {
      "fromDt": "01/2003",
      "toDt": "06/2013",
      "orgNm": "1ST GLOBAL ADVISORS, INC.",
      "city": "GREELEY",
      "state": 5,
      "stateSpecified": true
    },
    {
      "fromDt": "01/2003",
      "toDt": "01/2007",
      "orgNm": "WEALTH ADVISORS OF COLORADO, LLC",
      "city": "GREELEY",
      "state": 5,
      "stateSpecified": true
    },
    {
      "fromDt": "04/2005",
      "toDt": "06/2013",
      "orgNm": "1ST GLOBAL INSURANCE SERVICES, INC.",
      "city": "GREELEY",
      "state": 5,
      "stateSpecified": true
    },
    {
      "fromDt": "01/2007",
      "toDt": null,
      "orgNm": "WEALTH ADVISORS NETWORK, INC.",
      "city": "GREELEY",
      "state": 5,
      "stateSpecified": true
    },
    {
      "fromDt": "06/2013",
      "toDt": null,
      "orgNm": "CAMBRIDGE INVESTMENT RESEARCH, INC",
      "city": "FAIRFIELD",
      "state": 13,
      "stateSpecified": true
    }
  ],
  "OthrBuss": {
    "OthrBus": {
      "desc": "1)INDEPENDENT INSURANCE AGENT FOR VARIOUS INDEPENDENT INSURANCE COMPANIES 2)D&D BIGGE INC 48 MAYHEW DRIVE LAMAR, CO 81052. BEGAN 8/1/06 AS PRESIDENT MAINTAINING COMPANY BOOKS, NEGOCITATE CONTRACTS, PAY BILLS, MAKE MANAGEMENT DECISIONS; FAMILY CORPORATION CONSISTING OF MOTHER, SISTER, AND ALEX. NOT INVESTMENT RELATED. DEVOTES 20 HRS/YR. NONE DURING TRADING.  3)ANDERSON & WHITNEY PC - 401(K) PLAN BEGAN 6/4/2013 AS TRUSTEE FOR THE 401(K) PLAN. NOT INVESTMENT RELATED. DEVOTES 1 HR/YR. NONE DURING TRADING.  4) SUCCESS FOUNDATION;1025 9TH AVE, GREELEY, CO  80631; BEGAN 8/20/14 AS TREASURER. NOT INVESTMENT RELATED. DEVOTES 4 HR/MO; NONE DURING TRADING. NON-PROFIT."
    }
  },
  "DRPs": []
}