{
  "Info": {
    "lastNm": "BOWER",
    "firstNm": "MATTHEW",
    "midNm": "T",
    "sufNm": null,
    "indvlPK": "4579708",
    "actvAGReg": 0,
    "link": "http://www.adviserinfo.sec.gov/IAPD/Individual/4579708"
  },
  "OthrNms": [
    {
      "lastNm": "BOWER ",
      "firstNm": "MATTHEW ",
      "midNm": "THOMAS ",
      "sufNm": null
    },
    {
      "lastNm": "BOWER",
      "firstNm": "MATTHEW",
      "midNm": "THOMAS",
      "sufNm": null
    }
  ],
  "CrntEmps": [
    {
      "CrntRgstns": [
        {
          "regAuth": 39,
          "regCat": 0,
          "st": 2,
          "stDt": "2014-02-11T00:00:00"
        }
      ],
      "BrnchOfLocs": [
        {
          "str1": "7 WEST STATE STREET",
          "str2": null,
          "city": "SHARON",
          "state": 39,
          "stateSpecified": true,
          "cntry": "United States",
          "postlCd": "16146"
        }
      ],
      "orgNm": "CETERA INVESTMENT ADVISERS LLC",
      "orgPK": "105644",
      "str1": "200 NORTH MARTINGALE ROAD",
      "str2": null,
      "city": "SCHAUMBURG",
      "state": 15,
      "stateSpecified": true,
      "cntry": "United States",
      "postlCd": "60173-2096"
    }
  ],
  "Exms": [
    {
      "exmCd": 3,
      "exmNm": "Uniform Combined State Law Examination",
      "exmDt": "2002-10-04T00:00:00",
      "exmDtSpecified": true
    }
  ],
  "Dsgntns": [],
  "PrevRgstns": [
    {
      "BrnchOfLocs": [
        {
          "city": "MEADVILLE",
          "state": 39,
          "stateSpecified": true
        }
      ],
      "orgNm": "AMERIPRISE FINANCIAL SERVICES, INC.",
      "orgPK": "6363",
      "regBeginDt": "2003-08-18T00:00:00",
      "regBeginDtSpecified": true,
      "regEndDt": "2005-03-15T00:00:00",
      "regEndDtSpecified": true
    },
    {
      "BrnchOfLocs": [
        {
          "city": "FARELL",
          "state": 39,
          "stateSpecified": true
        },
        {
          "city": "GREENVILLE",
          "state": 39,
          "stateSpecified": true
        },
        {
          "city": "GREENVILLE",
          "state": 39,
          "stateSpecified": true
        },
        {
          "city": "GREENVILLE",
          "state": 39,
          "stateSpecified": true
        },
        {
          "city": "GREENVILLE",
          "state": 39,
          "stateSpecified": true
        },
        {
          "city": "HERMITAGE",
          "state": 39,
          "stateSpecified": true
        },
        {
          "city": "JAMESTOWN",
          "state": 39,
          "stateSpecified": true
        },
        {
          "city": "SHARON",
          "state": 39,
          "stateSpecified": true
        },
        {
          "city": "SHARPSVILLE",
          "state": 39,
          "stateSpecified": true
        }
      ],
      "orgNm": "INVEST FINANCIAL CORPORATION",
      "orgPK": "12984",
      "regBeginDt": "2005-03-16T00:00:00",
      "regBeginDtSpecified": true,
      "regEndDt": "2009-03-10T00:00:00",
      "regEndDtSpecified": true
    },
    {
      "BrnchOfLocs": [
        {
          "city": "CHARLOTTE",
          "state": 28,
          "stateSpecified": true
        },
        {
          "city": "CONNEAUT LAKE",
          "state": 39,
          "stateSpecified": true
        },
        {
          "city": "GREENVILLE",
          "state": 39,
          "stateSpecified": true
        },
        {
          "city": "GREENVILLE",
          "state": 39,
          "stateSpecified": true
        },
        {
          "city": "GREENVILLE",
          "state": 39,
          "stateSpecified": true
        },
        {
          "city": "GREENVILLE",
          "state": 39,
          "stateSpecified": true
        },
        {
          "city": "HERMITAGE",
          "state": 39,
          "stateSpecified": true
        },
        {
          "city": "HERMITAGE",
          "state": 39,
          "stateSpecified": true
        },
        {
          "city": "HERMITAGE",
          "state": 39,
          "stateSpecified": true
        },
        {
          "city": "HERMITAGE",
          "state": 39,
          "stateSpecified": true
        },
        {
          "city": "JAMESTOWN",
          "state": 39,
          "stateSpecified": true
        },
        {
          "city": "SHARON",
          "state": 39,
          "stateSpecified": true
        },
        {
          "city": "SHEAKLEYVILLE",
          "state": 39,
          "stateSpecified": true
        },
        {
          "city": "SHEAKLEYVILLE",
          "state": 39,
          "stateSpecified": true
        },
        {
          "city": "SHEAKLEYVILLE",
          "state": 39,
          "stateSpecified": true
        },
        {
          "city": "WEST MIDDLESEX",
          "state": 39,
          "stateSpecified": true
        }
      ],
      "orgNm": "LPL FINANCIAL LLC",
      "orgPK": "6413",
      "regBeginDt": "2009-03-03T00:00:00",
      "regBeginDtSpecified": true,
      "regEndDt": "2014-02-12T00:00:00",
      "regEndDtSpecified": true
    }
  ],
  "EmpHss": [
    {
      "fromDt": "03/2005",
      "toDt": "02/2009",
      "orgNm": "INVEST FINANCIAL CORP",
      "city": "TAMPA",
      "state": 9,
      "stateSpecified": true
    },
    {
      "fromDt": "02/2009",
      "toDt": null,
      "orgNm": "FIRST NATIONAL BANK PA",
      "city": "GREENVILLE",
      "state": 39,
      "stateSpecified": true
    },
    {
      "fromDt": "02/2009",
      "toDt": "02/2014",
      "orgNm": "LPL FINANCIAL",
      "city": "CHARLOTTE",
      "state": 28,
      "stateSpecified": true
    },
    {
      "fromDt": "02/2014",
      "toDt": null,
      "orgNm": "CETERA INVESTMENT ADVISERS LLC",
      "city": "SHARON",
      "state": 39,
      "stateSpecified": true
    },
    {
      "fromDt": "02/2014",
      "toDt": null,
      "orgNm": "CETERA INVESTMENT SERVICES LLC",
      "city": "ST.CLOUD",
      "state": 24,
      "stateSpecified": true
    }
  ],
  "OthrBuss": {
    "OthrBus": {
      "desc": "ELIGIBLE TO RECEIVE REFERRAL FEES FROM TRUST DEPARTMENT. OWNS AND OPERATES MATT BOWER PHOTOGRAPHY,  3 HOURS PER WEEK FOR FEES, NO SECURITIES CLIENTS."
    }
  },
  "DRPs": []
}