{
  "Info": {
    "lastNm": "COUGHENOUR",
    "firstNm": "JAMES",
    "midNm": "ROBERT",
    "sufNm": null,
    "indvlPK": "4587492",
    "actvAGReg": 0,
    "link": "http://www.adviserinfo.sec.gov/IAPD/Individual/4587492"
  },
  "OthrNms": [
    {
      "lastNm": "COUGHENOUR",
      "firstNm": "JAMES",
      "midNm": "ROBERT",
      "sufNm": null
    },
    {
      "lastNm": "COUGHENOUR",
      "firstNm": "JIM",
      "midNm": null,
      "sufNm": null
    },
    {
      "lastNm": "COUGHENOUR",
      "firstNm": "JOHN",
      "midNm": "ROBERT",
      "sufNm": null
    }
  ],
  "CrntEmps": [
    {
      "CrntRgstns": [
        {
          "regAuth": 17,
          "regCat": 0,
          "st": 2,
          "stDt": "2002-11-27T00:00:00"
        },
        {
          "regAuth": 37,
          "regCat": 0,
          "st": 2,
          "stDt": "2003-06-11T00:00:00"
        },
        {
          "regAuth": 45,
          "regCat": 0,
          "st": 2,
          "stDt": "2004-05-03T00:00:00"
        }
      ],
      "BrnchOfLocs": [
        {
          "str1": "ONE HALLBROOK PLACE",
          "str2": "11150 OVERBROOK ROAD",
          "city": "LEAWOOD",
          "state": 17,
          "stateSpecified": true,
          "cntry": "United States",
          "postlCd": "66211-2298"
        }
      ],
      "orgNm": "UBS FINANCIAL SERVICES INC.",
      "orgPK": "8174",
      "str1": "1200 HARBOR BOULEVARD",
      "str2": null,
      "city": "WEEHAWKEN",
      "state": 32,
      "stateSpecified": true,
      "cntry": "United States",
      "postlCd": "07086"
    }
  ],
  "Exms": [
    {
      "exmCd": 3,
      "exmNm": "Uniform Combined State Law Examination",
      "exmDt": "2002-11-26T00:00:00",
      "exmDtSpecified": true
    }
  ],
  "Dsgntns": [],
  "PrevRgstns": [],
  "EmpHss": [
    {
      "fromDt": "09/2002",
      "toDt": "07/2013",
      "orgNm": "UBS FINANCIAL SERVICES INC.",
      "city": "LEAWOOD",
      "state": 17,
      "stateSpecified": true
    },
    {
      "fromDt": "07/2013",
      "toDt": null,
      "orgNm": "UBS FINANCIAL SERVICES INC",
      "city": "LEAWOOD",
      "state": 17,
      "stateSpecified": true
    }
  ],
  "OthrBuss": {
    "OthrBus": null
  },
  "DRPs": []
}