{
  "Info": {
    "lastNm": "GUDENKAUF",
    "firstNm": "JARED",
    "midNm": "MARK",
    "sufNm": null,
    "indvlPK": "4591389",
    "actvAGReg": 0,
    "link": "http://www.adviserinfo.sec.gov/IAPD/Individual/4591389"
  },
  "OthrNms": [],
  "CrntEmps": [
    {
      "CrntRgstns": [
        {
          "regAuth": 17,
          "regCat": 0,
          "st": 2,
          "stDt": "2011-02-25T00:00:00"
        },
        {
          "regAuth": 45,
          "regCat": 0,
          "st": 2,
          "stDt": "2011-02-25T00:00:00"
        }
      ],
      "BrnchOfLocs": [
        {
          "str1": "3401 COLLEGE BLVD",
          "str2": null,
          "city": "LEAWOOD",
          "state": 17,
          "stateSpecified": true,
          "cntry": "United States",
          "postlCd": "66211"
        }
      ],
      "orgNm": "MERRILL LYNCH, PIERCE, FENNER & SMITH INCORPORATED",
      "orgPK": "7691",
      "str1": "ONE BRYANT PARK",
      "str2": null,
      "city": "NEW YORK",
      "state": 35,
      "stateSpecified": true,
      "cntry": "United States",
      "postlCd": "10036"
    }
  ],
  "Exms": [
    {
      "exmCd": 3,
      "exmNm": "Uniform Combined State Law Examination",
      "exmDt": "2003-03-13T00:00:00",
      "exmDtSpecified": true
    }
  ],
  "Dsgntns": [],
  "PrevRgstns": [
    {
      "BrnchOfLocs": [
        {
          "city": "OVERLAND PARK",
          "state": 17,
          "stateSpecified": true
        },
        {
          "city": "OVERLAND PARK",
          "state": 17,
          "stateSpecified": true
        }
      ],
      "orgNm": "AMERIPRISE FINANCIAL SERVICES, INC.",
      "orgPK": "6363",
      "regBeginDt": "2003-03-17T00:00:00",
      "regBeginDtSpecified": true,
      "regEndDt": "2011-03-03T00:00:00",
      "regEndDtSpecified": true
    }
  ],
  "EmpHss": [
    {
      "fromDt": "01/2003",
      "toDt": "02/2011",
      "orgNm": "AMERICAN EXPRESS FINANCIAL ADVISORS INC.",
      "city": "OVERLAND PARK",
      "state": 17,
      "stateSpecified": true
    },
    {
      "fromDt": "02/2011",
      "toDt": null,
      "orgNm": "MERRILL LYNCH, PIERCE, FENNER & SMITH INCORPORATED",
      "city": "LEAWOOD",
      "state": 17,
      "stateSpecified": true
    },
    {
      "fromDt": "03/2011",
      "toDt": null,
      "orgNm": "BANK OF AMERICA NA",
      "city": "LEAWOOD",
      "state": 17,
      "stateSpecified": true
    }
  ],
  "OthrBuss": {
    "OthrBus": {
      "desc": "FOR PROFIT OR NOT FOR PROFIT: NON-PROFIT ORGANIZATION NAME OF OUTSIDE BUSINESS ORGANIZATION: FINANCIAL PLANNING ASSOCIATION OF KANSAS CITY  DISCLOSURE ID: 70455  INVESTMENT RELATED: N  ADDRESS OF BUSINESS:   825 S. KANSAS AVE, SUITE 500  TOPEKA, KANSAS 66612  NATURE OF BUSINESS: CHARITABLE ORGANIZATION,  POSITION, TITLE, ASSOCIATION: DIRECTOR,   START DATE OF RELATIONSHIP: 3/1/2014  NUMBER OF HOURS DEVOTED: 2 HOUR(S) MONTHLY  NUMBER OF HOURS DEVOTED DURING TRADING HOURS: 1  DUTIES: DIRECTOR"
    }
  },
  "DRPs": []
}