{
  "Info": {
    "lastNm": "ROBINSON",
    "firstNm": "ZEINA",
    "midNm": "AULGA",
    "sufNm": null,
    "indvlPK": "4600488",
    "actvAGReg": 0,
    "link": "http://www.adviserinfo.sec.gov/IAPD/Individual/4600488"
  },
  "OthrNms": [
    {
      "lastNm": "HALLAL",
      "firstNm": "ZEINA",
      "midNm": "AULGA",
      "sufNm": null
    }
  ],
  "CrntEmps": [
    {
      "CrntRgstns": [
        {
          "regAuth": 23,
          "regCat": 0,
          "st": 2,
          "stDt": "2010-09-20T00:00:00"
        }
      ],
      "BrnchOfLocs": [
        {
          "str1": "900 Wilshire Dr",
          "str2": "Ste 385",
          "city": "Troy",
          "state": 23,
          "stateSpecified": true,
          "cntry": "United States",
          "postlCd": "48084-1646"
        }
      ],
      "orgNm": "AMERIPRISE FINANCIAL SERVICES, INC.",
      "orgPK": "6363",
      "str1": "707 2ND AVENUE SOUTH",
      "str2": null,
      "city": "MINNEAPOLIS",
      "state": 24,
      "stateSpecified": true,
      "cntry": "United States",
      "postlCd": "55402"
    }
  ],
  "Exms": [
    {
      "exmCd": 0,
      "exmNm": "Uniform Securities Agent State Law Examination",
      "exmDt": "2003-01-03T00:00:00",
      "exmDtSpecified": true
    },
    {
      "exmCd": 3,
      "exmNm": "Uniform Combined State Law Examination",
      "exmDt": "2010-08-01T00:00:00",
      "exmDtSpecified": true
    }
  ],
  "Dsgntns": [],
  "PrevRgstns": [],
  "EmpHss": [
    {
      "fromDt": "10/2002",
      "toDt": null,
      "orgNm": "AMERICAN EXPRESS FINANCIAL ADVISORS",
      "city": "TROY",
      "state": 23,
      "stateSpecified": true
    },
    {
      "fromDt": "10/2002",
      "toDt": null,
      "orgNm": "IDS LIFE INSURANCE COMPANY",
      "city": "TROY",
      "state": 23,
      "stateSpecified": true
    }
  ],
  "OthrBuss": {
    "OthrBus": null
  },
  "DRPs": [
    {
      "hasRegAction": 1,
      "hasRegActionSpecified": true,
      "hasCriminal": 1,
      "hasCriminalSpecified": true,
      "hasBankrupt": 1,
      "hasBankruptSpecified": true,
      "hasCivilJudc": 1,
      "hasCivilJudcSpecified": true,
      "hasBond": 1,
      "hasBondSpecified": true,
      "hasJudgment": 1,
      "hasJudgmentSpecified": true,
      "hasInvstgn": 1,
      "hasInvstgnSpecified": true,
      "hasCustComp": 0,
      "hasCustCompSpecified": true,
      "hasTermination": 1,
      "hasTerminationSpecified": true
    }
  ]
}