{
  "Info": {
    "lastNm": "MCKAY",
    "firstNm": "SCOTT",
    "midNm": "PATRICK",
    "sufNm": null,
    "indvlPK": "4607626",
    "actvAGReg": 1,
    "link": "http://www.adviserinfo.sec.gov/IAPD/Individual/4607626"
  },
  "OthrNms": [],
  "CrntEmps": [
    {
      "CrntRgstns": [
        {
          "regAuth": 39,
          "regCat": 0,
          "st": 2,
          "stDt": "2013-09-18T00:00:00"
        }
      ],
      "BrnchOfLocs": [
        {
          "str1": null,
          "str2": null,
          "city": "ROCHESTER",
          "state": 35,
          "stateSpecified": true,
          "cntry": "United States",
          "postlCd": null
        },
        {
          "str1": "3400 COLLEGE BLVD",
          "str2": null,
          "city": "LEAWOOD",
          "state": 17,
          "stateSpecified": true,
          "cntry": "United States",
          "postlCd": "66211"
        }
      ],
      "orgNm": "CREATIVE PLANNING",
      "orgPK": "105348",
      "str1": "3400 COLLEGE BLVD",
      "str2": null,
      "city": "LEAWOOD",
      "state": 17,
      "stateSpecified": true,
      "cntry": "United States",
      "postlCd": "66211"
    }
  ],
  "Exms": [
    {
      "exmCd": 3,
      "exmNm": "Uniform Combined State Law Examination",
      "exmDt": "2003-01-30T00:00:00",
      "exmDtSpecified": true
    }
  ],
  "Dsgntns": [
    {
      "dsgntnNm": "Certified Financial Planner"
    }
  ],
  "PrevRgstns": [
    {
      "BrnchOfLocs": [
        {
          "city": "FORT WALTON BEACH",
          "state": 9,
          "stateSpecified": true
        },
        {
          "city": "FORT WALTON BEACH",
          "state": 9,
          "stateSpecified": true
        },
        {
          "city": "PITTSFORD",
          "state": 35,
          "stateSpecified": true
        }
      ],
      "orgNm": "MERRILL LYNCH, PIERCE, FENNER & SMITH INCORPORATED",
      "orgPK": "7691",
      "regBeginDt": "2003-02-06T00:00:00",
      "regBeginDtSpecified": true,
      "regEndDt": "2008-04-29T00:00:00",
      "regEndDtSpecified": true
    },
    {
      "BrnchOfLocs": [
        {
          "city": "IRONDEQUOIT",
          "state": 35,
          "stateSpecified": true
        },
        {
          "city": "IRONDEQUOIT",
          "state": 35,
          "stateSpecified": true
        },
        {
          "city": "ROCHESTER",
          "state": 35,
          "stateSpecified": true
        },
        {
          "city": "ROCHESTER",
          "state": 35,
          "stateSpecified": true
        }
      ],
      "orgNm": "CHASE INVESTMENT SERVICES CORP.",
      "orgPK": "25574",
      "regBeginDt": "2008-05-07T00:00:00",
      "regBeginDtSpecified": true,
      "regEndDt": "2009-08-31T00:00:00",
      "regEndDtSpecified": true
    },
    {
      "BrnchOfLocs": [
        {
          "city": "PITTSFORD",
          "state": 35,
          "stateSpecified": true
        }
      ],
      "orgNm": "CHARLES SCHWAB & CO., INC.",
      "orgPK": "5393",
      "regBeginDt": "2009-09-09T00:00:00",
      "regBeginDtSpecified": true,
      "regEndDt": "2013-09-30T00:00:00",
      "regEndDtSpecified": true
    }
  ],
  "EmpHss": [
    {
      "fromDt": "11/2002",
      "toDt": "04/2008",
      "orgNm": "MERRILL LYNCH, PIERCE, FENNER & SMITH INC.",
      "city": "FORT WALTON BEACH",
      "state": 9,
      "stateSpecified": true
    },
    {
      "fromDt": "04/2008",
      "toDt": "08/2009",
      "orgNm": "CHASE INVESTMENT SERVICES CORP",
      "city": "ROCHESTER",
      "state": 35,
      "stateSpecified": true
    },
    {
      "fromDt": "08/2009",
      "toDt": null,
      "orgNm": "CHARLES SCHWAB & CO., INC.",
      "city": "PITTSFORD",
      "state": 35,
      "stateSpecified": true
    },
    {
      "fromDt": "08/2009",
      "toDt": null,
      "orgNm": "CHARLES SCHWAB BANK",
      "city": "PITTSFORD",
      "state": 35,
      "stateSpecified": true
    },
    {
      "fromDt": "09/2013",
      "toDt": null,
      "orgNm": "CREATIVE PLANNING",
      "city": "ROCHESTER",
      "state": 35,
      "stateSpecified": true
    }
  ],
  "OthrBuss": {
    "OthrBus": null
  },
  "DRPs": []
}