{
  "Info": {
    "lastNm": "HORNER",
    "firstNm": "VALERIE",
    "midNm": "ANNE",
    "sufNm": null,
    "indvlPK": "4607862",
    "actvAGReg": 0,
    "link": "http://www.adviserinfo.sec.gov/IAPD/Individual/4607862"
  },
  "OthrNms": [
    {
      "lastNm": "CASPER",
      "firstNm": "VALERIE",
      "midNm": "ANNE",
      "sufNm": null
    }
  ],
  "CrntEmps": [
    {
      "CrntRgstns": [
        {
          "regAuth": 47,
          "regCat": 0,
          "st": 2,
          "stDt": "2009-01-21T00:00:00"
        }
      ],
      "BrnchOfLocs": [
        {
          "str1": "4365 NEW TOWN AVE",
          "str2": null,
          "city": "WILLIAMSBURG",
          "state": 47,
          "stateSpecified": true,
          "cntry": "United States",
          "postlCd": "23188"
        }
      ],
      "orgNm": "LPL FINANCIAL LLC",
      "orgPK": "6413",
      "str1": "75 STATE STREET, 22ND FLOOR",
      "str2": null,
      "city": "BOSTON",
      "state": 20,
      "stateSpecified": true,
      "cntry": "United States",
      "postlCd": "02109"
    }
  ],
  "Exms": [
    {
      "exmCd": 3,
      "exmNm": "Uniform Combined State Law Examination",
      "exmDt": "2007-08-09T00:00:00",
      "exmDtSpecified": true
    }
  ],
  "Dsgntns": [],
  "PrevRgstns": [
    {
      "BrnchOfLocs": [
        {
          "city": "WILLIAMSBURG",
          "state": 47,
          "stateSpecified": true
        },
        {
          "city": "WILLIAMSBURG",
          "state": 47,
          "stateSpecified": true
        }
      ],
      "orgNm": "MICG INVESTMENT MANAGEMENT, LLC",
      "orgPK": "104028",
      "regBeginDt": "2007-08-10T00:00:00",
      "regBeginDtSpecified": true,
      "regEndDt": "2009-01-21T00:00:00",
      "regEndDtSpecified": true
    }
  ],
  "EmpHss": [
    {
      "fromDt": "07/2005",
      "toDt": "06/2007",
      "orgNm": "MALVIN RIGGINS",
      "city": "NEWPORT NEWS",
      "state": 47,
      "stateSpecified": true
    },
    {
      "fromDt": "01/2007",
      "toDt": null,
      "orgNm": "MICG/WILLIAMSBURG FINANCIAL GROUP",
      "city": "WILLIAMSBURG",
      "state": 47,
      "stateSpecified": true
    },
    {
      "fromDt": "01/2007",
      "toDt": null,
      "orgNm": "VALERIE HORNER",
      "city": "WILLIAMSBURG",
      "state": 47,
      "stateSpecified": true
    },
    {
      "fromDt": "01/2008",
      "toDt": "10/2009",
      "orgNm": "CLIFTON L. BRIGHAM, CPA",
      "city": "WILLIAMSBURG",
      "state": 47,
      "stateSpecified": true
    },
    {
      "fromDt": "01/2009",
      "toDt": null,
      "orgNm": "LPL FINANCIAL LLC",
      "city": "WILLIAMSBURG",
      "state": 47,
      "stateSpecified": true
    }
  ],
  "OthrBuss": {
    "OthrBus": {
      "desc": "1. 11/07/2008 - WILLIAMSBURG FINANCIAL GROUP - INV REL - AT REPORTED LOCATION - DBA FOR LPL BUSINESS (ENTITY FOR LPL BUSINESS)       2. 3/8/2010 - TAX PREP/ACCOUNTING/BOOKKEEPING - VALERIE A. HORNER - TAX RETURN PREPARATION - TIME SPENT 20%.      3. 8/14/2012 - OTHER- FAMILY BUSINESS - BRAVO MARITIME GROUP, LLC - MY HUSBAND TODD HORNER IS THE OWNER OF THIS SINGLE MEMBER LLC (A DISREGARDED ENTITY). I HOLD A TREASURER POSITION.     4. 8/14/2012 - TAX PREP/ACCOUNTING/BOOKKEEPING - VALERIE HORNER; V.HORNER ACCOUNTING - PERSONALLY OWNED SCHEDULE C WHERE I PREPARE TAX RETURNS AND COMPLETE BOOKKEEPING FOR MY CLIENTS.  I HAVE NO SIGNING PRIVILEGES OR TRUSTEE RIGHTS OR CHECKWRITING ON ANY ACCOUNTS. - TIME SPENT 20% - WILLIAMSBURG, VA    5. 08/12/2015 - BRAVO MARITIME GROUP, INC - INV REL - 4591 BEACON HILL DRIVE, WILLIAMSBURG, VA 23188 OR MY V.HORNER ACCOUNTING FIRM OFFICE LOCATION OF 3200 IRONBOUND ROAD, SUITE D, WILLIAMSBURG, VA 23188 - FAMILY BUSINESS - START 01/20/06 - 5 HOURS PER MONTH, 0 DURING TRADING - MY HUSBAND TODD HORNER IS THE OWNER OF THIS SINGLE MEMBER LLC (A DISREGARDED ENTITY)  6. 08/14/2015 - VALERIE HORNER; DBA V.HORNER ACCOUNTING - TAX PREP/ACCOUNTING/CPA - NOT INV REL - HOME OFFICE:  4591 BEACON HILL DRIVE, WILLIAMSBURG, VA 23188  ACCOUNTING OFFICE LOCATION:  3200 IRONBOUND ROAD, SUITE D WILLIAMSBURG, VA 23188 - START 01/01/2007 - 30 HRS/MO DURING SECS TRDG HRS.    7. 03/30/2016 * Thomas Nelson Community College * Teacher * NOT INV REL * TNCC Workforce Development Center, 4135 Ironbound Road, Williamsburg, VA 23188. * START 02/25/2016 * Adjunct Instructor with Thomas Nelson Community College Workforce Development Center for a short term class on business accounting & taxes.  This activity is solely in relation to V.Horner Accounting and not in relation to any investment activity * 8 HRS/MO; 0 HRS DURING SECS TRDG HRS.    8. 05/18/2016 * ReaVa LLC * Family Business * not inv rel * at reported business location(s) * Administrative management services.  Virtual assistants for small businesses to include office tasks and answering telephones. * start 05/01/2016 * 12 hrs/mo; 0 hrs during secs trdg hrs."
    }
  },
  "DRPs": []
}