{
  "Info": {
    "lastNm": "PRICE",
    "firstNm": "ASHBY",
    "midNm": "WOODY",
    "sufNm": null,
    "indvlPK": "4608596",
    "actvAGReg": 0,
    "link": "http://www.adviserinfo.sec.gov/IAPD/Individual/4608596"
  },
  "OthrNms": [],
  "CrntEmps": [
    {
      "CrntRgstns": [
        {
          "regAuth": 47,
          "regCat": 0,
          "st": 2,
          "stDt": "2016-05-05T00:00:00"
        }
      ],
      "BrnchOfLocs": [
        {
          "str1": "4801 COX RD, SUITE 109,",
          "str2": null,
          "city": "GLEN ALLEN",
          "state": 47,
          "stateSpecified": true,
          "cntry": "United States",
          "postlCd": "23060"
        }
      ],
      "orgNm": "KESTRA ADVISORY SERVICES, LLC",
      "orgPK": "283330",
      "str1": "1250 CAPITAL OF TEXAS HWY S BUILDING 2",
      "str2": "SUITE 125",
      "city": "AUSTIN",
      "state": 45,
      "stateSpecified": true,
      "cntry": "United States",
      "postlCd": "78746"
    },
    {
      "CrntRgstns": [
        {
          "regAuth": 47,
          "regCat": 0,
          "st": 2,
          "stDt": "2014-09-22T00:00:00"
        }
      ],
      "BrnchOfLocs": [
        {
          "str1": null,
          "str2": null,
          "city": "GLEN ALLEN",
          "state": 47,
          "stateSpecified": true,
          "cntry": "United States",
          "postlCd": null
        },
        {
          "str1": "1250 CAPITAL OF TEXAS HWY S. #2-125",
          "str2": null,
          "city": "AUSTIN",
          "state": 45,
          "stateSpecified": true,
          "cntry": "United States",
          "postlCd": "78746"
        }
      ],
      "orgNm": "KESTRA INVESTMENT SERVICES, LLC",
      "orgPK": "42046",
      "str1": "1250 CAPITAL OF TEXAS HIGHWAY S.",
      "str2": "2-125",
      "city": "AUSTIN",
      "state": 45,
      "stateSpecified": true,
      "cntry": "United States",
      "postlCd": "78746"
    }
  ],
  "Exms": [
    {
      "exmCd": 0,
      "exmNm": "Uniform Securities Agent State Law Examination",
      "exmDt": "2010-07-12T00:00:00",
      "exmDtSpecified": true
    },
    {
      "exmCd": 2,
      "exmNm": "Uniform Investment Adviser Law Examination",
      "exmDt": "2014-09-22T00:00:00",
      "exmDtSpecified": true
    }
  ],
  "Dsgntns": [],
  "PrevRgstns": [],
  "EmpHss": [
    {
      "fromDt": "05/2002",
      "toDt": "08/2007",
      "orgNm": "WACHOVIA SECURITIES, LLC",
      "city": "RICHMOND",
      "state": 47,
      "stateSpecified": true
    },
    {
      "fromDt": "08/2007",
      "toDt": "08/2009",
      "orgNm": "CAPTRUST ADVISORS, LLC.",
      "city": "RICHMOND",
      "state": 47,
      "stateSpecified": true
    },
    {
      "fromDt": "08/2009",
      "toDt": "03/2010",
      "orgNm": "UNEMPLOYED",
      "city": "RICHMOND",
      "state": 47,
      "stateSpecified": true
    },
    {
      "fromDt": "03/2010",
      "toDt": "03/2011",
      "orgNm": "STERNE, AGEE & LEACH, INC.",
      "city": "RICHMOND",
      "state": 47,
      "stateSpecified": true
    },
    {
      "fromDt": "06/2011",
      "toDt": "06/2014",
      "orgNm": "SCOT & STRINGFELLOW",
      "city": "RICHMOND",
      "state": 47,
      "stateSpecified": true
    },
    {
      "fromDt": "01/2013",
      "toDt": "06/2014",
      "orgNm": "BB&T SECURITIES, LLC",
      "city": "RICHMOND",
      "state": 47,
      "stateSpecified": true
    },
    {
      "fromDt": "06/2014",
      "toDt": "04/2016",
      "orgNm": "NFP SECURITIES, INC.",
      "city": "AUSTIN",
      "state": 45,
      "stateSpecified": true
    },
    {
      "fromDt": "04/2016",
      "toDt": null,
      "orgNm": "KESTRA FINANCIAL SERVICES, INC.",
      "city": "AUSTIN",
      "state": 45,
      "stateSpecified": true
    }
  ],
  "OthrBuss": {
    "OthrBus": {
      "desc": "?1) BUSINESS NAME: GRACE COVENANT PRESBYTERIAN CHURCH INVESTMENT RELATED: NO ADDRESS: 1627 MONUMENT AVE RICHMOND VA 23220 NATURE OF BUSINESS: COMMUNITY/CHARITABLE/CIVIC   POSITION, TITLE OR RELATIONSHIP: COMMITTEE MEMBER START DATE: 5/1/2015 HOURS PER MONTH: 0% - 10% (0 - 16 HOURS) HOURS PER MONTH DURING TRADING HOURS: 0% - 10% (0 - 14 HOURS) DUTIES: HELP ESTABLISH ANNUAL BUDGET FOR CHURCH AND ALLOCATE BUDGETS Business Name: Kestra Advisory Services, LLC Investment Related: Yes Address: 1250 Capital of Texas Highway, Building 2 Suite 125 Austin TX 78746 Nature of Business: Investment Advisory services through Kestra Advisory Services, LLC   Position, Title or Relationship: Investment Advisor Representative Start Date: 4/4/2016 Hours per month: Up to 100% (0 to 160 hours) Hours per month during trading hours: Up to 100% (0 to 160 hours) Duties: Investment advisory servicesBusiness Name: Ashby Price, Capstone Financial Partners Investment Related: Yes Address: 4801 Cox Rd, Suite 109 Glen Allen VA 23060 Nature of Business: Registered Rep Activities through Kestra Investment Services, LLC using a DBA name; Insurance; Investment Advisory services through Kestra Advisory Services, LLC   Position, Title or Relationship: associate advisor Start Date: 6/1/2014 Hours per month: 100%+ (More than 160 hours) Hours per month during trading hours: 91% - 100% (127 - 140 hours) Duties: investments, client management, insurance"
    }
  },
  "DRPs": []
}