{
  "Info": {
    "lastNm": "HENDRICKSON",
    "firstNm": "KYLE",
    "midNm": "WADE",
    "sufNm": null,
    "indvlPK": "4610762",
    "actvAGReg": 0,
    "link": "http://www.adviserinfo.sec.gov/IAPD/Individual/4610762"
  },
  "OthrNms": [],
  "CrntEmps": [
    {
      "CrntRgstns": [
        {
          "regAuth": 30,
          "regCat": 0,
          "st": 2,
          "stDt": "2014-03-04T00:00:00"
        }
      ],
      "BrnchOfLocs": [
        {
          "str1": null,
          "str2": null,
          "city": "OMAHA",
          "state": 30,
          "stateSpecified": true,
          "cntry": "United States",
          "postlCd": null
        },
        {
          "str1": null,
          "str2": null,
          "city": "Stillwater",
          "state": 24,
          "stateSpecified": true,
          "cntry": "United States",
          "postlCd": null
        }
      ],
      "orgNm": "VOYA FINANCIAL ADVISORS, INC.",
      "orgPK": "2882",
      "str1": "909 LOCUST STREET",
      "str2": null,
      "city": "DES MOINES",
      "state": 13,
      "stateSpecified": true,
      "cntry": "United States",
      "postlCd": "50309"
    }
  ],
  "Exms": [
    {
      "exmCd": 3,
      "exmNm": "Uniform Combined State Law Examination",
      "exmDt": "2007-12-27T00:00:00",
      "exmDtSpecified": true
    },
    {
      "exmCd": 0,
      "exmNm": "Uniform Securities Agent State Law Examination",
      "exmDt": "2011-11-03T00:00:00",
      "exmDtSpecified": true
    }
  ],
  "Dsgntns": [],
  "PrevRgstns": [
    {
      "BrnchOfLocs": [
        {
          "city": "OMAHA",
          "state": 30,
          "stateSpecified": true
        }
      ],
      "orgNm": "QA3 FINANCIAL LLC",
      "orgPK": "104957",
      "regBeginDt": "2008-09-26T00:00:00",
      "regBeginDtSpecified": true,
      "regEndDt": "2010-05-25T00:00:00",
      "regEndDtSpecified": true
    },
    {
      "BrnchOfLocs": [
        {
          "city": "LAVISTA",
          "state": 30,
          "stateSpecified": true
        }
      ],
      "orgNm": "SECURITIES AMERICA ADVISORS, INC.",
      "orgPK": "110518",
      "regBeginDt": "2010-08-13T00:00:00",
      "regBeginDtSpecified": true,
      "regEndDt": "2012-05-04T00:00:00",
      "regEndDtSpecified": true
    },
    {
      "BrnchOfLocs": [
        {
          "city": "FAIRFIELD",
          "state": 13,
          "stateSpecified": true
        }
      ],
      "orgNm": "CAMBRIDGE INVESTMENT RESEARCH ADVISORS, INC.",
      "orgPK": "134139",
      "regBeginDt": "2012-10-16T00:00:00",
      "regBeginDtSpecified": true,
      "regEndDt": "2014-02-13T00:00:00",
      "regEndDtSpecified": true
    }
  ],
  "EmpHss": [
    {
      "fromDt": "10/2005",
      "toDt": "04/2007",
      "orgNm": "PACIFIC LIFE",
      "city": "OMAHA",
      "state": 30,
      "stateSpecified": true
    },
    {
      "fromDt": "11/2005",
      "toDt": "02/2007",
      "orgNm": "PACIFIC SELECT DISTRIBUTORS",
      "city": "NEWPORT BEACH",
      "state": 4,
      "stateSpecified": true
    },
    {
      "fromDt": "04/2007",
      "toDt": "08/2010",
      "orgNm": "QA3 FINANCIAL CORP",
      "city": "OMAHA",
      "state": 30,
      "stateSpecified": true
    },
    {
      "fromDt": "08/2010",
      "toDt": "05/2012",
      "orgNm": "SECURITIES AMERICA ADVISORS",
      "city": "LAVISTA",
      "state": 30,
      "stateSpecified": true
    },
    {
      "fromDt": "08/2010",
      "toDt": "05/2012",
      "orgNm": "SECURITIES AMERICA INC",
      "city": "LAVISTA",
      "state": 30,
      "stateSpecified": true
    },
    {
      "fromDt": "05/2012",
      "toDt": "10/2012",
      "orgNm": "UNEMPLOYED",
      "city": "OMAHA",
      "state": 30,
      "stateSpecified": true
    },
    {
      "fromDt": "10/2012",
      "toDt": "02/2014",
      "orgNm": "CAMBRIDGE INVESTMENT RESEARCH, INC.",
      "city": "FAIRFIELD",
      "state": 13,
      "stateSpecified": true
    },
    {
      "fromDt": "02/2014",
      "toDt": null,
      "orgNm": "DIRECTED SERVICES, LLC",
      "city": "OMAHA",
      "state": 30,
      "stateSpecified": true
    },
    {
      "fromDt": "02/2014",
      "toDt": "09/2014",
      "orgNm": "ING AMERICA EQUITIES",
      "city": "OMAHA",
      "state": 30,
      "stateSpecified": true
    },
    {
      "fromDt": "02/2014",
      "toDt": "09/2014",
      "orgNm": "ING FINANCIAL ADVISERS",
      "city": "OMAHA",
      "state": 30,
      "stateSpecified": true
    },
    {
      "fromDt": "02/2014",
      "toDt": "09/2014",
      "orgNm": "ING FINANCIAL PARTNERS",
      "city": "OMAHA",
      "state": 30,
      "stateSpecified": true
    },
    {
      "fromDt": "02/2014",
      "toDt": "09/2014",
      "orgNm": "ING INVESTMENT ADVISORS",
      "city": "OMAHA",
      "state": 30,
      "stateSpecified": true
    },
    {
      "fromDt": "02/2014",
      "toDt": "09/2014",
      "orgNm": "ING US",
      "city": "OMAHA",
      "state": 30,
      "stateSpecified": true
    },
    {
      "fromDt": "09/2014",
      "toDt": null,
      "orgNm": "VOYA AMERICAN EQUITIES",
      "city": "OMAHA",
      "state": 30,
      "stateSpecified": true
    },
    {
      "fromDt": "09/2014",
      "toDt": null,
      "orgNm": "VOYA FINANCIAL",
      "city": "OMAHA",
      "state": 30,
      "stateSpecified": true
    },
    {
      "fromDt": "09/2014",
      "toDt": null,
      "orgNm": "VOYA FINANCIAL ADVISORS",
      "city": "OMAHA",
      "state": 30,
      "stateSpecified": true
    },
    {
      "fromDt": "09/2014",
      "toDt": null,
      "orgNm": "VOYA FINANCIAL PARTNERS",
      "city": "OMAHA",
      "state": 30,
      "stateSpecified": true
    },
    {
      "fromDt": "09/2014",
      "toDt": null,
      "orgNm": "VOYA RETIREMENT ADVISORS",
      "city": "OMAHA",
      "state": 30,
      "stateSpecified": true
    }
  ],
  "OthrBuss": {
    "OthrBus": {
      "desc": "1.METRO UMPIRE; NO; 4188 S 61ST AVE, OMAHA, NE 68117; UMPIRE BASEBALL FOR ALL AGES; UMPIRE; 06/01/1993; 25 HRS/MO; 0 HRS/MO; UMPIRE BASE BALL.  2. OMAHA SPORTS ACADEMY; NO; 11726 STONEGATE CIRCLE, OMAHA, NE  68164; OFFICIATE BASKETBALL; BASKETBALL OFFICIAL;  SINCE 11/17/13; 10 HOURS PER MONTH, NONE DURING TRADING; I OFFICIATE BASKETBALL GAMES FOR ALL AGES OF KIDS."
    }
  },
  "DRPs": []
}