{
  "Info": {
    "lastNm": "CHAMBERLAIN",
    "firstNm": "PATRICIA",
    "midNm": "JEAN",
    "sufNm": null,
    "indvlPK": "4612455",
    "actvAGReg": 0,
    "link": "http://www.adviserinfo.sec.gov/IAPD/Individual/4612455"
  },
  "OthrNms": [
    {
      "lastNm": "SINDELAR",
      "firstNm": "PATRICIA",
      "midNm": "JEAN",
      "sufNm": null
    },
    {
      "lastNm": "SINDELAR",
      "firstNm": "TRISH",
      "midNm": null,
      "sufNm": null
    }
  ],
  "CrntEmps": [
    {
      "CrntRgstns": [
        {
          "regAuth": 30,
          "regCat": 0,
          "st": 2,
          "stDt": "2007-08-14T00:00:00"
        }
      ],
      "BrnchOfLocs": [
        {
          "str1": "200 SOUTH 108TH AVENUE",
          "str2": null,
          "city": "OMAHA",
          "state": 30,
          "stateSpecified": true,
          "cntry": "UNITED STATES",
          "postlCd": "68154"
        }
      ],
      "orgNm": "TD AMERITRADE, INC.",
      "orgPK": "7870",
      "str1": "200 SOUTH 108TH AVENUE",
      "str2": null,
      "city": "OMAHA",
      "state": 30,
      "stateSpecified": true,
      "cntry": "United States",
      "postlCd": "68154"
    }
  ],
  "Exms": [
    {
      "exmCd": 3,
      "exmNm": "Uniform Combined State Law Examination",
      "exmDt": "2005-10-24T00:00:00",
      "exmDtSpecified": true
    }
  ],
  "Dsgntns": [],
  "PrevRgstns": [],
  "EmpHss": [
    {
      "fromDt": "08/1998",
      "toDt": null,
      "orgNm": "FREELANCE WRITER",
      "city": "OMAHA",
      "state": 30,
      "stateSpecified": true
    },
    {
      "fromDt": "06/2000",
      "toDt": null,
      "orgNm": "THE READER",
      "city": "OMAHA",
      "state": 30,
      "stateSpecified": true
    },
    {
      "fromDt": "05/2003",
      "toDt": "01/2007",
      "orgNm": "AMERITRADE INC",
      "city": "BELLEVUE",
      "state": 30,
      "stateSpecified": true
    },
    {
      "fromDt": "04/2006",
      "toDt": "01/2007",
      "orgNm": "TD WATERHOUSE INVESTOR SERVICES, INC.",
      "city": "BELLEVUE",
      "state": 30,
      "stateSpecified": true
    },
    {
      "fromDt": "08/2007",
      "toDt": null,
      "orgNm": "TDAMERITRADE INC",
      "city": "BELLEVUE",
      "state": 30,
      "stateSpecified": true
    },
    {
      "fromDt": "01/2008",
      "toDt": null,
      "orgNm": "NEBRASKA WILDLIFE REHAB INC",
      "city": "OMAHA",
      "state": 30,
      "stateSpecified": true
    },
    {
      "fromDt": "02/2009",
      "toDt": null,
      "orgNm": "HERITAGE WEB SOLUTIONS",
      "city": "OMAHA",
      "state": 30,
      "stateSpecified": true
    },
    {
      "fromDt": "10/2014",
      "toDt": null,
      "orgNm": "OMAHA STEAKS",
      "city": "OMAHA",
      "state": 30,
      "stateSpecified": true
    }
  ],
  "OthrBuss": {
    "OthrBus": {
      "desc": "OMAHA STEAKS, NON-INVESTMENT RELATED, 10909 JOHN GALT BLVD, OMAHA, NE 68137, INBOUND TELESALES, CUSTOMER SUPPORT, 11/14/2005, 64HRS/MONTH, 32HRS/MONTH DURING TRADING HOURS (HAS FRIDAY OFF AT AMERITRADE, AND WILL WORK THAT DAY AT OMAHA STEAKS), INBOUND PHONE CALLS.    06/13/2008-NEBRASKA WILDLIFE REHAB INC.-VOLUNTEER, ANIMAL REHAB. NO COMPENSATION RECEIVED.  NOT INVESTMENT RELATED. 8-10 HOURS PER MONTH ARE DEVOTED TO THIS ACTIVITY OUTSIDE OF SECURITY TRADING HOURS.  CARING FOR WILD ANIMALS NATIVE TO NEBRASKA.   HERITAGE WEB SOLUTIONS, 1460 MOON RIVER DR. PROVO UTAHName of Outside Business:The Reader; Investment Related:No; Address of Outside Business:Omaha, NE; Nature of Outside Business:Other; Position:Freelance Writer; Start Date:6/27/2016; Hours per month: 10-20; Hours per month during securities trading hours: No; Description of Duties: Create/write content for local newsweekly."
    }
  },
  "DRPs": []
}