{
  "Info": {
    "lastNm": "HIETPAS",
    "firstNm": "TODD",
    "midNm": "JOHN",
    "sufNm": null,
    "indvlPK": "4613236",
    "actvAGReg": 0,
    "link": "http://www.adviserinfo.sec.gov/IAPD/Individual/4613236"
  },
  "OthrNms": [],
  "CrntEmps": [
    {
      "CrntRgstns": [
        {
          "regAuth": 50,
          "regCat": 0,
          "st": 2,
          "stDt": "2015-01-02T00:00:00"
        }
      ],
      "BrnchOfLocs": [
        {
          "str1": "1037 TRUMAN STREET SUITE C",
          "str2": null,
          "city": "KIMBERLY",
          "state": 50,
          "stateSpecified": true,
          "cntry": "United States",
          "postlCd": "54136"
        }
      ],
      "orgNm": "MSI FINANCIAL SERVICES, INC.",
      "orgPK": "14251",
      "str1": "1095 AVENUE OF THE AMERICAS",
      "str2": null,
      "city": "NEW YORK",
      "state": 35,
      "stateSpecified": true,
      "cntry": "United States",
      "postlCd": "10036"
    }
  ],
  "Exms": [
    {
      "exmCd": 3,
      "exmNm": "Uniform Combined State Law Examination",
      "exmDt": "2002-12-20T00:00:00",
      "exmDtSpecified": true
    }
  ],
  "Dsgntns": [],
  "PrevRgstns": [
    {
      "BrnchOfLocs": [
        {
          "city": "KIMBERLY",
          "state": 50,
          "stateSpecified": true
        },
        {
          "city": "LITTLE CHUTE",
          "state": 50,
          "stateSpecified": true
        },
        {
          "city": "LITTLE CHUTE",
          "state": 50,
          "stateSpecified": true
        }
      ],
      "orgNm": "NEW ENGLAND SECURITIES",
      "orgPK": "615",
      "regBeginDt": "2005-01-03T00:00:00",
      "regBeginDtSpecified": true,
      "regEndDt": "2015-01-02T00:00:00",
      "regEndDtSpecified": true
    }
  ],
  "EmpHss": [
    {
      "fromDt": "10/1999",
      "toDt": null,
      "orgNm": "VVH & ASSOCIATES, LLP",
      "city": "LITTLE CHUTE",
      "state": 50,
      "stateSpecified": true
    },
    {
      "fromDt": "11/2004",
      "toDt": null,
      "orgNm": "NEW ENGLAND FINANCIAL",
      "city": "LITTLE CHUTE",
      "state": 50,
      "stateSpecified": true
    },
    {
      "fromDt": "11/2004",
      "toDt": null,
      "orgNm": "NEW ENGLAND SECURITIES",
      "city": "LITTLE CHUTE",
      "state": 50,
      "stateSpecified": true
    },
    {
      "fromDt": "01/2015",
      "toDt": null,
      "orgNm": "METLIFE SECURITIES INC.",
      "city": "KIMBERLY",
      "state": 50,
      "stateSpecified": true
    }
  ],
  "OthrBuss": {
    "OthrBus": {
      "desc": "CO-PRESIDENT LITTLE CHUTE GRIDIRON ASSOCIATION, INC.    PARTNER IN A FULL-SERVICE LOCAL CPA FIRM 50 HOURS SECURITIES - 10 HOURS NON SECURITIES - SINCE11/2004-"
    }
  },
  "DRPs": []
}