{
  "Info": {
    "lastNm": "WAGNER",
    "firstNm": "KURT",
    "midNm": "LEWIS",
    "sufNm": null,
    "indvlPK": "4614048",
    "actvAGReg": 1,
    "link": "http://www.adviserinfo.sec.gov/IAPD/Individual/4614048"
  },
  "OthrNms": [
    {
      "lastNm": "WAGNER",
      "firstNm": "KURT",
      "midNm": null,
      "sufNm": null
    }
  ],
  "CrntEmps": [
    {
      "CrntRgstns": [
        {
          "regAuth": 45,
          "regCat": 0,
          "st": 2,
          "stDt": "2002-12-18T00:00:00"
        }
      ],
      "BrnchOfLocs": [
        {
          "str1": "227 WEST MONROE STREET",
          "str2": "60TH FLOOR",
          "city": "CHICAGO,",
          "state": 15,
          "stateSpecified": true,
          "cntry": "United States",
          "postlCd": "60606"
        }
      ],
      "orgNm": "LOOMIS, SAYLES & COMPANY, L.P.",
      "orgPK": "105377",
      "str1": "ONE FINANCIAL CENTER",
      "str2": null,
      "city": "BOSTON",
      "state": 20,
      "stateSpecified": true,
      "cntry": "United States",
      "postlCd": "02111-2621"
    }
  ],
  "Exms": [],
  "Dsgntns": [
    {
      "dsgntnNm": "Chartered Financial Analyst"
    }
  ],
  "PrevRgstns": [],
  "EmpHss": [
    {
      "fromDt": "02/1994",
      "toDt": null,
      "orgNm": "LOOMIS, SAYLES & COMPANY, L.P.",
      "city": "CHICAGO",
      "state": 15,
      "stateSpecified": true
    }
  ],
  "OthrBuss": {
    "OthrBus": null
  },
  "DRPs": []
}