{
  "Info": {
    "lastNm": "O'NEAL",
    "firstNm": "SOPHIA",
    "midNm": "VERDEKAL",
    "sufNm": null,
    "indvlPK": "4614972",
    "actvAGReg": 0,
    "link": "http://www.adviserinfo.sec.gov/IAPD/Individual/4614972"
  },
  "OthrNms": [
    {
      "lastNm": "VERDEKAL",
      "firstNm": "SOPHIA",
      "midNm": "CHRISTINA",
      "sufNm": null
    },
    {
      "lastNm": "VERDEKAL",
      "firstNm": "SOPHIA",
      "midNm": "CHRISTINA",
      "sufNm": null
    }
  ],
  "CrntEmps": [
    {
      "CrntRgstns": [
        {
          "regAuth": 47,
          "regCat": 0,
          "st": 2,
          "stDt": "2004-12-01T00:00:00"
        }
      ],
      "BrnchOfLocs": [
        {
          "str1": "1186 JAMESTOWN ROAD",
          "str2": null,
          "city": "WILLIAMSBURG",
          "state": 47,
          "stateSpecified": true,
          "cntry": "United States",
          "postlCd": "23185"
        },
        {
          "str1": "4601 MONTICELLO AVENUE",
          "str2": null,
          "city": "WILLIAMSBURG",
          "state": 47,
          "stateSpecified": true,
          "cntry": "United States",
          "postlCd": "23185"
        },
        {
          "str1": "4801 COURTHOUSE STREET",
          "str2": "SUITE 100",
          "city": "WILLIAMSBURG",
          "state": 47,
          "stateSpecified": true,
          "cntry": "United States",
          "postlCd": "23188"
        },
        {
          "str1": "496 MCLAWS CIRCLE",
          "str2": null,
          "city": "WILLIAMSBURG",
          "state": 47,
          "stateSpecified": true,
          "cntry": "United States",
          "postlCd": "23185"
        }
      ],
      "orgNm": "SUNTRUST INVESTMENT SERVICES, INC.",
      "orgPK": "17499",
      "str1": "303 PEACHTREE CENTER AVENUE",
      "str2": "SUNTRUST GARDEN OFFICES SUITE 140",
      "city": "ATLANTA",
      "state": 10,
      "stateSpecified": true,
      "cntry": "United States",
      "postlCd": "30303"
    }
  ],
  "Exms": [
    {
      "exmCd": 3,
      "exmNm": "Uniform Combined State Law Examination",
      "exmDt": "2003-03-10T00:00:00",
      "exmDtSpecified": true
    }
  ],
  "Dsgntns": [],
  "PrevRgstns": [
    {
      "BrnchOfLocs": [
        {
          "city": "RICHMOND",
          "state": 47,
          "stateSpecified": true
        }
      ],
      "orgNm": "AMERIPRISE FINANCIAL SERVICES, INC.",
      "orgPK": "6363",
      "regBeginDt": "2003-08-01T00:00:00",
      "regBeginDtSpecified": true,
      "regEndDt": "2004-11-29T00:00:00",
      "regEndDtSpecified": true
    }
  ],
  "EmpHss": [
    {
      "fromDt": "12/2004",
      "toDt": null,
      "orgNm": "SUNTRUST INVESTMENT SERVICES, INC.",
      "city": "ATLANTA",
      "state": 10,
      "stateSpecified": true
    }
  ],
  "OthrBuss": {
    "OthrBus": {
      "desc": "* RENTAL PROPERTY * LANEXA, VA  * JOINT PROPRIETOR; 09/2004- PRESENT  * DUTIES; COLLECTION OF RENT  * 0- HOURS DEVOTED PER MONTH DURING BUSINESS HOURS/0-HOURS DEVOTED PER MONTH AFTER BUSINESS HOURS."
    }
  },
  "DRPs": []
}