{
  "Info": {
    "lastNm": "HOLLY",
    "firstNm": "STEVEN",
    "midNm": "T",
    "sufNm": null,
    "indvlPK": "4618578",
    "actvAGReg": 0,
    "link": "http://www.adviserinfo.sec.gov/IAPD/Individual/4618578"
  },
  "OthrNms": [],
  "CrntEmps": [
    {
      "CrntRgstns": [
        {
          "regAuth": 31,
          "regCat": 0,
          "st": 2,
          "stDt": "2012-07-12T00:00:00"
        },
        {
          "regAuth": 45,
          "regCat": 0,
          "st": 3,
          "stDt": "2014-01-17T00:00:00"
        }
      ],
      "BrnchOfLocs": [
        {
          "str1": "350 CHURCH STREET",
          "str2": null,
          "city": "HARTFORD",
          "state": 6,
          "stateSpecified": true,
          "cntry": "United States",
          "postlCd": "06103"
        },
        {
          "str1": "ONE GRANITE PLACE",
          "str2": null,
          "city": "CONCORD",
          "state": 31,
          "stateSpecified": true,
          "cntry": "United States",
          "postlCd": "03301"
        }
      ],
      "orgNm": "LINCOLN FINANCIAL SECURITIES CORPORATION",
      "orgPK": "3870",
      "str1": "1300 SOUTH CLINTON STREET",
      "str2": null,
      "city": "FORT WAYNE",
      "state": 16,
      "stateSpecified": true,
      "cntry": "United States",
      "postlCd": "46802"
    }
  ],
  "Exms": [
    {
      "exmCd": 0,
      "exmNm": "Uniform Securities Agent State Law Examination",
      "exmDt": "2003-02-21T00:00:00",
      "exmDtSpecified": true
    },
    {
      "exmCd": 3,
      "exmNm": "Uniform Combined State Law Examination",
      "exmDt": "2005-06-15T00:00:00",
      "exmDtSpecified": true
    }
  ],
  "Dsgntns": [],
  "PrevRgstns": [
    {
      "BrnchOfLocs": [
        {
          "city": "CONWAY",
          "state": 31,
          "stateSpecified": true
        },
        {
          "city": "ST. LOUIS",
          "state": 25,
          "stateSpecified": true
        },
        {
          "city": "WOLFEBORO",
          "state": 31,
          "stateSpecified": true
        }
      ],
      "orgNm": "A. G. EDWARDS & SONS, INC.",
      "orgPK": "4",
      "regBeginDt": "2005-06-16T00:00:00",
      "regBeginDtSpecified": true,
      "regEndDt": "2008-01-01T00:00:00",
      "regEndDtSpecified": true
    },
    {
      "BrnchOfLocs": [
        {
          "city": "CONWAY",
          "state": 31,
          "stateSpecified": true
        },
        {
          "city": "WOLFEBORO FALLS",
          "state": 31,
          "stateSpecified": true
        }
      ],
      "orgNm": "WELLS FARGO ADVISORS, LLC",
      "orgPK": "19616",
      "regBeginDt": "2008-01-01T00:00:00",
      "regBeginDtSpecified": true,
      "regEndDt": "2009-04-22T00:00:00",
      "regEndDtSpecified": true
    },
    {
      "BrnchOfLocs": [
        {
          "city": "CHARLOTTE",
          "state": 28,
          "stateSpecified": true
        },
        {
          "city": "ROCHESTER",
          "state": 31,
          "stateSpecified": true
        },
        {
          "city": "ROCHESTER",
          "state": 31,
          "stateSpecified": true
        }
      ],
      "orgNm": "LPL FINANCIAL LLC",
      "orgPK": "6413",
      "regBeginDt": "2009-04-21T00:00:00",
      "regBeginDtSpecified": true,
      "regEndDt": "2011-12-09T00:00:00",
      "regEndDtSpecified": true
    }
  ],
  "EmpHss": [
    {
      "fromDt": "04/2005",
      "toDt": "04/2009",
      "orgNm": "A. G. EDWARDS & SONS, INC.",
      "city": "ST. LOUIS",
      "state": 25,
      "stateSpecified": true
    },
    {
      "fromDt": "01/2008",
      "toDt": "04/2009",
      "orgNm": "WACHOVIA SECURITIES, LLC",
      "city": "WOLFEBORO",
      "state": 31,
      "stateSpecified": true
    },
    {
      "fromDt": "01/2008",
      "toDt": "04/2009",
      "orgNm": "WACHOVIA SECURITIES, LLC",
      "city": "WOLFEBORO",
      "state": 31,
      "stateSpecified": true
    },
    {
      "fromDt": "04/2009",
      "toDt": "11/2011",
      "orgNm": "LPL FINANCIAL",
      "city": "ROCHESTER",
      "state": 31,
      "stateSpecified": true
    },
    {
      "fromDt": "12/2011",
      "toDt": "06/2012",
      "orgNm": "UNEMPLOYED",
      "city": "ROCHESTER",
      "state": 31,
      "stateSpecified": true
    },
    {
      "fromDt": "07/2012",
      "toDt": null,
      "orgNm": "LINCOLN FINANCIAL ADVISORS CORPORATION",
      "city": "CONCORD",
      "state": 31,
      "stateSpecified": true
    },
    {
      "fromDt": "07/2012",
      "toDt": null,
      "orgNm": "LINCOLN FINANCIAL SECURITIES CORPORATION",
      "city": "CONCORD",
      "state": 31,
      "stateSpecified": true
    }
  ],
  "OthrBuss": {
    "OthrBus": {
      "desc": "1) NAME AND ADDRESS: BOOKBYSTEVE, 101 WINKLEY FARM LANE, ROCHESTER, NH 03867. CATEGORY: OTHER.  INVESTMENT-RELATED: NO.  TITLE: OWNER.  DUTIES: OWNER/AUTHOR.  START DATE: 2011.  HOURS PER MONTH: 0.  HOURS PER MONTH DURING TRADING HOURS: 0.    2) NAME AND ADDRESS: STEVEN T. HOLLY, 101 WINKLEY FARM LANE, ROCHESTER, NH 03867.  CATEGORY: NOTARY PUBLIC.  INVESTMENT-RELATED:NO.  TITLE:NOTARY PUBLIC.  DUTIES: NOTARY PUBLIC  START DATE: 2008.  HOURS PER MONTH: 0.  HOURS PER MONTH DURING TRADING HOURS: 0."
    }
  },
  "DRPs": [
    {
      "hasRegAction": 1,
      "hasRegActionSpecified": true,
      "hasCriminal": 1,
      "hasCriminalSpecified": true,
      "hasBankrupt": 0,
      "hasBankruptSpecified": true,
      "hasCivilJudc": 1,
      "hasCivilJudcSpecified": true,
      "hasBond": 1,
      "hasBondSpecified": true,
      "hasJudgment": 1,
      "hasJudgmentSpecified": true,
      "hasInvstgn": 1,
      "hasInvstgnSpecified": true,
      "hasCustComp": 1,
      "hasCustCompSpecified": true,
      "hasTermination": 1,
      "hasTerminationSpecified": true
    }
  ]
}