{
  "Info": {
    "lastNm": "HOWDEN",
    "firstNm": "JEFFREY",
    "midNm": "BRISBIN",
    "sufNm": null,
    "indvlPK": "4628383",
    "actvAGReg": 1,
    "link": "http://www.adviserinfo.sec.gov/IAPD/Individual/4628383"
  },
  "OthrNms": [
    {
      "lastNm": "HOWDEN",
      "firstNm": "JEFFREY",
      "midNm": "BRUBIN",
      "sufNm": null
    }
  ],
  "CrntEmps": [
    {
      "CrntRgstns": [
        {
          "regAuth": 28,
          "regCat": 0,
          "st": 2,
          "stDt": "2015-08-31T00:00:00"
        }
      ],
      "BrnchOfLocs": [
        {
          "str1": "4 VANDERBILT PARK DRIVE, SUITE 310",
          "str2": null,
          "city": "ASHEVILLE",
          "state": 28,
          "stateSpecified": true,
          "cntry": "United States",
          "postlCd": "28803"
        }
      ],
      "orgNm": "ALTAVISTA WEALTH MANAGEMENT, INC.",
      "orgPK": "122326",
      "str1": "4 VANDERBILT PARK DRIVE, SUITE 310",
      "str2": null,
      "city": "ASHEVILLE",
      "state": 28,
      "stateSpecified": true,
      "cntry": "United States",
      "postlCd": "28803"
    }
  ],
  "Exms": [
    {
      "exmCd": 3,
      "exmNm": "Uniform Combined State Law Examination",
      "exmDt": "2003-03-29T00:00:00",
      "exmDtSpecified": true
    }
  ],
  "Dsgntns": [],
  "PrevRgstns": [
    {
      "BrnchOfLocs": [
        {
          "city": "ASHEVILLE",
          "state": 28,
          "stateSpecified": true
        },
        {
          "city": "BRIDGEVILLE",
          "state": 39,
          "stateSpecified": true
        },
        {
          "city": "BRIDGEVILLE",
          "state": 39,
          "stateSpecified": true
        }
      ],
      "orgNm": "WALDRON PRIVATE WEALTH",
      "orgPK": "131063",
      "regBeginDt": "2004-10-29T00:00:00",
      "regBeginDtSpecified": true,
      "regEndDt": "2015-07-31T00:00:00",
      "regEndDtSpecified": true
    },
    {
      "BrnchOfLocs": [
        {
          "city": "ASHEVILLE",
          "state": 28,
          "stateSpecified": true
        },
        {
          "city": "BRIDGEVILLE",
          "state": 39,
          "stateSpecified": true
        }
      ],
      "orgNm": "LPL FINANCIAL LLC",
      "orgPK": "6413",
      "regBeginDt": "2006-03-14T00:00:00",
      "regBeginDtSpecified": true,
      "regEndDt": "2013-03-12T00:00:00",
      "regEndDtSpecified": true
    }
  ],
  "EmpHss": [
    {
      "fromDt": "04/2000",
      "toDt": "07/2015",
      "orgNm": "WALDRON WEALTH MANAGEMENT, LLC",
      "city": "PITTSBURGH",
      "state": 39,
      "stateSpecified": true
    },
    {
      "fromDt": "01/2003",
      "toDt": "02/2013",
      "orgNm": "LINSCO/PRIVATE LEDGER CORP.",
      "city": "PITTSBURGH",
      "state": 39,
      "stateSpecified": true
    },
    {
      "fromDt": "02/2006",
      "toDt": "07/2015",
      "orgNm": "WALDRON WEALTH MANAGEMENT, LLC",
      "city": "ASHEVILLE",
      "state": 28,
      "stateSpecified": true
    },
    {
      "fromDt": "03/2013",
      "toDt": "12/2014",
      "orgNm": "PURSHE KAPLAN STERLING INVESTMENTS",
      "city": "ALBANY",
      "state": 35,
      "stateSpecified": true
    }
  ],
  "OthrBuss": {
    "OthrBus": {
      "desc": "1.  07/12/07 - WWM PARTNERS I LOCATED AT 1150 OLD POND ROAD BRIDGEVILLE, PA 15017- INVESTMENT RELATED / TWO PRIVATE REAL ESTATE FUNDS/ PARTNER AND PASSIVE INVESTOR IN FUNDS /SPENDS LESS THAN 1 HOUR PER MONTH, NO TIME DURING SECURITY TRADING HOURS. 2. SINCE MARCH, 2013, EAGLE VIEW PROPERTIES LOCATED AT 9 FELLOWSHIP COVE ROAD, SWANNANOA, NC 28778.  IT IS INVESTMENT RELATED, A BUSINESS ENTITY THAT INVESTS IN REAL ESTATE INVESTMENT PROPERTY. ACT AS MANAGING MEMBER, ABOUT 2 HOURS PER MONTH; NONE OF THE TIME DURING SECURITIES TRADING HOURS."
    }
  },
  "DRPs": []
}