{
  "Info": {
    "lastNm": "MILONAS",
    "firstNm": "DAVID",
    "midNm": "G",
    "sufNm": null,
    "indvlPK": "4630819",
    "actvAGReg": 0,
    "link": "http://www.adviserinfo.sec.gov/IAPD/Individual/4630819"
  },
  "OthrNms": [],
  "CrntEmps": [
    {
      "CrntRgstns": [
        {
          "regAuth": 15,
          "regCat": 0,
          "st": 2,
          "stDt": "2008-06-16T00:00:00"
        }
      ],
      "BrnchOfLocs": [
        {
          "str1": "1 N WACKER DR STE 4600",
          "str2": null,
          "city": "CHICAGO",
          "state": 15,
          "stateSpecified": true,
          "cntry": "United States",
          "postlCd": "60606"
        }
      ],
      "orgNm": "NORTHWESTERN MUTUAL INVESTMENT SERVICES, LLC",
      "orgPK": "2881",
      "str1": "611 EAST WISCONSIN AVE",
      "str2": null,
      "city": "MILWAUKEE",
      "state": 50,
      "stateSpecified": true,
      "cntry": "United States",
      "postlCd": "53202-4797"
    }
  ],
  "Exms": [
    {
      "exmCd": 0,
      "exmNm": "Uniform Securities Agent State Law Examination",
      "exmDt": "2003-10-27T00:00:00",
      "exmDtSpecified": true
    },
    {
      "exmCd": 2,
      "exmNm": "Uniform Investment Adviser Law Examination",
      "exmDt": "2008-05-27T00:00:00",
      "exmDtSpecified": true
    }
  ],
  "Dsgntns": [],
  "PrevRgstns": [],
  "EmpHss": [
    {
      "fromDt": "04/2003",
      "toDt": null,
      "orgNm": "NORTHWESTERN MUTUAL INVESTMENT SERVICES LLC",
      "city": "CHICAGO",
      "state": 15,
      "stateSpecified": true
    },
    {
      "fromDt": "04/2003",
      "toDt": null,
      "orgNm": "NORTHWESTERN MUTUAL LIFE INSURANCE CO",
      "city": "MILWUAKEE",
      "state": 50,
      "stateSpecified": true
    },
    {
      "fromDt": "06/2008",
      "toDt": null,
      "orgNm": "NORTHWESTERN MUTUAL INVESTMENT SERVICES, LLC",
      "city": "CHICAGO",
      "state": 15,
      "stateSpecified": true
    },
    {
      "fromDt": "08/2013",
      "toDt": null,
      "orgNm": "NORTHWESTERN MUTUAL WEALTH MANAGEMENT COMPANY",
      "city": "MILWAUKEE",
      "state": 50,
      "stateSpecified": true
    }
  ],
  "OthrBuss": {
    "OthrBus": {
      "desc": "MAY EARN COMMISSIONS FROM INSURANCE COMPANIES NOT AFFILIATED WITH NORTHWESTERN MUTUAL FOR SALES OF NON-VARIABLE LIFE, HEALTH, ANNUITY AND/OR DISABILITY INCOME INSURANCE PRODUCTS."
    }
  },
  "DRPs": []
}