{
  "Info": {
    "lastNm": "CARLSON",
    "firstNm": "ERIC",
    "midNm": "N",
    "sufNm": null,
    "indvlPK": "4633051",
    "actvAGReg": 1,
    "link": "http://www.adviserinfo.sec.gov/IAPD/Individual/4633051"
  },
  "OthrNms": [
    {
      "lastNm": "CARLSON",
      "firstNm": "ERIC",
      "midNm": "NEIL",
      "sufNm": null
    },
    {
      "lastNm": "CARLSON",
      "firstNm": "ERIC",
      "midNm": "NEIL",
      "sufNm": null
    }
  ],
  "CrntEmps": [
    {
      "CrntRgstns": [
        {
          "regAuth": 39,
          "regCat": 0,
          "st": 2,
          "stDt": "2014-09-22T00:00:00"
        }
      ],
      "BrnchOfLocs": [
        {
          "str1": null,
          "str2": null,
          "city": "SEWICKLEY",
          "state": 39,
          "stateSpecified": true,
          "cntry": "United States",
          "postlCd": null
        }
      ],
      "orgNm": "SEWICKLEY FINANCIAL LLC",
      "orgPK": "172459",
      "str1": null,
      "str2": null,
      "city": "SEWICKLEY",
      "state": 39,
      "stateSpecified": true,
      "cntry": "United States",
      "postlCd": null
    }
  ],
  "Exms": [
    {
      "exmCd": 0,
      "exmNm": "Uniform Securities Agent State Law Examination",
      "exmDt": "2003-04-23T00:00:00",
      "exmDtSpecified": true
    },
    {
      "exmCd": 3,
      "exmNm": "Uniform Combined State Law Examination",
      "exmDt": "2012-06-20T00:00:00",
      "exmDtSpecified": true
    }
  ],
  "Dsgntns": [],
  "PrevRgstns": [
    {
      "BrnchOfLocs": [
        {
          "city": "PITTSBURGH",
          "state": 39,
          "stateSpecified": true
        }
      ],
      "orgNm": "MERRILL LYNCH, PIERCE, FENNER & SMITH INCORPORATED",
      "orgPK": "7691",
      "regBeginDt": "2012-06-21T00:00:00",
      "regBeginDtSpecified": true,
      "regEndDt": "2014-02-10T00:00:00",
      "regEndDtSpecified": true
    },
    {
      "BrnchOfLocs": [
        {
          "city": "PITTSBURGH",
          "state": 39,
          "stateSpecified": true
        },
        {
          "city": "PITTSBURGH",
          "state": 39,
          "stateSpecified": true
        }
      ],
      "orgNm": "PNC INVESTMENTS",
      "orgPK": "129052",
      "regBeginDt": "2014-02-13T00:00:00",
      "regBeginDtSpecified": true,
      "regEndDt": "2014-09-19T00:00:00",
      "regEndDtSpecified": true
    }
  ],
  "EmpHss": [
    {
      "fromDt": "02/2003",
      "toDt": "02/2012",
      "orgNm": "ROBERT W. BAIRD & CO.",
      "city": "MILWAUKEE",
      "state": 50,
      "stateSpecified": true
    },
    {
      "fromDt": "03/2012",
      "toDt": "05/2012",
      "orgNm": "UNEMPLOYED",
      "city": "SHERWOOD",
      "state": 50,
      "stateSpecified": true
    },
    {
      "fromDt": "05/2012",
      "toDt": "08/2012",
      "orgNm": "MERRILL LYNCH, PIERCE, FENNER AND SMITH INCORPORATED",
      "city": "PITTSBURGH",
      "state": 39,
      "stateSpecified": true
    },
    {
      "fromDt": "08/2012",
      "toDt": "02/2014",
      "orgNm": "BANK OF AMERICA N.A.",
      "city": "PITTSBURGH",
      "state": 39,
      "stateSpecified": true
    },
    {
      "fromDt": "02/2014",
      "toDt": "09/2014",
      "orgNm": "PNC INVESTMENTS",
      "city": "PITTSBURGH",
      "state": 39,
      "stateSpecified": true
    },
    {
      "fromDt": "07/2014",
      "toDt": null,
      "orgNm": "SEWICKLEY FINANCIAL LLC",
      "city": "SEWICKLEY",
      "state": 39,
      "stateSpecified": true
    }
  ],
  "OthrBuss": {
    "OthrBus": null
  },
  "DRPs": []
}