{
  "Info": {
    "lastNm": "WU",
    "firstNm": "CHARMIN",
    "midNm": null,
    "sufNm": null,
    "indvlPK": "4633293",
    "actvAGReg": 0,
    "link": "http://www.adviserinfo.sec.gov/IAPD/Individual/4633293"
  },
  "OthrNms": [],
  "CrntEmps": [
    {
      "CrntRgstns": [
        {
          "regAuth": 4,
          "regCat": 0,
          "st": 2,
          "stDt": "2012-03-21T00:00:00"
        }
      ],
      "BrnchOfLocs": [
        {
          "str1": null,
          "str2": null,
          "city": "NEWPORT BEACH",
          "state": 4,
          "stateSpecified": true,
          "cntry": "United States",
          "postlCd": null
        }
      ],
      "orgNm": "H.D. VEST ADVISORY SERVICES, INC",
      "orgPK": "104556",
      "str1": "6333 NORTH STATE HIGHWAY 161",
      "str2": "4TH FLOOR",
      "city": "IRVING",
      "state": 45,
      "stateSpecified": true,
      "cntry": "United States",
      "postlCd": "75038"
    }
  ],
  "Exms": [
    {
      "exmCd": 3,
      "exmNm": "Uniform Combined State Law Examination",
      "exmDt": "2003-04-23T00:00:00",
      "exmDtSpecified": true
    }
  ],
  "Dsgntns": [],
  "PrevRgstns": [
    {
      "BrnchOfLocs": [
        {
          "city": "IRVINE",
          "state": 4,
          "stateSpecified": true
        }
      ],
      "orgNm": "AMERIPRISE FINANCIAL SERVICES, INC.",
      "orgPK": "6363",
      "regBeginDt": "2003-04-25T00:00:00",
      "regBeginDtSpecified": true,
      "regEndDt": "2006-03-09T00:00:00",
      "regEndDtSpecified": true
    },
    {
      "BrnchOfLocs": [
        {
          "city": "NEWPORT BEACH",
          "state": 4,
          "stateSpecified": true
        }
      ],
      "orgNm": "MORGAN STANLEY DW INC.",
      "orgPK": "7556",
      "regBeginDt": "2006-03-03T00:00:00",
      "regBeginDtSpecified": true,
      "regEndDt": "2007-04-02T00:00:00",
      "regEndDtSpecified": true
    },
    {
      "BrnchOfLocs": [
        {
          "city": "IRVINE",
          "state": 4,
          "stateSpecified": true
        },
        {
          "city": "NEWPORT BEACH",
          "state": 4,
          "stateSpecified": true
        }
      ],
      "orgNm": "MORGAN STANLEY & CO. LLC",
      "orgPK": "8209",
      "regBeginDt": "2007-04-02T00:00:00",
      "regBeginDtSpecified": true,
      "regEndDt": "2009-06-01T00:00:00",
      "regEndDtSpecified": true
    },
    {
      "BrnchOfLocs": [
        {
          "city": "IRVINE",
          "state": 4,
          "stateSpecified": true
        }
      ],
      "orgNm": "MORGAN STANLEY",
      "orgPK": "149777",
      "regBeginDt": "2009-06-01T00:00:00",
      "regBeginDtSpecified": true,
      "regEndDt": "2012-03-20T00:00:00",
      "regEndDtSpecified": true
    }
  ],
  "EmpHss": [
    {
      "fromDt": "03/2006",
      "toDt": "04/2007",
      "orgNm": "MORGAN STANLEY DW INC.",
      "city": "NEWPORT BEACH",
      "state": 4,
      "stateSpecified": true
    },
    {
      "fromDt": "04/2007",
      "toDt": "01/2012",
      "orgNm": "MORGAN STANLEY & CO., INCORPORATED",
      "city": "IRVINE",
      "state": 4,
      "stateSpecified": true
    },
    {
      "fromDt": "06/2009",
      "toDt": "01/2012",
      "orgNm": "MORGAN STANLEY SMITH BARNEY",
      "city": "IRVINE",
      "state": 4,
      "stateSpecified": true
    },
    {
      "fromDt": "01/2012",
      "toDt": null,
      "orgNm": "H.D. VEST ADVISORY SERVICES",
      "city": "NEWPORT BEACH",
      "state": 4,
      "stateSpecified": true
    },
    {
      "fromDt": "01/2012",
      "toDt": null,
      "orgNm": "H.D. VEST INSURANCE AGENCY, INC",
      "city": "NEWPORT BEACH",
      "state": 4,
      "stateSpecified": true
    },
    {
      "fromDt": "01/2012",
      "toDt": null,
      "orgNm": "H.D. VEST INVESTMENT SERVICES",
      "city": "NWEPORT",
      "state": 4,
      "stateSpecified": true
    },
    {
      "fromDt": "11/2013",
      "toDt": null,
      "orgNm": "COVERED CALIFORNIA ACA CERTIFIED INSURANCE AGENT",
      "city": "NEWPORT BEACH",
      "state": 4,
      "stateSpecified": true
    }
  ],
  "OthrBuss": {
    "OthrBus": {
      "desc": "Anthem BlueCross~'NIR'~21 Cabrillo St~ ~Newport Beach~CA~92663~Medical Business Consultant~Insurance Sales Agent~7/2012~4hrs~0hrs~Provide medical insurance for needed clients~~Charmin Wu CPA CFP~'NIR'~21 Cabrillo St~ ~Newport Beach~CA~92663~Tax Preparation/Accounting~Owner/Sole Proprieter~1/2012~160hrs~130hrs~Taxes and accounting and health insurance~~Covered California ACA Certifi~'NIR'~21 Cabrillo St~ ~Newport Beach~CA~92663~Independent Insurance Agent~Insurance Sales Agent~11/2013~5hrs~0hrs~Certified Insurance Agent for Covered California - ACA Obamacare~~H.D. Vest Insurance Agency Inc~'NIR'~6333 North State Hwy 161~4th floor~Irving~TX~75038~Equity Indexed Annuity~Equity Indexed Annuity~2/2012~15hrs~10hrs~Sale of Equity Indexed of hours per month"
    }
  },
  "DRPs": []
}