{
  "Info": {
    "lastNm": "SHANK",
    "firstNm": "CHRISTIAN",
    "midNm": "NEIL",
    "sufNm": null,
    "indvlPK": "4633489",
    "actvAGReg": 0,
    "link": "http://www.adviserinfo.sec.gov/IAPD/Individual/4633489"
  },
  "OthrNms": [],
  "CrntEmps": [
    {
      "CrntRgstns": [
        {
          "regAuth": 45,
          "regCat": 0,
          "st": 2,
          "stDt": "2014-07-15T00:00:00"
        }
      ],
      "BrnchOfLocs": [
        {
          "str1": "17725 JOHN F KENNEDY BLVD.",
          "str2": "SUITE 201",
          "city": "HOUSTON",
          "state": 45,
          "stateSpecified": true,
          "cntry": "United States",
          "postlCd": "77032"
        },
        {
          "str1": "2627 CHESTNUT RIDGE",
          "str2": "SUITE 110",
          "city": "KINGWOOD",
          "state": 45,
          "stateSpecified": true,
          "cntry": "United States",
          "postlCd": "77339"
        }
      ],
      "orgNm": "SYMPHONY FINANCIAL, LTD. CO.",
      "orgPK": "171816",
      "str1": "17725 JOHN F KENNEDY BLVD.",
      "str2": "SUITE 201",
      "city": "HOUSTON",
      "state": 45,
      "stateSpecified": true,
      "cntry": "United States",
      "postlCd": "77032"
    }
  ],
  "Exms": [
    {
      "exmCd": 3,
      "exmNm": "Uniform Combined State Law Examination",
      "exmDt": "2003-04-16T00:00:00",
      "exmDtSpecified": true
    }
  ],
  "Dsgntns": [],
  "PrevRgstns": [
    {
      "BrnchOfLocs": [
        {
          "city": "KINGWOOD",
          "state": 45,
          "stateSpecified": true
        },
        {
          "city": "KINGWOOD",
          "state": 45,
          "stateSpecified": true
        },
        {
          "city": "SPRING",
          "state": 45,
          "stateSpecified": true
        }
      ],
      "orgNm": "A. G. EDWARDS & SONS, INC.",
      "orgPK": "4",
      "regBeginDt": "2003-04-17T00:00:00",
      "regBeginDtSpecified": true,
      "regEndDt": "2006-11-13T00:00:00",
      "regEndDtSpecified": true
    }
  ],
  "EmpHss": [
    {
      "fromDt": "02/2003",
      "toDt": "11/2006",
      "orgNm": "A.G. EDWARDS & SONS, INC.",
      "city": "HOUSTON",
      "state": 45,
      "stateSpecified": true
    },
    {
      "fromDt": "11/2006",
      "toDt": null,
      "orgNm": "LPL FINANCIAL LLC",
      "city": "KINGWOOD",
      "state": 45,
      "stateSpecified": true
    },
    {
      "fromDt": "07/2014",
      "toDt": null,
      "orgNm": "SYMPHONY FINANCIAL, LTD. CO.",
      "city": "HOUSTON",
      "state": 45,
      "stateSpecified": true
    }
  ],
  "OthrBuss": {
    "OthrBus": {
      "desc": "1. 11/03/2006 - Shank Ranch - NOT INV REL - Farm - a family owned cattle ranch located outside of Richland Springs, Tx in San Saba Co. My portion of ownership is 8%. - 5% TIME SPENT    2. 11/03/2006 - Shank Wealth Management, LLC - INV REL - AT REPORTED LOCATION - DBA for LPL Business (entity for LPL business)     3. 08/27/2014 - SYMPHONY FINANCIAL LTD. CO. - REGISTERED INVESTMENT ADVISOR DBA - SHANK WEALTH MANAGEMENT - TIME SPENT 160 HOURS PER MONTH - KINGWOOD, TX.      4. 11/05/2014 - REGISTERED INVESTMENT ADVISOR HYBRID - 2627 Chestnut Ridge #110 Kingwood,TX 77339 - SYMPHONY FINANCIAL LTD. CO. - 160 HOURS PER MONTH DURING TRADING - KINGWOOD, TX."
    }
  },
  "DRPs": [
    {
      "hasRegAction": 1,
      "hasRegActionSpecified": true,
      "hasCriminal": 0,
      "hasCriminalSpecified": true,
      "hasBankrupt": 1,
      "hasBankruptSpecified": true,
      "hasCivilJudc": 1,
      "hasCivilJudcSpecified": true,
      "hasBond": 1,
      "hasBondSpecified": true,
      "hasJudgment": 1,
      "hasJudgmentSpecified": true,
      "hasInvstgn": 1,
      "hasInvstgnSpecified": true,
      "hasCustComp": 1,
      "hasCustCompSpecified": true,
      "hasTermination": 1,
      "hasTerminationSpecified": true
    }
  ]
}