{
  "Info": {
    "lastNm": "GRITIS",
    "firstNm": "JEFFREY",
    "midNm": "JAMES",
    "sufNm": null,
    "indvlPK": "4636597",
    "actvAGReg": 0,
    "link": "http://www.adviserinfo.sec.gov/IAPD/Individual/4636597"
  },
  "OthrNms": [
    {
      "lastNm": "GRITIS",
      "firstNm": "JEFFREY",
      "midNm": "J",
      "sufNm": null
    }
  ],
  "CrntEmps": [
    {
      "CrntRgstns": [
        {
          "regAuth": 15,
          "regCat": 0,
          "st": 2,
          "stDt": "2014-11-12T00:00:00"
        }
      ],
      "BrnchOfLocs": [
        {
          "str1": "1385 WARREN AVE.",
          "str2": "SUITE A",
          "city": "DOWNERS GROVE",
          "state": 15,
          "stateSpecified": true,
          "cntry": "United States",
          "postlCd": "60515"
        }
      ],
      "orgNm": "BENTLEY FINANCIAL GROUP",
      "orgPK": "172474",
      "str1": "1385 WARREN AVE.",
      "str2": "SUITE A",
      "city": "DOWNERS GROVE",
      "state": 15,
      "stateSpecified": true,
      "cntry": "United States",
      "postlCd": "60515"
    }
  ],
  "Exms": [
    {
      "exmCd": 3,
      "exmNm": "Uniform Combined State Law Examination",
      "exmDt": "2003-08-16T00:00:00",
      "exmDtSpecified": true
    }
  ],
  "Dsgntns": [
    {
      "dsgntnNm": "Certified Financial Planner"
    }
  ],
  "PrevRgstns": [],
  "EmpHss": [
    {
      "fromDt": "09/2005",
      "toDt": null,
      "orgNm": "GRITIS & ASSOCIATES",
      "city": "DOWNERS GROVE",
      "state": 15,
      "stateSpecified": true
    },
    {
      "fromDt": "11/2005",
      "toDt": null,
      "orgNm": "BENTLEY FINANCIAL GROUP",
      "city": "DOWNERS GROVE",
      "state": 15,
      "stateSpecified": true
    },
    {
      "fromDt": "02/2006",
      "toDt": null,
      "orgNm": "WATERSTONE FINANCIAL GROUP",
      "city": "ITASCA",
      "state": 15,
      "stateSpecified": true
    },
    {
      "fromDt": "09/2009",
      "toDt": null,
      "orgNm": "LPL FINANCIAL LLC",
      "city": "DOWNERS GROVE",
      "state": 15,
      "stateSpecified": true
    },
    {
      "fromDt": "11/2014",
      "toDt": null,
      "orgNm": "BENTLEY FINANCIAL GROUP, INC.",
      "city": "DOWNERS GROVE",
      "state": 15,
      "stateSpecified": true
    }
  ],
  "OthrBuss": {
    "OthrBus": {
      "desc": "1. 09/30/2009 - BENTLEY FINANCIAL GROUP, INC. - NON-VARIABLE INSURANCE DBA - WEALTH MANAGER ASSISTANT.  PROVIDE INSURANCE AND INVESTMENT PRODUCTS TO CLIENTS. - 80% OF TIME SPENT - DOWNERS GROVE, IL     2. 11/04/2009 - GRITIS & ASSOCIATES, LTD - TAX PREP / ACCOUNTING / BOOKKEEPING - TAX PREPERATION - 20% OF TIME SPENT       3. 09/15/2010 - JOHN R. GRITIS TRUST - ACT IN A FIDUCIARY CAPACITY - 4TH IN-LINE SUCCESSOR TRUSTEE OF THE JOHN R. GRITIS TRUST (FATHER) - NO TIME SPENT       4. 09/21/2010 - GRITIS & ASSOCIATES, LTD. - TAX PREP / ACCOUNTING / BOOKKEEPING - TAX PREPERATION AND ADVISE. - 5% OF TIME SPENT       5. 10/12/2010 - BENTLEY FINANCIAL GROUP, INC. - INV REL - AT REPORTED LOCATION - DBA FOR LPL BUSINESS (ENTITY FOR LPL BUSINESS) - VP OF OPERATIONS FOR BENTLEY FINANCIAL GROUP, INC.    6. 09/04/2013 - NO BUSINESS NAME - NOTARY - 1% OF TIME SPENT - DOWNERS GROVE, IL    7. 02/05/2015 - BENTLEY FINANCIAL GROUP, INC. - INV REL - 1385 WARREN AVE., STE. A, DOWNERS GROVE, IL 60515. - REGISTERED INVESTMENT ADVISOR HYBRID - START 01/27/2015 - 20 HOURS PER MONTH, 10 DURING TRADING - OUR RIA PROVIDES FINANCIAL PLANS AND ADVICE FOR HOURLY AND/OR FIXED FEES IN ADDITION TO MANAGING ADVISORY ASSETS    8. 06/16/2016 * NO BUSINESS NAME * Real Estate Rental * INV REL * 531 Whittier Ave., Glen Ellyn, IL 60137 * Short-term renter at 531 Whittier Ave., Glen Ellyn, IL 60137 * START 04/16/16 * 0 HRS/MO."
    }
  },
  "DRPs": []
}