{
  "Info": {
    "lastNm": "KENDRA",
    "firstNm": "BETTY",
    "midNm": "WILLIAMS",
    "sufNm": null,
    "indvlPK": "4641203",
    "actvAGReg": 0,
    "link": "http://www.adviserinfo.sec.gov/IAPD/Individual/4641203"
  },
  "OthrNms": [
    {
      "lastNm": "KENDRA",
      "firstNm": "BETTY",
      "midNm": null,
      "sufNm": null
    },
    {
      "lastNm": "MCCORKLE",
      "firstNm": "BETTY",
      "midNm": "RUTH",
      "sufNm": null
    },
    {
      "lastNm": "WILLIAMS",
      "firstNm": "BETTY",
      "midNm": "RUTH",
      "sufNm": null
    }
  ],
  "CrntEmps": [
    {
      "CrntRgstns": [
        {
          "regAuth": 10,
          "regCat": 0,
          "st": 2,
          "stDt": "2014-10-07T00:00:00"
        }
      ],
      "BrnchOfLocs": [
        {
          "str1": "4246 WASHINGTON ROAD",
          "str2": null,
          "city": "EVANS",
          "state": 10,
          "stateSpecified": true,
          "cntry": "United States",
          "postlCd": "30809"
        }
      ],
      "orgNm": "EAGLE STRATEGIES LLC",
      "orgPK": "110826",
      "str1": "51 MADISON AVENUE",
      "str2": "ROOM 913",
      "city": "NEW YORK",
      "state": 35,
      "stateSpecified": true,
      "cntry": "United States",
      "postlCd": "10010"
    }
  ],
  "Exms": [
    {
      "exmCd": 0,
      "exmNm": "Uniform Securities Agent State Law Examination",
      "exmDt": "2003-08-06T00:00:00",
      "exmDtSpecified": true
    }
  ],
  "Dsgntns": [
    {
      "dsgntnNm": "Chartered Financial Consultant"
    }
  ],
  "PrevRgstns": [],
  "EmpHss": [
    {
      "fromDt": "02/2003",
      "toDt": null,
      "orgNm": "NEW YORK LIFE INS CP",
      "city": "MOBILE",
      "state": 1,
      "stateSpecified": true
    },
    {
      "fromDt": "04/2003",
      "toDt": null,
      "orgNm": "NYLIFE SECURITIES INC",
      "city": "MOBILE",
      "state": 1,
      "stateSpecified": true
    },
    {
      "fromDt": "09/2006",
      "toDt": null,
      "orgNm": "KENDRA FINANCIAL GROUP, INC.",
      "city": "PENSACOLA",
      "state": 9,
      "stateSpecified": true
    },
    {
      "fromDt": "10/2014",
      "toDt": null,
      "orgNm": "EAGLE STRATEGIES LLC",
      "city": "EVANS",
      "state": 10,
      "stateSpecified": true
    }
  ],
  "OthrBuss": {
    "OthrBus": {
      "desc": "KENDRA FINANCIAL GROUP LLC. 41 N. JEFFERSON ST, STE.301, PENSACOLA,FL 32502. ESTABLISHED S-CORP FOR HANDLING OFFICE OVERHEAD EXPENSES IN A TAX-ADVANTAGED MANNER. WILL OFFER INSURANCE  AND ANNUITY PRODUCTS APPROX 30 DAYS/MONTH. TITLE IS VICE PRESIDENT, SECRETARY & TREASURER.    [INSURANCE BROKERING; APPOINTED WITH VARIOUS OUTSIDE CARRIERS FOR THE PURPOSE OF BROKERING NON-REGISTERED OUTSIDE INSURANCE PRODUCTS; 4246 WASHINGTON ROAD, SUITE 8, P.O. BOX 3305, EVANS, GA  30809; START DATE 05/2015; ROLE/TITLE: INSURANCE BROKER; INVESTMENT RELATED; 5 HOURS PER MONTH; 5 HOURS PER MONTH DURING SECURITIES TRADING HOURS; COMPENSATION: COMMISSIONS]"
    }
  },
  "DRPs": []
}