{
  "Info": {
    "lastNm": "EICKMAN",
    "firstNm": "DAVID",
    "midNm": "MICHAEL",
    "sufNm": null,
    "indvlPK": "4643515",
    "actvAGReg": 0,
    "link": "http://www.adviserinfo.sec.gov/IAPD/Individual/4643515"
  },
  "OthrNms": [
    {
      "lastNm": "EICKMAN",
      "firstNm": "DAVID",
      "midNm": null,
      "sufNm": null
    }
  ],
  "CrntEmps": [
    {
      "CrntRgstns": [
        {
          "regAuth": 36,
          "regCat": 0,
          "st": 2,
          "stDt": "2006-05-26T00:00:00"
        }
      ],
      "BrnchOfLocs": [
        {
          "str1": "7265 KENWOOD RD",
          "str2": null,
          "city": "CINCINNATI",
          "state": 36,
          "stateSpecified": true,
          "cntry": "United States",
          "postlCd": "45236"
        }
      ],
      "orgNm": "THRIVENT INVESTMENT MANAGEMENT INC.",
      "orgPK": "18387",
      "str1": "625 FOURTH AVENUE SOUTH",
      "str2": null,
      "city": "MINNEAPOLIS",
      "state": 24,
      "stateSpecified": true,
      "cntry": "United States",
      "postlCd": "55415-1665"
    }
  ],
  "Exms": [
    {
      "exmCd": 0,
      "exmNm": "Uniform Securities Agent State Law Examination",
      "exmDt": "2003-06-20T00:00:00",
      "exmDtSpecified": true
    },
    {
      "exmCd": 2,
      "exmNm": "Uniform Investment Adviser Law Examination",
      "exmDt": "2006-01-03T00:00:00",
      "exmDtSpecified": true
    }
  ],
  "Dsgntns": [],
  "PrevRgstns": [
    {
      "BrnchOfLocs": [
        {
          "city": "CINCINNATI",
          "state": 36,
          "stateSpecified": true
        }
      ],
      "orgNm": "FIFTH THIRD SECURITIES, INC.",
      "orgPK": "628",
      "regBeginDt": "2005-08-24T00:00:00",
      "regBeginDtSpecified": true,
      "regEndDt": "2006-03-01T00:00:00",
      "regEndDtSpecified": true
    }
  ],
  "EmpHss": [
    {
      "fromDt": "05/2006",
      "toDt": null,
      "orgNm": "THRIVENT FINANCIAL FOR LUTHERANS",
      "city": "APPLETON",
      "state": 50,
      "stateSpecified": true
    },
    {
      "fromDt": "05/2006",
      "toDt": null,
      "orgNm": "THRIVENT INVESTMENT MANAGEMENT INC",
      "city": "CINCINNATI",
      "state": 36,
      "stateSpecified": true
    }
  ],
  "OthrBuss": {
    "OthrBus": null
  },
  "DRPs": []
}