{
  "Info": {
    "lastNm": "PALMERSHEIM",
    "firstNm": "JAMES",
    "midNm": "ROBERT",
    "sufNm": null,
    "indvlPK": "4645048",
    "actvAGReg": 0,
    "link": "http://www.adviserinfo.sec.gov/IAPD/Individual/4645048"
  },
  "OthrNms": [],
  "CrntEmps": [
    {
      "CrntRgstns": [
        {
          "regAuth": 45,
          "regCat": 0,
          "st": 2,
          "stDt": "2005-03-01T00:00:00"
        },
        {
          "regAuth": 4,
          "regCat": 0,
          "st": 2,
          "stDt": "2005-04-26T00:00:00"
        }
      ],
      "BrnchOfLocs": [
        {
          "str1": "601 S. Main",
          "str2": "Suite 202",
          "city": "GRAPEVINE",
          "state": 45,
          "stateSpecified": true,
          "cntry": "United States",
          "postlCd": "76051"
        }
      ],
      "orgNm": "SIGNAL SECURITIES, INC.",
      "orgPK": "15916",
      "str1": "700 THROCKMORTON",
      "str2": null,
      "city": "FORT WORTH",
      "state": 45,
      "stateSpecified": true,
      "cntry": "United States",
      "postlCd": "76102"
    }
  ],
  "Exms": [
    {
      "exmCd": 2,
      "exmNm": "Uniform Investment Adviser Law Examination",
      "exmDt": "2004-02-03T00:00:00",
      "exmDtSpecified": true
    },
    {
      "exmCd": 0,
      "exmNm": "Uniform Securities Agent State Law Examination",
      "exmDt": "2005-05-19T00:00:00",
      "exmDtSpecified": true
    }
  ],
  "Dsgntns": [],
  "PrevRgstns": [
    {
      "BrnchOfLocs": [
        {
          "city": "BOGART",
          "state": 10,
          "stateSpecified": true
        }
      ],
      "orgNm": "STADION MONEY MANAGEMENT, LLC",
      "orgPK": "112608",
      "regBeginDt": "2004-02-04T00:00:00",
      "regBeginDtSpecified": true,
      "regEndDt": "2005-03-22T00:00:00",
      "regEndDtSpecified": true
    }
  ],
  "EmpHss": [
    {
      "fromDt": "01/1990",
      "toDt": null,
      "orgNm": "AMERICAN AIRLINES",
      "city": "DALLAS",
      "state": 45,
      "stateSpecified": true
    },
    {
      "fromDt": "02/2005",
      "toDt": null,
      "orgNm": "SIGNAL SECURITIES, INC.",
      "city": "FORT WORTH",
      "state": 45,
      "stateSpecified": true
    }
  ],
  "OthrBuss": {
    "OthrBus": {
      "desc": "AMERICAN AIRLINES 3/1/2001  NOT INVESTMENT RELATED  4333 AMON CARTER BLVD FORT WORTH TX  AIRLINE  CAPTAIN/ DIRECTOR OF VETERANS INITIATIVES  >40  21-40  CAPTAIN ON S80 AIRCRAFT/MANAGE AMERICAN AIRLINES VETERANS PROGRAMS  ARMOR INSURANCE  5/19/2005  NOT INVESTMENT RELATED  611 S MAIN ST #100 GRAPEVINE TEXAS  HEALTH INSURANCE  AGENT  1-5  1-5  HEALTH INSURANCE"
    }
  },
  "DRPs": []
}