{
  "Info": {
    "lastNm": "EVERETT",
    "firstNm": "SHAWN",
    "midNm": "CHRISTIAN",
    "sufNm": null,
    "indvlPK": "4653270",
    "actvAGReg": 0,
    "link": "http://www.adviserinfo.sec.gov/IAPD/Individual/4653270"
  },
  "OthrNms": [
    {
      "lastNm": "EVERETT",
      "firstNm": "SHAWN",
      "midNm": "C",
      "sufNm": null
    }
  ],
  "CrntEmps": [
    {
      "CrntRgstns": [
        {
          "regAuth": 9,
          "regCat": 0,
          "st": 2,
          "stDt": "2014-08-04T00:00:00"
        },
        {
          "regAuth": 45,
          "regCat": 0,
          "st": 3,
          "stDt": "2014-08-04T00:00:00"
        }
      ],
      "BrnchOfLocs": [
        {
          "str1": "23190 FASHION DR STE P203",
          "str2": null,
          "city": "ESTERO",
          "state": 9,
          "stateSpecified": true,
          "cntry": "United States",
          "postlCd": "33928"
        },
        {
          "str1": "565 WASHINGTON AVE STE 1",
          "str2": null,
          "city": "NORTH HAVEN",
          "state": 6,
          "stateSpecified": true,
          "cntry": "United States",
          "postlCd": "06473"
        }
      ],
      "orgNm": "CETERA ADVISOR NETWORKS LLC",
      "orgPK": "13572",
      "str1": "200 N. SEPULVEDA BLVD.",
      "str2": "SUITE 1300",
      "city": "EL SEGUNDO",
      "state": 4,
      "stateSpecified": true,
      "cntry": "United States",
      "postlCd": "90245-5672"
    }
  ],
  "Exms": [
    {
      "exmCd": 3,
      "exmNm": "Uniform Combined State Law Examination",
      "exmDt": "2003-08-20T00:00:00",
      "exmDtSpecified": true
    }
  ],
  "Dsgntns": [],
  "PrevRgstns": [
    {
      "BrnchOfLocs": [
        {
          "city": "NORTH HAVEN",
          "state": 6,
          "stateSpecified": true
        }
      ],
      "orgNm": "EVERETT FINANCIAL GROUP",
      "orgPK": "111306",
      "regBeginDt": "2004-01-02T00:00:00",
      "regBeginDtSpecified": true,
      "regEndDt": "2008-07-11T00:00:00",
      "regEndDtSpecified": true
    },
    {
      "BrnchOfLocs": [
        {
          "city": "ESTERO",
          "state": 9,
          "stateSpecified": true
        },
        {
          "city": "MINNEAPOLIS",
          "state": 24,
          "stateSpecified": true
        }
      ],
      "orgNm": "QUESTAR ASSET MANAGEMENT, INC.",
      "orgPK": "133358",
      "regBeginDt": "2008-07-14T00:00:00",
      "regBeginDtSpecified": true,
      "regEndDt": "2014-08-08T00:00:00",
      "regEndDtSpecified": true
    }
  ],
  "EmpHss": [
    {
      "fromDt": "04/2003",
      "toDt": "04/2008",
      "orgNm": "SECURITIES SERVICE NETWORK, INC.",
      "city": "NORTH HAVEN",
      "state": 6,
      "stateSpecified": true
    },
    {
      "fromDt": "01/2004",
      "toDt": "01/2008",
      "orgNm": "EVERETT FINANCIAL GROUP",
      "city": "NORTH HAVEN",
      "state": 6,
      "stateSpecified": true
    },
    {
      "fromDt": "05/2008",
      "toDt": "05/2008",
      "orgNm": "UNEMPLOYED",
      "city": "NORTH HAVEN",
      "state": 6,
      "stateSpecified": true
    },
    {
      "fromDt": "06/2008",
      "toDt": "08/2014",
      "orgNm": "QUESTAR CAPITAL",
      "city": "MINNEAPOLIS",
      "state": 24,
      "stateSpecified": true
    },
    {
      "fromDt": "07/2008",
      "toDt": "08/2014",
      "orgNm": "QUESTAR ASSET MANAGEMENT",
      "city": "MINNEAPOLIS",
      "state": 24,
      "stateSpecified": true
    },
    {
      "fromDt": "08/2014",
      "toDt": null,
      "orgNm": "CETERA ADVISOR NETWORKS",
      "city": "EL SEGUNDO",
      "state": 4,
      "stateSpecified": true
    }
  ],
  "OthrBuss": {
    "OthrBus": {
      "desc": "1. NAME OF OTHER BUSINESS: FIXED INSURANCE WITH VARIOUS COMPANIES  INVESTMENT RELATED: YES   ADDRESS: SAME AS REGISTERED LOCATION   NATURE OF BUSINESS: FIXED INSURANCE  START DATE: 07/2014  APX NUMBER OF HOURS PER WEEK: VARIES  APX NUMBER OF HOURS DURING TRADING HOURS: VARIES  POSITION/TITLE/RELATIONSHIP: INSURANCE AGENT   BRIEF DESCRIPTION OF DUTIES: SELLS LIFE, HEALTH, ANNUITIES AND LONG TERM CARE               2. NAME OF OTHER BUSINESS: FASHION DRIVE PROPERTIES, LLC    INVESTMENT RELATED: NO   ADDRESS: 23190 FASHION DRIVE #P203 ESTERO, FL 33928   NATURE OF BUSINESS: REAL ESTATE   START DATE: 04/2013   APX NUMBER OF HOURS PER WEEK: MINIMAL  APX NUMBER OF HOURS DURING TRADING HOURS: MINIMAL  BRIEF DESCRIPTION OF DUTIES: CO-OWNER, OWN BUILDING THAT OFFICE RESIDES IN    3. NAME OF OTHER BUSINESS: NO NAME   INVESTMENT RELATED: NO   ADDRESS: 565 WASHINGTON AVENUE NORTH HAVEN, CT 06473   NATURE OF BUSINESS: REAL ESTATE  START DATE: 01/2013   APX NUMBER OF HOURS PER WEEK: MINIMAL  APX NUMBER OF HOURS DURING TRADING HOURS: MINIMAL  BRIEF DESCRIPTION OF DUTIES: FLIPPING INVESTMENT PROPERTIES    4. NAME OF OTHER BUSINESS: HEALTH INSURANCE ASSOCIATES, LLP    INVESTMENT RELATED: YES   ADDRESS: SAME AS REGISTERED LOCATION   NATURE OF BUSINESS: INSURANCE SALES  START DATE: 01/2012   APX NUMBER OF HOURS PER WEEK: 5  APX NUMBER OF HOURS DURING TRADING HOURS: 5  BRIEF DESCRIPTION OF DUTIES: SELL FIXED INSURANCE PRODUCTS    5. NAME OF OTHER BUSINESS: FOCUS FINANCIAL CENTER, LLC    INVESTMENT RELATED: NO   ADDRESS: 565 WASHINGTON AVENUE #1 NORTH HAVEN, CT 06473   NATURE OF BUSINESS: HOLDING COMPANY  START DATE: 01/01/2013   APX NUMBER OF HOURS PER WEEK: 0  APX NUMBER OF HOURS DURING TRADING HOURS: 0  BRIEF DESCRIPTION OF DUTIES: CO-OWNER, MEMBER OF HOLDING COMPANY WHICH IS CORPORATE FOR TAX PURPOSES    6. NAME OF OTHER BUSINESS: WEALTH MANAGERS OF FLORIDA, LLC    INVESTMENT RELATED: YES   ADDRESS: 23190 FASHION DRIVE SUITE P203 ESTERO, FL 33928   NATURE OF BUSINESS: FINANCIAL SERVICES  START DATE: 01/01/2014   APX NUMBER OF HOURS PER WEEK: 40  APX NUMBER OF HOURS DURING TRADING HOURS: 40  BRIEF DESCRIPTION OF DUTIES: PROVIDE FINANCIAL SERVICES     7. NAME OF OTHER BUSINESS: WEALTH MANAGER, LLC    INVESTMENT RELATED: YES   ADDRESS: SAME AS REGISTERED LOCATION   NATURE OF BUSINESS: FINANCIAL SERVICES  START DATE: 01/01/2014   APX NUMBER OF HOURS PER WEEK: 40  APX NUMBER OF HOURS DURING TRADING HOURS: 40  BRIEF DESCRIPTION OF DUTIES: PROVIDE FINANCIAL SERVICES"
    }
  },
  "DRPs": []
}