{
  "Info": {
    "lastNm": "MCCOY",
    "firstNm": "MARTHA",
    "midNm": "ALICE RAN",
    "sufNm": null,
    "indvlPK": "4653308",
    "actvAGReg": 1,
    "link": "http://www.adviserinfo.sec.gov/IAPD/Individual/4653308"
  },
  "OthrNms": [
    {
      "lastNm": "MCCOY",
      "firstNm": "MARTHA",
      "midNm": "ALICE RAN",
      "sufNm": null
    },
    {
      "lastNm": "MCCOY",
      "firstNm": "MARTHA",
      "midNm": "ALICE RAN",
      "sufNm": "MS"
    }
  ],
  "CrntEmps": [
    {
      "CrntRgstns": [
        {
          "regAuth": 20,
          "regCat": 0,
          "st": 2,
          "stDt": "2009-04-29T00:00:00"
        }
      ],
      "BrnchOfLocs": [
        {
          "str1": "ONE POST OFFICE SQUARE",
          "str2": null,
          "city": "BOSTON",
          "state": 20,
          "stateSpecified": true,
          "cntry": "United States",
          "postlCd": "02109"
        }
      ],
      "orgNm": "PUTNAM INVESTMENT MANAGEMENT, LLC",
      "orgPK": "106629",
      "str1": "ONE POST OFFICE SQUARE",
      "str2": null,
      "city": "BOSTON",
      "state": 20,
      "stateSpecified": true,
      "cntry": "United States",
      "postlCd": "02109"
    }
  ],
  "Exms": [
    {
      "exmCd": 2,
      "exmNm": "Uniform Investment Adviser Law Examination",
      "exmDt": "2000-12-14T00:00:00",
      "exmDtSpecified": true
    }
  ],
  "Dsgntns": [],
  "PrevRgstns": [
    {
      "BrnchOfLocs": [
        {
          "city": "BOSTON",
          "state": 20,
          "stateSpecified": true
        }
      ],
      "orgNm": "NGAM ADVISORS, L.P.",
      "orgPK": "106800",
      "regBeginDt": "2003-04-08T00:00:00",
      "regBeginDtSpecified": true,
      "regEndDt": "2004-08-26T00:00:00",
      "regEndDtSpecified": true
    },
    {
      "BrnchOfLocs": [
        {
          "city": "BOSTON",
          "state": 20,
          "stateSpecified": true
        }
      ],
      "orgNm": "PUTNAM INVESTMENT MANAGEMENT, LLC",
      "orgPK": "106629",
      "regBeginDt": "2008-11-14T00:00:00",
      "regBeginDtSpecified": true,
      "regEndDt": "2009-04-13T00:00:00",
      "regEndDtSpecified": true
    }
  ],
  "EmpHss": [
    {
      "fromDt": "08/2004",
      "toDt": "04/2009",
      "orgNm": "PUTNAM INV./PUTNAM RETAIL MANAGEMENT",
      "city": "BOSTON",
      "state": 20,
      "stateSpecified": true
    },
    {
      "fromDt": "04/2009",
      "toDt": null,
      "orgNm": "PUTNAM INV./PUTNAM RETAIL MANAGEMENT",
      "city": "BOSTON",
      "state": 20,
      "stateSpecified": true
    },
    {
      "fromDt": "04/2009",
      "toDt": "04/2009",
      "orgNm": "THE BAUPOST GROUP, LLC",
      "city": "BOSTON",
      "state": 20,
      "stateSpecified": true
    }
  ],
  "OthrBuss": {
    "OthrBus": null
  },
  "DRPs": []
}