{
  "Info": {
    "lastNm": "RUTHERFORD",
    "firstNm": "NELSON",
    "midNm": "EUGENE",
    "sufNm": null,
    "indvlPK": "4655868",
    "actvAGReg": 1,
    "link": "http://www.adviserinfo.sec.gov/IAPD/Individual/4655868"
  },
  "OthrNms": [
    {
      "lastNm": "RUTHERFORD",
      "firstNm": "EUGENE",
      "midNm": "NELSON",
      "sufNm": null
    }
  ],
  "CrntEmps": [
    {
      "CrntRgstns": [
        {
          "regAuth": 38,
          "regCat": 0,
          "st": 2,
          "stDt": "2010-09-03T00:00:00"
        },
        {
          "regAuth": 19,
          "regCat": 0,
          "st": 2,
          "stDt": "2011-06-10T00:00:00"
        },
        {
          "regAuth": 49,
          "regCat": 0,
          "st": 2,
          "stDt": "2012-06-21T00:00:00"
        },
        {
          "regAuth": 45,
          "regCat": 0,
          "st": 3,
          "stDt": "2016-02-12T00:00:00"
        }
      ],
      "BrnchOfLocs": [
        {
          "str1": "10260 SW GREENBURG ROAD",
          "str2": "SUITE 300",
          "city": "PORTLAND",
          "state": 38,
          "stateSpecified": true,
          "cntry": "United States",
          "postlCd": "97223-5513"
        }
      ],
      "orgNm": "EVERGREEN FINANCIAL ADVISORS, INC.",
      "orgPK": "154635",
      "str1": "10260 SW GREENBURG ROAD",
      "str2": "SUITE 300",
      "city": "PORTLAND",
      "state": 38,
      "stateSpecified": true,
      "cntry": "United States",
      "postlCd": "97223-5513"
    }
  ],
  "Exms": [],
  "Dsgntns": [
    {
      "dsgntnNm": "Certified Financial Planner"
    },
    {
      "dsgntnNm": "Personal Financial Specialist"
    }
  ],
  "PrevRgstns": [
    {
      "BrnchOfLocs": [
        {
          "city": "LAKE OSWEGO",
          "state": 38,
          "stateSpecified": true
        }
      ],
      "orgNm": "WEALTH MANAGEMENT, INC.",
      "orgPK": "126534",
      "regBeginDt": "2003-08-12T00:00:00",
      "regBeginDtSpecified": true,
      "regEndDt": "2004-06-15T00:00:00",
      "regEndDtSpecified": true
    }
  ],
  "EmpHss": [
    {
      "fromDt": "12/1970",
      "toDt": null,
      "orgNm": "ALTEN SAKAI & COMPANY LLP",
      "city": "PORTLAND",
      "state": 38,
      "stateSpecified": true
    },
    {
      "fromDt": "05/2004",
      "toDt": null,
      "orgNm": "EVERGREEN FINANCIAL ADVISORS, INC.",
      "city": "PORTLAND",
      "state": 38,
      "stateSpecified": true
    }
  ],
  "OthrBuss": {
    "OthrBus": {
      "desc": "NELSON RUTHERFORD IS ALSO A CO-OWNER AND MANAGING MEMBER OF THE ACCOUNTING FIRM ALTEN SAKAI & COMPANY LLP (\"A&S\")IN PORTLAND, OREGON. MR. RUTHERFORD HAS BEEN EMPLOYED BY A&S SINCE 1970.  CURRENTLY, MR. RUTHERFORD TYPICALLY DEVOTES APPROXIMATELY 50%-60% OF HIS TIME WITH A&S.  A&S IS NOT INVESTMENT RELATED."
    }
  },
  "DRPs": []
}