{
  "Info": {
    "lastNm": "PETRUS",
    "firstNm": "JEFFREY",
    "midNm": "RONALD",
    "sufNm": null,
    "indvlPK": "4661067",
    "actvAGReg": 0,
    "link": "http://www.adviserinfo.sec.gov/IAPD/Individual/4661067"
  },
  "OthrNms": [],
  "CrntEmps": [
    {
      "CrntRgstns": [
        {
          "regAuth": 50,
          "regCat": 0,
          "st": 2,
          "stDt": "2004-05-12T00:00:00"
        }
      ],
      "BrnchOfLocs": [
        {
          "str1": "400 N EXECUTIVE DR",
          "str2": "STE 110",
          "city": "BROOKFIELD",
          "state": 50,
          "stateSpecified": true,
          "cntry": "United States",
          "postlCd": "53005"
        }
      ],
      "orgNm": "AMERIPRISE FINANCIAL SERVICES, INC.",
      "orgPK": "6363",
      "str1": "707 2ND AVENUE SOUTH",
      "str2": null,
      "city": "MINNEAPOLIS",
      "state": 24,
      "stateSpecified": true,
      "cntry": "United States",
      "postlCd": "55402"
    }
  ],
  "Exms": [
    {
      "exmCd": 3,
      "exmNm": "Uniform Combined State Law Examination",
      "exmDt": "2003-07-30T00:00:00",
      "exmDtSpecified": true
    }
  ],
  "Dsgntns": [],
  "PrevRgstns": [],
  "EmpHss": [
    {
      "fromDt": "04/2004",
      "toDt": null,
      "orgNm": "AMERICAN EXPRESS FINANCIAL ADVISORS INC.",
      "city": "BROOKFIELD",
      "state": 50,
      "stateSpecified": true
    },
    {
      "fromDt": "04/2004",
      "toDt": null,
      "orgNm": "IDS LIFE INSURANCE CO. ",
      "city": "BROOKFIELD ",
      "state": 50,
      "stateSpecified": true
    }
  ],
  "OthrBuss": {
    "OthrBus": null
  },
  "DRPs": []
}