{
  "Info": {
    "lastNm": "WICKMAN",
    "firstNm": "THOMAS",
    "midNm": "J",
    "sufNm": null,
    "indvlPK": "466176",
    "actvAGReg": 1,
    "link": "http://www.adviserinfo.sec.gov/IAPD/Individual/466176"
  },
  "OthrNms": [],
  "CrntEmps": [
    {
      "CrntRgstns": [
        {
          "regAuth": 50,
          "regCat": 0,
          "st": 2,
          "stDt": "1998-05-01T00:00:00"
        }
      ],
      "BrnchOfLocs": [
        {
          "str1": "1200 N. MAYFAIR ROAD",
          "str2": "SUITE 360",
          "city": "MILWAUKEE",
          "state": 50,
          "stateSpecified": true,
          "cntry": "United States",
          "postlCd": "53226"
        }
      ],
      "orgNm": "LEGACY CAPITAL PARTNERS, INC.",
      "orgPK": "105735",
      "str1": "1200 NORTH MAYFAIR ROAD",
      "str2": "SUITE 360",
      "city": "MILWAUKEE",
      "state": 50,
      "stateSpecified": true,
      "cntry": "United States",
      "postlCd": "53226-3282"
    }
  ],
  "Exms": [],
  "Dsgntns": [],
  "PrevRgstns": [],
  "EmpHss": [
    {
      "fromDt": "10/1979",
      "toDt": null,
      "orgNm": "LEGACY CAPITAL PARTNERS, INC.",
      "city": "MILWAUKEE",
      "state": 50,
      "stateSpecified": true
    }
  ],
  "OthrBuss": {
    "OthrBus": null
  },
  "DRPs": []
}