{
  "Info": {
    "lastNm": "BREZENSKI",
    "firstNm": "EDWARD",
    "midNm": "JOSEPH",
    "sufNm": null,
    "indvlPK": "4667297",
    "actvAGReg": 0,
    "link": "http://www.adviserinfo.sec.gov/IAPD/Individual/4667297"
  },
  "OthrNms": [],
  "CrntEmps": [
    {
      "CrntRgstns": [
        {
          "regAuth": 30,
          "regCat": 0,
          "st": 2,
          "stDt": "2011-01-03T00:00:00"
        }
      ],
      "BrnchOfLocs": [
        {
          "str1": "101 N PHILLIPS AVE 5TH FL",
          "str2": "[GM-RBO]",
          "city": "SIOUX FALLS",
          "state": 43,
          "stateSpecified": true,
          "cntry": "United States",
          "postlCd": "57104"
        },
        {
          "str1": "13625 CALIFORNIA ST",
          "str2": "STE 100 B",
          "city": "OMAHA",
          "state": 30,
          "stateSpecified": true,
          "cntry": "United States",
          "postlCd": "68154"
        }
      ],
      "orgNm": "WELLS FARGO ADVISORS, LLC",
      "orgPK": "19616",
      "str1": "ONE NORTH JEFFERSON AVENUE",
      "str2": "MAIL CODE: H0004-050",
      "city": "ST. LOUIS",
      "state": 25,
      "stateSpecified": true,
      "cntry": "United States",
      "postlCd": "63103-2205"
    }
  ],
  "Exms": [
    {
      "exmCd": 0,
      "exmNm": "Uniform Securities Agent State Law Examination",
      "exmDt": "2003-07-14T00:00:00",
      "exmDtSpecified": true
    },
    {
      "exmCd": 3,
      "exmNm": "Uniform Combined State Law Examination",
      "exmDt": "2008-07-23T00:00:00",
      "exmDtSpecified": true
    }
  ],
  "Dsgntns": [
    {
      "dsgntnNm": "Certified Financial Planner"
    }
  ],
  "PrevRgstns": [
    {
      "BrnchOfLocs": [
        {
          "city": "BELLEVUE",
          "state": 30,
          "stateSpecified": true
        },
        {
          "city": "BELLEVUE",
          "state": 30,
          "stateSpecified": true
        },
        {
          "city": "COUNCIL BLUFFS",
          "state": 13,
          "stateSpecified": true
        },
        {
          "city": "LA VISTA",
          "state": 30,
          "stateSpecified": true
        },
        {
          "city": "OMAHA",
          "state": 30,
          "stateSpecified": true
        },
        {
          "city": "OMAHA",
          "state": 30,
          "stateSpecified": true
        },
        {
          "city": "OMAHA",
          "state": 30,
          "stateSpecified": true
        }
      ],
      "orgNm": "BANCWEST INVESTMENT SERVICES, INC.",
      "orgPK": "29357",
      "regBeginDt": "2008-07-25T00:00:00",
      "regBeginDtSpecified": true,
      "regEndDt": "2008-10-30T00:00:00",
      "regEndDtSpecified": true
    },
    {
      "BrnchOfLocs": [
        {
          "city": "BELLEVUE",
          "state": 30,
          "stateSpecified": true
        },
        {
          "city": "OMAHA",
          "state": 30,
          "stateSpecified": true
        }
      ],
      "orgNm": "WELLS FARGO INVESTMENTS, LLC",
      "orgPK": "10582",
      "regBeginDt": "2008-11-07T00:00:00",
      "regBeginDtSpecified": true,
      "regEndDt": "2011-01-03T00:00:00",
      "regEndDtSpecified": true
    }
  ],
  "EmpHss": [
    {
      "fromDt": "01/2005",
      "toDt": "08/2006",
      "orgNm": "COMMERCIAL FEDERAL BANK",
      "city": "BELLEVUE",
      "state": 30,
      "stateSpecified": true
    },
    {
      "fromDt": "02/2005",
      "toDt": "08/2006",
      "orgNm": "INVEST FINANCIAL CORPORATION",
      "city": "TAMPA",
      "state": 9,
      "stateSpecified": true
    },
    {
      "fromDt": "08/2006",
      "toDt": "10/2008",
      "orgNm": "BANCWEST INVESTMENT SERVICES, INC.",
      "city": "OMAHA",
      "state": 30,
      "stateSpecified": true
    },
    {
      "fromDt": "11/2008",
      "toDt": "01/2011",
      "orgNm": "WELLS FARGO INVESTMENTS, LLC.",
      "city": "OMAHA",
      "state": 30,
      "stateSpecified": true
    },
    {
      "fromDt": "01/2011",
      "toDt": null,
      "orgNm": "WELLS FARGO ADVISORS LLC",
      "city": "BELLEVUE",
      "state": 30,
      "stateSpecified": true
    }
  ],
  "OthrBuss": {
    "OthrBus": null
  },
  "DRPs": []
}