{
  "Info": {
    "lastNm": "Smartt",
    "firstNm": "Scott",
    "midNm": "Andrew",
    "sufNm": null,
    "indvlPK": "4670680",
    "actvAGReg": 0,
    "link": "http://www.adviserinfo.sec.gov/IAPD/Individual/4670680"
  },
  "OthrNms": [
    {
      "lastNm": "SMART",
      "firstNm": "SCOTT",
      "midNm": "ANDREW",
      "sufNm": null
    }
  ],
  "CrntEmps": [
    {
      "CrntRgstns": [
        {
          "regAuth": 27,
          "regCat": 0,
          "st": 2,
          "stDt": "2008-01-16T00:00:00"
        }
      ],
      "BrnchOfLocs": [
        {
          "str1": "#2 FIFTH ST NO",
          "str2": null,
          "city": "GREAT FALLS",
          "state": 27,
          "stateSpecified": true,
          "cntry": "United States",
          "postlCd": "59401"
        }
      ],
      "orgNm": "EDWARD JONES",
      "orgPK": "250",
      "str1": "12555 MANCHESTER RD",
      "str2": null,
      "city": "ST. LOUIS",
      "state": 25,
      "stateSpecified": true,
      "cntry": "United States",
      "postlCd": "63131"
    }
  ],
  "Exms": [
    {
      "exmCd": 0,
      "exmNm": "Uniform Securities Agent State Law Examination",
      "exmDt": "2003-09-22T00:00:00",
      "exmDtSpecified": true
    },
    {
      "exmCd": 3,
      "exmNm": "Uniform Combined State Law Examination",
      "exmDt": "2008-01-11T00:00:00",
      "exmDtSpecified": true
    }
  ],
  "Dsgntns": [],
  "PrevRgstns": [],
  "EmpHss": [
    {
      "fromDt": "06/2003",
      "toDt": null,
      "orgNm": "EDWARD JONES",
      "city": "ST. LOUIS",
      "state": 25,
      "stateSpecified": true
    }
  ],
  "OthrBuss": {
    "OthrBus": {
      "desc": "Quality Life Concepts, lnc. Endowment Trust Fund Type of business: Endowment  Great Falls, MT  Start date: 5/16/2011  Trustee  Hours per week: 0  Hours during trading: 0  To make decisions on the type of investments the trust holds, and direction on the trust income.     Smartt Family Limited Partnership  Type of business: Estate Planning  Great Falls, MT  Start date: 8/15/2002  GNP  Hours per week: 0  Hours during trading: 0"
    }
  },
  "DRPs": []
}