{
  "Info": {
    "lastNm": "BUSH",
    "firstNm": "DAVID",
    "midNm": "SPENCER",
    "sufNm": null,
    "indvlPK": "4674236",
    "actvAGReg": 0,
    "link": "http://www.adviserinfo.sec.gov/IAPD/Individual/4674236"
  },
  "OthrNms": [
    {
      "lastNm": "BUSH",
      "firstNm": "DAVID",
      "midNm": "S",
      "sufNm": null
    }
  ],
  "CrntEmps": [
    {
      "CrntRgstns": [
        {
          "regAuth": 21,
          "regCat": 0,
          "st": 2,
          "stDt": "2009-06-01T00:00:00"
        }
      ],
      "BrnchOfLocs": [
        {
          "str1": "1300 THAMES STREET",
          "str2": "6TH FLOOR",
          "city": "BALTIMORE",
          "state": 21,
          "stateSpecified": true,
          "cntry": "United States",
          "postlCd": "21231"
        },
        {
          "str1": "2000 WESTCHESTER AVENUE",
          "str2": null,
          "city": "PURCHASE",
          "state": 35,
          "stateSpecified": true,
          "cntry": "USA",
          "postlCd": "10577-2530"
        }
      ],
      "orgNm": "MORGAN STANLEY",
      "orgPK": "149777",
      "str1": "2000 WESTCHESTER AVENUE",
      "str2": null,
      "city": "PURCHASE",
      "state": 35,
      "stateSpecified": true,
      "cntry": "United States",
      "postlCd": "10577-2530"
    }
  ],
  "Exms": [
    {
      "exmCd": 3,
      "exmNm": "Uniform Combined State Law Examination",
      "exmDt": "2004-03-12T00:00:00",
      "exmDtSpecified": true
    }
  ],
  "Dsgntns": [],
  "PrevRgstns": [
    {
      "BrnchOfLocs": [
        {
          "city": "LUTHERVILLE",
          "state": 21,
          "stateSpecified": true
        },
        {
          "city": "PIKESVILLE",
          "state": 21,
          "stateSpecified": true
        }
      ],
      "orgNm": "TD AMERITRADE, INC.",
      "orgPK": "7870",
      "regBeginDt": "2004-12-06T00:00:00",
      "regBeginDtSpecified": true,
      "regEndDt": "2006-07-05T00:00:00",
      "regEndDtSpecified": true
    },
    {
      "BrnchOfLocs": [
        {
          "city": "PIKESVILLE",
          "state": 21,
          "stateSpecified": true
        }
      ],
      "orgNm": "AMERIVEST INVESTMENT MANAGEMENT, LLC",
      "orgPK": "111514",
      "regBeginDt": "2006-04-25T00:00:00",
      "regBeginDtSpecified": true,
      "regEndDt": "2006-07-05T00:00:00",
      "regEndDtSpecified": true
    },
    {
      "BrnchOfLocs": [
        {
          "city": "BALTIMORE",
          "state": 21,
          "stateSpecified": true
        },
        {
          "city": "BALTIMORE",
          "state": 21,
          "stateSpecified": true
        }
      ],
      "orgNm": "CITIGROUP GLOBAL MARKETS INC.",
      "orgPK": "7059",
      "regBeginDt": "2006-09-13T00:00:00",
      "regBeginDtSpecified": true,
      "regEndDt": "2009-06-01T00:00:00",
      "regEndDtSpecified": true
    }
  ],
  "EmpHss": [
    {
      "fromDt": "06/2006",
      "toDt": null,
      "orgNm": "CITIGROUP GLOBAL MARKETS INC.",
      "city": "BALTIMORE",
      "state": 21,
      "stateSpecified": true
    },
    {
      "fromDt": "06/2009",
      "toDt": null,
      "orgNm": "MORGAN STANLEY SMITH BARNEY",
      "city": "BALTIMORE",
      "state": 21,
      "stateSpecified": true
    }
  ],
  "OthrBuss": {
    "OthrBus": {
      "desc": "1. LANDLORD (NO BUSINESS NAME)- 7507 OLD HARFORD RD PARKVILLE,  MD 21234- OWNER, MAINTENANCE OF THE PROPERTY AND DEALING WITH TENANT ISSUES- 100% SHARES HELD, 5 HOURS OUTSIDE BUSINESS HOURS, 0 DURING TRADING HOURS- NON INVESTMENT RELATED"
    }
  },
  "DRPs": []
}