{
  "Info": {
    "lastNm": "IFAN",
    "firstNm": "IORWUESE",
    "midNm": null,
    "sufNm": null,
    "indvlPK": "4677096",
    "actvAGReg": 0,
    "link": "http://www.adviserinfo.sec.gov/IAPD/Individual/4677096"
  },
  "OthrNms": [
    {
      "lastNm": "IFAN",
      "firstNm": "WES",
      "midNm": null,
      "sufNm": null
    }
  ],
  "CrntEmps": [
    {
      "CrntRgstns": [
        {
          "regAuth": 32,
          "regCat": 0,
          "st": 2,
          "stDt": "2015-08-17T00:00:00"
        }
      ],
      "BrnchOfLocs": [
        {
          "str1": "67-69 SUMMIT AVE.",
          "str2": null,
          "city": "SUMMIT",
          "state": 32,
          "stateSpecified": true,
          "cntry": "United States",
          "postlCd": "07901"
        }
      ],
      "orgNm": "J.P. MORGAN SECURITIES LLC",
      "orgPK": "79",
      "str1": "277 PARK AVENUE",
      "str2": null,
      "city": "NEW YORK",
      "state": 35,
      "stateSpecified": true,
      "cntry": "United States",
      "postlCd": "10172"
    }
  ],
  "Exms": [
    {
      "exmCd": 3,
      "exmNm": "Uniform Combined State Law Examination",
      "exmDt": "2003-10-17T00:00:00",
      "exmDtSpecified": true
    }
  ],
  "Dsgntns": [],
  "PrevRgstns": [
    {
      "BrnchOfLocs": [
        {
          "city": "EDISON",
          "state": 32,
          "stateSpecified": true
        }
      ],
      "orgNm": "AMERIPRISE FINANCIAL SERVICES, INC.",
      "orgPK": "6363",
      "regBeginDt": "2003-11-14T00:00:00",
      "regBeginDtSpecified": true,
      "regEndDt": "2005-09-09T00:00:00",
      "regEndDtSpecified": true
    },
    {
      "BrnchOfLocs": [
        {
          "city": "SOMERVILLE",
          "state": 32,
          "stateSpecified": true
        }
      ],
      "orgNm": "PNC INVESTMENTS",
      "orgPK": "129052",
      "regBeginDt": "2005-11-16T00:00:00",
      "regBeginDtSpecified": true,
      "regEndDt": "2010-09-17T00:00:00",
      "regEndDtSpecified": true
    },
    {
      "BrnchOfLocs": [
        {
          "city": "BRANCHBURG",
          "state": 32,
          "stateSpecified": true
        },
        {
          "city": "SOMERSET",
          "state": 32,
          "stateSpecified": true
        },
        {
          "city": "WESTFIELD",
          "state": 32,
          "stateSpecified": true
        }
      ],
      "orgNm": "CHASE INVESTMENT SERVICES CORP.",
      "orgPK": "25574",
      "regBeginDt": "2010-12-09T00:00:00",
      "regBeginDtSpecified": true,
      "regEndDt": "2012-10-01T00:00:00",
      "regEndDtSpecified": true
    },
    {
      "BrnchOfLocs": [
        {
          "city": "BRANCHBURG",
          "state": 32,
          "stateSpecified": true
        },
        {
          "city": "SOMERSET",
          "state": 32,
          "stateSpecified": true
        }
      ],
      "orgNm": "J.P. MORGAN SECURITIES LLC",
      "orgPK": "79",
      "regBeginDt": "2012-10-01T00:00:00",
      "regBeginDtSpecified": true,
      "regEndDt": "2014-06-09T00:00:00",
      "regEndDtSpecified": true
    }
  ],
  "EmpHss": [
    {
      "fromDt": "04/2005",
      "toDt": "08/2012",
      "orgNm": "WJV MUSIC GROUP",
      "city": "MANVILLE",
      "state": 32,
      "stateSpecified": true
    },
    {
      "fromDt": "09/2005",
      "toDt": "09/2010",
      "orgNm": "PNC BANK",
      "city": "SOMERVILLE",
      "state": 32,
      "stateSpecified": true
    },
    {
      "fromDt": "11/2005",
      "toDt": "09/2010",
      "orgNm": "PNC INVESTMENTS",
      "city": "SOMERVILLE",
      "state": 32,
      "stateSpecified": true
    },
    {
      "fromDt": "09/2006",
      "toDt": "05/2010",
      "orgNm": "RUTGERS BUSINESS SCHOOL",
      "city": "NEWARK",
      "state": 32,
      "stateSpecified": true
    },
    {
      "fromDt": "11/2010",
      "toDt": "10/2012",
      "orgNm": "CHASE INVESTMENT SERVICES CORP",
      "city": "SOMERSET",
      "state": 32,
      "stateSpecified": true
    },
    {
      "fromDt": "11/2010",
      "toDt": null,
      "orgNm": "JPMORGAN CHASE BANK NA",
      "city": "BEDMINSTER",
      "state": 32,
      "stateSpecified": true
    },
    {
      "fromDt": "10/2012",
      "toDt": "06/2014",
      "orgNm": "J.P. MORGAN SECURITIES LLC",
      "city": "BRANCHBURG",
      "state": 32,
      "stateSpecified": true
    },
    {
      "fromDt": "06/2014",
      "toDt": null,
      "orgNm": "SELF",
      "city": "FLEMINGTON",
      "state": 32,
      "stateSpecified": true
    },
    {
      "fromDt": "07/2015",
      "toDt": null,
      "orgNm": "J.P. MORGAN SECURITIES LLC",
      "city": "BEDMINSTER",
      "state": 32,
      "stateSpecified": true
    }
  ],
  "OthrBuss": {
    "OthrBus": {
      "desc": "NAME OF ENTITY: (SELF) POSITION: FREELANCE AUTHOR  DETAILS: I WOULD BE WRITING BOOKS, BLOGS, AND ARTICLES CENTERED ON SOCIAL, POLITICAL, AND RELIGIOUS THEMES. I WOULD ALSO ENGAGE IN WRITING BOOKS OF POETRY AS WELL. THE NATURE OF MY RESPONSIBILITIES WOULD BE TO WRITE THE MATERIAL AND SEEK OPPORTUNITY TO PUBLISH ONLINE OR THROUGH PHYSICAL PRINT MEDIA.  start date 06/30/2014, 7 hours per month spent on position, 0 hours during securities trading, not investment related."
    }
  },
  "DRPs": []
}