{
  "Info": {
    "lastNm": "GIPSON",
    "firstNm": "KIRK",
    "midNm": "DOUGLAS",
    "sufNm": null,
    "indvlPK": "4680340",
    "actvAGReg": 0,
    "link": "http://www.adviserinfo.sec.gov/IAPD/Individual/4680340"
  },
  "OthrNms": [],
  "CrntEmps": [
    {
      "CrntRgstns": [
        {
          "regAuth": 15,
          "regCat": 0,
          "st": 2,
          "stDt": "2015-04-24T00:00:00"
        },
        {
          "regAuth": 45,
          "regCat": 0,
          "st": 3,
          "stDt": "2015-04-28T00:00:00"
        }
      ],
      "BrnchOfLocs": [
        {
          "str1": "230 SW ADAMS ST",
          "str2": null,
          "city": "PEORIA",
          "state": 15,
          "stateSpecified": true,
          "cntry": "United States",
          "postlCd": "61602"
        }
      ],
      "orgNm": "MERRILL LYNCH, PIERCE, FENNER & SMITH INCORPORATED",
      "orgPK": "7691",
      "str1": "ONE BRYANT PARK",
      "str2": null,
      "city": "NEW YORK",
      "state": 35,
      "stateSpecified": true,
      "cntry": "United States",
      "postlCd": "10036"
    }
  ],
  "Exms": [
    {
      "exmCd": 3,
      "exmNm": "Uniform Combined State Law Examination",
      "exmDt": "2004-01-05T00:00:00",
      "exmDtSpecified": true
    }
  ],
  "Dsgntns": [],
  "PrevRgstns": [
    {
      "BrnchOfLocs": [
        {
          "city": "EAST PEORIA",
          "state": 15,
          "stateSpecified": true
        }
      ],
      "orgNm": "MIDWESTERN SECURITIES TRADING COMPANY, LLC",
      "orgPK": "101080",
      "regBeginDt": "2004-02-03T00:00:00",
      "regBeginDtSpecified": true,
      "regEndDt": "2005-01-04T00:00:00",
      "regEndDtSpecified": true
    },
    {
      "BrnchOfLocs": [
        {
          "city": "PEORIA",
          "state": 15,
          "stateSpecified": true
        },
        {
          "city": "PEORIA",
          "state": 15,
          "stateSpecified": true
        }
      ],
      "orgNm": "MORGAN STANLEY DW INC.",
      "orgPK": "7556",
      "regBeginDt": "2005-01-07T00:00:00",
      "regBeginDtSpecified": true,
      "regEndDt": "2007-04-02T00:00:00",
      "regEndDtSpecified": true
    },
    {
      "BrnchOfLocs": [
        {
          "city": "PEORIA",
          "state": 15,
          "stateSpecified": true
        }
      ],
      "orgNm": "MORGAN STANLEY & CO. LLC",
      "orgPK": "8209",
      "regBeginDt": "2007-04-02T00:00:00",
      "regBeginDtSpecified": true,
      "regEndDt": "2009-06-01T00:00:00",
      "regEndDtSpecified": true
    },
    {
      "BrnchOfLocs": [
        {
          "city": "PEORIA",
          "state": 15,
          "stateSpecified": true
        },
        {
          "city": "PEORIA",
          "state": 15,
          "stateSpecified": true
        }
      ],
      "orgNm": "MORGAN STANLEY",
      "orgPK": "149777",
      "regBeginDt": "2009-06-01T00:00:00",
      "regBeginDtSpecified": true,
      "regEndDt": "2015-05-05T00:00:00",
      "regEndDtSpecified": true
    }
  ],
  "EmpHss": [
    {
      "fromDt": "12/2004",
      "toDt": "04/2007",
      "orgNm": "MORGAN STANLEY",
      "city": "PEORIA",
      "state": 15,
      "stateSpecified": true
    },
    {
      "fromDt": "04/2007",
      "toDt": "04/2015",
      "orgNm": "MORGAN STANLEY & CO., INCORPORATED",
      "city": "PEORIA",
      "state": 15,
      "stateSpecified": true
    },
    {
      "fromDt": "06/2009",
      "toDt": "04/2015",
      "orgNm": "MORGAN STANLEY SMITH BARNEY",
      "city": "PEORIA",
      "state": 15,
      "stateSpecified": true
    },
    {
      "fromDt": "01/2015",
      "toDt": "04/2015",
      "orgNm": "MORGAN STANLEY PRIVATE BANK, NATIONAL ASSOCIATION",
      "city": "NEW YORK",
      "state": 35,
      "stateSpecified": true
    },
    {
      "fromDt": "04/2015",
      "toDt": null,
      "orgNm": "MERRILL LYNCH, PIERCE, FENNER & SMITH INCORPORATED",
      "city": "PEORIA",
      "state": 15,
      "stateSpecified": true
    },
    {
      "fromDt": "06/2015",
      "toDt": null,
      "orgNm": "BANK OF AMERICA, N.A.",
      "city": "PEORIA",
      "state": 15,
      "stateSpecified": true
    }
  ],
  "OthrBuss": {
    "OthrBus": {
      "desc": "PEORIA PARK DISTRICT GOLF COMMITTEE; 10 HRS PER YEAR; PEORIA, IL; MEMBER OF AN ADHOC GOLF COMMITTEE; STARTED APROX. 2003"
    }
  },
  "DRPs": [
    {
      "hasRegAction": 1,
      "hasRegActionSpecified": true,
      "hasCriminal": 0,
      "hasCriminalSpecified": true,
      "hasBankrupt": 1,
      "hasBankruptSpecified": true,
      "hasCivilJudc": 1,
      "hasCivilJudcSpecified": true,
      "hasBond": 1,
      "hasBondSpecified": true,
      "hasJudgment": 1,
      "hasJudgmentSpecified": true,
      "hasInvstgn": 1,
      "hasInvstgnSpecified": true,
      "hasCustComp": 1,
      "hasCustCompSpecified": true,
      "hasTermination": 1,
      "hasTerminationSpecified": true
    }
  ]
}