{
  "Info": {
    "lastNm": "SAENGER",
    "firstNm": "MATTHEW",
    "midNm": "JUSTIN",
    "sufNm": null,
    "indvlPK": "4681363",
    "actvAGReg": 1,
    "link": "http://www.adviserinfo.sec.gov/IAPD/Individual/4681363"
  },
  "OthrNms": [],
  "CrntEmps": [
    {
      "CrntRgstns": [
        {
          "regAuth": 44,
          "regCat": 0,
          "st": 2,
          "stDt": "2005-01-13T00:00:00"
        }
      ],
      "BrnchOfLocs": [
        {
          "str1": "6075 POPLAR AVENUE",
          "str2": "SUITE 322",
          "city": "MEMPHIS",
          "state": 44,
          "stateSpecified": true,
          "cntry": "United States",
          "postlCd": "38119"
        }
      ],
      "orgNm": "GREEN SQUARE CAPITAL, LLC",
      "orgPK": "115231",
      "str1": "6075 POPLAR AVENUE",
      "str2": "SUITE 221",
      "city": "MEMPHIS",
      "state": 44,
      "stateSpecified": true,
      "cntry": "United States",
      "postlCd": "38119"
    }
  ],
  "Exms": [
    {
      "exmCd": 0,
      "exmNm": "Uniform Securities Agent State Law Examination",
      "exmDt": "2003-11-19T00:00:00",
      "exmDtSpecified": true
    },
    {
      "exmCd": 2,
      "exmNm": "Uniform Investment Adviser Law Examination",
      "exmDt": "2004-09-02T00:00:00",
      "exmDtSpecified": true
    }
  ],
  "Dsgntns": [],
  "PrevRgstns": [
    {
      "BrnchOfLocs": [
        {
          "city": "MEMPHIS",
          "state": 44,
          "stateSpecified": true
        }
      ],
      "orgNm": "G2 ADVISORS, LLC",
      "orgPK": "132163",
      "regBeginDt": "2005-01-14T00:00:00",
      "regBeginDtSpecified": true,
      "regEndDt": "2006-05-18T00:00:00",
      "regEndDtSpecified": true
    }
  ],
  "EmpHss": [
    {
      "fromDt": "06/2003",
      "toDt": null,
      "orgNm": "GREEN SQUARE CAPITAL, LLC",
      "city": "MEMPHIS",
      "state": 44,
      "stateSpecified": true
    }
  ],
  "OthrBuss": {
    "OthrBus": null
  },
  "DRPs": []
}