{
  "Info": {
    "lastNm": "LERNER",
    "firstNm": "ENRIQUE",
    "midNm": null,
    "sufNm": null,
    "indvlPK": "4700826",
    "actvAGReg": 0,
    "link": "http://www.adviserinfo.sec.gov/IAPD/Individual/4700826"
  },
  "OthrNms": [
    {
      "lastNm": "LERNER",
      "firstNm": "ENRIQUE",
      "midNm": null,
      "sufNm": null
    }
  ],
  "CrntEmps": [
    {
      "CrntRgstns": [
        {
          "regAuth": 25,
          "regCat": 0,
          "st": 2,
          "stDt": "2009-06-01T00:00:00"
        },
        {
          "regAuth": 45,
          "regCat": 0,
          "st": 3,
          "stDt": "2009-08-10T00:00:00"
        }
      ],
      "BrnchOfLocs": [
        {
          "str1": "7733 Forsyth Boulevard",
          "str2": "Suite 2100",
          "city": "CLAYTON",
          "state": 25,
          "stateSpecified": true,
          "cntry": "United States",
          "postlCd": "63105"
        }
      ],
      "orgNm": "MORGAN STANLEY",
      "orgPK": "149777",
      "str1": "2000 WESTCHESTER AVENUE",
      "str2": null,
      "city": "PURCHASE",
      "state": 35,
      "stateSpecified": true,
      "cntry": "United States",
      "postlCd": "10577-2530"
    }
  ],
  "Exms": [
    {
      "exmCd": 3,
      "exmNm": "Uniform Combined State Law Examination",
      "exmDt": "2003-11-20T00:00:00",
      "exmDtSpecified": true
    }
  ],
  "Dsgntns": [],
  "PrevRgstns": [
    {
      "BrnchOfLocs": [
        {
          "city": "CHESTERFIELD",
          "state": 25,
          "stateSpecified": true
        }
      ],
      "orgNm": "UBS FINANCIAL SERVICES INC.",
      "orgPK": "8174",
      "regBeginDt": "2003-11-21T00:00:00",
      "regBeginDtSpecified": true,
      "regEndDt": "2005-10-05T00:00:00",
      "regEndDtSpecified": true
    },
    {
      "BrnchOfLocs": [
        {
          "city": "ST. LOUIS",
          "state": 25,
          "stateSpecified": true
        },
        {
          "city": "ST.LOUIS",
          "state": 25,
          "stateSpecified": true
        }
      ],
      "orgNm": "MORGAN STANLEY DW INC.",
      "orgPK": "7556",
      "regBeginDt": "2005-09-02T00:00:00",
      "regBeginDtSpecified": true,
      "regEndDt": "2007-04-02T00:00:00",
      "regEndDtSpecified": true
    },
    {
      "BrnchOfLocs": [
        {
          "city": "ST. LOUIS",
          "state": 25,
          "stateSpecified": true
        }
      ],
      "orgNm": "MORGAN STANLEY & CO. LLC",
      "orgPK": "8209",
      "regBeginDt": "2007-04-02T00:00:00",
      "regBeginDtSpecified": true,
      "regEndDt": "2009-06-01T00:00:00",
      "regEndDtSpecified": true
    }
  ],
  "EmpHss": [
    {
      "fromDt": "09/2005",
      "toDt": "04/2007",
      "orgNm": "MORGAN STANLEY DW INC.",
      "city": "ST LOUIS",
      "state": 25,
      "stateSpecified": true
    },
    {
      "fromDt": "04/2007",
      "toDt": null,
      "orgNm": "MORGAN STANLEY & CO., INCORPORATED",
      "city": "ST. LOUIS",
      "state": 25,
      "stateSpecified": true
    },
    {
      "fromDt": "06/2009",
      "toDt": null,
      "orgNm": "MORGAN STANLEY SMITH BARNEY",
      "city": "ST. LOUIS",
      "state": 25,
      "stateSpecified": true
    }
  ],
  "OthrBuss": {
    "OthrBus": null
  },
  "DRPs": []
}