{
  "Info": {
    "lastNm": "ADELSPERGER",
    "firstNm": "MICHELLE",
    "midNm": "MARIE",
    "sufNm": null,
    "indvlPK": "4700067",
    "actvAGReg": 0,
    "link": "http://www.adviserinfo.sec.gov/IAPD/Individual/4700067"
  },
  "OthrNms": [
    {
      "lastNm": "ONDREY",
      "firstNm": "MICHELLE",
      "midNm": "MARIE",
      "sufNm": null
    }
  ],
  "CrntEmps": [
    {
      "CrntRgstns": [
        {
          "regAuth": 39,
          "regCat": 0,
          "st": 2,
          "stDt": "2011-01-21T00:00:00"
        }
      ],
      "BrnchOfLocs": [
        {
          "str1": "3925 REED BLVD, STE #300",
          "str2": null,
          "city": "MURRYSVILLE",
          "state": 39,
          "stateSpecified": true,
          "cntry": "United States",
          "postlCd": "15668"
        },
        {
          "str1": "SCENIC DRIVE PROFESSIONAL CENTER",
          "str2": "200 BRUSH RUN ROAD, SUITE A",
          "city": "GREENSBURG",
          "state": 39,
          "stateSpecified": true,
          "cntry": "United States",
          "postlCd": "15601"
        }
      ],
      "orgNm": "TRUSTMONT ADVISORY GROUP, INC.",
      "orgPK": "106015",
      "str1": "SCENIC DRIVE PROFESSIONAL CENTER",
      "str2": "200 BRUSH RUN ROAD, SUITE A",
      "city": "GREENSBURG",
      "state": 39,
      "stateSpecified": true,
      "cntry": "United States",
      "postlCd": "15601"
    }
  ],
  "Exms": [
    {
      "exmCd": 0,
      "exmNm": "Uniform Securities Agent State Law Examination",
      "exmDt": "2003-12-22T00:00:00",
      "exmDtSpecified": true
    }
  ],
  "Dsgntns": [],
  "PrevRgstns": [],
  "EmpHss": [
    {
      "fromDt": "10/1991",
      "toDt": null,
      "orgNm": "SCARANO, TRUMP ADELSPERGER",
      "city": "MURRYSVILLE",
      "state": 39,
      "stateSpecified": true
    },
    {
      "fromDt": "08/2003",
      "toDt": "06/2010",
      "orgNm": "INTERSECURITIES, INC",
      "city": "MURRYSVILLE",
      "state": 39,
      "stateSpecified": true
    },
    {
      "fromDt": "07/2010",
      "toDt": null,
      "orgNm": "TRUSTMONT FINANCIAL GROUP, INC.",
      "city": "GREENSBURG",
      "state": 39,
      "stateSpecified": true
    }
  ],
  "OthrBuss": {
    "OthrBus": {
      "desc": "1)SCARANO, TRUMP & ADELSPERGER, CPA'S CERTIFIED PUBLIC ACCOUNTING FIRM, SHAREHOLDER, TREASURER. DUTIES INCLUDE MEETING AND OBTAINING CLIENTS, PREPARATION OF FINANCIAL STATEMENTS, TAX RETURNS, CONSULTING, MANAGING STAFF, 01/1998-PRESENT, BECAME SHAREHOLDER, SPEND APPROX 200 HRS PER MONTH, # OF HRS DURING SECURITIES TRADING HRS SAME 2)OWNER OF RENTAL PROPERTY, 342 WEAVERS ROAD, GREENSBERG, 0 HOURS PER MONTH.    INSURANCE AGENT SELLING LIFE INSURANCE, 1-2 HRS PER MONTH DURING SECURITIES TRADING HOURS."
    }
  },
  "DRPs": []
}