{
  "Info": {
    "lastNm": "MAYEUX",
    "firstNm": "MICHAEL",
    "midNm": "LANCE",
    "sufNm": null,
    "indvlPK": "4702790",
    "actvAGReg": 0,
    "link": "http://www.adviserinfo.sec.gov/IAPD/Individual/4702790"
  },
  "OthrNms": [
    {
      "lastNm": "MAYEUX",
      "firstNm": "LANCE",
      "midNm": null,
      "sufNm": null
    }
  ],
  "CrntEmps": [
    {
      "CrntRgstns": [
        {
          "regAuth": 19,
          "regCat": 0,
          "st": 2,
          "stDt": "2015-12-10T00:00:00"
        },
        {
          "regAuth": 45,
          "regCat": 0,
          "st": 2,
          "stDt": "2015-12-10T00:00:00"
        }
      ],
      "BrnchOfLocs": [
        {
          "str1": "9241 BLUEBONNET BLVD, STE A",
          "str2": null,
          "city": "BATON ROUGE",
          "state": 19,
          "stateSpecified": true,
          "cntry": "United States",
          "postlCd": "70810"
        }
      ],
      "orgNm": "LPL FINANCIAL LLC",
      "orgPK": "6413",
      "str1": "75 STATE STREET, 22ND FLOOR",
      "str2": null,
      "city": "BOSTON",
      "state": 20,
      "stateSpecified": true,
      "cntry": "United States",
      "postlCd": "02109"
    }
  ],
  "Exms": [
    {
      "exmCd": 0,
      "exmNm": "Uniform Securities Agent State Law Examination",
      "exmDt": "2008-05-22T00:00:00",
      "exmDtSpecified": true
    },
    {
      "exmCd": 2,
      "exmNm": "Uniform Investment Adviser Law Examination",
      "exmDt": "2011-12-30T00:00:00",
      "exmDtSpecified": true
    }
  ],
  "Dsgntns": [],
  "PrevRgstns": [
    {
      "BrnchOfLocs": [
        {
          "city": "DENHAM SPRINGS",
          "state": 19,
          "stateSpecified": true
        },
        {
          "city": "MELVILLE",
          "state": 35,
          "stateSpecified": true
        }
      ],
      "orgNm": "CAPITAL ONE FINANCIAL ADVISORS LLC",
      "orgPK": "127236",
      "regBeginDt": "2012-01-04T00:00:00",
      "regBeginDtSpecified": true,
      "regEndDt": "2015-01-28T00:00:00",
      "regEndDtSpecified": true
    },
    {
      "BrnchOfLocs": [
        {
          "city": "SEATTLE",
          "state": 49,
          "stateSpecified": true
        }
      ],
      "orgNm": "CAPITAL ONE ADVISORS, LLC",
      "orgPK": "136865",
      "regBeginDt": "2015-01-28T00:00:00",
      "regBeginDtSpecified": true,
      "regEndDt": "2015-12-15T00:00:00",
      "regEndDtSpecified": true
    }
  ],
  "EmpHss": [
    {
      "fromDt": "07/2003",
      "toDt": "12/2015",
      "orgNm": "CAPITAL ONE INVESTMENTS, LLC",
      "city": "NEW ORLEANS",
      "state": 19,
      "stateSpecified": true
    },
    {
      "fromDt": "07/2003",
      "toDt": "12/2015",
      "orgNm": "CAPITAL ONE, N.A.",
      "city": "BATON ROUGE",
      "state": 19,
      "stateSpecified": true
    },
    {
      "fromDt": "05/2008",
      "toDt": "12/2015",
      "orgNm": "CAPITAL ONE INVESTMENT SERVICES CORPORATION",
      "city": "HAMMOND",
      "state": 19,
      "stateSpecified": true
    },
    {
      "fromDt": "01/2015",
      "toDt": "12/2015",
      "orgNm": "CAPITAL ONE SHAREBUILDER, INC.",
      "city": "DENHAM SPRINGS",
      "state": 19,
      "stateSpecified": true
    },
    {
      "fromDt": "01/2015",
      "toDt": "12/2015",
      "orgNm": "SHAREBUILDER 401K",
      "city": "SEATTLE",
      "state": 49,
      "stateSpecified": true
    },
    {
      "fromDt": "12/2015",
      "toDt": null,
      "orgNm": "LPL FINANCIAL, LLC",
      "city": "BATON ROUGE",
      "state": 19,
      "stateSpecified": true
    }
  ],
  "OthrBuss": {
    "OthrBus": {
      "desc": "1. 12/10/2015 - Real Estate Rental - Rental owner - 1% - Baton Rouge, LA 2. 12/10/2015 - Champion Wealth Strategies - DBA for LPL Business (entity for LPL business) - 99% - Baton Rouge, LA"
    }
  },
  "DRPs": []
}