{
  "Info": {
    "lastNm": "FLAHERTY",
    "firstNm": "DEIRDRE",
    "midNm": "MICHELLE",
    "sufNm": null,
    "indvlPK": "4713410",
    "actvAGReg": 0,
    "link": "http://www.adviserinfo.sec.gov/IAPD/Individual/4713410"
  },
  "OthrNms": [],
  "CrntEmps": [
    {
      "CrntRgstns": [
        {
          "regAuth": 27,
          "regCat": 0,
          "st": 2,
          "stDt": "2013-07-12T00:00:00"
        }
      ],
      "BrnchOfLocs": [
        {
          "str1": null,
          "str2": null,
          "city": "MISSOULA",
          "state": 27,
          "stateSpecified": true,
          "cntry": "United States",
          "postlCd": null
        }
      ],
      "orgNm": "SAGEPOINT FINANCIAL, INC.",
      "orgPK": "133763",
      "str1": "2800 NORTH CENTRAL AVENUE",
      "str2": "SUITE 2100",
      "city": "PHOENIX",
      "state": 3,
      "stateSpecified": true,
      "cntry": "United States",
      "postlCd": "85004"
    }
  ],
  "Exms": [
    {
      "exmCd": 3,
      "exmNm": "Uniform Combined State Law Examination",
      "exmDt": "2013-06-07T00:00:00",
      "exmDtSpecified": true
    }
  ],
  "Dsgntns": [],
  "PrevRgstns": [],
  "EmpHss": [
    {
      "fromDt": "07/1999",
      "toDt": null,
      "orgNm": "FLAHERTY FINANCIAL",
      "city": "MISSOULA",
      "state": 27,
      "stateSpecified": true
    },
    {
      "fromDt": "09/2003",
      "toDt": "10/2008",
      "orgNm": "AMERICAN GENERAL SECURITIES INCORPORATED",
      "city": "MISSOULA",
      "state": 27,
      "stateSpecified": true
    },
    {
      "fromDt": "10/2008",
      "toDt": "01/2009",
      "orgNm": "AIG FINANCIAL ADVISORS, INC.",
      "city": "MISSOULA",
      "state": 27,
      "stateSpecified": true
    },
    {
      "fromDt": "01/2009",
      "toDt": null,
      "orgNm": "SAGEPOINT FINANCIAL, INC",
      "city": "BEAVERTON",
      "state": 38,
      "stateSpecified": true
    }
  ],
  "OthrBuss": {
    "OthrBus": {
      "desc": "1.FLAHERTY FINANCIAL SERVICES, INC (BDA), ADDRESS 340 EAST CENTRAL AVE, MISSOULA MT 59801,INVESTMENTS, REGISTERED REPRESENTATIVE, 12/2002, 160HRS,6HRS.  2.MISSOULA YWCA, 1130 WEST BROADWAY MISSOULA MT 59802, NON-PROFIT ORGANIZATION HELPING WOMEN, BOARD MEMBER, SEPTEMBER 1, 2010,6HRS,1HRS  3. MISSOULA BUSINESSWOMEN'S NETWORK POSITION: Committee Treasurer NATURE: Non Profit INVESTMENT RELATED: No NUMBER OF HOURS: 6 SECURITIES TRADING HOURS: 0 START DATE: 09/01/2015 ADDRESS: PO BOX 4524, Missoula MT 59807 DESCRIPTION: I am the treasurer for a committee that puts on a Women's Symposium at the start of 2016. I will not have check signing provilage and I am not an officer for the board. Our committee reports to the board for Missoula Businesswomen's Network. I report to their treasurer."
    }
  },
  "DRPs": []
}