{
  "Info": {
    "lastNm": "LIU",
    "firstNm": "MELANIE",
    "midNm": "C",
    "sufNm": null,
    "indvlPK": "4720686",
    "actvAGReg": 0,
    "link": "http://www.adviserinfo.sec.gov/IAPD/Individual/4720686"
  },
  "OthrNms": [
    {
      "lastNm": "LIU",
      "firstNm": "CHIEN",
      "midNm": null,
      "sufNm": null
    },
    {
      "lastNm": "LIU",
      "firstNm": "MELANIE",
      "midNm": "CHIEN",
      "sufNm": null
    }
  ],
  "CrntEmps": [
    {
      "CrntRgstns": [
        {
          "regAuth": 4,
          "regCat": 0,
          "st": 2,
          "stDt": "2011-07-18T00:00:00"
        }
      ],
      "BrnchOfLocs": [
        {
          "str1": "6356 IRVINE BLVD",
          "str2": null,
          "city": "IRVINE",
          "state": 4,
          "stateSpecified": true,
          "cntry": "United States",
          "postlCd": "92620"
        }
      ],
      "orgNm": "MERRILL LYNCH, PIERCE, FENNER & SMITH INCORPORATED",
      "orgPK": "7691",
      "str1": "ONE BRYANT PARK",
      "str2": null,
      "city": "NEW YORK",
      "state": 35,
      "stateSpecified": true,
      "cntry": "United States",
      "postlCd": "10036"
    }
  ],
  "Exms": [
    {
      "exmCd": 0,
      "exmNm": "Uniform Securities Agent State Law Examination",
      "exmDt": "2004-06-21T00:00:00",
      "exmDtSpecified": true
    },
    {
      "exmCd": 3,
      "exmNm": "Uniform Combined State Law Examination",
      "exmDt": "2011-07-14T00:00:00",
      "exmDtSpecified": true
    }
  ],
  "Dsgntns": [],
  "PrevRgstns": [],
  "EmpHss": [
    {
      "fromDt": "04/2001",
      "toDt": null,
      "orgNm": "MERRILL LYNCH, PIERCE, FENNER & SMITH INCORPORATED",
      "city": "IRVINE",
      "state": 4,
      "stateSpecified": true
    },
    {
      "fromDt": "07/2003",
      "toDt": "11/2006",
      "orgNm": "BANC OF AMERICA INVESTMENT SERVICES, INC",
      "city": "IRVINE",
      "state": 4,
      "stateSpecified": true
    },
    {
      "fromDt": "11/2008",
      "toDt": "10/2009",
      "orgNm": "WORLD GROUP SECURITIES",
      "city": "WEST COVINA",
      "state": 4,
      "stateSpecified": true
    },
    {
      "fromDt": "03/2012",
      "toDt": null,
      "orgNm": "BANK OF AMERICA, N.A.",
      "city": "IRVINE",
      "state": 4,
      "stateSpecified": true
    }
  ],
  "OthrBuss": {
    "OthrBus": {
      "desc": "I*68725 FOR PROFIT OR NOT FOR PROFIT: FOR-PROFIT ORGANIZATION  NAME OF OUTSIDE BUSINESS ORGANIZATION: NONE APPLICABLE  INVESTMENT RELATED: N  ADDRESS OF BUSINESS:  CA 92620  NATURE OF BUSINESS: OTHER REAL ESTATE LICENSE  POSITION, TITLE, ASSOCIATION: NA  START DATE OF RELATIONSHIP: 7/7/2010  NUMBER OF HOURS DEVOTED:  0 ANNUALLY HOUR(S)  NUMBER OF HOURS DEVOTED DURING TRADING HOURS: 0  DUTIES: I HAVE A REAL ESTATE LICENSE FOR BUYING MY OWN PROPERTY. CURRENTLY IS NOT ACTIVE."
    }
  },
  "DRPs": []
}