{
  "Info": {
    "lastNm": "HAMILTON",
    "firstNm": "LINDSEY",
    "midNm": "MICHELLE",
    "sufNm": null,
    "indvlPK": "4722926",
    "actvAGReg": 0,
    "link": "http://www.adviserinfo.sec.gov/IAPD/Individual/4722926"
  },
  "OthrNms": [
    {
      "lastNm": "SWEENEY",
      "firstNm": "LINDSEY",
      "midNm": "MICHELLE",
      "sufNm": null
    }
  ],
  "CrntEmps": [
    {
      "CrntRgstns": [
        {
          "regAuth": 45,
          "regCat": 0,
          "st": 3,
          "stDt": "2015-09-02T00:00:00"
        }
      ],
      "BrnchOfLocs": [
        {
          "str1": "2221 WASHINGTON ST",
          "str2": null,
          "city": "NEWTON",
          "state": 20,
          "stateSpecified": true,
          "cntry": "United States",
          "postlCd": "02462"
        }
      ],
      "orgNm": "MERRILL LYNCH, PIERCE, FENNER & SMITH INCORPORATED",
      "orgPK": "7691",
      "str1": "ONE BRYANT PARK",
      "str2": null,
      "city": "NEW YORK",
      "state": 35,
      "stateSpecified": true,
      "cntry": "United States",
      "postlCd": "10036"
    }
  ],
  "Exms": [
    {
      "exmCd": 3,
      "exmNm": "Uniform Combined State Law Examination",
      "exmDt": "2004-03-30T00:00:00",
      "exmDtSpecified": true
    }
  ],
  "Dsgntns": [],
  "PrevRgstns": [
    {
      "BrnchOfLocs": [
        {
          "city": "NY",
          "state": 35,
          "stateSpecified": true
        }
      ],
      "orgNm": "QUICK & REILLY, INC.",
      "orgPK": "11217",
      "regBeginDt": "2004-04-05T00:00:00",
      "regBeginDtSpecified": true,
      "regEndDt": "2004-10-20T00:00:00",
      "regEndDtSpecified": true
    },
    {
      "BrnchOfLocs": [
        {
          "city": "BOSTON",
          "state": 20,
          "stateSpecified": true
        }
      ],
      "orgNm": "BANC OF AMERICA INVESTMENT SERVICES, INC.",
      "orgPK": "16361",
      "regBeginDt": "2004-10-20T00:00:00",
      "regBeginDtSpecified": true,
      "regEndDt": "2004-12-01T00:00:00",
      "regEndDtSpecified": true
    },
    {
      "BrnchOfLocs": [
        {
          "city": "BOSTON",
          "state": 20,
          "stateSpecified": true
        },
        {
          "city": "NEW YORK",
          "state": 35,
          "stateSpecified": true
        }
      ],
      "orgNm": "JEFFERIES INVESTMENT ADVISERS, LLC",
      "orgPK": "121767",
      "regBeginDt": "2006-07-14T00:00:00",
      "regBeginDtSpecified": true,
      "regEndDt": "2008-11-18T00:00:00",
      "regEndDtSpecified": true
    }
  ],
  "EmpHss": [
    {
      "fromDt": "07/2006",
      "toDt": "11/2008",
      "orgNm": "JEFFERIES & COMPANY, INC.",
      "city": "BOSTON",
      "state": 20,
      "stateSpecified": true
    },
    {
      "fromDt": "11/2008",
      "toDt": "05/2009",
      "orgNm": "WACHOVIA SECURITIES LLC",
      "city": "WALTHAM",
      "state": 20,
      "stateSpecified": true
    },
    {
      "fromDt": "05/2009",
      "toDt": "12/2013",
      "orgNm": "WELLS FARGO ADVISORS LLC",
      "city": "SOUTH WALTHAM",
      "state": 20,
      "stateSpecified": true
    },
    {
      "fromDt": "12/2013",
      "toDt": null,
      "orgNm": "MERRILL LYNCH, PIERCE, FENNER & SMITH INCORPORATED",
      "city": "NEWTON",
      "state": 20,
      "stateSpecified": true
    }
  ],
  "OthrBuss": {
    "OthrBus": null
  },
  "DRPs": []
}