{
  "Info": {
    "lastNm": "WANG",
    "firstNm": "SHUAI",
    "midNm": null,
    "sufNm": null,
    "indvlPK": "4725754",
    "actvAGReg": 0,
    "link": "http://www.adviserinfo.sec.gov/IAPD/Individual/4725754"
  },
  "OthrNms": [
    {
      "lastNm": "WANG",
      "firstNm": "SHUAI",
      "midNm": null,
      "sufNm": null
    },
    {
      "lastNm": "WANG",
      "firstNm": "SUNNY",
      "midNm": null,
      "sufNm": null
    },
    {
      "lastNm": "WANG",
      "firstNm": "SUNNY",
      "midNm": "SHUAI",
      "sufNm": null
    },
    {
      "lastNm": "WANG",
      "firstNm": "SUNNY",
      "midNm": "SHUAI",
      "sufNm": null
    },
    {
      "lastNm": "WANG",
      "firstNm": "SWI",
      "midNm": null,
      "sufNm": null
    }
  ],
  "CrntEmps": [
    {
      "CrntRgstns": [
        {
          "regAuth": 4,
          "regCat": 0,
          "st": 2,
          "stDt": "2012-01-04T00:00:00"
        }
      ],
      "BrnchOfLocs": [
        {
          "str1": "4677 OLDIRONSIDES DR",
          "str2": "STE 350",
          "city": "SANTA CLARA",
          "state": 4,
          "stateSpecified": true,
          "cntry": "United States",
          "postlCd": "95054"
        }
      ],
      "orgNm": "CAMBRIDGE INVESTMENT RESEARCH ADVISORS, INC.",
      "orgPK": "134139",
      "str1": "1776 PLEASANT PLAIN RD.",
      "str2": null,
      "city": "FAIRFIELD",
      "state": 13,
      "stateSpecified": true,
      "cntry": "United States",
      "postlCd": "52556-8757"
    }
  ],
  "Exms": [
    {
      "exmCd": 0,
      "exmNm": "Uniform Securities Agent State Law Examination",
      "exmDt": "2004-06-17T00:00:00",
      "exmDtSpecified": true
    },
    {
      "exmCd": 2,
      "exmNm": "Uniform Investment Adviser Law Examination",
      "exmDt": "2011-10-17T00:00:00",
      "exmDtSpecified": true
    }
  ],
  "Dsgntns": [],
  "PrevRgstns": [],
  "EmpHss": [
    {
      "fromDt": "10/2004",
      "toDt": "10/2009",
      "orgNm": "NORTHWESTERN MUTUAL INVESTMENT SERVICES, LLC",
      "city": "SAN JOSE",
      "state": 4,
      "stateSpecified": true
    },
    {
      "fromDt": "06/2009",
      "toDt": null,
      "orgNm": "AMERICAN UNITED LIFE",
      "city": "SAN JOSE",
      "state": 4,
      "stateSpecified": true
    },
    {
      "fromDt": "11/2009",
      "toDt": "03/2011",
      "orgNm": "ONEAMERICA SECURITIES",
      "city": "SAN JOSE",
      "state": 4,
      "stateSpecified": true
    },
    {
      "fromDt": "03/2011",
      "toDt": null,
      "orgNm": "CAMBRIDGE INVESTMENT RESEARCH, INC.",
      "city": "FAIRFIELD",
      "state": 13,
      "stateSpecified": true
    },
    {
      "fromDt": "01/2012",
      "toDt": null,
      "orgNm": "CAMBRIDGE INVESTMENT RESEARCH ADVISORS, INC.",
      "city": "FAIRFIELD",
      "state": 13,
      "stateSpecified": true
    }
  ],
  "OthrBuss": {
    "OthrBus": {
      "desc": "1)INDEPENDENT INSURANCE AGENT FOR VARIOUS INDEPENDENT INSURANCE COMPANIES.   2)T.L ANNESLEY, TEE U/A/D 10/19/2014, AS HER SOLE AND SEPARATED PROPERTY., 451 DELA VINA AVE 210, MONTEREY, CA  93940 ; BEGAN 10/19/2014 ; AS POWER OF ATTORNEY ; INVESTMENT RELATED ; DEVOTES 1 HR/WK ; 1 DURING TRADING HOURS.    3)123 college, 4677 old ironsides dr, ste 350, santa clara, ca, 9/2015 providing seminars and assisting students and parents with college planning. nir - 15 hr/wk - 0/trading."
    }
  },
  "DRPs": []
}