{
  "Info": {
    "lastNm": "KAJALA",
    "firstNm": "STEVEN",
    "midNm": "VICTOR",
    "sufNm": null,
    "indvlPK": "4726999",
    "actvAGReg": 0,
    "link": "http://www.adviserinfo.sec.gov/IAPD/Individual/4726999"
  },
  "OthrNms": [],
  "CrntEmps": [
    {
      "CrntRgstns": [
        {
          "regAuth": 4,
          "regCat": 0,
          "st": 2,
          "stDt": "2015-08-14T00:00:00"
        },
        {
          "regAuth": 5,
          "regCat": 0,
          "st": 2,
          "stDt": "2015-08-14T00:00:00"
        },
        {
          "regAuth": 24,
          "regCat": 0,
          "st": 2,
          "stDt": "2015-08-14T00:00:00"
        },
        {
          "regAuth": 23,
          "regCat": 0,
          "st": 2,
          "stDt": "2015-08-17T00:00:00"
        },
        {
          "regAuth": 9,
          "regCat": 0,
          "st": 2,
          "stDt": "2015-08-18T00:00:00"
        },
        {
          "regAuth": 50,
          "regCat": 0,
          "st": 2,
          "stDt": "2015-08-18T00:00:00"
        },
        {
          "regAuth": 42,
          "regCat": 0,
          "st": 2,
          "stDt": "2015-08-19T00:00:00"
        },
        {
          "regAuth": 49,
          "regCat": 0,
          "st": 2,
          "stDt": "2015-08-27T00:00:00"
        },
        {
          "regAuth": 7,
          "regCat": 0,
          "st": 2,
          "stDt": "2015-09-09T00:00:00"
        },
        {
          "regAuth": 6,
          "regCat": 0,
          "st": 2,
          "stDt": "2016-01-19T00:00:00"
        },
        {
          "regAuth": 14,
          "regCat": 0,
          "st": 2,
          "stDt": "2016-01-19T00:00:00"
        },
        {
          "regAuth": 16,
          "regCat": 0,
          "st": 2,
          "stDt": "2016-01-19T00:00:00"
        },
        {
          "regAuth": 18,
          "regCat": 0,
          "st": 2,
          "stDt": "2016-01-19T00:00:00"
        },
        {
          "regAuth": 19,
          "regCat": 0,
          "st": 2,
          "stDt": "2016-01-19T00:00:00"
        },
        {
          "regAuth": 30,
          "regCat": 0,
          "st": 2,
          "stDt": "2016-01-19T00:00:00"
        },
        {
          "regAuth": 36,
          "regCat": 0,
          "st": 2,
          "stDt": "2016-01-19T00:00:00"
        },
        {
          "regAuth": 41,
          "regCat": 0,
          "st": 2,
          "stDt": "2016-01-19T00:00:00"
        },
        {
          "regAuth": 47,
          "regCat": 0,
          "st": 2,
          "stDt": "2016-01-19T00:00:00"
        },
        {
          "regAuth": 13,
          "regCat": 0,
          "st": 2,
          "stDt": "2016-01-20T00:00:00"
        },
        {
          "regAuth": 25,
          "regCat": 0,
          "st": 2,
          "stDt": "2016-01-20T00:00:00"
        },
        {
          "regAuth": 33,
          "regCat": 0,
          "st": 2,
          "stDt": "2016-01-20T00:00:00"
        },
        {
          "regAuth": 39,
          "regCat": 0,
          "st": 2,
          "stDt": "2016-01-20T00:00:00"
        },
        {
          "regAuth": 43,
          "regCat": 0,
          "st": 2,
          "stDt": "2016-01-20T00:00:00"
        },
        {
          "regAuth": 1,
          "regCat": 0,
          "st": 2,
          "stDt": "2016-01-21T00:00:00"
        },
        {
          "regAuth": 2,
          "regCat": 0,
          "st": 2,
          "stDt": "2016-01-21T00:00:00"
        },
        {
          "regAuth": 10,
          "regCat": 0,
          "st": 2,
          "stDt": "2016-01-21T00:00:00"
        },
        {
          "regAuth": 22,
          "regCat": 0,
          "st": 2,
          "stDt": "2016-01-21T00:00:00"
        },
        {
          "regAuth": 45,
          "regCat": 0,
          "st": 3,
          "stDt": "2016-01-21T00:00:00"
        },
        {
          "regAuth": 53,
          "regCat": 0,
          "st": 2,
          "stDt": "2016-01-21T00:00:00"
        },
        {
          "regAuth": 15,
          "regCat": 0,
          "st": 2,
          "stDt": "2016-01-22T00:00:00"
        },
        {
          "regAuth": 26,
          "regCat": 0,
          "st": 2,
          "stDt": "2016-01-22T00:00:00"
        },
        {
          "regAuth": 29,
          "regCat": 0,
          "st": 2,
          "stDt": "2016-01-25T00:00:00"
        },
        {
          "regAuth": 21,
          "regCat": 0,
          "st": 2,
          "stDt": "2016-01-26T00:00:00"
        },
        {
          "regAuth": 34,
          "regCat": 0,
          "st": 2,
          "stDt": "2016-02-02T00:00:00"
        },
        {
          "regAuth": 51,
          "regCat": 0,
          "st": 2,
          "stDt": "2016-02-04T00:00:00"
        },
        {
          "regAuth": 17,
          "regCat": 0,
          "st": 2,
          "stDt": "2016-02-08T00:00:00"
        },
        {
          "regAuth": 46,
          "regCat": 0,
          "st": 2,
          "stDt": "2016-02-26T00:00:00"
        },
        {
          "regAuth": 27,
          "regCat": 0,
          "st": 2,
          "stDt": "2016-03-21T00:00:00"
        },
        {
          "regAuth": 0,
          "regCat": 0,
          "st": 2,
          "stDt": "2016-03-23T00:00:00"
        },
        {
          "regAuth": 31,
          "regCat": 0,
          "st": 2,
          "stDt": "2016-03-28T00:00:00"
        },
        {
          "regAuth": 32,
          "regCat": 0,
          "st": 2,
          "stDt": "2016-03-29T00:00:00"
        },
        {
          "regAuth": 8,
          "regCat": 0,
          "st": 2,
          "stDt": "2016-03-30T00:00:00"
        },
        {
          "regAuth": 28,
          "regCat": 0,
          "st": 2,
          "stDt": "2016-05-26T00:00:00"
        }
      ],
      "BrnchOfLocs": [
        {
          "str1": "3601 MINNESOTA DRIVE",
          "str2": "SUITE 550",
          "city": "BLOOMINGTON",
          "state": 24,
          "stateSpecified": true,
          "cntry": "United States",
          "postlCd": "55435"
        }
      ],
      "orgNm": "WADDELL & REED",
      "orgPK": "866",
      "str1": "6300 LAMAR AVENUE",
      "str2": null,
      "city": "OVERLAND PARK",
      "state": 17,
      "stateSpecified": true,
      "cntry": "United States",
      "postlCd": "66202-4200"
    }
  ],
  "Exms": [
    {
      "exmCd": 3,
      "exmNm": "Uniform Combined State Law Examination",
      "exmDt": "2003-11-19T00:00:00",
      "exmDtSpecified": true
    }
  ],
  "Dsgntns": [],
  "PrevRgstns": [
    {
      "BrnchOfLocs": [
        {
          "city": "DESTIN",
          "state": 9,
          "stateSpecified": true
        },
        {
          "city": "DULUTH",
          "state": 24,
          "stateSpecified": true
        },
        {
          "city": "DULUTH",
          "state": 24,
          "stateSpecified": true
        }
      ],
      "orgNm": "MERRILL LYNCH, PIERCE, FENNER & SMITH INCORPORATED",
      "orgPK": "7691",
      "regBeginDt": "2005-05-16T00:00:00",
      "regBeginDtSpecified": true,
      "regEndDt": "2008-11-26T00:00:00",
      "regEndDtSpecified": true
    },
    {
      "BrnchOfLocs": [
        {
          "city": "ST. PAUL",
          "state": 24,
          "stateSpecified": true
        }
      ],
      "orgNm": "MORGAN STANLEY & CO. LLC",
      "orgPK": "8209",
      "regBeginDt": "2008-11-24T00:00:00",
      "regBeginDtSpecified": true,
      "regEndDt": "2009-06-01T00:00:00",
      "regEndDtSpecified": true
    },
    {
      "BrnchOfLocs": [
        {
          "city": "ALBANY",
          "state": 35,
          "stateSpecified": true
        },
        {
          "city": "ALBANY",
          "state": 35,
          "stateSpecified": true
        },
        {
          "city": "DULUTH",
          "state": 24,
          "stateSpecified": true
        },
        {
          "city": "MINNEAPOLIS",
          "state": 24,
          "stateSpecified": true
        },
        {
          "city": "MINNEAPOLIS",
          "state": 24,
          "stateSpecified": true
        },
        {
          "city": "PALM HARBOR",
          "state": 9,
          "stateSpecified": true
        },
        {
          "city": "ST. PAUL",
          "state": 24,
          "stateSpecified": true
        }
      ],
      "orgNm": "MORGAN STANLEY",
      "orgPK": "149777",
      "regBeginDt": "2009-06-01T00:00:00",
      "regBeginDtSpecified": true,
      "regEndDt": "2015-08-25T00:00:00",
      "regEndDtSpecified": true
    }
  ],
  "EmpHss": [
    {
      "fromDt": "05/2005",
      "toDt": "11/2008",
      "orgNm": "MERRILL LYNCH, PIERCE, FENNER & SMITH INC",
      "city": "DULUTH",
      "state": 24,
      "stateSpecified": true
    },
    {
      "fromDt": "11/2008",
      "toDt": "05/2009",
      "orgNm": "MORGAN STANLEY & CO INC",
      "city": "MINNEAPOLIS",
      "state": 24,
      "stateSpecified": true
    },
    {
      "fromDt": "05/2009",
      "toDt": "08/2015",
      "orgNm": "MORGAN STANLEY SMITH BARNEY",
      "city": "MINNEAPOLIS",
      "state": 24,
      "stateSpecified": true
    },
    {
      "fromDt": "01/2015",
      "toDt": "08/2015",
      "orgNm": "MORGAN STANLEY PRIVATE BANK, NATIONAL ASSOCIATION",
      "city": "MINNEAPOLIS",
      "state": 24,
      "stateSpecified": true
    },
    {
      "fromDt": "04/2015",
      "toDt": null,
      "orgNm": "KAJALA CABIN RENTAL",
      "city": "COOK",
      "state": 24,
      "stateSpecified": true
    },
    {
      "fromDt": "08/2015",
      "toDt": null,
      "orgNm": "VARIOUS INSURANCE CARRIERS FOR W&R INSURANCE AGENCIES",
      "city": "COOK",
      "state": 24,
      "stateSpecified": true
    },
    {
      "fromDt": "08/2015",
      "toDt": null,
      "orgNm": "WADDELL & REED, INC",
      "city": "BLOOMINGTON",
      "state": 24,
      "stateSpecified": true
    }
  ],
  "OthrBuss": {
    "OthrBus": {
      "desc": "04/2015-PRESENT, KAJALA CABIN RENTAL, COOK, MN, REAL ESTATE RENTAL, NOT INVEST-RELATED, OWNER, 1 HR/MO, 0 HRS DURING SEC TRADING; 08/2015-PRESENT, VARIOUS INSURANCE CARRIERS FOR W&R INSURANCE AGENCIES, COOK, MN, INSURANCE SALES, INVEST-RELATED, INSURANCE AGENT."
    }
  },
  "DRPs": []
}