{
  "Info": {
    "lastNm": "FAIRCHILD",
    "firstNm": "MARY",
    "midNm": "CATHERINE",
    "sufNm": null,
    "indvlPK": "4727348",
    "actvAGReg": 0,
    "link": "http://www.adviserinfo.sec.gov/IAPD/Individual/4727348"
  },
  "OthrNms": [
    {
      "lastNm": "FRY",
      "firstNm": "MARY",
      "midNm": null,
      "sufNm": null
    },
    {
      "lastNm": "FRY",
      "firstNm": "MARY",
      "midNm": "CATHERINE",
      "sufNm": null
    },
    {
      "lastNm": "FRY",
      "firstNm": "MARY",
      "midNm": "CATHERINE",
      "sufNm": null
    }
  ],
  "CrntEmps": [
    {
      "CrntRgstns": [
        {
          "regAuth": 23,
          "regCat": 0,
          "st": 2,
          "stDt": "2010-09-30T00:00:00"
        }
      ],
      "BrnchOfLocs": [
        {
          "str1": "40950 WOODWARD AVE. SUITE 302",
          "str2": null,
          "city": "BLOOMFIELD HILLS",
          "state": 23,
          "stateSpecified": true,
          "cntry": "United States",
          "postlCd": "48304"
        }
      ],
      "orgNm": "LPL FINANCIAL LLC",
      "orgPK": "6413",
      "str1": "75 STATE STREET, 22ND FLOOR",
      "str2": null,
      "city": "BOSTON",
      "state": 20,
      "stateSpecified": true,
      "cntry": "United States",
      "postlCd": "02109"
    }
  ],
  "Exms": [
    {
      "exmCd": 3,
      "exmNm": "Uniform Combined State Law Examination",
      "exmDt": "2004-02-20T00:00:00",
      "exmDtSpecified": true
    }
  ],
  "Dsgntns": [],
  "PrevRgstns": [],
  "EmpHss": [
    {
      "fromDt": "11/2003",
      "toDt": "12/2007",
      "orgNm": "AXA ADVISORS",
      "city": "TROY",
      "state": 23,
      "stateSpecified": true
    },
    {
      "fromDt": "12/2007",
      "toDt": "10/2009",
      "orgNm": "SELF",
      "city": "BLOOMFIELD HILLS",
      "state": 23,
      "stateSpecified": true
    },
    {
      "fromDt": "10/2009",
      "toDt": null,
      "orgNm": "LPL FINANCIAL LLC",
      "city": "BLOOMFIELD HILLS",
      "state": 23,
      "stateSpecified": true
    }
  ],
  "OthrBuss": {
    "OthrBus": {
      "desc": "(1) 02/08/2010 - DBA ONLY - FAIRCHILD FINANCIAL - BLOOMFIELD HILLS, MI"
    }
  },
  "DRPs": []
}