{
  "Info": {
    "lastNm": "WRIGHT",
    "firstNm": "DAVID",
    "midNm": "WILLIAM",
    "sufNm": null,
    "indvlPK": "473139",
    "actvAGReg": 1,
    "link": "http://www.adviserinfo.sec.gov/IAPD/Individual/473139"
  },
  "OthrNms": [],
  "CrntEmps": [
    {
      "CrntRgstns": [
        {
          "regAuth": 36,
          "regCat": 0,
          "st": 2,
          "stDt": "2007-11-21T00:00:00"
        },
        {
          "regAuth": 45,
          "regCat": 0,
          "st": 2,
          "stDt": "2008-02-07T00:00:00"
        }
      ],
      "BrnchOfLocs": [
        {
          "str1": "1429 KING AVENUE",
          "str2": "SUITE 100",
          "city": "COLUMBUS",
          "state": 36,
          "stateSpecified": true,
          "cntry": "United States",
          "postlCd": "43212"
        }
      ],
      "orgNm": "FIRST OHIO PLANNING, LLC",
      "orgPK": "144498",
      "str1": "1429 KING AVENUE",
      "str2": null,
      "city": "COLUMBUS",
      "state": 36,
      "stateSpecified": true,
      "cntry": "United States",
      "postlCd": "43212"
    }
  ],
  "Exms": [
    {
      "exmCd": 0,
      "exmNm": "Uniform Securities Agent State Law Examination",
      "exmDt": "1984-05-31T00:00:00",
      "exmDtSpecified": true
    }
  ],
  "Dsgntns": [
    {
      "dsgntnNm": "Chartered Financial Consultant"
    }
  ],
  "PrevRgstns": [
    {
      "BrnchOfLocs": [
        {
          "city": "COLUMBUS",
          "state": 36,
          "stateSpecified": true
        },
        {
          "city": "COLUMBUS",
          "state": 36,
          "stateSpecified": true
        }
      ],
      "orgNm": "ROYAL ALLIANCE ASSOCIATES, INC.",
      "orgPK": "23131",
      "regBeginDt": "1999-08-19T00:00:00",
      "regBeginDtSpecified": true,
      "regEndDt": "2009-03-30T00:00:00",
      "regEndDtSpecified": true
    },
    {
      "BrnchOfLocs": [
        {
          "city": "COLUMBUS",
          "state": 36,
          "stateSpecified": true
        },
        {
          "city": "COLUMBUS",
          "state": 36,
          "stateSpecified": true
        }
      ],
      "orgNm": "FIRST OHIO ADVISORS, CO.",
      "orgPK": "108785",
      "regBeginDt": "2006-11-28T00:00:00",
      "regBeginDtSpecified": true,
      "regEndDt": "2007-12-31T00:00:00",
      "regEndDtSpecified": true
    }
  ],
  "EmpHss": [
    {
      "fromDt": "08/1978",
      "toDt": null,
      "orgNm": "EMPLOYEE CONSULTING SERVICES AGENCY,INC.",
      "city": "COLUMBUS",
      "state": 36,
      "stateSpecified": true
    },
    {
      "fromDt": "03/1994",
      "toDt": null,
      "orgNm": "FIRST OHIO ADVISORS CO.",
      "city": "COLUMBUS",
      "state": 36,
      "stateSpecified": true
    },
    {
      "fromDt": "12/1995",
      "toDt": null,
      "orgNm": "ROYAL ALLIANCE ASSOCIATES, INC.",
      "city": "COLUMBUS",
      "state": 36,
      "stateSpecified": true
    },
    {
      "fromDt": "02/2007",
      "toDt": null,
      "orgNm": "FIRST OHIO PLANNING, LLC",
      "city": "COLUMBUS",
      "state": 36,
      "stateSpecified": true
    }
  ],
  "OthrBuss": {
    "OthrBus": {
      "desc": "1-FIRST OHIO PLANNING, LLC., INVESTMENT RELATED, 1429 KING AVE., COLUMBUS, OHIO 43212, INVESTMENT ADVISOR REPRESENTATIVE, START DATE: MARCH 1994, 170 HRS MONTH, 130  HRS DURING SECURITIES TRADING HRS, PROVIDE INVESTMENT ADVICE AND PERIODIC REVIEW OF INVESTMENT PORTFOLIOS CUSTODIED AT CHARLES SCHWAB.   2-DAVID W. WRIGHT, CLU, CHFC, INVESTMENT RELATED, 1429 KING AVE.COLUMBUS, OH 43212, OWNER, START DATE: 1968, 25 HRS MONTH, 1 HR DURING SECURITIES TRADING HRS, SALES AND SERVICE OF LIFE AND HEALTH INSURTANCE PRODUCTS."
    }
  },
  "DRPs": []
}