{
  "Info": {
    "lastNm": "WORMLEY",
    "firstNm": "JAMES",
    "midNm": "RYAN",
    "sufNm": null,
    "indvlPK": "4741340",
    "actvAGReg": 0,
    "link": "http://www.adviserinfo.sec.gov/IAPD/Individual/4741340"
  },
  "OthrNms": [],
  "CrntEmps": [
    {
      "CrntRgstns": [
        {
          "regAuth": 15,
          "regCat": 0,
          "st": 2,
          "stDt": "2013-01-04T00:00:00"
        },
        {
          "regAuth": 45,
          "regCat": 0,
          "st": 3,
          "stDt": "2014-11-07T00:00:00"
        }
      ],
      "BrnchOfLocs": [
        {
          "str1": "11621 CATALPA LANE",
          "str2": null,
          "city": "WOODSTOCK",
          "state": 15,
          "stateSpecified": true,
          "cntry": "United States",
          "postlCd": "60098"
        },
        {
          "str1": "ONE NORTH BRENTWOOD BOULEVARD",
          "str2": "SUITE 850",
          "city": "ST. LOUIS",
          "state": 25,
          "stateSpecified": true,
          "cntry": "United States",
          "postlCd": "63105"
        }
      ],
      "orgNm": "BENJAMIN F. EDWARDS & COMPANY, INC.",
      "orgPK": "146936",
      "str1": "ONE NORTH BRENTWOOD BOULEVARD",
      "str2": "SUITE 850",
      "city": "ST. LOUIS",
      "state": 25,
      "stateSpecified": true,
      "cntry": "United States",
      "postlCd": "63105"
    }
  ],
  "Exms": [
    {
      "exmCd": 3,
      "exmNm": "Uniform Combined State Law Examination",
      "exmDt": "2004-02-25T00:00:00",
      "exmDtSpecified": true
    }
  ],
  "Dsgntns": [],
  "PrevRgstns": [
    {
      "BrnchOfLocs": [
        {
          "city": "ST. LOUIS",
          "state": 25,
          "stateSpecified": true
        },
        {
          "city": "WOODSTOCK",
          "state": 15,
          "stateSpecified": true
        },
        {
          "city": "WOODSTOCK",
          "state": 15,
          "stateSpecified": true
        }
      ],
      "orgNm": "A. G. EDWARDS & SONS, INC.",
      "orgPK": "4",
      "regBeginDt": "2004-02-26T00:00:00",
      "regBeginDtSpecified": true,
      "regEndDt": "2008-01-01T00:00:00",
      "regEndDtSpecified": true
    },
    {
      "BrnchOfLocs": [
        {
          "city": "WOODSTOCK",
          "state": 15,
          "stateSpecified": true
        }
      ],
      "orgNm": "WELLS FARGO ADVISORS, LLC",
      "orgPK": "19616",
      "regBeginDt": "2008-01-01T00:00:00",
      "regBeginDtSpecified": true,
      "regEndDt": "2013-01-07T00:00:00",
      "regEndDtSpecified": true
    }
  ],
  "EmpHss": [
    {
      "fromDt": "12/2003",
      "toDt": "01/2008",
      "orgNm": "A.G. EDWARDS",
      "city": "ST. LOUIS",
      "state": 25,
      "stateSpecified": true
    },
    {
      "fromDt": "01/2008",
      "toDt": "05/2009",
      "orgNm": "WACHOVIA SECURITIES, LLC",
      "city": "WOODSTOCK",
      "state": 15,
      "stateSpecified": true
    },
    {
      "fromDt": "05/2009",
      "toDt": "01/2013",
      "orgNm": "WELLS FARGO ADVISORS LLC",
      "city": "WOODSTOCK",
      "state": 15,
      "stateSpecified": true
    },
    {
      "fromDt": "01/2013",
      "toDt": null,
      "orgNm": "BENJAMIN F EDWARDS & CO",
      "city": "WOODSTOCK",
      "state": 15,
      "stateSpecified": true
    }
  ],
  "OthrBuss": {
    "OthrBus": {
      "desc": "FARMLAND RENTAL PROPERTY; NOT INVESTMENT RELATED; OSWEGO, IL; 10% OWNERSHIP; MINIMAL TIME DEVOTED PER MONTH; NONE DURING TRADING HOURS."
    }
  },
  "DRPs": []
}