{
  "Info": {
    "lastNm": "CHUDASAMA",
    "firstNm": "HERSH",
    "midNm": "D",
    "sufNm": null,
    "indvlPK": "4742918",
    "actvAGReg": 0,
    "link": "http://www.adviserinfo.sec.gov/IAPD/Individual/4742918"
  },
  "OthrNms": [
    {
      "lastNm": "CHUDASAMA",
      "firstNm": "HARSH",
      "midNm": null,
      "sufNm": null
    },
    {
      "lastNm": "CHUDASAMA",
      "firstNm": "HERSH",
      "midNm": null,
      "sufNm": null
    }
  ],
  "CrntEmps": [
    {
      "CrntRgstns": [
        {
          "regAuth": 4,
          "regCat": 0,
          "st": 2,
          "stDt": "2012-10-01T00:00:00"
        },
        {
          "regAuth": 45,
          "regCat": 0,
          "st": 3,
          "stDt": "2016-05-17T00:00:00"
        }
      ],
      "BrnchOfLocs": [
        {
          "str1": "13128 JAMBOREE RD",
          "str2": null,
          "city": "IRVINE",
          "state": 4,
          "stateSpecified": true,
          "cntry": "United States",
          "postlCd": "92602"
        },
        {
          "str1": "615 E. 1ST STREET",
          "str2": null,
          "city": "TUSTIN",
          "state": 4,
          "stateSpecified": true,
          "cntry": "United States",
          "postlCd": "92780"
        }
      ],
      "orgNm": "J.P. MORGAN SECURITIES LLC",
      "orgPK": "79",
      "str1": "277 PARK AVENUE",
      "str2": null,
      "city": "NEW YORK",
      "state": 35,
      "stateSpecified": true,
      "cntry": "United States",
      "postlCd": "10172"
    }
  ],
  "Exms": [
    {
      "exmCd": 3,
      "exmNm": "Uniform Combined State Law Examination",
      "exmDt": "2007-12-06T00:00:00",
      "exmDtSpecified": true
    }
  ],
  "Dsgntns": [],
  "PrevRgstns": [
    {
      "BrnchOfLocs": [
        {
          "city": "LA MIRADA",
          "state": 4,
          "stateSpecified": true
        },
        {
          "city": "SEAL BEACH",
          "state": 4,
          "stateSpecified": true
        }
      ],
      "orgNm": "CHASE INVESTMENT SERVICES CORP.",
      "orgPK": "25574",
      "regBeginDt": "2009-10-22T00:00:00",
      "regBeginDtSpecified": true,
      "regEndDt": "2012-10-01T00:00:00",
      "regEndDtSpecified": true
    }
  ],
  "EmpHss": [
    {
      "fromDt": "10/2003",
      "toDt": "01/2007",
      "orgNm": "NEW YORK LIFE INSURANCE COMPANY",
      "city": "OXNARD",
      "state": 4,
      "stateSpecified": true
    },
    {
      "fromDt": "01/2007",
      "toDt": "05/2007",
      "orgNm": "UNEMPLOYED",
      "city": "MENTONE",
      "state": 4,
      "stateSpecified": true
    },
    {
      "fromDt": "05/2007",
      "toDt": "05/2009",
      "orgNm": "FIDELITY INVESTMENTS",
      "city": "BREA",
      "state": 4,
      "stateSpecified": true
    },
    {
      "fromDt": "05/2009",
      "toDt": null,
      "orgNm": "JP MORGAN CHASE BANK NA",
      "city": "LA MIRADA",
      "state": 4,
      "stateSpecified": true
    },
    {
      "fromDt": "09/2009",
      "toDt": "10/2012",
      "orgNm": "CHASE INVESTMENT SERVICES CORP",
      "city": "LA MIRADA",
      "state": 4,
      "stateSpecified": true
    },
    {
      "fromDt": "10/2012",
      "toDt": null,
      "orgNm": "J.P. MORGAN SECURITIES LLC",
      "city": "SEAL BEACH",
      "state": 4,
      "stateSpecified": true
    }
  ],
  "OthrBuss": {
    "OthrBus": null
  },
  "DRPs": []
}