{
  "Info": {
    "lastNm": "FITCH",
    "firstNm": "MATTHEW",
    "midNm": "DANIEL",
    "sufNm": null,
    "indvlPK": "4744719",
    "actvAGReg": 0,
    "link": "http://www.adviserinfo.sec.gov/IAPD/Individual/4744719"
  },
  "OthrNms": [],
  "CrntEmps": [
    {
      "CrntRgstns": [
        {
          "regAuth": 24,
          "regCat": 0,
          "st": 2,
          "stDt": "2015-06-24T00:00:00"
        },
        {
          "regAuth": 50,
          "regCat": 0,
          "st": 2,
          "stDt": "2015-06-26T00:00:00"
        }
      ],
      "BrnchOfLocs": [
        {
          "str1": "1200 PENNSYLVANIA AVE",
          "str2": "SUITE 202",
          "city": "WILMINGTON",
          "state": 8,
          "stateSpecified": true,
          "cntry": "United States",
          "postlCd": "19806"
        },
        {
          "str1": "13355 GEORGE WEBER DR",
          "str2": null,
          "city": "ROGERS",
          "state": 24,
          "stateSpecified": true,
          "cntry": "United States",
          "postlCd": "55301"
        }
      ],
      "orgNm": "GREAT VALLEY ADVISOR GROUP, INC.",
      "orgPK": "123913",
      "str1": "1200 PENNSYLVANIA AVE",
      "str2": "SUITE 202",
      "city": "WILMINGTON",
      "state": 8,
      "stateSpecified": true,
      "cntry": "United States",
      "postlCd": "19806"
    }
  ],
  "Exms": [
    {
      "exmCd": 3,
      "exmNm": "Uniform Combined State Law Examination",
      "exmDt": "2004-11-03T00:00:00",
      "exmDtSpecified": true
    }
  ],
  "Dsgntns": [],
  "PrevRgstns": [
    {
      "BrnchOfLocs": [
        {
          "city": "ROGERS",
          "state": 24,
          "stateSpecified": true
        },
        {
          "city": "ROGERS",
          "state": 24,
          "stateSpecified": true
        }
      ],
      "orgNm": "WELLS FARGO INVESTMENTS, LLC",
      "orgPK": "10582",
      "regBeginDt": "2004-11-04T00:00:00",
      "regBeginDtSpecified": true,
      "regEndDt": "2006-08-14T00:00:00",
      "regEndDtSpecified": true
    },
    {
      "BrnchOfLocs": [
        {
          "city": "MINNEAPOLIS",
          "state": 24,
          "stateSpecified": true
        }
      ],
      "orgNm": "FELTL ADVISORS",
      "orgPK": "165244",
      "regBeginDt": "2013-09-16T00:00:00",
      "regBeginDtSpecified": true,
      "regEndDt": "2015-08-11T00:00:00",
      "regEndDtSpecified": true
    }
  ],
  "EmpHss": [
    {
      "fromDt": "01/2001",
      "toDt": "08/2006",
      "orgNm": "WELLS FARGO BANK",
      "city": "ROGERS",
      "state": 24,
      "stateSpecified": true
    },
    {
      "fromDt": "08/2006",
      "toDt": "01/2008",
      "orgNm": "A.G. EDWARDS AND SONS",
      "city": "MINNETONKA",
      "state": 24,
      "stateSpecified": true
    },
    {
      "fromDt": "01/2008",
      "toDt": "01/2009",
      "orgNm": "WACHOVIA SECURITIES, LLC",
      "city": "MINNETONKA",
      "state": 24,
      "stateSpecified": true
    },
    {
      "fromDt": "01/2009",
      "toDt": "09/2009",
      "orgNm": "MUTUAL SERVICE CORPORATION",
      "city": "ALBERTVILLE",
      "state": 24,
      "stateSpecified": true
    },
    {
      "fromDt": "09/2009",
      "toDt": "11/2012",
      "orgNm": "LPL FINANCIAL",
      "city": "ALBERTVILLE",
      "state": 24,
      "stateSpecified": true
    },
    {
      "fromDt": "11/2012",
      "toDt": "06/2015",
      "orgNm": "FELTL AND COMPANY",
      "city": "MINNEAPOLIS",
      "state": 24,
      "stateSpecified": true
    },
    {
      "fromDt": "09/2013",
      "toDt": null,
      "orgNm": "FELTL ADVISORS",
      "city": "MINNEAPOLIS",
      "state": 24,
      "stateSpecified": true
    },
    {
      "fromDt": "06/2015",
      "toDt": null,
      "orgNm": "GREAT VALLEY ADVISOR GROUP, INC",
      "city": "ROGERS",
      "state": 24,
      "stateSpecified": true
    },
    {
      "fromDt": "06/2015",
      "toDt": null,
      "orgNm": "LPL FINANCIAL, LLC",
      "city": "ROGERS",
      "state": 24,
      "stateSpecified": true
    }
  ],
  "OthrBuss": {
    "OthrBus": {
      "desc": "(1) 01/27/2015: F&L WEALTH MANAGEMENT - INV REL - 10904 57TH ST NE STE 105, ALBERTVILLE, MN 55301 - BUSINESS ENTITY FOR TAX/INVESTMENT PURPOSES ONLY - 100% OF TIME SPENT - TAX ENTITY FOR SECURITIES BUSINESS.       (2) 01/27/2015: FITCH & STRONG GROUP - DBA FOR LPL BUSINESS (ENTITY FOR LPL BUSINESS) - INV REL - 10904 57TH ST NE STE 105, ALBERTVILLE, MN 55301 - 100% OF TIME SPENT       (3) 05/12/2015: F & L WEALTH MANAGEMENT - INV REL - 13355 GEORGE WEBER DR, ROGERS, MN 55301 - BUSINESS ENTITY FOR TAX/INVESTMENT PURPOSES ONLY - START 01/01/2009 - 160 HR/MO ALL DURING SECS TRDG HRS (100% OF TIME SPENT)       (4) 05/12/2015: FITCH & STRONG GROUP - DBA FOR LPL BUSINESS (ENTITY FOR LPL BUSINESS) - INV REL - AT REPORTED BUSINESS LOCATION(S) - START 01/01/2015 - 160 HR/MO ALL DURING SECS TRDG HRS (100% OF TIME SPENT)       (5) 07/16/2015: GREAT VALLEY ADVISOR GROUP, INC. - INV REL - 2728 COUNTY RD D E WHITE BEAR LAKE MN 55110 - REGISTERED INVESTMENT ADVISOR HYBRID - START 05/06/2015 - 100% OF TIME SPENT       (6) 07/16/2015: GREAT VALLEY ADVISOR GROUP, INC. - INV REL - AT REPORTED BUSINESS LOCATION(S) - REGISTERED INVESTMENT ADVISOR DBA: FITCH AND STRONG GROUP - START 05/06/2015 - 100% OF TIME SPENT"
    }
  },
  "DRPs": [
    {
      "hasRegAction": 1,
      "hasRegActionSpecified": true,
      "hasCriminal": 1,
      "hasCriminalSpecified": true,
      "hasBankrupt": 0,
      "hasBankruptSpecified": true,
      "hasCivilJudc": 1,
      "hasCivilJudcSpecified": true,
      "hasBond": 1,
      "hasBondSpecified": true,
      "hasJudgment": 1,
      "hasJudgmentSpecified": true,
      "hasInvstgn": 1,
      "hasInvstgnSpecified": true,
      "hasCustComp": 1,
      "hasCustCompSpecified": true,
      "hasTermination": 1,
      "hasTerminationSpecified": true
    }
  ]
}