{
  "Info": {
    "lastNm": "SUPLEE",
    "firstNm": "WILLIAM",
    "midNm": "ZERNS",
    "sufNm": "IV",
    "indvlPK": "4744206",
    "actvAGReg": 1,
    "link": "http://www.adviserinfo.sec.gov/IAPD/Individual/4744206"
  },
  "OthrNms": [
    {
      "lastNm": "SUPLEE",
      "firstNm": "BILL",
      "midNm": null,
      "sufNm": null
    }
  ],
  "CrntEmps": [
    {
      "CrntRgstns": [
        {
          "regAuth": 39,
          "regCat": 0,
          "st": 2,
          "stDt": "2004-03-15T00:00:00"
        }
      ],
      "BrnchOfLocs": [
        {
          "str1": "1753 S. FORGE MOUNTAIN DRIVE",
          "str2": null,
          "city": "PHOENIXVILLE",
          "state": 39,
          "stateSpecified": true,
          "cntry": "United States",
          "postlCd": "19460"
        }
      ],
      "orgNm": "STRUCTURED ASSET MANAGEMENT, INC.",
      "orgPK": "129796",
      "str1": "1205 WESTLAKES DRIVE",
      "str2": "SUITE 370",
      "city": "BERWYN",
      "state": 39,
      "stateSpecified": true,
      "cntry": "United States",
      "postlCd": "19312"
    }
  ],
  "Exms": [],
  "Dsgntns": [
    {
      "dsgntnNm": "Certified Financial Planner"
    },
    {
      "dsgntnNm": "Chartered Financial Analyst"
    }
  ],
  "PrevRgstns": [],
  "EmpHss": [
    {
      "fromDt": "10/2003",
      "toDt": null,
      "orgNm": "STRUCTURED ASSET MANAGEMENT, INC.",
      "city": "PHOENIXVILLE",
      "state": 39,
      "stateSpecified": true
    }
  ],
  "OthrBuss": {
    "OthrBus": null
  },
  "DRPs": []
}