{
  "Info": {
    "lastNm": "LIPSTOCK",
    "firstNm": "ELIZABETH",
    "midNm": "FORDER",
    "sufNm": null,
    "indvlPK": "4746210",
    "actvAGReg": 0,
    "link": "http://www.adviserinfo.sec.gov/IAPD/Individual/4746210"
  },
  "OthrNms": [
    {
      "lastNm": "FORDER",
      "firstNm": "ELIZABETH",
      "midNm": "B",
      "sufNm": null
    }
  ],
  "CrntEmps": [
    {
      "CrntRgstns": [
        {
          "regAuth": 47,
          "regCat": 0,
          "st": 2,
          "stDt": "2010-01-06T00:00:00"
        }
      ],
      "BrnchOfLocs": [
        {
          "str1": "3901 WESTERRE PKWY",
          "str2": "STE 300",
          "city": "RICHMOND",
          "state": 47,
          "stateSpecified": true,
          "cntry": "United States",
          "postlCd": "23233"
        }
      ],
      "orgNm": "NORTHWESTERN MUTUAL INVESTMENT SERVICES, LLC",
      "orgPK": "2881",
      "str1": "611 EAST WISCONSIN AVE",
      "str2": null,
      "city": "MILWAUKEE",
      "state": 50,
      "stateSpecified": true,
      "cntry": "United States",
      "postlCd": "53202-4797"
    }
  ],
  "Exms": [
    {
      "exmCd": 0,
      "exmNm": "Uniform Securities Agent State Law Examination",
      "exmDt": "2004-03-02T00:00:00",
      "exmDtSpecified": true
    },
    {
      "exmCd": 3,
      "exmNm": "Uniform Combined State Law Examination",
      "exmDt": "2009-12-14T00:00:00",
      "exmDtSpecified": true
    }
  ],
  "Dsgntns": [],
  "PrevRgstns": [],
  "EmpHss": [
    {
      "fromDt": "06/2003",
      "toDt": "12/2011",
      "orgNm": "NORTHWESTERN MUTUAL LIFE INSURANCE COMPANY",
      "city": "MILWAUKEE",
      "state": 50,
      "stateSpecified": true
    },
    {
      "fromDt": "01/2004",
      "toDt": null,
      "orgNm": "NORTHWESTERN MUTUAL INVESTMENT SERVICES, LLC",
      "city": "RICHMOND",
      "state": 47,
      "stateSpecified": true
    },
    {
      "fromDt": "01/2010",
      "toDt": "12/2011",
      "orgNm": "NORTHWESTERN MUTUAL INVESTMENT SERVICES, LLC",
      "city": "RICHMOND",
      "state": 47,
      "stateSpecified": true
    },
    {
      "fromDt": "01/2012",
      "toDt": null,
      "orgNm": "JIM FITZGERALD",
      "city": "RICHMOND",
      "state": 47,
      "stateSpecified": true
    },
    {
      "fromDt": "03/2012",
      "toDt": null,
      "orgNm": "NORTHWESTERN MUTUAL WEALTH MANAGEMENT COMPANY",
      "city": "MILWAUKEE",
      "state": 50,
      "stateSpecified": true
    }
  ],
  "OthrBuss": {
    "OthrBus": {
      "desc": "MAY EARN COMMISSIONS FROM INSURANCE COMPANIES NOT AFFILIATED WITH NORTHWESTERN MUTUAL FOR SALES OF NON-VARIABLE LIFE, HEALTH, ANNUITY AND/OR DISABILITY INCOME INSURANCE PRODUCTS."
    }
  },
  "DRPs": []
}