{
  "Info": {
    "lastNm": "LESCANO",
    "firstNm": "ORLANDO",
    "midNm": null,
    "sufNm": null,
    "indvlPK": "4749931",
    "actvAGReg": 0,
    "link": "http://www.adviserinfo.sec.gov/IAPD/Individual/4749931"
  },
  "OthrNms": [],
  "CrntEmps": [
    {
      "CrntRgstns": [
        {
          "regAuth": 9,
          "regCat": 0,
          "st": 2,
          "stDt": "2014-09-05T00:00:00"
        },
        {
          "regAuth": 45,
          "regCat": 0,
          "st": 3,
          "stDt": "2014-09-15T00:00:00"
        }
      ],
      "BrnchOfLocs": [
        {
          "str1": "200 SOUTH BISCAYNE BLVD",
          "str2": "51ST  FLOOR, PWM - LATIN AMERICA",
          "city": "MIAMI",
          "state": 9,
          "stateSpecified": true,
          "cntry": "United States",
          "postlCd": "33131"
        }
      ],
      "orgNm": "MORGAN STANLEY",
      "orgPK": "149777",
      "str1": "2000 WESTCHESTER AVENUE",
      "str2": null,
      "city": "PURCHASE",
      "state": 35,
      "stateSpecified": true,
      "cntry": "United States",
      "postlCd": "10577-2530"
    }
  ],
  "Exms": [
    {
      "exmCd": 3,
      "exmNm": "Uniform Combined State Law Examination",
      "exmDt": "2010-07-14T00:00:00",
      "exmDtSpecified": true
    }
  ],
  "Dsgntns": [],
  "PrevRgstns": [
    {
      "BrnchOfLocs": [
        {
          "city": "MIAMI",
          "state": 9,
          "stateSpecified": true
        }
      ],
      "orgNm": "VECTORGLOBAL IAG, INC.",
      "orgPK": "147129",
      "regBeginDt": "2012-06-19T00:00:00",
      "regBeginDtSpecified": true,
      "regEndDt": "2014-02-20T00:00:00",
      "regEndDtSpecified": true
    },
    {
      "BrnchOfLocs": [
        {
          "city": "CHARLOTTE",
          "state": 28,
          "stateSpecified": true
        },
        {
          "city": "CORAL GABLES",
          "state": 9,
          "stateSpecified": true
        },
        {
          "city": "MIAMI",
          "state": 9,
          "stateSpecified": true
        },
        {
          "city": "MIAMI",
          "state": 9,
          "stateSpecified": true
        },
        {
          "city": "MIAMI",
          "state": 9,
          "stateSpecified": true
        },
        {
          "city": "SOUTH MIAMI",
          "state": 9,
          "stateSpecified": true
        },
        {
          "city": "SUNNY ISLES BEACH",
          "state": 9,
          "stateSpecified": true
        }
      ],
      "orgNm": "BB&T INVESTMENT SERVICES, INC.",
      "orgPK": "33856",
      "regBeginDt": "2014-02-12T00:00:00",
      "regBeginDtSpecified": true,
      "regEndDt": "2014-08-25T00:00:00",
      "regEndDtSpecified": true
    }
  ],
  "EmpHss": [
    {
      "fromDt": "09/2003",
      "toDt": "02/2008",
      "orgNm": "AMERICAN EXPRESS BANK INTERNATIONAL",
      "city": "MIAMI",
      "state": 9,
      "stateSpecified": true
    },
    {
      "fromDt": "07/2007",
      "toDt": "02/2008",
      "orgNm": "AMERICAN EXPRESS INTERNATIONAL SECURITIES, INC.",
      "city": "MIAMI",
      "state": 9,
      "stateSpecified": true
    },
    {
      "fromDt": "03/2008",
      "toDt": "09/2009",
      "orgNm": "STANDARD CHARTER BANK",
      "city": "MIAMI",
      "state": 9,
      "stateSpecified": true
    },
    {
      "fromDt": "09/2009",
      "toDt": "02/2014",
      "orgNm": "VECTORGLOBAL WMG",
      "city": "MIAMI",
      "state": 9,
      "stateSpecified": true
    },
    {
      "fromDt": "02/2014",
      "toDt": "08/2014",
      "orgNm": "BB&T INVESTMENT SERVICES, INC.",
      "city": "MIAMI",
      "state": 9,
      "stateSpecified": true
    },
    {
      "fromDt": "08/2014",
      "toDt": null,
      "orgNm": "MORGAN STANLEY",
      "city": "MIAMI",
      "state": 9,
      "stateSpecified": true
    }
  ],
  "OthrBuss": {
    "OthrBus": null
  },
  "DRPs": []
}