{
  "Info": {
    "lastNm": "TAYLOR",
    "firstNm": "STEPHANIE",
    "midNm": "MARIE",
    "sufNm": null,
    "indvlPK": "4755158",
    "actvAGReg": 0,
    "link": "http://www.adviserinfo.sec.gov/IAPD/Individual/4755158"
  },
  "OthrNms": [
    {
      "lastNm": "SURGANT",
      "firstNm": "STEPHANIE",
      "midNm": "MARIE",
      "sufNm": null
    }
  ],
  "CrntEmps": [
    {
      "CrntRgstns": [
        {
          "regAuth": 25,
          "regCat": 0,
          "st": 2,
          "stDt": "2011-10-10T00:00:00"
        }
      ],
      "BrnchOfLocs": [
        {
          "str1": "903 S. LINDBERGH BLVD., SUITE 200",
          "str2": null,
          "city": "FRONTENAC",
          "state": 25,
          "stateSpecified": true,
          "cntry": "United States",
          "postlCd": "63131"
        }
      ],
      "orgNm": "STIFEL, NICOLAUS & COMPANY, INCORPORATED",
      "orgPK": "793",
      "str1": "501 N BROADWAY",
      "str2": null,
      "city": "ST LOUIS",
      "state": 25,
      "stateSpecified": true,
      "cntry": "United States",
      "postlCd": "63102"
    }
  ],
  "Exms": [
    {
      "exmCd": 3,
      "exmNm": "Uniform Combined State Law Examination",
      "exmDt": "2011-10-08T00:00:00",
      "exmDtSpecified": true
    }
  ],
  "Dsgntns": [],
  "PrevRgstns": [],
  "EmpHss": [
    {
      "fromDt": "01/2004",
      "toDt": null,
      "orgNm": "STIFEL NICOLAUS",
      "city": "ST. LOUIS",
      "state": 25,
      "stateSpecified": true
    },
    {
      "fromDt": "09/2004",
      "toDt": "12/2007",
      "orgNm": "LINDENWOOD UNIVERSITY",
      "city": "ST. CHARLES",
      "state": 25,
      "stateSpecified": true
    }
  ],
  "OthrBuss": {
    "OthrBus": null
  },
  "DRPs": []
}