{
  "Info": {
    "lastNm": "SMITH",
    "firstNm": "CURTIS",
    "midNm": "LEE",
    "sufNm": null,
    "indvlPK": "4760520",
    "actvAGReg": 0,
    "link": "http://www.adviserinfo.sec.gov/IAPD/Individual/4760520"
  },
  "OthrNms": [],
  "CrntEmps": [
    {
      "CrntRgstns": [
        {
          "regAuth": 3,
          "regCat": 0,
          "st": 2,
          "stDt": "2010-06-09T00:00:00"
        },
        {
          "regAuth": 30,
          "regCat": 0,
          "st": 2,
          "stDt": "2011-06-23T00:00:00"
        },
        {
          "regAuth": 45,
          "regCat": 0,
          "st": 3,
          "stDt": "2013-08-26T00:00:00"
        }
      ],
      "BrnchOfLocs": [
        {
          "str1": "17015 NORTH SCOTTSDALE ROAD",
          "str2": "SUITE 250",
          "city": "SCOTTSDALE",
          "state": 3,
          "stateSpecified": true,
          "cntry": "United States",
          "postlCd": "85255"
        }
      ],
      "orgNm": "RAYMOND JAMES FINANCIAL SERVICES ADVISORS, INC",
      "orgPK": "149018",
      "str1": "880 CARILLON PARKWAY",
      "str2": null,
      "city": "SAINT PETERSBURG",
      "state": 9,
      "stateSpecified": true,
      "cntry": "United States",
      "postlCd": "33716"
    }
  ],
  "Exms": [
    {
      "exmCd": 3,
      "exmNm": "Uniform Combined State Law Examination",
      "exmDt": "2004-09-17T00:00:00",
      "exmDtSpecified": true
    }
  ],
  "Dsgntns": [],
  "PrevRgstns": [
    {
      "BrnchOfLocs": [
        {
          "city": "LINCOLN",
          "state": 30,
          "stateSpecified": true
        },
        {
          "city": "LINCOLN",
          "state": 30,
          "stateSpecified": true
        },
        {
          "city": "LINCOLN",
          "state": 30,
          "stateSpecified": true
        },
        {
          "city": "LINCOLN",
          "state": 30,
          "stateSpecified": true
        },
        {
          "city": "LINCOLN",
          "state": 30,
          "stateSpecified": true
        },
        {
          "city": "LINCOLN",
          "state": 30,
          "stateSpecified": true
        }
      ],
      "orgNm": "WELLS FARGO INVESTMENTS, LLC",
      "orgPK": "10582",
      "regBeginDt": "2005-11-09T00:00:00",
      "regBeginDtSpecified": true,
      "regEndDt": "2009-04-13T00:00:00",
      "regEndDtSpecified": true
    }
  ],
  "EmpHss": [
    {
      "fromDt": "11/2005",
      "toDt": "04/2009",
      "orgNm": "WELLS FARGO INVESTMENTS, LLC.",
      "city": "LINCOLN",
      "state": 30,
      "stateSpecified": true
    },
    {
      "fromDt": "05/2009",
      "toDt": null,
      "orgNm": "RAYMOND JAMES FINANCIAL SERVICES, INC",
      "city": "LINCOLN",
      "state": 30,
      "stateSpecified": true
    },
    {
      "fromDt": "05/2010",
      "toDt": null,
      "orgNm": "RDW & ASSOCIATES",
      "city": "SCOTTSDALE",
      "state": 3,
      "stateSpecified": true
    },
    {
      "fromDt": "06/2010",
      "toDt": null,
      "orgNm": "RAYMOND JAMES FINANCIAL SERVICES ADVISORS INC.",
      "city": "SCOTTSDALE",
      "state": 3,
      "stateSpecified": true
    },
    {
      "fromDt": "03/2011",
      "toDt": null,
      "orgNm": "INSURANCE-NON VARIABLE",
      "city": "SCOTTSDALE",
      "state": 3,
      "stateSpecified": true
    }
  ],
  "OthrBuss": {
    "OthrBus": {
      "desc": "1)INSURANCE-NON VARIABLE:INVESTMENT RELATED:3/2011-PRESENT:SCOTTSDALE, AZ:AGENT: INSURANCE SALES:8 HRS/MO:0 HRS DURING TRADING:THIS IS FOR LIFE INSURANCE WITH A DIRECT IMO NAMED CPS. 2)RDW & ASSOCIATES. SUPPORT COMPANY/DBA (NON-OWNER). SCOTTSDALE, AZ. FINANCIAL ADVISOR. STARTED: 05/2010. 0 HRS PER MONTH. NOT INVESTMENT RELATED."
    }
  },
  "DRPs": [
    {
      "hasRegAction": 1,
      "hasRegActionSpecified": true,
      "hasCriminal": 1,
      "hasCriminalSpecified": true,
      "hasBankrupt": 0,
      "hasBankruptSpecified": true,
      "hasCivilJudc": 1,
      "hasCivilJudcSpecified": true,
      "hasBond": 1,
      "hasBondSpecified": true,
      "hasJudgment": 1,
      "hasJudgmentSpecified": true,
      "hasInvstgn": 1,
      "hasInvstgnSpecified": true,
      "hasCustComp": 0,
      "hasCustCompSpecified": true,
      "hasTermination": 0,
      "hasTerminationSpecified": true
    }
  ]
}