{
  "Info": {
    "lastNm": "FEVERYEAR",
    "firstNm": "JEFFREY",
    "midNm": "LYNN",
    "sufNm": null,
    "indvlPK": "4764725",
    "actvAGReg": 0,
    "link": "http://www.adviserinfo.sec.gov/IAPD/Individual/4764725"
  },
  "OthrNms": [
    {
      "lastNm": "FEVERYEAR",
      "firstNm": "JEFF",
      "midNm": "LYNN",
      "sufNm": null
    }
  ],
  "CrntEmps": [
    {
      "CrntRgstns": [
        {
          "regAuth": 45,
          "regCat": 0,
          "st": 2,
          "stDt": "2015-07-14T00:00:00"
        },
        {
          "regAuth": 46,
          "regCat": 0,
          "st": 2,
          "stDt": "2015-07-14T00:00:00"
        }
      ],
      "BrnchOfLocs": [
        {
          "str1": "49 NORTH 400 WEST",
          "str2": null,
          "city": "SALT LAKE CITY",
          "state": 46,
          "stateSpecified": true,
          "cntry": "United States",
          "postlCd": "84101"
        }
      ],
      "orgNm": "STRATEGIC ADVISERS, INC.",
      "orgPK": "104555",
      "str1": "245 SUMMER STREET, V10G",
      "str2": null,
      "city": "BOSTON",
      "state": 20,
      "stateSpecified": true,
      "cntry": "United States",
      "postlCd": "02210"
    }
  ],
  "Exms": [
    {
      "exmCd": 0,
      "exmNm": "Uniform Securities Agent State Law Examination",
      "exmDt": "2004-08-19T00:00:00",
      "exmDtSpecified": true
    },
    {
      "exmCd": 3,
      "exmNm": "Uniform Combined State Law Examination",
      "exmDt": "2015-06-30T00:00:00",
      "exmDtSpecified": true
    }
  ],
  "Dsgntns": [],
  "PrevRgstns": [],
  "EmpHss": [
    {
      "fromDt": "02/2004",
      "toDt": null,
      "orgNm": "FIDELITY BROKERAGE SERVICES, LLC",
      "city": "SALT LAKE CITY",
      "state": 46,
      "stateSpecified": true
    }
  ],
  "OthrBuss": {
    "OthrBus": null
  },
  "DRPs": []
}