{
  "Info": {
    "lastNm": "NALLAVELLI",
    "firstNm": "NAGIREDDY",
    "midNm": null,
    "sufNm": null,
    "indvlPK": "4770720",
    "actvAGReg": 0,
    "link": "http://www.adviserinfo.sec.gov/IAPD/Individual/4770720"
  },
  "OthrNms": [],
  "CrntEmps": [
    {
      "CrntRgstns": [
        {
          "regAuth": 45,
          "regCat": 0,
          "st": 2,
          "stDt": "2013-06-14T00:00:00"
        },
        {
          "regAuth": 32,
          "regCat": 0,
          "st": 2,
          "stDt": "2013-06-18T00:00:00"
        }
      ],
      "BrnchOfLocs": [
        {
          "str1": null,
          "str2": null,
          "city": "EDISON",
          "state": 32,
          "stateSpecified": true,
          "cntry": "United States",
          "postlCd": null
        },
        {
          "str1": null,
          "str2": null,
          "city": "Richboro",
          "state": 39,
          "stateSpecified": true,
          "cntry": "United States",
          "postlCd": null
        }
      ],
      "orgNm": "VOYA FINANCIAL ADVISORS, INC.",
      "orgPK": "2882",
      "str1": "909 LOCUST STREET",
      "str2": null,
      "city": "DES MOINES",
      "state": 13,
      "stateSpecified": true,
      "cntry": "United States",
      "postlCd": "50309"
    }
  ],
  "Exms": [
    {
      "exmCd": 0,
      "exmNm": "Uniform Securities Agent State Law Examination",
      "exmDt": "2004-04-07T00:00:00",
      "exmDtSpecified": true
    },
    {
      "exmCd": 2,
      "exmNm": "Uniform Investment Adviser Law Examination",
      "exmDt": "2013-05-25T00:00:00",
      "exmDtSpecified": true
    }
  ],
  "Dsgntns": [],
  "PrevRgstns": [],
  "EmpHss": [
    {
      "fromDt": "02/2004",
      "toDt": "08/2006",
      "orgNm": "GUNNALLEN FINANCIAL, INC.",
      "city": "WESTBURY",
      "state": 35,
      "stateSpecified": true
    },
    {
      "fromDt": "08/2006",
      "toDt": "07/2007",
      "orgNm": "BISHOP ROSEN & CO., INC.",
      "city": "NEW YORK",
      "state": 35,
      "stateSpecified": true
    },
    {
      "fromDt": "07/2007",
      "toDt": "05/2008",
      "orgNm": "CLARK DODGE & COMPANY",
      "city": "NEW YORK",
      "state": 35,
      "stateSpecified": true
    },
    {
      "fromDt": "05/2008",
      "toDt": "06/2013",
      "orgNm": "GLOBAL ARENA CAPITAL CORP",
      "city": "NEW YORK",
      "state": 35,
      "stateSpecified": true
    },
    {
      "fromDt": "06/2013",
      "toDt": "08/2014",
      "orgNm": "ING FINANCIAL PARTNERS INC",
      "city": "EDISON",
      "state": 32,
      "stateSpecified": true
    },
    {
      "fromDt": "09/2014",
      "toDt": "08/2015",
      "orgNm": "CHANCELLOR HOLDING LLC.",
      "city": "KISSIMMEE",
      "state": 9,
      "stateSpecified": true
    },
    {
      "fromDt": "09/2014",
      "toDt": null,
      "orgNm": "VOYA FINANICAL ADVISORS",
      "city": "EDISON",
      "state": 32,
      "stateSpecified": true
    }
  ],
  "OthrBuss": {
    "OthrBus": null
  },
  "DRPs": []
}