{
  "Info": {
    "lastNm": "DILLON",
    "firstNm": "GREGORY",
    "midNm": "F",
    "sufNm": null,
    "indvlPK": "4771321",
    "actvAGReg": 0,
    "link": "http://www.adviserinfo.sec.gov/IAPD/Individual/4771321"
  },
  "OthrNms": [],
  "CrntEmps": [
    {
      "CrntRgstns": [
        {
          "regAuth": 32,
          "regCat": 0,
          "st": 2,
          "stDt": "2012-11-29T00:00:00"
        }
      ],
      "BrnchOfLocs": [
        {
          "str1": "21 COMMERCE DR., STE 301",
          "str2": null,
          "city": "CRANFORD",
          "state": 32,
          "stateSpecified": true,
          "cntry": "United States",
          "postlCd": "07016"
        }
      ],
      "orgNm": "M HOLDINGS SECURITIES, INC.",
      "orgPK": "43285",
      "str1": "1125 N.W. COUCH STREET",
      "str2": "SUITE 900",
      "city": "PORTLAND",
      "state": 38,
      "stateSpecified": true,
      "cntry": "United States",
      "postlCd": "97209"
    }
  ],
  "Exms": [
    {
      "exmCd": 0,
      "exmNm": "Uniform Securities Agent State Law Examination",
      "exmDt": "2007-11-21T00:00:00",
      "exmDtSpecified": true
    }
  ],
  "Dsgntns": [
    {
      "dsgntnNm": "Chartered Financial Analyst"
    }
  ],
  "PrevRgstns": [],
  "EmpHss": [
    {
      "fromDt": "08/2005",
      "toDt": "08/2012",
      "orgNm": "UBS INVESTMENT BANK",
      "city": "STAMFORD",
      "state": 6,
      "stateSpecified": true
    },
    {
      "fromDt": "09/2012",
      "toDt": null,
      "orgNm": "ATLAS ADVISORY GROUP, LLC",
      "city": "CRANFORD",
      "state": 32,
      "stateSpecified": true
    },
    {
      "fromDt": "09/2012",
      "toDt": null,
      "orgNm": "M HOLDINGS SECURITIES, INC.",
      "city": "PORTLAND",
      "state": 38,
      "stateSpecified": true
    }
  ],
  "OthrBuss": {
    "OthrBus": {
      "desc": "NATIONAL SOCIAL SECURITY PARTNERS LLC; 104 BAYARD ST, SUITE 2 NEW BURNSWICK NJ 08901; 2/15/2015; ADVISOR; 10HRS/MONTH 5 DURING TRADING; NO COMP; NOT INVEST RELATED   AFEA; VARIOUS LOCATIONS - SENIMARS/CLASSES TO BE CONDUCTED AT LOCAL LIBRARIES & UNIVERSITIES; TEACHER/INSTRUTOR; SINCE 02.01.16; TEACH SOCIAL SECURITY AND RETIREMENT INCOME CLASSES; NOT INVEST RELATED; 8 HOURS/MONTH 0 DURING BUSINESS; POTENTIAL REFERRALS OR REFERRAL FEES, POTENTIAL REFERRALS FOR ATLAS."
    }
  },
  "DRPs": []
}