{
  "Info": {
    "lastNm": "WOODBY",
    "firstNm": "JOSHUA",
    "midNm": "C",
    "sufNm": null,
    "indvlPK": "4773124",
    "actvAGReg": 0,
    "link": "http://www.adviserinfo.sec.gov/IAPD/Individual/4773124"
  },
  "OthrNms": [],
  "CrntEmps": [
    {
      "CrntRgstns": [
        {
          "regAuth": 36,
          "regCat": 0,
          "st": 2,
          "stDt": "2012-10-01T00:00:00"
        },
        {
          "regAuth": 45,
          "regCat": 0,
          "st": 3,
          "stDt": "2013-11-20T00:00:00"
        }
      ],
      "BrnchOfLocs": [
        {
          "str1": "3250 TREMONT ROAD",
          "str2": null,
          "city": "COLUMBUS",
          "state": 36,
          "stateSpecified": true,
          "cntry": "United States",
          "postlCd": "43221"
        }
      ],
      "orgNm": "J.P. MORGAN SECURITIES LLC",
      "orgPK": "79",
      "str1": "277 PARK AVENUE",
      "str2": null,
      "city": "NEW YORK",
      "state": 35,
      "stateSpecified": true,
      "cntry": "United States",
      "postlCd": "10172"
    }
  ],
  "Exms": [
    {
      "exmCd": 3,
      "exmNm": "Uniform Combined State Law Examination",
      "exmDt": "2008-05-30T00:00:00",
      "exmDtSpecified": true
    }
  ],
  "Dsgntns": [],
  "PrevRgstns": [
    {
      "BrnchOfLocs": [
        {
          "city": "AKRON",
          "state": 36,
          "stateSpecified": true
        },
        {
          "city": "AKRON",
          "state": 36,
          "stateSpecified": true
        },
        {
          "city": "CHICAGO",
          "state": 15,
          "stateSpecified": true
        },
        {
          "city": "COLUMBUS",
          "state": 36,
          "stateSpecified": true
        },
        {
          "city": "GROVE CITY",
          "state": 36,
          "stateSpecified": true
        },
        {
          "city": "GROVE CITY",
          "state": 36,
          "stateSpecified": true
        }
      ],
      "orgNm": "CHASE INVESTMENT SERVICES CORP.",
      "orgPK": "25574",
      "regBeginDt": "2008-06-04T00:00:00",
      "regBeginDtSpecified": true,
      "regEndDt": "2012-10-01T00:00:00",
      "regEndDtSpecified": true
    }
  ],
  "EmpHss": [
    {
      "fromDt": "07/2005",
      "toDt": "10/2012",
      "orgNm": "CHASE INVESTMENT SERVICES CORP.",
      "city": "CHICAGO",
      "state": 15,
      "stateSpecified": true
    },
    {
      "fromDt": "10/2012",
      "toDt": null,
      "orgNm": "J.P. MORGAN SECURITIES LLC",
      "city": "COLUMBUS",
      "state": 36,
      "stateSpecified": true
    }
  ],
  "OthrBuss": {
    "OthrBus": null
  },
  "DRPs": []
}