{
  "Info": {
    "lastNm": "DAVITT",
    "firstNm": "JOHN",
    "midNm": "PATRICK",
    "sufNm": null,
    "indvlPK": "4774803",
    "actvAGReg": 0,
    "link": "http://www.adviserinfo.sec.gov/IAPD/Individual/4774803"
  },
  "OthrNms": [
    {
      "lastNm": "DAVITT",
      "firstNm": "J.P.",
      "midNm": null,
      "sufNm": null
    },
    {
      "lastNm": "DAVITT",
      "firstNm": "JOHN",
      "midNm": "P",
      "sufNm": null
    },
    {
      "lastNm": "DAVITT",
      "firstNm": "JOHN",
      "midNm": "P",
      "sufNm": "IV"
    }
  ],
  "CrntEmps": [
    {
      "CrntRgstns": [
        {
          "regAuth": 39,
          "regCat": 0,
          "st": 2,
          "stDt": "2010-10-07T00:00:00"
        },
        {
          "regAuth": 34,
          "regCat": 0,
          "st": 2,
          "stDt": "2016-02-17T00:00:00"
        }
      ],
      "BrnchOfLocs": [
        {
          "str1": "100 Buffalo Plaza",
          "str2": null,
          "city": "Sarver",
          "state": 39,
          "stateSpecified": true,
          "cntry": "United States",
          "postlCd": "16055"
        },
        {
          "str1": "2005 ROUTE. 286",
          "str2": "MAIL STOP: 15B-E096",
          "city": "PITTSBURGH",
          "state": 39,
          "stateSpecified": true,
          "cntry": "United States",
          "postlCd": "15239"
        },
        {
          "str1": "205 MAIN STREET",
          "str2": null,
          "city": "SAXONBURG",
          "state": 39,
          "stateSpecified": true,
          "cntry": "United States",
          "postlCd": "16056"
        },
        {
          "str1": "837 FREEPORT RD.",
          "str2": null,
          "city": "PITTSBURGH",
          "state": 39,
          "stateSpecified": true,
          "cntry": "United States",
          "postlCd": "15238"
        },
        {
          "str1": "910 FREEPORT RD.",
          "str2": null,
          "city": "PITTSBURGH",
          "state": 39,
          "stateSpecified": true,
          "cntry": "United States",
          "postlCd": "15238"
        }
      ],
      "orgNm": "CITIZENS SECURITIES, INC.",
      "orgPK": "39550",
      "str1": "770 LEGACY PLACE",
      "str2": "MLP240",
      "city": "DEDHAM",
      "state": 20,
      "stateSpecified": true,
      "cntry": "United States",
      "postlCd": "02026"
    }
  ],
  "Exms": [
    {
      "exmCd": 0,
      "exmNm": "Uniform Securities Agent State Law Examination",
      "exmDt": "2004-06-07T00:00:00",
      "exmDtSpecified": true
    },
    {
      "exmCd": 2,
      "exmNm": "Uniform Investment Adviser Law Examination",
      "exmDt": "2006-05-31T00:00:00",
      "exmDtSpecified": true
    }
  ],
  "Dsgntns": [],
  "PrevRgstns": [
    {
      "BrnchOfLocs": [
        {
          "city": "NATRONA HEIGHTS",
          "state": 39,
          "stateSpecified": true
        },
        {
          "city": "NATRONA HEIGHTS",
          "state": 39,
          "stateSpecified": true
        }
      ],
      "orgNm": "PNC INVESTMENTS",
      "orgPK": "129052",
      "regBeginDt": "2006-06-01T00:00:00",
      "regBeginDtSpecified": true,
      "regEndDt": "2006-06-26T00:00:00",
      "regEndDtSpecified": true
    },
    {
      "BrnchOfLocs": [
        {
          "city": "INDIANA",
          "state": 39,
          "stateSpecified": true
        },
        {
          "city": "LEECHBURG",
          "state": 39,
          "stateSpecified": true
        },
        {
          "city": "MARS",
          "state": 39,
          "stateSpecified": true
        },
        {
          "city": "NATRONA HEIGHTS",
          "state": 39,
          "stateSpecified": true
        },
        {
          "city": "NATRONA HEIGHTS",
          "state": 39,
          "stateSpecified": true
        },
        {
          "city": "PITTSBURGH",
          "state": 39,
          "stateSpecified": true
        },
        {
          "city": "PITTSBURGH",
          "state": 39,
          "stateSpecified": true
        },
        {
          "city": "PITTSBURGH",
          "state": 39,
          "stateSpecified": true
        },
        {
          "city": "PITTSBURGH",
          "state": 39,
          "stateSpecified": true
        },
        {
          "city": "RUSSELLTON",
          "state": 39,
          "stateSpecified": true
        },
        {
          "city": "RUSSELLTON",
          "state": 39,
          "stateSpecified": true
        }
      ],
      "orgNm": "UVEST FINANCIAL SERVICES GROUP, INC.",
      "orgPK": "13787",
      "regBeginDt": "2006-06-27T00:00:00",
      "regBeginDtSpecified": true,
      "regEndDt": "2010-06-02T00:00:00",
      "regEndDtSpecified": true
    },
    {
      "BrnchOfLocs": [
        {
          "city": "ALLISON PARK",
          "state": 39,
          "stateSpecified": true
        },
        {
          "city": "BUTLER",
          "state": 39,
          "stateSpecified": true
        },
        {
          "city": "BUTLER",
          "state": 39,
          "stateSpecified": true
        },
        {
          "city": "GLENSHAW",
          "state": 39,
          "stateSpecified": true
        },
        {
          "city": "NAPA",
          "state": 4,
          "stateSpecified": true
        },
        {
          "city": "NEW CASTLE",
          "state": 39,
          "stateSpecified": true
        },
        {
          "city": "NEW CASTLE",
          "state": 39,
          "stateSpecified": true
        },
        {
          "city": "PITTSBURGH",
          "state": 39,
          "stateSpecified": true
        },
        {
          "city": "PITTSBURGH",
          "state": 39,
          "stateSpecified": true
        },
        {
          "city": "PITTSBURGH",
          "state": 39,
          "stateSpecified": true
        },
        {
          "city": "PITTSBURGH",
          "state": 39,
          "stateSpecified": true
        },
        {
          "city": "PITTSBURGH",
          "state": 39,
          "stateSpecified": true
        },
        {
          "city": "RUSSELLTON",
          "state": 39,
          "stateSpecified": true
        },
        {
          "city": "SAXONBURG",
          "state": 39,
          "stateSpecified": true
        },
        {
          "city": "WEXFORD",
          "state": 39,
          "stateSpecified": true
        }
      ],
      "orgNm": "ESSEX NATIONAL SECURITIES, LLC",
      "orgPK": "25454",
      "regBeginDt": "2010-06-07T00:00:00",
      "regBeginDtSpecified": true,
      "regEndDt": "2010-10-08T00:00:00",
      "regEndDtSpecified": true
    }
  ],
  "EmpHss": [
    {
      "fromDt": "06/2006",
      "toDt": "09/2010",
      "orgNm": "FIRST COMMONWEALTH INSURANCE",
      "city": "PITTSBURGH",
      "state": 39,
      "stateSpecified": true
    },
    {
      "fromDt": "09/2010",
      "toDt": null,
      "orgNm": "CCO INVESTMENT SERVICES CORP",
      "city": "PITTSBURGH",
      "state": 39,
      "stateSpecified": true
    }
  ],
  "OthrBuss": {
    "OthrBus": {
      "desc": "1/2014 BOARD MEMBER OF THE NORTH SIDE LEADERSHIP CONFERENCE. ALLEGHANEY CENTER, PITTSBURGH PA. ZERO COMPENSATION. 4 HOURS PER MONTH."
    }
  },
  "DRPs": [
    {
      "hasRegAction": 1,
      "hasRegActionSpecified": true,
      "hasCriminal": 1,
      "hasCriminalSpecified": true,
      "hasBankrupt": 1,
      "hasBankruptSpecified": true,
      "hasCivilJudc": 1,
      "hasCivilJudcSpecified": true,
      "hasBond": 1,
      "hasBondSpecified": true,
      "hasJudgment": 1,
      "hasJudgmentSpecified": true,
      "hasInvstgn": 1,
      "hasInvstgnSpecified": true,
      "hasCustComp": 0,
      "hasCustCompSpecified": true,
      "hasTermination": 1,
      "hasTerminationSpecified": true
    }
  ]
}