{
  "Info": {
    "lastNm": "WEAVER",
    "firstNm": "SPENCER",
    "midNm": "ROBERT",
    "sufNm": null,
    "indvlPK": "4776971",
    "actvAGReg": 0,
    "link": "http://www.adviserinfo.sec.gov/IAPD/Individual/4776971"
  },
  "OthrNms": [],
  "CrntEmps": [
    {
      "CrntRgstns": [
        {
          "regAuth": 3,
          "regCat": 0,
          "st": 2,
          "stDt": "2007-05-30T00:00:00"
        }
      ],
      "BrnchOfLocs": [
        {
          "str1": "7030 EAST GREENWAY PARKWAY",
          "str2": "SUITE 190",
          "city": "SCOTTSDALE",
          "state": 3,
          "stateSpecified": true,
          "cntry": "United States",
          "postlCd": "85254"
        }
      ],
      "orgNm": "AMERIVEST INVESTMENT MANAGEMENT, LLC",
      "orgPK": "111514",
      "str1": "200 SOUTH 108TH AVENUE",
      "str2": null,
      "city": "OMAHA",
      "state": 30,
      "stateSpecified": true,
      "cntry": "United States",
      "postlCd": "68154"
    },
    {
      "CrntRgstns": [
        {
          "regAuth": 3,
          "regCat": 0,
          "st": 2,
          "stDt": "2007-05-30T00:00:00"
        }
      ],
      "BrnchOfLocs": [
        {
          "str1": "7030 EAST GREENWAY PARKWAY",
          "str2": "SUITE 190",
          "city": "SCOTTSDALE",
          "state": 3,
          "stateSpecified": true,
          "cntry": "United States",
          "postlCd": "85254"
        }
      ],
      "orgNm": "TD AMERITRADE, INC.",
      "orgPK": "7870",
      "str1": "200 SOUTH 108TH AVENUE",
      "str2": null,
      "city": "OMAHA",
      "state": 30,
      "stateSpecified": true,
      "cntry": "United States",
      "postlCd": "68154"
    }
  ],
  "Exms": [
    {
      "exmCd": 3,
      "exmNm": "Uniform Combined State Law Examination",
      "exmDt": "2005-02-16T00:00:00",
      "exmDtSpecified": true
    }
  ],
  "Dsgntns": [],
  "PrevRgstns": [
    {
      "BrnchOfLocs": [
        {
          "city": "PROVIDENCE",
          "state": 41,
          "stateSpecified": true
        }
      ],
      "orgNm": "MORGAN STANLEY DW INC.",
      "orgPK": "7556",
      "regBeginDt": "2005-02-22T00:00:00",
      "regBeginDtSpecified": true,
      "regEndDt": "2005-08-18T00:00:00",
      "regEndDtSpecified": true
    },
    {
      "BrnchOfLocs": [
        {
          "city": "LINCOLN",
          "state": 41,
          "stateSpecified": true
        }
      ],
      "orgNm": "BANC OF AMERICA INVESTMENT SERVICES, INC.",
      "orgPK": "16361",
      "regBeginDt": "2005-12-07T00:00:00",
      "regBeginDtSpecified": true,
      "regEndDt": "2006-01-17T00:00:00",
      "regEndDtSpecified": true
    }
  ],
  "EmpHss": [
    {
      "fromDt": "01/2006",
      "toDt": null,
      "orgNm": "TD WATERHOUSE INVESTOR SERVICES INC",
      "city": "PROVIDENCE",
      "state": 41,
      "stateSpecified": true
    }
  ],
  "OthrBuss": {
    "OthrBus": null
  },
  "DRPs": []
}