{
  "Info": {
    "lastNm": "ARCHAMBAULT",
    "firstNm": "MICHAEL",
    "midNm": "R",
    "sufNm": null,
    "indvlPK": "4782218",
    "actvAGReg": 0,
    "link": "http://www.adviserinfo.sec.gov/IAPD/Individual/4782218"
  },
  "OthrNms": [],
  "CrntEmps": [
    {
      "CrntRgstns": [
        {
          "regAuth": 20,
          "regCat": 0,
          "st": 2,
          "stDt": "2014-05-19T00:00:00"
        }
      ],
      "BrnchOfLocs": [
        {
          "str1": null,
          "str2": null,
          "city": "WESTON",
          "state": 20,
          "stateSpecified": true,
          "cntry": "United States",
          "postlCd": null
        },
        {
          "str1": "5900 \"O\" STREET",
          "str2": null,
          "city": "LINCOLN",
          "state": 30,
          "stateSpecified": true,
          "cntry": "United States",
          "postlCd": "68510-2234"
        }
      ],
      "orgNm": "AMERITAS INVESTMENT CORP.",
      "orgPK": "14869",
      "str1": "5900 \"O\" STREET",
      "str2": null,
      "city": "LINCOLN",
      "state": 30,
      "stateSpecified": true,
      "cntry": "United States",
      "postlCd": "68510"
    }
  ],
  "Exms": [
    {
      "exmCd": 0,
      "exmNm": "Uniform Securities Agent State Law Examination",
      "exmDt": "2004-08-25T00:00:00",
      "exmDtSpecified": true
    },
    {
      "exmCd": 2,
      "exmNm": "Uniform Investment Adviser Law Examination",
      "exmDt": "2014-04-22T00:00:00",
      "exmDtSpecified": true
    }
  ],
  "Dsgntns": [],
  "PrevRgstns": [],
  "EmpHss": [
    {
      "fromDt": "02/2004",
      "toDt": "07/2007",
      "orgNm": "NORTHWESTERN MUTUAL LIFE INSURANCE COMPANY",
      "city": "MILWAUKEE",
      "state": 50,
      "stateSpecified": true
    },
    {
      "fromDt": "04/2004",
      "toDt": "06/2007",
      "orgNm": "NORTHWESTERN MUTUAL INVESTMENT SERVICES LLC",
      "city": "WELLESLEY",
      "state": 20,
      "stateSpecified": true
    },
    {
      "fromDt": "06/2007",
      "toDt": null,
      "orgNm": "BOSTON 128 COMPANIES INC.",
      "city": "WESTON",
      "state": 20,
      "stateSpecified": true
    },
    {
      "fromDt": "07/2007",
      "toDt": "12/2011",
      "orgNm": "ACACIA LIFE INSURANCE",
      "city": "BETHESDA",
      "state": 21,
      "stateSpecified": true
    },
    {
      "fromDt": "07/2007",
      "toDt": null,
      "orgNm": "AMERITAS INVESTMENT CORP",
      "city": "LINCOLN",
      "state": 30,
      "stateSpecified": true
    },
    {
      "fromDt": "07/2007",
      "toDt": null,
      "orgNm": "AMERITAS LIFE INSURANCE",
      "city": "LINCOLN",
      "state": 30,
      "stateSpecified": true
    },
    {
      "fromDt": "07/2007",
      "toDt": "12/2011",
      "orgNm": "UNION CENTRAL LIFE INSURANCE",
      "city": "CINCINNATI",
      "state": 36,
      "stateSpecified": true
    },
    {
      "fromDt": "07/2010",
      "toDt": null,
      "orgNm": "FIRST AMERITAS LIFE INSURANCE CORP. OF NEW YORK",
      "city": "SUFFERN",
      "state": 35,
      "stateSpecified": true
    }
  ],
  "OthrBuss": {
    "OthrBus": {
      "desc": "LICENSED AS AN IND INS AGT TO SELL FIXED INS PRODUCTS *BOSTON 128 COMPANIES; 42 FAIRVIEW RD WESTON MA;INV REL; SALE OF LIFE INSURANCE/FIXED PRODUCTS;VICE PRESIDENT;START DATE=06/2007  ;HRS/MO=200;TRADING HRS/MO=160;SALE OF INSURANCE."
    }
  },
  "DRPs": []
}