{
  "Info": {
    "lastNm": "SUBOTIC",
    "firstNm": "NEBOJSA",
    "midNm": null,
    "sufNm": null,
    "indvlPK": "4786785",
    "actvAGReg": 0,
    "link": "http://www.adviserinfo.sec.gov/IAPD/Individual/4786785"
  },
  "OthrNms": [
    {
      "lastNm": "SUBOTIC",
      "firstNm": "NASH",
      "midNm": null,
      "sufNm": null
    }
  ],
  "CrntEmps": [
    {
      "CrntRgstns": [
        {
          "regAuth": 12,
          "regCat": 0,
          "st": 2,
          "stDt": "2008-01-02T00:00:00"
        },
        {
          "regAuth": 9,
          "regCat": 0,
          "st": 2,
          "stDt": "2009-12-14T00:00:00"
        }
      ],
      "BrnchOfLocs": [
        {
          "str1": "677 ALA MOANA BLVD",
          "str2": "SUITE 720",
          "city": "HONOLULU",
          "state": 12,
          "stateSpecified": true,
          "cntry": "United States",
          "postlCd": "96813"
        }
      ],
      "orgNm": "PARK AVENUE SECURITIES LLC",
      "orgPK": "46173",
      "str1": "7 HANOVER SQUARE",
      "str2": null,
      "city": "NEW YORK",
      "state": 35,
      "stateSpecified": true,
      "cntry": "United States",
      "postlCd": "10004"
    }
  ],
  "Exms": [
    {
      "exmCd": 0,
      "exmNm": "Uniform Securities Agent State Law Examination",
      "exmDt": "2004-07-07T00:00:00",
      "exmDtSpecified": true
    },
    {
      "exmCd": 2,
      "exmNm": "Uniform Investment Adviser Law Examination",
      "exmDt": "2007-07-21T00:00:00",
      "exmDtSpecified": true
    }
  ],
  "Dsgntns": [],
  "PrevRgstns": [
    {
      "BrnchOfLocs": [
        {
          "city": "HONOLULU",
          "state": 12,
          "stateSpecified": true
        },
        {
          "city": "HONOLULU",
          "state": 12,
          "stateSpecified": true
        }
      ],
      "orgNm": "SIGNATOR INVESTORS, INC.",
      "orgPK": "468",
      "regBeginDt": "2007-08-06T00:00:00",
      "regBeginDtSpecified": true,
      "regEndDt": "2007-08-28T00:00:00",
      "regEndDtSpecified": true
    }
  ],
  "EmpHss": [
    {
      "fromDt": "01/2003",
      "toDt": "08/2007",
      "orgNm": "JOHN HANCOCK",
      "city": "HONOLULU",
      "state": 12,
      "stateSpecified": true
    },
    {
      "fromDt": "09/2007",
      "toDt": null,
      "orgNm": "GUARDIAN LIFE INSURANCE COMPANY OF AMERICA",
      "city": "HONOLULU",
      "state": 12,
      "stateSpecified": true
    },
    {
      "fromDt": "09/2007",
      "toDt": null,
      "orgNm": "PARK AVENUE SECURITIES",
      "city": "HONOLULU",
      "state": 12,
      "stateSpecified": true
    }
  ],
  "OthrBuss": {
    "OthrBus": {
      "desc": "1. INSURANCE SERVICES (PRODUCTS OTHER THAN GUARDIAN;   2.RENTAL PROPERTY."
    }
  },
  "DRPs": []
}