{
  "Info": {
    "lastNm": "CLARK",
    "firstNm": "THOMAS",
    "midNm": "EUGENE",
    "sufNm": null,
    "indvlPK": "47901",
    "actvAGReg": 0,
    "link": "http://www.adviserinfo.sec.gov/IAPD/Individual/47901"
  },
  "OthrNms": [],
  "CrntEmps": [
    {
      "CrntRgstns": [
        {
          "regAuth": 10,
          "regCat": 0,
          "st": 2,
          "stDt": "2006-10-04T00:00:00"
        },
        {
          "regAuth": 28,
          "regCat": 0,
          "st": 2,
          "stDt": "2006-10-05T00:00:00"
        }
      ],
      "BrnchOfLocs": [
        {
          "str1": "605 N QUEEN STREET",
          "str2": null,
          "city": "KINSTON",
          "state": 28,
          "stateSpecified": true,
          "cntry": "United States",
          "postlCd": "28501"
        },
        {
          "str1": "ONE FINANCIAL WAY",
          "str2": null,
          "city": "CINCINNATI",
          "state": 36,
          "stateSpecified": true,
          "cntry": "United States",
          "postlCd": "45242"
        }
      ],
      "orgNm": "ON INVESTMENT MANAGEMENT CO",
      "orgPK": "105662",
      "str1": "ONE FINANCIAL WAY",
      "str2": null,
      "city": "CINCINNATI",
      "state": 36,
      "stateSpecified": true,
      "cntry": "United States",
      "postlCd": "45242"
    }
  ],
  "Exms": [
    {
      "exmCd": 0,
      "exmNm": "Uniform Securities Agent State Law Examination",
      "exmDt": "1998-07-13T00:00:00",
      "exmDtSpecified": true
    }
  ],
  "Dsgntns": [
    {
      "dsgntnNm": "Chartered Financial Consultant"
    }
  ],
  "PrevRgstns": [
    {
      "BrnchOfLocs": [
        {
          "city": "KINSTON",
          "state": 28,
          "stateSpecified": true
        },
        {
          "city": "KINSTON",
          "state": 28,
          "stateSpecified": true
        }
      ],
      "orgNm": "WALNUT STREET SECURITIES, INC.",
      "orgPK": "15840",
      "regBeginDt": "2006-02-23T00:00:00",
      "regBeginDtSpecified": true,
      "regEndDt": "2006-10-05T00:00:00",
      "regEndDtSpecified": true
    }
  ],
  "EmpHss": [
    {
      "fromDt": "01/1987",
      "toDt": null,
      "orgNm": "GENERAL AMERICAN LIFE",
      "city": "ST LOUIS",
      "state": 25,
      "stateSpecified": true
    },
    {
      "fromDt": "09/1988",
      "toDt": "10/2006",
      "orgNm": "WALNUT STREET SECURITIES, INC.",
      "city": "ST LOUIS",
      "state": 25,
      "stateSpecified": true
    },
    {
      "fromDt": "02/2003",
      "toDt": null,
      "orgNm": "OHIO NATIONAL FINANCIAL SERVICES",
      "city": "CINCINNATI",
      "state": 36,
      "stateSpecified": true
    },
    {
      "fromDt": "10/2006",
      "toDt": null,
      "orgNm": "THE O.N. EQUITY SALES COMPANY",
      "city": "CINCINNATI",
      "state": 36,
      "stateSpecified": true
    }
  ],
  "OthrBuss": {
    "OthrBus": {
      "desc": "1) CAROLINA INSURANCE CONSULTANTS, INC; NOT INVESTMENT RELATED; 605 N QUEEN STREET KINSTON NC  28501; INSURANCE SALES; AGENT; 11/03/1983-CURRENT; 15-20 HOURS/MONTH; 1-2 DURING SECURITIES TRADING HOURS/MONTH; SELLING LIFE HEALTH DISABILITY AND FIXED ANNUITIES. 2) CIC FINANCIAL PLAN SUPPORT; NOT INVESTMENT RELATED; 605 N QUEEN STREET KINSTON NC  28501; TPA ADMINISTRATION; OWNER; 01/01/1996-CURRENT; 5-10 HOURS/MONTH; 5 HOURS DURING SECURITIES TRADING HOURS/MONTH; TPA ADMINISTRATION. 3) COASTAL INSURANCE SERVICES LLC; NOT INVESTMENT RELATES; 2002 S. GLENBURNIE ROAD NEW BERN, NC 28562; GROUP HEALTH INSURANCE; SERVICING AGENT FOR BLUECROSS & BLUESHIELD OF NC; 12/01/2012; 5 HOUR PER MONTH (0 DURING MARKET HOURS); ACT AS A SERVICING AGENT TO PARTICIPANTS OF GROUP HEALTH INSURANCE PLAN. NO SELLING INVOLVED."
    }
  },
  "DRPs": []
}