{
  "Info": {
    "lastNm": "CALLARD",
    "firstNm": "CATHERINE",
    "midNm": "ELIZABETH",
    "sufNm": null,
    "indvlPK": "4799449",
    "actvAGReg": 0,
    "link": "http://www.adviserinfo.sec.gov/IAPD/Individual/4799449"
  },
  "OthrNms": [
    {
      "lastNm": "MOSTELLER",
      "firstNm": "CATHERINE",
      "midNm": "ELIZABETH",
      "sufNm": null
    }
  ],
  "CrntEmps": [
    {
      "CrntRgstns": [
        {
          "regAuth": 36,
          "regCat": 0,
          "st": 2,
          "stDt": "2012-11-26T00:00:00"
        }
      ],
      "BrnchOfLocs": [
        {
          "str1": "21 EAST STATE STREET",
          "str2": null,
          "city": "COLUMBUS",
          "state": 36,
          "stateSpecified": true,
          "cntry": "United States",
          "postlCd": "43215"
        }
      ],
      "orgNm": "FIFTH THIRD SECURITIES, INC.",
      "orgPK": "628",
      "str1": "34 FOUNTAIN SQUARE PLAZA",
      "str2": "MD 10AT42",
      "city": "CINCINNATI",
      "state": 36,
      "stateSpecified": true,
      "cntry": "United States",
      "postlCd": "45263"
    }
  ],
  "Exms": [
    {
      "exmCd": 3,
      "exmNm": "Uniform Combined State Law Examination",
      "exmDt": "2012-11-24T00:00:00",
      "exmDtSpecified": true
    }
  ],
  "Dsgntns": [],
  "PrevRgstns": [
    {
      "BrnchOfLocs": [
        {
          "city": "COLUMBUS",
          "state": 36,
          "stateSpecified": true
        },
        {
          "city": "COLUMBUS",
          "state": 36,
          "stateSpecified": true
        }
      ],
      "orgNm": "KEYBANC CAPITAL MARKETS INC.",
      "orgPK": "566",
      "regBeginDt": "2005-11-02T00:00:00",
      "regBeginDtSpecified": true,
      "regEndDt": "2007-02-15T00:00:00",
      "regEndDtSpecified": true
    }
  ],
  "EmpHss": [
    {
      "fromDt": "02/2004",
      "toDt": "04/2012",
      "orgNm": "KEY BANK NA",
      "city": "COLUMBUS",
      "state": 36,
      "stateSpecified": true
    },
    {
      "fromDt": "02/2004",
      "toDt": "02/2007",
      "orgNm": "MCDONALD INVESTMENTS",
      "city": "COLUMBUS",
      "state": 36,
      "stateSpecified": true
    },
    {
      "fromDt": "01/2009",
      "toDt": "10/2009",
      "orgNm": "KEY INVESTMENT SERVICES LLC",
      "city": "CANTON",
      "state": 36,
      "stateSpecified": true
    },
    {
      "fromDt": "04/2012",
      "toDt": null,
      "orgNm": "FIFTH THIRD BANK",
      "city": "COLUMBUS",
      "state": 36,
      "stateSpecified": true
    },
    {
      "fromDt": "07/2012",
      "toDt": null,
      "orgNm": "FIFTH THIRD SECURITIES",
      "city": "COLUMBUS",
      "state": 36,
      "stateSpecified": true
    }
  ],
  "OthrBuss": {
    "OthrBus": null
  },
  "DRPs": []
}