{
  "Info": {
    "lastNm": "HELMER",
    "firstNm": "TRACY",
    "midNm": "LYNN",
    "sufNm": null,
    "indvlPK": "4803908",
    "actvAGReg": 0,
    "link": "http://www.adviserinfo.sec.gov/IAPD/Individual/4803908"
  },
  "OthrNms": [
    {
      "lastNm": "HELMER",
      "firstNm": "TRACY",
      "midNm": null,
      "sufNm": null
    },
    {
      "lastNm": "POOLE",
      "firstNm": "TRACY",
      "midNm": "LYNN",
      "sufNm": null
    }
  ],
  "CrntEmps": [
    {
      "CrntRgstns": [
        {
          "regAuth": 16,
          "regCat": 0,
          "st": 2,
          "stDt": "2012-11-13T00:00:00"
        }
      ],
      "BrnchOfLocs": [
        {
          "str1": "3150 LYNCH ROAD",
          "str2": null,
          "city": "EVANSVILLE",
          "state": 16,
          "stateSpecified": true,
          "cntry": "United States",
          "postlCd": "47711"
        },
        {
          "str1": "3933 VENETIAN DRIVE",
          "str2": null,
          "city": "NEWBURGH",
          "state": 16,
          "stateSpecified": true,
          "cntry": "United States",
          "postlCd": "47630"
        },
        {
          "str1": "4424 VOGEL RD",
          "str2": null,
          "city": "EVANSVILLE",
          "state": 16,
          "stateSpecified": true,
          "cntry": "United States",
          "postlCd": "47716"
        },
        {
          "str1": "515 DIXIE LANE",
          "str2": null,
          "city": "EVANSVILLE",
          "state": 16,
          "stateSpecified": true,
          "cntry": "United States",
          "postlCd": "47725"
        },
        {
          "str1": "530 N. ST. JOSEPH AVENUE",
          "str2": null,
          "city": "EVANSVILLE",
          "state": 16,
          "stateSpecified": true,
          "cntry": "United States",
          "postlCd": "47712"
        },
        {
          "str1": "961 S HEBRON AVE",
          "str2": null,
          "city": "EVANSVILLE",
          "state": 16,
          "stateSpecified": true,
          "cntry": "United States",
          "postlCd": "47714"
        }
      ],
      "orgNm": "LPL FINANCIAL LLC",
      "orgPK": "6413",
      "str1": "75 STATE STREET, 22ND FLOOR",
      "str2": null,
      "city": "BOSTON",
      "state": 20,
      "stateSpecified": true,
      "cntry": "United States",
      "postlCd": "02109"
    }
  ],
  "Exms": [
    {
      "exmCd": 0,
      "exmNm": "Uniform Securities Agent State Law Examination",
      "exmDt": "2004-08-31T00:00:00",
      "exmDtSpecified": true
    },
    {
      "exmCd": 2,
      "exmNm": "Uniform Investment Adviser Law Examination",
      "exmDt": "2004-09-07T00:00:00",
      "exmDtSpecified": true
    }
  ],
  "Dsgntns": [],
  "PrevRgstns": [
    {
      "BrnchOfLocs": [
        {
          "city": "EVANSVILLE",
          "state": 16,
          "stateSpecified": true
        }
      ],
      "orgNm": "ONB INVESTMENT SERVICES, INC.",
      "orgPK": "31583",
      "regBeginDt": "2004-09-08T00:00:00",
      "regBeginDtSpecified": true,
      "regEndDt": "2005-12-01T00:00:00",
      "regEndDtSpecified": true
    },
    {
      "BrnchOfLocs": [
        {
          "city": "EVANSVILLE",
          "state": 16,
          "stateSpecified": true
        },
        {
          "city": "EVANSVILLE",
          "state": 16,
          "stateSpecified": true
        },
        {
          "city": "EVANSVILLE",
          "state": 16,
          "stateSpecified": true
        }
      ],
      "orgNm": "INVEST FINANCIAL CORPORATION",
      "orgPK": "12984",
      "regBeginDt": "2005-11-30T00:00:00",
      "regBeginDtSpecified": true,
      "regEndDt": "2009-12-01T00:00:00",
      "regEndDtSpecified": true
    },
    {
      "BrnchOfLocs": [
        {
          "city": "CHARLOTTE",
          "state": 28,
          "stateSpecified": true
        },
        {
          "city": "EVANSVILLE",
          "state": 16,
          "stateSpecified": true
        },
        {
          "city": "EVANSVILLE",
          "state": 16,
          "stateSpecified": true
        }
      ],
      "orgNm": "LPL FINANCIAL LLC",
      "orgPK": "6413",
      "regBeginDt": "2009-11-30T00:00:00",
      "regBeginDtSpecified": true,
      "regEndDt": "2010-11-03T00:00:00",
      "regEndDtSpecified": true
    },
    {
      "BrnchOfLocs": [
        {
          "city": "EVANSVILLE",
          "state": 16,
          "stateSpecified": true
        },
        {
          "city": "SAN ANTONIO",
          "state": 45,
          "stateSpecified": true
        }
      ],
      "orgNm": "INVESTMENT PROFESSIONALS, INC.",
      "orgPK": "30184",
      "regBeginDt": "2010-09-24T00:00:00",
      "regBeginDtSpecified": true,
      "regEndDt": "2011-03-15T00:00:00",
      "regEndDtSpecified": true
    }
  ],
  "EmpHss": [
    {
      "fromDt": "05/2004",
      "toDt": "08/2010",
      "orgNm": "ONB INVESTMENT SERVICES",
      "city": "EVANSVILLE",
      "state": 16,
      "stateSpecified": true
    },
    {
      "fromDt": "11/2005",
      "toDt": "11/2009",
      "orgNm": "INVEST FINANCIAL CORP",
      "city": "TAMPA",
      "state": 9,
      "stateSpecified": true
    },
    {
      "fromDt": "11/2009",
      "toDt": "08/2010",
      "orgNm": "LPL FINANCIAL",
      "city": "CHARLOTTE",
      "state": 28,
      "stateSpecified": true
    },
    {
      "fromDt": "09/2010",
      "toDt": "02/2011",
      "orgNm": "INVESTMENT PROFESSIONALS INC.",
      "city": "EVANSVILLE",
      "state": 16,
      "stateSpecified": true
    },
    {
      "fromDt": "02/2011",
      "toDt": "11/2012",
      "orgNm": "NOT UNEMPLOYED",
      "city": "NEWBURGH",
      "state": 16,
      "stateSpecified": true
    },
    {
      "fromDt": "11/2012",
      "toDt": null,
      "orgNm": "GERMAN AMERICAN BANK",
      "city": "EVANSVILLE",
      "state": 16,
      "stateSpecified": true
    },
    {
      "fromDt": "11/2012",
      "toDt": null,
      "orgNm": "LPL FINANCIAL LLC",
      "city": "NEWBURGH",
      "state": 16,
      "stateSpecified": true
    }
  ],
  "OthrBuss": {
    "OthrBus": {
      "desc": "(1) 11/05/2012:GERMAN AMERICAN INVESTMENT SERVICES / DBA FOR LPL BUSINESS (ENTITY FOR LPL BUSINESS) / 100% / EVANSVILLE,IN      (2)  3/19/2013: NON-VARIABLE INSURANCE - GERMAN AMERICAN FINANCIAL ADVISORS AND TRUST CO. - INSURANCE RISK PROTECTION SALES TO COMPLIMENT FINANCIAL PLANNING PROCESS. - TIME SPENT 5% - EVANSVILLE, IN.        (3) 06/24/2013 - GERMAN AMERICAN FINANCIAL ADVISORS AND TRUST CO. - BANK DUTIES - 1)GERMAN AMERICAN FINANCIAL ADVISORS & TRUST COMPANY IS A STATE CHARTERED TRUST COMPANY.  I ONLY ENGAGE IN RELATIONSHIP MANAGEMENT FOR THE TRUST DEPARTMENT WHERE NO INVESTMENT ADVICE IS GIVE - 5% OF TIME SPENT - EVANSVILLE, IN       (4) 10/14/2014: VINCENNCES UNIVERSITY - NOT INV REL - 8100 SOUTH U.S. HIGHWAY 41, FT BRANCH, IN 47648 - ADJUNCT FACULTY - START 10/07/2014 - 6 HR/MO NONE DURING SECS TRDG HRS - TEACH CLASSES"
    }
  },
  "DRPs": [
    {
      "hasRegAction": 1,
      "hasRegActionSpecified": true,
      "hasCriminal": 1,
      "hasCriminalSpecified": true,
      "hasBankrupt": 1,
      "hasBankruptSpecified": true,
      "hasCivilJudc": 1,
      "hasCivilJudcSpecified": true,
      "hasBond": 1,
      "hasBondSpecified": true,
      "hasJudgment": 1,
      "hasJudgmentSpecified": true,
      "hasInvstgn": 1,
      "hasInvstgnSpecified": true,
      "hasCustComp": 0,
      "hasCustCompSpecified": true,
      "hasTermination": 0,
      "hasTerminationSpecified": true
    }
  ]
}