{
  "Info": {
    "lastNm": "VILLANUEVA",
    "firstNm": "MARLAND",
    "midNm": null,
    "sufNm": null,
    "indvlPK": "4805711",
    "actvAGReg": 0,
    "link": "http://www.adviserinfo.sec.gov/IAPD/Individual/4805711"
  },
  "OthrNms": [],
  "CrntEmps": [
    {
      "CrntRgstns": [
        {
          "regAuth": 16,
          "regCat": 0,
          "st": 2,
          "stDt": "2004-09-01T00:00:00"
        }
      ],
      "BrnchOfLocs": [
        {
          "str1": "510 E 96TH ST",
          "str2": null,
          "city": "INDIANAPOLIS",
          "state": 16,
          "stateSpecified": true,
          "cntry": "United States",
          "postlCd": "46240"
        }
      ],
      "orgNm": "MERRILL LYNCH, PIERCE, FENNER & SMITH INCORPORATED",
      "orgPK": "7691",
      "str1": "ONE BRYANT PARK",
      "str2": null,
      "city": "NEW YORK",
      "state": 35,
      "stateSpecified": true,
      "cntry": "United States",
      "postlCd": "10036"
    }
  ],
  "Exms": [
    {
      "exmCd": 3,
      "exmNm": "Uniform Combined State Law Examination",
      "exmDt": "2004-08-31T00:00:00",
      "exmDtSpecified": true
    }
  ],
  "Dsgntns": [],
  "PrevRgstns": [],
  "EmpHss": [
    {
      "fromDt": "05/2004",
      "toDt": null,
      "orgNm": "MERRILL LYNCH, PIERCE, FENNER & SMITH INCORPORATED ",
      "city": "INDIANAPOLIS",
      "state": 16,
      "stateSpecified": true
    },
    {
      "fromDt": "11/2009",
      "toDt": null,
      "orgNm": "BANK OF AMERICA, NA",
      "city": "INDIANAPOLIS",
      "state": 16,
      "stateSpecified": true
    },
    {
      "fromDt": "11/2009",
      "toDt": null,
      "orgNm": "BANK OF AMERICA, NA",
      "city": "INDIANAPOLIS",
      "state": 16,
      "stateSpecified": true
    }
  ],
  "OthrBuss": {
    "OthrBus": {
      "desc": "NAME:CARDINAL RITTER HIGH SCHOOL    INVESTMENT RELATED: (YES OR NO) NO  ADDRESS: 3360 W. 30TH STREET, INDIANAPOLIS, IN  46222  NATURE: EDUCATIONAL INSTITUTION  YOUR POSITION, TITLE, ASSOCIATION: FINANCE COMMITTEE  START DATE: 1/1/2006  NUMBER OF HOURS DEVOTED PER MONTH: 1  NUMBER OF HOURS DEVOTED DURING SECURITIES TRADING HOURS:   DUTIES: BUDGETING & FINANCIAL MONITORING.    (3)FOR PROFIT OR NOT FOR PROFIT: NON-PROFIT ORGANIZATION  NAME OF OUTSIDE BUSINESS ORGANIZATION: HENDRICKS COUNTY COMMUNITY FOUNDATION, INC.   INVESTMENT RELATED: NO  ADDRESS OF BUSINESS:  AVON, INDIANA 46123  NATURE OF BUSINESS: OTHER  POSITION, TITLE, ASSOCIATION: DIRECTOR/BOARD MEMBER  START DATE OF RELATIONSHIP: 07/01/2010  NUMBER OF HOURS DEVOTED: 10 HOUR(S) MONTHLY  NUMBER OF HOURS DEVOTED DURING TRADING HOURS: 0 HOUR(S) MONTHLY  DUTIES: FINANCIAL OVERSIGHT. THE FUNCTION \"FINANCIAL OVERSIGHT\" INSTEAD OF \"FINANCIAL ADVICE\" IS PROBABLY MORE APPROPRIATE. AS A BOARD MEMBER, I PROVIDE FINANCIAL OVERSIGHT TO ENSURE SUCH THINGS LIKE THE OPERATING BUDGET IS ACHIEVED, AUDIT RECOMMENDATIONS ARE FOLLOWED, FUNDRAISING GOALS ARE REALISTIC AND MET, ETC."
    }
  },
  "DRPs": []
}