{
  "Info": {
    "lastNm": "OAKES",
    "firstNm": "BRANDON",
    "midNm": "CHADWICK",
    "sufNm": null,
    "indvlPK": "4807023",
    "actvAGReg": 0,
    "link": "http://www.adviserinfo.sec.gov/IAPD/Individual/4807023"
  },
  "OthrNms": [],
  "CrntEmps": [
    {
      "CrntRgstns": [
        {
          "regAuth": 1,
          "regCat": 0,
          "st": 2,
          "stDt": "2014-01-21T00:00:00"
        }
      ],
      "BrnchOfLocs": [
        {
          "str1": "418 LAUDERDALE STREET",
          "str2": null,
          "city": "SELMA",
          "state": 1,
          "stateSpecified": true,
          "cntry": "United States",
          "postlCd": "36701"
        }
      ],
      "orgNm": "CETERA INVESTMENT ADVISERS LLC",
      "orgPK": "105644",
      "str1": "200 NORTH MARTINGALE ROAD",
      "str2": null,
      "city": "SCHAUMBURG",
      "state": 15,
      "stateSpecified": true,
      "cntry": "United States",
      "postlCd": "60173-2096"
    }
  ],
  "Exms": [
    {
      "exmCd": 3,
      "exmNm": "Uniform Combined State Law Examination",
      "exmDt": "2004-08-23T00:00:00",
      "exmDtSpecified": true
    }
  ],
  "Dsgntns": [],
  "PrevRgstns": [],
  "EmpHss": [
    {
      "fromDt": "05/2004",
      "toDt": null,
      "orgNm": "CETERA INVESTMENT SERVICES LLC",
      "city": "ST. CLOUD",
      "state": 24,
      "stateSpecified": true
    },
    {
      "fromDt": "05/2004",
      "toDt": "07/2013",
      "orgNm": "TRUSTMARK NATIONAL BANK",
      "city": "SELMA",
      "state": 1,
      "stateSpecified": true
    },
    {
      "fromDt": "01/2014",
      "toDt": null,
      "orgNm": "CETERA INVESTMENT ADVISERS LLC",
      "city": "SELMA",
      "state": 1,
      "stateSpecified": true
    }
  ],
  "OthrBuss": {
    "OthrBus": {
      "desc": "HORIZON INVESTMENT GROUP. BROKERAGE, INSURANCE & INVESTMENT ADVISORY SERVICES THRU CETERA. 40 HRS/WK. SALARY, COMMISSION AND FEES."
    }
  },
  "DRPs": []
}