{
  "Info": {
    "lastNm": "NOWFEL",
    "firstNm": "MICHELLE",
    "midNm": "ANN",
    "sufNm": null,
    "indvlPK": "4810002",
    "actvAGReg": 0,
    "link": "http://www.adviserinfo.sec.gov/IAPD/Individual/4810002"
  },
  "OthrNms": [],
  "CrntEmps": [
    {
      "CrntRgstns": [
        {
          "regAuth": 33,
          "regCat": 0,
          "st": 2,
          "stDt": "2007-09-24T00:00:00"
        }
      ],
      "BrnchOfLocs": [
        {
          "str1": "2300 NORTH RIDGETOP ROAD",
          "str2": null,
          "city": "SANTA FE",
          "state": 33,
          "stateSpecified": true,
          "cntry": "United States",
          "postlCd": "87506"
        }
      ],
      "orgNm": "THORNBURG INVESTMENT MANAGEMENT INC",
      "orgPK": "106357",
      "str1": "2300 NORTH RIDGETOP ROAD",
      "str2": null,
      "city": "SANTA FE",
      "state": 33,
      "stateSpecified": true,
      "cntry": "United States",
      "postlCd": "87506"
    }
  ],
  "Exms": [
    {
      "exmCd": 0,
      "exmNm": "Uniform Securities Agent State Law Examination",
      "exmDt": "2006-02-06T00:00:00",
      "exmDtSpecified": true
    },
    {
      "exmCd": 3,
      "exmNm": "Uniform Combined State Law Examination",
      "exmDt": "2007-09-10T00:00:00",
      "exmDtSpecified": true
    }
  ],
  "Dsgntns": [],
  "PrevRgstns": [],
  "EmpHss": [
    {
      "fromDt": "06/2005",
      "toDt": "01/2007",
      "orgNm": "THORNBURG INVESTMENT MANAGEMENT",
      "city": "SANTA FE",
      "state": 33,
      "stateSpecified": true
    },
    {
      "fromDt": "01/2007",
      "toDt": null,
      "orgNm": "THORNBURG SECURITIES CORP",
      "city": "SANTA FE",
      "state": 33,
      "stateSpecified": true
    }
  ],
  "OthrBuss": {
    "OthrBus": null
  },
  "DRPs": []
}