{
  "Info": {
    "lastNm": "KELLY",
    "firstNm": "STEPHANIE",
    "midNm": "ELIZABETH",
    "sufNm": null,
    "indvlPK": "4811888",
    "actvAGReg": 0,
    "link": "http://www.adviserinfo.sec.gov/IAPD/Individual/4811888"
  },
  "OthrNms": [],
  "CrntEmps": [
    {
      "CrntRgstns": [
        {
          "regAuth": 38,
          "regCat": 0,
          "st": 2,
          "stDt": "2013-10-07T00:00:00"
        },
        {
          "regAuth": 45,
          "regCat": 0,
          "st": 2,
          "stDt": "2014-05-15T00:00:00"
        }
      ],
      "BrnchOfLocs": [
        {
          "str1": "1120 NW COUCH STREET",
          "str2": "SUITE 530",
          "city": "PORTLAND",
          "state": 38,
          "stateSpecified": true,
          "cntry": "United States",
          "postlCd": "97209"
        }
      ],
      "orgNm": "RAYMOND JAMES & ASSOCIATES, INC.",
      "orgPK": "705",
      "str1": "880 CARILLON PARKWAY",
      "str2": null,
      "city": "ST PETERSBURG",
      "state": 9,
      "stateSpecified": true,
      "cntry": "United States",
      "postlCd": "33716"
    }
  ],
  "Exms": [
    {
      "exmCd": 3,
      "exmNm": "Uniform Combined State Law Examination",
      "exmDt": "2004-08-19T00:00:00",
      "exmDtSpecified": true
    }
  ],
  "Dsgntns": [],
  "PrevRgstns": [
    {
      "BrnchOfLocs": [
        {
          "city": "PORTLAND",
          "state": 38,
          "stateSpecified": true
        }
      ],
      "orgNm": "MORGAN STANLEY & CO. LLC",
      "orgPK": "8209",
      "regBeginDt": "2007-12-06T00:00:00",
      "regBeginDtSpecified": true,
      "regEndDt": "2009-06-01T00:00:00",
      "regEndDtSpecified": true
    },
    {
      "BrnchOfLocs": [
        {
          "city": "PORTLAND",
          "state": 38,
          "stateSpecified": true
        }
      ],
      "orgNm": "MORGAN STANLEY",
      "orgPK": "149777",
      "regBeginDt": "2009-06-01T00:00:00",
      "regBeginDtSpecified": true,
      "regEndDt": "2013-11-14T00:00:00",
      "regEndDtSpecified": true
    }
  ],
  "EmpHss": [
    {
      "fromDt": "06/2004",
      "toDt": "10/2007",
      "orgNm": "A.G. EDWARDS & SONS, INC.",
      "city": "EUGENE",
      "state": 38,
      "stateSpecified": true
    },
    {
      "fromDt": "10/2007",
      "toDt": "06/2009",
      "orgNm": "MORGAN STANLEY & CO. INC.",
      "city": "PORTLAND",
      "state": 38,
      "stateSpecified": true
    },
    {
      "fromDt": "06/2009",
      "toDt": "10/2013",
      "orgNm": "MORGAN STANLEY",
      "city": "PORTLAND",
      "state": 38,
      "stateSpecified": true
    },
    {
      "fromDt": "10/2013",
      "toDt": null,
      "orgNm": "RAYMOND JAMES & ASSOCIATES, INC.",
      "city": "PORTLAND",
      "state": 38,
      "stateSpecified": true
    }
  ],
  "OthrBuss": {
    "OthrBus": {
      "desc": "(1) Risecx  Address: n/a,n/a, OR   Nature of the Business: Personal/Private Investment   Position/Title:   Investment Related:Yes   Start Date: 04/01/2016   Hours per month devoted to this business: 0   Hours per month devoted to this business during trading hours: 0   Description of duties: I am not involved in the operations of this entity.    (2) The Dyrt   Address: n/a,n/a, OR   Nature of the Business: Personal/Private Investment   Position/Title:   Investment Related:Yes   Start Date: 05/23/2016   Hours per month devoted to this business: 0   Hours per month devoted to this business during trading hours: 0   Description of duties: I am NOT involved in the operation of this entity"
    }
  },
  "DRPs": []
}