{
  "Info": {
    "lastNm": "ALMON",
    "firstNm": "ERIK",
    "midNm": "STEVEN",
    "sufNm": null,
    "indvlPK": "4811522",
    "actvAGReg": 1,
    "link": "http://www.adviserinfo.sec.gov/IAPD/Individual/4811522"
  },
  "OthrNms": [
    {
      "lastNm": "ALMON",
      "firstNm": "ERIC",
      "midNm": null,
      "sufNm": null
    }
  ],
  "CrntEmps": [
    {
      "CrntRgstns": [
        {
          "regAuth": 20,
          "regCat": 0,
          "st": 2,
          "stDt": "2015-01-22T00:00:00"
        },
        {
          "regAuth": 45,
          "regCat": 0,
          "st": 2,
          "stDt": "2015-03-17T00:00:00"
        }
      ],
      "BrnchOfLocs": [
        {
          "str1": "1653 BEACON STREET",
          "str2": null,
          "city": "BROOKLINE",
          "state": 20,
          "stateSpecified": true,
          "cntry": "United States",
          "postlCd": "02445"
        }
      ],
      "orgNm": "SOCIETY OF GROWNUPS, LLC",
      "orgPK": "171855",
      "str1": "1295 STATE STREET",
      "str2": null,
      "city": "SPRINGFIELD",
      "state": 20,
      "stateSpecified": true,
      "cntry": "United States",
      "postlCd": "01111-0001"
    }
  ],
  "Exms": [
    {
      "exmCd": 3,
      "exmNm": "Uniform Combined State Law Examination",
      "exmDt": "2004-08-16T00:00:00",
      "exmDtSpecified": true
    }
  ],
  "Dsgntns": [
    {
      "dsgntnNm": "Certified Financial Planner"
    }
  ],
  "PrevRgstns": [
    {
      "BrnchOfLocs": [
        {
          "city": "WELLESLEY HILLS",
          "state": 20,
          "stateSpecified": true
        }
      ],
      "orgNm": "MERRILL LYNCH, PIERCE, FENNER & SMITH INCORPORATED",
      "orgPK": "7691",
      "regBeginDt": "2006-06-07T00:00:00",
      "regBeginDtSpecified": true,
      "regEndDt": "2008-06-02T00:00:00",
      "regEndDtSpecified": true
    },
    {
      "BrnchOfLocs": [
        {
          "city": "CHICAGO",
          "state": 15,
          "stateSpecified": true
        }
      ],
      "orgNm": "ZACKS INVESTMENT MANAGEMENT, INC.",
      "orgPK": "110897",
      "regBeginDt": "2008-06-06T00:00:00",
      "regBeginDtSpecified": true,
      "regEndDt": "2009-01-22T00:00:00",
      "regEndDtSpecified": true
    },
    {
      "BrnchOfLocs": [
        {
          "city": "SHARON",
          "state": 20,
          "stateSpecified": true
        }
      ],
      "orgNm": "ALMON WEALTH ADVISORS, LLC",
      "orgPK": "161272",
      "regBeginDt": "2012-03-15T00:00:00",
      "regBeginDtSpecified": true,
      "regEndDt": "2015-01-05T00:00:00",
      "regEndDtSpecified": true
    }
  ],
  "EmpHss": [
    {
      "fromDt": "06/2006",
      "toDt": "06/2008",
      "orgNm": "MERRILL LYNCH, PIERCE, FENNER & SMITH INCORPORATED : 7691",
      "city": "WELLESLEY HILLS",
      "state": 20,
      "stateSpecified": true
    },
    {
      "fromDt": "06/2008",
      "toDt": "02/2009",
      "orgNm": "ZACKS INVESTMENT MANAGEMENT",
      "city": "CHICAGO",
      "state": 15,
      "stateSpecified": true
    },
    {
      "fromDt": "02/2009",
      "toDt": "04/2010",
      "orgNm": "INGENIX",
      "city": "PROVIDENCE",
      "state": 41,
      "stateSpecified": true
    },
    {
      "fromDt": "04/2010",
      "toDt": "06/2011",
      "orgNm": "COMPLIANCE 360",
      "city": "ATLANTA",
      "state": 10,
      "stateSpecified": true
    },
    {
      "fromDt": "06/2011",
      "toDt": "12/2011",
      "orgNm": "BABSON COLLEGE",
      "city": "WELLESLEY",
      "state": 20,
      "stateSpecified": true
    },
    {
      "fromDt": "01/2012",
      "toDt": "01/2015",
      "orgNm": "ALMON WEALTH ADVISORS, LLC",
      "city": "SHARON",
      "state": 20,
      "stateSpecified": true
    },
    {
      "fromDt": "01/2015",
      "toDt": null,
      "orgNm": "MASSACHUSETTS MUTUAL LIFE INSURANCE COMPANY",
      "city": "SPRINGFIELD",
      "state": 20,
      "stateSpecified": true
    },
    {
      "fromDt": "01/2015",
      "toDt": null,
      "orgNm": "SOCIETY OF GROWNUPS",
      "city": "SPRINGFIELD",
      "state": 20,
      "stateSpecified": true
    }
  ],
  "OthrBuss": {
    "OthrBus": null
  },
  "DRPs": []
}