{
  "Info": {
    "lastNm": "RUFFALO",
    "firstNm": "MATTHEW",
    "midNm": "RICHARD",
    "sufNm": null,
    "indvlPK": "4811555",
    "actvAGReg": 0,
    "link": "http://www.adviserinfo.sec.gov/IAPD/Individual/4811555"
  },
  "OthrNms": [
    {
      "lastNm": "RUFFALO",
      "firstNm": "MATTHEW",
      "midNm": null,
      "sufNm": null
    }
  ],
  "CrntEmps": [
    {
      "CrntRgstns": [
        {
          "regAuth": 39,
          "regCat": 0,
          "st": 2,
          "stDt": "2010-09-23T00:00:00"
        },
        {
          "regAuth": 45,
          "regCat": 0,
          "st": 3,
          "stDt": "2014-02-12T00:00:00"
        }
      ],
      "BrnchOfLocs": [
        {
          "str1": "1 PPG PLACE",
          "str2": "SUITE 1300",
          "city": "PITTSBURGH",
          "state": 39,
          "stateSpecified": true,
          "cntry": "United States",
          "postlCd": "15222"
        }
      ],
      "orgNm": "MORGAN STANLEY",
      "orgPK": "149777",
      "str1": "2000 WESTCHESTER AVENUE",
      "str2": null,
      "city": "PURCHASE",
      "state": 35,
      "stateSpecified": true,
      "cntry": "United States",
      "postlCd": "10577-2530"
    }
  ],
  "Exms": [
    {
      "exmCd": 3,
      "exmNm": "Uniform Combined State Law Examination",
      "exmDt": "2004-08-26T00:00:00",
      "exmDtSpecified": true
    }
  ],
  "Dsgntns": [],
  "PrevRgstns": [],
  "EmpHss": [
    {
      "fromDt": "06/2004",
      "toDt": "04/2007",
      "orgNm": "MORGAN STANLEY DW INC",
      "city": "PITTSBURGH",
      "state": 39,
      "stateSpecified": true
    },
    {
      "fromDt": "04/2007",
      "toDt": null,
      "orgNm": "MORGAN STANLEY & CO., INCORPORATED",
      "city": "PITTSBURG",
      "state": 39,
      "stateSpecified": true
    },
    {
      "fromDt": "06/2009",
      "toDt": null,
      "orgNm": "MORGAN STANLEY SMITH BARNEY",
      "city": "PITTSBURG",
      "state": 39,
      "stateSpecified": true
    }
  ],
  "OthrBuss": {
    "OthrBus": null
  },
  "DRPs": []
}