{
  "Info": {
    "lastNm": "KHAMSONE",
    "firstNm": "NOI",
    "midNm": null,
    "sufNm": null,
    "indvlPK": "4813363",
    "actvAGReg": 0,
    "link": "http://www.adviserinfo.sec.gov/IAPD/Individual/4813363"
  },
  "OthrNms": [],
  "CrntEmps": [
    {
      "CrntRgstns": [
        {
          "regAuth": 4,
          "regCat": 0,
          "st": 2,
          "stDt": "2012-06-07T00:00:00"
        }
      ],
      "BrnchOfLocs": [
        {
          "str1": "265 E. RIVER PARK CIRCLE",
          "str2": "SUITE #170",
          "city": "FRESNO",
          "state": 4,
          "stateSpecified": true,
          "cntry": "United States",
          "postlCd": "93720-1548"
        }
      ],
      "orgNm": "CHARLES SCHWAB & CO., INC.",
      "orgPK": "5393",
      "str1": "211 MAIN STREET",
      "str2": null,
      "city": "SAN FRANCISCO",
      "state": 4,
      "stateSpecified": true,
      "cntry": "United States",
      "postlCd": "94105"
    }
  ],
  "Exms": [
    {
      "exmCd": 0,
      "exmNm": "Uniform Securities Agent State Law Examination",
      "exmDt": "2004-10-13T00:00:00",
      "exmDtSpecified": true
    },
    {
      "exmCd": 3,
      "exmNm": "Uniform Combined State Law Examination",
      "exmDt": "2007-07-17T00:00:00",
      "exmDtSpecified": true
    }
  ],
  "Dsgntns": [],
  "PrevRgstns": [
    {
      "BrnchOfLocs": [
        {
          "city": "FRESNO",
          "state": 4,
          "stateSpecified": true
        }
      ],
      "orgNm": "BANC OF AMERICA INVESTMENT SERVICES, INC.",
      "orgPK": "16361",
      "regBeginDt": "2007-07-18T00:00:00",
      "regBeginDtSpecified": true,
      "regEndDt": "2009-10-23T00:00:00",
      "regEndDtSpecified": true
    },
    {
      "BrnchOfLocs": [
        {
          "city": "FRESNO",
          "state": 4,
          "stateSpecified": true
        },
        {
          "city": "FRESNO",
          "state": 4,
          "stateSpecified": true
        },
        {
          "city": "ROSEVILLE",
          "state": 4,
          "stateSpecified": true
        }
      ],
      "orgNm": "MERRILL LYNCH, PIERCE, FENNER & SMITH INCORPORATED",
      "orgPK": "7691",
      "regBeginDt": "2009-10-23T00:00:00",
      "regBeginDtSpecified": true,
      "regEndDt": "2012-05-21T00:00:00",
      "regEndDtSpecified": true
    }
  ],
  "EmpHss": [
    {
      "fromDt": "05/2004",
      "toDt": "01/2007",
      "orgNm": "NEW YORK LIFE",
      "city": "FRESNO",
      "state": 4,
      "stateSpecified": true
    },
    {
      "fromDt": "07/2004",
      "toDt": "01/2007",
      "orgNm": "NYLIFE SECURITIES",
      "city": "FRESNO",
      "state": 4,
      "stateSpecified": true
    },
    {
      "fromDt": "01/2007",
      "toDt": "09/2009",
      "orgNm": "BANC OF AMERICA INVESTMENT SERVICES, INC.",
      "city": "FRESNO",
      "state": 4,
      "stateSpecified": true
    },
    {
      "fromDt": "10/2009",
      "toDt": "05/2012",
      "orgNm": "MERRILL LYNCH, PIERCE, FENNER & SMITH INCORPORATED",
      "city": "FRESNO",
      "state": 4,
      "stateSpecified": true
    },
    {
      "fromDt": "05/2012",
      "toDt": null,
      "orgNm": "CHARLES SCHWAB & CO., INC",
      "city": "FRESNO",
      "state": 4,
      "stateSpecified": true
    },
    {
      "fromDt": "05/2012",
      "toDt": null,
      "orgNm": "CHARLES SCHWAB BANK",
      "city": "FRESNO",
      "state": 4,
      "stateSpecified": true
    }
  ],
  "OthrBuss": {
    "OthrBus": {
      "desc": "HAS A SECOND HOME THAT HE USES AS RENTAL PROPERTY.  MY RENTER PAY ME $900 PER MONTH FOR RENT.  I PAY $1100 IN MORTGAGE, INSURANCE AND PROPERTY TAX COMBINED.  MY RENTAL PROPERTY ADDRESS IS 5389 E. LAMONA AVE  FRESNO,CA  93727. I OWNED IT SINCE JUNE 2004.  (2)05/21/2012 CHARLES SCHWAB BANK, CITY AND STATE. INVESTMENT RELATED, BANK PRODUCTS, DUAL EMPLOYEE, REFERRALS OF HELOC, MORTGAGES, INVESTOR CHECKING PRODUCTS AND CREDIT CARDS FOR APPROXIMATELY 20 HOURS PER MONTH DURING TRADING HOURS. FRESNO, CA"
    }
  },
  "DRPs": [
    {
      "hasRegAction": 1,
      "hasRegActionSpecified": true,
      "hasCriminal": 1,
      "hasCriminalSpecified": true,
      "hasBankrupt": 0,
      "hasBankruptSpecified": true,
      "hasCivilJudc": 1,
      "hasCivilJudcSpecified": true,
      "hasBond": 1,
      "hasBondSpecified": true,
      "hasJudgment": 1,
      "hasJudgmentSpecified": true,
      "hasInvstgn": 1,
      "hasInvstgnSpecified": true,
      "hasCustComp": 1,
      "hasCustCompSpecified": true,
      "hasTermination": 1,
      "hasTerminationSpecified": true
    }
  ]
}