{
  "Info": {
    "lastNm": "HOOD",
    "firstNm": "HOLLY",
    "midNm": "LYNN",
    "sufNm": null,
    "indvlPK": "4816806",
    "actvAGReg": 0,
    "link": "http://www.adviserinfo.sec.gov/IAPD/Individual/4816806"
  },
  "OthrNms": [
    {
      "lastNm": "HOOD",
      "firstNm": "HOLLY",
      "midNm": null,
      "sufNm": null
    },
    {
      "lastNm": "KOCH",
      "firstNm": "HOLLY",
      "midNm": "LYNN",
      "sufNm": null
    }
  ],
  "CrntEmps": [
    {
      "CrntRgstns": [
        {
          "regAuth": 45,
          "regCat": 0,
          "st": 2,
          "stDt": "2015-04-17T00:00:00"
        },
        {
          "regAuth": 49,
          "regCat": 0,
          "st": 2,
          "stDt": "2015-04-17T00:00:00"
        }
      ],
      "BrnchOfLocs": [
        {
          "str1": "2902 COLBY AVENUE",
          "str2": null,
          "city": "EVERETT",
          "state": 49,
          "stateSpecified": true,
          "cntry": "United States",
          "postlCd": "98201"
        }
      ],
      "orgNm": "UBS FINANCIAL SERVICES INC.",
      "orgPK": "8174",
      "str1": "1200 HARBOR BOULEVARD",
      "str2": null,
      "city": "WEEHAWKEN",
      "state": 32,
      "stateSpecified": true,
      "cntry": "United States",
      "postlCd": "07086"
    }
  ],
  "Exms": [
    {
      "exmCd": 3,
      "exmNm": "Uniform Combined State Law Examination",
      "exmDt": "2004-10-08T00:00:00",
      "exmDtSpecified": true
    }
  ],
  "Dsgntns": [],
  "PrevRgstns": [
    {
      "BrnchOfLocs": [
        {
          "city": "BELLINGHAM",
          "state": 49,
          "stateSpecified": true
        },
        {
          "city": "BELLINGHAM",
          "state": 49,
          "stateSpecified": true
        },
        {
          "city": "EVERETT",
          "state": 49,
          "stateSpecified": true
        }
      ],
      "orgNm": "MERRILL LYNCH, PIERCE, FENNER & SMITH INCORPORATED",
      "orgPK": "7691",
      "regBeginDt": "2004-10-11T00:00:00",
      "regBeginDtSpecified": true,
      "regEndDt": "2015-04-20T00:00:00",
      "regEndDtSpecified": true
    }
  ],
  "EmpHss": [
    {
      "fromDt": "08/2001",
      "toDt": "04/2015",
      "orgNm": "MERRILL LYNCH, PIERCE, FENNER & SMITH INCORPORATED",
      "city": "BELLINGHAM",
      "state": 49,
      "stateSpecified": true
    },
    {
      "fromDt": "04/2015",
      "toDt": null,
      "orgNm": "UBS FINANCIAL SERVICES INC.",
      "city": "EVERETT",
      "state": 49,
      "stateSpecified": true
    }
  ],
  "OthrBuss": {
    "OthrBus": null
  },
  "DRPs": []
}