{
  "Info": {
    "lastNm": "KAUFMAN",
    "firstNm": "KELLY",
    "midNm": "HUGHES",
    "sufNm": null,
    "indvlPK": "4818016",
    "actvAGReg": 1,
    "link": "http://www.adviserinfo.sec.gov/IAPD/Individual/4818016"
  },
  "OthrNms": [
    {
      "lastNm": "HUGHES",
      "firstNm": "KELLY",
      "midNm": "M",
      "sufNm": null
    },
    {
      "lastNm": "HUGHES",
      "firstNm": "KELLY",
      "midNm": "MARIE",
      "sufNm": null
    }
  ],
  "CrntEmps": [
    {
      "CrntRgstns": [
        {
          "regAuth": 16,
          "regCat": 0,
          "st": 2,
          "stDt": "2012-06-08T00:00:00"
        }
      ],
      "BrnchOfLocs": [
        {
          "str1": "9775 CROSSPOINT BLVD.",
          "str2": "SUITE 110",
          "city": "INDIANAPOLIS",
          "state": 16,
          "stateSpecified": true,
          "cntry": "United States",
          "postlCd": "46256"
        }
      ],
      "orgNm": "AVALON WEALTH ADVISORY, INC.",
      "orgPK": "114311",
      "str1": "9775 CROSSPOINT BLVD.",
      "str2": "SUITE 110",
      "city": "INDIANAPOLIS",
      "state": 16,
      "stateSpecified": true,
      "cntry": "United States",
      "postlCd": "46256"
    }
  ],
  "Exms": [
    {
      "exmCd": 0,
      "exmNm": "Uniform Securities Agent State Law Examination",
      "exmDt": "2005-01-17T00:00:00",
      "exmDtSpecified": true
    }
  ],
  "Dsgntns": [
    {
      "dsgntnNm": "Certified Financial Planner"
    }
  ],
  "PrevRgstns": [],
  "EmpHss": [
    {
      "fromDt": "11/2004",
      "toDt": "06/2007",
      "orgNm": "NORTHWESTERN MUTUAL INVESTMENT SERVICES, LLC",
      "city": "INDIANAPOLIS",
      "state": 16,
      "stateSpecified": true
    },
    {
      "fromDt": "07/2005",
      "toDt": "06/2007",
      "orgNm": "NORTHWESTERN MUTUAL LIFE INSURANCE COMPANY",
      "city": "INDIANAPOLIS",
      "state": 16,
      "stateSpecified": true
    },
    {
      "fromDt": "06/2007",
      "toDt": null,
      "orgNm": "AVALON WEALTH ADVISORY",
      "city": "INDIANAPOLIS",
      "state": 16,
      "stateSpecified": true
    }
  ],
  "OthrBuss": {
    "OthrBus": null
  },
  "DRPs": []
}