{
  "Info": {
    "lastNm": "GOOLD",
    "firstNm": "MICHAEL",
    "midNm": "RAYMOND",
    "sufNm": null,
    "indvlPK": "4820084",
    "actvAGReg": 0,
    "link": "http://www.adviserinfo.sec.gov/IAPD/Individual/4820084"
  },
  "OthrNms": [
    {
      "lastNm": "GOOLD",
      "firstNm": "MICHAEL",
      "midNm": null,
      "sufNm": null
    }
  ],
  "CrntEmps": [
    {
      "CrntRgstns": [
        {
          "regAuth": 39,
          "regCat": 0,
          "st": 2,
          "stDt": "2013-12-05T00:00:00"
        }
      ],
      "BrnchOfLocs": [
        {
          "str1": "1650 MARKET STREET, ONE LIBERTY PLACE",
          "str2": "SUITE 1200",
          "city": "PHILADELPHIA",
          "state": 39,
          "stateSpecified": true,
          "cntry": "United States",
          "postlCd": "19103"
        }
      ],
      "orgNm": "GLENMEDE INVESTMENT MANAGEMENT, LP",
      "orgPK": "108165",
      "str1": "1650 MARKET STREET, ONE LIBERTY PLACE",
      "str2": "SUITE 1200",
      "city": "PHILADELPHIA",
      "state": 39,
      "stateSpecified": true,
      "cntry": "United States",
      "postlCd": "19103"
    }
  ],
  "Exms": [
    {
      "exmCd": 0,
      "exmNm": "Uniform Securities Agent State Law Examination",
      "exmDt": "2004-11-05T00:00:00",
      "exmDtSpecified": true
    },
    {
      "exmCd": 2,
      "exmNm": "Uniform Investment Adviser Law Examination",
      "exmDt": "2013-06-06T00:00:00",
      "exmDtSpecified": true
    }
  ],
  "Dsgntns": [],
  "PrevRgstns": [
    {
      "BrnchOfLocs": [
        {
          "city": "OAKS",
          "state": 39,
          "stateSpecified": true
        }
      ],
      "orgNm": "SEI INVESTMENTS MANAGEMENT CORP",
      "orgPK": "105146",
      "regBeginDt": "2013-06-07T00:00:00",
      "regBeginDtSpecified": true,
      "regEndDt": "2013-11-06T00:00:00",
      "regEndDtSpecified": true
    }
  ],
  "EmpHss": [
    {
      "fromDt": "11/2005",
      "toDt": "03/2008",
      "orgNm": "DEAM INVESTOR SERVICES",
      "city": "NEW YORK",
      "state": 35,
      "stateSpecified": true
    },
    {
      "fromDt": "03/2008",
      "toDt": "08/2011",
      "orgNm": "SENTINEL FINANCIAL SERVICES COMPANY",
      "city": "MONTPELIER",
      "state": 48,
      "stateSpecified": true
    },
    {
      "fromDt": "09/2011",
      "toDt": "12/2011",
      "orgNm": "CAUSEWAY CAPITAL MANAGEMENT LLC",
      "city": "HAVERFORD",
      "state": 39,
      "stateSpecified": true
    },
    {
      "fromDt": "09/2011",
      "toDt": "12/2011",
      "orgNm": "FORESIDE FUND SERVICES, LLC",
      "city": "HAVERFORD",
      "state": 39,
      "stateSpecified": true
    },
    {
      "fromDt": "01/2012",
      "toDt": "01/2012",
      "orgNm": "UNEMPLOYED",
      "city": "HAVERTOWN",
      "state": 39,
      "stateSpecified": true
    },
    {
      "fromDt": "02/2012",
      "toDt": "10/2013",
      "orgNm": "SEI INVESTMENTS DISTRIBUTION CO",
      "city": "OAKS",
      "state": 39,
      "stateSpecified": true
    },
    {
      "fromDt": "02/2013",
      "toDt": "10/2013",
      "orgNm": "SEI INVESTMENT MANAGEMENT CO.",
      "city": "OAKS",
      "state": 39,
      "stateSpecified": true
    },
    {
      "fromDt": "10/2013",
      "toDt": null,
      "orgNm": "GLENMEDE",
      "city": "PHILADELPHIA",
      "state": 39,
      "stateSpecified": true
    },
    {
      "fromDt": "11/2013",
      "toDt": null,
      "orgNm": "QUASAR DISTIBUTORS, LLC",
      "city": "MILWAUKEE",
      "state": 50,
      "stateSpecified": true
    }
  ],
  "OthrBuss": {
    "OthrBus": null
  },
  "DRPs": []
}