{
  "Info": {
    "lastNm": "KELTNER",
    "firstNm": "COREY",
    "midNm": "BRENT",
    "sufNm": null,
    "indvlPK": "4826008",
    "actvAGReg": 0,
    "link": "http://www.adviserinfo.sec.gov/IAPD/Individual/4826008"
  },
  "OthrNms": [],
  "CrntEmps": [
    {
      "CrntRgstns": [
        {
          "regAuth": 44,
          "regCat": 0,
          "st": 2,
          "stDt": "2011-08-23T00:00:00"
        }
      ],
      "BrnchOfLocs": [
        {
          "str1": "9729 COGDILL RD",
          "str2": "SUITE 301",
          "city": "KNOXVILLE",
          "state": 44,
          "stateSpecified": true,
          "cntry": "United States",
          "postlCd": "37932"
        }
      ],
      "orgNm": "SSN ADVISORY, INC.",
      "orgPK": "126090",
      "str1": "9729 COGDILL ROAD",
      "str2": "SUITE 301",
      "city": "KNOXVILLE",
      "state": 44,
      "stateSpecified": true,
      "cntry": "United States",
      "postlCd": "37932"
    }
  ],
  "Exms": [
    {
      "exmCd": 3,
      "exmNm": "Uniform Combined State Law Examination",
      "exmDt": "2004-11-15T00:00:00",
      "exmDtSpecified": true
    }
  ],
  "Dsgntns": [
    {
      "dsgntnNm": "Certified Financial Planner"
    }
  ],
  "PrevRgstns": [
    {
      "BrnchOfLocs": [
        {
          "city": "KNOXVILLE",
          "state": 44,
          "stateSpecified": true
        }
      ],
      "orgNm": "SSN ADVISORY, INC.",
      "orgPK": "126090",
      "regBeginDt": "2005-03-30T00:00:00",
      "regBeginDtSpecified": true,
      "regEndDt": "2010-03-23T00:00:00",
      "regEndDtSpecified": true
    },
    {
      "BrnchOfLocs": [
        {
          "city": "KNOXVILLE",
          "state": 44,
          "stateSpecified": true
        }
      ],
      "orgNm": "PLANNED AHEAD",
      "orgPK": "153508",
      "regBeginDt": "2010-09-30T00:00:00",
      "regBeginDtSpecified": true,
      "regEndDt": "2011-06-16T00:00:00",
      "regEndDtSpecified": true
    }
  ],
  "EmpHss": [
    {
      "fromDt": "12/2003",
      "toDt": "04/2010",
      "orgNm": "SECURITIES SERVICE NETWORK",
      "city": "KNOXVILLE",
      "state": 44,
      "stateSpecified": true
    },
    {
      "fromDt": "03/2005",
      "toDt": "04/2010",
      "orgNm": "SSN ADVISORY, INC.",
      "city": "KNOXVILLE",
      "state": 44,
      "stateSpecified": true
    },
    {
      "fromDt": "04/2010",
      "toDt": "06/2011",
      "orgNm": "PLANNED AHEAD",
      "city": "KNOXVILLE",
      "state": 44,
      "stateSpecified": true
    },
    {
      "fromDt": "06/2011",
      "toDt": null,
      "orgNm": "SECURITIES SERVICE NETWORK",
      "city": "KNOXVILLE",
      "state": 44,
      "stateSpecified": true
    },
    {
      "fromDt": "06/2011",
      "toDt": null,
      "orgNm": "SSN ADVISORY, INC",
      "city": "KNOXVILLE",
      "state": 44,
      "stateSpecified": true
    }
  ],
  "OthrBuss": {
    "OthrBus": null
  },
  "DRPs": []
}