{
  "Info": {
    "lastNm": "GOBLET",
    "firstNm": "JOHN",
    "midNm": "D.",
    "sufNm": "JR.",
    "indvlPK": "4827123",
    "actvAGReg": 0,
    "link": "http://www.adviserinfo.sec.gov/IAPD/Individual/4827123"
  },
  "OthrNms": [],
  "CrntEmps": [
    {
      "CrntRgstns": [
        {
          "regAuth": 15,
          "regCat": 0,
          "st": 2,
          "stDt": "2012-10-01T00:00:00"
        }
      ],
      "BrnchOfLocs": [
        {
          "str1": "520 DUNHAM ROAD",
          "str2": null,
          "city": "ST. CHARLES",
          "state": 15,
          "stateSpecified": true,
          "cntry": "United States",
          "postlCd": "60174"
        }
      ],
      "orgNm": "J.P. MORGAN SECURITIES LLC",
      "orgPK": "79",
      "str1": "277 PARK AVENUE",
      "str2": null,
      "city": "NEW YORK",
      "state": 35,
      "stateSpecified": true,
      "cntry": "United States",
      "postlCd": "10172"
    }
  ],
  "Exms": [
    {
      "exmCd": 0,
      "exmNm": "Uniform Securities Agent State Law Examination",
      "exmDt": "2004-08-18T00:00:00",
      "exmDtSpecified": true
    },
    {
      "exmCd": 3,
      "exmNm": "Uniform Combined State Law Examination",
      "exmDt": "2008-06-16T00:00:00",
      "exmDtSpecified": true
    }
  ],
  "Dsgntns": [],
  "PrevRgstns": [
    {
      "BrnchOfLocs": [
        {
          "city": "BATAVIA",
          "state": 15,
          "stateSpecified": true
        },
        {
          "city": "BATAVIA",
          "state": 15,
          "stateSpecified": true
        },
        {
          "city": "CHICAGO",
          "state": 15,
          "stateSpecified": true
        },
        {
          "city": "ST. CHARLES",
          "state": 15,
          "stateSpecified": true
        },
        {
          "city": "ST. CHARLES",
          "state": 15,
          "stateSpecified": true
        },
        {
          "city": "WHEATON",
          "state": 15,
          "stateSpecified": true
        }
      ],
      "orgNm": "CHASE INVESTMENT SERVICES CORP.",
      "orgPK": "25574",
      "regBeginDt": "2008-06-23T00:00:00",
      "regBeginDtSpecified": true,
      "regEndDt": "2012-10-01T00:00:00",
      "regEndDtSpecified": true
    }
  ],
  "EmpHss": [
    {
      "fromDt": "07/2005",
      "toDt": "10/2012",
      "orgNm": "CHASE INVESTMENT SERVICES CORP.",
      "city": "CHICAGO",
      "state": 15,
      "stateSpecified": true
    },
    {
      "fromDt": "10/2012",
      "toDt": null,
      "orgNm": "J.P. MORGAN SECURITIES LLC",
      "city": "ST. CHARLES",
      "state": 15,
      "stateSpecified": true
    }
  ],
  "OthrBuss": {
    "OthrBus": null
  },
  "DRPs": []
}