{
  "Info": {
    "lastNm": "MCLETCHIE",
    "firstNm": "CHARLES",
    "midNm": "L.",
    "sufNm": null,
    "indvlPK": "4829933",
    "actvAGReg": 0,
    "link": "http://www.adviserinfo.sec.gov/IAPD/Individual/4829933"
  },
  "OthrNms": [],
  "CrntEmps": [
    {
      "CrntRgstns": [
        {
          "regAuth": 20,
          "regCat": 0,
          "st": 2,
          "stDt": "2016-06-27T00:00:00"
        }
      ],
      "BrnchOfLocs": [
        {
          "str1": "238 MAIN STREET",
          "str2": null,
          "city": "CAMBRIDGE",
          "state": 20,
          "stateSpecified": true,
          "cntry": "United States",
          "postlCd": "02142"
        }
      ],
      "orgNm": "STRATEGIC ADVISERS, INC.",
      "orgPK": "104555",
      "str1": "245 SUMMER STREET, V10G",
      "str2": null,
      "city": "BOSTON",
      "state": 20,
      "stateSpecified": true,
      "cntry": "United States",
      "postlCd": "02210"
    }
  ],
  "Exms": [
    {
      "exmCd": 0,
      "exmNm": "Uniform Securities Agent State Law Examination",
      "exmDt": "2004-09-02T00:00:00",
      "exmDtSpecified": true
    },
    {
      "exmCd": 2,
      "exmNm": "Uniform Investment Adviser Law Examination",
      "exmDt": "2016-06-20T00:00:00",
      "exmDtSpecified": true
    }
  ],
  "Dsgntns": [],
  "PrevRgstns": [],
  "EmpHss": [
    {
      "fromDt": "06/2004",
      "toDt": null,
      "orgNm": "FIDELITY BROKERAGE SERVICES",
      "city": "MERRIMACK",
      "state": 31,
      "stateSpecified": true
    }
  ],
  "OthrBuss": {
    "OthrBus": null
  },
  "DRPs": []
}