{
  "Info": {
    "lastNm": "CAMPANA",
    "firstNm": "COLLEEN",
    "midNm": "ANN",
    "sufNm": null,
    "indvlPK": "4832631",
    "actvAGReg": 0,
    "link": "http://www.adviserinfo.sec.gov/IAPD/Individual/4832631"
  },
  "OthrNms": [
    {
      "lastNm": "WESTERVELT",
      "firstNm": "COLLEEN",
      "midNm": "ANN",
      "sufNm": null
    }
  ],
  "CrntEmps": [
    {
      "CrntRgstns": [
        {
          "regAuth": 32,
          "regCat": 0,
          "st": 2,
          "stDt": "2007-01-30T00:00:00"
        }
      ],
      "BrnchOfLocs": [
        {
          "str1": "100 PASSAIC AVE",
          "str2": null,
          "city": "FAIRFIELD",
          "state": 32,
          "stateSpecified": true,
          "cntry": "United States",
          "postlCd": "07004"
        },
        {
          "str1": "100 PASSAIC AVENUE",
          "str2": null,
          "city": "FAIRFIELD",
          "state": 32,
          "stateSpecified": true,
          "cntry": "UNITED STATES",
          "postlCd": "07004"
        },
        {
          "str1": "100 PASSAIC AVENUE",
          "str2": null,
          "city": "FAIRFIELD",
          "state": 32,
          "stateSpecified": true,
          "cntry": "United States",
          "postlCd": "07004"
        }
      ],
      "orgNm": "FINANCIAL NORTHEASTERN SECURITIES, INC.",
      "orgPK": "17007",
      "str1": "100 PASSAIC AVENUE",
      "str2": "ONE GREENBROOK CORPORATE CENTER",
      "city": "FAIRFIELD",
      "state": 32,
      "stateSpecified": true,
      "cntry": "United States",
      "postlCd": "07004"
    }
  ],
  "Exms": [
    {
      "exmCd": 3,
      "exmNm": "Uniform Combined State Law Examination",
      "exmDt": "2005-02-01T00:00:00",
      "exmDtSpecified": true
    }
  ],
  "Dsgntns": [],
  "PrevRgstns": [],
  "EmpHss": [
    {
      "fromDt": "07/2004",
      "toDt": null,
      "orgNm": "FINANCIAL NORTHEASTERN SECURITIES",
      "city": "FAIRFIELD",
      "state": 32,
      "stateSpecified": true
    }
  ],
  "OthrBuss": {
    "OthrBus": null
  },
  "DRPs": []
}