{
  "Info": {
    "lastNm": "FAGO",
    "firstNm": "DARREN",
    "midNm": "DANIEL",
    "sufNm": null,
    "indvlPK": "4834536",
    "actvAGReg": 1,
    "link": "http://www.adviserinfo.sec.gov/IAPD/Individual/4834536"
  },
  "OthrNms": [],
  "CrntEmps": [
    {
      "CrntRgstns": [
        {
          "regAuth": 15,
          "regCat": 0,
          "st": 2,
          "stDt": "2004-08-05T00:00:00"
        },
        {
          "regAuth": 16,
          "regCat": 0,
          "st": 2,
          "stDt": "2004-08-05T00:00:00"
        },
        {
          "regAuth": 50,
          "regCat": 0,
          "st": 2,
          "stDt": "2004-08-05T00:00:00"
        }
      ],
      "BrnchOfLocs": [
        {
          "str1": "4450 WEAVER PARKWAY, SUITE 250",
          "str2": null,
          "city": "WARRENVILLE",
          "state": 15,
          "stateSpecified": true,
          "cntry": "United States",
          "postlCd": "60555"
        }
      ],
      "orgNm": "BALANCE SHEET SOLUTIONS LLC",
      "orgPK": "124786",
      "str1": "184 SHUMAN BLVD",
      "str2": "SUITE 400",
      "city": "NAPERVILLE",
      "state": 15,
      "stateSpecified": true,
      "cntry": "United States",
      "postlCd": "60563"
    }
  ],
  "Exms": [],
  "Dsgntns": [
    {
      "dsgntnNm": "Chartered Financial Analyst"
    }
  ],
  "PrevRgstns": [],
  "EmpHss": [
    {
      "fromDt": "07/2006",
      "toDt": null,
      "orgNm": "BALANCE SHEET SOLUTIONS LLC",
      "city": "WARRENVILLE",
      "state": 15,
      "stateSpecified": true
    }
  ],
  "OthrBuss": {
    "OthrBus": null
  },
  "DRPs": []
}