{
  "Info": {
    "lastNm": "SABLE",
    "firstNm": "BRIAN",
    "midNm": "DAVID",
    "sufNm": null,
    "indvlPK": "4841692",
    "actvAGReg": 0,
    "link": "http://www.adviserinfo.sec.gov/IAPD/Individual/4841692"
  },
  "OthrNms": [],
  "CrntEmps": [
    {
      "CrntRgstns": [
        {
          "regAuth": 32,
          "regCat": 0,
          "st": 2,
          "stDt": "2012-11-28T00:00:00"
        },
        {
          "regAuth": 45,
          "regCat": 0,
          "st": 3,
          "stDt": "2013-03-06T00:00:00"
        }
      ],
      "BrnchOfLocs": [
        {
          "str1": "709 WESTCHESTER AVENUE",
          "str2": null,
          "city": "WHITE PLAINS",
          "state": 35,
          "stateSpecified": true,
          "cntry": "United States",
          "postlCd": "10604"
        }
      ],
      "orgNm": "UBS FINANCIAL SERVICES INC.",
      "orgPK": "8174",
      "str1": "1200 HARBOR BOULEVARD",
      "str2": null,
      "city": "WEEHAWKEN",
      "state": 32,
      "stateSpecified": true,
      "cntry": "United States",
      "postlCd": "07086"
    }
  ],
  "Exms": [
    {
      "exmCd": 3,
      "exmNm": "Uniform Combined State Law Examination",
      "exmDt": "2005-08-18T00:00:00",
      "exmDtSpecified": true
    }
  ],
  "Dsgntns": [],
  "PrevRgstns": [
    {
      "BrnchOfLocs": [
        {
          "city": "WHITE PLAINS",
          "state": 35,
          "stateSpecified": true
        }
      ],
      "orgNm": "MERRILL LYNCH, PIERCE, FENNER & SMITH INCORPORATED",
      "orgPK": "7691",
      "regBeginDt": "2006-03-31T00:00:00",
      "regBeginDtSpecified": true,
      "regEndDt": "2012-11-27T00:00:00",
      "regEndDtSpecified": true
    }
  ],
  "EmpHss": [
    {
      "fromDt": "01/2006",
      "toDt": "11/2012",
      "orgNm": "MERRILL LYNCH, PIERCE, FENNER & SMITH INCORPORATED : 7691",
      "city": "WHITE PLAINS",
      "state": 35,
      "stateSpecified": true
    },
    {
      "fromDt": "11/2012",
      "toDt": null,
      "orgNm": "UBS FINANCIAL SERVICES INC.",
      "city": "WHITE PLAINS",
      "state": 35,
      "stateSpecified": true
    }
  ],
  "OthrBuss": {
    "OthrBus": {
      "desc": "163 SOUTH COMPO LLC / 155 OLD KINGS HIGHWAY DARIEN,CT 06820 / PARTNERSHIP/ REAL ESTATE  / BLDG HOUSE FOR SALE / PARTNER /START DATE 8/22/2014"
    }
  },
  "DRPs": []
}