{
  "Info": {
    "lastNm": "WILLIAMS",
    "firstNm": "CHAD",
    "midNm": "SPENCER",
    "sufNm": null,
    "indvlPK": "4847710",
    "actvAGReg": 0,
    "link": "http://www.adviserinfo.sec.gov/IAPD/Individual/4847710"
  },
  "OthrNms": [],
  "CrntEmps": [
    {
      "CrntRgstns": [
        {
          "regAuth": 10,
          "regCat": 0,
          "st": 2,
          "stDt": "2006-11-20T00:00:00"
        },
        {
          "regAuth": 4,
          "regCat": 0,
          "st": 2,
          "stDt": "2011-01-24T00:00:00"
        },
        {
          "regAuth": 28,
          "regCat": 0,
          "st": 2,
          "stDt": "2016-03-04T00:00:00"
        },
        {
          "regAuth": 42,
          "regCat": 0,
          "st": 2,
          "stDt": "2016-03-07T00:00:00"
        },
        {
          "regAuth": 1,
          "regCat": 0,
          "st": 2,
          "stDt": "2016-06-14T00:00:00"
        },
        {
          "regAuth": 45,
          "regCat": 0,
          "st": 2,
          "stDt": "2016-06-14T00:00:00"
        }
      ],
      "BrnchOfLocs": [
        {
          "str1": "2440 SANDY PLAINS RD",
          "str2": "BLDG 23",
          "city": "MARIETTA",
          "state": 10,
          "stateSpecified": true,
          "cntry": "United States",
          "postlCd": "30066"
        }
      ],
      "orgNm": "INVEST FINANCIAL CORPORATION",
      "orgPK": "12984",
      "str1": "12750 CITRUS PARK LANE",
      "str2": "SUITE 300",
      "city": "TAMPA",
      "state": 9,
      "stateSpecified": true,
      "cntry": "United States",
      "postlCd": "33625"
    }
  ],
  "Exms": [
    {
      "exmCd": 3,
      "exmNm": "Uniform Combined State Law Examination",
      "exmDt": "2006-11-14T00:00:00",
      "exmDtSpecified": true
    }
  ],
  "Dsgntns": [],
  "PrevRgstns": [],
  "EmpHss": [
    {
      "fromDt": "08/2002",
      "toDt": null,
      "orgNm": "INVEST FINANCIAL CORP",
      "city": "Tampa",
      "state": 9,
      "stateSpecified": true
    }
  ],
  "OthrBuss": {
    "OthrBus": {
      "desc": "GBW LLC. NOT INVESTMENT RELATED. 448 HURT RD SW. FAMILY BUSINESS. GENERAL PARTNER. START 05/16/11. 10+ HPM/ 0 DURING TRADING. INVOLVED IN HORSE BOARDING, FISHING AND REAL ESTATE.  2) UNITED HEALTH CARE, YES INVESTMENT RELATED, 1298 CONCORD ROAD SMYRNA GA 30080, HEALTH INSURANCE SALES, AGENT, START 8/1/2012, WORK WITH INVEST CLIENTS SELLING HEALTH INSURANCE, 5 HPM, 5 HRS TRADING. 3)AIMC, YES INVESTMENT RELATED, MEDICARE SUPPLEMENTAL INSURANCE, INSURANCE AGENT, START DATE 04/01/2014, BE APPOINTED TO SELL MEDICARE SUPPLEMENTAL POLICIES THRU CENTRAL STATES INDEMENITY & MANHATTAN LIFE INS COMPANIES, 5 HPM, 5 HRS TRADING.  4) RENTAL PROPERTY; INVESTMENT RELATED; LANDLORD- START DATE 5/1/2015; RENTAL PROPERTIES LOCATED AT 1979 JUDY CIRCLE & 3558 LAKESHORE DRIVE; COLLECT RENT, PAY FOR REPAIRS/PROPERTY TAX/INSURANCE; 5 HPM, 0 HPM DURING TRADING."
    }
  },
  "DRPs": []
}