{
  "Info": {
    "lastNm": "MARVIN",
    "firstNm": "ERIC",
    "midNm": "MATTHEW",
    "sufNm": null,
    "indvlPK": "4856310",
    "actvAGReg": 1,
    "link": "http://www.adviserinfo.sec.gov/IAPD/Individual/4856310"
  },
  "OthrNms": [
    {
      "lastNm": "MARVIN",
      "firstNm": "ERIC",
      "midNm": null,
      "sufNm": null
    },
    {
      "lastNm": "MARVIN",
      "firstNm": "ERIC",
      "midNm": null,
      "sufNm": null
    }
  ],
  "CrntEmps": [
    {
      "CrntRgstns": [
        {
          "regAuth": 9,
          "regCat": 0,
          "st": 2,
          "stDt": "2014-07-16T00:00:00"
        },
        {
          "regAuth": 36,
          "regCat": 0,
          "st": 2,
          "stDt": "2014-07-21T00:00:00"
        }
      ],
      "BrnchOfLocs": [
        {
          "str1": "13410 PARKER COMMONS BLVD",
          "str2": "SUITE 101",
          "city": "FORT MYERS",
          "state": 9,
          "stateSpecified": true,
          "cntry": "United States",
          "postlCd": "33912"
        }
      ],
      "orgNm": "M&M WEALTH MANAGEMENT, LLC",
      "orgPK": "170859",
      "str1": "13410 PARKER COMMONS BLVD",
      "str2": "SUITE 101",
      "city": "FORT MYERS",
      "state": 9,
      "stateSpecified": true,
      "cntry": "United States",
      "postlCd": "33912"
    }
  ],
  "Exms": [
    {
      "exmCd": 3,
      "exmNm": "Uniform Combined State Law Examination",
      "exmDt": "2006-04-11T00:00:00",
      "exmDtSpecified": true
    }
  ],
  "Dsgntns": [
    {
      "dsgntnNm": "Certified Financial Planner"
    }
  ],
  "PrevRgstns": [
    {
      "BrnchOfLocs": [
        {
          "city": "BROADVIEW HEIGHTS",
          "state": 36,
          "stateSpecified": true
        }
      ],
      "orgNm": "MSI FINANCIAL SERVICES, INC.",
      "orgPK": "14251",
      "regBeginDt": "2005-12-12T00:00:00",
      "regBeginDtSpecified": true,
      "regEndDt": "2006-02-06T00:00:00",
      "regEndDtSpecified": true
    },
    {
      "BrnchOfLocs": [
        {
          "city": "FORT MYERS",
          "state": 9,
          "stateSpecified": true
        }
      ],
      "orgNm": "MERRILL LYNCH, PIERCE, FENNER & SMITH INCORPORATED",
      "orgPK": "7691",
      "regBeginDt": "2006-03-23T00:00:00",
      "regBeginDtSpecified": true,
      "regEndDt": "2011-03-15T00:00:00",
      "regEndDtSpecified": true
    },
    {
      "BrnchOfLocs": [
        {
          "city": "FORT MYERS",
          "state": 9,
          "stateSpecified": true
        }
      ],
      "orgNm": "J P TURNER & COMPANY CAPITAL MANAGEMENT, LLC",
      "orgPK": "124446",
      "regBeginDt": "2011-03-11T00:00:00",
      "regBeginDtSpecified": true,
      "regEndDt": "2014-06-20T00:00:00",
      "regEndDtSpecified": true
    }
  ],
  "EmpHss": [
    {
      "fromDt": "03/2006",
      "toDt": "03/2011",
      "orgNm": "MERRILL LYNCH, PIERCE, FENNER & SMITH INCORPORATED",
      "city": "FORT MYERS",
      "state": 9,
      "stateSpecified": true
    },
    {
      "fromDt": "03/2011",
      "toDt": null,
      "orgNm": "J P TURNER & COMPANY LLC",
      "city": "FORT MEYERS",
      "state": 9,
      "stateSpecified": true
    },
    {
      "fromDt": "05/2014",
      "toDt": null,
      "orgNm": "M&M WEALTH MANAGEMENT, LLC",
      "city": "FORT MYERS",
      "state": 9,
      "stateSpecified": true
    }
  ],
  "OthrBuss": {
    "OthrBus": null
  },
  "DRPs": []
}