{
  "Info": {
    "lastNm": "SMITH",
    "firstNm": "SCOTT",
    "midNm": "BRADLEY",
    "sufNm": null,
    "indvlPK": "4859160",
    "actvAGReg": 1,
    "link": "http://www.adviserinfo.sec.gov/IAPD/Individual/4859160"
  },
  "OthrNms": [],
  "CrntEmps": [
    {
      "CrntRgstns": [
        {
          "regAuth": 4,
          "regCat": 0,
          "st": 2,
          "stDt": "2004-09-23T00:00:00"
        }
      ],
      "BrnchOfLocs": [
        {
          "str1": "341 W. 1ST ST.",
          "str2": "SUITE 200",
          "city": "CLAREMONT",
          "state": 4,
          "stateSpecified": true,
          "cntry": "United States",
          "postlCd": "91711-4642"
        }
      ],
      "orgNm": "GOULD ASSET MANAGEMENT LLC",
      "orgPK": "113098",
      "str1": "341 WEST FIRST STREET",
      "str2": "SUITE 200",
      "city": "CLAREMONT",
      "state": 4,
      "stateSpecified": true,
      "cntry": "United States",
      "postlCd": "91711-4749"
    }
  ],
  "Exms": [
    {
      "exmCd": 2,
      "exmNm": "Uniform Investment Adviser Law Examination",
      "exmDt": "2004-09-13T00:00:00",
      "exmDtSpecified": true
    }
  ],
  "Dsgntns": [],
  "PrevRgstns": [],
  "EmpHss": [
    {
      "fromDt": "05/2004",
      "toDt": null,
      "orgNm": "GOULD ASSET MANAGEMENT LLC",
      "city": "CLAREMONT",
      "state": 4,
      "stateSpecified": true
    }
  ],
  "OthrBuss": {
    "OthrBus": null
  },
  "DRPs": []
}