{
  "Info": {
    "lastNm": "PANITCHPAKDI",
    "firstNm": "CHAN",
    "midNm": null,
    "sufNm": null,
    "indvlPK": "4869462",
    "actvAGReg": 0,
    "link": "http://www.adviserinfo.sec.gov/IAPD/Individual/4869462"
  },
  "OthrNms": [
    {
      "lastNm": "PANITCHPAKDI",
      "firstNm": "CHAN",
      "midNm": null,
      "sufNm": null
    },
    {
      "lastNm": "PANITCHPAKDI",
      "firstNm": "CHAN",
      "midNm": null,
      "sufNm": null
    },
    {
      "lastNm": "PANITCHPAKDI",
      "firstNm": "CHAN",
      "midNm": null,
      "sufNm": null
    }
  ],
  "CrntEmps": [
    {
      "CrntRgstns": [
        {
          "regAuth": 4,
          "regCat": 0,
          "st": 2,
          "stDt": "2010-03-10T00:00:00"
        }
      ],
      "BrnchOfLocs": [
        {
          "str1": "CITI PERSONAL WEALTH MANAGEMENT",
          "str2": "ONE SANSOME ST., 22ND FLOOR, SUITE 3",
          "city": "SAN FRANCISCO",
          "state": 4,
          "stateSpecified": true,
          "cntry": "United States",
          "postlCd": "94104"
        },
        {
          "str1": "CITIBANK",
          "str2": "250 UNIVERSITY AVENUE",
          "city": "PALO ALTO",
          "state": 4,
          "stateSpecified": true,
          "cntry": "United States",
          "postlCd": "94301"
        }
      ],
      "orgNm": "CITIGROUP GLOBAL MARKETS INC.",
      "orgPK": "7059",
      "str1": "153 EAST 53RD STREET",
      "str2": null,
      "city": "NEW YORK",
      "state": 35,
      "stateSpecified": true,
      "cntry": "United States",
      "postlCd": "10022"
    }
  ],
  "Exms": [
    {
      "exmCd": 3,
      "exmNm": "Uniform Combined State Law Examination",
      "exmDt": "2004-12-13T00:00:00",
      "exmDtSpecified": true
    }
  ],
  "Dsgntns": [],
  "PrevRgstns": [
    {
      "BrnchOfLocs": [
        {
          "city": "REDWOOD SHORES",
          "state": 4,
          "stateSpecified": true
        }
      ],
      "orgNm": "AMERIPRISE FINANCIAL SERVICES, INC.",
      "orgPK": "6363",
      "regBeginDt": "2005-04-27T00:00:00",
      "regBeginDtSpecified": true,
      "regEndDt": "2005-09-16T00:00:00",
      "regEndDtSpecified": true
    },
    {
      "BrnchOfLocs": [
        {
          "city": "MOUNTAIN VIEW",
          "state": 4,
          "stateSpecified": true
        },
        {
          "city": "SAN MATEO",
          "state": 4,
          "stateSpecified": true
        }
      ],
      "orgNm": "CITIGROUP GLOBAL MARKETS INC.",
      "orgPK": "7059",
      "regBeginDt": "2007-06-13T00:00:00",
      "regBeginDtSpecified": true,
      "regEndDt": "2007-11-29T00:00:00",
      "regEndDtSpecified": true
    },
    {
      "BrnchOfLocs": [
        {
          "city": "MENLO PARK",
          "state": 4,
          "stateSpecified": true
        }
      ],
      "orgNm": "MERRILL LYNCH, PIERCE, FENNER & SMITH INCORPORATED",
      "orgPK": "7691",
      "regBeginDt": "2007-12-07T00:00:00",
      "regBeginDtSpecified": true,
      "regEndDt": "2008-12-22T00:00:00",
      "regEndDtSpecified": true
    }
  ],
  "EmpHss": [
    {
      "fromDt": "09/2005",
      "toDt": "11/2007",
      "orgNm": "CITIBANK, N.A.",
      "city": "SAN MATEO",
      "state": 4,
      "stateSpecified": true
    },
    {
      "fromDt": "05/2007",
      "toDt": "11/2007",
      "orgNm": "CITIGROUP GLOBAL MARKETS INC.",
      "city": "MOUNTAIN VIEW",
      "state": 4,
      "stateSpecified": true
    },
    {
      "fromDt": "11/2007",
      "toDt": "12/2008",
      "orgNm": "MERRILL LYNCH &AMP; CO.",
      "city": "MENLO PARK",
      "state": 4,
      "stateSpecified": true
    },
    {
      "fromDt": "01/2009",
      "toDt": "02/2010",
      "orgNm": "UNEMPLOYED",
      "city": "PALO ALTO",
      "state": 4,
      "stateSpecified": true
    },
    {
      "fromDt": "02/2010",
      "toDt": null,
      "orgNm": "CITIBANK, N.A.",
      "city": "LOS ALTOS",
      "state": 4,
      "stateSpecified": true
    },
    {
      "fromDt": "02/2010",
      "toDt": null,
      "orgNm": "CITIGROUP GLOBAL MARKETS INC.",
      "city": "LOS ALTOS",
      "state": 4,
      "stateSpecified": true
    }
  ],
  "OthrBuss": {
    "OthrBus": {
      "desc": "BUSINESS NAME: BANGKOK MANAGEMENT REALTY, CO. LTD. THE COMPANY PROVIDES REAL ESTATE MANAGEMENT SERVICES IN THAILAND. I AM A TEN PERCENT PASSIVE SHAREHOLDER OF THIS COMPANY SINCE 08/1993. I DO NOT CONDUCT OR HAVE ANY DUTIES RELATING TO THIS BUSINESS."
    }
  },
  "DRPs": []
}