{
  "Info": {
    "lastNm": "CHASET",
    "firstNm": "KRISTIN",
    "midNm": null,
    "sufNm": null,
    "indvlPK": "4878756",
    "actvAGReg": 0,
    "link": "http://www.adviserinfo.sec.gov/IAPD/Individual/4878756"
  },
  "OthrNms": [
    {
      "lastNm": "SULLIVAN",
      "firstNm": "KRISTEN",
      "midNm": "JEANNE",
      "sufNm": null
    },
    {
      "lastNm": "SULLIVAN",
      "firstNm": "KRISTIN",
      "midNm": null,
      "sufNm": null
    },
    {
      "lastNm": "SULLIVAN",
      "firstNm": "KRISTIN",
      "midNm": "J",
      "sufNm": null
    },
    {
      "lastNm": "SULLIVAN",
      "firstNm": "KRISTIN",
      "midNm": "JEANNE",
      "sufNm": null
    }
  ],
  "CrntEmps": [
    {
      "CrntRgstns": [
        {
          "regAuth": 7,
          "regCat": 0,
          "st": 2,
          "stDt": "2010-10-12T00:00:00"
        },
        {
          "regAuth": 45,
          "regCat": 0,
          "st": 3,
          "stDt": "2011-09-16T00:00:00"
        },
        {
          "regAuth": 4,
          "regCat": 0,
          "st": 2,
          "stDt": "2012-08-08T00:00:00"
        }
      ],
      "BrnchOfLocs": [
        {
          "str1": "555 CALIFORNIA ST",
          "str2": null,
          "city": "SAN FRANCISCO",
          "state": 4,
          "stateSpecified": true,
          "cntry": "United States",
          "postlCd": "94104"
        },
        {
          "str1": "555 CALIFORNIA ST",
          "str2": null,
          "city": "SAN FRANCISCO",
          "state": 4,
          "stateSpecified": true,
          "cntry": "United States",
          "postlCd": "94104"
        }
      ],
      "orgNm": "MERRILL LYNCH, PIERCE, FENNER & SMITH INCORPORATED",
      "orgPK": "7691",
      "str1": "ONE BRYANT PARK",
      "str2": null,
      "city": "NEW YORK",
      "state": 35,
      "stateSpecified": true,
      "cntry": "United States",
      "postlCd": "10036"
    }
  ],
  "Exms": [
    {
      "exmCd": 3,
      "exmNm": "Uniform Combined State Law Examination",
      "exmDt": "2005-10-27T00:00:00",
      "exmDtSpecified": true
    }
  ],
  "Dsgntns": [],
  "PrevRgstns": [
    {
      "BrnchOfLocs": [
        {
          "city": "SAN FRANCISCO",
          "state": 4,
          "stateSpecified": true
        },
        {
          "city": "SAN FRANCISCO",
          "state": 4,
          "stateSpecified": true
        }
      ],
      "orgNm": "MERRILL LYNCH, PIERCE, FENNER & SMITH INCORPORATED",
      "orgPK": "7691",
      "regBeginDt": "2005-10-31T00:00:00",
      "regBeginDtSpecified": true,
      "regEndDt": "2009-09-02T00:00:00",
      "regEndDtSpecified": true
    }
  ],
  "EmpHss": [
    {
      "fromDt": "10/2004",
      "toDt": null,
      "orgNm": "MERRILL LYNCH, PIERCE, FENNER & SMITH INCORPORATED",
      "city": "MENLO PARK",
      "state": 4,
      "stateSpecified": true
    }
  ],
  "OthrBuss": {
    "OthrBus": {
      "desc": "1.FOR PROFIT OR NOT FOR PROFIT:  2.NAME OF OUTSIDE BUSINESS ORGANIZATION: MISSION SF FEDERAL CREDIT UNION  3.INVESTMENT RELATED:   4.ADDRESS OF BUSINESS:      5.NATURE OF BUSINESS:    7.FIDUCIARY ROLE:   8.FIDUCIARY ROLE FOR FAMILY?: ,   9.FIDUCIARY DETAILS:   10.POSITION, TITLE, ASSOCIATION: ,   11.POSITION DUTIES: OTHER OUTSIDE ACTIVITY  12.START DATE OF RELATIONSHIP:   13.NUMBER OF HOURS DEVOTED: 0   14. NUMBER OF HOURS DEVOTED DURING TRADING HOURS:   DUTIES:"
    }
  },
  "DRPs": []
}