{
  "Info": {
    "lastNm": "Cahir",
    "firstNm": "Justin",
    "midNm": "KEVIN",
    "sufNm": null,
    "indvlPK": "4886627",
    "actvAGReg": 0,
    "link": "http://www.adviserinfo.sec.gov/IAPD/Individual/4886627"
  },
  "OthrNms": [],
  "CrntEmps": [
    {
      "CrntRgstns": [
        {
          "regAuth": 41,
          "regCat": 0,
          "st": 2,
          "stDt": "2009-10-23T00:00:00"
        },
        {
          "regAuth": 45,
          "regCat": 0,
          "st": 2,
          "stDt": "2014-05-02T00:00:00"
        }
      ],
      "BrnchOfLocs": [
        {
          "str1": "225 LIBERTY ST / 250 VESEY ST",
          "str2": "2 - 4 WORLD FINANCIAL CENTER",
          "city": "NEW YORK",
          "state": 35,
          "stateSpecified": true,
          "cntry": "United States",
          "postlCd": "10080"
        },
        {
          "str1": "670 GEORGE WASHINGTON HWY",
          "str2": "MERRILL EDGE CLIENT SERVICES",
          "city": "LINCOLN",
          "state": 41,
          "stateSpecified": true,
          "cntry": "United States",
          "postlCd": "02865"
        }
      ],
      "orgNm": "MERRILL LYNCH, PIERCE, FENNER & SMITH INCORPORATED",
      "orgPK": "7691",
      "str1": "ONE BRYANT PARK",
      "str2": null,
      "city": "NEW YORK",
      "state": 35,
      "stateSpecified": true,
      "cntry": "United States",
      "postlCd": "10036"
    }
  ],
  "Exms": [
    {
      "exmCd": 3,
      "exmNm": "Uniform Combined State Law Examination",
      "exmDt": "2006-01-10T00:00:00",
      "exmDtSpecified": true
    }
  ],
  "Dsgntns": [],
  "PrevRgstns": [
    {
      "BrnchOfLocs": [
        {
          "city": "LINCOLN",
          "state": 41,
          "stateSpecified": true
        }
      ],
      "orgNm": "BANC OF AMERICA INVESTMENT SERVICES, INC.",
      "orgPK": "16361",
      "regBeginDt": "2006-04-13T00:00:00",
      "regBeginDtSpecified": true,
      "regEndDt": "2009-10-23T00:00:00",
      "regEndDtSpecified": true
    }
  ],
  "EmpHss": [
    {
      "fromDt": "04/2006",
      "toDt": "10/2009",
      "orgNm": "BANC OF AMERICA INVESTMENT SERVICES, INC.",
      "city": "LINCOLN",
      "state": 41,
      "stateSpecified": true
    },
    {
      "fromDt": "10/2009",
      "toDt": null,
      "orgNm": "MERRILL LYNCH, PIERCE, FENNER & SMITH INCORPORATED",
      "city": "WALTHAM",
      "state": 20,
      "stateSpecified": true
    }
  ],
  "OthrBuss": {
    "OthrBus": null
  },
  "DRPs": []
}