{
  "Info": {
    "lastNm": "MARSH",
    "firstNm": "DANA",
    "midNm": "MICHELLE",
    "sufNm": null,
    "indvlPK": "4897600",
    "actvAGReg": 0,
    "link": "http://www.adviserinfo.sec.gov/IAPD/Individual/4897600"
  },
  "OthrNms": [
    {
      "lastNm": "FISCHER",
      "firstNm": "DANA",
      "midNm": "MICHELLE",
      "sufNm": null
    },
    {
      "lastNm": "FISCHER",
      "firstNm": "DANA",
      "midNm": "MICHELLE",
      "sufNm": null
    }
  ],
  "CrntEmps": [
    {
      "CrntRgstns": [
        {
          "regAuth": 50,
          "regCat": 0,
          "st": 2,
          "stDt": "2012-08-03T00:00:00"
        },
        {
          "regAuth": 45,
          "regCat": 0,
          "st": 3,
          "stDt": "2016-03-23T00:00:00"
        }
      ],
      "BrnchOfLocs": [
        {
          "str1": "16020 W BLUEMOUND ROAD",
          "str2": "FOUNTAIN SQUARE PLAZA",
          "city": "BROOKFIELD",
          "state": 50,
          "stateSpecified": true,
          "cntry": "United States",
          "postlCd": "53005"
        }
      ],
      "orgNm": "STRATEGIC ADVISERS, INC.",
      "orgPK": "104555",
      "str1": "245 SUMMER STREET, V10G",
      "str2": null,
      "city": "BOSTON",
      "state": 20,
      "stateSpecified": true,
      "cntry": "United States",
      "postlCd": "02210"
    }
  ],
  "Exms": [
    {
      "exmCd": 0,
      "exmNm": "Uniform Securities Agent State Law Examination",
      "exmDt": "2005-02-10T00:00:00",
      "exmDtSpecified": true
    },
    {
      "exmCd": 2,
      "exmNm": "Uniform Investment Adviser Law Examination",
      "exmDt": "2006-06-12T00:00:00",
      "exmDtSpecified": true
    }
  ],
  "Dsgntns": [],
  "PrevRgstns": [
    {
      "BrnchOfLocs": [
        {
          "city": "MENOMONEE FALLS",
          "state": 50,
          "stateSpecified": true
        }
      ],
      "orgNm": "WELLS FARGO FUNDS MANAGEMENT, LLC",
      "orgPK": "110841",
      "regBeginDt": "2006-06-13T00:00:00",
      "regBeginDtSpecified": true,
      "regEndDt": "2012-04-10T00:00:00",
      "regEndDtSpecified": true
    }
  ],
  "EmpHss": [
    {
      "fromDt": "04/2005",
      "toDt": "04/2012",
      "orgNm": "WELLS FARGO FUNDS DISTRIBUTOR, LLC",
      "city": "MENOMONEE FALLS",
      "state": 50,
      "stateSpecified": true
    },
    {
      "fromDt": "04/2005",
      "toDt": "04/2012",
      "orgNm": "WELLS FARGO FUNDS MANAGEMENT, LLC",
      "city": "MENOMONEE FALLS",
      "state": 50,
      "stateSpecified": true
    },
    {
      "fromDt": "05/2012",
      "toDt": "06/2012",
      "orgNm": "UNEMPLOYED",
      "city": "WAUWATOSA",
      "state": 50,
      "stateSpecified": true
    },
    {
      "fromDt": "06/2012",
      "toDt": null,
      "orgNm": "FIDELITY INVESTMENTS",
      "city": "BROOKFIELD",
      "state": 50,
      "stateSpecified": true
    }
  ],
  "OthrBuss": {
    "OthrBus": null
  },
  "DRPs": []
}