{
  "Info": {
    "lastNm": "DEVI",
    "firstNm": "VINEETA",
    "midNm": null,
    "sufNm": null,
    "indvlPK": "4901721",
    "actvAGReg": 0,
    "link": "http://www.adviserinfo.sec.gov/IAPD/Individual/4901721"
  },
  "OthrNms": [],
  "CrntEmps": [
    {
      "CrntRgstns": [
        {
          "regAuth": 4,
          "regCat": 0,
          "st": 2,
          "stDt": "2011-01-03T00:00:00"
        }
      ],
      "BrnchOfLocs": [
        {
          "str1": "1006 BLOSSOM HILL ROAD",
          "str2": null,
          "city": "SAN JOSE",
          "state": 4,
          "stateSpecified": true,
          "cntry": "United States",
          "postlCd": "95123"
        },
        {
          "str1": "225 W SANTA CLARA ST STE 1400",
          "str2": "[NH-RBO]",
          "city": "SAN JOSE",
          "state": 4,
          "stateSpecified": true,
          "cntry": "United States",
          "postlCd": "95113"
        }
      ],
      "orgNm": "WELLS FARGO ADVISORS, LLC",
      "orgPK": "19616",
      "str1": "ONE NORTH JEFFERSON AVENUE",
      "str2": "MAIL CODE: H0004-050",
      "city": "ST. LOUIS",
      "state": 25,
      "stateSpecified": true,
      "cntry": "United States",
      "postlCd": "63103-2205"
    }
  ],
  "Exms": [
    {
      "exmCd": 3,
      "exmNm": "Uniform Combined State Law Examination",
      "exmDt": "2006-10-26T00:00:00",
      "exmDtSpecified": true
    }
  ],
  "Dsgntns": [],
  "PrevRgstns": [
    {
      "BrnchOfLocs": [
        {
          "city": "SAN JOSE",
          "state": 4,
          "stateSpecified": true
        },
        {
          "city": "SAN JOSE",
          "state": 4,
          "stateSpecified": true
        },
        {
          "city": "SAN JOSE",
          "state": 4,
          "stateSpecified": true
        }
      ],
      "orgNm": "WELLS FARGO INVESTMENTS, LLC",
      "orgPK": "10582",
      "regBeginDt": "2006-10-27T00:00:00",
      "regBeginDtSpecified": true,
      "regEndDt": "2011-01-03T00:00:00",
      "regEndDtSpecified": true
    }
  ],
  "EmpHss": [
    {
      "fromDt": "12/2000",
      "toDt": null,
      "orgNm": "HOLIDAY INN EXPRESS",
      "city": "SAN JOSE",
      "state": 4,
      "stateSpecified": true
    },
    {
      "fromDt": "03/2001",
      "toDt": null,
      "orgNm": "WELLS FARGO BANK",
      "city": "SAN JOSE",
      "state": 4,
      "stateSpecified": true
    },
    {
      "fromDt": "12/2004",
      "toDt": "01/2011",
      "orgNm": "WELLS FARGO INVESTMENTS, LLC",
      "city": "SAN JOSE",
      "state": 4,
      "stateSpecified": true
    },
    {
      "fromDt": "12/2004",
      "toDt": "01/2011",
      "orgNm": "WELLS FARGO INVESTMENTS.LLC",
      "city": "SAN JOSE",
      "state": 4,
      "stateSpecified": true
    },
    {
      "fromDt": "01/2011",
      "toDt": null,
      "orgNm": "WELLS FARGO ADVISORS LLC",
      "city": "SAN JOSE",
      "state": 4,
      "stateSpecified": true
    }
  ],
  "OthrBuss": {
    "OthrBus": {
      "desc": "HOLIDAY INN EXPRESS-HOTEL INDUSTRY 2660 MONTEREY RD  SAN JOSE, CA 95111  NOT INVESTMENT RELATED  FRONT DESK SUPERVISIOR  12/2000 TO PRESENT  80HRS/MONTH"
    }
  },
  "DRPs": []
}