{
  "Info": {
    "lastNm": "BATTILLO",
    "firstNm": "JONATHAN",
    "midNm": "RICHARD",
    "sufNm": null,
    "indvlPK": "4905937",
    "actvAGReg": 0,
    "link": "http://www.adviserinfo.sec.gov/IAPD/Individual/4905937"
  },
  "OthrNms": [
    {
      "lastNm": "BATTILLO",
      "firstNm": "JONATHAN",
      "midNm": null,
      "sufNm": null
    }
  ],
  "CrntEmps": [
    {
      "CrntRgstns": [
        {
          "regAuth": 45,
          "regCat": 0,
          "st": 2,
          "stDt": "2011-01-21T00:00:00"
        },
        {
          "regAuth": 39,
          "regCat": 0,
          "st": 2,
          "stDt": "2015-01-15T00:00:00"
        }
      ],
      "BrnchOfLocs": [
        {
          "str1": "1040 STONY HILL RD",
          "str2": null,
          "city": "YARDLEY",
          "state": 39,
          "stateSpecified": true,
          "cntry": "United States",
          "postlCd": "19067"
        }
      ],
      "orgNm": "MERRILL LYNCH, PIERCE, FENNER & SMITH INCORPORATED",
      "orgPK": "7691",
      "str1": "ONE BRYANT PARK",
      "str2": null,
      "city": "NEW YORK",
      "state": 35,
      "stateSpecified": true,
      "cntry": "United States",
      "postlCd": "10036"
    }
  ],
  "Exms": [
    {
      "exmCd": 3,
      "exmNm": "Uniform Combined State Law Examination",
      "exmDt": "2005-06-17T00:00:00",
      "exmDtSpecified": true
    }
  ],
  "Dsgntns": [],
  "PrevRgstns": [],
  "EmpHss": [
    {
      "fromDt": "09/2004",
      "toDt": null,
      "orgNm": "MERRILL LYNCH, PIERCE, FENNER & SMITH INCORPORATED",
      "city": "NEW YORK",
      "state": 35,
      "stateSpecified": true
    },
    {
      "fromDt": "09/2009",
      "toDt": null,
      "orgNm": "BANK OF AMERICA, N.A",
      "city": "PRINCETON",
      "state": 32,
      "stateSpecified": true
    }
  ],
  "OthrBuss": {
    "OthrBus": null
  },
  "DRPs": []
}