{
  "Info": {
    "lastNm": "STROFFOLINO",
    "firstNm": "RALPH",
    "midNm": "E.",
    "sufNm": null,
    "indvlPK": "4905968",
    "actvAGReg": 1,
    "link": "http://www.adviserinfo.sec.gov/IAPD/Individual/4905968"
  },
  "OthrNms": [],
  "CrntEmps": [
    {
      "CrntRgstns": [
        {
          "regAuth": 20,
          "regCat": 0,
          "st": 2,
          "stDt": "2005-02-14T00:00:00"
        }
      ],
      "BrnchOfLocs": [
        {
          "str1": "100 NORTH STREET, SUITE 310",
          "str2": null,
          "city": "PITTSFIELD",
          "state": 20,
          "stateSpecified": true,
          "cntry": "United States",
          "postlCd": "01201"
        }
      ],
      "orgNm": "RALPH STROFFOLINO, EA CFP",
      "orgPK": "133136",
      "str1": "137 NORTH STREET",
      "str2": null,
      "city": "PITTSFIELD",
      "state": 20,
      "stateSpecified": true,
      "cntry": "United States",
      "postlCd": "01201"
    }
  ],
  "Exms": [],
  "Dsgntns": [
    {
      "dsgntnNm": "Certified Financial Planner"
    }
  ],
  "PrevRgstns": [],
  "EmpHss": [
    {
      "fromDt": "07/1974",
      "toDt": null,
      "orgNm": "RALPH STROFFOLINO, EA CFP",
      "city": "PITTSFIELD",
      "state": 20,
      "stateSpecified": true
    }
  ],
  "OthrBuss": {
    "OthrBus": null
  },
  "DRPs": []
}