{
  "Info": {
    "lastNm": "HUNDRUP",
    "firstNm": "GARY",
    "midNm": "CARL",
    "sufNm": null,
    "indvlPK": "4907201",
    "actvAGReg": 0,
    "link": "http://www.adviserinfo.sec.gov/IAPD/Individual/4907201"
  },
  "OthrNms": [
    {
      "lastNm": "HUNDRUP",
      "firstNm": "GARY",
      "midNm": "C",
      "sufNm": null
    }
  ],
  "CrntEmps": [
    {
      "CrntRgstns": [
        {
          "regAuth": 49,
          "regCat": 0,
          "st": 2,
          "stDt": "2012-12-06T00:00:00"
        },
        {
          "regAuth": 27,
          "regCat": 0,
          "st": 2,
          "stDt": "2013-01-08T00:00:00"
        },
        {
          "regAuth": 4,
          "regCat": 0,
          "st": 2,
          "stDt": "2013-01-10T00:00:00"
        },
        {
          "regAuth": 46,
          "regCat": 0,
          "st": 2,
          "stDt": "2013-01-10T00:00:00"
        }
      ],
      "BrnchOfLocs": [
        {
          "str1": "4002 TACOMA MALL BLVD",
          "str2": "SUITE 104",
          "city": "TACOMA",
          "state": 49,
          "stateSpecified": true,
          "cntry": "United States",
          "postlCd": "98409"
        }
      ],
      "orgNm": "WADDELL & REED",
      "orgPK": "866",
      "str1": "6300 LAMAR AVENUE",
      "str2": null,
      "city": "OVERLAND PARK",
      "state": 17,
      "stateSpecified": true,
      "cntry": "United States",
      "postlCd": "66202-4200"
    }
  ],
  "Exms": [
    {
      "exmCd": 0,
      "exmNm": "Uniform Securities Agent State Law Examination",
      "exmDt": "2005-03-22T00:00:00",
      "exmDtSpecified": true
    },
    {
      "exmCd": 3,
      "exmNm": "Uniform Combined State Law Examination",
      "exmDt": "2005-11-21T00:00:00",
      "exmDtSpecified": true
    }
  ],
  "Dsgntns": [],
  "PrevRgstns": [
    {
      "BrnchOfLocs": [
        {
          "city": "FEDERAL WAY",
          "state": 49,
          "stateSpecified": true
        }
      ],
      "orgNm": "MERRILL LYNCH, PIERCE, FENNER & SMITH INCORPORATED",
      "orgPK": "7691",
      "regBeginDt": "2005-11-22T00:00:00",
      "regBeginDtSpecified": true,
      "regEndDt": "2012-12-04T00:00:00",
      "regEndDtSpecified": true
    }
  ],
  "EmpHss": [
    {
      "fromDt": "10/2005",
      "toDt": "09/2009",
      "orgNm": "MERRILL LYNCH, PIERCE, FENNER & SMITH INCORPORATED",
      "city": "FEDERAL WAY",
      "state": 49,
      "stateSpecified": true
    },
    {
      "fromDt": "09/2009",
      "toDt": "12/2012",
      "orgNm": "BANK OF AMERICA, NA",
      "city": "FEDERAL WAY",
      "state": 49,
      "stateSpecified": true
    },
    {
      "fromDt": "12/2012",
      "toDt": null,
      "orgNm": "VARIOUS INSURANCE CARRIERS FOR W&R INSURANCE AGENCIES",
      "city": "FEDERAL WAY",
      "state": 49,
      "stateSpecified": true
    },
    {
      "fromDt": "12/2012",
      "toDt": null,
      "orgNm": "WADDELL & REED, INC",
      "city": "TACOMA",
      "state": 49,
      "stateSpecified": true
    },
    {
      "fromDt": "09/2014",
      "toDt": null,
      "orgNm": "MARINE VIEW PRESBYTERIAN CHURCH",
      "city": "TACOMA",
      "state": 49,
      "stateSpecified": true
    }
  ],
  "OthrBuss": {
    "OthrBus": {
      "desc": "12/2012-PRESENT, VARIOUS INSURANCE CARRIERS FOR W&R INSURANCE AGENCIES, FEDERAL WAY, WA, INVEST-RELATED, INSURANCE SALES, INSURANCE AGENT.  09/2014-PRESENT; MARINE VIEW PRESBYTERIAN CHURCH; TACOMA, WA; INVESTMENT RELATED:N; NON PROFIT; ASSISTANT PASTOR; 36 HRS/MO; 0 SEC HOURS."
    }
  },
  "DRPs": [
    {
      "hasRegAction": 1,
      "hasRegActionSpecified": true,
      "hasCriminal": 1,
      "hasCriminalSpecified": true,
      "hasBankrupt": 1,
      "hasBankruptSpecified": true,
      "hasCivilJudc": 1,
      "hasCivilJudcSpecified": true,
      "hasBond": 1,
      "hasBondSpecified": true,
      "hasJudgment": 1,
      "hasJudgmentSpecified": true,
      "hasInvstgn": 1,
      "hasInvstgnSpecified": true,
      "hasCustComp": 0,
      "hasCustCompSpecified": true,
      "hasTermination": 1,
      "hasTerminationSpecified": true
    }
  ]
}