{
  "Info": {
    "lastNm": "KUDEJ",
    "firstNm": "KEVIN",
    "midNm": "PAUL",
    "sufNm": null,
    "indvlPK": "4913692",
    "actvAGReg": 0,
    "link": "http://www.adviserinfo.sec.gov/IAPD/Individual/4913692"
  },
  "OthrNms": [],
  "CrntEmps": [
    {
      "CrntRgstns": [
        {
          "regAuth": 23,
          "regCat": 0,
          "st": 2,
          "stDt": "2010-09-20T00:00:00"
        }
      ],
      "BrnchOfLocs": [
        {
          "str1": "20180 MACK",
          "str2": "MARCO BUILDING",
          "city": "GROSSE POINTE WOODS",
          "state": 23,
          "stateSpecified": true,
          "cntry": "United States",
          "postlCd": "48236"
        }
      ],
      "orgNm": "COMERICA SECURITIES",
      "orgPK": "17079",
      "str1": "411 WEST LAFAYETTE BLVD.",
      "str2": null,
      "city": "DETROIT",
      "state": 23,
      "stateSpecified": true,
      "cntry": "United States",
      "postlCd": "48226"
    }
  ],
  "Exms": [
    {
      "exmCd": 3,
      "exmNm": "Uniform Combined State Law Examination",
      "exmDt": "2005-11-10T00:00:00",
      "exmDtSpecified": true
    }
  ],
  "Dsgntns": [],
  "PrevRgstns": [
    {
      "BrnchOfLocs": [
        {
          "city": "DETROIT",
          "state": 23,
          "stateSpecified": true
        },
        {
          "city": "DETROIT",
          "state": 23,
          "stateSpecified": true
        },
        {
          "city": "DETROIT",
          "state": 23,
          "stateSpecified": true
        }
      ],
      "orgNm": "COMERICA SECURITIES",
      "orgPK": "17079",
      "regBeginDt": "2005-11-15T00:00:00",
      "regBeginDtSpecified": true,
      "regEndDt": "2008-12-23T00:00:00",
      "regEndDtSpecified": true
    }
  ],
  "EmpHss": [
    {
      "fromDt": "08/2001",
      "toDt": null,
      "orgNm": "COMERICA BANK",
      "city": "GROSSE POINTE",
      "state": 23,
      "stateSpecified": true
    },
    {
      "fromDt": "02/2005",
      "toDt": "12/2008",
      "orgNm": "COMERICA SECURITIES",
      "city": "DETROIT",
      "state": 23,
      "stateSpecified": true
    },
    {
      "fromDt": "08/2010",
      "toDt": null,
      "orgNm": "COMERICA SECURITIES, INC.",
      "city": "GROSSE POINTE",
      "state": 23,
      "stateSpecified": true
    }
  ],
  "OthrBuss": {
    "OthrBus": null
  },
  "DRPs": []
}