{
  "Info": {
    "lastNm": "CZESCHIN",
    "firstNm": "JACOB",
    "midNm": "MATTHEW",
    "sufNm": null,
    "indvlPK": "4915885",
    "actvAGReg": 1,
    "link": "http://www.adviserinfo.sec.gov/IAPD/Individual/4915885"
  },
  "OthrNms": [],
  "CrntEmps": [
    {
      "CrntRgstns": [
        {
          "regAuth": 25,
          "regCat": 0,
          "st": 2,
          "stDt": "2013-10-02T00:00:00"
        }
      ],
      "BrnchOfLocs": [
        {
          "str1": "425 NORTH NEW BALLAS RD",
          "str2": "SUITE 207",
          "city": "ST. LOUIS",
          "state": 25,
          "stateSpecified": true,
          "cntry": "United States",
          "postlCd": "63141"
        }
      ],
      "orgNm": "SIGNIFY WEALTH LLC",
      "orgPK": "160094",
      "str1": "425 NORTH NEW BALLAS RD",
      "str2": "SUITE 207",
      "city": "ST. LOUIS",
      "state": 25,
      "stateSpecified": true,
      "cntry": "United States",
      "postlCd": "63141"
    }
  ],
  "Exms": [
    {
      "exmCd": 0,
      "exmNm": "Uniform Securities Agent State Law Examination",
      "exmDt": "2005-09-09T00:00:00",
      "exmDtSpecified": true
    },
    {
      "exmCd": 3,
      "exmNm": "Uniform Combined State Law Examination",
      "exmDt": "2011-01-20T00:00:00",
      "exmDtSpecified": true
    }
  ],
  "Dsgntns": [],
  "PrevRgstns": [
    {
      "BrnchOfLocs": [
        {
          "city": "CREVE COEUR",
          "state": 25,
          "stateSpecified": true
        }
      ],
      "orgNm": "LPL FINANCIAL LLC",
      "orgPK": "6413",
      "regBeginDt": "2011-01-21T00:00:00",
      "regBeginDtSpecified": true,
      "regEndDt": "2013-10-08T00:00:00",
      "regEndDtSpecified": true
    }
  ],
  "EmpHss": [
    {
      "fromDt": "02/2005",
      "toDt": "10/2010",
      "orgNm": "EDWARD JONES",
      "city": "ST. LOUIS",
      "state": 25,
      "stateSpecified": true
    },
    {
      "fromDt": "10/2010",
      "toDt": "09/2013",
      "orgNm": "LPL FINANCIAL",
      "city": "ST. LOUIS",
      "state": 25,
      "stateSpecified": true
    },
    {
      "fromDt": "09/2013",
      "toDt": null,
      "orgNm": "NATIONAL PLANNING CORPORATION",
      "city": "CREVE COVER",
      "state": 25,
      "stateSpecified": true
    },
    {
      "fromDt": "09/2013",
      "toDt": null,
      "orgNm": "STRATEGIC PARTNERS WEALTH MANAGEMENT",
      "city": "ST LOUIS",
      "state": 25,
      "stateSpecified": true
    },
    {
      "fromDt": "10/2013",
      "toDt": null,
      "orgNm": "STRATEGIC PARTNERS WEALTH MANAGEMENT",
      "city": "CRETE COUR",
      "state": 25,
      "stateSpecified": true
    }
  ],
  "OthrBuss": {
    "OthrBus": {
      "desc": "STRATEGIC PARTNERS, INVESTMENT RELATED, ST LOUIS MO,- 09/2013 - INVESTMENT/FINANCIAL PLANNER, 40 HOURS PER WEEK --   BROKERAGE UNLIMITED, 425 N. NEW BALLAS ROAD ST LOUIS MO 63141, AGENT, 9/30/2013, 3 HOURS TOTAL, 0 DURING TRADING HOURS, PROVIDE LIFE INSURANCE FOR CLIENTS AS NEEDED.--    INTERNATIONAL SPECIALTY INSURANCE, 425 N. NEW BALLAS ROAD ST LOUIS MO 63140, AGENT, 9/30/2013, 3 HOURS TOTAL, 0 DURING TRADING HOURS, PROVIDE DI FOR CLIENTS AS NEEDED.--"
    }
  },
  "DRPs": [
    {
      "hasRegAction": 1,
      "hasRegActionSpecified": true,
      "hasCriminal": 1,
      "hasCriminalSpecified": true,
      "hasBankrupt": 0,
      "hasBankruptSpecified": true,
      "hasCivilJudc": 1,
      "hasCivilJudcSpecified": true,
      "hasBond": 1,
      "hasBondSpecified": true,
      "hasJudgment": 1,
      "hasJudgmentSpecified": true,
      "hasInvstgn": 1,
      "hasInvstgnSpecified": true,
      "hasCustComp": 1,
      "hasCustCompSpecified": true,
      "hasTermination": 1,
      "hasTerminationSpecified": true
    }
  ]
}