{
  "Info": {
    "lastNm": "ROGERS",
    "firstNm": "TINA",
    "midNm": "M",
    "sufNm": null,
    "indvlPK": "4920803",
    "actvAGReg": 0,
    "link": "http://www.adviserinfo.sec.gov/IAPD/Individual/4920803"
  },
  "OthrNms": [
    {
      "lastNm": "MATZ",
      "firstNm": "TINA",
      "midNm": null,
      "sufNm": null
    },
    {
      "lastNm": "MATZ",
      "firstNm": "TINA",
      "midNm": "ANNE",
      "sufNm": null
    }
  ],
  "CrntEmps": [
    {
      "CrntRgstns": [
        {
          "regAuth": 9,
          "regCat": 0,
          "st": 2,
          "stDt": "2005-12-19T00:00:00"
        },
        {
          "regAuth": 45,
          "regCat": 0,
          "st": 3,
          "stDt": "2011-05-31T00:00:00"
        }
      ],
      "BrnchOfLocs": [
        {
          "str1": "4800-4804 DEER LAKE DR",
          "str2": "MERRILL EDGE ADVISORY CENTER",
          "city": "JACKSONVILLE",
          "state": 9,
          "stateSpecified": true,
          "cntry": "United States",
          "postlCd": "32246"
        }
      ],
      "orgNm": "MERRILL LYNCH, PIERCE, FENNER & SMITH INCORPORATED",
      "orgPK": "7691",
      "str1": "ONE BRYANT PARK",
      "str2": null,
      "city": "NEW YORK",
      "state": 35,
      "stateSpecified": true,
      "cntry": "United States",
      "postlCd": "10036"
    }
  ],
  "Exms": [
    {
      "exmCd": 3,
      "exmNm": "Uniform Combined State Law Examination",
      "exmDt": "2005-12-15T00:00:00",
      "exmDtSpecified": true
    }
  ],
  "Dsgntns": [],
  "PrevRgstns": [],
  "EmpHss": [
    {
      "fromDt": "06/2004",
      "toDt": null,
      "orgNm": "MERRILL LYNCH, PIERCE, FENNER & SMITH INCORPORATED ",
      "city": "JACKSONVILLE",
      "state": 9,
      "stateSpecified": true
    }
  ],
  "OthrBuss": {
    "OthrBus": null
  },
  "DRPs": []
}