{
  "Info": {
    "lastNm": "NELSON",
    "firstNm": "DEBRA",
    "midNm": "LOUISE",
    "sufNm": null,
    "indvlPK": "4923138",
    "actvAGReg": 0,
    "link": "http://www.adviserinfo.sec.gov/IAPD/Individual/4923138"
  },
  "OthrNms": [
    {
      "lastNm": "MERCHANT",
      "firstNm": "DEBRA",
      "midNm": "LOUISE",
      "sufNm": null
    },
    {
      "lastNm": "WENDER",
      "firstNm": "DEBRA",
      "midNm": "LOUISE",
      "sufNm": null
    }
  ],
  "CrntEmps": [
    {
      "CrntRgstns": [
        {
          "regAuth": 5,
          "regCat": 0,
          "st": 2,
          "stDt": "2016-03-14T00:00:00"
        }
      ],
      "BrnchOfLocs": [
        {
          "str1": "210 UNIVERSITY BOULEVARD",
          "str2": null,
          "city": "DENVER",
          "state": 5,
          "stateSpecified": true,
          "cntry": "United States",
          "postlCd": "80206"
        }
      ],
      "orgNm": "ROBERT W. BAIRD & CO. INCORPORATED",
      "orgPK": "8158",
      "str1": "777 E. WISCONSIN AVE",
      "str2": null,
      "city": "MILWAUKEE",
      "state": 50,
      "stateSpecified": true,
      "cntry": "United States",
      "postlCd": "53202-5391"
    }
  ],
  "Exms": [
    {
      "exmCd": 3,
      "exmNm": "Uniform Combined State Law Examination",
      "exmDt": "2007-01-29T00:00:00",
      "exmDtSpecified": true
    }
  ],
  "Dsgntns": [],
  "PrevRgstns": [
    {
      "BrnchOfLocs": [
        {
          "city": "AURORA",
          "state": 5,
          "stateSpecified": true
        },
        {
          "city": "DENVER",
          "state": 5,
          "stateSpecified": true
        },
        {
          "city": "ENGLEWOOD",
          "state": 5,
          "stateSpecified": true
        },
        {
          "city": "LITTLETON",
          "state": 5,
          "stateSpecified": true
        }
      ],
      "orgNm": "WELLS FARGO ADVISORS, LLC",
      "orgPK": "19616",
      "regBeginDt": "2007-02-16T00:00:00",
      "regBeginDtSpecified": true,
      "regEndDt": "2010-03-12T00:00:00",
      "regEndDtSpecified": true
    },
    {
      "BrnchOfLocs": [
        {
          "city": "ESCONDIDO",
          "state": 4,
          "stateSpecified": true
        }
      ],
      "orgNm": "WELLS FARGO INVESTMENTS, LLC",
      "orgPK": "10582",
      "regBeginDt": "2010-03-30T00:00:00",
      "regBeginDtSpecified": true,
      "regEndDt": "2011-01-03T00:00:00",
      "regEndDtSpecified": true
    },
    {
      "BrnchOfLocs": [
        {
          "city": "ESCONDIDO",
          "state": 4,
          "stateSpecified": true
        }
      ],
      "orgNm": "WELLS FARGO ADVISORS, LLC",
      "orgPK": "19616",
      "regBeginDt": "2011-01-03T00:00:00",
      "regBeginDtSpecified": true,
      "regEndDt": "2011-06-16T00:00:00",
      "regEndDtSpecified": true
    },
    {
      "BrnchOfLocs": [
        {
          "city": "COLORADO SPRINGS",
          "state": 5,
          "stateSpecified": true
        },
        {
          "city": "COLORADO SPRINGS",
          "state": 5,
          "stateSpecified": true
        },
        {
          "city": "COLORADO SPRINGS",
          "state": 5,
          "stateSpecified": true
        }
      ],
      "orgNm": "MORGAN STANLEY",
      "orgPK": "149777",
      "regBeginDt": "2011-06-23T00:00:00",
      "regBeginDtSpecified": true,
      "regEndDt": "2016-04-07T00:00:00",
      "regEndDtSpecified": true
    }
  ],
  "EmpHss": [
    {
      "fromDt": "05/2006",
      "toDt": "02/2007",
      "orgNm": "ATLAS SECURITIES, INC.",
      "city": "SAN LEANDRO",
      "state": 4,
      "stateSpecified": true
    },
    {
      "fromDt": "02/2007",
      "toDt": "02/2010",
      "orgNm": "WACHOVIA SECURITIES, LLC",
      "city": "LITTLETON",
      "state": 5,
      "stateSpecified": true
    },
    {
      "fromDt": "02/2010",
      "toDt": "06/2011",
      "orgNm": "WELLS FARGO BANK N.A.",
      "city": "ESCONDIDO",
      "state": 4,
      "stateSpecified": true
    },
    {
      "fromDt": "03/2010",
      "toDt": "06/2011",
      "orgNm": "WELLS FARGO INVESTMENTS, LLC",
      "city": "ESCONDIDO",
      "state": 4,
      "stateSpecified": true
    },
    {
      "fromDt": "01/2011",
      "toDt": "06/2011",
      "orgNm": "WELLS FARGO ADVISORS, LLC",
      "city": "ESCONDIDO",
      "state": 4,
      "stateSpecified": true
    },
    {
      "fromDt": "06/2011",
      "toDt": "03/2016",
      "orgNm": "MORGAN STANLEY SMITH BARNEY",
      "city": "COLORADO SPRINGS",
      "state": 5,
      "stateSpecified": true
    },
    {
      "fromDt": "03/2016",
      "toDt": null,
      "orgNm": "Robert W. Baird & Co.",
      "city": "Denver",
      "state": 5,
      "stateSpecified": true
    }
  ],
  "OthrBuss": {
    "OthrBus": null
  },
  "DRPs": []
}