{
  "Info": {
    "lastNm": "SMITH",
    "firstNm": "JENNIFER",
    "midNm": "LYNN",
    "sufNm": null,
    "indvlPK": "4924128",
    "actvAGReg": 1,
    "link": "http://www.adviserinfo.sec.gov/IAPD/Individual/4924128"
  },
  "OthrNms": [
    {
      "lastNm": "DUEA",
      "firstNm": "JENAH",
      "midNm": "LYNN",
      "sufNm": null
    },
    {
      "lastNm": "DUEA",
      "firstNm": "JENNIFER",
      "midNm": "LYNN",
      "sufNm": null
    },
    {
      "lastNm": "DUEA",
      "firstNm": "JENNIFER",
      "midNm": "LYNN",
      "sufNm": null
    },
    {
      "lastNm": "SMITH",
      "firstNm": "JENAH",
      "midNm": "LYNN",
      "sufNm": null
    }
  ],
  "CrntEmps": [
    {
      "CrntRgstns": [
        {
          "regAuth": 49,
          "regCat": 0,
          "st": 2,
          "stDt": "2013-04-16T00:00:00"
        }
      ],
      "BrnchOfLocs": [
        {
          "str1": "2030 1ST AVENUE",
          "str2": "3RD FLOOR",
          "city": "SEATTLE",
          "state": 49,
          "stateSpecified": true,
          "cntry": "United States",
          "postlCd": "98121"
        }
      ],
      "orgNm": "BRIGHTON JONES LLC",
      "orgPK": "108601",
      "str1": "2030 1ST AVENUE",
      "str2": "3RD FLOOR",
      "city": "SEATTLE",
      "state": 49,
      "stateSpecified": true,
      "cntry": "United States",
      "postlCd": "98121"
    }
  ],
  "Exms": [
    {
      "exmCd": 3,
      "exmNm": "Uniform Combined State Law Examination",
      "exmDt": "2011-03-02T00:00:00",
      "exmDtSpecified": true
    }
  ],
  "Dsgntns": [],
  "PrevRgstns": [
    {
      "BrnchOfLocs": [
        {
          "city": "BEND",
          "state": 38,
          "stateSpecified": true
        }
      ],
      "orgNm": "WELLS FARGO ADVISORS, LLC",
      "orgPK": "19616",
      "regBeginDt": "2011-03-11T00:00:00",
      "regBeginDtSpecified": true,
      "regEndDt": "2011-10-25T00:00:00",
      "regEndDtSpecified": true
    }
  ],
  "EmpHss": [
    {
      "fromDt": "07/2005",
      "toDt": "03/2009",
      "orgNm": "BANC OF AMERICA SECURITIES LLC",
      "city": "NEW YORK",
      "state": 35,
      "stateSpecified": true
    },
    {
      "fromDt": "03/2009",
      "toDt": "06/2009",
      "orgNm": "UNEMPLOYED",
      "city": "NEW YORK",
      "state": 35,
      "stateSpecified": true
    },
    {
      "fromDt": "06/2009",
      "toDt": "08/2009",
      "orgNm": "CITY ON A HILL ADVISORS LLC",
      "city": "NEW YORK",
      "state": 35,
      "stateSpecified": true
    },
    {
      "fromDt": "08/2009",
      "toDt": "01/2010",
      "orgNm": "UNEMPLOYED",
      "city": "BEND",
      "state": 38,
      "stateSpecified": true
    },
    {
      "fromDt": "01/2010",
      "toDt": "09/2010",
      "orgNm": "JACKSON'S CORNER",
      "city": "BEND",
      "state": 38,
      "stateSpecified": true
    },
    {
      "fromDt": "09/2010",
      "toDt": "01/2011",
      "orgNm": "WELLS FARGO INVESTMENTS, LLC",
      "city": "BEND",
      "state": 38,
      "stateSpecified": true
    },
    {
      "fromDt": "01/2011",
      "toDt": "10/2011",
      "orgNm": "WELLS FARGO ADVISORS LLC",
      "city": "BEND",
      "state": 38,
      "stateSpecified": true
    },
    {
      "fromDt": "01/2012",
      "toDt": "08/2012",
      "orgNm": "JACKSONS CORNER",
      "city": "BEND",
      "state": 38,
      "stateSpecified": true
    },
    {
      "fromDt": "12/2012",
      "toDt": null,
      "orgNm": "BRIGHTON JONES LLC",
      "city": "SEATTLE",
      "state": 49,
      "stateSpecified": true
    }
  ],
  "OthrBuss": {
    "OthrBus": null
  },
  "DRPs": []
}