{
  "Info": {
    "lastNm": "MILLER",
    "firstNm": "LISA",
    "midNm": "L.",
    "sufNm": null,
    "indvlPK": "4935224",
    "actvAGReg": 0,
    "link": "http://www.adviserinfo.sec.gov/IAPD/Individual/4935224"
  },
  "OthrNms": [
    {
      "lastNm": "MILLER",
      "firstNm": "LISA",
      "midNm": null,
      "sufNm": null
    }
  ],
  "CrntEmps": [
    {
      "CrntRgstns": [
        {
          "regAuth": 4,
          "regCat": 0,
          "st": 2,
          "stDt": "2005-06-16T00:00:00"
        },
        {
          "regAuth": 45,
          "regCat": 0,
          "st": 3,
          "stDt": "2014-02-11T00:00:00"
        }
      ],
      "BrnchOfLocs": [
        {
          "str1": "ONE POINTE DRIVE",
          "str2": "SUITE 140",
          "city": "BREA",
          "state": 4,
          "stateSpecified": true,
          "cntry": "United States",
          "postlCd": "92821"
        }
      ],
      "orgNm": "UBS FINANCIAL SERVICES INC.",
      "orgPK": "8174",
      "str1": "1200 HARBOR BOULEVARD",
      "str2": null,
      "city": "WEEHAWKEN",
      "state": 32,
      "stateSpecified": true,
      "cntry": "United States",
      "postlCd": "07086"
    }
  ],
  "Exms": [
    {
      "exmCd": 3,
      "exmNm": "Uniform Combined State Law Examination",
      "exmDt": "2005-06-15T00:00:00",
      "exmDtSpecified": true
    }
  ],
  "Dsgntns": [],
  "PrevRgstns": [],
  "EmpHss": [
    {
      "fromDt": "03/2005",
      "toDt": "11/2013",
      "orgNm": "UBS FINANCIAL SERVICES INC",
      "city": "ORANGE",
      "state": 4,
      "stateSpecified": true
    },
    {
      "fromDt": "11/2013",
      "toDt": null,
      "orgNm": "UBS FINANCIAL SERVICES INC",
      "city": "BREA",
      "state": 4,
      "stateSpecified": true
    }
  ],
  "OthrBuss": {
    "OthrBus": null
  },
  "DRPs": []
}