{
  "Info": {
    "lastNm": "ZAGROBELNY",
    "firstNm": "PETER",
    "midNm": "AUGUST",
    "sufNm": null,
    "indvlPK": "4938222",
    "actvAGReg": 0,
    "link": "http://www.adviserinfo.sec.gov/IAPD/Individual/4938222"
  },
  "OthrNms": [
    {
      "lastNm": "ZAGROBELNY",
      "firstNm": "PETER",
      "midNm": null,
      "sufNm": null
    },
    {
      "lastNm": "ZAGROBELNY",
      "firstNm": "PETER",
      "midNm": "AUGUST",
      "sufNm": null
    }
  ],
  "CrntEmps": [
    {
      "CrntRgstns": [
        {
          "regAuth": 32,
          "regCat": 0,
          "st": 2,
          "stDt": "2014-08-21T00:00:00"
        }
      ],
      "BrnchOfLocs": [
        {
          "str1": "100 CITIBANK DRIVE, BUILDING 2",
          "str2": null,
          "city": "SAN ANTONIO",
          "state": 45,
          "stateSpecified": true,
          "cntry": "United States",
          "postlCd": "78245"
        },
        {
          "str1": "100 Citibank Drive",
          "str2": null,
          "city": "San Antonio",
          "state": 45,
          "stateSpecified": true,
          "cntry": "United States",
          "postlCd": "78245"
        },
        {
          "str1": "CITI PERSONAL WEALTH MANAGEMENT",
          "str2": "283 KING GEORGE ROAD, BUILDING E, FLOOR 3",
          "city": "WARREN",
          "state": 32,
          "stateSpecified": true,
          "cntry": "United States",
          "postlCd": "07059"
        },
        {
          "str1": "One Court Square",
          "str2": "39th Floor",
          "city": "Long Island City",
          "state": 35,
          "stateSpecified": true,
          "cntry": "United States",
          "postlCd": "11101"
        }
      ],
      "orgNm": "CITIGROUP GLOBAL MARKETS INC.",
      "orgPK": "7059",
      "str1": "153 EAST 53RD STREET",
      "str2": null,
      "city": "NEW YORK",
      "state": 35,
      "stateSpecified": true,
      "cntry": "United States",
      "postlCd": "10022"
    }
  ],
  "Exms": [
    {
      "exmCd": 3,
      "exmNm": "Uniform Combined State Law Examination",
      "exmDt": "2005-05-27T00:00:00",
      "exmDtSpecified": true
    }
  ],
  "Dsgntns": [],
  "PrevRgstns": [
    {
      "BrnchOfLocs": [
        {
          "city": "NEW YORK",
          "state": 35,
          "stateSpecified": true
        },
        {
          "city": "RYE",
          "state": 35,
          "stateSpecified": true
        }
      ],
      "orgNm": "CHASE INVESTMENT SERVICES CORP.",
      "orgPK": "25574",
      "regBeginDt": "2007-08-30T00:00:00",
      "regBeginDtSpecified": true,
      "regEndDt": "2009-09-04T00:00:00",
      "regEndDtSpecified": true
    },
    {
      "BrnchOfLocs": [
        {
          "city": "TARRYTOWN",
          "state": 35,
          "stateSpecified": true
        }
      ],
      "orgNm": "PARK AVENUE SECURITIES LLC",
      "orgPK": "46173",
      "regBeginDt": "2010-01-15T00:00:00",
      "regBeginDtSpecified": true,
      "regEndDt": "2011-04-19T00:00:00",
      "regEndDtSpecified": true
    },
    {
      "BrnchOfLocs": [
        {
          "city": "ARMONK",
          "state": 35,
          "stateSpecified": true
        },
        {
          "city": "CHAPPAQUA",
          "state": 35,
          "stateSpecified": true
        },
        {
          "city": "MOUNT KISCO",
          "state": 35,
          "stateSpecified": true
        },
        {
          "city": "NEW YORK",
          "state": 35,
          "stateSpecified": true
        },
        {
          "city": "NEW YORK",
          "state": 35,
          "stateSpecified": true
        },
        {
          "city": "SCARSDALE",
          "state": 35,
          "stateSpecified": true
        },
        {
          "city": "SCARSDALE",
          "state": 35,
          "stateSpecified": true
        },
        {
          "city": "WHITE PLAINS",
          "state": 35,
          "stateSpecified": true
        }
      ],
      "orgNm": "MERRILL LYNCH, PIERCE, FENNER & SMITH INCORPORATED",
      "orgPK": "7691",
      "regBeginDt": "2011-05-24T00:00:00",
      "regBeginDtSpecified": true,
      "regEndDt": "2014-08-08T00:00:00",
      "regEndDtSpecified": true
    }
  ],
  "EmpHss": [
    {
      "fromDt": "03/2005",
      "toDt": "08/2007",
      "orgNm": "A. G. EDWARDS & SONS, INC.",
      "city": "WHITE PLAINS",
      "state": 35,
      "stateSpecified": true
    },
    {
      "fromDt": "08/2007",
      "toDt": "09/2009",
      "orgNm": "CHASE INVESTMENT SERVICES CORP",
      "city": "NEW YORK",
      "state": 35,
      "stateSpecified": true
    },
    {
      "fromDt": "08/2007",
      "toDt": "09/2009",
      "orgNm": "JP MORGAN",
      "city": "RYE",
      "state": 35,
      "stateSpecified": true
    },
    {
      "fromDt": "09/2009",
      "toDt": "04/2011",
      "orgNm": "GUARDIAN LIFE INSURANCE COMPANY",
      "city": "TARRYTOWN",
      "state": 35,
      "stateSpecified": true
    },
    {
      "fromDt": "12/2009",
      "toDt": "04/2011",
      "orgNm": "PARK AVENUE SECURITIES",
      "city": "TARRYTOWN",
      "state": 35,
      "stateSpecified": true
    },
    {
      "fromDt": "04/2011",
      "toDt": "08/2014",
      "orgNm": "MERRILL LYNCH, PIERCE, FENNER & SMITH INCORPORATED",
      "city": "NEW YORK",
      "state": 35,
      "stateSpecified": true
    },
    {
      "fromDt": "09/2011",
      "toDt": "08/2014",
      "orgNm": "BANK OF AMERICA, N.A.",
      "city": "WHITE PLAINS",
      "state": 35,
      "stateSpecified": true
    },
    {
      "fromDt": "08/2014",
      "toDt": null,
      "orgNm": "CITIGROUP GLOBAL MARKETS INC",
      "city": "TARRYTOWN",
      "state": 35,
      "stateSpecified": true
    }
  ],
  "OthrBuss": {
    "OthrBus": null
  },
  "DRPs": []
}