{
  "Info": {
    "lastNm": "HERRMANN",
    "firstNm": "VANESSA",
    "midNm": "G",
    "sufNm": null,
    "indvlPK": "4942956",
    "actvAGReg": 0,
    "link": "http://www.adviserinfo.sec.gov/IAPD/Individual/4942956"
  },
  "OthrNms": [
    {
      "lastNm": "MURPHY",
      "firstNm": "VANESSA",
      "midNm": "G",
      "sufNm": null
    },
    {
      "lastNm": "MURPHY",
      "firstNm": "VANESSA",
      "midNm": "G",
      "sufNm": null
    }
  ],
  "CrntEmps": [
    {
      "CrntRgstns": [
        {
          "regAuth": 9,
          "regCat": 0,
          "st": 2,
          "stDt": "2014-06-11T00:00:00"
        }
      ],
      "BrnchOfLocs": [
        {
          "str1": "ASHLEY TOWER",
          "str2": "100 S. ASHLEY DR.",
          "city": "TAMPA",
          "state": 9,
          "stateSpecified": true,
          "cntry": "United States",
          "postlCd": "33602"
        }
      ],
      "orgNm": "UBS FINANCIAL SERVICES INC.",
      "orgPK": "8174",
      "str1": "1200 HARBOR BOULEVARD",
      "str2": null,
      "city": "WEEHAWKEN",
      "state": 32,
      "stateSpecified": true,
      "cntry": "United States",
      "postlCd": "07086"
    }
  ],
  "Exms": [
    {
      "exmCd": 3,
      "exmNm": "Uniform Combined State Law Examination",
      "exmDt": "2005-11-01T00:00:00",
      "exmDtSpecified": true
    }
  ],
  "Dsgntns": [],
  "PrevRgstns": [
    {
      "BrnchOfLocs": [
        {
          "city": "ATLANTA",
          "state": 10,
          "stateSpecified": true
        },
        {
          "city": "ATLANTA",
          "state": 10,
          "stateSpecified": true
        },
        {
          "city": "ATLANTA",
          "state": 10,
          "stateSpecified": true
        }
      ],
      "orgNm": "UBS FINANCIAL SERVICES INC.",
      "orgPK": "8174",
      "regBeginDt": "2006-12-11T00:00:00",
      "regBeginDtSpecified": true,
      "regEndDt": "2009-05-13T00:00:00",
      "regEndDtSpecified": true
    },
    {
      "BrnchOfLocs": [
        {
          "city": "TAMPA",
          "state": 9,
          "stateSpecified": true
        }
      ],
      "orgNm": "MORGAN STANLEY",
      "orgPK": "149777",
      "regBeginDt": "2009-09-18T00:00:00",
      "regBeginDtSpecified": true,
      "regEndDt": "2010-06-28T00:00:00",
      "regEndDtSpecified": true
    },
    {
      "BrnchOfLocs": [
        {
          "city": "TAMPA",
          "state": 9,
          "stateSpecified": true
        }
      ],
      "orgNm": "KESTRA INVESTMENT SERVICES, LLC",
      "orgPK": "42046",
      "regBeginDt": "2012-04-03T00:00:00",
      "regBeginDtSpecified": true,
      "regEndDt": "2014-05-22T00:00:00",
      "regEndDtSpecified": true
    }
  ],
  "EmpHss": [
    {
      "fromDt": "03/2005",
      "toDt": "05/2009",
      "orgNm": "UBS FINANCIAL SERVICES INC",
      "city": "ATLANTA",
      "state": 10,
      "stateSpecified": true
    },
    {
      "fromDt": "05/2009",
      "toDt": "09/2009",
      "orgNm": "UNEMPLOYED",
      "city": "ATLANTA",
      "state": 10,
      "stateSpecified": true
    },
    {
      "fromDt": "09/2009",
      "toDt": "06/2010",
      "orgNm": "MORGAN STANLEY SMITH BARNEY",
      "city": "TAMPA",
      "state": 9,
      "stateSpecified": true
    },
    {
      "fromDt": "06/2010",
      "toDt": "03/2012",
      "orgNm": "SHAH",
      "city": "LUTZ",
      "state": 9,
      "stateSpecified": true
    },
    {
      "fromDt": "04/2012",
      "toDt": "05/2014",
      "orgNm": "NFP SECURITIES, INC",
      "city": "TAMPA",
      "state": 9,
      "stateSpecified": true
    },
    {
      "fromDt": "05/2014",
      "toDt": null,
      "orgNm": "UBS FINANCIAL SERVICES INC.",
      "city": "TAMPA",
      "state": 9,
      "stateSpecified": true
    }
  ],
  "OthrBuss": {
    "OthrBus": null
  },
  "DRPs": []
}