{
  "Info": {
    "lastNm": "HARTMANN",
    "firstNm": "CHERIE",
    "midNm": "ANN",
    "sufNm": null,
    "indvlPK": "4943667",
    "actvAGReg": 0,
    "link": "http://www.adviserinfo.sec.gov/IAPD/Individual/4943667"
  },
  "OthrNms": [
    {
      "lastNm": "HARTMANN",
      "firstNm": "CHERIE",
      "midNm": null,
      "sufNm": null
    },
    {
      "lastNm": "HARTMANN",
      "firstNm": "CHERIE",
      "midNm": "A",
      "sufNm": null
    }
  ],
  "CrntEmps": [
    {
      "CrntRgstns": [
        {
          "regAuth": 45,
          "regCat": 0,
          "st": 3,
          "stDt": "2008-01-04T00:00:00"
        },
        {
          "regAuth": 18,
          "regCat": 0,
          "st": 2,
          "stDt": "2008-01-09T00:00:00"
        }
      ],
      "BrnchOfLocs": [
        {
          "str1": "100 HOWE DRIVE",
          "str2": null,
          "city": "COVINGTON",
          "state": 18,
          "stateSpecified": true,
          "cntry": "United States",
          "postlCd": "41015"
        }
      ],
      "orgNm": "STRATEGIC ADVISERS, INC.",
      "orgPK": "104555",
      "str1": "245 SUMMER STREET, V10G",
      "str2": null,
      "city": "BOSTON",
      "state": 20,
      "stateSpecified": true,
      "cntry": "United States",
      "postlCd": "02210"
    }
  ],
  "Exms": [
    {
      "exmCd": 3,
      "exmNm": "Uniform Combined State Law Examination",
      "exmDt": "2005-06-06T00:00:00",
      "exmDtSpecified": true
    }
  ],
  "Dsgntns": [],
  "PrevRgstns": [
    {
      "BrnchOfLocs": [
        {
          "city": "CINCINNATI",
          "state": 36,
          "stateSpecified": true
        },
        {
          "city": "CINCINNATI",
          "state": 36,
          "stateSpecified": true
        }
      ],
      "orgNm": "AMERIPRISE FINANCIAL SERVICES, INC.",
      "orgPK": "6363",
      "regBeginDt": "2005-06-29T00:00:00",
      "regBeginDtSpecified": true,
      "regEndDt": "2006-11-30T00:00:00",
      "regEndDtSpecified": true
    },
    {
      "BrnchOfLocs": [
        {
          "city": "CINCINNATI",
          "state": 36,
          "stateSpecified": true
        }
      ],
      "orgNm": "NEW ENGLAND SECURITIES",
      "orgPK": "615",
      "regBeginDt": "2007-03-13T00:00:00",
      "regBeginDtSpecified": true,
      "regEndDt": "2007-05-11T00:00:00",
      "regEndDtSpecified": true
    }
  ],
  "EmpHss": [
    {
      "fromDt": "04/2005",
      "toDt": "11/2006",
      "orgNm": "AMERICAN EXPRESS FINANCIAL ADVISORS",
      "city": "CINCINNATI",
      "state": 36,
      "stateSpecified": true
    },
    {
      "fromDt": "04/2005",
      "toDt": "11/2006",
      "orgNm": "IDS LIFE INSURANCE COMPANY",
      "city": "CINCINNATI",
      "state": 36,
      "stateSpecified": true
    },
    {
      "fromDt": "12/2006",
      "toDt": "04/2007",
      "orgNm": "NEW ENGLAND SECURITIES",
      "city": "CINCINNATI",
      "state": 36,
      "stateSpecified": true
    },
    {
      "fromDt": "05/2007",
      "toDt": null,
      "orgNm": "FIDELITY INVESTMENTS",
      "city": "CINCINNATI",
      "state": 36,
      "stateSpecified": true
    }
  ],
  "OthrBuss": {
    "OthrBus": {
      "desc": "OAA#: 32607 | ORG NAME:ADVOCARE | ORG ADDR:CINCINNATI, OH, US | NATURE OF BUS:HEALTH AND WELLNESS PRODUCTS | INVST REL:N | TITLE:ADVOCARE INTERNATIONAL | DUTIES:WILL BE A DISTRIBUTOR ABLE TO SELL PRODUCTS TO OTHERS. | START DT:01/28/2015 | TOTAL HRS P/M:2 | SEC TRDNG HRS P/M:0"
    }
  },
  "DRPs": []
}