{
  "Info": {
    "lastNm": "LITTLEFIELD",
    "firstNm": "TAMMY",
    "midNm": null,
    "sufNm": null,
    "indvlPK": "4946662",
    "actvAGReg": 0,
    "link": "http://www.adviserinfo.sec.gov/IAPD/Individual/4946662"
  },
  "OthrNms": [
    {
      "lastNm": "LILLIE",
      "firstNm": "TAMMY",
      "midNm": null,
      "sufNm": null
    }
  ],
  "CrntEmps": [
    {
      "CrntRgstns": [
        {
          "regAuth": 4,
          "regCat": 0,
          "st": 2,
          "stDt": "2012-01-06T00:00:00"
        },
        {
          "regAuth": 45,
          "regCat": 0,
          "st": 3,
          "stDt": "2015-09-25T00:00:00"
        }
      ],
      "BrnchOfLocs": [
        {
          "str1": "1316 K STREET",
          "str2": "SUITE B",
          "city": "MODESTO",
          "state": 4,
          "stateSpecified": true,
          "cntry": "United States",
          "postlCd": "95154"
        }
      ],
      "orgNm": "TRANSAMERICA FINANCIAL ADVISORS, INC",
      "orgPK": "16164",
      "str1": "570 CARILLON PARKWAY",
      "str2": null,
      "city": "ST PETERSBURG",
      "state": 9,
      "stateSpecified": true,
      "cntry": "United States",
      "postlCd": "33716-1202"
    }
  ],
  "Exms": [
    {
      "exmCd": 0,
      "exmNm": "Uniform Securities Agent State Law Examination",
      "exmDt": "2006-03-23T00:00:00",
      "exmDtSpecified": true
    },
    {
      "exmCd": 2,
      "exmNm": "Uniform Investment Adviser Law Examination",
      "exmDt": "2008-07-15T00:00:00",
      "exmDtSpecified": true
    }
  ],
  "Dsgntns": [],
  "PrevRgstns": [
    {
      "BrnchOfLocs": [
        {
          "city": "MODESTO",
          "state": 4,
          "stateSpecified": true
        }
      ],
      "orgNm": "INVESTMENT ADVISORS INTERNATIONAL, INC.",
      "orgPK": "139233",
      "regBeginDt": "2008-07-28T00:00:00",
      "regBeginDtSpecified": true,
      "regEndDt": "2012-01-06T00:00:00",
      "regEndDtSpecified": true
    }
  ],
  "EmpHss": [
    {
      "fromDt": "11/2004",
      "toDt": null,
      "orgNm": "WFG",
      "city": "MODESTO",
      "state": 4,
      "stateSpecified": true
    },
    {
      "fromDt": "09/2005",
      "toDt": "01/2012",
      "orgNm": "WGS",
      "city": "MODESTO",
      "state": 4,
      "stateSpecified": true
    },
    {
      "fromDt": "06/2006",
      "toDt": null,
      "orgNm": "NOTARY PUBLIC",
      "city": "MODESTO",
      "state": 4,
      "stateSpecified": true
    },
    {
      "fromDt": "07/2008",
      "toDt": "01/2012",
      "orgNm": "INVESTMENT ADVISORS INTERNATIONAL, INC.",
      "city": "MODESTO",
      "state": 4,
      "stateSpecified": true
    },
    {
      "fromDt": "01/2011",
      "toDt": "10/2013",
      "orgNm": "BNI BUSINESS NETWORK INT'L",
      "city": "UPLAND",
      "state": 4,
      "stateSpecified": true
    },
    {
      "fromDt": "09/2011",
      "toDt": "11/2014",
      "orgNm": "TURLOCK PREGACY CENTER",
      "city": "TURLOCK",
      "state": 4,
      "stateSpecified": true
    },
    {
      "fromDt": "01/2012",
      "toDt": null,
      "orgNm": "TRANSAMERICA FINANCIAL ADVISORS, INC",
      "city": "MODESTO",
      "state": 4,
      "stateSpecified": true
    }
  ],
  "OthrBuss": {
    "OthrBus": null
  },
  "DRPs": [
    {
      "hasRegAction": 1,
      "hasRegActionSpecified": true,
      "hasCriminal": 1,
      "hasCriminalSpecified": true,
      "hasBankrupt": 0,
      "hasBankruptSpecified": true,
      "hasCivilJudc": 1,
      "hasCivilJudcSpecified": true,
      "hasBond": 1,
      "hasBondSpecified": true,
      "hasJudgment": 1,
      "hasJudgmentSpecified": true,
      "hasInvstgn": 1,
      "hasInvstgnSpecified": true,
      "hasCustComp": 1,
      "hasCustCompSpecified": true,
      "hasTermination": 1,
      "hasTerminationSpecified": true
    }
  ]
}