{
  "Info": {
    "lastNm": "ROOT",
    "firstNm": "GRACELYN",
    "midNm": "DINO",
    "sufNm": null,
    "indvlPK": "4950106",
    "actvAGReg": 0,
    "link": "http://www.adviserinfo.sec.gov/IAPD/Individual/4950106"
  },
  "OthrNms": [
    {
      "lastNm": "DINO",
      "firstNm": "GRACELYN",
      "midNm": "M",
      "sufNm": null
    }
  ],
  "CrntEmps": [
    {
      "CrntRgstns": [
        {
          "regAuth": 4,
          "regCat": 0,
          "st": 2,
          "stDt": "2011-01-03T00:00:00"
        }
      ],
      "BrnchOfLocs": [
        {
          "str1": "11 EAST PONDEROSA DRIVE",
          "str2": null,
          "city": "CAMARILLO",
          "state": 4,
          "stateSpecified": true,
          "cntry": "United States",
          "postlCd": "93010"
        },
        {
          "str1": "118 E CARRILLO ST",
          "str2": "[LE-RBO]",
          "city": "SANTA BARBARA",
          "state": 4,
          "stateSpecified": true,
          "cntry": "United States",
          "postlCd": "93101"
        },
        {
          "str1": "487 CARMEN DRIVE",
          "str2": null,
          "city": "CAMARILLO",
          "state": 4,
          "stateSpecified": true,
          "cntry": "United States",
          "postlCd": "93010"
        },
        {
          "str1": "5000 SANTA ROSA ROAD",
          "str2": null,
          "city": "CAMARILLO",
          "state": 4,
          "stateSpecified": true,
          "cntry": "United States",
          "postlCd": "93012"
        },
        {
          "str1": "5275 MISSION OAKS BOULEVARD",
          "str2": null,
          "city": "CAMARILLO",
          "state": 4,
          "stateSpecified": true,
          "cntry": "United States",
          "postlCd": "93012"
        }
      ],
      "orgNm": "WELLS FARGO ADVISORS, LLC",
      "orgPK": "19616",
      "str1": "ONE NORTH JEFFERSON AVENUE",
      "str2": "MAIL CODE: H0004-050",
      "city": "ST. LOUIS",
      "state": 25,
      "stateSpecified": true,
      "cntry": "United States",
      "postlCd": "63103-2205"
    }
  ],
  "Exms": [
    {
      "exmCd": 3,
      "exmNm": "Uniform Combined State Law Examination",
      "exmDt": "2005-10-10T00:00:00",
      "exmDtSpecified": true
    }
  ],
  "Dsgntns": [],
  "PrevRgstns": [
    {
      "BrnchOfLocs": [
        {
          "city": "CANOGA PARK",
          "state": 4,
          "stateSpecified": true
        },
        {
          "city": "CANOGA PARK",
          "state": 4,
          "stateSpecified": true
        },
        {
          "city": "ENCINO",
          "state": 4,
          "stateSpecified": true
        },
        {
          "city": "MOORPARK",
          "state": 4,
          "stateSpecified": true
        },
        {
          "city": "RESEDA",
          "state": 4,
          "stateSpecified": true
        },
        {
          "city": "WESTLAKE VILLAGE",
          "state": 4,
          "stateSpecified": true
        },
        {
          "city": "WESTLAKE VILLAGE",
          "state": 4,
          "stateSpecified": true
        },
        {
          "city": "WESTLAKE VILLAGE",
          "state": 4,
          "stateSpecified": true
        },
        {
          "city": "WOODLAND HILLS",
          "state": 4,
          "stateSpecified": true
        }
      ],
      "orgNm": "WELLS FARGO INVESTMENTS, LLC",
      "orgPK": "10582",
      "regBeginDt": "2005-10-11T00:00:00",
      "regBeginDtSpecified": true,
      "regEndDt": "2011-01-03T00:00:00",
      "regEndDtSpecified": true
    }
  ],
  "EmpHss": [
    {
      "fromDt": "09/2003",
      "toDt": "01/2008",
      "orgNm": "WELLS FARGO BANK",
      "city": "WESTLAKE VILLAGE",
      "state": 4,
      "stateSpecified": true
    },
    {
      "fromDt": "04/2005",
      "toDt": "01/2011",
      "orgNm": "WELLS FARGO INVESTMENTS, LLC",
      "city": "WOODLAND HILLS",
      "state": 4,
      "stateSpecified": true
    },
    {
      "fromDt": "01/2011",
      "toDt": null,
      "orgNm": "WELLS FARGO ADVISORS LLC",
      "city": "NEWBURY PARK/CANOGA PARK",
      "state": 4,
      "stateSpecified": true
    }
  ],
  "OthrBuss": {
    "OthrBus": null
  },
  "DRPs": [
    {
      "hasRegAction": 1,
      "hasRegActionSpecified": true,
      "hasCriminal": 1,
      "hasCriminalSpecified": true,
      "hasBankrupt": 1,
      "hasBankruptSpecified": true,
      "hasCivilJudc": 1,
      "hasCivilJudcSpecified": true,
      "hasBond": 1,
      "hasBondSpecified": true,
      "hasJudgment": 1,
      "hasJudgmentSpecified": true,
      "hasInvstgn": 1,
      "hasInvstgnSpecified": true,
      "hasCustComp": 0,
      "hasCustCompSpecified": true,
      "hasTermination": 1,
      "hasTerminationSpecified": true
    }
  ]
}