{
  "Info": {
    "lastNm": "BURNS",
    "firstNm": "TERENCE",
    "midNm": "EDMUND",
    "sufNm": null,
    "indvlPK": "4953955",
    "actvAGReg": 1,
    "link": "http://www.adviserinfo.sec.gov/IAPD/Individual/4953955"
  },
  "OthrNms": [],
  "CrntEmps": [
    {
      "CrntRgstns": [
        {
          "regAuth": 47,
          "regCat": 0,
          "st": 2,
          "stDt": "2005-05-24T00:00:00"
        }
      ],
      "BrnchOfLocs": [
        {
          "str1": "8381 OLD COURTHOUSE ROAD",
          "str2": "SUITE 350",
          "city": "VIENNA",
          "state": 47,
          "stateSpecified": true,
          "cntry": "United States",
          "postlCd": "22182"
        }
      ],
      "orgNm": "CAMPION ASSET MANAGEMENT, LLC",
      "orgPK": "134002",
      "str1": "8381 OLD COURTHOUSE ROAD",
      "str2": "SUITE 350",
      "city": "VIENNA",
      "state": 47,
      "stateSpecified": true,
      "cntry": "United States",
      "postlCd": "22182"
    }
  ],
  "Exms": [],
  "Dsgntns": [
    {
      "dsgntnNm": "Chartered Financial Analyst"
    }
  ],
  "PrevRgstns": [],
  "EmpHss": [
    {
      "fromDt": "05/2005",
      "toDt": null,
      "orgNm": "CAMPION WEALTH MANAGEMENT, LLC",
      "city": "FAIRFAX STATION",
      "state": 47,
      "stateSpecified": true
    }
  ],
  "OthrBuss": {
    "OthrBus": null
  },
  "DRPs": []
}