{
  "Info": {
    "lastNm": "MATTHEWS",
    "firstNm": "CHARLES",
    "midNm": "CHRISTOPHER",
    "sufNm": null,
    "indvlPK": "4954733",
    "actvAGReg": 0,
    "link": "http://www.adviserinfo.sec.gov/IAPD/Individual/4954733"
  },
  "OthrNms": [
    {
      "lastNm": "MATTHEWS",
      "firstNm": "CHARLES",
      "midNm": null,
      "sufNm": null
    }
  ],
  "CrntEmps": [
    {
      "CrntRgstns": [
        {
          "regAuth": 44,
          "regCat": 0,
          "st": 2,
          "stDt": "2009-04-29T00:00:00"
        }
      ],
      "BrnchOfLocs": [
        {
          "str1": "9724 KINGSTON PIKE",
          "str2": "SUITE 1102",
          "city": "KNOXVILLE",
          "state": 44,
          "stateSpecified": true,
          "cntry": "United States",
          "postlCd": "37922"
        }
      ],
      "orgNm": "H. BECK, INC.",
      "orgPK": "1763",
      "str1": "6600 ROCKLEDGE DRIVE",
      "str2": "6TH FLOOR",
      "city": "BETHESDA",
      "state": 21,
      "stateSpecified": true,
      "cntry": "United States",
      "postlCd": "20817-1806"
    }
  ],
  "Exms": [
    {
      "exmCd": 3,
      "exmNm": "Uniform Combined State Law Examination",
      "exmDt": "2005-06-27T00:00:00",
      "exmDtSpecified": true
    }
  ],
  "Dsgntns": [],
  "PrevRgstns": [
    {
      "BrnchOfLocs": [
        {
          "city": "KNOXVILLE",
          "state": 44,
          "stateSpecified": true
        }
      ],
      "orgNm": "MORGAN STANLEY DW INC.",
      "orgPK": "7556",
      "regBeginDt": "2005-07-06T00:00:00",
      "regBeginDtSpecified": true,
      "regEndDt": "2006-04-05T00:00:00",
      "regEndDtSpecified": true
    },
    {
      "BrnchOfLocs": [
        {
          "city": "KNOXVILLE",
          "state": 44,
          "stateSpecified": true
        },
        {
          "city": "KNOXVILLE",
          "state": 44,
          "stateSpecified": true
        }
      ],
      "orgNm": "LANDOAK SECURITIES, LLC",
      "orgPK": "41123",
      "regBeginDt": "2006-11-29T00:00:00",
      "regBeginDtSpecified": true,
      "regEndDt": "2009-11-13T00:00:00",
      "regEndDtSpecified": true
    }
  ],
  "EmpHss": [
    {
      "fromDt": "06/2006",
      "toDt": "11/2006",
      "orgNm": "UNEMPLOYED",
      "city": "LOUDON",
      "state": 44,
      "stateSpecified": true
    },
    {
      "fromDt": "11/2006",
      "toDt": "11/2009",
      "orgNm": "LANDOAK SECURITIES, LLC",
      "city": "KNOXVILLE",
      "state": 44,
      "stateSpecified": true
    },
    {
      "fromDt": "04/2009",
      "toDt": null,
      "orgNm": "H. BECK, INC.",
      "city": "ROCKVILLE",
      "state": 21,
      "stateSpecified": true
    },
    {
      "fromDt": "06/2009",
      "toDt": null,
      "orgNm": "CORNERSTONE WEALTH ADVISORS",
      "city": "KNOXVILLE",
      "state": 44,
      "stateSpecified": true
    }
  ],
  "OthrBuss": {
    "OthrBus": {
      "desc": "CORNERSTONE WEALTH ADVISORS POSITION: PRESIDENT NATURE: INSURANCE SALES (INVESTMENT-RELATED OBA) INVESTMENT RELATED: YES NUMBER OF HOURS: 1 INVESTMENT RELATED HOURS: 1 START DATE: 06/01/2009  ADDRESS: 9724 KINGSTON PIKE, KNOXVILLE TN 37922  DESCRIPTION: SELL OF INSURANCE."
    }
  },
  "DRPs": []
}