{
  "Info": {
    "lastNm": "ZAMORA",
    "firstNm": "ALEJANDRO",
    "midNm": null,
    "sufNm": "JR",
    "indvlPK": "4957751",
    "actvAGReg": 0,
    "link": "http://www.adviserinfo.sec.gov/IAPD/Individual/4957751"
  },
  "OthrNms": [
    {
      "lastNm": "ZAMORA",
      "firstNm": "ALEX",
      "midNm": null,
      "sufNm": "JR"
    }
  ],
  "CrntEmps": [
    {
      "CrntRgstns": [
        {
          "regAuth": 50,
          "regCat": 0,
          "st": 2,
          "stDt": "2012-10-01T00:00:00"
        },
        {
          "regAuth": 45,
          "regCat": 0,
          "st": 2,
          "stDt": "2013-09-13T00:00:00"
        }
      ],
      "BrnchOfLocs": [
        {
          "str1": "2402 EAST MORELAND BOULEVARD",
          "str2": null,
          "city": "WAUKESHA",
          "state": 50,
          "stateSpecified": true,
          "cntry": "United States",
          "postlCd": "53186"
        },
        {
          "str1": "3611 80TH STREET",
          "str2": null,
          "city": "KENOSHA",
          "state": 50,
          "stateSpecified": true,
          "cntry": "United States",
          "postlCd": "53142"
        }
      ],
      "orgNm": "J.P. MORGAN SECURITIES LLC",
      "orgPK": "79",
      "str1": "277 PARK AVENUE",
      "str2": null,
      "city": "NEW YORK",
      "state": 35,
      "stateSpecified": true,
      "cntry": "United States",
      "postlCd": "10172"
    }
  ],
  "Exms": [
    {
      "exmCd": 0,
      "exmNm": "Uniform Securities Agent State Law Examination",
      "exmDt": "2005-08-06T00:00:00",
      "exmDtSpecified": true
    },
    {
      "exmCd": 2,
      "exmNm": "Uniform Investment Adviser Law Examination",
      "exmDt": "2011-09-15T00:00:00",
      "exmDtSpecified": true
    }
  ],
  "Dsgntns": [],
  "PrevRgstns": [
    {
      "BrnchOfLocs": [
        {
          "city": "CHICAGO",
          "state": 15,
          "stateSpecified": true
        },
        {
          "city": "CUDAHY",
          "state": 50,
          "stateSpecified": true
        },
        {
          "city": "MILWAUKEE",
          "state": 50,
          "stateSpecified": true
        },
        {
          "city": "MILWAUKEE",
          "state": 50,
          "stateSpecified": true
        },
        {
          "city": "MILWAUKEE",
          "state": 50,
          "stateSpecified": true
        },
        {
          "city": "MILWAUKEE",
          "state": 50,
          "stateSpecified": true
        },
        {
          "city": "MILWAUKEE",
          "state": 50,
          "stateSpecified": true
        },
        {
          "city": "MILWAUKEE",
          "state": 50,
          "stateSpecified": true
        },
        {
          "city": "MILWAUKEE",
          "state": 50,
          "stateSpecified": true
        }
      ],
      "orgNm": "CHASE INVESTMENT SERVICES CORP.",
      "orgPK": "25574",
      "regBeginDt": "2011-09-16T00:00:00",
      "regBeginDtSpecified": true,
      "regEndDt": "2012-10-01T00:00:00",
      "regEndDtSpecified": true
    }
  ],
  "EmpHss": [
    {
      "fromDt": "06/2005",
      "toDt": "10/2012",
      "orgNm": "CHASE INVESTMENT SERVICES CORP",
      "city": "MILWAUKEE",
      "state": 50,
      "stateSpecified": true
    },
    {
      "fromDt": "10/2012",
      "toDt": null,
      "orgNm": "J.P. MORGAN SECURITIES LLC",
      "city": "MILWAUKEE",
      "state": 50,
      "stateSpecified": true
    },
    {
      "fromDt": "04/2014",
      "toDt": null,
      "orgNm": "MAKE A DIFFERENCE WISCONSIN",
      "city": "MILWAUKEE",
      "state": 50,
      "stateSpecified": true
    }
  ],
  "OthrBuss": {
    "OthrBus": {
      "desc": "MAKE A DIFFERENCE WISCONSIN; VOLUNTEER PRESENTER, STARTED 4/23/14; 710 N PLANKINTON AVE STE 310, MILWAUKEE, WI 53203; ORGANIZATION PARTNERS WITH PROFESSIONALS IN WISCONSIN WHO DELIVER A PRE-SET CURRICULUM TO AREA HIGH SCHOOL STUDENTS.  THE AREAS OF FOCUS ARE PERSONAL FINANCE (E.G. GENERAL BANKING, PERSONAL CREDIT AND ADMINISTERING A CHECKING ACCOUNT.); REP WILL BE PRESENTING THE PRE-SET CURRICULUM IN THE MODULES; MAXIMUM HOURS PER MONTH IS 3 WITH 0 HOURS DURING SECURITY TRADING HOURS; NOT INVESTMENT RELATED."
    }
  },
  "DRPs": []
}