{
  "Info": {
    "lastNm": "ROBERTS",
    "firstNm": "SHAWN",
    "midNm": "ETIENNE",
    "sufNm": null,
    "indvlPK": "4970625",
    "actvAGReg": 0,
    "link": "http://www.adviserinfo.sec.gov/IAPD/Individual/4970625"
  },
  "OthrNms": [],
  "CrntEmps": [
    {
      "CrntRgstns": [
        {
          "regAuth": 21,
          "regCat": 0,
          "st": 2,
          "stDt": "2006-02-14T00:00:00"
        },
        {
          "regAuth": 28,
          "regCat": 0,
          "st": 2,
          "stDt": "2006-02-14T00:00:00"
        },
        {
          "regAuth": 47,
          "regCat": 0,
          "st": 2,
          "stDt": "2006-02-14T00:00:00"
        },
        {
          "regAuth": 7,
          "regCat": 0,
          "st": 2,
          "stDt": "2006-04-11T00:00:00"
        }
      ],
      "BrnchOfLocs": [
        {
          "str1": "1909 K ST NW",
          "str2": null,
          "city": "WASHINGTON",
          "state": 7,
          "stateSpecified": true,
          "cntry": "United States",
          "postlCd": "20006"
        },
        {
          "str1": "200 S COLLEGE ST",
          "str2": "8TH FL",
          "city": "CHARLOTTE",
          "state": 28,
          "stateSpecified": true,
          "cntry": "United States",
          "postlCd": "28202"
        },
        {
          "str1": "200 SOUTH COLLEGE STREET, 8TH FLOOR",
          "str2": null,
          "city": "CHARLOTTE",
          "state": 28,
          "stateSpecified": true,
          "cntry": "UNITED STATES",
          "postlCd": "28202"
        }
      ],
      "orgNm": "BB&T INVESTMENT SERVICES, INC.",
      "orgPK": "33856",
      "str1": "200 SOUTH COLLEGE STREET",
      "str2": "8TH FLOOR",
      "city": "CHARLOTTE",
      "state": 28,
      "stateSpecified": true,
      "cntry": "United States",
      "postlCd": "28202"
    }
  ],
  "Exms": [
    {
      "exmCd": 2,
      "exmNm": "Uniform Investment Adviser Law Examination",
      "exmDt": "2005-05-10T00:00:00",
      "exmDtSpecified": true
    },
    {
      "exmCd": 0,
      "exmNm": "Uniform Securities Agent State Law Examination",
      "exmDt": "2006-03-10T00:00:00",
      "exmDtSpecified": true
    }
  ],
  "Dsgntns": [],
  "PrevRgstns": [
    {
      "BrnchOfLocs": [
        {
          "city": "ALEXANDRIA",
          "state": 47,
          "stateSpecified": true
        }
      ],
      "orgNm": "BB&T ASSET MANAGEMENT, INC.",
      "orgPK": "108443",
      "regBeginDt": "2005-05-31T00:00:00",
      "regBeginDtSpecified": true,
      "regEndDt": "2006-02-14T00:00:00",
      "regEndDtSpecified": true
    }
  ],
  "EmpHss": [
    {
      "fromDt": "07/1997",
      "toDt": null,
      "orgNm": "BB&T/FVB",
      "city": "FALLS CHURCH",
      "state": 47,
      "stateSpecified": true
    },
    {
      "fromDt": "01/2006",
      "toDt": null,
      "orgNm": "BB&T INVESTMENTS",
      "city": "CHARLOTTE",
      "state": 28,
      "stateSpecified": true
    }
  ],
  "OthrBuss": {
    "OthrBus": null
  },
  "DRPs": []
}