{
  "Info": {
    "lastNm": "ARTHUR",
    "firstNm": "CHRISTOPHER",
    "midNm": "WAYNE",
    "sufNm": null,
    "indvlPK": "4972165",
    "actvAGReg": 0,
    "link": "http://www.adviserinfo.sec.gov/IAPD/Individual/4972165"
  },
  "OthrNms": [
    {
      "lastNm": "ARTHUR",
      "firstNm": "CHRIS",
      "midNm": null,
      "sufNm": null
    }
  ],
  "CrntEmps": [
    {
      "CrntRgstns": [
        {
          "regAuth": 13,
          "regCat": 0,
          "st": 2,
          "stDt": "2008-05-19T00:00:00"
        }
      ],
      "BrnchOfLocs": [
        {
          "str1": "2475 CORAL COURT",
          "str2": "SUITE A",
          "city": "CORALVILLE",
          "state": 13,
          "stateSpecified": true,
          "cntry": "United States",
          "postlCd": "52241"
        }
      ],
      "orgNm": "RDA FINANCIAL NETWORK",
      "orgPK": "147309",
      "str1": "2475 CORAL COURT SUITE A",
      "str2": null,
      "city": "CORALVILLE",
      "state": 13,
      "stateSpecified": true,
      "cntry": "United States",
      "postlCd": "52241"
    }
  ],
  "Exms": [
    {
      "exmCd": 3,
      "exmNm": "Uniform Combined State Law Examination",
      "exmDt": "2007-03-15T00:00:00",
      "exmDtSpecified": true
    }
  ],
  "Dsgntns": [],
  "PrevRgstns": [
    {
      "BrnchOfLocs": [
        {
          "city": "CEDAR RAPIDS",
          "state": 13,
          "stateSpecified": true
        }
      ],
      "orgNm": "STONEFIELD INVESTMENT ADVISORY, INC.",
      "orgPK": "113802",
      "regBeginDt": "2007-10-10T00:00:00",
      "regBeginDtSpecified": true,
      "regEndDt": "2008-07-10T00:00:00",
      "regEndDtSpecified": true
    }
  ],
  "EmpHss": [
    {
      "fromDt": "06/2006",
      "toDt": "07/2008",
      "orgNm": "STONEFIELD INVESTMENT ADVISORY",
      "city": "CEDAR RAPIDS",
      "state": 13,
      "stateSpecified": true
    },
    {
      "fromDt": "08/2006",
      "toDt": null,
      "orgNm": "CAMBRIDGE INVESTMENT RESEARCH, INC.",
      "city": "FAIRFIELD",
      "state": 13,
      "stateSpecified": true
    },
    {
      "fromDt": "05/2008",
      "toDt": null,
      "orgNm": "RDA FINANCIAL NETWORK, INC.",
      "city": "NORTH LIBERTY",
      "state": 13,
      "stateSpecified": true
    }
  ],
  "OthrBuss": {
    "OthrBus": {
      "desc": "1) INDEPENDENT INSURANCE AGENT FOR VARIOUS INDEPENDENT INSURANCE AGENCIES. 2) RDA FINANCIAL NETWORK, 1295 JORDAN ST. STE. 7, PO BOX 680, NORTH LIBERTY, IA 52317.  INSURANCE AGENT SINCE 05/21/10. IS INVESTMENT RELATED. WORKS 15 HOURS WEEKLY 2-4 OF WHICH ARE DURING TRADING HOURS. DUTIES: SELLS INSURANCE.  3)SELF CHRIS ARTHUR 1503 OLDE HICKORY LANE CORALVILLE,IA 52241. BEGAN 7/1/13 AS LANDLORD/MANAGER; OWNING PROPERTY AND LEASING IT OUT. ANTICIPATING EARNING A SLIGHT PROFIT FROM THIS ENDEVOR. NOT INVESTMENT RELATED. DEVOTES 20 HRS/YR. 5-10 DURING TRADING."
    }
  },
  "DRPs": []
}