{
  "Info": {
    "lastNm": "Short",
    "firstNm": "Jenna",
    "midNm": "Elizabeth",
    "sufNm": null,
    "indvlPK": "4985442",
    "actvAGReg": 0,
    "link": "http://www.adviserinfo.sec.gov/IAPD/Individual/4985442"
  },
  "OthrNms": [
    {
      "lastNm": "SHORT",
      "firstNm": "JENNA",
      "midNm": "ELIZABETH",
      "sufNm": null
    },
    {
      "lastNm": "TUSKIND",
      "firstNm": "JENNA",
      "midNm": "ELIZABETH",
      "sufNm": null
    }
  ],
  "CrntEmps": [
    {
      "CrntRgstns": [
        {
          "regAuth": 5,
          "regCat": 0,
          "st": 2,
          "stDt": "2006-11-27T00:00:00"
        },
        {
          "regAuth": 45,
          "regCat": 0,
          "st": 3,
          "stDt": "2014-08-26T00:00:00"
        }
      ],
      "BrnchOfLocs": [
        {
          "str1": "13701 W JEWELL AVE",
          "str2": "SUITE 114C",
          "city": "LAKEWOOD",
          "state": 5,
          "stateSpecified": true,
          "cntry": "United States",
          "postlCd": "80228"
        }
      ],
      "orgNm": "EDWARD JONES",
      "orgPK": "250",
      "str1": "12555 MANCHESTER RD",
      "str2": null,
      "city": "ST. LOUIS",
      "state": 25,
      "stateSpecified": true,
      "cntry": "United States",
      "postlCd": "63131"
    }
  ],
  "Exms": [
    {
      "exmCd": 0,
      "exmNm": "Uniform Securities Agent State Law Examination",
      "exmDt": "2005-08-26T00:00:00",
      "exmDtSpecified": true
    },
    {
      "exmCd": 3,
      "exmNm": "Uniform Combined State Law Examination",
      "exmDt": "2006-11-21T00:00:00",
      "exmDtSpecified": true
    }
  ],
  "Dsgntns": [],
  "PrevRgstns": [],
  "EmpHss": [
    {
      "fromDt": "06/2005",
      "toDt": null,
      "orgNm": "EDWARD JONES",
      "city": "ST. LOUIS",
      "state": 25,
      "stateSpecified": true
    }
  ],
  "OthrBuss": {
    "OthrBus": null
  },
  "DRPs": []
}