{
  "Info": {
    "lastNm": "WATSON",
    "firstNm": "BOBBY",
    "midNm": "FRANKLIN",
    "sufNm": null,
    "indvlPK": "4995454",
    "actvAGReg": 1,
    "link": "http://www.adviserinfo.sec.gov/IAPD/Individual/4995454"
  },
  "OthrNms": [],
  "CrntEmps": [
    {
      "CrntRgstns": [
        {
          "regAuth": 28,
          "regCat": 0,
          "st": 2,
          "stDt": "2009-12-02T00:00:00"
        }
      ],
      "BrnchOfLocs": [
        {
          "str1": "79 WOODFIN PLACE, SUITE 201",
          "str2": null,
          "city": "ASHEVILLE",
          "state": 28,
          "stateSpecified": true,
          "cntry": "United States",
          "postlCd": "28801"
        }
      ],
      "orgNm": "LPL FINANCIAL LLC",
      "orgPK": "6413",
      "str1": "75 STATE STREET, 22ND FLOOR",
      "str2": null,
      "city": "BOSTON",
      "state": 20,
      "stateSpecified": true,
      "cntry": "United States",
      "postlCd": "02109"
    }
  ],
  "Exms": [
    {
      "exmCd": 2,
      "exmNm": "Uniform Investment Adviser Law Examination",
      "exmDt": "2009-12-01T00:00:00",
      "exmDtSpecified": true
    }
  ],
  "Dsgntns": [],
  "PrevRgstns": [],
  "EmpHss": [
    {
      "fromDt": "12/2001",
      "toDt": "09/2009",
      "orgNm": "BOBBY F. WATSON, CPA",
      "city": "BOILING SPRINGS",
      "state": 28,
      "stateSpecified": true
    },
    {
      "fromDt": "07/2005",
      "toDt": "09/2009",
      "orgNm": "CADARET, GRANT & CO., INC.",
      "city": "EAST SYRACUSE",
      "state": 35,
      "stateSpecified": true
    },
    {
      "fromDt": "07/2005",
      "toDt": "09/2009",
      "orgNm": "EBS FINANCIAL",
      "city": "EAST SYRACUSE",
      "state": 35,
      "stateSpecified": true
    },
    {
      "fromDt": "09/2009",
      "toDt": null,
      "orgNm": "LPL FINANCIAL",
      "city": "ASHEVILLE",
      "state": 28,
      "stateSpecified": true
    }
  ],
  "OthrBuss": {
    "OthrBus": null
  },
  "DRPs": []
}