{
  "Info": {
    "lastNm": "RICHART",
    "firstNm": "JASON",
    "midNm": "MICHAEL",
    "sufNm": null,
    "indvlPK": "4997484",
    "actvAGReg": 0,
    "link": "http://www.adviserinfo.sec.gov/IAPD/Individual/4997484"
  },
  "OthrNms": [],
  "CrntEmps": [
    {
      "CrntRgstns": [
        {
          "regAuth": 4,
          "regCat": 0,
          "st": 2,
          "stDt": "2011-04-18T00:00:00"
        }
      ],
      "BrnchOfLocs": [
        {
          "str1": "1388 COURT ST STE D2",
          "str2": null,
          "city": "REDDING",
          "state": 4,
          "stateSpecified": true,
          "cntry": "United States",
          "postlCd": "96001"
        }
      ],
      "orgNm": "LPL FINANCIAL LLC",
      "orgPK": "6413",
      "str1": "75 STATE STREET, 22ND FLOOR",
      "str2": null,
      "city": "BOSTON",
      "state": 20,
      "stateSpecified": true,
      "cntry": "United States",
      "postlCd": "02109"
    }
  ],
  "Exms": [
    {
      "exmCd": 0,
      "exmNm": "Uniform Securities Agent State Law Examination",
      "exmDt": "2005-09-16T00:00:00",
      "exmDtSpecified": true
    },
    {
      "exmCd": 3,
      "exmNm": "Uniform Combined State Law Examination",
      "exmDt": "2007-05-31T00:00:00",
      "exmDtSpecified": true
    }
  ],
  "Dsgntns": [],
  "PrevRgstns": [
    {
      "BrnchOfLocs": [
        {
          "city": "REDDING",
          "state": 4,
          "stateSpecified": true
        },
        {
          "city": "REDDING",
          "state": 4,
          "stateSpecified": true
        },
        {
          "city": "ST. LOUIS",
          "state": 25,
          "stateSpecified": true
        }
      ],
      "orgNm": "EDWARD JONES",
      "orgPK": "250",
      "regBeginDt": "2007-06-06T00:00:00",
      "regBeginDtSpecified": true,
      "regEndDt": "2011-04-18T00:00:00",
      "regEndDtSpecified": true
    }
  ],
  "EmpHss": [
    {
      "fromDt": "07/2005",
      "toDt": "04/2011",
      "orgNm": "EDWARD JONES",
      "city": "ST. LOUIS",
      "state": 25,
      "stateSpecified": true
    },
    {
      "fromDt": "04/2011",
      "toDt": null,
      "orgNm": "LPL FINANCIAL LLC",
      "city": "REDDING",
      "state": 4,
      "stateSpecified": true
    }
  ],
  "OthrBuss": {
    "OthrBus": null
  },
  "DRPs": []
}