{
  "Info": {
    "lastNm": "HENISE",
    "firstNm": "RALPH",
    "midNm": "JOHN",
    "sufNm": "JR.",
    "indvlPK": "5004630",
    "actvAGReg": 0,
    "link": "http://www.adviserinfo.sec.gov/IAPD/Individual/5004630"
  },
  "OthrNms": [
    {
      "lastNm": "HENISE",
      "firstNm": "RALPH",
      "midNm": "JOHN",
      "sufNm": null
    },
    {
      "lastNm": "HENISE",
      "firstNm": "RALPH",
      "midNm": "JOHN",
      "sufNm": null
    },
    {
      "lastNm": "HENISE",
      "firstNm": "RALPH",
      "midNm": "JOHN",
      "sufNm": "JR."
    }
  ],
  "CrntEmps": [
    {
      "CrntRgstns": [
        {
          "regAuth": 6,
          "regCat": 0,
          "st": 2,
          "stDt": "2007-09-21T00:00:00"
        },
        {
          "regAuth": 45,
          "regCat": 0,
          "st": 3,
          "stDt": "2012-06-25T00:00:00"
        }
      ],
      "BrnchOfLocs": [
        {
          "str1": "1700 W PARK DR",
          "str2": null,
          "city": "WESTBOROUGH",
          "state": 20,
          "stateSpecified": true,
          "cntry": "United States",
          "postlCd": "01581"
        }
      ],
      "orgNm": "MERRILL LYNCH, PIERCE, FENNER & SMITH INCORPORATED",
      "orgPK": "7691",
      "str1": "ONE BRYANT PARK",
      "str2": null,
      "city": "NEW YORK",
      "state": 35,
      "stateSpecified": true,
      "cntry": "United States",
      "postlCd": "10036"
    }
  ],
  "Exms": [
    {
      "exmCd": 3,
      "exmNm": "Uniform Combined State Law Examination",
      "exmDt": "2005-09-23T00:00:00",
      "exmDtSpecified": true
    }
  ],
  "Dsgntns": [],
  "PrevRgstns": [],
  "EmpHss": [
    {
      "fromDt": "04/2006",
      "toDt": "09/2007",
      "orgNm": "PROSOURCE PARTNERS",
      "city": "HOPKINTON",
      "state": 20,
      "stateSpecified": true
    },
    {
      "fromDt": "09/2007",
      "toDt": null,
      "orgNm": "MERRILL LYNCH, PIERCE, FENNER & SMITH INCORPORATED",
      "city": "WESTBOROUGH",
      "state": 20,
      "stateSpecified": true
    }
  ],
  "OthrBuss": {
    "OthrBus": null
  },
  "DRPs": []
}