{
  "Info": {
    "lastNm": "GAUTAM",
    "firstNm": "RISHI",
    "midNm": null,
    "sufNm": null,
    "indvlPK": "5009911",
    "actvAGReg": 1,
    "link": "http://www.adviserinfo.sec.gov/IAPD/Individual/5009911"
  },
  "OthrNms": [
    {
      "lastNm": "RAMNARAIN",
      "firstNm": "RISHI",
      "midNm": "G",
      "sufNm": null
    },
    {
      "lastNm": "RAMNARAIN",
      "firstNm": "RISHI",
      "midNm": "GOWTAM",
      "sufNm": null
    },
    {
      "lastNm": "RAMNARAIN",
      "firstNm": "RISHI",
      "midNm": "GOWTAM",
      "sufNm": null
    }
  ],
  "CrntEmps": [
    {
      "CrntRgstns": [
        {
          "regAuth": 9,
          "regCat": 0,
          "st": 2,
          "stDt": "2010-11-02T00:00:00"
        }
      ],
      "BrnchOfLocs": [
        {
          "str1": "6405 NW 36TH STREET",
          "str2": "SUITE 109",
          "city": "MIAMI",
          "state": 9,
          "stateSpecified": true,
          "cntry": "United States",
          "postlCd": "33166"
        }
      ],
      "orgNm": "BERYLIAN CAPITAL, LLC",
      "orgPK": "152021",
      "str1": "6405 NW 36TH STREET",
      "str2": "SUITE 109",
      "city": "MIAMI",
      "state": 9,
      "stateSpecified": true,
      "cntry": "United States",
      "postlCd": "33166"
    }
  ],
  "Exms": [
    {
      "exmCd": 3,
      "exmNm": "Uniform Combined State Law Examination",
      "exmDt": "2005-11-22T00:00:00",
      "exmDtSpecified": true
    }
  ],
  "Dsgntns": [],
  "PrevRgstns": [
    {
      "BrnchOfLocs": [
        {
          "city": "MIAMI",
          "state": 9,
          "stateSpecified": true
        },
        {
          "city": "NEW YORK",
          "state": 35,
          "stateSpecified": true
        }
      ],
      "orgNm": "LEHMAN BROTHERS INC.",
      "orgPK": "7506",
      "regBeginDt": "2007-06-29T00:00:00",
      "regBeginDtSpecified": true,
      "regEndDt": "2008-10-15T00:00:00",
      "regEndDtSpecified": true
    },
    {
      "BrnchOfLocs": [
        {
          "city": "MIAMI",
          "state": 9,
          "stateSpecified": true
        },
        {
          "city": "SAN FRANCISCO",
          "state": 4,
          "stateSpecified": true
        }
      ],
      "orgNm": "BARCLAYS CAPITAL INC.",
      "orgPK": "19714",
      "regBeginDt": "2009-01-21T00:00:00",
      "regBeginDtSpecified": true,
      "regEndDt": "2010-02-18T00:00:00",
      "regEndDtSpecified": true
    }
  ],
  "EmpHss": [
    {
      "fromDt": "07/2005",
      "toDt": "06/2007",
      "orgNm": "GOLDMAN, SACHS & CO.",
      "city": "MIAMI",
      "state": 9,
      "stateSpecified": true
    },
    {
      "fromDt": "06/2007",
      "toDt": "09/2008",
      "orgNm": "LEHMAN BROTHERS INC.",
      "city": "NEW YORK",
      "state": 35,
      "stateSpecified": true
    },
    {
      "fromDt": "09/2008",
      "toDt": "01/2010",
      "orgNm": "BARCLAYS CAPITAL INC.",
      "city": "MIAMI",
      "state": 9,
      "stateSpecified": true
    },
    {
      "fromDt": "02/2010",
      "toDt": null,
      "orgNm": "BERYLIAN CAPITAL, LLC",
      "city": "MIAMI",
      "state": 9,
      "stateSpecified": true
    }
  ],
  "OthrBuss": {
    "OthrBus": null
  },
  "DRPs": []
}