{
  "Info": {
    "lastNm": "GAHERTY",
    "firstNm": "NATHAN",
    "midNm": "JOHN",
    "sufNm": null,
    "indvlPK": "5011789",
    "actvAGReg": 0,
    "link": "http://www.adviserinfo.sec.gov/IAPD/Individual/5011789"
  },
  "OthrNms": [],
  "CrntEmps": [
    {
      "CrntRgstns": [
        {
          "regAuth": 5,
          "regCat": 0,
          "st": 2,
          "stDt": "2008-12-08T00:00:00"
        }
      ],
      "BrnchOfLocs": [
        {
          "str1": "9875 SCHWAB WAY",
          "str2": null,
          "city": "LONE TREE",
          "state": 5,
          "stateSpecified": true,
          "cntry": "United States",
          "postlCd": "80124"
        }
      ],
      "orgNm": "CHARLES SCHWAB & CO., INC.",
      "orgPK": "5393",
      "str1": "211 MAIN STREET",
      "str2": null,
      "city": "SAN FRANCISCO",
      "state": 4,
      "stateSpecified": true,
      "cntry": "United States",
      "postlCd": "94105"
    }
  ],
  "Exms": [
    {
      "exmCd": 3,
      "exmNm": "Uniform Combined State Law Examination",
      "exmDt": "2006-01-09T00:00:00",
      "exmDtSpecified": true
    }
  ],
  "Dsgntns": [],
  "PrevRgstns": [
    {
      "BrnchOfLocs": [
        {
          "city": "DAVENPORT",
          "state": 13,
          "stateSpecified": true
        },
        {
          "city": "DUBUQUE",
          "state": 13,
          "stateSpecified": true
        },
        {
          "city": "MINNEAPOLIS",
          "state": 24,
          "stateSpecified": true
        }
      ],
      "orgNm": "AMERIPRISE FINANCIAL SERVICES, INC.",
      "orgPK": "6363",
      "regBeginDt": "2006-01-11T00:00:00",
      "regBeginDtSpecified": true,
      "regEndDt": "2008-10-02T00:00:00",
      "regEndDtSpecified": true
    }
  ],
  "EmpHss": [
    {
      "fromDt": "08/2005",
      "toDt": "09/2008",
      "orgNm": "AMERIPRISE FINANCIAL SERVICES, INC.",
      "city": "MINNEAPOLIS",
      "state": 24,
      "stateSpecified": true
    },
    {
      "fromDt": "10/2008",
      "toDt": "11/2008",
      "orgNm": "UNEMPLOYED",
      "city": "EDGWATER",
      "state": 5,
      "stateSpecified": true
    },
    {
      "fromDt": "11/2008",
      "toDt": null,
      "orgNm": "CHARLES SCHWAB & CO., INC.",
      "city": "ENGLEWOOD",
      "state": 5,
      "stateSpecified": true
    },
    {
      "fromDt": "04/2012",
      "toDt": null,
      "orgNm": "OPTIONSXPRESS, INC.",
      "city": "LONE TREE",
      "state": 5,
      "stateSpecified": true
    }
  ],
  "OthrBuss": {
    "OthrBus": null
  },
  "DRPs": []
}