{
  "Info": {
    "lastNm": "BRUNSON",
    "firstNm": "MATTHEW",
    "midNm": "MARCUS",
    "sufNm": null,
    "indvlPK": "5014007",
    "actvAGReg": 0,
    "link": "http://www.adviserinfo.sec.gov/IAPD/Individual/5014007"
  },
  "OthrNms": [],
  "CrntEmps": [
    {
      "CrntRgstns": [
        {
          "regAuth": 13,
          "regCat": 0,
          "st": 2,
          "stDt": "2014-12-10T00:00:00"
        }
      ],
      "BrnchOfLocs": [
        {
          "str1": "5400 UNIVERSITY AVE",
          "str2": null,
          "city": "WEST DES MOINES",
          "state": 13,
          "stateSpecified": true,
          "cntry": "United States",
          "postlCd": "50266"
        }
      ],
      "orgNm": "FBL INVESTMENT MANAGEMENT SERVICES, INC.",
      "orgPK": "5308",
      "str1": "5400 UNIVERSITY AVE",
      "str2": null,
      "city": "WEST DES MOINES",
      "state": 13,
      "stateSpecified": true,
      "cntry": "United States",
      "postlCd": "50266-5997"
    }
  ],
  "Exms": [
    {
      "exmCd": 0,
      "exmNm": "Uniform Securities Agent State Law Examination",
      "exmDt": "2005-10-03T00:00:00",
      "exmDtSpecified": true
    },
    {
      "exmCd": 2,
      "exmNm": "Uniform Investment Adviser Law Examination",
      "exmDt": "2012-10-03T00:00:00",
      "exmDtSpecified": true
    }
  ],
  "Dsgntns": [],
  "PrevRgstns": [
    {
      "BrnchOfLocs": [
        {
          "city": "CEDAR RAPIDS",
          "state": 13,
          "stateSpecified": true
        }
      ],
      "orgNm": "PRINCIPAL SECURITIES, INC.",
      "orgPK": "1137",
      "regBeginDt": "2012-10-04T00:00:00",
      "regBeginDtSpecified": true,
      "regEndDt": "2014-09-19T00:00:00",
      "regEndDtSpecified": true
    }
  ],
  "EmpHss": [
    {
      "fromDt": "10/2005",
      "toDt": "05/2012",
      "orgNm": "EQUITRUST MARKETING SERV LLC",
      "city": "WEST DES MOINES",
      "state": 13,
      "stateSpecified": true
    },
    {
      "fromDt": "10/2005",
      "toDt": "05/2012",
      "orgNm": "FARM BUREAU",
      "city": "WEST DES MOINES",
      "state": 13,
      "stateSpecified": true
    },
    {
      "fromDt": "06/2012",
      "toDt": "08/2012",
      "orgNm": "ING FINANCIAL PARTNERS INC",
      "city": "CEDAR RAPIDS",
      "state": 13,
      "stateSpecified": true
    },
    {
      "fromDt": "08/2012",
      "toDt": "09/2014",
      "orgNm": "PRINCIPAL LIFE INSURANCE CO",
      "city": "CEDAR RAPIDS",
      "state": 13,
      "stateSpecified": true
    },
    {
      "fromDt": "08/2012",
      "toDt": "09/2014",
      "orgNm": "PRINCOR FINANCIAL SERVICES",
      "city": "CEDAR RAPIDS",
      "state": 13,
      "stateSpecified": true
    },
    {
      "fromDt": "08/2012",
      "toDt": "09/2014",
      "orgNm": "STRATEGIC FINANCIAL SOLUTIONS",
      "city": "CEDAR RAPIDS",
      "state": 13,
      "stateSpecified": true
    },
    {
      "fromDt": "09/2014",
      "toDt": null,
      "orgNm": "FARM BUREAU FINANCIAL SERVICES",
      "city": "WEST DES MOINES",
      "state": 13,
      "stateSpecified": true
    },
    {
      "fromDt": "09/2014",
      "toDt": null,
      "orgNm": "FBL MARKETING SERVICES",
      "city": "WEST DES MOINES",
      "state": 13,
      "stateSpecified": true
    }
  ],
  "OthrBuss": {
    "OthrBus": {
      "desc": "FBL INVESTMENT MANAGEMENT SERVICES, INC. INVESTMENT RELATED.  5400 UNIVERSITY AVE, WEST DES MOINES, IA 50266.  FINANCIAL PLANNING.  INVESTMENT ADVISOR REPRESENTATIVE.  START DATE 12/2014.  3-5 HOURS A MONTH.  3-5 HOURS PER MONTH DURING SECURITIES TRADING HOURS.  DUTIES: PROVIDE FINANCIAL PLANNING SERVICES TO CUSTOMERS."
    }
  },
  "DRPs": []
}