{
  "Info": {
    "lastNm": "LISTON",
    "firstNm": "JOHN",
    "midNm": "P",
    "sufNm": null,
    "indvlPK": "5027383",
    "actvAGReg": 0,
    "link": "http://www.adviserinfo.sec.gov/IAPD/Individual/5027383"
  },
  "OthrNms": [
    {
      "lastNm": "LISTON",
      "firstNm": "JOHN",
      "midNm": "PATRICK",
      "sufNm": null
    },
    {
      "lastNm": "LISTON",
      "firstNm": "JOHN",
      "midNm": "PATRICK",
      "sufNm": "JR"
    },
    {
      "lastNm": "LISTON",
      "firstNm": "JOHN",
      "midNm": "PATRICK",
      "sufNm": "JR."
    }
  ],
  "CrntEmps": [
    {
      "CrntRgstns": [
        {
          "regAuth": 32,
          "regCat": 0,
          "st": 2,
          "stDt": "2007-02-07T00:00:00"
        },
        {
          "regAuth": 45,
          "regCat": 0,
          "st": 2,
          "stDt": "2007-02-07T00:00:00"
        }
      ],
      "BrnchOfLocs": [
        {
          "str1": "1100-1800 AMERICAN BLVD",
          "str2": "MERRILL EDGE ADVISORY CENTER",
          "city": "PENNINGTON",
          "state": 32,
          "stateSpecified": true,
          "cntry": "United States",
          "postlCd": "08534"
        }
      ],
      "orgNm": "MERRILL LYNCH, PIERCE, FENNER & SMITH INCORPORATED",
      "orgPK": "7691",
      "str1": "ONE BRYANT PARK",
      "str2": null,
      "city": "NEW YORK",
      "state": 35,
      "stateSpecified": true,
      "cntry": "United States",
      "postlCd": "10036"
    }
  ],
  "Exms": [
    {
      "exmCd": 3,
      "exmNm": "Uniform Combined State Law Examination",
      "exmDt": "2005-11-19T00:00:00",
      "exmDtSpecified": true
    }
  ],
  "Dsgntns": [],
  "PrevRgstns": [
    {
      "BrnchOfLocs": [
        {
          "city": "EDISON",
          "state": 32,
          "stateSpecified": true
        },
        {
          "city": "RED BANK",
          "state": 32,
          "stateSpecified": true
        }
      ],
      "orgNm": "AMERIPRISE FINANCIAL SERVICES, INC.",
      "orgPK": "6363",
      "regBeginDt": "2005-11-21T00:00:00",
      "regBeginDtSpecified": true,
      "regEndDt": "2007-01-03T00:00:00",
      "regEndDtSpecified": true
    }
  ],
  "EmpHss": [
    {
      "fromDt": "09/2005",
      "toDt": "12/2006",
      "orgNm": "AMERIPRISE FINANCIAL SERVICES, INC.",
      "city": "EDISON",
      "state": 32,
      "stateSpecified": true
    },
    {
      "fromDt": "01/2006",
      "toDt": null,
      "orgNm": "MERRILL LYNCH, PIERCE, FENNER & SMITH INCORPORATED",
      "city": "PENNINGTON",
      "state": 32,
      "stateSpecified": true
    }
  ],
  "OthrBuss": {
    "OthrBus": null
  },
  "DRPs": []
}