{
  "Info": {
    "lastNm": "EISENMAN",
    "firstNm": "HOWARD",
    "midNm": "PAUL",
    "sufNm": null,
    "indvlPK": "502906",
    "actvAGReg": 0,
    "link": "http://www.adviserinfo.sec.gov/IAPD/Individual/502906"
  },
  "OthrNms": [],
  "CrntEmps": [
    {
      "CrntRgstns": [
        {
          "regAuth": 26,
          "regCat": 0,
          "st": 2,
          "stDt": "2000-04-10T00:00:00"
        },
        {
          "regAuth": 9,
          "regCat": 0,
          "st": 2,
          "stDt": "2001-05-16T00:00:00"
        },
        {
          "regAuth": 10,
          "regCat": 0,
          "st": 2,
          "stDt": "2006-01-12T00:00:00"
        }
      ],
      "BrnchOfLocs": [
        {
          "str1": "3116 CAPITOL CIRCLE NE",
          "str2": "SUITE 10",
          "city": "TALLAHASSEE",
          "state": 9,
          "stateSpecified": true,
          "cntry": "United States",
          "postlCd": "32308"
        }
      ],
      "orgNm": "NBC SECURITIES, INC.",
      "orgPK": "17870",
      "str1": "1927 FIRST AVENUE NORTH",
      "str2": null,
      "city": "BIRMINGHAM",
      "state": 1,
      "stateSpecified": true,
      "cntry": "United States",
      "postlCd": "35203"
    }
  ],
  "Exms": [
    {
      "exmCd": 0,
      "exmNm": "Uniform Securities Agent State Law Examination",
      "exmDt": "1979-08-06T00:00:00",
      "exmDtSpecified": true
    },
    {
      "exmCd": 2,
      "exmNm": "Uniform Investment Adviser Law Examination",
      "exmDt": "1994-01-10T00:00:00",
      "exmDtSpecified": true
    }
  ],
  "Dsgntns": [],
  "PrevRgstns": [],
  "EmpHss": [
    {
      "fromDt": "03/2000",
      "toDt": null,
      "orgNm": "ENHANCED FINANCIAL SERVICES",
      "city": "TALLAHASSEE",
      "state": 9,
      "stateSpecified": true
    },
    {
      "fromDt": "03/2000",
      "toDt": null,
      "orgNm": "NBC SECURITIES, INC",
      "city": "TALLAHASSEE",
      "state": 9,
      "stateSpecified": true
    }
  ],
  "OthrBuss": {
    "OthrBus": {
      "desc": "STULTZ, EISENMAN, HAGAN & HAGAN  REAL ESTATE LLC FORMED FOR THE PURPOSE OF BUILDING OWNERSHIP AT THE REGISTERED BRANCH OFFICE LOCATION."
    }
  },
  "DRPs": [
    {
      "hasRegAction": 0,
      "hasRegActionSpecified": true,
      "hasCriminal": 1,
      "hasCriminalSpecified": true,
      "hasBankrupt": 1,
      "hasBankruptSpecified": true,
      "hasCivilJudc": 1,
      "hasCivilJudcSpecified": true,
      "hasBond": 1,
      "hasBondSpecified": true,
      "hasJudgment": 1,
      "hasJudgmentSpecified": true,
      "hasInvstgn": 1,
      "hasInvstgnSpecified": true,
      "hasCustComp": 0,
      "hasCustCompSpecified": true,
      "hasTermination": 1,
      "hasTerminationSpecified": true
    }
  ]
}