{
  "Info": {
    "lastNm": "JOHNSON",
    "firstNm": "DENISE",
    "midNm": "JOYE",
    "sufNm": null,
    "indvlPK": "5032780",
    "actvAGReg": 0,
    "link": "http://www.adviserinfo.sec.gov/IAPD/Individual/5032780"
  },
  "OthrNms": [],
  "CrntEmps": [
    {
      "CrntRgstns": [
        {
          "regAuth": 45,
          "regCat": 0,
          "st": 2,
          "stDt": "2011-01-03T00:00:00"
        }
      ],
      "BrnchOfLocs": [
        {
          "str1": "1000 LOUISIANA ST 2ND, 3RD & 7TH FLS",
          "str2": "[TD-RBO]",
          "city": "HOUSTON",
          "state": 45,
          "stateSpecified": true,
          "cntry": "United States",
          "postlCd": "77002"
        },
        {
          "str1": "3660 HAMPTON DR",
          "str2": null,
          "city": "MISSOURI CITY",
          "state": 45,
          "stateSpecified": true,
          "cntry": "United States",
          "postlCd": "77454"
        }
      ],
      "orgNm": "WELLS FARGO ADVISORS, LLC",
      "orgPK": "19616",
      "str1": "ONE NORTH JEFFERSON AVENUE",
      "str2": "MAIL CODE: H0004-050",
      "city": "ST. LOUIS",
      "state": 25,
      "stateSpecified": true,
      "cntry": "United States",
      "postlCd": "63103-2205"
    }
  ],
  "Exms": [
    {
      "exmCd": 0,
      "exmNm": "Uniform Securities Agent State Law Examination",
      "exmDt": "2005-10-27T00:00:00",
      "exmDtSpecified": true
    },
    {
      "exmCd": 2,
      "exmNm": "Uniform Investment Adviser Law Examination",
      "exmDt": "2008-03-24T00:00:00",
      "exmDtSpecified": true
    }
  ],
  "Dsgntns": [],
  "PrevRgstns": [
    {
      "BrnchOfLocs": [
        {
          "city": "HOUSTON",
          "state": 45,
          "stateSpecified": true
        },
        {
          "city": "MENOMONEE FALLS",
          "state": 50,
          "stateSpecified": true
        }
      ],
      "orgNm": "WELLS FARGO INVESTMENTS, LLC",
      "orgPK": "10582",
      "regBeginDt": "2008-03-25T00:00:00",
      "regBeginDtSpecified": true,
      "regEndDt": "2011-01-03T00:00:00",
      "regEndDtSpecified": true
    }
  ],
  "EmpHss": [
    {
      "fromDt": "09/2005",
      "toDt": "02/2008",
      "orgNm": "WELLS FARGO FUNDS DISTRIBUTOR, LLC",
      "city": "MENOMONEE FALLS",
      "state": 50,
      "stateSpecified": true
    },
    {
      "fromDt": "02/2008",
      "toDt": "07/2008",
      "orgNm": "WELLS FARGO INVESTMENTS, LLC",
      "city": "MENOMONEE FALLS",
      "state": 50,
      "stateSpecified": true
    },
    {
      "fromDt": "07/2008",
      "toDt": "01/2011",
      "orgNm": "WELLS FARGO INVESTMENTS, LLC",
      "city": "HOUSTON",
      "state": 45,
      "stateSpecified": true
    },
    {
      "fromDt": "01/2011",
      "toDt": null,
      "orgNm": "WELLS FARGO ADVISORS LLC",
      "city": "HOUSTON",
      "state": 45,
      "stateSpecified": true
    }
  ],
  "OthrBuss": {
    "OthrBus": null
  },
  "DRPs": []
}