{
  "Info": {
    "lastNm": "DEROSSET",
    "firstNm": "NADINE",
    "midNm": "J",
    "sufNm": null,
    "indvlPK": "5037435",
    "actvAGReg": 0,
    "link": "http://www.adviserinfo.sec.gov/IAPD/Individual/5037435"
  },
  "OthrNms": [
    {
      "lastNm": "DE ROSSET",
      "firstNm": "NADINE",
      "midNm": "J",
      "sufNm": null
    }
  ],
  "CrntEmps": [
    {
      "CrntRgstns": [
        {
          "regAuth": 4,
          "regCat": 0,
          "st": 2,
          "stDt": "2006-09-06T00:00:00"
        },
        {
          "regAuth": 36,
          "regCat": 0,
          "st": 2,
          "stDt": "2015-05-13T00:00:00"
        },
        {
          "regAuth": 45,
          "regCat": 0,
          "st": 3,
          "stDt": "2015-05-14T00:00:00"
        },
        {
          "regAuth": 19,
          "regCat": 0,
          "st": 2,
          "stDt": "2015-05-18T00:00:00"
        },
        {
          "regAuth": 28,
          "regCat": 0,
          "st": 2,
          "stDt": "2015-05-27T00:00:00"
        }
      ],
      "BrnchOfLocs": [
        {
          "str1": "2029 CENTURY PARK EAST",
          "str2": "FLOOR 37 & 38",
          "city": "LOS ANGELES",
          "state": 4,
          "stateSpecified": true,
          "cntry": "United States",
          "postlCd": "90067"
        }
      ],
      "orgNm": "J.P. MORGAN SECURITIES LLC",
      "orgPK": "79",
      "str1": "277 PARK AVENUE",
      "str2": null,
      "city": "NEW YORK",
      "state": 35,
      "stateSpecified": true,
      "cntry": "United States",
      "postlCd": "10172"
    }
  ],
  "Exms": [
    {
      "exmCd": 3,
      "exmNm": "Uniform Combined State Law Examination",
      "exmDt": "2006-02-24T00:00:00",
      "exmDtSpecified": true
    }
  ],
  "Dsgntns": [],
  "PrevRgstns": [
    {
      "BrnchOfLocs": [
        {
          "city": "NEW YORK",
          "state": 35,
          "stateSpecified": true
        },
        {
          "city": "NEW YORK",
          "state": 35,
          "stateSpecified": true
        }
      ],
      "orgNm": "MERRILL LYNCH, PIERCE, FENNER & SMITH INCORPORATED",
      "orgPK": "7691",
      "regBeginDt": "2006-02-27T00:00:00",
      "regBeginDtSpecified": true,
      "regEndDt": "2006-08-18T00:00:00",
      "regEndDtSpecified": true
    }
  ],
  "EmpHss": [
    {
      "fromDt": "07/2004",
      "toDt": "09/2006",
      "orgNm": "MERRILL LYNCH, PIERCE, FENNER & SMITH INCORPORATED",
      "city": "NEW YORK",
      "state": 35,
      "stateSpecified": true
    },
    {
      "fromDt": "09/2006",
      "toDt": "10/2008",
      "orgNm": "BEAR, STEARNS & CO. INC.",
      "city": "LOS ANGELES",
      "state": 4,
      "stateSpecified": true
    },
    {
      "fromDt": "10/2008",
      "toDt": null,
      "orgNm": "J.P. MORGAN SECURITIES LLC",
      "city": "LOS ANGELES",
      "state": 4,
      "stateSpecified": true
    },
    {
      "fromDt": "10/2010",
      "toDt": null,
      "orgNm": "JPMORGAN CHASE BANK, N.A.",
      "city": "LOS ANGELES",
      "state": 4,
      "stateSpecified": true
    }
  ],
  "OthrBuss": {
    "OthrBus": {
      "desc": "EFFECTIVE OCTOBER 1, 2010, I WILL BE AN EMPLOYEE OF BOTH J.P. MORGAN SECURITIES LLC AND JPMORGAN CHASE BANK, N.A. (\"JPMCB\").  JPMCB OFFERS A BROAD RANGE OF PRODUCTS AND SERVICES NATIONWIDE.  AS AN EMPLOYEE OF JPMCB, I WILL BE ABLE TO OFFER CERTAIN BANK PRODUCTS AND SERVICES, INCLUDING DEPOSIT AND CREDIT PRODUCTS AND DISCRETIONARY INVESTMENT MANAGEMENT."
    }
  },
  "DRPs": []
}