{
  "Info": {
    "lastNm": "BALDENEGRO",
    "firstNm": "MARIE",
    "midNm": "A",
    "sufNm": null,
    "indvlPK": "5041743",
    "actvAGReg": 0,
    "link": "http://www.adviserinfo.sec.gov/IAPD/Individual/5041743"
  },
  "OthrNms": [],
  "CrntEmps": [
    {
      "CrntRgstns": [
        {
          "regAuth": 45,
          "regCat": 0,
          "st": 2,
          "stDt": "2015-02-25T00:00:00"
        }
      ],
      "BrnchOfLocs": [
        {
          "str1": "2 ADDISON CIRCLE",
          "str2": "15725 N. DALLAS PARKWAY",
          "city": "ADDISTON",
          "state": 45,
          "stateSpecified": true,
          "cntry": "United States",
          "postlCd": "75001"
        }
      ],
      "orgNm": "USAA FINANCIAL PLANNING SERVICES",
      "orgPK": "106352",
      "str1": "9800 FREDERICKSBURG ROAD",
      "str2": null,
      "city": "SAN ANTONIO",
      "state": 45,
      "stateSpecified": true,
      "cntry": "United States",
      "postlCd": "78288-0227"
    }
  ],
  "Exms": [
    {
      "exmCd": 0,
      "exmNm": "Uniform Securities Agent State Law Examination",
      "exmDt": "2014-11-19T00:00:00",
      "exmDtSpecified": true
    },
    {
      "exmCd": 2,
      "exmNm": "Uniform Investment Adviser Law Examination",
      "exmDt": "2015-02-21T00:00:00",
      "exmDtSpecified": true
    }
  ],
  "Dsgntns": [],
  "PrevRgstns": [],
  "EmpHss": [
    {
      "fromDt": "09/2005",
      "toDt": "03/2009",
      "orgNm": "A.G. EDWARDS/ WACHOVIA SECURITIES/ WELLS FARGO",
      "city": "FLOWER MOUND",
      "state": 45,
      "stateSpecified": true
    },
    {
      "fromDt": "03/2009",
      "toDt": "08/2014",
      "orgNm": "BARLOW CAPITAL ADVISORS",
      "city": "FLOWER MOUND",
      "state": 45,
      "stateSpecified": true
    },
    {
      "fromDt": "09/2014",
      "toDt": null,
      "orgNm": "USAA FINANCIAL ADVISORS, INC.",
      "city": "ADDISON",
      "state": 45,
      "stateSpecified": true
    },
    {
      "fromDt": "09/2014",
      "toDt": null,
      "orgNm": "USAA FINANCIAL PLANNING SERVICES",
      "city": "ADDISON",
      "state": 45,
      "stateSpecified": true
    }
  ],
  "OthrBuss": {
    "OthrBus": null
  },
  "DRPs": []
}