{
  "Info": {
    "lastNm": "CARTWRIGHT",
    "firstNm": "JAMES",
    "midNm": "HENRY",
    "sufNm": "V",
    "indvlPK": "5057640",
    "actvAGReg": 0,
    "link": "http://www.adviserinfo.sec.gov/IAPD/Individual/5057640"
  },
  "OthrNms": [
    {
      "lastNm": "CARTWRIGHT",
      "firstNm": "JAMES",
      "midNm": "HENRY",
      "sufNm": null
    }
  ],
  "CrntEmps": [
    {
      "CrntRgstns": [
        {
          "regAuth": 5,
          "regCat": 0,
          "st": 2,
          "stDt": "2007-04-13T00:00:00"
        }
      ],
      "BrnchOfLocs": [
        {
          "str1": "201 COLUMBINE STREET",
          "str2": "SUITE #130",
          "city": "DENVER",
          "state": 5,
          "stateSpecified": true,
          "cntry": "United States",
          "postlCd": "80206-4741"
        }
      ],
      "orgNm": "CHARLES SCHWAB & CO., INC.",
      "orgPK": "5393",
      "str1": "211 MAIN STREET",
      "str2": null,
      "city": "SAN FRANCISCO",
      "state": 4,
      "stateSpecified": true,
      "cntry": "United States",
      "postlCd": "94105"
    }
  ],
  "Exms": [
    {
      "exmCd": 0,
      "exmNm": "Uniform Securities Agent State Law Examination",
      "exmDt": "2006-01-13T00:00:00",
      "exmDtSpecified": true
    },
    {
      "exmCd": 3,
      "exmNm": "Uniform Combined State Law Examination",
      "exmDt": "2007-04-12T00:00:00",
      "exmDtSpecified": true
    }
  ],
  "Dsgntns": [],
  "PrevRgstns": [],
  "EmpHss": [
    {
      "fromDt": "10/2005",
      "toDt": null,
      "orgNm": "CHARLES SCHWAB & CO., INC.",
      "city": "DENVER",
      "state": 5,
      "stateSpecified": true
    },
    {
      "fromDt": "04/2008",
      "toDt": null,
      "orgNm": "CHARLES SCHWAB BANK",
      "city": "DENVER",
      "state": 5,
      "stateSpecified": true
    }
  ],
  "OthrBuss": {
    "OthrBus": {
      "desc": "4/2008,CHARLES SCHWAB BANK, INVESTMENT RELATED,DENVER,CO, DUAL EMPLOYEE, BANK PRODUCTS, REFERRALS OF HELOC, MORTGAGES, INVESTOR CHECKING PRODUCTS FOR APPROXIMATELY 20 HOURS PER MONTH."
    }
  },
  "DRPs": []
}