{
  "Info": {
    "lastNm": "FISHER",
    "firstNm": "BEAU",
    "midNm": "MITCHEL",
    "sufNm": null,
    "indvlPK": "5063122",
    "actvAGReg": 0,
    "link": "http://www.adviserinfo.sec.gov/IAPD/Individual/5063122"
  },
  "OthrNms": [],
  "CrntEmps": [
    {
      "CrntRgstns": [
        {
          "regAuth": 4,
          "regCat": 0,
          "st": 2,
          "stDt": "2006-01-10T00:00:00"
        },
        {
          "regAuth": 45,
          "regCat": 0,
          "st": 2,
          "stDt": "2015-07-16T00:00:00"
        }
      ],
      "BrnchOfLocs": [
        {
          "str1": "100 RAILROAD AVE",
          "str2": null,
          "city": "DANVILLE",
          "state": 4,
          "stateSpecified": true,
          "cntry": "United States",
          "postlCd": "94526-3878"
        }
      ],
      "orgNm": "LPL FINANCIAL LLC",
      "orgPK": "6413",
      "str1": "75 STATE STREET, 22ND FLOOR",
      "str2": null,
      "city": "BOSTON",
      "state": 20,
      "stateSpecified": true,
      "cntry": "United States",
      "postlCd": "02109"
    }
  ],
  "Exms": [
    {
      "exmCd": 3,
      "exmNm": "Uniform Combined State Law Examination",
      "exmDt": "2006-01-09T00:00:00",
      "exmDtSpecified": true
    }
  ],
  "Dsgntns": [
    {
      "dsgntnNm": "Certified Financial Planner"
    }
  ],
  "PrevRgstns": [
    {
      "BrnchOfLocs": [
        {
          "city": "DANVILLE",
          "state": 4,
          "stateSpecified": true
        }
      ],
      "orgNm": "BEAU MITCHEL FISHER",
      "orgPK": "151215",
      "regBeginDt": "2010-03-03T00:00:00",
      "regBeginDtSpecified": true,
      "regEndDt": "2011-05-24T00:00:00",
      "regEndDtSpecified": true
    }
  ],
  "EmpHss": [
    {
      "fromDt": "12/2005",
      "toDt": null,
      "orgNm": "FISHER & WIENS WEALTH MANAGEMENT",
      "city": "DANVILLE",
      "state": 4,
      "stateSpecified": true
    },
    {
      "fromDt": "12/2005",
      "toDt": null,
      "orgNm": "LPL FINANCIAL, LLC",
      "city": "DANVILLE",
      "state": 4,
      "stateSpecified": true
    }
  ],
  "OthrBuss": {
    "OthrBus": {
      "desc": "(1) 01/06/2012 - FISHER & WIENS PROPERTIES -REAL ESTATE RENTAL - TIME SPENT 5% - DANVILLE, CA  (2)  08/27/2013 - NON-VARIABLE INSURANCE DBA - FISHER & WIENS WEALTH MANAGEMENT - TIME SPENT 5% - DANVILLE, CA"
    }
  },
  "DRPs": []
}