{
  "Info": {
    "lastNm": "DURHAM",
    "firstNm": "CHRISTOPHER",
    "midNm": "MICHAEL",
    "sufNm": null,
    "indvlPK": "5065407",
    "actvAGReg": 0,
    "link": "http://www.adviserinfo.sec.gov/IAPD/Individual/5065407"
  },
  "OthrNms": [
    {
      "lastNm": "DURHAM",
      "firstNm": "CHRISTOPHER",
      "midNm": "M",
      "sufNm": null
    },
    {
      "lastNm": "DURHAM",
      "firstNm": "CHRISTOPHER",
      "midNm": "MICHAEL",
      "sufNm": "CHRIS"
    }
  ],
  "CrntEmps": [
    {
      "CrntRgstns": [
        {
          "regAuth": 10,
          "regCat": 0,
          "st": 2,
          "stDt": "2015-07-07T00:00:00"
        }
      ],
      "BrnchOfLocs": [
        {
          "str1": "577 MULBERRY STREET",
          "str2": "SUITE 1200",
          "city": "MACON",
          "state": 10,
          "stateSpecified": true,
          "cntry": "United States",
          "postlCd": "31201"
        }
      ],
      "orgNm": "STIFEL, NICOLAUS & COMPANY, INCORPORATED",
      "orgPK": "793",
      "str1": "501 N BROADWAY",
      "str2": null,
      "city": "ST LOUIS",
      "state": 25,
      "stateSpecified": true,
      "cntry": "United States",
      "postlCd": "63102"
    }
  ],
  "Exms": [
    {
      "exmCd": 3,
      "exmNm": "Uniform Combined State Law Examination",
      "exmDt": "2006-01-17T00:00:00",
      "exmDtSpecified": true
    }
  ],
  "Dsgntns": [],
  "PrevRgstns": [
    {
      "BrnchOfLocs": [
        {
          "city": "MACON",
          "state": 10,
          "stateSpecified": true
        },
        {
          "city": "WARNER ROBINS",
          "state": 10,
          "stateSpecified": true
        },
        {
          "city": "WARNER ROBINS",
          "state": 10,
          "stateSpecified": true
        },
        {
          "city": "WARNER ROBINS",
          "state": 10,
          "stateSpecified": true
        }
      ],
      "orgNm": "SUNTRUST INVESTMENT SERVICES, INC.",
      "orgPK": "17499",
      "regBeginDt": "2006-01-25T00:00:00",
      "regBeginDtSpecified": true,
      "regEndDt": "2007-06-22T00:00:00",
      "regEndDtSpecified": true
    },
    {
      "BrnchOfLocs": [
        {
          "city": "BIRMINGHAM",
          "state": 1,
          "stateSpecified": true
        },
        {
          "city": "MACON",
          "state": 10,
          "stateSpecified": true
        }
      ],
      "orgNm": "STERNE AGEE ASSET MANAGEMENT, INC.",
      "orgPK": "130888",
      "regBeginDt": "2007-08-08T00:00:00",
      "regBeginDtSpecified": true,
      "regEndDt": "2015-07-07T00:00:00",
      "regEndDtSpecified": true
    }
  ],
  "EmpHss": [
    {
      "fromDt": "01/2002",
      "toDt": "06/2007",
      "orgNm": "SUNTRUST INVESTMENT SERVICES, INC.",
      "city": "MACON",
      "state": 10,
      "stateSpecified": true
    },
    {
      "fromDt": "11/2005",
      "toDt": "06/2007",
      "orgNm": "SUNTRUST BANK",
      "city": "MACON",
      "state": 10,
      "stateSpecified": true
    },
    {
      "fromDt": "06/2007",
      "toDt": null,
      "orgNm": "STERNE AGEE",
      "city": "MACON",
      "state": 10,
      "stateSpecified": true
    },
    {
      "fromDt": "07/2015",
      "toDt": null,
      "orgNm": "STIFEL, NICOLAUS & COMPANY, INCORPORATED",
      "city": "MACON",
      "state": 10,
      "stateSpecified": true
    },
    {
      "fromDt": "07/2015",
      "toDt": null,
      "orgNm": "STIFEL, NICOLAUS & COMPANY, INCORPORATED",
      "city": "MACON",
      "state": 10,
      "stateSpecified": true
    }
  ],
  "OthrBuss": {
    "OthrBus": {
      "desc": "1. MMALJ PROPERTIES, LLC P.O. BOX 5300 MACON GA  31208; MANAGING MEMBER OF AN LLC THAT OWNS RENTAL PROPERTY (2 RESIDENTIAL HOMES AND 1 CONDO); MANAGING MEMBER; COLLECTS RENT CHECKS/PAY BILLS; AFFILIATION STARTED 06/01/2003; 1 HOUR PER MONTH; NOT DURING SECURITIES TRADING HOURS; NOT INVESTMENT RELATED."
    }
  },
  "DRPs": []
}