{
  "Info": {
    "lastNm": "WALRAVEN",
    "firstNm": "HEATHER",
    "midNm": "MARIE",
    "sufNm": null,
    "indvlPK": "5077591",
    "actvAGReg": 0,
    "link": "http://www.adviserinfo.sec.gov/IAPD/Individual/5077591"
  },
  "OthrNms": [
    {
      "lastNm": "EVERT",
      "firstNm": "HEATHER",
      "midNm": "MARIE",
      "sufNm": null
    }
  ],
  "CrntEmps": [
    {
      "CrntRgstns": [
        {
          "regAuth": 30,
          "regCat": 0,
          "st": 2,
          "stDt": "2006-06-05T00:00:00"
        }
      ],
      "BrnchOfLocs": [
        {
          "str1": "340 E MILITARY AVE",
          "str2": null,
          "city": "FREMONT",
          "state": 30,
          "stateSpecified": true,
          "cntry": "United States",
          "postlCd": "68025"
        }
      ],
      "orgNm": "THRIVENT INVESTMENT MANAGEMENT INC.",
      "orgPK": "18387",
      "str1": "625 FOURTH AVENUE SOUTH",
      "str2": null,
      "city": "MINNEAPOLIS",
      "state": 24,
      "stateSpecified": true,
      "cntry": "United States",
      "postlCd": "55415-1665"
    }
  ],
  "Exms": [
    {
      "exmCd": 3,
      "exmNm": "Uniform Combined State Law Examination",
      "exmDt": "2006-05-31T00:00:00",
      "exmDtSpecified": true
    }
  ],
  "Dsgntns": [],
  "PrevRgstns": [],
  "EmpHss": [
    {
      "fromDt": "12/2005",
      "toDt": null,
      "orgNm": "THRIVENT INVESTMENT MANAGEMENT INC",
      "city": "FREMONT",
      "state": 30,
      "stateSpecified": true
    },
    {
      "fromDt": "04/2006",
      "toDt": null,
      "orgNm": "THRIVENT FINANCIAL FOR LUTHERANS",
      "city": "APPLETON",
      "state": 50,
      "stateSpecified": true
    }
  ],
  "OthrBuss": {
    "OthrBus": {
      "desc": "RENTAL PROPERTIES 420 N. 3RD ARLINGTON, NE, START DATE: 2/2005, HRS: 1 HR/MTH, COLLECT RENT MONEY/DEPOSIT IN BANK//EAGLE AUTO REPAIR, LLC AUTO REPAIR SHOP, MEMBER OF A 2 MEMBER LLC BETWEEN MY HUSBAND AND I. STARTED 4/1/2007,16 HRS/MTH, I KEEP THE BOOKS FOR THE BUSINESS, MY HUSBAND DOES ALL OF THE REST."
    }
  },
  "DRPs": []
}