{
  "Info": {
    "lastNm": "CALLAHAN",
    "firstNm": "WILLIAM",
    "midNm": "W",
    "sufNm": "III",
    "indvlPK": "5079322",
    "actvAGReg": 0,
    "link": "http://www.adviserinfo.sec.gov/IAPD/Individual/5079322"
  },
  "OthrNms": [
    {
      "lastNm": "CALLAHAN",
      "firstNm": "WILLIAM",
      "midNm": "W",
      "sufNm": null
    }
  ],
  "CrntEmps": [
    {
      "CrntRgstns": [
        {
          "regAuth": 45,
          "regCat": 0,
          "st": 2,
          "stDt": "2008-10-06T00:00:00"
        }
      ],
      "BrnchOfLocs": [
        {
          "str1": "ONE DESTINY WAY",
          "str2": null,
          "city": "WESTLAKE",
          "state": 45,
          "stateSpecified": true,
          "cntry": "United States",
          "postlCd": "76262"
        }
      ],
      "orgNm": "STRATEGIC ADVISERS, INC.",
      "orgPK": "104555",
      "str1": "245 SUMMER STREET, V10G",
      "str2": null,
      "city": "BOSTON",
      "state": 20,
      "stateSpecified": true,
      "cntry": "United States",
      "postlCd": "02210"
    }
  ],
  "Exms": [
    {
      "exmCd": 0,
      "exmNm": "Uniform Securities Agent State Law Examination",
      "exmDt": "2006-03-13T00:00:00",
      "exmDtSpecified": true
    },
    {
      "exmCd": 3,
      "exmNm": "Uniform Combined State Law Examination",
      "exmDt": "2008-10-03T00:00:00",
      "exmDtSpecified": true
    }
  ],
  "Dsgntns": [],
  "PrevRgstns": [],
  "EmpHss": [
    {
      "fromDt": "11/2005",
      "toDt": null,
      "orgNm": "FIDELITY INVESTMENTS",
      "city": "WESTLAKE",
      "state": 45,
      "stateSpecified": true
    }
  ],
  "OthrBuss": {
    "OthrBus": {
      "desc": "OAA#: 2531 | ORG NAME:GAS LEASE | ORG ADDR:ROANOKE, TX, US | NATURE OF BUS:GAS LEASE FOR PRIMARY RESIDENCE | INVST REL:N | TITLE:LESSOR | DUTIES:SIGNED LEASE AGREEMENT WITH GAS DRILLING AND DISTRIBUTION COMPANY FOR NATURAL GAS DEPOSITS ON PROPER | START DT:02/12/2008 | TOTAL HRS P/M:.01 | SEC TRDNG HRS P/M:0"
    }
  },
  "DRPs": [
    {
      "hasRegAction": 1,
      "hasRegActionSpecified": true,
      "hasCriminal": 1,
      "hasCriminalSpecified": true,
      "hasBankrupt": 0,
      "hasBankruptSpecified": true,
      "hasCivilJudc": 1,
      "hasCivilJudcSpecified": true,
      "hasBond": 1,
      "hasBondSpecified": true,
      "hasJudgment": 1,
      "hasJudgmentSpecified": true,
      "hasInvstgn": 1,
      "hasInvstgnSpecified": true,
      "hasCustComp": 1,
      "hasCustCompSpecified": true,
      "hasTermination": 1,
      "hasTerminationSpecified": true
    }
  ]
}