{
  "Info": {
    "lastNm": "SMITH",
    "firstNm": "BRADY",
    "midNm": "MORGAN",
    "sufNm": null,
    "indvlPK": "5086626",
    "actvAGReg": 0,
    "link": "http://www.adviserinfo.sec.gov/IAPD/Individual/5086626"
  },
  "OthrNms": [],
  "CrntEmps": [
    {
      "CrntRgstns": [
        {
          "regAuth": 47,
          "regCat": 0,
          "st": 2,
          "stDt": "2013-08-22T00:00:00"
        }
      ],
      "BrnchOfLocs": [
        {
          "str1": "14411 Justice Rd",
          "str2": null,
          "city": "Midlothian",
          "state": 47,
          "stateSpecified": true,
          "cntry": "United States",
          "postlCd": "23113"
        },
        {
          "str1": "8821 WEST BROAD ST",
          "str2": null,
          "city": "RICHMOND",
          "state": 47,
          "stateSpecified": true,
          "cntry": "United States",
          "postlCd": "23294"
        }
      ],
      "orgNm": "INFINEX INVESTMENTS, INC.",
      "orgPK": "35371",
      "str1": "538 PRESTON AVENUE",
      "str2": null,
      "city": "MERIDEN",
      "state": 6,
      "stateSpecified": true,
      "cntry": "United States",
      "postlCd": "06450-4858"
    }
  ],
  "Exms": [
    {
      "exmCd": 0,
      "exmNm": "Uniform Securities Agent State Law Examination",
      "exmDt": "2006-09-22T00:00:00",
      "exmDtSpecified": true
    },
    {
      "exmCd": 2,
      "exmNm": "Uniform Investment Adviser Law Examination",
      "exmDt": "2008-05-15T00:00:00",
      "exmDtSpecified": true
    }
  ],
  "Dsgntns": [],
  "PrevRgstns": [
    {
      "BrnchOfLocs": [
        {
          "city": "ASHLAND",
          "state": 47,
          "stateSpecified": true
        },
        {
          "city": "GLEN ALLEN",
          "state": 47,
          "stateSpecified": true
        },
        {
          "city": "RICHMOND",
          "state": 47,
          "stateSpecified": true
        },
        {
          "city": "RICHMOND",
          "state": 47,
          "stateSpecified": true
        },
        {
          "city": "RICHMOND",
          "state": 47,
          "stateSpecified": true
        }
      ],
      "orgNm": "WELLS FARGO ADVISORS, LLC",
      "orgPK": "19616",
      "regBeginDt": "2008-05-16T00:00:00",
      "regBeginDtSpecified": true,
      "regEndDt": "2013-08-20T00:00:00",
      "regEndDtSpecified": true
    }
  ],
  "EmpHss": [
    {
      "fromDt": "06/2006",
      "toDt": "08/2006",
      "orgNm": "HENRICO COUNTY PARKS AND RECREATION",
      "city": "RICHMOND",
      "state": 47,
      "stateSpecified": true
    },
    {
      "fromDt": "09/2006",
      "toDt": "12/2010",
      "orgNm": "WACHOVIA BANK, N.A.",
      "city": "RICHMOND",
      "state": 47,
      "stateSpecified": true
    },
    {
      "fromDt": "04/2007",
      "toDt": "05/2009",
      "orgNm": "WACHOVIA SECURITES, LLC",
      "city": "RICHMOND",
      "state": 47,
      "stateSpecified": true
    },
    {
      "fromDt": "05/2009",
      "toDt": "08/2013",
      "orgNm": "WELLS FARGO ADVISORS LLC",
      "city": "RICHMOND",
      "state": 47,
      "stateSpecified": true
    },
    {
      "fromDt": "12/2010",
      "toDt": "08/2013",
      "orgNm": "WACHOVIA BANK, N.A.",
      "city": "RICHMOND",
      "state": 47,
      "stateSpecified": true
    },
    {
      "fromDt": "08/2013",
      "toDt": null,
      "orgNm": "EVB",
      "city": "RICHMOND",
      "state": 47,
      "stateSpecified": true
    },
    {
      "fromDt": "08/2013",
      "toDt": null,
      "orgNm": "INFINEX INVESTMENTS, INC.",
      "city": "RICHMOND",
      "state": 47,
      "stateSpecified": true
    },
    {
      "fromDt": "06/2015",
      "toDt": null,
      "orgNm": "Richmond Fire dept",
      "city": "Richmond",
      "state": 47,
      "stateSpecified": true
    }
  ],
  "OthrBuss": {
    "OthrBus": {
      "desc": "1.) Richmond Fire Department.  201 E Franklin St.  Richmond, VA 23219.  Fire and emergency services. Firefighter. Starting 6/15/15.  Approximately 240 hours per month.  Approx 48 hours during trading hours."
    }
  },
  "DRPs": [
    {
      "hasRegAction": 1,
      "hasRegActionSpecified": true,
      "hasCriminal": 0,
      "hasCriminalSpecified": true,
      "hasBankrupt": 1,
      "hasBankruptSpecified": true,
      "hasCivilJudc": 1,
      "hasCivilJudcSpecified": true,
      "hasBond": 1,
      "hasBondSpecified": true,
      "hasJudgment": 1,
      "hasJudgmentSpecified": true,
      "hasInvstgn": 1,
      "hasInvstgnSpecified": true,
      "hasCustComp": 1,
      "hasCustCompSpecified": true,
      "hasTermination": 1,
      "hasTerminationSpecified": true
    }
  ]
}