{
  "Info": {
    "lastNm": "HOLDMAN",
    "firstNm": "PATRICIA",
    "midNm": "JANE",
    "sufNm": null,
    "indvlPK": "5089863",
    "actvAGReg": 0,
    "link": "http://www.adviserinfo.sec.gov/IAPD/Individual/5089863"
  },
  "OthrNms": [
    {
      "lastNm": "BROCK",
      "firstNm": "PATRICIA",
      "midNm": "JANE",
      "sufNm": null
    },
    {
      "lastNm": "BROCK",
      "firstNm": "PATTY",
      "midNm": "JANE",
      "sufNm": null
    },
    {
      "lastNm": "GRAVEL",
      "firstNm": "PATRICIA",
      "midNm": "JANE",
      "sufNm": null
    },
    {
      "lastNm": "GRAVEL",
      "firstNm": "PATTY",
      "midNm": "JANE",
      "sufNm": null
    },
    {
      "lastNm": "HOLDMAN",
      "firstNm": "PATRICIA",
      "midNm": null,
      "sufNm": null
    },
    {
      "lastNm": "HOLDMAN",
      "firstNm": "PATTY",
      "midNm": "JANE",
      "sufNm": null
    }
  ],
  "CrntEmps": [
    {
      "CrntRgstns": [
        {
          "regAuth": 45,
          "regCat": 0,
          "st": 2,
          "stDt": "2015-08-07T00:00:00"
        },
        {
          "regAuth": 3,
          "regCat": 0,
          "st": 2,
          "stDt": "2015-08-27T00:00:00"
        }
      ],
      "BrnchOfLocs": [
        {
          "str1": "14321 N. NORTHSIGHT BOULEVARD",
          "str2": null,
          "city": "SCOTTSDALE",
          "state": 3,
          "stateSpecified": true,
          "cntry": "United States",
          "postlCd": "85260"
        }
      ],
      "orgNm": "VANGUARD ADVISERS INC",
      "orgPK": "106715",
      "str1": "100 VANGUARD BLVD",
      "str2": "V26",
      "city": "MALVERN",
      "state": 39,
      "stateSpecified": true,
      "cntry": "United States",
      "postlCd": "19355"
    }
  ],
  "Exms": [
    {
      "exmCd": 0,
      "exmNm": "Uniform Securities Agent State Law Examination",
      "exmDt": "2006-02-28T00:00:00",
      "exmDtSpecified": true
    },
    {
      "exmCd": 2,
      "exmNm": "Uniform Investment Adviser Law Examination",
      "exmDt": "2015-07-31T00:00:00",
      "exmDtSpecified": true
    }
  ],
  "Dsgntns": [],
  "PrevRgstns": [],
  "EmpHss": [
    {
      "fromDt": "08/2005",
      "toDt": "05/2009",
      "orgNm": "WASHINGTON MUTUAL BANK",
      "city": "SALEM",
      "state": 38,
      "stateSpecified": true
    },
    {
      "fromDt": "01/2007",
      "toDt": "05/2009",
      "orgNm": "WM FINANCIAL SERVICES",
      "city": "SALEM",
      "state": 38,
      "stateSpecified": true
    },
    {
      "fromDt": "05/2009",
      "toDt": "02/2011",
      "orgNm": "CHASE INVESTMENT SERVICES CORP.",
      "city": "KELLER",
      "state": 45,
      "stateSpecified": true
    },
    {
      "fromDt": "03/2011",
      "toDt": "05/2011",
      "orgNm": "UNEMPLOYED",
      "city": "FORT WORTH",
      "state": 45,
      "stateSpecified": true
    },
    {
      "fromDt": "05/2011",
      "toDt": "05/2011",
      "orgNm": "BANK OF AMERICA",
      "city": "PHOENIX",
      "state": 3,
      "stateSpecified": true
    },
    {
      "fromDt": "06/2011",
      "toDt": null,
      "orgNm": "THE VANGUARD GROUP, INC.",
      "city": "SCOTTSDALE",
      "state": 3,
      "stateSpecified": true
    }
  ],
  "OthrBuss": {
    "OthrBus": {
      "desc": "EMPLOYEE OF THE VANGUARD GROUP, INC. (PARENT COMPANY OF VANGUARD MARKETING CORPORATION) 100 VANGUARD BLVD, MALVERN, PA 19355"
    }
  },
  "DRPs": []
}