{
  "Info": {
    "lastNm": "LOVETT",
    "firstNm": "COURTNEY",
    "midNm": "AMBER",
    "sufNm": null,
    "indvlPK": "5103393",
    "actvAGReg": 0,
    "link": "http://www.adviserinfo.sec.gov/IAPD/Individual/5103393"
  },
  "OthrNms": [
    {
      "lastNm": "RUSSELL",
      "firstNm": "COURTNEY",
      "midNm": "AMBER",
      "sufNm": null
    }
  ],
  "CrntEmps": [
    {
      "CrntRgstns": [
        {
          "regAuth": 3,
          "regCat": 0,
          "st": 2,
          "stDt": "2013-03-21T00:00:00"
        },
        {
          "regAuth": 45,
          "regCat": 0,
          "st": 2,
          "stDt": "2013-09-13T00:00:00"
        }
      ],
      "BrnchOfLocs": [
        {
          "str1": "10116 W. BELL ROAD",
          "str2": null,
          "city": "SUN CITY",
          "state": 3,
          "stateSpecified": true,
          "cntry": "United States",
          "postlCd": "85351"
        },
        {
          "str1": "13501 CAMINO DEL SOL",
          "str2": null,
          "city": "SUN CITY WEST",
          "state": 3,
          "stateSpecified": true,
          "cntry": "United States",
          "postlCd": "85375"
        }
      ],
      "orgNm": "J.P. MORGAN SECURITIES LLC",
      "orgPK": "79",
      "str1": "277 PARK AVENUE",
      "str2": null,
      "city": "NEW YORK",
      "state": 35,
      "stateSpecified": true,
      "cntry": "United States",
      "postlCd": "10172"
    }
  ],
  "Exms": [
    {
      "exmCd": 0,
      "exmNm": "Uniform Securities Agent State Law Examination",
      "exmDt": "2006-04-17T00:00:00",
      "exmDtSpecified": true
    },
    {
      "exmCd": 3,
      "exmNm": "Uniform Combined State Law Examination",
      "exmDt": "2013-03-05T00:00:00",
      "exmDtSpecified": true
    }
  ],
  "Dsgntns": [],
  "PrevRgstns": [],
  "EmpHss": [
    {
      "fromDt": "08/2006",
      "toDt": null,
      "orgNm": "JPMORGAN CHASE NA",
      "city": "PHOENIX",
      "state": 3,
      "stateSpecified": true
    },
    {
      "fromDt": "10/2012",
      "toDt": null,
      "orgNm": "J.P. MORGAN SECURITIES LLC",
      "city": "PHOENIX",
      "state": 3,
      "stateSpecified": true
    }
  ],
  "OthrBuss": {
    "OthrBus": {
      "desc": "ACTIVITY TYPE: 1 - OUTSIDE BUSINESS ACTIVITY WITH A NON-PUBLIC ENTITY NAME OF ENTITY: (SELF)  POSITION: OWNER / LANDLORD - RENTAL PROPERTY  START DATE: 6/16/2016  ADDRESS: 1228 Phoenix, AZ 85022  DETAILS: Owner; typical responsibilities with tenant. Dealing with any maint. issues, etc.  HOURS DEDICATED (per month unless otherwise indicated): 2  HOURS DURING TRADING: 0  INVESTMENT RELATED: YES        RENTAL PROPERTY  PHONEIX, AZ 85023  LANDLORD- RENT CONDO TO MY BROTHER. STARTED 05/2009 NON INVESTMENT RELATED"
    }
  },
  "DRPs": []
}