{
  "Info": {
    "lastNm": "LEINFELDER",
    "firstNm": "SYLVIA",
    "midNm": "M",
    "sufNm": null,
    "indvlPK": "5105120",
    "actvAGReg": 0,
    "link": "http://www.adviserinfo.sec.gov/IAPD/Individual/5105120"
  },
  "OthrNms": [],
  "CrntEmps": [
    {
      "CrntRgstns": [
        {
          "regAuth": 32,
          "regCat": 0,
          "st": 2,
          "stDt": "2012-10-01T00:00:00"
        }
      ],
      "BrnchOfLocs": [
        {
          "str1": "2003 ALBANY POST ROAD",
          "str2": null,
          "city": "CROTON-ON-HUDSON",
          "state": 35,
          "stateSpecified": true,
          "cntry": "United States",
          "postlCd": "10520"
        }
      ],
      "orgNm": "J.P. MORGAN SECURITIES LLC",
      "orgPK": "79",
      "str1": "277 PARK AVENUE",
      "str2": null,
      "city": "NEW YORK",
      "state": 35,
      "stateSpecified": true,
      "cntry": "United States",
      "postlCd": "10172"
    }
  ],
  "Exms": [
    {
      "exmCd": 3,
      "exmNm": "Uniform Combined State Law Examination",
      "exmDt": "2006-06-14T00:00:00",
      "exmDtSpecified": true
    }
  ],
  "Dsgntns": [],
  "PrevRgstns": [
    {
      "BrnchOfLocs": [
        {
          "city": "WHITE PLAINS",
          "state": 35,
          "stateSpecified": true
        }
      ],
      "orgNm": "MORGAN STANLEY DW INC.",
      "orgPK": "7556",
      "regBeginDt": "2006-06-15T00:00:00",
      "regBeginDtSpecified": true,
      "regEndDt": "2007-04-02T00:00:00",
      "regEndDtSpecified": true
    },
    {
      "BrnchOfLocs": [
        {
          "city": "WHITE PLAINS",
          "state": 35,
          "stateSpecified": true
        }
      ],
      "orgNm": "MORGAN STANLEY & CO. LLC",
      "orgPK": "8209",
      "regBeginDt": "2007-04-02T00:00:00",
      "regBeginDtSpecified": true,
      "regEndDt": "2007-07-02T00:00:00",
      "regEndDtSpecified": true
    },
    {
      "BrnchOfLocs": [
        {
          "city": "BRIARCLIFF",
          "state": 35,
          "stateSpecified": true
        },
        {
          "city": "CROTON-ON-HUDSON",
          "state": 35,
          "stateSpecified": true
        }
      ],
      "orgNm": "CHASE INVESTMENT SERVICES CORP.",
      "orgPK": "25574",
      "regBeginDt": "2008-04-28T00:00:00",
      "regBeginDtSpecified": true,
      "regEndDt": "2012-10-01T00:00:00",
      "regEndDtSpecified": true
    }
  ],
  "EmpHss": [
    {
      "fromDt": "02/2006",
      "toDt": "04/2007",
      "orgNm": "MORGAN STANLEY DW INC.",
      "city": "WHITE PLAINS",
      "state": 35,
      "stateSpecified": true
    },
    {
      "fromDt": "04/2007",
      "toDt": "06/2007",
      "orgNm": "MORGAN STANLEY & CO., INCORPORATED",
      "city": "WHITE PLAINS",
      "state": 35,
      "stateSpecified": true
    },
    {
      "fromDt": "07/2007",
      "toDt": "08/2007",
      "orgNm": "UNEMPLOYED",
      "city": "DOBBS FERRY",
      "state": 35,
      "stateSpecified": true
    },
    {
      "fromDt": "08/2007",
      "toDt": "03/2008",
      "orgNm": "JURLIQUE WHOLISTIC SKINCARE INC.",
      "city": "NEW YORK",
      "state": 35,
      "stateSpecified": true
    },
    {
      "fromDt": "04/2008",
      "toDt": "10/2012",
      "orgNm": "CHASE INVESTMENT SERVICES CORP.",
      "city": "NEW YORK",
      "state": 35,
      "stateSpecified": true
    },
    {
      "fromDt": "04/2008",
      "toDt": null,
      "orgNm": "JP MORGAN CHASE BANK",
      "city": "BRIARCLIFF MANOR",
      "state": 35,
      "stateSpecified": true
    },
    {
      "fromDt": "10/2012",
      "toDt": null,
      "orgNm": "J.P. MORGAN SECURITIES LLC",
      "city": "CROTON-ON-HUDSON",
      "state": 35,
      "stateSpecified": true
    }
  ],
  "OthrBuss": {
    "OthrBus": null
  },
  "DRPs": []
}