{
  "Info": {
    "lastNm": "RANALLO",
    "firstNm": "KIMBERLY",
    "midNm": "A",
    "sufNm": null,
    "indvlPK": "5112203",
    "actvAGReg": 0,
    "link": "http://www.adviserinfo.sec.gov/IAPD/Individual/5112203"
  },
  "OthrNms": [
    {
      "lastNm": "GRAHAM",
      "firstNm": "KIMBERLY",
      "midNm": "A",
      "sufNm": null
    },
    {
      "lastNm": "GRAHAM",
      "firstNm": "KIMBERLY",
      "midNm": "ANN",
      "sufNm": null
    },
    {
      "lastNm": "GRAHAM",
      "firstNm": "KIMBERLY",
      "midNm": "ANN",
      "sufNm": null
    }
  ],
  "CrntEmps": [
    {
      "CrntRgstns": [
        {
          "regAuth": 13,
          "regCat": 0,
          "st": 2,
          "stDt": "2014-03-05T00:00:00"
        },
        {
          "regAuth": 45,
          "regCat": 0,
          "st": 3,
          "stDt": "2015-05-01T00:00:00"
        }
      ],
      "BrnchOfLocs": [
        {
          "str1": "7545 ASHWORTH RD",
          "str2": null,
          "city": "WEST DES MOINES",
          "state": 13,
          "stateSpecified": true,
          "cntry": "United States",
          "postlCd": "50266"
        }
      ],
      "orgNm": "MERRILL LYNCH, PIERCE, FENNER & SMITH INCORPORATED",
      "orgPK": "7691",
      "str1": "ONE BRYANT PARK",
      "str2": null,
      "city": "NEW YORK",
      "state": 35,
      "stateSpecified": true,
      "cntry": "United States",
      "postlCd": "10036"
    }
  ],
  "Exms": [
    {
      "exmCd": 3,
      "exmNm": "Uniform Combined State Law Examination",
      "exmDt": "2006-04-13T00:00:00",
      "exmDtSpecified": true
    }
  ],
  "Dsgntns": [],
  "PrevRgstns": [
    {
      "BrnchOfLocs": [
        {
          "city": "DES MOINES",
          "state": 13,
          "stateSpecified": true
        }
      ],
      "orgNm": "CITIGROUP GLOBAL MARKETS INC.",
      "orgPK": "7059",
      "regBeginDt": "2006-05-15T00:00:00",
      "regBeginDtSpecified": true,
      "regEndDt": "2009-06-01T00:00:00",
      "regEndDtSpecified": true
    },
    {
      "BrnchOfLocs": [
        {
          "city": "DES MOINES",
          "state": 13,
          "stateSpecified": true
        }
      ],
      "orgNm": "MORGAN STANLEY",
      "orgPK": "149777",
      "regBeginDt": "2009-06-01T00:00:00",
      "regBeginDtSpecified": true,
      "regEndDt": "2012-05-02T00:00:00",
      "regEndDtSpecified": true
    }
  ],
  "EmpHss": [
    {
      "fromDt": "06/2004",
      "toDt": "04/2012",
      "orgNm": "CITIGROUP GLOBAL MARKETS INC.",
      "city": "DES MOINES",
      "state": 13,
      "stateSpecified": true
    },
    {
      "fromDt": "06/2009",
      "toDt": "04/2012",
      "orgNm": "MORGAN STANLEY SMITH BARNEY",
      "city": "DES MOINES",
      "state": 13,
      "stateSpecified": true
    },
    {
      "fromDt": "05/2012",
      "toDt": "01/2014",
      "orgNm": "UNEMPLOYED",
      "city": "WAUKEE",
      "state": 13,
      "stateSpecified": true
    },
    {
      "fromDt": "01/2014",
      "toDt": null,
      "orgNm": "MERRILL LYNCH, PIERCE, FENNER & SMITH INCORPORATED",
      "city": "DES MOINES",
      "state": 13,
      "stateSpecified": true
    },
    {
      "fromDt": "03/2016",
      "toDt": null,
      "orgNm": "BANK OF AMERICA, N.A.",
      "city": "DES MOINES",
      "state": 13,
      "stateSpecified": true
    }
  ],
  "OthrBuss": {
    "OthrBus": null
  },
  "DRPs": []
}