{
  "Info": {
    "lastNm": "MASON",
    "firstNm": "EUGENE",
    "midNm": "SIMON",
    "sufNm": null,
    "indvlPK": "5116050",
    "actvAGReg": 1,
    "link": "http://www.adviserinfo.sec.gov/IAPD/Individual/5116050"
  },
  "OthrNms": [],
  "CrntEmps": [
    {
      "CrntRgstns": [
        {
          "regAuth": 7,
          "regCat": 0,
          "st": 2,
          "stDt": "2012-09-11T00:00:00"
        }
      ],
      "BrnchOfLocs": [
        {
          "str1": "5335 WISCONSIN AVE, NW",
          "str2": "UITE #720",
          "city": "WASHINGTON",
          "state": 7,
          "stateSpecified": true,
          "cntry": "United States",
          "postlCd": "20015"
        }
      ],
      "orgNm": "SFX FINANCIAL ADVISORY MANAGEMENT ENTERPRISES INC",
      "orgPK": "112130",
      "str1": "5335 WISCONSIN AVE., NW",
      "str2": "SUITE 720",
      "city": "WASHINGTON",
      "state": 7,
      "stateSpecified": true,
      "cntry": "United States",
      "postlCd": "20015"
    }
  ],
  "Exms": [
    {
      "exmCd": 2,
      "exmNm": "Uniform Investment Adviser Law Examination",
      "exmDt": "2012-09-06T00:00:00",
      "exmDtSpecified": true
    }
  ],
  "Dsgntns": [],
  "PrevRgstns": [
    {
      "BrnchOfLocs": [
        {
          "city": "WASHINGTON",
          "state": 7,
          "stateSpecified": true
        }
      ],
      "orgNm": "SFX FINANCIAL ADVISORY MANAGEMENT ENTERPRISES INC",
      "orgPK": "112130",
      "regBeginDt": "2012-09-11T00:00:00",
      "regBeginDtSpecified": true,
      "regEndDt": "2012-09-12T00:00:00",
      "regEndDtSpecified": true
    }
  ],
  "EmpHss": [
    {
      "fromDt": "01/1992",
      "toDt": null,
      "orgNm": "SFX FINANCIAL ADVISORY MANAGEMENT ENTERPRISES INC",
      "city": "WASHINGTON",
      "state": 7,
      "stateSpecified": true
    }
  ],
  "OthrBuss": {
    "OthrBus": null
  },
  "DRPs": [
    {
      "hasRegAction": 0,
      "hasRegActionSpecified": true,
      "hasCriminal": 1,
      "hasCriminalSpecified": true,
      "hasBankrupt": 1,
      "hasBankruptSpecified": true,
      "hasCivilJudc": 1,
      "hasCivilJudcSpecified": true,
      "hasBond": 1,
      "hasBondSpecified": true,
      "hasJudgment": 1,
      "hasJudgmentSpecified": true,
      "hasInvstgn": 1,
      "hasInvstgnSpecified": true,
      "hasCustComp": 1,
      "hasCustCompSpecified": true,
      "hasTermination": 1,
      "hasTerminationSpecified": true
    }
  ]
}