{
  "Info": {
    "lastNm": "MORRELL",
    "firstNm": "IGNACIO",
    "midNm": "E",
    "sufNm": null,
    "indvlPK": "5117689",
    "actvAGReg": 0,
    "link": "http://www.adviserinfo.sec.gov/IAPD/Individual/5117689"
  },
  "OthrNms": [],
  "CrntEmps": [
    {
      "CrntRgstns": [
        {
          "regAuth": 9,
          "regCat": 0,
          "st": 2,
          "stDt": "2010-10-06T00:00:00"
        }
      ],
      "BrnchOfLocs": [
        {
          "str1": "3030 NORTH ROCKY POINT DRIVE W",
          "str2": "SUITE 700",
          "city": "TAMPA",
          "state": 9,
          "stateSpecified": true,
          "cntry": "United States",
          "postlCd": "33607"
        }
      ],
      "orgNm": "INDEPENDENT FINANCIAL PARTNERS",
      "orgPK": "125112",
      "str1": "3030 NORTH ROCKY POINT DR. WEST",
      "str2": "SUITE 700",
      "city": "TAMPA",
      "state": 9,
      "stateSpecified": true,
      "cntry": "United States",
      "postlCd": "33607"
    }
  ],
  "Exms": [
    {
      "exmCd": 0,
      "exmNm": "Uniform Securities Agent State Law Examination",
      "exmDt": "2006-05-25T00:00:00",
      "exmDtSpecified": true
    },
    {
      "exmCd": 3,
      "exmNm": "Uniform Combined State Law Examination",
      "exmDt": "2007-01-18T00:00:00",
      "exmDtSpecified": true
    },
    {
      "exmCd": 2,
      "exmNm": "Uniform Investment Adviser Law Examination",
      "exmDt": "2014-06-30T00:00:00",
      "exmDtSpecified": true
    }
  ],
  "Dsgntns": [],
  "PrevRgstns": [
    {
      "BrnchOfLocs": [
        {
          "city": "MULBERRY",
          "state": 9,
          "stateSpecified": true
        },
        {
          "city": "ST LOUIS",
          "state": 25,
          "stateSpecified": true
        }
      ],
      "orgNm": "EDWARD JONES",
      "orgPK": "250",
      "regBeginDt": "2007-01-26T00:00:00",
      "regBeginDtSpecified": true,
      "regEndDt": "2010-09-21T00:00:00",
      "regEndDtSpecified": true
    }
  ],
  "EmpHss": [
    {
      "fromDt": "03/2006",
      "toDt": "09/2010",
      "orgNm": "EDWARD JONES",
      "city": "ST. LOUIS",
      "state": 25,
      "stateSpecified": true
    },
    {
      "fromDt": "09/2010",
      "toDt": null,
      "orgNm": "LPL FINANCIAL LLC",
      "city": "TAMPA",
      "state": 9,
      "stateSpecified": true
    },
    {
      "fromDt": "10/2010",
      "toDt": null,
      "orgNm": "INDEPENDENT FINANCIAL PARTNERS",
      "city": "TAMPA",
      "state": 9,
      "stateSpecified": true
    }
  ],
  "OthrBuss": {
    "OthrBus": {
      "desc": "1. 08/27/2015 - INDEPENDENT FINANCIAL PARTNERS - INV REL - 3030 N. ROCKY POINT DR. W., STE 700, TAMPA, FL 33607 - REGISTERED INVESTMENT ADVISOR DBA - START 05/01/2015 - 100% TIME SPENT - IAR-ADVISOR WILL SERVE AS AN INVESTMENT ADVISOR REPRESENTATIVE UNDER THE INDEPENDENT FINANCIAL PARTNERS RIA"
    }
  },
  "DRPs": []
}