{
  "Info": {
    "lastNm": "HERBERT",
    "firstNm": "RYAN",
    "midNm": "C",
    "sufNm": null,
    "indvlPK": "5123953",
    "actvAGReg": 0,
    "link": "http://www.adviserinfo.sec.gov/IAPD/Individual/5123953"
  },
  "OthrNms": [],
  "CrntEmps": [
    {
      "CrntRgstns": [
        {
          "regAuth": 21,
          "regCat": 0,
          "st": 2,
          "stDt": "2012-02-16T00:00:00"
        }
      ],
      "BrnchOfLocs": [
        {
          "str1": "428 N CRAIN HWY",
          "str2": null,
          "city": "GLEN BURNIE",
          "state": 21,
          "stateSpecified": true,
          "cntry": "United States",
          "postlCd": "21061"
        }
      ],
      "orgNm": "PROSTATIS FINANCIAL ADVISORS GROUP",
      "orgPK": "132662",
      "str1": "428 NORTH CRAIN HIGHWAY",
      "str2": null,
      "city": "GLEN BURNIE",
      "state": 21,
      "stateSpecified": true,
      "cntry": "United States",
      "postlCd": "21061"
    }
  ],
  "Exms": [
    {
      "exmCd": 3,
      "exmNm": "Uniform Combined State Law Examination",
      "exmDt": "2010-03-06T00:00:00",
      "exmDtSpecified": true
    }
  ],
  "Dsgntns": [],
  "PrevRgstns": [
    {
      "BrnchOfLocs": [
        {
          "city": "GLEN BURNIE",
          "state": 21,
          "stateSpecified": true
        }
      ],
      "orgNm": "ASSET & FINANCIAL PLANNING, LTD",
      "orgPK": "110709",
      "regBeginDt": "2010-03-09T00:00:00",
      "regBeginDtSpecified": true,
      "regEndDt": "2014-04-04T00:00:00",
      "regEndDtSpecified": true
    }
  ],
  "EmpHss": [
    {
      "fromDt": "05/2004",
      "toDt": "10/2006",
      "orgNm": "PATRIOT HOME IMPROVEMENTS",
      "city": "OWINGS",
      "state": 21,
      "stateSpecified": true
    },
    {
      "fromDt": "10/2006",
      "toDt": "11/2008",
      "orgNm": "T ROWE PRICE",
      "city": "OWINGS MILLS",
      "state": 21,
      "stateSpecified": true
    },
    {
      "fromDt": "11/2008",
      "toDt": null,
      "orgNm": "PROSTATIS FINANCIAL ADVISORS",
      "city": "GLEN BURNIE",
      "state": 21,
      "stateSpecified": true
    },
    {
      "fromDt": "02/2009",
      "toDt": "11/2013",
      "orgNm": "PRIME CAPITAL SERVICES, INC.",
      "city": "GLEN BURNIE",
      "state": 21,
      "stateSpecified": true
    },
    {
      "fromDt": "03/2010",
      "toDt": "04/2014",
      "orgNm": "ASSET & FINANCIAL PLANNING , LTD",
      "city": "GLEN BURNIE",
      "state": 21,
      "stateSpecified": true
    },
    {
      "fromDt": "11/2013",
      "toDt": "04/2014",
      "orgNm": "NATIONAL SECURITIES CORPORATION",
      "city": "GLEN BURNIE",
      "state": 21,
      "stateSpecified": true
    },
    {
      "fromDt": "03/2015",
      "toDt": null,
      "orgNm": "TCM SECURITIES, INC",
      "city": "WOODSTOCK",
      "state": 10,
      "stateSpecified": true
    }
  ],
  "OthrBuss": {
    "OthrBus": {
      "desc": "SALARIED EMPLOYEE OF PROSTATIS FINANCIAL ADVISOR, A REGISTERED INVESTMENT ADVISORY FIRM, 428 N CRAIN HWY GLEN BURNIE, MD  21061 WHICH OFFERS TAX PLANNING & PREPARATION; FINANCIAL PLANNING; LIFE, AUTO, HOME & LONG-TERM INSURANCE; FIXED INDEXED ANNUITIES; ESTATE PLANNING AND INVESTMENT MANAGEMENT. I DEVOTE APPROX. 160 HOURS PER MONTH TO THESE ACTIVITIES, ALL DURING SECURITIES TRADING HOURS"
    }
  },
  "DRPs": []
}