{
  "Info": {
    "lastNm": "BONNER",
    "firstNm": "SHEILA",
    "midNm": "LYNN",
    "sufNm": null,
    "indvlPK": "5123227",
    "actvAGReg": 0,
    "link": "http://www.adviserinfo.sec.gov/IAPD/Individual/5123227"
  },
  "OthrNms": [
    {
      "lastNm": "BONNER",
      "firstNm": "SHEILA",
      "midNm": "L",
      "sufNm": null
    },
    {
      "lastNm": "NICHOLS",
      "firstNm": "SHEILA",
      "midNm": "LYNN",
      "sufNm": null
    }
  ],
  "CrntEmps": [
    {
      "CrntRgstns": [
        {
          "regAuth": 45,
          "regCat": 0,
          "st": 3,
          "stDt": "2011-07-20T00:00:00"
        }
      ],
      "BrnchOfLocs": [
        {
          "str1": "34901 WOODWARD AVE",
          "str2": "SUITE 300",
          "city": "BIRMINGHAM",
          "state": 23,
          "stateSpecified": true,
          "cntry": "United States",
          "postlCd": "48009"
        }
      ],
      "orgNm": "MORGAN STANLEY",
      "orgPK": "149777",
      "str1": "2000 WESTCHESTER AVENUE",
      "str2": null,
      "city": "PURCHASE",
      "state": 35,
      "stateSpecified": true,
      "cntry": "United States",
      "postlCd": "10577-2530"
    }
  ],
  "Exms": [
    {
      "exmCd": 0,
      "exmNm": "Uniform Securities Agent State Law Examination",
      "exmDt": "2006-12-01T00:00:00",
      "exmDtSpecified": true
    }
  ],
  "Dsgntns": [],
  "PrevRgstns": [],
  "EmpHss": [
    {
      "fromDt": "03/2006",
      "toDt": "06/2009",
      "orgNm": "CITIGROUP GLOBAL MARKETS INC.",
      "city": "SOUTHFIELD",
      "state": 23,
      "stateSpecified": true
    },
    {
      "fromDt": "06/2009",
      "toDt": "09/2010",
      "orgNm": "MORGAN STANLEY SMITH BARNEY LLC",
      "city": "SOUTHFIELD",
      "state": 23,
      "stateSpecified": true
    },
    {
      "fromDt": "09/2010",
      "toDt": "04/2013",
      "orgNm": "MORGAN STANLEY SMITH BARNEY LLC",
      "city": "TROY",
      "state": 23,
      "stateSpecified": true
    },
    {
      "fromDt": "04/2013",
      "toDt": "09/2015",
      "orgNm": "MORGAN STANLEY SMITH BARNEY LLC",
      "city": "FARMINGTON HILLS",
      "state": 23,
      "stateSpecified": true
    },
    {
      "fromDt": "09/2015",
      "toDt": null,
      "orgNm": "MORGAN STANLEY SMITH BARNEY LLC",
      "city": "BIRMINGHAM",
      "state": 23,
      "stateSpecified": true
    }
  ],
  "OthrBuss": {
    "OthrBus": {
      "desc": "VIVIO'S FOOD & SPIRITS   2460 MARKET STREET  DETROIT, MI 48207  NOT INVESTMENT RELATED  RESTAURANT  POSITION-HOSTESS/WAITRESS (SATURDAY'S ONLY)  START DATE - 11/18/06  APPROX. HRS. PER MONTH - 25  DURING NON-TRADING HOURS  DUTIES - WAIT TABLES - SEAT CUSTOMERS"
    }
  },
  "DRPs": [
    {
      "hasRegAction": 1,
      "hasRegActionSpecified": true,
      "hasCriminal": 1,
      "hasCriminalSpecified": true,
      "hasBankrupt": 0,
      "hasBankruptSpecified": true,
      "hasCivilJudc": 1,
      "hasCivilJudcSpecified": true,
      "hasBond": 1,
      "hasBondSpecified": true,
      "hasJudgment": 1,
      "hasJudgmentSpecified": true,
      "hasInvstgn": 1,
      "hasInvstgnSpecified": true,
      "hasCustComp": 1,
      "hasCustCompSpecified": true,
      "hasTermination": 1,
      "hasTerminationSpecified": true
    }
  ]
}