{
  "Info": {
    "lastNm": "RADINTZ",
    "firstNm": "MATTHEW",
    "midNm": "HENRY",
    "sufNm": null,
    "indvlPK": "5126033",
    "actvAGReg": 0,
    "link": "http://www.adviserinfo.sec.gov/IAPD/Individual/5126033"
  },
  "OthrNms": [
    {
      "lastNm": "RADINTZ",
      "firstNm": "MATT",
      "midNm": "HENRY",
      "sufNm": null
    }
  ],
  "CrntEmps": [
    {
      "CrntRgstns": [
        {
          "regAuth": 50,
          "regCat": 0,
          "st": 2,
          "stDt": "2016-05-13T00:00:00"
        }
      ],
      "BrnchOfLocs": [
        {
          "str1": null,
          "str2": null,
          "city": "CINCINNATI",
          "state": 36,
          "stateSpecified": true,
          "cntry": "United States",
          "postlCd": null
        },
        {
          "str1": null,
          "str2": null,
          "city": "NEW RICHMOND",
          "state": 50,
          "stateSpecified": true,
          "cntry": "United States",
          "postlCd": null
        }
      ],
      "orgNm": "SIGNATOR INVESTORS, INC.",
      "orgPK": "468",
      "str1": "380 STUART STREET",
      "str2": "S-8",
      "city": "BOSTON",
      "state": 20,
      "stateSpecified": true,
      "cntry": "United States",
      "postlCd": "02116"
    }
  ],
  "Exms": [
    {
      "exmCd": 0,
      "exmNm": "Uniform Securities Agent State Law Examination",
      "exmDt": "2006-05-25T00:00:00",
      "exmDtSpecified": true
    }
  ],
  "Dsgntns": [],
  "PrevRgstns": [
    {
      "BrnchOfLocs": [
        {
          "city": "NEW RICHMOND",
          "state": 50,
          "stateSpecified": true
        },
        {
          "city": "NEW RICHMOND",
          "state": 50,
          "stateSpecified": true
        },
        {
          "city": "NEW RICHMOND",
          "state": 50,
          "stateSpecified": true
        }
      ],
      "orgNm": "TRANSAMERICA FINANCIAL ADVISORS, INC.",
      "orgPK": "3600",
      "regBeginDt": "2006-05-26T00:00:00",
      "regBeginDtSpecified": true,
      "regEndDt": "2009-09-04T00:00:00",
      "regEndDtSpecified": true
    },
    {
      "BrnchOfLocs": [
        {
          "city": "CINCINNATI",
          "state": 36,
          "stateSpecified": true
        },
        {
          "city": "NEW RICHMOND",
          "state": 50,
          "stateSpecified": true
        },
        {
          "city": "NEW RICHMOND",
          "state": 50,
          "stateSpecified": true
        }
      ],
      "orgNm": "TRANSAMERICA FINANCIAL ADVISORS, INC",
      "orgPK": "16164",
      "regBeginDt": "2009-09-04T00:00:00",
      "regBeginDtSpecified": true,
      "regEndDt": "2016-05-13T00:00:00",
      "regEndDtSpecified": true
    }
  ],
  "EmpHss": [
    {
      "fromDt": "12/2005",
      "toDt": "07/2014",
      "orgNm": "J A COUNTER & ASSOC.",
      "city": "NEW RICHMOND",
      "state": 50,
      "stateSpecified": true
    },
    {
      "fromDt": "04/2006",
      "toDt": null,
      "orgNm": "TRANSAMERICA FINANCIAL ADVISORS, INC.",
      "city": "NEW RICHMOND",
      "state": 50,
      "stateSpecified": true
    },
    {
      "fromDt": "05/2016",
      "toDt": null,
      "orgNm": "SIGNATOR INVESTORS, INC.",
      "city": "NEW RICHMOND",
      "state": 50,
      "stateSpecified": true
    }
  ],
  "OthrBuss": {
    "OthrBus": {
      "desc": "1) WASHINGTON INTERSCHOLASTIC ACTIVITIES ASSOCIATION, NON-INVESTMENT RELATED, HIGH SCHOOL BASKETBALL OFFICIAL, 5 HRS/MO 2)PINNACLE WEALTH ADVISORY GROUP, INC, 353 FOX WAY, NEW RICHMOND, WI, EMPLOYEE OF S-CORP, CLIENT SERVICE WORK/PROCESS PAPERWORK, START 6/2009, 160 HRS/MO 3)OWNER OF RENTAL PROPERTY, GLENWOOD CITY, WI, OWNER/OPERATOR, NOT INV-REL, START 11/2009, 1 HR/MO, 0 HRS"
    }
  },
  "DRPs": []
}