{
  "Info": {
    "lastNm": "Otto",
    "firstNm": "Richard",
    "midNm": "Thomas",
    "sufNm": null,
    "indvlPK": "5131911",
    "actvAGReg": 0,
    "link": "http://www.adviserinfo.sec.gov/IAPD/Individual/5131911"
  },
  "OthrNms": [
    {
      "lastNm": "OTTO",
      "firstNm": "RICHARD",
      "midNm": null,
      "sufNm": null
    },
    {
      "lastNm": "OTTO",
      "firstNm": "RICHARD",
      "midNm": "TOMAS",
      "sufNm": null
    }
  ],
  "CrntEmps": [
    {
      "CrntRgstns": [
        {
          "regAuth": 4,
          "regCat": 0,
          "st": 2,
          "stDt": "2007-02-12T00:00:00"
        }
      ],
      "BrnchOfLocs": [
        {
          "str1": "717 EAST LAKE AVENUE",
          "str2": null,
          "city": "WATSONVILLE",
          "state": 4,
          "stateSpecified": true,
          "cntry": "United States",
          "postlCd": "95076"
        }
      ],
      "orgNm": "EDWARD JONES",
      "orgPK": "250",
      "str1": "12555 MANCHESTER RD",
      "str2": null,
      "city": "ST. LOUIS",
      "state": 25,
      "stateSpecified": true,
      "cntry": "United States",
      "postlCd": "63131"
    }
  ],
  "Exms": [
    {
      "exmCd": 0,
      "exmNm": "Uniform Securities Agent State Law Examination",
      "exmDt": "2006-06-23T00:00:00",
      "exmDtSpecified": true
    },
    {
      "exmCd": 3,
      "exmNm": "Uniform Combined State Law Examination",
      "exmDt": "2007-02-05T00:00:00",
      "exmDtSpecified": true
    }
  ],
  "Dsgntns": [],
  "PrevRgstns": [],
  "EmpHss": [
    {
      "fromDt": "04/2006",
      "toDt": null,
      "orgNm": "EDWARD JONES",
      "city": "ST. LOUIS",
      "state": 25,
      "stateSpecified": true
    }
  ],
  "OthrBuss": {
    "OthrBus": null
  },
  "DRPs": []
}