{
  "Info": {
    "lastNm": "NAIBKHYL",
    "firstNm": "NEELAB",
    "midNm": null,
    "sufNm": null,
    "indvlPK": "5140958",
    "actvAGReg": 0,
    "link": "http://www.adviserinfo.sec.gov/IAPD/Individual/5140958"
  },
  "OthrNms": [
    {
      "lastNm": "NAIBKNYL",
      "firstNm": "NEELAB",
      "midNm": null,
      "sufNm": null
    }
  ],
  "CrntEmps": [
    {
      "CrntRgstns": [
        {
          "regAuth": 4,
          "regCat": 0,
          "st": 2,
          "stDt": "2016-06-07T00:00:00"
        }
      ],
      "BrnchOfLocs": [
        {
          "str1": "12651 HIGH BLUFF DRIVE",
          "str2": "SUITE 330",
          "city": "SAN DIEGO",
          "state": 4,
          "stateSpecified": true,
          "cntry": "United States",
          "postlCd": "92130"
        }
      ],
      "orgNm": "RAYMOND JAMES FINANCIAL SERVICES ADVISORS, INC",
      "orgPK": "149018",
      "str1": "880 CARILLON PARKWAY",
      "str2": null,
      "city": "SAINT PETERSBURG",
      "state": 9,
      "stateSpecified": true,
      "cntry": "United States",
      "postlCd": "33716"
    }
  ],
  "Exms": [
    {
      "exmCd": 3,
      "exmNm": "Uniform Combined State Law Examination",
      "exmDt": "2015-12-11T00:00:00",
      "exmDtSpecified": true
    }
  ],
  "Dsgntns": [],
  "PrevRgstns": [
    {
      "BrnchOfLocs": [
        {
          "city": "SAN DIEGO",
          "state": 4,
          "stateSpecified": true
        }
      ],
      "orgNm": "WELLS FARGO ADVISORS, LLC",
      "orgPK": "19616",
      "regBeginDt": "2015-12-11T00:00:00",
      "regBeginDtSpecified": true,
      "regEndDt": "2016-06-01T00:00:00",
      "regEndDtSpecified": true
    }
  ],
  "EmpHss": [
    {
      "fromDt": "04/2006",
      "toDt": "04/2009",
      "orgNm": "A.G. EDWARDS & SONS, INC.",
      "city": "SAN DIEGO",
      "state": 4,
      "stateSpecified": true
    },
    {
      "fromDt": "01/2008",
      "toDt": "05/2016",
      "orgNm": "WELLS FARGO ADVISORS, LLC",
      "city": "SAN DIEGO",
      "state": 4,
      "stateSpecified": true
    },
    {
      "fromDt": "01/2009",
      "toDt": "02/2010",
      "orgNm": "XPONENTIAL GROWTH SOLUTIONS",
      "city": "SAN DIEGO",
      "state": 4,
      "stateSpecified": true
    },
    {
      "fromDt": "02/2010",
      "toDt": "02/2011",
      "orgNm": "ASHFORD UNIVERSITY",
      "city": "SAN DIEGO",
      "state": 4,
      "stateSpecified": true
    },
    {
      "fromDt": "05/2016",
      "toDt": null,
      "orgNm": "NEXT RETIREMENT SOLUTIONS",
      "city": "SAN DIEGO",
      "state": 4,
      "stateSpecified": true
    },
    {
      "fromDt": "05/2016",
      "toDt": null,
      "orgNm": "RAYMOND JAMES FINANCIAL SERVICES, INC.",
      "city": "SAN DIEGO",
      "state": 4,
      "stateSpecified": true
    },
    {
      "fromDt": "06/2016",
      "toDt": null,
      "orgNm": "RAYMOND JAMES FINANCIAL SERVICES ADVISORS INC.",
      "city": "SAN DIEGO",
      "state": 4,
      "stateSpecified": true
    }
  ],
  "OthrBuss": {
    "OthrBus": {
      "desc": "DBA - NEXT RETIREMENT SOLUTIONS. NOT INVESTMENT RELATED. SUPPORT COMPANY/DBA (NON-OWNER). SAN DIEGO, CA. STARTED:05/2016. EMPLOYEE. 0 HRS DEVOTED PER MONTH."
    }
  },
  "DRPs": []
}