{
  "Info": {
    "lastNm": "CLARK",
    "firstNm": "PHILLIP",
    "midNm": "A",
    "sufNm": null,
    "indvlPK": "5160394",
    "actvAGReg": 0,
    "link": "http://www.adviserinfo.sec.gov/IAPD/Individual/5160394"
  },
  "OthrNms": [],
  "CrntEmps": [
    {
      "CrntRgstns": [
        {
          "regAuth": 4,
          "regCat": 0,
          "st": 2,
          "stDt": "2008-01-16T00:00:00"
        },
        {
          "regAuth": 45,
          "regCat": 0,
          "st": 2,
          "stDt": "2009-01-27T00:00:00"
        }
      ],
      "BrnchOfLocs": [
        {
          "str1": "6730 N SCOTTSDALE RD",
          "str2": null,
          "city": "SCOTTSDALE",
          "state": 3,
          "stateSpecified": true,
          "cntry": "United States",
          "postlCd": "85253"
        }
      ],
      "orgNm": "MERRILL LYNCH, PIERCE, FENNER & SMITH INCORPORATED",
      "orgPK": "7691",
      "str1": "ONE BRYANT PARK",
      "str2": null,
      "city": "NEW YORK",
      "state": 35,
      "stateSpecified": true,
      "cntry": "United States",
      "postlCd": "10036"
    }
  ],
  "Exms": [
    {
      "exmCd": 3,
      "exmNm": "Uniform Combined State Law Examination",
      "exmDt": "2008-01-14T00:00:00",
      "exmDtSpecified": true
    }
  ],
  "Dsgntns": [],
  "PrevRgstns": [],
  "EmpHss": [
    {
      "fromDt": "06/2006",
      "toDt": "08/2006",
      "orgNm": "MERRILL LYNCH, PIERCE, FENNER & SMITH INCORPORATED",
      "city": "FARMINGTON HILLS",
      "state": 23,
      "stateSpecified": true
    },
    {
      "fromDt": "08/2006",
      "toDt": "05/2007",
      "orgNm": "ASU RESIDENTIAL LIFE",
      "city": "TEMPE",
      "state": 3,
      "stateSpecified": true
    },
    {
      "fromDt": "06/2007",
      "toDt": null,
      "orgNm": "MERRILL LYNCH, PIERCE, FENNER & SMITH INCORPORATED",
      "city": "SCOTTSDALE",
      "state": 3,
      "stateSpecified": true
    },
    {
      "fromDt": "08/2013",
      "toDt": null,
      "orgNm": "BANK OF AMERICA, N.A.",
      "city": "SCOTTSDALE",
      "state": 3,
      "stateSpecified": true
    }
  ],
  "OthrBuss": {
    "OthrBus": null
  },
  "DRPs": []
}