{
  "Info": {
    "lastNm": "JAAX",
    "firstNm": "GRANT",
    "midNm": "ALAN",
    "sufNm": null,
    "indvlPK": "5163580",
    "actvAGReg": 0,
    "link": "http://www.adviserinfo.sec.gov/IAPD/Individual/5163580"
  },
  "OthrNms": [
    {
      "lastNm": "GRANT",
      "firstNm": "JAAX",
      "midNm": null,
      "sufNm": null
    },
    {
      "lastNm": "GRANT",
      "firstNm": "JAAX",
      "midNm": "ALAN",
      "sufNm": null
    }
  ],
  "CrntEmps": [
    {
      "CrntRgstns": [
        {
          "regAuth": 10,
          "regCat": 0,
          "st": 2,
          "stDt": "2016-02-09T00:00:00"
        }
      ],
      "BrnchOfLocs": [
        {
          "str1": "3050 PEACHTREE ROAD, NW",
          "str2": "SUITE 600",
          "city": "ATLANTA",
          "state": 10,
          "stateSpecified": true,
          "cntry": "United States",
          "postlCd": "30305"
        }
      ],
      "orgNm": "RAYMOND JAMES & ASSOCIATES, INC.",
      "orgPK": "705",
      "str1": "880 CARILLON PARKWAY",
      "str2": null,
      "city": "ST PETERSBURG",
      "state": 9,
      "stateSpecified": true,
      "cntry": "United States",
      "postlCd": "33716"
    }
  ],
  "Exms": [
    {
      "exmCd": 3,
      "exmNm": "Uniform Combined State Law Examination",
      "exmDt": "2007-09-20T00:00:00",
      "exmDtSpecified": true
    }
  ],
  "Dsgntns": [],
  "PrevRgstns": [
    {
      "BrnchOfLocs": [
        {
          "city": "ATLANTA",
          "state": 10,
          "stateSpecified": true
        }
      ],
      "orgNm": "MORGAN STANLEY & CO. LLC",
      "orgPK": "8209",
      "regBeginDt": "2007-09-21T00:00:00",
      "regBeginDtSpecified": true,
      "regEndDt": "2009-06-01T00:00:00",
      "regEndDtSpecified": true
    },
    {
      "BrnchOfLocs": [
        {
          "city": "ATLANTA",
          "state": 10,
          "stateSpecified": true
        }
      ],
      "orgNm": "MORGAN STANLEY",
      "orgPK": "149777",
      "regBeginDt": "2009-06-01T00:00:00",
      "regBeginDtSpecified": true,
      "regEndDt": "2016-01-19T00:00:00",
      "regEndDtSpecified": true
    }
  ],
  "EmpHss": [
    {
      "fromDt": "07/2005",
      "toDt": "05/2007",
      "orgNm": "FULL-TIME EDUCATION",
      "city": "CHAPEL HILL",
      "state": 28,
      "stateSpecified": true
    },
    {
      "fromDt": "06/2006",
      "toDt": "08/2006",
      "orgNm": "MORGAN STANLEY",
      "city": "NEW YORK CITY",
      "state": 35,
      "stateSpecified": true
    },
    {
      "fromDt": "08/2007",
      "toDt": "01/2016",
      "orgNm": "MORGAN STANLEY & CO. INCORPORATED",
      "city": "ATLANTA",
      "state": 10,
      "stateSpecified": true
    },
    {
      "fromDt": "06/2009",
      "toDt": "01/2016",
      "orgNm": "MORGAN STANLEY SMITH BARNEY",
      "city": "ATLANTA",
      "state": 10,
      "stateSpecified": true
    },
    {
      "fromDt": "01/2015",
      "toDt": "01/2016",
      "orgNm": "MORGAN STANLEY PRIVATE BANK, NATIONAL ASSOCIATION",
      "city": "NEW YORK",
      "state": 35,
      "stateSpecified": true
    },
    {
      "fromDt": "02/2016",
      "toDt": null,
      "orgNm": "RAYMOND JAMES & ASSOCIATES",
      "city": "ATLANTA",
      "state": 10,
      "stateSpecified": true
    }
  ],
  "OthrBuss": {
    "OthrBus": {
      "desc": "1. KENAN FLAGER BUSINESS SCHOOL AIM ADVISORY BOARD; SERVE IN AN ADVISORY ROLE FOR STUDENTS AS PART OF THE LEARNING PROCESS WITH THE CLASS; NOT INVESTMENT RELATED; 1 AFTER BUSINESS HOURS; 0 DURING BUSINESS HOURS.   2. UNIVERSITY OF GEORGIA STUDENT MANAGED INVESTMENT FUND; 0.05 AFTER BUSINESS HOURS: 0 DURING BUSINESS HOURS; BOARD OF TRUSTEE; 02/2013"
    }
  },
  "DRPs": [
    {
      "hasRegAction": 1,
      "hasRegActionSpecified": true,
      "hasCriminal": 0,
      "hasCriminalSpecified": true,
      "hasBankrupt": 1,
      "hasBankruptSpecified": true,
      "hasCivilJudc": 1,
      "hasCivilJudcSpecified": true,
      "hasBond": 1,
      "hasBondSpecified": true,
      "hasJudgment": 1,
      "hasJudgmentSpecified": true,
      "hasInvstgn": 1,
      "hasInvstgnSpecified": true,
      "hasCustComp": 1,
      "hasCustCompSpecified": true,
      "hasTermination": 0,
      "hasTerminationSpecified": true
    }
  ]
}