{
  "Info": {
    "lastNm": "Butler",
    "firstNm": "Branson",
    "midNm": "C",
    "sufNm": null,
    "indvlPK": "5164925",
    "actvAGReg": 0,
    "link": "http://www.adviserinfo.sec.gov/IAPD/Individual/5164925"
  },
  "OthrNms": [],
  "CrntEmps": [
    {
      "CrntRgstns": [
        {
          "regAuth": 45,
          "regCat": 0,
          "st": 2,
          "stDt": "2015-11-19T00:00:00"
        }
      ],
      "BrnchOfLocs": [
        {
          "str1": "7105 CORPORATE DR",
          "str2": null,
          "city": "PLANO",
          "state": 45,
          "stateSpecified": true,
          "cntry": "United States",
          "postlCd": "75024"
        }
      ],
      "orgNm": "MERRILL LYNCH, PIERCE, FENNER & SMITH INCORPORATED",
      "orgPK": "7691",
      "str1": "ONE BRYANT PARK",
      "str2": null,
      "city": "NEW YORK",
      "state": 35,
      "stateSpecified": true,
      "cntry": "United States",
      "postlCd": "10036"
    }
  ],
  "Exms": [
    {
      "exmCd": 0,
      "exmNm": "Uniform Securities Agent State Law Examination",
      "exmDt": "2006-07-21T00:00:00",
      "exmDtSpecified": true
    },
    {
      "exmCd": 2,
      "exmNm": "Uniform Investment Adviser Law Examination",
      "exmDt": "2008-05-01T00:00:00",
      "exmDtSpecified": true
    }
  ],
  "Dsgntns": [],
  "PrevRgstns": [
    {
      "BrnchOfLocs": [
        {
          "city": "PHOENIX",
          "state": 3,
          "stateSpecified": true
        }
      ],
      "orgNm": "USAA INVESTMENT MANAGEMENT COMPANY",
      "orgPK": "5475",
      "regBeginDt": "2008-05-12T00:00:00",
      "regBeginDtSpecified": true,
      "regEndDt": "2012-06-11T00:00:00",
      "regEndDtSpecified": true
    },
    {
      "BrnchOfLocs": [
        {
          "city": "ADDISON",
          "state": 45,
          "stateSpecified": true
        },
        {
          "city": "PHOENIX",
          "state": 3,
          "stateSpecified": true
        }
      ],
      "orgNm": "USAA FINANCIAL PLANNING SERVICES",
      "orgPK": "106352",
      "regBeginDt": "2012-06-08T00:00:00",
      "regBeginDtSpecified": true,
      "regEndDt": "2015-10-29T00:00:00",
      "regEndDtSpecified": true
    }
  ],
  "EmpHss": [
    {
      "fromDt": "06/2006",
      "toDt": "07/2007",
      "orgNm": "THE VANGUARD GROUP",
      "city": "CHARLOTTE",
      "state": 28,
      "stateSpecified": true
    },
    {
      "fromDt": "07/2007",
      "toDt": "12/2007",
      "orgNm": "USAA INVESTMENT MANAGEMENT COMPANY",
      "city": "PHOENIX",
      "state": 3,
      "stateSpecified": true
    },
    {
      "fromDt": "08/2007",
      "toDt": "10/2015",
      "orgNm": "USAA FINANCIAL ADVISORS, INC.",
      "city": "ADDISON",
      "state": 45,
      "stateSpecified": true
    },
    {
      "fromDt": "08/2007",
      "toDt": "05/2012",
      "orgNm": "USAA LIFE INSURANCE COMPANY",
      "city": "PHOENIX",
      "state": 3,
      "stateSpecified": true
    },
    {
      "fromDt": "05/2008",
      "toDt": "05/2012",
      "orgNm": "USAA INVESTMENT MANAGEMENT COMPANY",
      "city": "PHOENIX",
      "state": 3,
      "stateSpecified": true
    },
    {
      "fromDt": "05/2012",
      "toDt": "10/2015",
      "orgNm": "USAA FINANCIAL PLANNING SERVICES",
      "city": "ADDISON",
      "state": 45,
      "stateSpecified": true
    },
    {
      "fromDt": "11/2015",
      "toDt": null,
      "orgNm": "MERRILL LYNCH, PIERCE, FENNER & SMITH INCORPORATED",
      "city": "PLANO",
      "state": 45,
      "stateSpecified": true
    }
  ],
  "OthrBuss": {
    "OthrBus": null
  },
  "DRPs": []
}