{
  "Info": {
    "lastNm": "PAESANO",
    "firstNm": "LINDSEY",
    "midNm": null,
    "sufNm": null,
    "indvlPK": "5168152",
    "actvAGReg": 0,
    "link": "http://www.adviserinfo.sec.gov/IAPD/Individual/5168152"
  },
  "OthrNms": [
    {
      "lastNm": "PAESANO",
      "firstNm": "LINDSEY",
      "midNm": "ALICE",
      "sufNm": null
    }
  ],
  "CrntEmps": [
    {
      "CrntRgstns": [
        {
          "regAuth": 32,
          "regCat": 0,
          "st": 2,
          "stDt": "2011-08-15T00:00:00"
        },
        {
          "regAuth": 45,
          "regCat": 0,
          "st": 3,
          "stDt": "2014-02-11T00:00:00"
        }
      ],
      "BrnchOfLocs": [
        {
          "str1": "1290 AVENUE OF THE AMERICAS",
          "str2": "12th FLOOR",
          "city": "NEW YORK",
          "state": 35,
          "stateSpecified": true,
          "cntry": "United States",
          "postlCd": "10104"
        }
      ],
      "orgNm": "MORGAN STANLEY",
      "orgPK": "149777",
      "str1": "2000 WESTCHESTER AVENUE",
      "str2": null,
      "city": "PURCHASE",
      "state": 35,
      "stateSpecified": true,
      "cntry": "United States",
      "postlCd": "10577-2530"
    }
  ],
  "Exms": [
    {
      "exmCd": 3,
      "exmNm": "Uniform Combined State Law Examination",
      "exmDt": "2011-08-12T00:00:00",
      "exmDtSpecified": true
    }
  ],
  "Dsgntns": [],
  "PrevRgstns": [],
  "EmpHss": [
    {
      "fromDt": "08/2004",
      "toDt": "05/2008",
      "orgNm": "PENN STATE UNIVERSITY",
      "city": "UNIVERSITY PARK",
      "state": 39,
      "stateSpecified": true
    },
    {
      "fromDt": "05/2006",
      "toDt": "08/2006",
      "orgNm": "UBS FINANCIAL SERVICES",
      "city": "NEW YORK",
      "state": 35,
      "stateSpecified": true
    },
    {
      "fromDt": "06/2007",
      "toDt": "08/2007",
      "orgNm": "UBS FINANCIAL SERVICES",
      "city": "NEW YORK",
      "state": 35,
      "stateSpecified": true
    },
    {
      "fromDt": "06/2008",
      "toDt": "03/2009",
      "orgNm": "UNEMPLOYED",
      "city": "ROCKVILLE CENTRE",
      "state": 35,
      "stateSpecified": true
    },
    {
      "fromDt": "03/2009",
      "toDt": "05/2011",
      "orgNm": "UBS FINANCIAL SERVICES",
      "city": "NEW YORK",
      "state": 35,
      "stateSpecified": true
    },
    {
      "fromDt": "05/2011",
      "toDt": null,
      "orgNm": "MORGAN STANLEY SMITH BARNEY",
      "city": "NEW YORK",
      "state": 35,
      "stateSpecified": true
    }
  ],
  "OthrBuss": {
    "OthrBus": null
  },
  "DRPs": []
}