{
  "Info": {
    "lastNm": "Wyles",
    "firstNm": "Miranda",
    "midNm": "Leigh Cecilia",
    "sufNm": null,
    "indvlPK": "5169096",
    "actvAGReg": 0,
    "link": "http://www.adviserinfo.sec.gov/IAPD/Individual/5169096"
  },
  "OthrNms": [
    {
      "lastNm": "CLAPP",
      "firstNm": "MANDI",
      "midNm": null,
      "sufNm": null
    },
    {
      "lastNm": "CLAPP",
      "firstNm": "MIRANDA",
      "midNm": "LEIGH CECILIA",
      "sufNm": null
    },
    {
      "lastNm": "CLAPP",
      "firstNm": "MIRANDA",
      "midNm": "LEIGH CECILIA",
      "sufNm": null
    },
    {
      "lastNm": "REYNOLDS",
      "firstNm": "MIRANDA",
      "midNm": "LEIGH CECILIA",
      "sufNm": null
    },
    {
      "lastNm": "WYLES",
      "firstNm": "MIRANDA",
      "midNm": "LEIGH CECILIA",
      "sufNm": null
    }
  ],
  "CrntEmps": [
    {
      "CrntRgstns": [
        {
          "regAuth": 18,
          "regCat": 0,
          "st": 2,
          "stDt": "2007-03-21T00:00:00"
        }
      ],
      "BrnchOfLocs": [
        {
          "str1": "501 MAIN STREET",
          "str2": null,
          "city": "PARIS",
          "state": 18,
          "stateSpecified": true,
          "cntry": "United States",
          "postlCd": "40361"
        }
      ],
      "orgNm": "EDWARD JONES",
      "orgPK": "250",
      "str1": "12555 MANCHESTER RD",
      "str2": null,
      "city": "ST. LOUIS",
      "state": 25,
      "stateSpecified": true,
      "cntry": "United States",
      "postlCd": "63131"
    }
  ],
  "Exms": [
    {
      "exmCd": 0,
      "exmNm": "Uniform Securities Agent State Law Examination",
      "exmDt": "2006-08-10T00:00:00",
      "exmDtSpecified": true
    },
    {
      "exmCd": 3,
      "exmNm": "Uniform Combined State Law Examination",
      "exmDt": "2007-03-19T00:00:00",
      "exmDtSpecified": true
    }
  ],
  "Dsgntns": [],
  "PrevRgstns": [],
  "EmpHss": [
    {
      "fromDt": "06/2006",
      "toDt": null,
      "orgNm": "EDWARD JONES",
      "city": "LEXINGTON",
      "state": 18,
      "stateSpecified": true
    }
  ],
  "OthrBuss": {
    "OthrBus": {
      "desc": "Ginkgo Enterprises LLC Type of business: Rental Property  Paris, KY  Start date: 10/30/2008  Sole member  Hours per week: 2  Hours during trading: 1  Maintain Property"
    }
  },
  "DRPs": []
}