{
  "Info": {
    "lastNm": "PANAGOS",
    "firstNm": "TAMMY",
    "midNm": "L",
    "sufNm": null,
    "indvlPK": "5171677",
    "actvAGReg": 0,
    "link": "http://www.adviserinfo.sec.gov/IAPD/Individual/5171677"
  },
  "OthrNms": [],
  "CrntEmps": [
    {
      "CrntRgstns": [
        {
          "regAuth": 21,
          "regCat": 0,
          "st": 2,
          "stDt": "2009-02-18T00:00:00"
        },
        {
          "regAuth": 28,
          "regCat": 0,
          "st": 2,
          "stDt": "2012-05-09T00:00:00"
        },
        {
          "regAuth": 45,
          "regCat": 0,
          "st": 2,
          "stDt": "2015-01-05T00:00:00"
        },
        {
          "regAuth": 32,
          "regCat": 0,
          "st": 2,
          "stDt": "2015-12-28T00:00:00"
        }
      ],
      "BrnchOfLocs": [
        {
          "str1": "121 WEST MARKET STREET",
          "str2": "2ND FLOOR",
          "city": "YORK",
          "state": 39,
          "stateSpecified": true,
          "cntry": "United States",
          "postlCd": "17401"
        },
        {
          "str1": "CAPITAL HARRISBURG",
          "str2": "1002 NORTH 7TH STREET",
          "city": "HARRISBURG",
          "state": 39,
          "stateSpecified": true,
          "cntry": "United States",
          "postlCd": "17102-2554"
        },
        {
          "str1": "COLONIAL PARK",
          "str2": "4950 JONESTOWN RD.",
          "city": "HARRISBURG",
          "state": 39,
          "stateSpecified": true,
          "cntry": "United States",
          "postlCd": "17109"
        },
        {
          "str1": "EAST PARK",
          "str2": "4200 DERRY ST.",
          "city": "HARRISBURG",
          "state": 39,
          "stateSpecified": true,
          "cntry": "United States",
          "postlCd": "17111"
        },
        {
          "str1": "HARRISBURG MAIN",
          "str2": "213 MARKET ST.",
          "city": "HARRISBURG",
          "state": 39,
          "stateSpecified": true,
          "cntry": "United States",
          "postlCd": "17101"
        },
        {
          "str1": "LINGLESTOWN",
          "str2": "2600 LINGLESTOWN ROAD",
          "city": "HARRISBURG",
          "state": 39,
          "stateSpecified": true,
          "cntry": "United States",
          "postlCd": "17110"
        },
        {
          "str1": "PAXTON STREET",
          "str2": "2775 PAXTON ST.",
          "city": "HARRISBURG",
          "state": 39,
          "stateSpecified": true,
          "cntry": "United States",
          "postlCd": "17111"
        },
        {
          "str1": "SUMMERDALE PLAZA",
          "str2": "423 N ENOLA RD.",
          "city": "ENOLA",
          "state": 39,
          "stateSpecified": true,
          "cntry": "United States",
          "postlCd": "17025"
        },
        {
          "str1": "WEST SHORE PLAZA",
          "str2": "1200 MARKET ST.",
          "city": "LEMOYNE",
          "state": 39,
          "stateSpecified": true,
          "cntry": "United States",
          "postlCd": "17043"
        }
      ],
      "orgNm": "M&T SECURITIES, INC.",
      "orgPK": "17358",
      "str1": "285 DELAWARE AVENUE",
      "str2": "SUITE 2000",
      "city": "BUFFALO",
      "state": 35,
      "stateSpecified": true,
      "cntry": "United States",
      "postlCd": "14202"
    }
  ],
  "Exms": [
    {
      "exmCd": 0,
      "exmNm": "Uniform Securities Agent State Law Examination",
      "exmDt": "2006-08-29T00:00:00",
      "exmDtSpecified": true
    },
    {
      "exmCd": 2,
      "exmNm": "Uniform Investment Adviser Law Examination",
      "exmDt": "2009-02-17T00:00:00",
      "exmDtSpecified": true
    }
  ],
  "Dsgntns": [],
  "PrevRgstns": [],
  "EmpHss": [
    {
      "fromDt": "06/2006",
      "toDt": null,
      "orgNm": "M&T SECURITIES",
      "city": "HARRISBURG",
      "state": 39,
      "stateSpecified": true
    }
  ],
  "OthrBuss": {
    "OthrBus": null
  },
  "DRPs": []
}