{
  "Info": {
    "lastNm": "SNOW",
    "firstNm": "TIFFANY",
    "midNm": "ROSE",
    "sufNm": null,
    "indvlPK": "5175048",
    "actvAGReg": 0,
    "link": "http://www.adviserinfo.sec.gov/IAPD/Individual/5175048"
  },
  "OthrNms": [
    {
      "lastNm": "FORCIER",
      "firstNm": "TIFFANY",
      "midNm": "ROSE",
      "sufNm": null
    },
    {
      "lastNm": "FORCIER",
      "firstNm": "TIFFANY",
      "midNm": "ROSE",
      "sufNm": null
    }
  ],
  "CrntEmps": [
    {
      "CrntRgstns": [
        {
          "regAuth": 31,
          "regCat": 0,
          "st": 2,
          "stDt": "2010-11-05T00:00:00"
        }
      ],
      "BrnchOfLocs": [
        {
          "str1": "10 PARK STREET",
          "str2": null,
          "city": "CONCORD",
          "state": 31,
          "stateSpecified": true,
          "cntry": "United States",
          "postlCd": "03301"
        }
      ],
      "orgNm": "UBS FINANCIAL SERVICES INC.",
      "orgPK": "8174",
      "str1": "1200 HARBOR BOULEVARD",
      "str2": null,
      "city": "WEEHAWKEN",
      "state": 32,
      "stateSpecified": true,
      "cntry": "United States",
      "postlCd": "07086"
    }
  ],
  "Exms": [
    {
      "exmCd": 0,
      "exmNm": "Uniform Securities Agent State Law Examination",
      "exmDt": "2006-09-15T00:00:00",
      "exmDtSpecified": true
    },
    {
      "exmCd": 2,
      "exmNm": "Uniform Investment Adviser Law Examination",
      "exmDt": "2008-04-24T00:00:00",
      "exmDtSpecified": true
    }
  ],
  "Dsgntns": [],
  "PrevRgstns": [],
  "EmpHss": [
    {
      "fromDt": "06/2006",
      "toDt": "11/2006",
      "orgNm": "FIDELITY INVESTMENTS",
      "city": "MERRIMACK",
      "state": 31,
      "stateSpecified": true
    },
    {
      "fromDt": "11/2006",
      "toDt": "07/2008",
      "orgNm": "NEEBCO",
      "city": "CONCORD",
      "state": 31,
      "stateSpecified": true
    },
    {
      "fromDt": "01/2007",
      "toDt": "08/2008",
      "orgNm": "LINCOLN FINANCIAL SECURITIES CORP.",
      "city": "CONCORD",
      "state": 31,
      "stateSpecified": true
    },
    {
      "fromDt": "10/2008",
      "toDt": "09/2010",
      "orgNm": "AMERICAN NATIONAL INSURANCE COMPANY",
      "city": "CONCORD",
      "state": 31,
      "stateSpecified": true
    },
    {
      "fromDt": "11/2008",
      "toDt": "09/2010",
      "orgNm": "SECURITIES MANAGEMENT AND RESEARCH, INC.",
      "city": "LEAGUE CITY",
      "state": 45,
      "stateSpecified": true
    },
    {
      "fromDt": "09/2010",
      "toDt": null,
      "orgNm": "UBS FINANCIAL SERVICES INC",
      "city": "CONCORD",
      "state": 31,
      "stateSpecified": true
    }
  ],
  "OthrBuss": {
    "OthrBus": null
  },
  "DRPs": []
}