{
  "Info": {
    "lastNm": "CUCUZZA",
    "firstNm": "VINCENT",
    "midNm": "JOHN",
    "sufNm": null,
    "indvlPK": "5180072",
    "actvAGReg": 0,
    "link": "http://www.adviserinfo.sec.gov/IAPD/Individual/5180072"
  },
  "OthrNms": [
    {
      "lastNm": "CUCUZZA",
      "firstNm": "VINCENT",
      "midNm": null,
      "sufNm": null
    }
  ],
  "CrntEmps": [
    {
      "CrntRgstns": [
        {
          "regAuth": 6,
          "regCat": 0,
          "st": 2,
          "stDt": "2011-06-10T00:00:00"
        }
      ],
      "BrnchOfLocs": [
        {
          "str1": "565 TAXTER ROAD SUITE 625 6TH FLOOR",
          "str2": null,
          "city": "ELMSFORD",
          "state": 35,
          "stateSpecified": true,
          "cntry": "United States",
          "postlCd": "10523"
        },
        {
          "str1": "6 CORPORATE DRIVE",
          "str2": null,
          "city": "SHELTON",
          "state": 6,
          "stateSpecified": true,
          "cntry": "United States",
          "postlCd": "06484"
        }
      ],
      "orgNm": "MSI FINANCIAL SERVICES, INC.",
      "orgPK": "14251",
      "str1": "1095 AVENUE OF THE AMERICAS",
      "str2": null,
      "city": "NEW YORK",
      "state": 35,
      "stateSpecified": true,
      "cntry": "United States",
      "postlCd": "10036"
    }
  ],
  "Exms": [
    {
      "exmCd": 0,
      "exmNm": "Uniform Securities Agent State Law Examination",
      "exmDt": "2006-08-26T00:00:00",
      "exmDtSpecified": true
    },
    {
      "exmCd": 3,
      "exmNm": "Uniform Combined State Law Examination",
      "exmDt": "2009-07-25T00:00:00",
      "exmDtSpecified": true
    }
  ],
  "Dsgntns": [],
  "PrevRgstns": [],
  "EmpHss": [
    {
      "fromDt": "06/2006",
      "toDt": "03/2007",
      "orgNm": "GENWORTH FINANCIAL ADVISERS CORPORATION",
      "city": "SCHAUMBURG",
      "state": 15,
      "stateSpecified": true
    },
    {
      "fromDt": "06/2006",
      "toDt": "03/2007",
      "orgNm": "GENWORTH FINANCIAL SECURITIES CORPORATION",
      "city": "SCHAUMBURG",
      "state": 15,
      "stateSpecified": true
    },
    {
      "fromDt": "06/2006",
      "toDt": "09/2006",
      "orgNm": "JEFFREY A. LOVAS & COMANY",
      "city": "PARAMUS",
      "state": 32,
      "stateSpecified": true
    },
    {
      "fromDt": "02/2007",
      "toDt": "05/2007",
      "orgNm": "LEND MOR MORTGAGE BANKERS CORP.",
      "city": "NEW YORK",
      "state": 35,
      "stateSpecified": true
    },
    {
      "fromDt": "04/2007",
      "toDt": "05/2011",
      "orgNm": "NEW YORK LIFE INSURANCE COMPANY",
      "city": "BROOKLYN",
      "state": 35,
      "stateSpecified": true
    },
    {
      "fromDt": "05/2007",
      "toDt": "05/2011",
      "orgNm": "NYLIFE SECURITIES LLC",
      "city": "BROOKLYN",
      "state": 35,
      "stateSpecified": true
    },
    {
      "fromDt": "08/2009",
      "toDt": "05/2011",
      "orgNm": "EAGLE STRATEGIES LLC",
      "city": "NEW YORK",
      "state": 35,
      "stateSpecified": true
    },
    {
      "fromDt": "02/2011",
      "toDt": "05/2011",
      "orgNm": "VJC FINANCIAL",
      "city": "YONKERS",
      "state": 35,
      "stateSpecified": true
    },
    {
      "fromDt": "05/2011",
      "toDt": null,
      "orgNm": "METLIFE",
      "city": "SHELTON",
      "state": 6,
      "stateSpecified": true
    }
  ],
  "OthrBuss": {
    "OthrBus": {
      "desc": "1. INDEPENDENT INSURANCE AGENT (DISABILITY, FIXED ANNUITIES, LIFE/ACCIDENT/HEALTH, PROPERTY & CASUALTY ) FROM RESIDENTIAL ADDRESS 5 SEC TRADING HOURS WEEKLY, 0 NON SEC TRADING HOURS WEEKLY, START DATE 4/2011    2. INDEPENDENT INSURANCE AGENT SELLING DISABILITY AND P&C FROM BUSINESS ADDRESS FOR 5 WKDY AND 5 EVE/WKND HRS/WK SINCE 8/2011    3.  contributing writer - author - 1 hour non securities since 8/2015"
    }
  },
  "DRPs": []
}