{
  "Info": {
    "lastNm": "JOHNSON",
    "firstNm": "JEFFREY",
    "midNm": "CARLISLE",
    "sufNm": null,
    "indvlPK": "5189274",
    "actvAGReg": 0,
    "link": "http://www.adviserinfo.sec.gov/IAPD/Individual/5189274"
  },
  "OthrNms": [
    {
      "lastNm": "JOHNSON",
      "firstNm": "JEFF",
      "midNm": null,
      "sufNm": null
    },
    {
      "lastNm": "JOHNSON",
      "firstNm": "JEFF",
      "midNm": null,
      "sufNm": null
    },
    {
      "lastNm": "JOHNSON",
      "firstNm": "JEFF",
      "midNm": "C",
      "sufNm": null
    },
    {
      "lastNm": "JOHNSON",
      "firstNm": "JEFFREY",
      "midNm": "C",
      "sufNm": null
    },
    {
      "lastNm": "JOHNSON",
      "firstNm": "JEFFREY",
      "midNm": "CARLISLE",
      "sufNm": null
    }
  ],
  "CrntEmps": [
    {
      "CrntRgstns": [
        {
          "regAuth": 19,
          "regCat": 0,
          "st": 2,
          "stDt": "2014-02-18T00:00:00"
        },
        {
          "regAuth": 45,
          "regCat": 0,
          "st": 2,
          "stDt": "2014-02-18T00:00:00"
        }
      ],
      "BrnchOfLocs": [
        {
          "str1": "3600 E SIMCOE, SUITE 25",
          "str2": null,
          "city": "LAFAYETTE",
          "state": 19,
          "stateSpecified": true,
          "cntry": "United States",
          "postlCd": "70501"
        }
      ],
      "orgNm": "CETERA ADVISORS LLC",
      "orgPK": "10299",
      "str1": "4600 S. SYRACUSE",
      "str2": "SUITE 600",
      "city": "DENVER",
      "state": 5,
      "stateSpecified": true,
      "cntry": "United States",
      "postlCd": "80237"
    }
  ],
  "Exms": [
    {
      "exmCd": 3,
      "exmNm": "Uniform Combined State Law Examination",
      "exmDt": "2006-11-21T00:00:00",
      "exmDtSpecified": true
    }
  ],
  "Dsgntns": [],
  "PrevRgstns": [
    {
      "BrnchOfLocs": [
        {
          "city": "LAFAYETTE",
          "state": 19,
          "stateSpecified": true
        }
      ],
      "orgNm": "UBS FINANCIAL SERVICES INC.",
      "orgPK": "8174",
      "regBeginDt": "2006-12-01T00:00:00",
      "regBeginDtSpecified": true,
      "regEndDt": "2007-07-25T00:00:00",
      "regEndDtSpecified": true
    },
    {
      "BrnchOfLocs": [
        {
          "city": "LAFAYETTE",
          "state": 19,
          "stateSpecified": true
        }
      ],
      "orgNm": "VOYA FINANCIAL ADVISORS, INC.",
      "orgPK": "2882",
      "regBeginDt": "2007-10-23T00:00:00",
      "regBeginDtSpecified": true,
      "regEndDt": "2010-11-02T00:00:00",
      "regEndDtSpecified": true
    },
    {
      "BrnchOfLocs": [
        {
          "city": "LAFAYETTE",
          "state": 19,
          "stateSpecified": true
        },
        {
          "city": "LAFAYETTE",
          "state": 19,
          "stateSpecified": true
        }
      ],
      "orgNm": "LPL FINANCIAL LLC",
      "orgPK": "6413",
      "regBeginDt": "2010-12-07T00:00:00",
      "regBeginDtSpecified": true,
      "regEndDt": "2013-11-25T00:00:00",
      "regEndDtSpecified": true
    }
  ],
  "EmpHss": [
    {
      "fromDt": "07/2006",
      "toDt": "07/2007",
      "orgNm": "UBS FINANCIAL SERVICES INC.",
      "city": "LAFAYETTE",
      "state": 19,
      "stateSpecified": true
    },
    {
      "fromDt": "09/2007",
      "toDt": "11/2010",
      "orgNm": "ING FINANCIAL PARTNERS",
      "city": "LAFAYETTE",
      "state": 19,
      "stateSpecified": true
    },
    {
      "fromDt": "12/2010",
      "toDt": "11/2013",
      "orgNm": "LPL FINANCIAL",
      "city": "LAFAYETTE",
      "state": 19,
      "stateSpecified": true
    },
    {
      "fromDt": "02/2014",
      "toDt": null,
      "orgNm": "CETERA ADVISORS LLC",
      "city": "DENVER",
      "state": 5,
      "stateSpecified": true
    }
  ],
  "OthrBuss": {
    "OthrBus": {
      "desc": "1)FIXED INSURANCE WITH VARIOUS COMPANIES, INVESTMENT RELATED, ADDRESS SAME AS REGISTERED LOCATION, START FEBRUARY 2014, 5 HOURS PER WEEK - VARIES DURING TRADING HOURS, INSURANCE AGENT - SELLS LIFE, HEALTH, DISABILITY, LONG-TERM CARE AND ANNUITIES.    2)UNITED STATES MARINE CORPS RESERVES, NOT INVESTMENT RELATED, 2000 OPELLOUSE, NEW ORLEANS, LA, MILITARY, START JUNE 1991, 4 HOURS PER WEEK - NOT DURING TRADING HOURS, LT. COL.  3. DBA JOHNSON FINANCIALS, INVESTMENT RELATED, SAME AS REGISTERED LOCATION, FINANCIAL SERVICES, STARTED 08/2015, OWNER, APX 40 HOURS PER WEEK, 32.5 DURING TRADING HOURS, DBA FOR FINANCIAL SERVICES."
    }
  },
  "DRPs": []
}