{
  "Info": {
    "lastNm": "MENDOZA",
    "firstNm": "GONZALO",
    "midNm": "ANDRES",
    "sufNm": null,
    "indvlPK": "5197035",
    "actvAGReg": 1,
    "link": "http://www.adviserinfo.sec.gov/IAPD/Individual/5197035"
  },
  "OthrNms": [
    {
      "lastNm": "MENDOZA",
      "firstNm": "GONZALO",
      "midNm": null,
      "sufNm": null
    }
  ],
  "CrntEmps": [
    {
      "CrntRgstns": [
        {
          "regAuth": 9,
          "regCat": 0,
          "st": 2,
          "stDt": "2014-09-26T00:00:00"
        }
      ],
      "BrnchOfLocs": [
        {
          "str1": "600 BRICKELL AVENUE",
          "str2": "SUITE 1710",
          "city": "MIAMI",
          "state": 9,
          "stateSpecified": true,
          "cntry": "United States",
          "postlCd": "33131"
        }
      ],
      "orgNm": "VALOR ADVISORS LLC",
      "orgPK": "171358",
      "str1": "600 BRICKELL AVENUE",
      "str2": "SUITE 1710",
      "city": "MIAMI",
      "state": 9,
      "stateSpecified": true,
      "cntry": "United States",
      "postlCd": "33131"
    }
  ],
  "Exms": [
    {
      "exmCd": 0,
      "exmNm": "Uniform Securities Agent State Law Examination",
      "exmDt": "2006-09-11T00:00:00",
      "exmDtSpecified": true
    },
    {
      "exmCd": 2,
      "exmNm": "Uniform Investment Adviser Law Examination",
      "exmDt": "2014-08-28T00:00:00",
      "exmDtSpecified": true
    }
  ],
  "Dsgntns": [],
  "PrevRgstns": [],
  "EmpHss": [
    {
      "fromDt": "07/2006",
      "toDt": "03/2014",
      "orgNm": "J. P. MORGAN SECURITIES INC.",
      "city": "NEW YORK",
      "state": 35,
      "stateSpecified": true
    },
    {
      "fromDt": "07/2006",
      "toDt": "03/2009",
      "orgNm": "JPMORGAN CHASE",
      "city": "NEW YORK",
      "state": 35,
      "stateSpecified": true
    },
    {
      "fromDt": "10/2008",
      "toDt": "10/2008",
      "orgNm": "BEAR, STEARNS & CO. INC.",
      "city": "NEW YORK",
      "state": 35,
      "stateSpecified": true
    },
    {
      "fromDt": "03/2009",
      "toDt": "03/2011",
      "orgNm": "JPMORGAN CHASE",
      "city": "MIAMI",
      "state": 9,
      "stateSpecified": true
    },
    {
      "fromDt": "03/2011",
      "toDt": "02/2013",
      "orgNm": "JPMORGAN CHASE",
      "city": "MIAMI",
      "state": 9,
      "stateSpecified": true
    },
    {
      "fromDt": "02/2013",
      "toDt": "03/2014",
      "orgNm": "JPMORGAN CHASE",
      "city": "MIAMI",
      "state": 9,
      "stateSpecified": true
    },
    {
      "fromDt": "04/2014",
      "toDt": null,
      "orgNm": "VALOR ADVISORS LLC",
      "city": "MIAMI",
      "state": 9,
      "stateSpecified": true
    }
  ],
  "OthrBuss": {
    "OthrBus": {
      "desc": "ECUADOR GOLD AND COPPER CORP.; INVESTMENT-RELATED; TORONTO, ONTARIO, CANADA; EXPLORATION AND MINING COMPANY; DIRECTOR (UNPAID); JUNE 2015; 1 HOUR; 1 HOUR; PARTICIPATE IN DIRECTOR MEETINGS."
    }
  },
  "DRPs": []
}