{
  "Info": {
    "lastNm": "WISE",
    "firstNm": "MATTHEW",
    "midNm": "JAMES",
    "sufNm": null,
    "indvlPK": "5199563",
    "actvAGReg": 0,
    "link": "http://www.adviserinfo.sec.gov/IAPD/Individual/5199563"
  },
  "OthrNms": [
    {
      "lastNm": "WISE",
      "firstNm": "MATTHEW",
      "midNm": null,
      "sufNm": null
    }
  ],
  "CrntEmps": [
    {
      "CrntRgstns": [
        {
          "regAuth": 36,
          "regCat": 0,
          "st": 2,
          "stDt": "2014-06-18T00:00:00"
        },
        {
          "regAuth": 49,
          "regCat": 0,
          "st": 2,
          "stDt": "2015-01-06T00:00:00"
        }
      ],
      "BrnchOfLocs": [
        {
          "str1": "1373 ROMBACH AVENUE",
          "str2": "HUB",
          "city": "WILMINGTON",
          "state": 36,
          "stateSpecified": true,
          "cntry": "United States",
          "postlCd": "45177"
        },
        {
          "str1": "2761 FAIRFIELD COMMONS",
          "str2": null,
          "city": "BEAVERCREEK",
          "state": 36,
          "stateSpecified": true,
          "cntry": "United States",
          "postlCd": "45431"
        },
        {
          "str1": "3079 WOODMAN DRIVE",
          "str2": null,
          "city": "KETTERING",
          "state": 36,
          "stateSpecified": true,
          "cntry": "United States",
          "postlCd": "45420"
        }
      ],
      "orgNm": "PNC INVESTMENTS",
      "orgPK": "129052",
      "str1": "300 FIFTH AVENUE",
      "str2": "26TH FLOOR",
      "city": "PITTSBURGH",
      "state": 39,
      "stateSpecified": true,
      "cntry": "United States",
      "postlCd": "15222-2722"
    }
  ],
  "Exms": [
    {
      "exmCd": 3,
      "exmNm": "Uniform Combined State Law Examination",
      "exmDt": "2006-10-05T00:00:00",
      "exmDtSpecified": true
    },
    {
      "exmCd": 2,
      "exmNm": "Uniform Investment Adviser Law Examination",
      "exmDt": "2015-01-09T00:00:00",
      "exmDtSpecified": true
    }
  ],
  "Dsgntns": [],
  "PrevRgstns": [
    {
      "BrnchOfLocs": [
        {
          "city": "CENTERVILLE",
          "state": 36,
          "stateSpecified": true
        },
        {
          "city": "CENTERVILLE",
          "state": 36,
          "stateSpecified": true
        },
        {
          "city": "CENTERVILLE",
          "state": 36,
          "stateSpecified": true
        },
        {
          "city": "ST LOUIS",
          "state": 25,
          "stateSpecified": true
        }
      ],
      "orgNm": "EDWARD JONES",
      "orgPK": "250",
      "regBeginDt": "2006-10-26T00:00:00",
      "regBeginDtSpecified": true,
      "regEndDt": "2013-02-25T00:00:00",
      "regEndDtSpecified": true
    },
    {
      "BrnchOfLocs": [
        {
          "city": "CENTERVILLE",
          "state": 36,
          "stateSpecified": true
        },
        {
          "city": "CENTERVILLE",
          "state": 36,
          "stateSpecified": true
        },
        {
          "city": "SAN DIEGO",
          "state": 4,
          "stateSpecified": true
        }
      ],
      "orgNm": "LPL FINANCIAL LLC",
      "orgPK": "6413",
      "regBeginDt": "2013-03-21T00:00:00",
      "regBeginDtSpecified": true,
      "regEndDt": "2014-05-29T00:00:00",
      "regEndDtSpecified": true
    }
  ],
  "EmpHss": [
    {
      "fromDt": "10/2000",
      "toDt": "08/2006",
      "orgNm": "ABACUS TECHNICAL SERVICES, LLC",
      "city": "CENTERVILLE",
      "state": 36,
      "stateSpecified": true
    },
    {
      "fromDt": "08/2006",
      "toDt": "02/2013",
      "orgNm": "EDWARD JONES",
      "city": "ST LOUIS",
      "state": 25,
      "stateSpecified": true
    },
    {
      "fromDt": "03/2013",
      "toDt": "04/2014",
      "orgNm": "LPL FINANCIAL",
      "city": "CENTERVILLE",
      "state": 36,
      "stateSpecified": true
    },
    {
      "fromDt": "06/2014",
      "toDt": null,
      "orgNm": "PNC INVESTMENTS",
      "city": "KETTERING",
      "state": 36,
      "stateSpecified": true
    }
  ],
  "OthrBuss": {
    "OthrBus": null
  },
  "DRPs": []
}