{
  "Info": {
    "lastNm": "WOODHEAD",
    "firstNm": "BRANDON",
    "midNm": "ALAN",
    "sufNm": null,
    "indvlPK": "5202963",
    "actvAGReg": 0,
    "link": "http://www.adviserinfo.sec.gov/IAPD/Individual/5202963"
  },
  "OthrNms": [],
  "CrntEmps": [
    {
      "CrntRgstns": [
        {
          "regAuth": 30,
          "regCat": 0,
          "st": 2,
          "stDt": "2009-06-30T00:00:00"
        },
        {
          "regAuth": 45,
          "regCat": 0,
          "st": 3,
          "stDt": "2010-04-12T00:00:00"
        }
      ],
      "BrnchOfLocs": [
        {
          "str1": "5800 HIDCOTE DRIVE",
          "str2": "SUITE 200",
          "city": "LINCOLN",
          "state": 30,
          "stateSpecified": true,
          "cntry": "United States",
          "postlCd": "68516"
        }
      ],
      "orgNm": "UBS FINANCIAL SERVICES INC.",
      "orgPK": "8174",
      "str1": "1200 HARBOR BOULEVARD",
      "str2": null,
      "city": "WEEHAWKEN",
      "state": 32,
      "stateSpecified": true,
      "cntry": "United States",
      "postlCd": "07086"
    }
  ],
  "Exms": [
    {
      "exmCd": 3,
      "exmNm": "Uniform Combined State Law Examination",
      "exmDt": "2007-09-28T00:00:00",
      "exmDtSpecified": true
    }
  ],
  "Dsgntns": [],
  "PrevRgstns": [],
  "EmpHss": [
    {
      "fromDt": "06/2006",
      "toDt": "09/2006",
      "orgNm": "UBS FINANCIAL SERVICES",
      "city": "CHICAGO",
      "state": 15,
      "stateSpecified": true
    },
    {
      "fromDt": "09/2006",
      "toDt": "06/2007",
      "orgNm": "UNIVERSITY OF CHICAGO",
      "city": "CHICAGO",
      "state": 15,
      "stateSpecified": true
    },
    {
      "fromDt": "07/2007",
      "toDt": null,
      "orgNm": "UBS FINANCIAL SERVICES",
      "city": "CHICAGO",
      "state": 15,
      "stateSpecified": true
    }
  ],
  "OthrBuss": {
    "OthrBus": null
  },
  "DRPs": []
}