{
  "Info": {
    "lastNm": "LO",
    "firstNm": "CHRISTYN",
    "midNm": null,
    "sufNm": null,
    "indvlPK": "5202192",
    "actvAGReg": 0,
    "link": "http://www.adviserinfo.sec.gov/IAPD/Individual/5202192"
  },
  "OthrNms": [
    {
      "lastNm": "LO",
      "firstNm": "CHRISTYN",
      "midNm": "Q",
      "sufNm": null
    },
    {
      "lastNm": "QUIEC",
      "firstNm": "CHRISTYN",
      "midNm": "LIM",
      "sufNm": null
    }
  ],
  "CrntEmps": [
    {
      "CrntRgstns": [
        {
          "regAuth": 4,
          "regCat": 0,
          "st": 2,
          "stDt": "2007-09-25T00:00:00"
        },
        {
          "regAuth": 45,
          "regCat": 0,
          "st": 2,
          "stDt": "2009-05-13T00:00:00"
        }
      ],
      "BrnchOfLocs": [
        {
          "str1": "7825 FAY AVE",
          "str2": null,
          "city": "LA JOLLA",
          "state": 4,
          "stateSpecified": true,
          "cntry": "United States",
          "postlCd": "92037"
        }
      ],
      "orgNm": "MERRILL LYNCH, PIERCE, FENNER & SMITH INCORPORATED",
      "orgPK": "7691",
      "str1": "ONE BRYANT PARK",
      "str2": null,
      "city": "NEW YORK",
      "state": 35,
      "stateSpecified": true,
      "cntry": "United States",
      "postlCd": "10036"
    }
  ],
  "Exms": [
    {
      "exmCd": 3,
      "exmNm": "Uniform Combined State Law Examination",
      "exmDt": "2007-09-15T00:00:00",
      "exmDtSpecified": true
    }
  ],
  "Dsgntns": [],
  "PrevRgstns": [],
  "EmpHss": [
    {
      "fromDt": "08/2006",
      "toDt": null,
      "orgNm": "MERRILL LYNCH PIERCE FENNER &AMP; SMITH",
      "city": "SAN DIEGO",
      "state": 4,
      "stateSpecified": true
    }
  ],
  "OthrBuss": {
    "OthrBus": {
      "desc": "I*27070 FOR PROFIT OR NOT FOR PROFIT: FOR-PROFIT ORGANIZATION  NAME OF OUTSIDE BUSINESS ORGANIZATION: DR. Q DENTAL  INVESTMENT RELATED: N  ADDRESS OF BUSINESS:   139 W COLORADO BLVD,   MONROVIA, CALIFORNIA 91016  NATURE OF BUSINESS: S-CORP,  POSITION, TITLE, ASSOCIATION: PART-TIME,   START DATE OF RELATIONSHIP: 1/1/2007  NUMBER OF HOURS DEVOTED: 2 HOUR(S) MONTHLY  NUMBER OF HOURS DEVOTED DURING TRADING HOURS: 0  DUTIES: BOOKKEEPER      I*1019  FOR PROFIT OR NOT FOR PROFIT: GOVERNMENTAL OR PUBLIC PURPOSE ENTITY  NAME OF OUTSIDE BUSINESS ORGANIZATION: STATE OF CA  INVESTMENT RELATED: N  ADDRESS OF BUSINESS:   1500 11TH STREET,   SACRAMENTO, CALIFORNIA 95814  NATURE OF BUSINESS: NOTARY PUBLIC,  POSITION, TITLE, ASSOCIATION: NOTARY PUBLIC,   START DATE OF RELATIONSHIP: 10/25/2007  NUMBER OF HOURS DEVOTED: 1 HOUR(S) ANNUALLY  NUMBER OF HOURS DEVOTED DURING TRADING HOURS: 0  DUTIES: AS NEEDED ONLY, INFREQUENT NOTARY SERVICES PROVIDE"
    }
  },
  "DRPs": []
}