{
  "Info": {
    "lastNm": "VENIT",
    "firstNm": "CHRISTOPHER",
    "midNm": "PAUL KENNEDY",
    "sufNm": null,
    "indvlPK": "5202726",
    "actvAGReg": 0,
    "link": "http://www.adviserinfo.sec.gov/IAPD/Individual/5202726"
  },
  "OthrNms": [
    {
      "lastNm": "VENIT",
      "firstNm": "CHRISTOPHER",
      "midNm": "PAUL",
      "sufNm": null
    },
    {
      "lastNm": "VENIT",
      "firstNm": "CHRISTOPHER",
      "midNm": "PAUL KENNEDY",
      "sufNm": null
    }
  ],
  "CrntEmps": [
    {
      "CrntRgstns": [
        {
          "regAuth": 21,
          "regCat": 0,
          "st": 2,
          "stDt": "2007-06-07T00:00:00"
        },
        {
          "regAuth": 45,
          "regCat": 0,
          "st": 3,
          "stDt": "2012-12-11T00:00:00"
        }
      ],
      "BrnchOfLocs": [
        {
          "str1": "7600 WISCONSIN AVE",
          "str2": "STE 900",
          "city": "BETHESDA",
          "state": 21,
          "stateSpecified": true,
          "cntry": "United States",
          "postlCd": "20814"
        }
      ],
      "orgNm": "WELLS FARGO ADVISORS, LLC",
      "orgPK": "19616",
      "str1": "ONE NORTH JEFFERSON AVENUE",
      "str2": "MAIL CODE: H0004-050",
      "city": "ST. LOUIS",
      "state": 25,
      "stateSpecified": true,
      "cntry": "United States",
      "postlCd": "63103-2205"
    }
  ],
  "Exms": [
    {
      "exmCd": 3,
      "exmNm": "Uniform Combined State Law Examination",
      "exmDt": "2007-06-06T00:00:00",
      "exmDtSpecified": true
    }
  ],
  "Dsgntns": [
    {
      "dsgntnNm": "Certified Financial Planner"
    }
  ],
  "PrevRgstns": [],
  "EmpHss": [
    {
      "fromDt": "07/2006",
      "toDt": "05/2009",
      "orgNm": "WACHOVIA SECURITIES",
      "city": "BETHESDA",
      "state": 21,
      "stateSpecified": true
    },
    {
      "fromDt": "05/2009",
      "toDt": null,
      "orgNm": "WELLS FARGO ADVISORS LLC",
      "city": "BETHESDA",
      "state": 21,
      "stateSpecified": true
    }
  ],
  "OthrBuss": {
    "OthrBus": {
      "desc": "RENTAL PROPERTY, INV RELATED, LAKEWOOD, OH, 50% OWNER, START: 9/2013, 2 HOURS PER MONTH/0 DURING TRADING."
    }
  },
  "DRPs": []
}