{
  "Info": {
    "lastNm": "RODRIGUEZ",
    "firstNm": "DANIEL",
    "midNm": "CARLOS",
    "sufNm": null,
    "indvlPK": "5207851",
    "actvAGReg": 0,
    "link": "http://www.adviserinfo.sec.gov/IAPD/Individual/5207851"
  },
  "OthrNms": [],
  "CrntEmps": [
    {
      "CrntRgstns": [
        {
          "regAuth": 9,
          "regCat": 0,
          "st": 2,
          "stDt": "2015-02-16T00:00:00"
        }
      ],
      "BrnchOfLocs": [
        {
          "str1": "100 SE THIRD AVENUE",
          "str2": "SUITE 1910",
          "city": "FORT LAUDERDALE",
          "state": 9,
          "stateSpecified": true,
          "cntry": "United States",
          "postlCd": "33394"
        }
      ],
      "orgNm": "UNITED CAPITAL FINANCIAL ADVISERS",
      "orgPK": "134600",
      "str1": "620 NEWPORT CENTER DRIVE",
      "str2": "SUITE 500",
      "city": "NEWPORT BEACH",
      "state": 4,
      "stateSpecified": true,
      "cntry": "United States",
      "postlCd": "92660"
    }
  ],
  "Exms": [
    {
      "exmCd": 2,
      "exmNm": "Uniform Investment Adviser Law Examination",
      "exmDt": "2006-09-29T00:00:00",
      "exmDtSpecified": true
    },
    {
      "exmCd": 0,
      "exmNm": "Uniform Securities Agent State Law Examination",
      "exmDt": "2014-11-06T00:00:00",
      "exmDtSpecified": true
    }
  ],
  "Dsgntns": [],
  "PrevRgstns": [
    {
      "BrnchOfLocs": [
        {
          "city": "BOCA RATON",
          "state": 9,
          "stateSpecified": true
        }
      ],
      "orgNm": "VOYA FINANCIAL ADVISORS, INC.",
      "orgPK": "2882",
      "regBeginDt": "2007-06-04T00:00:00",
      "regBeginDtSpecified": true,
      "regEndDt": "2013-05-02T00:00:00",
      "regEndDtSpecified": true
    },
    {
      "BrnchOfLocs": [
        {
          "city": "FT. LAUDERDALE",
          "state": 9,
          "stateSpecified": true
        }
      ],
      "orgNm": "AXA ADVISORS, LLC",
      "orgPK": "6627",
      "regBeginDt": "2013-05-08T00:00:00",
      "regBeginDtSpecified": true,
      "regEndDt": "2015-02-09T00:00:00",
      "regEndDtSpecified": true
    }
  ],
  "EmpHss": [
    {
      "fromDt": "05/2006",
      "toDt": "08/2006",
      "orgNm": "UNEMPLOYED",
      "city": "MIAMI",
      "state": 9,
      "stateSpecified": true
    },
    {
      "fromDt": "08/2006",
      "toDt": "05/2013",
      "orgNm": "ING FINANCIAL PARTNERS",
      "city": "BOCA RATON",
      "state": 9,
      "stateSpecified": true
    },
    {
      "fromDt": "01/2008",
      "toDt": "05/2013",
      "orgNm": "D ROD FINANCIAL GROUP",
      "city": "FT LAUDERDALE",
      "state": 9,
      "stateSpecified": true
    },
    {
      "fromDt": "05/2013",
      "toDt": "02/2015",
      "orgNm": "AXA ADVISORS, LLC",
      "city": "FORT LAUDERDALE",
      "state": 9,
      "stateSpecified": true
    },
    {
      "fromDt": "02/2015",
      "toDt": null,
      "orgNm": "GIRARD SECURITIES",
      "city": "FORT LAUDERDALE",
      "state": 9,
      "stateSpecified": true
    },
    {
      "fromDt": "02/2015",
      "toDt": null,
      "orgNm": "UNITED CAPITAL FINANCIAL ADVISERS, LLC",
      "city": "NEWPORT BEACH",
      "state": 4,
      "stateSpecified": true
    }
  ],
  "OthrBuss": {
    "OthrBus": {
      "desc": "1. DANIEL RODRIGUEZ IS A REGISTERED REPRESENTATIVE WITH GIRARD SECURITIES, INC. A REGISTERED BROKER/DEALER, INVESTMENT ADVISOR AND MEMBER FINRA, SIPC. 9560 WAPLES ST., SUITE B, SAN DIEGO, CA 92121.   2. DANIEL RODRIGUEZ IS ALSO A LIFE INSURANCE AGENT, HOLDING LIFE AND/OR DISABILITY AND HEALTH INSURANCE LICENSES WITH UNITED CAPITAL RISK MANAGEMENT. HE MAY RECEIVE COMPENSATION FROM INSURANCE COMPANIES FOR THE SALES OF INSURANCE PRODUCTS TO CLIENTS OR OTHER INDIVIDUALS.  3. UNITED CAPITAL; EMPLOYEE; STARTED 02/2015; UFCA PROVIDES FINANCIAL PLANNING AND RELATED ADVICE FOR A FLAT FEE; 38 HORUS PER WEEK SPENT"
    }
  },
  "DRPs": []
}