{
  "Info": {
    "lastNm": "BUDD",
    "firstNm": "DAVID",
    "midNm": "MICHAEL",
    "sufNm": null,
    "indvlPK": "5209784",
    "actvAGReg": 0,
    "link": "http://www.adviserinfo.sec.gov/IAPD/Individual/5209784"
  },
  "OthrNms": [],
  "CrntEmps": [
    {
      "CrntRgstns": [
        {
          "regAuth": 38,
          "regCat": 0,
          "st": 2,
          "stDt": "2012-06-19T00:00:00"
        },
        {
          "regAuth": 49,
          "regCat": 0,
          "st": 2,
          "stDt": "2015-06-12T00:00:00"
        }
      ],
      "BrnchOfLocs": [
        {
          "str1": "222 SW COLUMBIA STREET, SUITE 1200",
          "str2": null,
          "city": "PORTLAND",
          "state": 38,
          "stateSpecified": true,
          "cntry": "United States",
          "postlCd": "97201"
        }
      ],
      "orgNm": "BANCWEST INVESTMENT SERVICES, INC.",
      "orgPK": "29357",
      "str1": "13220 CALIFORNIA STREET",
      "str2": "2ND FLOOR",
      "city": "OMAHA",
      "state": 30,
      "stateSpecified": true,
      "cntry": "United States",
      "postlCd": "68154-9750"
    }
  ],
  "Exms": [
    {
      "exmCd": 3,
      "exmNm": "Uniform Combined State Law Examination",
      "exmDt": "2006-11-30T00:00:00",
      "exmDtSpecified": true
    }
  ],
  "Dsgntns": [
    {
      "dsgntnNm": "Certified Financial Planner"
    }
  ],
  "PrevRgstns": [
    {
      "BrnchOfLocs": [
        {
          "city": "NEWBERG",
          "state": 38,
          "stateSpecified": true
        },
        {
          "city": "NEWBERG",
          "state": 38,
          "stateSpecified": true
        },
        {
          "city": "PORTLAND",
          "state": 38,
          "stateSpecified": true
        },
        {
          "city": "PORTLAND",
          "state": 38,
          "stateSpecified": true
        }
      ],
      "orgNm": "WELLS FARGO INVESTMENTS, LLC",
      "orgPK": "10582",
      "regBeginDt": "2006-12-20T00:00:00",
      "regBeginDtSpecified": true,
      "regEndDt": "2011-01-03T00:00:00",
      "regEndDtSpecified": true
    },
    {
      "BrnchOfLocs": [
        {
          "city": "PORTLAND",
          "state": 38,
          "stateSpecified": true
        }
      ],
      "orgNm": "WELLS FARGO ADVISORS, LLC",
      "orgPK": "19616",
      "regBeginDt": "2011-01-03T00:00:00",
      "regBeginDtSpecified": true,
      "regEndDt": "2011-05-10T00:00:00",
      "regEndDtSpecified": true
    },
    {
      "BrnchOfLocs": [
        {
          "city": "PORTLAND",
          "state": 38,
          "stateSpecified": true
        }
      ],
      "orgNm": "IMS CAPITAL MANAGEMENT",
      "orgPK": "105939",
      "regBeginDt": "2011-05-12T00:00:00",
      "regBeginDtSpecified": true,
      "regEndDt": "2012-06-19T00:00:00",
      "regEndDtSpecified": true
    }
  ],
  "EmpHss": [
    {
      "fromDt": "07/2004",
      "toDt": null,
      "orgNm": "GEORGE FOX UNIVERSITY",
      "city": "NEWBERG",
      "state": 38,
      "stateSpecified": true
    },
    {
      "fromDt": "07/2004",
      "toDt": null,
      "orgNm": "SEA LIFE DIFFERENTLY",
      "city": "NEWBERG",
      "state": 38,
      "stateSpecified": true
    },
    {
      "fromDt": "11/2004",
      "toDt": "06/2012",
      "orgNm": "WELLS FARGO BANK",
      "city": "NEWBERG",
      "state": 38,
      "stateSpecified": true
    },
    {
      "fromDt": "08/2006",
      "toDt": "06/2012",
      "orgNm": "WELLS FARGO INVESTMENT",
      "city": "NEWBERG",
      "state": 38,
      "stateSpecified": true
    },
    {
      "fromDt": "01/2011",
      "toDt": "06/2012",
      "orgNm": "WELLS FARGO ADVISORS, LLC",
      "city": "PORTLAND",
      "state": 38,
      "stateSpecified": true
    },
    {
      "fromDt": "05/2011",
      "toDt": "06/2012",
      "orgNm": "IMS CAPITAL MANAGAMENT, INC",
      "city": "PORTLAND",
      "state": 38,
      "stateSpecified": true
    },
    {
      "fromDt": "06/2012",
      "toDt": null,
      "orgNm": "BANCWEST INVESTMENT SERVICES",
      "city": "PORTLAND",
      "state": 38,
      "stateSpecified": true
    },
    {
      "fromDt": "06/2012",
      "toDt": null,
      "orgNm": "BANK OF THE WEST",
      "city": "PORTLAND",
      "state": 38,
      "stateSpecified": true
    }
  ],
  "OthrBuss": {
    "OthrBus": {
      "desc": "SEA LIFE DIFFERENTLY, NOT INVESTMENT-RELATED, 1118 VILLA RD. NEWBERG, OR 97132, AQUARIUM INSTALLATION AND MAINTENANCE, OWNER, OWNER, OWNER, 07/2004, 20 HOURS A MONTH, 20 HOURS A MONTH, INSTALL AND MAINTAIN AQUARIUMS AND MANAGE A PART TIME EMPLOYEE."
    }
  },
  "DRPs": []
}