{
  "Info": {
    "lastNm": "NORDENBERG",
    "firstNm": "PETER",
    "midNm": "ALFRED",
    "sufNm": null,
    "indvlPK": "5216259",
    "actvAGReg": 0,
    "link": "http://www.adviserinfo.sec.gov/IAPD/Individual/5216259"
  },
  "OthrNms": [],
  "CrntEmps": [
    {
      "CrntRgstns": [
        {
          "regAuth": 50,
          "regCat": 0,
          "st": 2,
          "stDt": "2015-02-20T00:00:00"
        }
      ],
      "BrnchOfLocs": [
        {
          "str1": "12740 NORTH RIVER ROAD",
          "str2": null,
          "city": "MEQUON",
          "state": 50,
          "stateSpecified": true,
          "cntry": "United States",
          "postlCd": "53092"
        }
      ],
      "orgNm": "RAYMOND JAMES FINANCIAL SERVICES ADVISORS, INC",
      "orgPK": "149018",
      "str1": "880 CARILLON PARKWAY",
      "str2": null,
      "city": "SAINT PETERSBURG",
      "state": 9,
      "stateSpecified": true,
      "cntry": "United States",
      "postlCd": "33716"
    }
  ],
  "Exms": [
    {
      "exmCd": 3,
      "exmNm": "Uniform Combined State Law Examination",
      "exmDt": "2012-02-03T00:00:00",
      "exmDtSpecified": true
    }
  ],
  "Dsgntns": [],
  "PrevRgstns": [
    {
      "BrnchOfLocs": [
        {
          "city": "MILWAUKEE",
          "state": 50,
          "stateSpecified": true
        }
      ],
      "orgNm": "RAYMOND JAMES FINANCIAL SERVICES ADVISORS, INC",
      "orgPK": "149018",
      "regBeginDt": "2012-02-15T00:00:00",
      "regBeginDtSpecified": true,
      "regEndDt": "2013-11-18T00:00:00",
      "regEndDtSpecified": true
    },
    {
      "BrnchOfLocs": [
        {
          "city": "MIDDLETON",
          "state": 50,
          "stateSpecified": true
        }
      ],
      "orgNm": "FILBRANDT INVESTMENT ADVISERS INCORPORATED",
      "orgPK": "104562",
      "regBeginDt": "2013-11-26T00:00:00",
      "regBeginDtSpecified": true,
      "regEndDt": "2015-11-17T00:00:00",
      "regEndDtSpecified": true
    }
  ],
  "EmpHss": [
    {
      "fromDt": "01/2006",
      "toDt": "12/2006",
      "orgNm": "B.C. ZIEGLER AND COMPANY",
      "city": "MILWAUKEE",
      "state": 50,
      "stateSpecified": true
    },
    {
      "fromDt": "12/2006",
      "toDt": "11/2013",
      "orgNm": "ALLIANCE WEALTH MGMT",
      "city": "MILWAUKEE",
      "state": 50,
      "stateSpecified": true
    },
    {
      "fromDt": "12/2006",
      "toDt": "02/2007",
      "orgNm": "UNEMPLOYED",
      "city": "MILWAUKEE",
      "state": 50,
      "stateSpecified": true
    },
    {
      "fromDt": "02/2007",
      "toDt": "07/2007",
      "orgNm": "RAYMOND JAMES FINANCIAL SERVICES",
      "city": "MILWAUKEE",
      "state": 50,
      "stateSpecified": true
    },
    {
      "fromDt": "07/2011",
      "toDt": "11/2013",
      "orgNm": "RAYMOND JAMES FINANCIAL SERVICES",
      "city": "MILWAUKEE",
      "state": 50,
      "stateSpecified": true
    },
    {
      "fromDt": "02/2012",
      "toDt": "11/2013",
      "orgNm": "RAYMOND JAMES FINANCIAL SERVICES ADVISORS INC.",
      "city": "MILWAUKEE",
      "state": 50,
      "stateSpecified": true
    },
    {
      "fromDt": "11/2013",
      "toDt": "01/2015",
      "orgNm": "FILBRANDT INVESTMENT ADVISERS",
      "city": "MIDDLETON",
      "state": 50,
      "stateSpecified": true
    },
    {
      "fromDt": "02/2015",
      "toDt": null,
      "orgNm": "RAYMOND JAMES FINANCIAL SERVICES",
      "city": "MILWAUKEE",
      "state": 50,
      "stateSpecified": true
    },
    {
      "fromDt": "02/2015",
      "toDt": null,
      "orgNm": "RAYMOND JAMES FINANCIAL SERVICES ADVISORS INC.",
      "city": "MEQUON",
      "state": 50,
      "stateSpecified": true
    },
    {
      "fromDt": "08/2015",
      "toDt": null,
      "orgNm": "GENTIAN FINANCIAL, INC.",
      "city": "MEQUON",
      "state": 50,
      "stateSpecified": true
    }
  ],
  "OthrBuss": {
    "OthrBus": {
      "desc": "GENTIAN FINANCIAL INC; MEQUON, WI; DIRECTOR OF INVESTMENTS; INVESTMENT RELATED; 08/2015-PRESENT; 160 HOURS PER MONTH, 120 HOURS DURING TRADING; RESEARCH."
    }
  },
  "DRPs": [
    {
      "hasRegAction": 1,
      "hasRegActionSpecified": true,
      "hasCriminal": 1,
      "hasCriminalSpecified": true,
      "hasBankrupt": 0,
      "hasBankruptSpecified": true,
      "hasCivilJudc": 1,
      "hasCivilJudcSpecified": true,
      "hasBond": 1,
      "hasBondSpecified": true,
      "hasJudgment": 1,
      "hasJudgmentSpecified": true,
      "hasInvstgn": 1,
      "hasInvstgnSpecified": true,
      "hasCustComp": 1,
      "hasCustCompSpecified": true,
      "hasTermination": 1,
      "hasTerminationSpecified": true
    }
  ]
}