{
  "Info": {
    "lastNm": "CARDONA",
    "firstNm": "JUAN",
    "midNm": "PABLO",
    "sufNm": null,
    "indvlPK": "5220538",
    "actvAGReg": 0,
    "link": "http://www.adviserinfo.sec.gov/IAPD/Individual/5220538"
  },
  "OthrNms": [],
  "CrntEmps": [
    {
      "CrntRgstns": [
        {
          "regAuth": 32,
          "regCat": 0,
          "st": 2,
          "stDt": "2015-03-02T00:00:00"
        }
      ],
      "BrnchOfLocs": [
        {
          "str1": "4808 BERGENLINE AVE STE 400",
          "str2": null,
          "city": "UNION CITY",
          "state": 32,
          "stateSpecified": true,
          "cntry": "United States",
          "postlCd": "07087-5162"
        }
      ],
      "orgNm": "LPL FINANCIAL LLC",
      "orgPK": "6413",
      "str1": "75 STATE STREET, 22ND FLOOR",
      "str2": null,
      "city": "BOSTON",
      "state": 20,
      "stateSpecified": true,
      "cntry": "United States",
      "postlCd": "02109"
    }
  ],
  "Exms": [
    {
      "exmCd": 0,
      "exmNm": "Uniform Securities Agent State Law Examination",
      "exmDt": "2006-10-24T00:00:00",
      "exmDtSpecified": true
    },
    {
      "exmCd": 3,
      "exmNm": "Uniform Combined State Law Examination",
      "exmDt": "2015-01-21T00:00:00",
      "exmDtSpecified": true
    }
  ],
  "Dsgntns": [],
  "PrevRgstns": [],
  "EmpHss": [
    {
      "fromDt": "05/2004",
      "toDt": "01/2008",
      "orgNm": "CHEESECAKE FACTORY",
      "city": "HACKENSACK",
      "state": 32,
      "stateSpecified": true
    },
    {
      "fromDt": "09/2006",
      "toDt": "01/2012",
      "orgNm": "FIC",
      "city": "NEW YORK",
      "state": 35,
      "stateSpecified": true
    },
    {
      "fromDt": "01/2012",
      "toDt": null,
      "orgNm": "LPL FINANCIAL",
      "city": "PARAMUS",
      "state": 32,
      "stateSpecified": true
    }
  ],
  "OthrBuss": {
    "OthrBus": {
      "desc": "1. 3/12/2012: NON-VARIABLE INSURANCE - SELL FIXED INSURANCE PRODUCTS INCLUDING LIFE, HEALTH, DISABILITY, LONG-TERM CARE AND FIXED ANNUITIES. - INVESTMENT RELATED - TIME SPENT 5% - UNION CITY, NJ.     2. 5/3/2012: NON-VARIABLE INSURANCE - SELL PROPERTY & CASUALTY INSURANCE. - INVESTMENT RELATED - TIME SPENT 5% - UNION CITY, NJ.      3. 06/12/2012: DBA FOR LPL BUSINESS (ENTITY FOR LPL BUSINESS) - FIVE POINTS WEALTH MANAGEMENT - INVESTMENT RELATED - UNION CITY, NJ.      4. 2/18/2015: NON-VARIABLE INSURANCE - UNITED HEALTHCARE MEDICARE AGENT - STARTED 02/12/2015 - INVESTMENT RELATED - 40 HOURS PER MONTH/1 HOUR DURING TRADING - ISELIN, NJ."
    }
  },
  "DRPs": []
}