{
  "Info": {
    "lastNm": "EMETT",
    "firstNm": "BLAKE",
    "midNm": "FITZGERALD",
    "sufNm": null,
    "indvlPK": "5223245",
    "actvAGReg": 1,
    "link": "http://www.adviserinfo.sec.gov/IAPD/Individual/5223245"
  },
  "OthrNms": [],
  "CrntEmps": [
    {
      "CrntRgstns": [
        {
          "regAuth": 16,
          "regCat": 0,
          "st": 2,
          "stDt": "2014-05-15T00:00:00"
        }
      ],
      "BrnchOfLocs": [
        {
          "str1": "9933 DUPONT CIRCLE DRIVE WEST",
          "str2": "SUITE 100",
          "city": "FORT WAYNE",
          "state": 16,
          "stateSpecified": true,
          "cntry": "United States",
          "postlCd": "46825"
        }
      ],
      "orgNm": "COMPASS FINANCIAL ADVISORS LLC",
      "orgPK": "109131",
      "str1": "9933 DUPONT CIRCLE DRIVE WEST",
      "str2": "SUITE 100",
      "city": "FORT WAYNE",
      "state": 16,
      "stateSpecified": true,
      "cntry": "United States",
      "postlCd": "46825"
    }
  ],
  "Exms": [
    {
      "exmCd": 2,
      "exmNm": "Uniform Investment Adviser Law Examination",
      "exmDt": "2007-05-07T00:00:00",
      "exmDtSpecified": true
    }
  ],
  "Dsgntns": [],
  "PrevRgstns": [
    {
      "BrnchOfLocs": [
        {
          "city": "SALT LAKE CITY",
          "state": 46,
          "stateSpecified": true
        }
      ],
      "orgNm": "MERIDIAN ASSET MANAGEMENT",
      "orgPK": "132125",
      "regBeginDt": "2007-05-08T00:00:00",
      "regBeginDtSpecified": true,
      "regEndDt": "2014-09-05T00:00:00",
      "regEndDtSpecified": true
    }
  ],
  "EmpHss": [
    {
      "fromDt": "07/2004",
      "toDt": null,
      "orgNm": "MERIDIAN ASSET MANAGEMENT",
      "city": "SALT LAKE CITY",
      "state": 46,
      "stateSpecified": true
    },
    {
      "fromDt": "01/2008",
      "toDt": null,
      "orgNm": "THE SON OF VAUGHN",
      "city": "SALT LAKE CITY",
      "state": 46,
      "stateSpecified": true
    },
    {
      "fromDt": "01/2013",
      "toDt": null,
      "orgNm": "MERIDIAN ASSET MANAGEMENT",
      "city": "SALT LAKE CITY",
      "state": 46,
      "stateSpecified": true
    },
    {
      "fromDt": "06/2013",
      "toDt": null,
      "orgNm": "COMPASS FINANCIAL ADVISORS",
      "city": "FORT WAYNE",
      "state": 16,
      "stateSpecified": true
    }
  ],
  "OthrBuss": {
    "OthrBus": {
      "desc": "I WORK AS CHIEF COMPLIANCE OFFICER OF MERIDIAN ASSET MANAGEMENT, A REGISTERED INVESTMENT ADVISER LOCATED AT 7575 WILLOW RIDGE ROAD, COTTONWOOD HEIGHTS, UTAH, 84121. THE BUSINESS PROVIDES INVESTMENT RELATED ADVICE FOR A FEE. I'VE BEEN WORKING WITH THIS FIRM SINCE 2004. I SPEND 80 HOURS/MONTH TOWARD THIS BUSINESS, HALF OF WHICH IS SPENT DURING MARKET HOURS. MY DUTIES REQUIRE ME TO MAINTAIN AND OVERSEE COMPLIANCE POLICIES AND PROCEDURES.    I WORK AS CHIEF COMPLIANCE OFFICER OF COMPASS FINANCIAL ADVISORS, A REGISTERED INVESTMENT ADVISER LOCATED AT 9933 DUPONT CIRCLE DR. WEST, STE. 100, FORT WAYNE, IN 46825. THE BUSINESS PROVIDES INVESTMENT RELATED ADVICE FOR A FEE. I'VE BEEN WORKING WITH THIS FIRM SINCE JUNE 2013. I SPEND 80 HOURS/MONTH TOWARD THIS BUSINESS, HALF OF WHICH IS SPENT DURING MARKET HOURS. MY DUTIES REQUIRE ME TO MAINTAIN AND OVERSEE COMPLIANCE POLICIES AND PROCEDURES.    I ALSO ACT AS LANDLORD TO A RENTAL HOME LOCATED AT 2653 HARTFORD STREET, SALT LAKE CITY, UTAH, 84106. THIS IS NOT AN INVESTMENT RELATED BUSINESS. I'VE BEEN WORKING IN THIS CAPACITY SINCE JUNE 2010. I WORK MINIMAL TIME IN THIS CAPACITY TOTALING MAYBE ONE HOUR PER MONTH AND SELDOM DURING MARKET HOURS. MY DUTIES REQUIRE ME TO FIND RENTERS FOR THE HOME EVERY COUPLE YEARS AND MAINTAIN THE HOME IN GOOD LIVING CONDITION."
    }
  },
  "DRPs": []
}