{
  "Info": {
    "lastNm": "CORRIE",
    "firstNm": "DAVID",
    "midNm": "GORDON",
    "sufNm": null,
    "indvlPK": "5227717",
    "actvAGReg": 0,
    "link": "http://www.adviserinfo.sec.gov/IAPD/Individual/5227717"
  },
  "OthrNms": [],
  "CrntEmps": [
    {
      "CrntRgstns": [
        {
          "regAuth": 45,
          "regCat": 0,
          "st": 2,
          "stDt": "2011-11-04T00:00:00"
        }
      ],
      "BrnchOfLocs": [
        {
          "str1": "98 SAN JACINTO BLVD",
          "str2": "SUITE 600",
          "city": "AUSTIN",
          "state": 45,
          "stateSpecified": true,
          "cntry": "United States",
          "postlCd": "78701"
        }
      ],
      "orgNm": "UBS FINANCIAL SERVICES INC.",
      "orgPK": "8174",
      "str1": "1200 HARBOR BOULEVARD",
      "str2": null,
      "city": "WEEHAWKEN",
      "state": 32,
      "stateSpecified": true,
      "cntry": "United States",
      "postlCd": "07086"
    }
  ],
  "Exms": [
    {
      "exmCd": 3,
      "exmNm": "Uniform Combined State Law Examination",
      "exmDt": "2006-12-21T00:00:00",
      "exmDtSpecified": true
    }
  ],
  "Dsgntns": [],
  "PrevRgstns": [
    {
      "BrnchOfLocs": [
        {
          "city": "AUSTIN",
          "state": 45,
          "stateSpecified": true
        }
      ],
      "orgNm": "RAYMOND JAMES & ASSOCIATES, INC.",
      "orgPK": "705",
      "regBeginDt": "2007-02-26T00:00:00",
      "regBeginDtSpecified": true,
      "regEndDt": "2011-11-11T00:00:00",
      "regEndDtSpecified": true
    }
  ],
  "EmpHss": [
    {
      "fromDt": "06/2004",
      "toDt": "08/2006",
      "orgNm": "ATP/ITF TENNIS TOUR",
      "city": "ROEHAMPTON/LONDON",
      "stateSpecified": false
    },
    {
      "fromDt": "09/2006",
      "toDt": "11/2011",
      "orgNm": "RAYMOND JAMES & ASSOCIATES",
      "city": "AUSTIN",
      "state": 45,
      "stateSpecified": true
    },
    {
      "fromDt": "11/2011",
      "toDt": null,
      "orgNm": "UBS FINANCIAL SERVICES INC",
      "city": "AUSTIN",
      "state": 45,
      "stateSpecified": true
    }
  ],
  "OthrBuss": {
    "OthrBus": {
      "desc": "ASSISTANT TENNIS PRO AT BARTON CREEK RESORT & SPA, 8212 BARTON CLUB DR, AUSTIN, TX 78735. TEACH 2 HOURS OF TENNIS LESSONS PER WEEK  2)The Longhorn Foundation / P.O. Box 7399 Austin,Texas 78713 / Foundation/ Sport & Leisure Facilities  / University Of Texas Sports / Other / Networking with the Intent to Introduce members of the Austin Tennis Community to Visit with Representatives of the Longhorn Foundation & consider a Donation. / Networking / Sharing the Story / Start Date  5/16/16-12/29/17 /"
    }
  },
  "DRPs": []
}