{
  "Info": {
    "lastNm": "RIZZO",
    "firstNm": "JOHN",
    "midNm": "MARTIN",
    "sufNm": null,
    "indvlPK": "5228140",
    "actvAGReg": 0,
    "link": "http://www.adviserinfo.sec.gov/IAPD/Individual/5228140"
  },
  "OthrNms": [
    {
      "lastNm": "RIZZO",
      "firstNm": "JOHN",
      "midNm": null,
      "sufNm": null
    }
  ],
  "CrntEmps": [
    {
      "CrntRgstns": [
        {
          "regAuth": 32,
          "regCat": 0,
          "st": 2,
          "stDt": "2010-04-07T00:00:00"
        },
        {
          "regAuth": 28,
          "regCat": 0,
          "st": 2,
          "stDt": "2011-05-06T00:00:00"
        }
      ],
      "BrnchOfLocs": [
        {
          "str1": "1000 & 1200 HARBOR BLVD.",
          "str2": null,
          "city": "WEEHAWKEN",
          "state": 32,
          "stateSpecified": true,
          "cntry": "United States",
          "postlCd": "07086"
        },
        {
          "str1": "11325 NORTH COMMUNITY HOUSE ROAD",
          "str2": "SUITE 600",
          "city": "CHARLOTTE",
          "state": 28,
          "stateSpecified": true,
          "cntry": "United States",
          "postlCd": "28277"
        }
      ],
      "orgNm": "UBS FINANCIAL SERVICES INC.",
      "orgPK": "8174",
      "str1": "1200 HARBOR BOULEVARD",
      "str2": null,
      "city": "WEEHAWKEN",
      "state": 32,
      "stateSpecified": true,
      "cntry": "United States",
      "postlCd": "07086"
    }
  ],
  "Exms": [
    {
      "exmCd": 3,
      "exmNm": "Uniform Combined State Law Examination",
      "exmDt": "2010-04-06T00:00:00",
      "exmDtSpecified": true
    }
  ],
  "Dsgntns": [],
  "PrevRgstns": [],
  "EmpHss": [
    {
      "fromDt": "05/2005",
      "toDt": "08/2006",
      "orgNm": "TRITECH INDUSTRIES, INC.",
      "city": "UNION",
      "state": 32,
      "stateSpecified": true
    },
    {
      "fromDt": "09/2006",
      "toDt": null,
      "orgNm": "USB FINANCIAL SERVICES",
      "city": "WEEHAWKEN",
      "state": 32,
      "stateSpecified": true
    }
  ],
  "OthrBuss": {
    "OthrBus": null
  },
  "DRPs": []
}