{
  "Info": {
    "lastNm": "LOPEZ",
    "firstNm": "RAFAEL",
    "midNm": null,
    "sufNm": "JR",
    "indvlPK": "5235145",
    "actvAGReg": 0,
    "link": "http://www.adviserinfo.sec.gov/IAPD/Individual/5235145"
  },
  "OthrNms": [
    {
      "lastNm": "LOPEZ",
      "firstNm": "RAFAEL",
      "midNm": null,
      "sufNm": null
    }
  ],
  "CrntEmps": [
    {
      "CrntRgstns": [
        {
          "regAuth": 4,
          "regCat": 0,
          "st": 2,
          "stDt": "2014-12-24T00:00:00"
        }
      ],
      "BrnchOfLocs": [
        {
          "str1": "9460 WILSHIRE BLVD",
          "str2": null,
          "city": "BEVERLY HILLS",
          "state": 4,
          "stateSpecified": true,
          "cntry": "United States",
          "postlCd": "90212"
        }
      ],
      "orgNm": "UNIONBANC INVESTMENT SERVICES, LLC",
      "orgPK": "14455",
      "str1": "800 N. BRAND BOULEVARD",
      "str2": "16TH FLOOR",
      "city": "GLENDALE",
      "state": 4,
      "stateSpecified": true,
      "cntry": "United States",
      "postlCd": "91203"
    }
  ],
  "Exms": [
    {
      "exmCd": 0,
      "exmNm": "Uniform Securities Agent State Law Examination",
      "exmDt": "2010-07-12T00:00:00",
      "exmDtSpecified": true
    },
    {
      "exmCd": 2,
      "exmNm": "Uniform Investment Adviser Law Examination",
      "exmDt": "2014-12-24T00:00:00",
      "exmDtSpecified": true
    }
  ],
  "Dsgntns": [],
  "PrevRgstns": [],
  "EmpHss": [
    {
      "fromDt": "07/2006",
      "toDt": "07/2007",
      "orgNm": "NORTHWESTERN MUTUAL",
      "city": "NEWPORT BEACH",
      "state": 4,
      "stateSpecified": true
    },
    {
      "fromDt": "08/2007",
      "toDt": null,
      "orgNm": "UNION BANK",
      "city": "BEVERLY HILLS",
      "state": 4,
      "stateSpecified": true
    },
    {
      "fromDt": "05/2010",
      "toDt": null,
      "orgNm": "UNIONBANC INVESTMENT SERVICES",
      "city": "BEVERLY HILLS",
      "state": 4,
      "stateSpecified": true
    }
  ],
  "OthrBuss": {
    "OthrBus": null
  },
  "DRPs": []
}