{
  "Info": {
    "lastNm": "FULLER Tome",
    "firstNm": "COURTNEY",
    "midNm": "LYTTON",
    "sufNm": null,
    "indvlPK": "5242128",
    "actvAGReg": 0,
    "link": "http://www.adviserinfo.sec.gov/IAPD/Individual/5242128"
  },
  "OthrNms": [
    {
      "lastNm": "FULLER",
      "firstNm": "COURTNEY",
      "midNm": "LYTTON",
      "sufNm": null
    },
    {
      "lastNm": "FULLER-TOME",
      "firstNm": "COURTNEY",
      "midNm": "LYTTON",
      "sufNm": null
    }
  ],
  "CrntEmps": [
    {
      "CrntRgstns": [
        {
          "regAuth": 15,
          "regCat": 0,
          "st": 2,
          "stDt": "2016-05-06T00:00:00"
        }
      ],
      "BrnchOfLocs": [
        {
          "str1": "15030 S RAVINIA AVE",
          "str2": "STE 39",
          "city": "ORLAND PARK",
          "state": 15,
          "stateSpecified": true,
          "cntry": "United States",
          "postlCd": "60462"
        }
      ],
      "orgNm": "AMERIPRISE FINANCIAL SERVICES, INC.",
      "orgPK": "6363",
      "str1": "707 2ND AVENUE SOUTH",
      "str2": null,
      "city": "MINNEAPOLIS",
      "state": 24,
      "stateSpecified": true,
      "cntry": "United States",
      "postlCd": "55402"
    }
  ],
  "Exms": [
    {
      "exmCd": 3,
      "exmNm": "Uniform Combined State Law Examination",
      "exmDt": "2016-05-02T00:00:00",
      "exmDtSpecified": true
    }
  ],
  "Dsgntns": [],
  "PrevRgstns": [],
  "EmpHss": [
    {
      "fromDt": "05/2005",
      "toDt": "10/2006",
      "orgNm": "TCH MANAGEMENT",
      "city": "GLENWOOD",
      "state": 15,
      "stateSpecified": true
    },
    {
      "fromDt": "10/2006",
      "toDt": null,
      "orgNm": "AMERIPRISE FINANCIAL SERVICES, INC",
      "city": "ORLAND PARK",
      "state": 15,
      "stateSpecified": true
    }
  ],
  "OthrBuss": {
    "OthrBus": null
  },
  "DRPs": []
}