{
  "Info": {
    "lastNm": "WALKER",
    "firstNm": "THERESA",
    "midNm": "L",
    "sufNm": null,
    "indvlPK": "5242394",
    "actvAGReg": 0,
    "link": "http://www.adviserinfo.sec.gov/IAPD/Individual/5242394"
  },
  "OthrNms": [
    {
      "lastNm": "WALKER",
      "firstNm": "THERESA",
      "midNm": null,
      "sufNm": null
    },
    {
      "lastNm": "WALKER",
      "firstNm": "THERESA",
      "midNm": "LYNN",
      "sufNm": null
    }
  ],
  "CrntEmps": [
    {
      "CrntRgstns": [
        {
          "regAuth": 45,
          "regCat": 0,
          "st": 2,
          "stDt": "2012-07-24T00:00:00"
        }
      ],
      "BrnchOfLocs": [
        {
          "str1": "306 22ND ST",
          "str2": null,
          "city": "GALVESTON",
          "state": 45,
          "stateSpecified": true,
          "cntry": "United States",
          "postlCd": "77550"
        }
      ],
      "orgNm": "MERRILL LYNCH, PIERCE, FENNER & SMITH INCORPORATED",
      "orgPK": "7691",
      "str1": "ONE BRYANT PARK",
      "str2": null,
      "city": "NEW YORK",
      "state": 35,
      "stateSpecified": true,
      "cntry": "United States",
      "postlCd": "10036"
    }
  ],
  "Exms": [
    {
      "exmCd": 3,
      "exmNm": "Uniform Combined State Law Examination",
      "exmDt": "2012-07-23T00:00:00",
      "exmDtSpecified": true
    }
  ],
  "Dsgntns": [],
  "PrevRgstns": [],
  "EmpHss": [
    {
      "fromDt": "06/2005",
      "toDt": "10/2006",
      "orgNm": "NOT WORKING",
      "city": "GLOUCESTER VA AND GALVESTON TX",
      "state": 45,
      "stateSpecified": true
    },
    {
      "fromDt": "10/2006",
      "toDt": "04/2009",
      "orgNm": "MERRILL LYNCH",
      "city": "GALVESTON",
      "state": 45,
      "stateSpecified": true
    },
    {
      "fromDt": "04/2009",
      "toDt": "05/2010",
      "orgNm": "NOT WORKING",
      "city": "GALVESTON",
      "state": 45,
      "stateSpecified": true
    },
    {
      "fromDt": "05/2010",
      "toDt": null,
      "orgNm": "MERRILL LYNCH",
      "city": "GALVESTON",
      "state": 45,
      "stateSpecified": true
    }
  ],
  "OthrBuss": {
    "OthrBus": null
  },
  "DRPs": []
}