{
  "Info": {
    "lastNm": "CHART",
    "firstNm": "SHIRLENE",
    "midNm": "D",
    "sufNm": null,
    "indvlPK": "5246812",
    "actvAGReg": 1,
    "link": "http://www.adviserinfo.sec.gov/IAPD/Individual/5246812"
  },
  "OthrNms": [
    {
      "lastNm": "HAIDAR",
      "firstNm": "SHIRLENE",
      "midNm": "DONNA",
      "sufNm": null
    },
    {
      "lastNm": "HARTWIG",
      "firstNm": "SHIRLENE",
      "midNm": "DONNA",
      "sufNm": null
    },
    {
      "lastNm": "HARTWIG-HAIDAR",
      "firstNm": "SHIRLENE",
      "midNm": "DONNA",
      "sufNm": null
    }
  ],
  "CrntEmps": [
    {
      "CrntRgstns": [
        {
          "regAuth": 50,
          "regCat": 0,
          "st": 2,
          "stDt": "2014-11-12T00:00:00"
        }
      ],
      "BrnchOfLocs": [
        {
          "str1": "8401 GREENWAY BLVD",
          "str2": null,
          "city": "MIDDLETON",
          "state": 50,
          "stateSpecified": true,
          "cntry": "United States",
          "postlCd": "53562"
        }
      ],
      "orgNm": "FILBRANDT INVESTMENT ADVISERS INCORPORATED",
      "orgPK": "104562",
      "str1": "8401 GREENWAY BLVD",
      "str2": null,
      "city": "MIDDLETON",
      "state": 50,
      "stateSpecified": true,
      "cntry": "United States",
      "postlCd": "53562"
    }
  ],
  "Exms": [
    {
      "exmCd": 2,
      "exmNm": "Uniform Investment Adviser Law Examination",
      "exmDt": "2014-11-12T00:00:00",
      "exmDtSpecified": true
    }
  ],
  "Dsgntns": [],
  "PrevRgstns": [],
  "EmpHss": [
    {
      "fromDt": "02/1998",
      "toDt": "03/2011",
      "orgNm": "EVERGREEN STATE BANK",
      "city": "STOUGHTON",
      "state": 50,
      "stateSpecified": true
    },
    {
      "fromDt": "11/2009",
      "toDt": "11/2011",
      "orgNm": "HARVEY M. HARTWIG",
      "city": "STOUGHTON",
      "state": 50,
      "stateSpecified": true
    },
    {
      "fromDt": "12/2011",
      "toDt": "09/2012",
      "orgNm": "EPIC SYSTEMS CORPORATION",
      "city": "VERONA",
      "state": 50,
      "stateSpecified": true
    },
    {
      "fromDt": "10/2012",
      "toDt": null,
      "orgNm": "FILBRANDT INVESTMENT ADVISERS",
      "city": "MIDDLETON",
      "state": 50,
      "stateSpecified": true
    }
  ],
  "OthrBuss": {
    "OthrBus": null
  },
  "DRPs": []
}