{
  "Info": {
    "lastNm": "DECK",
    "firstNm": "JESSIE",
    "midNm": "LEIGH",
    "sufNm": null,
    "indvlPK": "5246144",
    "actvAGReg": 0,
    "link": "http://www.adviserinfo.sec.gov/IAPD/Individual/5246144"
  },
  "OthrNms": [
    {
      "lastNm": "DECK",
      "firstNm": "JESSIE",
      "midNm": "LEIGHT",
      "sufNm": null
    }
  ],
  "CrntEmps": [
    {
      "CrntRgstns": [
        {
          "regAuth": 4,
          "regCat": 0,
          "st": 2,
          "stDt": "2012-07-04T00:00:00"
        }
      ],
      "BrnchOfLocs": [
        {
          "str1": "1200 PROSPECT STREET",
          "str2": null,
          "city": "LA JOLLA",
          "state": 4,
          "stateSpecified": true,
          "cntry": "United States",
          "postlCd": "92037"
        }
      ],
      "orgNm": "UBS FINANCIAL SERVICES INC.",
      "orgPK": "8174",
      "str1": "1200 HARBOR BOULEVARD",
      "str2": null,
      "city": "WEEHAWKEN",
      "state": 32,
      "stateSpecified": true,
      "cntry": "United States",
      "postlCd": "07086"
    }
  ],
  "Exms": [
    {
      "exmCd": 3,
      "exmNm": "Uniform Combined State Law Examination",
      "exmDt": "2012-07-03T00:00:00",
      "exmDtSpecified": true
    }
  ],
  "Dsgntns": [],
  "PrevRgstns": [],
  "EmpHss": [
    {
      "fromDt": "12/2003",
      "toDt": "11/2007",
      "orgNm": "CHILI'S/BRINKER INC",
      "city": "SAN DIEGO",
      "state": 4,
      "stateSpecified": true
    },
    {
      "fromDt": "10/2006",
      "toDt": null,
      "orgNm": "UBS FINANCIAL SERVICES",
      "city": "LA JOLLA",
      "state": 4,
      "stateSpecified": true
    }
  ],
  "OthrBuss": {
    "OthrBus": null
  },
  "DRPs": []
}