{
  "Info": {
    "lastNm": "STOSS",
    "firstNm": "JASON",
    "midNm": "R",
    "sufNm": null,
    "indvlPK": "5246493",
    "actvAGReg": 0,
    "link": "http://www.adviserinfo.sec.gov/IAPD/Individual/5246493"
  },
  "OthrNms": [
    {
      "lastNm": "STOSS",
      "firstNm": "JASA",
      "midNm": "R",
      "sufNm": null
    }
  ],
  "CrntEmps": [
    {
      "CrntRgstns": [
        {
          "regAuth": 9,
          "regCat": 0,
          "st": 2,
          "stDt": "2007-04-16T00:00:00"
        },
        {
          "regAuth": 45,
          "regCat": 0,
          "st": 3,
          "stDt": "2011-03-02T00:00:00"
        }
      ],
      "BrnchOfLocs": [
        {
          "str1": "2400 N COMMERCE PKWY",
          "str2": null,
          "city": "WESTON",
          "state": 9,
          "stateSpecified": true,
          "cntry": "United States",
          "postlCd": "33326"
        }
      ],
      "orgNm": "MERRILL LYNCH, PIERCE, FENNER & SMITH INCORPORATED",
      "orgPK": "7691",
      "str1": "ONE BRYANT PARK",
      "str2": null,
      "city": "NEW YORK",
      "state": 35,
      "stateSpecified": true,
      "cntry": "United States",
      "postlCd": "10036"
    }
  ],
  "Exms": [
    {
      "exmCd": 3,
      "exmNm": "Uniform Combined State Law Examination",
      "exmDt": "2007-04-12T00:00:00",
      "exmDtSpecified": true
    }
  ],
  "Dsgntns": [],
  "PrevRgstns": [],
  "EmpHss": [
    {
      "fromDt": "05/2006",
      "toDt": "11/2006",
      "orgNm": "APEX SYSTEMS",
      "city": "MIAMI",
      "state": 9,
      "stateSpecified": true
    },
    {
      "fromDt": "11/2006",
      "toDt": null,
      "orgNm": "MERRILL LYNCH, PIERCE, FENNER & SMITH INCORPORATED : 7691",
      "city": "WESTON",
      "state": 9,
      "stateSpecified": true
    },
    {
      "fromDt": "12/2009",
      "toDt": null,
      "orgNm": "BANK OF AMERICA, NA",
      "city": "WESTON",
      "state": 9,
      "stateSpecified": true
    }
  ],
  "OthrBuss": {
    "OthrBus": null
  },
  "DRPs": []
}