{
  "Info": {
    "lastNm": "GOROKHOVSKIY",
    "firstNm": "MAYA",
    "midNm": null,
    "sufNm": null,
    "indvlPK": "5248455",
    "actvAGReg": 0,
    "link": "http://www.adviserinfo.sec.gov/IAPD/Individual/5248455"
  },
  "OthrNms": [
    {
      "lastNm": "FERD",
      "firstNm": "MAYA",
      "midNm": null,
      "sufNm": null
    },
    {
      "lastNm": "FERD",
      "firstNm": "MAYA",
      "midNm": null,
      "sufNm": null
    },
    {
      "lastNm": "GOROKHOVSKIY",
      "firstNm": "MAYA",
      "midNm": null,
      "sufNm": null
    }
  ],
  "CrntEmps": [
    {
      "CrntRgstns": [
        {
          "regAuth": 32,
          "regCat": 0,
          "st": 2,
          "stDt": "2011-05-24T00:00:00"
        }
      ],
      "BrnchOfLocs": [
        {
          "str1": "51 MADISON AVENUE",
          "str2": null,
          "city": "NEW YORK",
          "state": 35,
          "stateSpecified": true,
          "cntry": "United States",
          "postlCd": "10010"
        }
      ],
      "orgNm": "NEW YORK LIFE INVESTMENT MANAGEMENT LLC",
      "orgPK": "109591",
      "str1": "51 MADISON AVENUE",
      "str2": null,
      "city": "NEW YORK",
      "state": 35,
      "stateSpecified": true,
      "cntry": "United States",
      "postlCd": "10010"
    }
  ],
  "Exms": [
    {
      "exmCd": 3,
      "exmNm": "Uniform Combined State Law Examination",
      "exmDt": "2007-09-07T00:00:00",
      "exmDtSpecified": true
    }
  ],
  "Dsgntns": [],
  "PrevRgstns": [
    {
      "BrnchOfLocs": [
        {
          "city": "NEW YORK",
          "state": 35,
          "stateSpecified": true
        }
      ],
      "orgNm": "CITIGROUP GLOBAL MARKETS INC.",
      "orgPK": "7059",
      "regBeginDt": "2007-09-10T00:00:00",
      "regBeginDtSpecified": true,
      "regEndDt": "2008-02-29T00:00:00",
      "regEndDtSpecified": true
    },
    {
      "BrnchOfLocs": [
        {
          "city": "NEW YORK",
          "state": 35,
          "stateSpecified": true
        }
      ],
      "orgNm": "DEUTSCHE BANK SECURITIES INC.",
      "orgPK": "2525",
      "regBeginDt": "2008-04-23T00:00:00",
      "regBeginDtSpecified": true,
      "regEndDt": "2010-11-12T00:00:00",
      "regEndDtSpecified": true
    },
    {
      "BrnchOfLocs": [
        {
          "city": "NEW YORK",
          "state": 35,
          "stateSpecified": true
        }
      ],
      "orgNm": "EAGLE STRATEGIES LLC",
      "orgPK": "110826",
      "regBeginDt": "2010-12-20T00:00:00",
      "regBeginDtSpecified": true,
      "regEndDt": "2011-05-24T00:00:00",
      "regEndDtSpecified": true
    }
  ],
  "EmpHss": [
    {
      "fromDt": "03/2004",
      "toDt": "11/2006",
      "orgNm": "STANDARD & POOR'S",
      "city": "NEW YORK",
      "state": 35,
      "stateSpecified": true
    },
    {
      "fromDt": "11/2006",
      "toDt": "02/2008",
      "orgNm": "CITIGROUP GLOBAL MARKETS INC.",
      "city": "NEW YORK",
      "state": 35,
      "stateSpecified": true
    },
    {
      "fromDt": "02/2008",
      "toDt": "11/2010",
      "orgNm": "DEUTSCHE BANK SECURITIES INC.",
      "city": "NEW YORK",
      "state": 35,
      "stateSpecified": true
    },
    {
      "fromDt": "11/2010",
      "toDt": null,
      "orgNm": "NEW YORK LIFE INSURANCE COMPANY",
      "city": "NEW YORK",
      "state": 35,
      "stateSpecified": true
    }
  ],
  "OthrBuss": {
    "OthrBus": {
      "desc": "SHOREFRONT YM-YWHA OF BRIGHTON-MANHATTAN BEACH INC.  3300 CONEY ISLAND AVE BROOKLYN, NY 11235.  NOT INVESTMENT RELATED.  A NON-PROFIT, COMMUNITY CENTER, A VOTING DIRECTOR ON THE CENTER'S BOARD AS OF 9/20/11.  2 HOURS EVERY 3 MONTHS NOT DURING NORMAL SECURITIES TRADING HOURS.  I ATTEND BOARD MEETINGS AND DISCUSS CENTER'S FUNDRAISING EFFORTS AND GRANT APPLICATIONS."
    }
  },
  "DRPs": []
}