{
  "Info": {
    "lastNm": "TANTOCO",
    "firstNm": "PATRICK",
    "midNm": null,
    "sufNm": null,
    "indvlPK": "5249850",
    "actvAGReg": 0,
    "link": "http://www.adviserinfo.sec.gov/IAPD/Individual/5249850"
  },
  "OthrNms": [
    {
      "lastNm": "TANTOCO",
      "firstNm": "HERMOGENES GIL PATRICK",
      "midNm": null,
      "sufNm": null
    },
    {
      "lastNm": "TANTOCO",
      "firstNm": "HERMOGENES-GIL PATRICK",
      "midNm": null,
      "sufNm": null
    },
    {
      "lastNm": "TANTOCO",
      "firstNm": "HERMONGENES GIL PATRICK",
      "midNm": null,
      "sufNm": null
    }
  ],
  "CrntEmps": [
    {
      "CrntRgstns": [
        {
          "regAuth": 12,
          "regCat": 0,
          "st": 2,
          "stDt": "2013-05-31T00:00:00"
        }
      ],
      "BrnchOfLocs": [
        {
          "str1": "12671 HIGH BLUFF DR",
          "str2": "STE 200",
          "city": "SAN DIEGO",
          "state": 4,
          "stateSpecified": true,
          "cntry": "United States",
          "postlCd": "92130"
        },
        {
          "str1": "932 Ward Avenue",
          "str2": "SUITE 420",
          "city": "HONOLULU",
          "state": 12,
          "stateSpecified": true,
          "cntry": "United States",
          "postlCd": "96814"
        }
      ],
      "orgNm": "INDEPENDENT FINANCIAL GROUP, LLC",
      "orgPK": "7717",
      "str1": "12671 HIGH BLUFF DR",
      "str2": "SUITE 200",
      "city": "SAN DIEGO",
      "state": 4,
      "stateSpecified": true,
      "cntry": "United States",
      "postlCd": "92130"
    }
  ],
  "Exms": [
    {
      "exmCd": 0,
      "exmNm": "Uniform Securities Agent State Law Examination",
      "exmDt": "2007-02-08T00:00:00",
      "exmDtSpecified": true
    },
    {
      "exmCd": 2,
      "exmNm": "Uniform Investment Adviser Law Examination",
      "exmDt": "2008-12-10T00:00:00",
      "exmDtSpecified": true
    }
  ],
  "Dsgntns": [],
  "PrevRgstns": [
    {
      "BrnchOfLocs": [
        {
          "city": "PALO ALTO",
          "state": 4,
          "stateSpecified": true
        },
        {
          "city": "SAN MATEO",
          "state": 4,
          "stateSpecified": true
        }
      ],
      "orgNm": "BANC OF AMERICA INVESTMENT SERVICES, INC.",
      "orgPK": "16361",
      "regBeginDt": "2008-12-11T00:00:00",
      "regBeginDtSpecified": true,
      "regEndDt": "2009-03-25T00:00:00",
      "regEndDtSpecified": true
    },
    {
      "BrnchOfLocs": [
        {
          "city": "MERIDIAN",
          "state": 14,
          "stateSpecified": true
        },
        {
          "city": "SAN MATEO",
          "state": 4,
          "stateSpecified": true
        }
      ],
      "orgNm": "H. BECK, INC.",
      "orgPK": "1763",
      "regBeginDt": "2010-07-08T00:00:00",
      "regBeginDtSpecified": true,
      "regEndDt": "2010-11-11T00:00:00",
      "regEndDtSpecified": true
    },
    {
      "BrnchOfLocs": [
        {
          "city": "HONOLULU",
          "state": 12,
          "stateSpecified": true
        },
        {
          "city": "HONOLULU",
          "state": 12,
          "stateSpecified": true
        },
        {
          "city": "PANORA",
          "state": 13,
          "stateSpecified": true
        }
      ],
      "orgNm": "BROKERS INTERNATIONAL FINANCIAL SERVICES, LLC.",
      "orgPK": "139627",
      "regBeginDt": "2011-04-05T00:00:00",
      "regBeginDtSpecified": true,
      "regEndDt": "2013-06-04T00:00:00",
      "regEndDtSpecified": true
    }
  ],
  "EmpHss": [
    {
      "fromDt": "10/2005",
      "toDt": "11/2006",
      "orgNm": "GROUP DEVELOPS INC",
      "city": "MAKATI METRO MANILA",
      "stateSpecified": false
    },
    {
      "fromDt": "11/2006",
      "toDt": "10/2008",
      "orgNm": "CITIGROUP GLOBAL MARKETS INC.",
      "city": "SAN MATEO",
      "state": 4,
      "stateSpecified": true
    },
    {
      "fromDt": "10/2008",
      "toDt": "04/2009",
      "orgNm": "BANC OF AMERICA INSURANCE SERVICES, INC.",
      "city": "PALO ALTO",
      "state": 4,
      "stateSpecified": true
    },
    {
      "fromDt": "10/2008",
      "toDt": "04/2009",
      "orgNm": "BANC OF AMERICA INVESTMENT SERVICES, INC.",
      "city": "PALO ALTO",
      "state": 4,
      "stateSpecified": true
    },
    {
      "fromDt": "04/2009",
      "toDt": "02/2010",
      "orgNm": "CAPITAL GROUP COMMUNICATIONS",
      "city": "SAUSALITO",
      "state": 4,
      "stateSpecified": true
    },
    {
      "fromDt": "03/2010",
      "toDt": "07/2010",
      "orgNm": "NEW ENGLAND SECURITIES",
      "city": "FOSTER CITY",
      "state": 4,
      "stateSpecified": true
    },
    {
      "fromDt": "07/2010",
      "toDt": "04/2013",
      "orgNm": "H. BECK, INC.",
      "city": "ROCKVILLE",
      "state": 21,
      "stateSpecified": true
    },
    {
      "fromDt": "04/2013",
      "toDt": null,
      "orgNm": "INDEPENDENT FINANCIAL GROUP",
      "city": "HONOLULU",
      "state": 12,
      "stateSpecified": true
    }
  ],
  "OthrBuss": {
    "OthrBus": {
      "desc": "(1) 100% OWNER DBA \"TANTOCO FINANCIAL & INSURANCE SERVICES\" PROVIDING ADVISORY BUSINESS, FINANCIAL PLANNING, ASSET ALLOCATION SINCE JUNE 2013. APPROX 20% TIME SPENT ON ACTIVITY. BUSINESS CONDUCTED AT OFFICE ADDRESS OF RECORD.(2) INSURANCE AGENT OFFERING FIXED INSURANCE SALES SINCE JANUARY 2011. TIME SPENT AS REQUIRED. NON-INVESTMENT RELATED. BUSINESS CONDUCTED AT OFFICE ADDRESS OF RECORD."
    }
  },
  "DRPs": []
}