{
  "Info": {
    "lastNm": "HANSON",
    "firstNm": "TREVOR",
    "midNm": "B",
    "sufNm": null,
    "indvlPK": "5252881",
    "actvAGReg": 0,
    "link": "http://www.adviserinfo.sec.gov/IAPD/Individual/5252881"
  },
  "OthrNms": [],
  "CrntEmps": [
    {
      "CrntRgstns": [
        {
          "regAuth": 46,
          "regCat": 0,
          "st": 2,
          "stDt": "2015-11-12T00:00:00"
        },
        {
          "regAuth": 45,
          "regCat": 0,
          "st": 3,
          "stDt": "2016-02-08T00:00:00"
        },
        {
          "regAuth": 36,
          "regCat": 0,
          "st": 2,
          "stDt": "2016-02-19T00:00:00"
        },
        {
          "regAuth": 27,
          "regCat": 0,
          "st": 2,
          "stDt": "2016-02-22T00:00:00"
        },
        {
          "regAuth": 4,
          "regCat": 0,
          "st": 2,
          "stDt": "2016-04-15T00:00:00"
        }
      ],
      "BrnchOfLocs": [
        {
          "str1": "1100 SNOW CREEK DRIVE",
          "str2": null,
          "city": "PARK CITY",
          "state": 46,
          "stateSpecified": true,
          "cntry": "United States",
          "postlCd": "84060"
        },
        {
          "str1": "1483 NEWPARK BLVD",
          "str2": null,
          "city": "PARK CITY",
          "state": 46,
          "stateSpecified": true,
          "cntry": "United States",
          "postlCd": "84098"
        },
        {
          "str1": "6510 S BIG COTTONWOOD CYN RD",
          "str2": null,
          "city": "SALT LAKE CITY",
          "state": 46,
          "stateSpecified": true,
          "cntry": "United States",
          "postlCd": "84121"
        },
        {
          "str1": "7015 S. HIGHLAND DR.",
          "str2": null,
          "city": "COTTONWOOD HEIGHTS",
          "state": 46,
          "stateSpecified": true,
          "cntry": "United States",
          "postlCd": "84121"
        },
        {
          "str1": "7620 S UNION PARK AVENUE",
          "str2": null,
          "city": "MIDVALE",
          "state": 46,
          "stateSpecified": true,
          "cntry": "United States",
          "postlCd": "84047"
        }
      ],
      "orgNm": "LPL FINANCIAL LLC",
      "orgPK": "6413",
      "str1": "75 STATE STREET, 22ND FLOOR",
      "str2": null,
      "city": "BOSTON",
      "state": 20,
      "stateSpecified": true,
      "cntry": "United States",
      "postlCd": "02109"
    }
  ],
  "Exms": [
    {
      "exmCd": 0,
      "exmNm": "Uniform Securities Agent State Law Examination",
      "exmDt": "2006-12-22T00:00:00",
      "exmDtSpecified": true
    },
    {
      "exmCd": 3,
      "exmNm": "Uniform Combined State Law Examination",
      "exmDt": "2010-05-24T00:00:00",
      "exmDtSpecified": true
    }
  ],
  "Dsgntns": [],
  "PrevRgstns": [
    {
      "BrnchOfLocs": [
        {
          "city": "BOISE",
          "state": 14,
          "stateSpecified": true
        },
        {
          "city": "DENVER",
          "state": 5,
          "stateSpecified": true
        },
        {
          "city": "EAGLE",
          "state": 14,
          "stateSpecified": true
        },
        {
          "city": "MURRAY",
          "state": 46,
          "stateSpecified": true
        }
      ],
      "orgNm": "KEY INVESTMENT SERVICES LLC",
      "orgPK": "136300",
      "regBeginDt": "2010-05-26T00:00:00",
      "regBeginDtSpecified": true,
      "regEndDt": "2010-09-01T00:00:00",
      "regEndDtSpecified": true
    },
    {
      "BrnchOfLocs": [
        {
          "city": "SALT LAKE CITY",
          "state": 46,
          "stateSpecified": true
        }
      ],
      "orgNm": "WELLS FARGO INVESTMENTS, LLC",
      "orgPK": "10582",
      "regBeginDt": "2010-09-01T00:00:00",
      "regBeginDtSpecified": true,
      "regEndDt": "2011-01-03T00:00:00",
      "regEndDtSpecified": true
    },
    {
      "BrnchOfLocs": [
        {
          "city": "SALT LAKE CITY",
          "state": 46,
          "stateSpecified": true
        }
      ],
      "orgNm": "WELLS FARGO ADVISORS, LLC",
      "orgPK": "19616",
      "regBeginDt": "2011-01-03T00:00:00",
      "regBeginDtSpecified": true,
      "regEndDt": "2011-03-03T00:00:00",
      "regEndDtSpecified": true
    },
    {
      "BrnchOfLocs": [
        {
          "city": "BOUNTIFUL",
          "state": 46,
          "stateSpecified": true
        },
        {
          "city": "DENVER",
          "state": 5,
          "stateSpecified": true
        },
        {
          "city": "LAYTON",
          "state": 46,
          "stateSpecified": true
        },
        {
          "city": "MURRAY",
          "state": 46,
          "stateSpecified": true
        },
        {
          "city": "SALT LAKE CITY",
          "state": 46,
          "stateSpecified": true
        }
      ],
      "orgNm": "KEY INVESTMENT SERVICES LLC",
      "orgPK": "136300",
      "regBeginDt": "2011-03-16T00:00:00",
      "regBeginDtSpecified": true,
      "regEndDt": "2015-11-11T00:00:00",
      "regEndDtSpecified": true
    }
  ],
  "EmpHss": [
    {
      "fromDt": "04/2003",
      "toDt": "08/2006",
      "orgNm": "UNITED STATES AIR FORCE RES.",
      "city": "LAYTON",
      "state": 46,
      "stateSpecified": true
    },
    {
      "fromDt": "04/2006",
      "toDt": "11/2006",
      "orgNm": "L3 COMMUNICATIONS",
      "city": "LAYTON",
      "state": 46,
      "stateSpecified": true
    },
    {
      "fromDt": "08/2006",
      "toDt": "03/2009",
      "orgNm": "UTAH AIR NATIONAL GAURD",
      "city": "SALT LAKE CITY",
      "state": 46,
      "stateSpecified": true
    },
    {
      "fromDt": "11/2006",
      "toDt": "04/2008",
      "orgNm": "CHASE INVESTMENT SERVICES CORP",
      "city": "SANDY",
      "state": 46,
      "stateSpecified": true
    },
    {
      "fromDt": "11/2006",
      "toDt": "04/2008",
      "orgNm": "JPMORGAN CHASE NA",
      "city": "SANDY",
      "state": 46,
      "stateSpecified": true
    },
    {
      "fromDt": "04/2008",
      "toDt": "12/2009",
      "orgNm": "KEY BANK",
      "city": "BOISE",
      "state": 14,
      "stateSpecified": true
    },
    {
      "fromDt": "04/2008",
      "toDt": "12/2009",
      "orgNm": "KEY INVESTMENT SERVICES",
      "city": "BOISE",
      "state": 14,
      "stateSpecified": true
    },
    {
      "fromDt": "12/2009",
      "toDt": "08/2010",
      "orgNm": "KEY INVESTMENT SERVICES",
      "city": "MURRAY",
      "state": 46,
      "stateSpecified": true
    },
    {
      "fromDt": "08/2010",
      "toDt": "03/2011",
      "orgNm": "WELLS FARGO INVESTMENTS, LLC.",
      "city": "SALT LAKE CITY",
      "state": 46,
      "stateSpecified": true
    },
    {
      "fromDt": "01/2011",
      "toDt": "03/2011",
      "orgNm": "WELLS FARGO ADVISORS, LLC",
      "city": "SALT LAKE CITY",
      "state": 46,
      "stateSpecified": true
    },
    {
      "fromDt": "03/2011",
      "toDt": "11/2015",
      "orgNm": "KEY INVESTMENT SERVICES LLC",
      "city": "LAYTON",
      "state": 46,
      "stateSpecified": true
    },
    {
      "fromDt": "11/2015",
      "toDt": null,
      "orgNm": "LPL FINANCIAL LLC",
      "city": "COTTONWOOD HEIGHTS",
      "state": 46,
      "stateSpecified": true
    },
    {
      "fromDt": "11/2015",
      "toDt": null,
      "orgNm": "ZIONS BANK",
      "city": "COTTONWOOD HEIGHTS",
      "state": 46,
      "stateSpecified": true
    }
  ],
  "OthrBuss": {
    "OthrBus": {
      "desc": "1. 11/12/2015 - Zions Wealth Advisors - INV REL - AT REPORTED LOCATION - DBA for LPL Business (entity for LPL business)    2. 11/27/2015 - Zions Trust - INV REL - 7015 S Highland Dr, Cottonwood Heights, Utah 84121 - Financial Institution Duty - START 11/24/2015 - 5 HOURS PER MONTH DURING TRADING"
    }
  },
  "DRPs": []
}