{
  "Info": {
    "lastNm": "ARDESSON",
    "firstNm": "MARIA",
    "midNm": "S",
    "sufNm": null,
    "indvlPK": "5254767",
    "actvAGReg": 0,
    "link": "http://www.adviserinfo.sec.gov/IAPD/Individual/5254767"
  },
  "OthrNms": [
    {
      "lastNm": "GOMEZ",
      "firstNm": "MARIA",
      "midNm": "SOCORRO",
      "sufNm": null
    }
  ],
  "CrntEmps": [
    {
      "CrntRgstns": [
        {
          "regAuth": 3,
          "regCat": 0,
          "st": 2,
          "stDt": "2011-01-03T00:00:00"
        }
      ],
      "BrnchOfLocs": [
        {
          "str1": "1601 MCCULLOCH BOULEVARD",
          "str2": null,
          "city": "LAKE HAVASU CITY",
          "state": 3,
          "stateSpecified": true,
          "cntry": "United States",
          "postlCd": "86403"
        },
        {
          "str1": "8601 N SCOTTSDALE RD STE 150",
          "str2": "[TM-RBO]",
          "city": "SCOTTSDALE",
          "state": 3,
          "stateSpecified": true,
          "cntry": "United States",
          "postlCd": "85253"
        }
      ],
      "orgNm": "WELLS FARGO ADVISORS, LLC",
      "orgPK": "19616",
      "str1": "ONE NORTH JEFFERSON AVENUE",
      "str2": "MAIL CODE: H0004-050",
      "city": "ST. LOUIS",
      "state": 25,
      "stateSpecified": true,
      "cntry": "United States",
      "postlCd": "63103-2205"
    }
  ],
  "Exms": [
    {
      "exmCd": 3,
      "exmNm": "Uniform Combined State Law Examination",
      "exmDt": "2007-03-06T00:00:00",
      "exmDtSpecified": true
    }
  ],
  "Dsgntns": [],
  "PrevRgstns": [
    {
      "BrnchOfLocs": [
        {
          "city": "LAKE HAVASU",
          "state": 3,
          "stateSpecified": true
        },
        {
          "city": "LAKE HAVASU CITY",
          "state": 3,
          "stateSpecified": true
        }
      ],
      "orgNm": "WELLS FARGO INVESTMENTS, LLC",
      "orgPK": "10582",
      "regBeginDt": "2007-04-04T00:00:00",
      "regBeginDtSpecified": true,
      "regEndDt": "2011-01-03T00:00:00",
      "regEndDtSpecified": true
    }
  ],
  "EmpHss": [
    {
      "fromDt": "11/2005",
      "toDt": null,
      "orgNm": "WELLS FARGO BANK",
      "city": "LAKE HAVASU CITY",
      "state": 3,
      "stateSpecified": true
    },
    {
      "fromDt": "11/2006",
      "toDt": "01/2011",
      "orgNm": "WELLS FARGO INVESTMENTS",
      "city": "LAKE HAVASU CITY",
      "state": 3,
      "stateSpecified": true
    },
    {
      "fromDt": "01/2011",
      "toDt": null,
      "orgNm": "WELLS FARGO ADVISORS LLC",
      "city": "LAKE HAVASU CITY",
      "state": 3,
      "stateSpecified": true
    }
  ],
  "OthrBuss": {
    "OthrBus": null
  },
  "DRPs": []
}