{
  "Info": {
    "lastNm": "JACKSON",
    "firstNm": "PHILIP",
    "midNm": "CLARK",
    "sufNm": null,
    "indvlPK": "5259812",
    "actvAGReg": 0,
    "link": "http://www.adviserinfo.sec.gov/IAPD/Individual/5259812"
  },
  "OthrNms": [],
  "CrntEmps": [
    {
      "CrntRgstns": [
        {
          "regAuth": 15,
          "regCat": 0,
          "st": 2,
          "stDt": "2009-12-16T00:00:00"
        },
        {
          "regAuth": 36,
          "regCat": 0,
          "st": 2,
          "stDt": "2013-04-12T00:00:00"
        }
      ],
      "BrnchOfLocs": [
        {
          "str1": "38 FOUNTAIN SQUARE PLAZA",
          "str2": null,
          "city": "CINCINNATI",
          "state": 36,
          "stateSpecified": true,
          "cntry": "United States",
          "postlCd": "45202"
        }
      ],
      "orgNm": "FIFTH THIRD SECURITIES, INC.",
      "orgPK": "628",
      "str1": "34 FOUNTAIN SQUARE PLAZA",
      "str2": "MD 10AT42",
      "city": "CINCINNATI",
      "state": 36,
      "stateSpecified": true,
      "cntry": "United States",
      "postlCd": "45263"
    }
  ],
  "Exms": [
    {
      "exmCd": 0,
      "exmNm": "Uniform Securities Agent State Law Examination",
      "exmDt": "2007-01-18T00:00:00",
      "exmDtSpecified": true
    },
    {
      "exmCd": 3,
      "exmNm": "Uniform Combined State Law Examination",
      "exmDt": "2009-12-15T00:00:00",
      "exmDtSpecified": true
    }
  ],
  "Dsgntns": [],
  "PrevRgstns": [],
  "EmpHss": [
    {
      "fromDt": "07/2006",
      "toDt": null,
      "orgNm": "FIFTH THIRD SECURITIES",
      "city": "CHICAGO",
      "state": 15,
      "stateSpecified": true
    }
  ],
  "OthrBuss": {
    "OthrBus": {
      "desc": "Sarah Benjamin's - 6810 Wooster Pike, Cincinnati, OH 45227 - Women's boutique - 50% owner - spouse's business venture - 0 hrs/month - not investment related - will not interfere with duties"
    }
  },
  "DRPs": []
}