{
  "Info": {
    "lastNm": "FUCHS",
    "firstNm": "DANIEL",
    "midNm": "TODD",
    "sufNm": null,
    "indvlPK": "5270454",
    "actvAGReg": 0,
    "link": "http://www.adviserinfo.sec.gov/IAPD/Individual/5270454"
  },
  "OthrNms": [],
  "CrntEmps": [
    {
      "CrntRgstns": [
        {
          "regAuth": 32,
          "regCat": 0,
          "st": 2,
          "stDt": "2008-03-03T00:00:00"
        },
        {
          "regAuth": 45,
          "regCat": 0,
          "st": 2,
          "stDt": "2008-07-21T00:00:00"
        }
      ],
      "BrnchOfLocs": [
        {
          "str1": "LINCOLN HARBOR",
          "str2": "1000 & 1200 LINCOLN HARBOR BLVD",
          "city": "WEEHAWKEN",
          "state": 32,
          "stateSpecified": true,
          "cntry": "United States",
          "postlCd": "07086"
        }
      ],
      "orgNm": "UBS FINANCIAL SERVICES INC.",
      "orgPK": "8174",
      "str1": "1200 HARBOR BOULEVARD",
      "str2": null,
      "city": "WEEHAWKEN",
      "state": 32,
      "stateSpecified": true,
      "cntry": "United States",
      "postlCd": "07086"
    }
  ],
  "Exms": [
    {
      "exmCd": 3,
      "exmNm": "Uniform Combined State Law Examination",
      "exmDt": "2007-03-02T00:00:00",
      "exmDtSpecified": true
    }
  ],
  "Dsgntns": [],
  "PrevRgstns": [],
  "EmpHss": [
    {
      "fromDt": "08/2006",
      "toDt": "12/2006",
      "orgNm": "SAFIAN ASSOCIATES, LTD.",
      "city": "NEW YORK",
      "state": 35,
      "stateSpecified": true
    },
    {
      "fromDt": "12/2006",
      "toDt": "02/2008",
      "orgNm": "AMERIPRISE FINANCIAL SERVICES, INC.",
      "city": "NEW YORK",
      "state": 35,
      "stateSpecified": true
    },
    {
      "fromDt": "03/2008",
      "toDt": "08/2009",
      "orgNm": "UBS FINANCIAL SERVICES INC",
      "city": "WEEHAWKEN",
      "state": 32,
      "stateSpecified": true
    },
    {
      "fromDt": "08/2009",
      "toDt": null,
      "orgNm": "UBS FINANCIAL SERVICES INC",
      "city": "JERSEY CITY",
      "state": 32,
      "stateSpecified": true
    }
  ],
  "OthrBuss": {
    "OthrBus": null
  },
  "DRPs": []
}