{
  "Info": {
    "lastNm": "REED",
    "firstNm": "KIRK",
    "midNm": "B",
    "sufNm": null,
    "indvlPK": "5275340",
    "actvAGReg": 1,
    "link": "http://www.adviserinfo.sec.gov/IAPD/Individual/5275340"
  },
  "OthrNms": [],
  "CrntEmps": [
    {
      "CrntRgstns": [
        {
          "regAuth": 20,
          "regCat": 0,
          "st": 2,
          "stDt": "2013-11-12T00:00:00"
        }
      ],
      "BrnchOfLocs": [
        {
          "str1": "1020 PLAIN STREET",
          "str2": "SUITE 200",
          "city": "MARSHFIELD",
          "state": 20,
          "stateSpecified": true,
          "cntry": "United States",
          "postlCd": "02050"
        }
      ],
      "orgNm": "MCNAMARA FINANCIAL SERVICES, INC.",
      "orgPK": "154311",
      "str1": "1020 PLAIN STREET",
      "str2": "SUITE 200",
      "city": "MARSHFIELD",
      "state": 20,
      "stateSpecified": true,
      "cntry": "United States",
      "postlCd": "02050"
    }
  ],
  "Exms": [
    {
      "exmCd": 0,
      "exmNm": "Uniform Securities Agent State Law Examination",
      "exmDt": "2008-10-30T00:00:00",
      "exmDtSpecified": true
    },
    {
      "exmCd": 2,
      "exmNm": "Uniform Investment Adviser Law Examination",
      "exmDt": "2010-03-12T00:00:00",
      "exmDtSpecified": true
    }
  ],
  "Dsgntns": [
    {
      "dsgntnNm": "Certified Financial Planner"
    }
  ],
  "PrevRgstns": [
    {
      "BrnchOfLocs": [
        {
          "city": "MARSHFIELD",
          "state": 20,
          "stateSpecified": true
        }
      ],
      "orgNm": "COMMONWEALTH FINANCIAL NETWORK",
      "orgPK": "8032",
      "regBeginDt": "2010-03-19T00:00:00",
      "regBeginDtSpecified": true,
      "regEndDt": "2010-10-01T00:00:00",
      "regEndDtSpecified": true
    }
  ],
  "EmpHss": [
    {
      "fromDt": "07/2005",
      "toDt": "01/2007",
      "orgNm": "PIAB USA",
      "city": "HINGHAM",
      "state": 20,
      "stateSpecified": true
    },
    {
      "fromDt": "01/2007",
      "toDt": "01/2009",
      "orgNm": "MCNAMARA FINANCIAL SERVICES, INC.",
      "city": "MARSHFIELD",
      "state": 20,
      "stateSpecified": true
    },
    {
      "fromDt": "03/2008",
      "toDt": "10/2010",
      "orgNm": "COMMONWEALTH FINANCIAL NETWORK",
      "city": "WALTHAM",
      "state": 20,
      "stateSpecified": true
    },
    {
      "fromDt": "01/2009",
      "toDt": "10/2013",
      "orgNm": "MCNAMARA FINANCIAL SERVICES, INC.",
      "city": "MARSHFIELD",
      "state": 20,
      "stateSpecified": true
    },
    {
      "fromDt": "11/2013",
      "toDt": null,
      "orgNm": "MCNAMARA FINANCIAL SERVICES, INC.",
      "city": "MARSHFIELD",
      "state": 20,
      "stateSpecified": true
    }
  ],
  "OthrBuss": {
    "OthrBus": null
  },
  "DRPs": []
}