{
  "Info": {
    "lastNm": "BRAINERD",
    "firstNm": "ANTHONY",
    "midNm": "TODD",
    "sufNm": null,
    "indvlPK": "5278235",
    "actvAGReg": 0,
    "link": "http://www.adviserinfo.sec.gov/IAPD/Individual/5278235"
  },
  "OthrNms": [
    {
      "lastNm": "BRAINERD",
      "firstNm": "TONY",
      "midNm": null,
      "sufNm": null
    }
  ],
  "CrntEmps": [
    {
      "CrntRgstns": [
        {
          "regAuth": 2,
          "regCat": 0,
          "st": 2,
          "stDt": "2012-02-09T00:00:00"
        }
      ],
      "BrnchOfLocs": [
        {
          "str1": "12005 Crystal Hill Road",
          "str2": null,
          "city": "Maumelle",
          "state": 2,
          "stateSpecified": true,
          "cntry": "United States",
          "postlCd": "72113"
        }
      ],
      "orgNm": "CREWS & ASSOCIATES, INC.",
      "orgPK": "8052",
      "str1": "521 PRESIDENT CLINTON AVENUE",
      "str2": "SUITE 800",
      "city": "LITTLE ROCK",
      "state": 2,
      "stateSpecified": true,
      "cntry": "United States",
      "postlCd": "72201"
    }
  ],
  "Exms": [
    {
      "exmCd": 3,
      "exmNm": "Uniform Combined State Law Examination",
      "exmDt": "2007-03-20T00:00:00",
      "exmDtSpecified": true
    }
  ],
  "Dsgntns": [],
  "PrevRgstns": [
    {
      "BrnchOfLocs": [
        {
          "city": "LITTLE ROCK",
          "state": 2,
          "stateSpecified": true
        },
        {
          "city": "LITTLE ROCK",
          "state": 2,
          "stateSpecified": true
        },
        {
          "city": "LITTLE ROCK",
          "state": 2,
          "stateSpecified": true
        },
        {
          "city": "MAUMELLE",
          "state": 2,
          "stateSpecified": true
        },
        {
          "city": "ST LOUIS",
          "state": 25,
          "stateSpecified": true
        }
      ],
      "orgNm": "EDWARD JONES",
      "orgPK": "250",
      "regBeginDt": "2007-04-11T00:00:00",
      "regBeginDtSpecified": true,
      "regEndDt": "2012-01-31T00:00:00",
      "regEndDtSpecified": true
    }
  ],
  "EmpHss": [
    {
      "fromDt": "12/2003",
      "toDt": "10/2006",
      "orgNm": "ED'S SUPPLY COMPANY INC.",
      "city": "LITTLE ROCK",
      "state": 2,
      "stateSpecified": true
    },
    {
      "fromDt": "10/2006",
      "toDt": "01/2007",
      "orgNm": "UNEMPLOYED",
      "city": "MAUMELLE",
      "state": 2,
      "stateSpecified": true
    },
    {
      "fromDt": "01/2007",
      "toDt": "01/2012",
      "orgNm": "EDWARD JONES",
      "city": "SAINT LOUIS",
      "state": 25,
      "stateSpecified": true
    },
    {
      "fromDt": "01/2012",
      "toDt": null,
      "orgNm": "CREWS & ASSOCIATES, INC.",
      "city": "LITTLE ROCK",
      "state": 2,
      "stateSpecified": true
    }
  ],
  "OthrBuss": {
    "OthrBus": {
      "desc": "1. RENTAL HOME, INVESTMENT PROPERTY, LITTLE ROCK AR. AFTER WORK HOURS ONLY, AND ONLY IF THERE IS A PROBLEM I CAN FIX MYSELF. 2. CITY OF MAUMELLE, MAUMELLE, AR 72113 STARTED: 1/1/2007, ALDERMAN WARD 3 POS2,  3 HRS WORKED, ELECTED TO BOARD, OVERSEE CITY BUSINESS, RULES AND REGULATIONS.  3. METHODIST MEN OF MAUMELLE, NOT INVESTMENT RELATED, NON-PROFIT, MEMBER, SINCE 7/1/13, 2HRS/WEEK, KEEP CHURCH MEN'S GROUP ACTIVE IN COMMUNITY, NO COMPENSATION, NO OWNERSHIP.  4. Arkansas action coalition, 6 children's war rm 807, Arkansas, nature: improve nursing & health care in Arkansas, positions: co-leader, since sept 2015, 2 hrs per month (during trading), no compensation, not investment related.  5. Maumelle Youth Council, no ownership, not investment related, youth civic group, kid activities advisor & review scholarship applications & award scholarships, 2 hours per month, no hours during trading, since 4/1/16."
    }
  },
  "DRPs": []
}