{
  "Info": {
    "lastNm": "MOORE",
    "firstNm": "CHRISTOPHER",
    "midNm": "SCOTT",
    "sufNm": null,
    "indvlPK": "5280376",
    "actvAGReg": 1,
    "link": "http://www.adviserinfo.sec.gov/IAPD/Individual/5280376"
  },
  "OthrNms": [],
  "CrntEmps": [
    {
      "CrntRgstns": [
        {
          "regAuth": 10,
          "regCat": 0,
          "st": 2,
          "stDt": "2015-05-06T00:00:00"
        }
      ],
      "BrnchOfLocs": [
        {
          "str1": "210 WASHINGTON ST  NW SUITE 106",
          "str2": null,
          "city": "GAINESVILLE",
          "state": 10,
          "stateSpecified": true,
          "cntry": "United States",
          "postlCd": "30501"
        }
      ],
      "orgNm": "PRECISION CAPITAL MANAGEMENT",
      "orgPK": "174239",
      "str1": "870 SOUTH DENTON TAP ROAD",
      "str2": "UNIT 250",
      "city": "COPPELL",
      "state": 45,
      "stateSpecified": true,
      "cntry": "United States",
      "postlCd": "75019"
    }
  ],
  "Exms": [
    {
      "exmCd": 2,
      "exmNm": "Uniform Investment Adviser Law Examination",
      "exmDt": "2013-08-09T00:00:00",
      "exmDtSpecified": true
    }
  ],
  "Dsgntns": [],
  "PrevRgstns": [
    {
      "BrnchOfLocs": [
        {
          "city": "CINCINNATI",
          "state": 36,
          "stateSpecified": true
        },
        {
          "city": "GAINESVILLE",
          "state": 10,
          "stateSpecified": true
        }
      ],
      "orgNm": "HORTER INVESTMENT MANAGEMENT, LLC",
      "orgPK": "119880",
      "regBeginDt": "2013-08-28T00:00:00",
      "regBeginDtSpecified": true,
      "regEndDt": "2015-06-16T00:00:00",
      "regEndDtSpecified": true
    }
  ],
  "EmpHss": [
    {
      "fromDt": "06/2004",
      "toDt": "09/2008",
      "orgNm": "PRIMERICA FINANCIAL SERVICES",
      "city": "SNELLVILLE",
      "state": 10,
      "stateSpecified": true
    },
    {
      "fromDt": "09/2008",
      "toDt": "04/2009",
      "orgNm": "NATIONAL AGENTS ALLIANCE",
      "city": "RALEIGH",
      "state": 10,
      "stateSpecified": true
    },
    {
      "fromDt": "04/2009",
      "toDt": null,
      "orgNm": "MOORES WEALTH MANAGEMENT",
      "city": "GAINESVILLE",
      "state": 10,
      "stateSpecified": true
    },
    {
      "fromDt": "08/2013",
      "toDt": null,
      "orgNm": "HORTER INVESTMENT MANAGEMENT, LLC",
      "city": "CINCINNATI",
      "state": 36,
      "stateSpecified": true
    },
    {
      "fromDt": "04/2015",
      "toDt": null,
      "orgNm": "PRECISION CAPITAL MANAGEMENT",
      "city": "COPPELL",
      "state": 45,
      "stateSpecified": true
    }
  ],
  "OthrBuss": {
    "OthrBus": null
  },
  "DRPs": []
}