{
  "Info": {
    "lastNm": "CIAVARELLA",
    "firstNm": "LOUIS",
    "midNm": "JOSEPH",
    "sufNm": null,
    "indvlPK": "5283039",
    "actvAGReg": 0,
    "link": "http://www.adviserinfo.sec.gov/IAPD/Individual/5283039"
  },
  "OthrNms": [],
  "CrntEmps": [
    {
      "CrntRgstns": [
        {
          "regAuth": 32,
          "regCat": 0,
          "st": 2,
          "stDt": "2016-02-25T00:00:00"
        },
        {
          "regAuth": 39,
          "regCat": 0,
          "st": 2,
          "stDt": "2016-04-01T00:00:00"
        },
        {
          "regAuth": 47,
          "regCat": 0,
          "st": 2,
          "stDt": "2016-04-01T00:00:00"
        },
        {
          "regAuth": 42,
          "regCat": 0,
          "st": 2,
          "stDt": "2016-04-05T00:00:00"
        }
      ],
      "BrnchOfLocs": [
        {
          "str1": "150 N Radnor Chester Road Suite F-200",
          "str2": null,
          "city": "Radnor",
          "state": 39,
          "stateSpecified": true,
          "cntry": "United States",
          "postlCd": "19087"
        }
      ],
      "orgNm": "R. F. LAFFERTY & CO., INC.",
      "orgPK": "2498",
      "str1": "40 WALL STREET",
      "str2": null,
      "city": "NEW YORK",
      "state": 35,
      "stateSpecified": true,
      "cntry": "United States",
      "postlCd": "10005"
    }
  ],
  "Exms": [
    {
      "exmCd": 3,
      "exmNm": "Uniform Combined State Law Examination",
      "exmDt": "2007-03-20T00:00:00",
      "exmDtSpecified": true
    }
  ],
  "Dsgntns": [],
  "PrevRgstns": [
    {
      "BrnchOfLocs": [
        {
          "city": "BERWYN",
          "state": 39,
          "stateSpecified": true
        }
      ],
      "orgNm": "CITIGROUP GLOBAL MARKETS INC.",
      "orgPK": "7059",
      "regBeginDt": "2008-04-17T00:00:00",
      "regBeginDtSpecified": true,
      "regEndDt": "2009-06-01T00:00:00",
      "regEndDtSpecified": true
    },
    {
      "BrnchOfLocs": [
        {
          "city": "BERWYN",
          "state": 39,
          "stateSpecified": true
        }
      ],
      "orgNm": "MORGAN STANLEY",
      "orgPK": "149777",
      "regBeginDt": "2009-06-01T00:00:00",
      "regBeginDtSpecified": true,
      "regEndDt": "2012-02-08T00:00:00",
      "regEndDtSpecified": true
    },
    {
      "BrnchOfLocs": [
        {
          "city": "ST. LOUIS",
          "state": 25,
          "stateSpecified": true
        }
      ],
      "orgNm": "FULCRUM ADVISORY SERVICES, LLC",
      "orgPK": "131777",
      "regBeginDt": "2012-02-06T00:00:00",
      "regBeginDtSpecified": true,
      "regEndDt": "2016-02-26T00:00:00",
      "regEndDtSpecified": true
    }
  ],
  "EmpHss": [
    {
      "fromDt": "10/2005",
      "toDt": "09/2006",
      "orgNm": "UNEMPLOYED",
      "city": "CHESTERBROOK",
      "state": 39,
      "stateSpecified": true
    },
    {
      "fromDt": "09/2006",
      "toDt": "10/2007",
      "orgNm": "PRIMERICA",
      "city": "FORT WASHINGTON",
      "state": 39,
      "stateSpecified": true
    },
    {
      "fromDt": "01/2007",
      "toDt": "02/2012",
      "orgNm": "CITIGROUP GLOBAL MARKETS INC.",
      "city": "BERWYN",
      "state": 39,
      "stateSpecified": true
    },
    {
      "fromDt": "06/2009",
      "toDt": "02/2012",
      "orgNm": "MORGAN STANLEY SMITH BARNEY",
      "city": "BERWYN",
      "state": 39,
      "stateSpecified": true
    },
    {
      "fromDt": "02/2012",
      "toDt": null,
      "orgNm": "FULCRUM SECURITIES, LLC",
      "city": "RADNOR",
      "state": 39,
      "stateSpecified": true
    },
    {
      "fromDt": "10/2015",
      "toDt": null,
      "orgNm": "RF Lafferty & Co Inc",
      "city": "New York",
      "state": 35,
      "stateSpecified": true
    }
  ],
  "OthrBuss": {
    "OthrBus": {
      "desc": "Registered Life and Health Insurance agent in the states of Pennsylvania, New Jersey, and South Carolina licensed as a sole proprietor.  Advising clients on non-investment related Medicare, Health and Disability Insurance products.  Starting July 1, 2016; spending approximately 10 hours a week during non securities trading hours.  Presenting, applying  and delivering insurance policies to individual clients."
    }
  },
  "DRPs": []
}