{
  "Info": {
    "lastNm": "SAYMAZ",
    "firstNm": "SAVAS",
    "midNm": null,
    "sufNm": null,
    "indvlPK": "5287942",
    "actvAGReg": 0,
    "link": "http://www.adviserinfo.sec.gov/IAPD/Individual/5287942"
  },
  "OthrNms": [],
  "CrntEmps": [
    {
      "CrntRgstns": [
        {
          "regAuth": 39,
          "regCat": 0,
          "st": 2,
          "stDt": "2014-04-24T00:00:00"
        }
      ],
      "BrnchOfLocs": [
        {
          "str1": "220 GIBRALTAR ROAD",
          "str2": "SUITE 350",
          "city": "HORSHAM",
          "state": 39,
          "stateSpecified": true,
          "cntry": "United States",
          "postlCd": "19044-2306"
        }
      ],
      "orgNm": "MML INVESTORS SERVICES, LLC",
      "orgPK": "10409",
      "str1": "1295 STATE STREET",
      "str2": null,
      "city": "SPRINGFIELD",
      "state": 20,
      "stateSpecified": true,
      "cntry": "United States",
      "postlCd": "01111-0001"
    }
  ],
  "Exms": [
    {
      "exmCd": 0,
      "exmNm": "Uniform Securities Agent State Law Examination",
      "exmDt": "2014-03-24T00:00:00",
      "exmDtSpecified": true
    }
  ],
  "Dsgntns": [
    {
      "dsgntnNm": "Chartered Financial Consultant"
    }
  ],
  "PrevRgstns": [
    {
      "BrnchOfLocs": [
        {
          "city": "CENTER VALLEY",
          "state": 39,
          "stateSpecified": true
        }
      ],
      "orgNm": "MML INVESTORS SERVICES, LLC",
      "orgPK": "10409",
      "regBeginDt": "2009-12-11T00:00:00",
      "regBeginDtSpecified": true,
      "regEndDt": "2011-12-31T00:00:00",
      "regEndDtSpecified": true
    }
  ],
  "EmpHss": [
    {
      "fromDt": "07/2006",
      "toDt": "01/2007",
      "orgNm": "SIGNAL TELECOMMUNICATIONS",
      "city": "WIND GAP",
      "state": 39,
      "stateSpecified": true
    },
    {
      "fromDt": "02/2007",
      "toDt": "12/2011",
      "orgNm": "MASSMUTUAL LIFE INSURANCE CO.",
      "city": "SPRINGFIELD",
      "state": 20,
      "stateSpecified": true
    },
    {
      "fromDt": "02/2007",
      "toDt": "12/2011",
      "orgNm": "MML INVESTORS SERVICES, INC",
      "city": "SPRINGFIELD",
      "state": 20,
      "stateSpecified": true
    },
    {
      "fromDt": "01/2012",
      "toDt": "01/2014",
      "orgNm": "UNEMPLOYED",
      "city": "WHITEHALL",
      "state": 39,
      "stateSpecified": true
    },
    {
      "fromDt": "02/2014",
      "toDt": null,
      "orgNm": "MASS MUTUAL LIFE INSURANCE COMPANY",
      "city": "HORSHAM",
      "state": 39,
      "stateSpecified": true
    },
    {
      "fromDt": "02/2014",
      "toDt": null,
      "orgNm": "MML INVESTORS SERVICES",
      "city": "HORSHAM",
      "state": 39,
      "stateSpecified": true
    }
  ],
  "OthrBuss": {
    "OthrBus": null
  },
  "DRPs": []
}