{
  "Info": {
    "lastNm": "MCKELVEY",
    "firstNm": "JACOB",
    "midNm": "MATTHEW",
    "sufNm": null,
    "indvlPK": "5288433",
    "actvAGReg": 0,
    "link": "http://www.adviserinfo.sec.gov/IAPD/Individual/5288433"
  },
  "OthrNms": [
    {
      "lastNm": "MCKELVEY",
      "firstNm": "JACOB",
      "midNm": null,
      "sufNm": null
    }
  ],
  "CrntEmps": [
    {
      "CrntRgstns": [
        {
          "regAuth": 10,
          "regCat": 0,
          "st": 2,
          "stDt": "2015-04-27T00:00:00"
        }
      ],
      "BrnchOfLocs": [
        {
          "str1": "3475 PIEDMONT ROAD NE",
          "str2": "STE 950 [G3-RBO]",
          "city": "ATLANTA",
          "state": 10,
          "stateSpecified": true,
          "cntry": "United States",
          "postlCd": "30305"
        },
        {
          "str1": "5825 STATE BRIDGE RD",
          "str2": null,
          "city": "DULUTH",
          "state": 10,
          "stateSpecified": true,
          "cntry": "United States",
          "postlCd": "30097"
        }
      ],
      "orgNm": "WELLS FARGO ADVISORS, LLC",
      "orgPK": "19616",
      "str1": "ONE NORTH JEFFERSON AVENUE",
      "str2": "MAIL CODE: H0004-050",
      "city": "ST. LOUIS",
      "state": 25,
      "stateSpecified": true,
      "cntry": "United States",
      "postlCd": "63103-2205"
    }
  ],
  "Exms": [
    {
      "exmCd": 0,
      "exmNm": "Uniform Securities Agent State Law Examination",
      "exmDt": "2007-05-30T00:00:00",
      "exmDtSpecified": true
    },
    {
      "exmCd": 2,
      "exmNm": "Uniform Investment Adviser Law Examination",
      "exmDt": "2007-06-07T00:00:00",
      "exmDtSpecified": true
    }
  ],
  "Dsgntns": [],
  "PrevRgstns": [
    {
      "BrnchOfLocs": [
        {
          "city": "DESTIN",
          "state": 9,
          "stateSpecified": true
        }
      ],
      "orgNm": "MORGAN STANLEY & CO. LLC",
      "orgPK": "8209",
      "regBeginDt": "2007-06-11T00:00:00",
      "regBeginDtSpecified": true,
      "regEndDt": "2008-06-02T00:00:00",
      "regEndDtSpecified": true
    },
    {
      "BrnchOfLocs": [
        {
          "city": "BELTON",
          "state": 42,
          "stateSpecified": true
        },
        {
          "city": "CLEMSON",
          "state": 42,
          "stateSpecified": true
        },
        {
          "city": "CLEMSON",
          "state": 42,
          "stateSpecified": true
        },
        {
          "city": "SENECA",
          "state": 42,
          "stateSpecified": true
        },
        {
          "city": "SENECA",
          "state": 42,
          "stateSpecified": true
        }
      ],
      "orgNm": "SUNTRUST INVESTMENT SERVICES, INC.",
      "orgPK": "17499",
      "regBeginDt": "2008-06-06T00:00:00",
      "regBeginDtSpecified": true,
      "regEndDt": "2009-06-15T00:00:00",
      "regEndDtSpecified": true
    },
    {
      "BrnchOfLocs": [
        {
          "city": "RALEIGH",
          "state": 28,
          "stateSpecified": true
        }
      ],
      "orgNm": "CIC ADVISERS, LLC",
      "orgPK": "130735",
      "regBeginDt": "2009-06-08T00:00:00",
      "regBeginDtSpecified": true,
      "regEndDt": "2009-09-17T00:00:00",
      "regEndDtSpecified": true
    },
    {
      "BrnchOfLocs": [
        {
          "city": "GREENVILLE",
          "state": 42,
          "stateSpecified": true
        }
      ],
      "orgNm": "RAYMOND JAMES FINANCIAL SERVICES ADVISORS, INC",
      "orgPK": "149018",
      "regBeginDt": "2009-09-18T00:00:00",
      "regBeginDtSpecified": true,
      "regEndDt": "2010-08-13T00:00:00",
      "regEndDtSpecified": true
    },
    {
      "BrnchOfLocs": [
        {
          "city": "GREENSBURG",
          "state": 39,
          "stateSpecified": true
        }
      ],
      "orgNm": "TRUSTMONT ADVISORY GROUP, INC.",
      "orgPK": "106015",
      "regBeginDt": "2010-08-23T00:00:00",
      "regBeginDtSpecified": true,
      "regEndDt": "2010-09-07T00:00:00",
      "regEndDtSpecified": true
    },
    {
      "BrnchOfLocs": [
        {
          "city": "MIRAMAR BEACH",
          "state": 9,
          "stateSpecified": true
        },
        {
          "city": "PANAMA CITY BEACH",
          "state": 9,
          "stateSpecified": true
        }
      ],
      "orgNm": "MORGAN KEEGAN & COMPANY, LLC",
      "orgPK": "4161",
      "regBeginDt": "2010-10-20T00:00:00",
      "regBeginDtSpecified": true,
      "regEndDt": "2012-07-23T00:00:00",
      "regEndDtSpecified": true
    },
    {
      "BrnchOfLocs": [
        {
          "city": "ATLANTA",
          "state": 10,
          "stateSpecified": true
        },
        {
          "city": "ATLANTA",
          "state": 10,
          "stateSpecified": true
        },
        {
          "city": "ATLANTA",
          "state": 10,
          "stateSpecified": true
        },
        {
          "city": "DECATUR",
          "state": 10,
          "stateSpecified": true
        },
        {
          "city": "DECATUR",
          "state": 10,
          "stateSpecified": true
        },
        {
          "city": "FAYETTEVILLE",
          "state": 10,
          "stateSpecified": true
        },
        {
          "city": "FAYETTEVILLE",
          "state": 10,
          "stateSpecified": true
        },
        {
          "city": "LAWRENCEVILLE",
          "state": 10,
          "stateSpecified": true
        },
        {
          "city": "LAWRENCEVILLE",
          "state": 10,
          "stateSpecified": true
        },
        {
          "city": "LAWRENCEVILLE",
          "state": 10,
          "stateSpecified": true
        },
        {
          "city": "LILBURN",
          "state": 10,
          "stateSpecified": true
        },
        {
          "city": "LILBURN",
          "state": 10,
          "stateSpecified": true
        },
        {
          "city": "MORROW",
          "state": 10,
          "stateSpecified": true
        },
        {
          "city": "MORROW",
          "state": 10,
          "stateSpecified": true
        },
        {
          "city": "SNELLVILLE",
          "state": 10,
          "stateSpecified": true
        },
        {
          "city": "SNELLVILLE",
          "state": 10,
          "stateSpecified": true
        },
        {
          "city": "STOCKBRIDGE",
          "state": 10,
          "stateSpecified": true
        }
      ],
      "orgNm": "PNC INVESTMENTS",
      "orgPK": "129052",
      "regBeginDt": "2013-01-14T00:00:00",
      "regBeginDtSpecified": true,
      "regEndDt": "2015-04-13T00:00:00",
      "regEndDtSpecified": true
    }
  ],
  "EmpHss": [
    {
      "fromDt": "11/2005",
      "toDt": "12/2006",
      "orgNm": "ABWIN MORTGAGE",
      "city": "FORT WALTON",
      "state": 9,
      "stateSpecified": true
    },
    {
      "fromDt": "02/2006",
      "toDt": "10/2007",
      "orgNm": "DAILY NEWS",
      "city": "FORT WALTON",
      "state": 9,
      "stateSpecified": true
    },
    {
      "fromDt": "12/2006",
      "toDt": "01/2007",
      "orgNm": "D.R. HORTON",
      "city": "PENSACOLA",
      "state": 9,
      "stateSpecified": true
    },
    {
      "fromDt": "01/2007",
      "toDt": "04/2007",
      "orgNm": "MORGAN STANLEY DW INC.",
      "city": "DESTIN",
      "state": 9,
      "stateSpecified": true
    },
    {
      "fromDt": "04/2007",
      "toDt": "05/2008",
      "orgNm": "MORGAN STANLEY & CO., INCORPORATED",
      "city": "DESTIN",
      "state": 9,
      "stateSpecified": true
    },
    {
      "fromDt": "06/2008",
      "toDt": "06/2009",
      "orgNm": "SUNTRUST INVESTMENT SERVIICES, INC",
      "city": "ATLANTA",
      "state": 10,
      "stateSpecified": true
    },
    {
      "fromDt": "06/2009",
      "toDt": "09/2009",
      "orgNm": "CAPITAL INVESTMENT GROUP, INC.",
      "city": "GREENVILLE",
      "state": 42,
      "stateSpecified": true
    },
    {
      "fromDt": "09/2009",
      "toDt": "08/2010",
      "orgNm": "RAYMOND JAMES FINANCIAL SERVICES",
      "city": "GREENVILLE",
      "state": 42,
      "stateSpecified": true
    },
    {
      "fromDt": "08/2010",
      "toDt": "09/2010",
      "orgNm": "TRUSTMONT ADVISORY GROUP, INC",
      "city": "GREENSBURG",
      "state": 39,
      "stateSpecified": true
    },
    {
      "fromDt": "08/2010",
      "toDt": "09/2010",
      "orgNm": "TRUSTMONT FINANCIAL GROUP, INC.",
      "city": "GREENSBURG",
      "state": 39,
      "stateSpecified": true
    },
    {
      "fromDt": "09/2010",
      "toDt": "07/2012",
      "orgNm": "MORGAN KEEGAN & CO",
      "city": "DESTIN",
      "state": 9,
      "stateSpecified": true
    },
    {
      "fromDt": "07/2012",
      "toDt": "01/2013",
      "orgNm": "REGIONS BANK",
      "city": "DESTIN",
      "state": 9,
      "stateSpecified": true
    },
    {
      "fromDt": "01/2013",
      "toDt": "04/2015",
      "orgNm": "PNC INVESTMENTS",
      "city": "PITTSBURGH",
      "state": 39,
      "stateSpecified": true
    },
    {
      "fromDt": "04/2015",
      "toDt": null,
      "orgNm": "WELLS FARGO ADVISORS, LLC",
      "city": "ATLANTA",
      "state": 10,
      "stateSpecified": true
    }
  ],
  "OthrBuss": {
    "OthrBus": null
  },
  "DRPs": [
    {
      "hasRegAction": 1,
      "hasRegActionSpecified": true,
      "hasCriminal": 1,
      "hasCriminalSpecified": true,
      "hasBankrupt": 1,
      "hasBankruptSpecified": true,
      "hasCivilJudc": 1,
      "hasCivilJudcSpecified": true,
      "hasBond": 1,
      "hasBondSpecified": true,
      "hasJudgment": 1,
      "hasJudgmentSpecified": true,
      "hasInvstgn": 1,
      "hasInvstgnSpecified": true,
      "hasCustComp": 1,
      "hasCustCompSpecified": true,
      "hasTermination": 0,
      "hasTerminationSpecified": true
    }
  ]
}