{
  "Info": {
    "lastNm": "MANDLY",
    "firstNm": "JUSTIN",
    "midNm": "RODMAN",
    "sufNm": null,
    "indvlPK": "5293625",
    "actvAGReg": 1,
    "link": "http://www.adviserinfo.sec.gov/IAPD/Individual/5293625"
  },
  "OthrNms": [],
  "CrntEmps": [
    {
      "CrntRgstns": [
        {
          "regAuth": 4,
          "regCat": 0,
          "st": 2,
          "stDt": "2007-05-07T00:00:00"
        }
      ],
      "BrnchOfLocs": [
        {
          "str1": "200 S. WACKER DRIVE",
          "str2": "SUITE 2300",
          "city": "CHICAGO",
          "state": 15,
          "stateSpecified": true,
          "cntry": "United States",
          "postlCd": "60606-5864"
        }
      ],
      "orgNm": "BROWNSON, REHMUS & FOXWORTH, INC.",
      "orgPK": "110608",
      "str1": "200 S. WACKER DRIVE",
      "str2": "SUITE 2300",
      "city": "CHICAGO",
      "state": 15,
      "stateSpecified": true,
      "cntry": "United States",
      "postlCd": "60606-5864"
    }
  ],
  "Exms": [
    {
      "exmCd": 2,
      "exmNm": "Uniform Investment Adviser Law Examination",
      "exmDt": "2007-05-04T00:00:00",
      "exmDtSpecified": true
    }
  ],
  "Dsgntns": [],
  "PrevRgstns": [],
  "EmpHss": [
    {
      "fromDt": "06/2002",
      "toDt": "10/2006",
      "orgNm": "HSBC",
      "city": "SAN FRANCISCO",
      "state": 4,
      "stateSpecified": true
    },
    {
      "fromDt": "11/2006",
      "toDt": null,
      "orgNm": "BROWNSON, REHMUS & FOXWORTH, INC.",
      "city": "MENLO PARK",
      "state": 4,
      "stateSpecified": true
    }
  ],
  "OthrBuss": {
    "OthrBus": null
  },
  "DRPs": []
}