{
  "Info": {
    "lastNm": "MALLOY",
    "firstNm": "DONALD",
    "midNm": "EDWIN",
    "sufNm": null,
    "indvlPK": "5298353",
    "actvAGReg": 0,
    "link": "http://www.adviserinfo.sec.gov/IAPD/Individual/5298353"
  },
  "OthrNms": [],
  "CrntEmps": [
    {
      "CrntRgstns": [
        {
          "regAuth": 4,
          "regCat": 0,
          "st": 2,
          "stDt": "2012-01-06T00:00:00"
        }
      ],
      "BrnchOfLocs": [
        {
          "str1": "765 THE CITY DRIVE SOUTH",
          "str2": "SUITE 100-A",
          "city": "ORANGE",
          "state": 4,
          "stateSpecified": true,
          "cntry": "United States",
          "postlCd": "92868"
        }
      ],
      "orgNm": "TRANSAMERICA FINANCIAL ADVISORS, INC",
      "orgPK": "16164",
      "str1": "570 CARILLON PARKWAY",
      "str2": null,
      "city": "ST PETERSBURG",
      "state": 9,
      "stateSpecified": true,
      "cntry": "United States",
      "postlCd": "33716-1202"
    }
  ],
  "Exms": [
    {
      "exmCd": 0,
      "exmNm": "Uniform Securities Agent State Law Examination",
      "exmDt": "2009-12-22T00:00:00",
      "exmDtSpecified": true
    },
    {
      "exmCd": 2,
      "exmNm": "Uniform Investment Adviser Law Examination",
      "exmDt": "2009-12-23T00:00:00",
      "exmDtSpecified": true
    }
  ],
  "Dsgntns": [],
  "PrevRgstns": [
    {
      "BrnchOfLocs": [
        {
          "city": "SAN JOSE",
          "state": 4,
          "stateSpecified": true
        },
        {
          "city": "SAN JOSE",
          "state": 4,
          "stateSpecified": true
        }
      ],
      "orgNm": "INVESTMENT ADVISORS INTERNATIONAL, INC.",
      "orgPK": "139233",
      "regBeginDt": "2010-02-01T00:00:00",
      "regBeginDtSpecified": true,
      "regEndDt": "2011-08-24T00:00:00",
      "regEndDtSpecified": true
    },
    {
      "BrnchOfLocs": [
        {
          "city": "SAN JOSE",
          "state": 4,
          "stateSpecified": true
        }
      ],
      "orgNm": "INVESTMENT ADVISORS INTERNATIONAL, INC.",
      "orgPK": "139233",
      "regBeginDt": "2011-10-19T00:00:00",
      "regBeginDtSpecified": true,
      "regEndDt": "2012-01-06T00:00:00",
      "regEndDtSpecified": true
    }
  ],
  "EmpHss": [
    {
      "fromDt": "08/2005",
      "toDt": "09/2006",
      "orgNm": "NCRYPTONE",
      "city": "PARIS",
      "stateSpecified": false
    },
    {
      "fromDt": "09/2006",
      "toDt": "03/2008",
      "orgNm": "INNOVATIVE CARD TECHNOLOGIES",
      "city": "LOS ANGELES",
      "state": 4,
      "stateSpecified": true
    },
    {
      "fromDt": "02/2007",
      "toDt": "08/2011",
      "orgNm": "WORLD FINANCIAL GROUP, INC.",
      "city": "SAN JOSE",
      "state": 4,
      "stateSpecified": true
    },
    {
      "fromDt": "02/2007",
      "toDt": "08/2011",
      "orgNm": "WORLD GROUP SECURITIES, INC.",
      "city": "SAN JOSE",
      "state": 4,
      "stateSpecified": true
    },
    {
      "fromDt": "01/2009",
      "toDt": null,
      "orgNm": "INITIATIVE FOR OPEN AUTHENTICATION",
      "city": "SAN JOSE",
      "state": 4,
      "stateSpecified": true
    },
    {
      "fromDt": "10/2009",
      "toDt": "03/2013",
      "orgNm": "NAGRA ID",
      "city": "LOS ANGELES",
      "state": 4,
      "stateSpecified": true
    },
    {
      "fromDt": "02/2010",
      "toDt": "08/2011",
      "orgNm": "INVESTMENT ADVISORS INTERNATIONAL, INC.",
      "city": "SAN JOSE",
      "state": 4,
      "stateSpecified": true
    },
    {
      "fromDt": "06/2011",
      "toDt": null,
      "orgNm": "NATURES SUNSHINE PRODUCTS",
      "city": "PROVO",
      "state": 46,
      "stateSpecified": true
    },
    {
      "fromDt": "09/2011",
      "toDt": null,
      "orgNm": "WORLD FINANCIAL GROUP, INC.",
      "city": "ORANGE",
      "state": 4,
      "stateSpecified": true
    },
    {
      "fromDt": "09/2011",
      "toDt": "01/2012",
      "orgNm": "WORLD GROUP SECURITIES, INC.",
      "city": "SAN JOSE",
      "state": 4,
      "stateSpecified": true
    },
    {
      "fromDt": "10/2011",
      "toDt": "01/2012",
      "orgNm": "INVESTMENT ADVISORS INTERNATIONAL, INC.",
      "city": "SAN JOSE",
      "state": 4,
      "stateSpecified": true
    },
    {
      "fromDt": "01/2012",
      "toDt": null,
      "orgNm": "TRANSAMERICA FINANCIAL ADVISORS, INC",
      "city": "ORANGE",
      "state": 4,
      "stateSpecified": true
    },
    {
      "fromDt": "03/2013",
      "toDt": "09/2013",
      "orgNm": "KOBIL TECHNOLOGIES, INC.",
      "city": "SAN FRANCISCO",
      "state": 4,
      "stateSpecified": true
    },
    {
      "fromDt": "09/2013",
      "toDt": "03/2014",
      "orgNm": "DIRECT RM, LLC.",
      "city": "ALISO VIEJO",
      "state": 4,
      "stateSpecified": true
    },
    {
      "fromDt": "02/2014",
      "toDt": "06/2015",
      "orgNm": "ZWIPE",
      "city": "ANAHEIM",
      "state": 4,
      "stateSpecified": true
    },
    {
      "fromDt": "04/2014",
      "toDt": "06/2015",
      "orgNm": "ZWIPE AS",
      "city": "OSLO, NORWAY",
      "stateSpecified": false
    },
    {
      "fromDt": "06/2014",
      "toDt": "05/2015",
      "orgNm": "LOGIN PEOPLE",
      "city": "SAN FRANCISCO",
      "state": 4,
      "stateSpecified": true
    },
    {
      "fromDt": "07/2015",
      "toDt": null,
      "orgNm": "LSE LEADING SECURITY EXPERS GMBH",
      "city": "WEITERSTADT",
      "state": 4,
      "stateSpecified": true
    }
  ],
  "OthrBuss": {
    "OthrBus": {
      "desc": "1)LSE LEADING SECURITY EXPERTS GMBH: 07/6/2015; NOT RELATED; BUSINESS DEVELOPMENT; ROBERT-KOCH_STRAFE 9, WEITERSTADT, CA 64331; 80 HRS/MO, 2 HRS TRADING; PRESENT COMPAN AT INDUSTRY CONFERENCES AND TRADE SHOWS, MEET WITH PROSPECTIVE CUSTOMERS."
    }
  },
  "DRPs": []
}