{
  "Info": {
    "lastNm": "PASSMORE",
    "firstNm": "ANDREW",
    "midNm": "SCOTT",
    "sufNm": null,
    "indvlPK": "5309129",
    "actvAGReg": 0,
    "link": "http://www.adviserinfo.sec.gov/IAPD/Individual/5309129"
  },
  "OthrNms": [],
  "CrntEmps": [
    {
      "CrntRgstns": [
        {
          "regAuth": 1,
          "regCat": 0,
          "st": 2,
          "stDt": "2010-04-30T00:00:00"
        }
      ],
      "BrnchOfLocs": [
        {
          "str1": "3662 DAUPHIN STREET",
          "str2": "SUITE A-1",
          "city": "MOBILE",
          "state": 1,
          "stateSpecified": true,
          "cntry": "United States",
          "postlCd": "36608"
        }
      ],
      "orgNm": "PROEQUITIES, INC.",
      "orgPK": "15708",
      "str1": "2801 HIGHWAY 280 SOUTH",
      "str2": null,
      "city": "BIRMINGHAM",
      "state": 1,
      "stateSpecified": true,
      "cntry": "United States",
      "postlCd": "35223"
    }
  ],
  "Exms": [
    {
      "exmCd": 0,
      "exmNm": "Uniform Securities Agent State Law Examination",
      "exmDt": "2008-10-02T00:00:00",
      "exmDtSpecified": true
    },
    {
      "exmCd": 3,
      "exmNm": "Uniform Combined State Law Examination",
      "exmDt": "2012-06-28T00:00:00",
      "exmDtSpecified": true
    }
  ],
  "Dsgntns": [
    {
      "dsgntnNm": "Certified Financial Planner"
    }
  ],
  "PrevRgstns": [
    {
      "BrnchOfLocs": [
        {
          "city": "BIRMINGHAM",
          "state": 1,
          "stateSpecified": true
        }
      ],
      "orgNm": "KINSIGHT, LLC",
      "orgPK": "116047",
      "regBeginDt": "2007-03-19T00:00:00",
      "regBeginDtSpecified": true,
      "regEndDt": "2008-05-23T00:00:00",
      "regEndDtSpecified": true
    },
    {
      "BrnchOfLocs": [
        {
          "city": "MOBILE",
          "state": 1,
          "stateSpecified": true
        },
        {
          "city": "RIDGELAND",
          "state": 26,
          "stateSpecified": true
        }
      ],
      "orgNm": "MML INVESTORS SERVICES, LLC",
      "orgPK": "10409",
      "regBeginDt": "2008-10-07T00:00:00",
      "regBeginDtSpecified": true,
      "regEndDt": "2010-05-05T00:00:00",
      "regEndDtSpecified": true
    }
  ],
  "EmpHss": [
    {
      "fromDt": "06/2004",
      "toDt": "08/2008",
      "orgNm": "CHARLES D. HAINES",
      "city": "HOMEWOOD",
      "state": 1,
      "stateSpecified": true
    },
    {
      "fromDt": "09/2008",
      "toDt": "04/2010",
      "orgNm": "MML INVESTOR SERVICES, INC.",
      "city": "MOBILE",
      "state": 1,
      "stateSpecified": true
    },
    {
      "fromDt": "04/2010",
      "toDt": null,
      "orgNm": "PROEQUITIES, INC",
      "city": "MOBILE",
      "state": 1,
      "stateSpecified": true
    },
    {
      "fromDt": "05/2010",
      "toDt": null,
      "orgNm": "PASSMORE PLANNING PROFESSIONALS",
      "city": "MOBILE",
      "state": 1,
      "stateSpecified": true
    }
  ],
  "OthrBuss": {
    "OthrBus": {
      "desc": "DBA AND INSURANCE: PASSMORE PLANNING PROFESSIONALS; INVESTMENT RELATED; 3662 DAUPHIN STREET, SUITE 1-A MOBILE, AL 36608; BUILD, PRESENT AND HELP TO IMPLEMENT COORDINATED FINANCIAL PLANS; FINANCIAL PLANNER; STARTED 6/2010; 160 HRS/MO.   MOBILE JAYCEES, AZALEA TRAIL  POSITION: BOARD MEMBER: CIVIC INVESTMENT RELATED: NO NUMBER OF HOURS: 2 INVESTMENT RELATED HOURS: 0 START DATE: 04/01/2011  ADDRESS: 600 BEL AIR BLVD # 120, MOBILE AL 36606  DESCRIPTION: GUIDE AND DIRECT THE MOBILE AZALEA TRAIL MAIDS IN LOCAL AND NATIONAL APPEARANCES. THE MOBILE AZALEA TRAIL MAIDS SERVE AS THE OFFICIAL AMBASSADORS OF MOBILE, AL.    SAVE A STRAY  POSITION: Board Member NATURE: Stray animal adoptions INVESTMENT RELATED: No NUMBER OF HOURS: 1 SECURITIES TRADING HOURS: 0 START DATE: 01/01/2015  ADDRESS: 3488 Springhill Avenue, Mobile AL 36608  DESCRIPTION: The organization places stray animals in out of state homes. I am a board member oversees the organization's business operations.    ESTATE PLANNING COUNCIL OF MOBILE   POSITION:BOARD MEMBER  START DATE:  1/14/2014  NUMBER OF HOURS: 1  ADDRESS:  170 ST. FRANCIS STREET  MOBILE, AL 36602  DESCRIPTION:  HELP OVERSEE ORGANIZATION'S OPERATIONS.  ASSIST WITH ANNUAL SEMINAR.    SPRING HILL METHODIST CHURCH  ADDRESS: 2519 SPRING HILL AVENUE, MOBILE, AL  36607  POSITION:  STAFF, PASTOR PARISH RELATIONS  NUMBER OF HOURS: 1 HOUR PER MONTH  DESCRIPTION: COMMITTEE THAT HIRES AND RETAINS FACULTY FOR THE CHURCH."
    }
  },
  "DRPs": []
}