{
  "Info": {
    "lastNm": "BRAY",
    "firstNm": "ANDREW",
    "midNm": "PATRICK",
    "sufNm": null,
    "indvlPK": "5318533",
    "actvAGReg": 0,
    "link": "http://www.adviserinfo.sec.gov/IAPD/Individual/5318533"
  },
  "OthrNms": [],
  "CrntEmps": [
    {
      "CrntRgstns": [
        {
          "regAuth": 28,
          "regCat": 0,
          "st": 2,
          "stDt": "2010-05-19T00:00:00"
        },
        {
          "regAuth": 45,
          "regCat": 0,
          "st": 2,
          "stDt": "2013-09-25T00:00:00"
        }
      ],
      "BrnchOfLocs": [
        {
          "str1": "3903 NORTH ELM STREET, #200",
          "str2": null,
          "city": "GREENSBORO",
          "state": 28,
          "stateSpecified": true,
          "cntry": "United States",
          "postlCd": "27455"
        }
      ],
      "orgNm": "LPL FINANCIAL LLC",
      "orgPK": "6413",
      "str1": "75 STATE STREET, 22ND FLOOR",
      "str2": null,
      "city": "BOSTON",
      "state": 20,
      "stateSpecified": true,
      "cntry": "United States",
      "postlCd": "02109"
    }
  ],
  "Exms": [
    {
      "exmCd": 3,
      "exmNm": "Uniform Combined State Law Examination",
      "exmDt": "2007-08-22T00:00:00",
      "exmDtSpecified": true
    }
  ],
  "Dsgntns": [],
  "PrevRgstns": [
    {
      "BrnchOfLocs": [
        {
          "city": "Braintree",
          "state": 20,
          "stateSpecified": true
        },
        {
          "city": "STATESVILLE",
          "state": 28,
          "stateSpecified": true
        }
      ],
      "orgNm": "AMERIPRISE FINANCIAL SERVICES, INC.",
      "orgPK": "6363",
      "regBeginDt": "2008-09-05T00:00:00",
      "regBeginDtSpecified": true,
      "regEndDt": "2010-05-11T00:00:00",
      "regEndDtSpecified": true
    }
  ],
  "EmpHss": [
    {
      "fromDt": "10/2005",
      "toDt": "03/2007",
      "orgNm": "THE BULFINCH COMPANIES",
      "city": "NEEDHAM",
      "state": 20,
      "stateSpecified": true
    },
    {
      "fromDt": "09/2006",
      "toDt": "12/2007",
      "orgNm": "BENTLEY COLLEGE",
      "city": "WALTHAM",
      "state": 20,
      "stateSpecified": true
    },
    {
      "fromDt": "02/2007",
      "toDt": "08/2008",
      "orgNm": "AMERIPRISE FINANCIAL SERVICES INC.",
      "city": "MILTON",
      "state": 20,
      "stateSpecified": true
    },
    {
      "fromDt": "08/2008",
      "toDt": "04/2010",
      "orgNm": "AMERIPRISE FINANCIAL SERVICES INC",
      "city": "STATESVILLE",
      "state": 28,
      "stateSpecified": true
    },
    {
      "fromDt": "04/2010",
      "toDt": null,
      "orgNm": "LPL FINANCIAL",
      "city": "GREENSBORO",
      "state": 28,
      "stateSpecified": true
    }
  ],
  "OthrBuss": {
    "OthrBus": {
      "desc": "1. 05/17/10 - COMPASS FINANCIAL PARTNERS, LLC/ DBA ONLY/ GREENSBORO, NC"
    }
  },
  "DRPs": []
}