{
  "Info": {
    "lastNm": "KELLY",
    "firstNm": "LAURA",
    "midNm": "JEAN",
    "sufNm": null,
    "indvlPK": "5321371",
    "actvAGReg": 1,
    "link": "http://www.adviserinfo.sec.gov/IAPD/Individual/5321371"
  },
  "OthrNms": [
    {
      "lastNm": "KELLY",
      "firstNm": "LAURA",
      "midNm": null,
      "sufNm": null
    }
  ],
  "CrntEmps": [
    {
      "CrntRgstns": [
        {
          "regAuth": 4,
          "regCat": 0,
          "st": 2,
          "stDt": "2007-04-09T00:00:00"
        }
      ],
      "BrnchOfLocs": [
        {
          "str1": null,
          "str2": null,
          "city": "CARMEL",
          "state": 4,
          "stateSpecified": true,
          "cntry": "United States",
          "postlCd": null
        }
      ],
      "orgNm": "EVANSON ASSET MANAGEMENT, LLC",
      "orgPK": "135188",
      "str1": null,
      "str2": null,
      "city": "CARMEL",
      "state": 4,
      "stateSpecified": true,
      "cntry": "United States",
      "postlCd": null
    }
  ],
  "Exms": [
    {
      "exmCd": 2,
      "exmNm": "Uniform Investment Adviser Law Examination",
      "exmDt": "2006-06-28T00:00:00",
      "exmDtSpecified": true
    }
  ],
  "Dsgntns": [],
  "PrevRgstns": [],
  "EmpHss": [
    {
      "fromDt": "04/2006",
      "toDt": null,
      "orgNm": "EVANSON ASSET MANAGEMENT, LLC",
      "city": "CARMEL",
      "state": 4,
      "stateSpecified": true
    }
  ],
  "OthrBuss": {
    "OthrBus": null
  },
  "DRPs": []
}