{
  "Info": {
    "lastNm": "BRICKLEY",
    "firstNm": "AARON",
    "midNm": "MICHAEL",
    "sufNm": null,
    "indvlPK": "5326096",
    "actvAGReg": 0,
    "link": "http://www.adviserinfo.sec.gov/IAPD/Individual/5326096"
  },
  "OthrNms": [
    {
      "lastNm": "BROCKLEY",
      "firstNm": "AARON",
      "midNm": "MICHAEL",
      "sufNm": null
    }
  ],
  "CrntEmps": [
    {
      "CrntRgstns": [
        {
          "regAuth": 4,
          "regCat": 0,
          "st": 2,
          "stDt": "2011-04-21T00:00:00"
        }
      ],
      "BrnchOfLocs": [
        {
          "str1": "1900 O'FARRELL STREET #330",
          "str2": null,
          "city": "SAN MATEO",
          "state": 4,
          "stateSpecified": true,
          "cntry": "United States",
          "postlCd": "94403-1376"
        }
      ],
      "orgNm": "LPL FINANCIAL LLC",
      "orgPK": "6413",
      "str1": "75 STATE STREET, 22ND FLOOR",
      "str2": null,
      "city": "BOSTON",
      "state": 20,
      "stateSpecified": true,
      "cntry": "United States",
      "postlCd": "02109"
    }
  ],
  "Exms": [
    {
      "exmCd": 3,
      "exmNm": "Uniform Combined State Law Examination",
      "exmDt": "2007-11-15T00:00:00",
      "exmDtSpecified": true
    }
  ],
  "Dsgntns": [],
  "PrevRgstns": [
    {
      "BrnchOfLocs": [
        {
          "city": "IRVINE",
          "state": 4,
          "stateSpecified": true
        }
      ],
      "orgNm": "AMERIPRISE FINANCIAL SERVICES, INC.",
      "orgPK": "6363",
      "regBeginDt": "2007-11-16T00:00:00",
      "regBeginDtSpecified": true,
      "regEndDt": "2008-03-18T00:00:00",
      "regEndDtSpecified": true
    },
    {
      "BrnchOfLocs": [
        {
          "city": "LOS ANGELES",
          "state": 4,
          "stateSpecified": true
        },
        {
          "city": "SHERMAN OAKS",
          "state": 4,
          "stateSpecified": true
        }
      ],
      "orgNm": "UNIONBANC INVESTMENT SERVICES, LLC",
      "orgPK": "14455",
      "regBeginDt": "2008-06-05T00:00:00",
      "regBeginDtSpecified": true,
      "regEndDt": "2011-04-25T00:00:00",
      "regEndDtSpecified": true
    }
  ],
  "EmpHss": [
    {
      "fromDt": "06/2003",
      "toDt": "05/2007",
      "orgNm": "LOYOLA MARYMOUNT",
      "city": "LOS ANGELES",
      "state": 4,
      "stateSpecified": true
    },
    {
      "fromDt": "01/2006",
      "toDt": "05/2007",
      "orgNm": "LOYOLA MARYMOUNT UNIVERSITY",
      "city": "LOS ANGELES",
      "state": 4,
      "stateSpecified": true
    },
    {
      "fromDt": "05/2006",
      "toDt": "08/2006",
      "orgNm": "SOUTH BAY BROKERS",
      "city": "LOS ANGELES",
      "state": 4,
      "stateSpecified": true
    },
    {
      "fromDt": "05/2007",
      "toDt": "10/2007",
      "orgNm": "UNEMPLOYED",
      "city": "LOS ANGELES",
      "state": 4,
      "stateSpecified": true
    },
    {
      "fromDt": "10/2007",
      "toDt": "03/2008",
      "orgNm": "AMERIPRISE FINANCIAL SERVICES,INC.",
      "city": "LOS ANGELES",
      "state": 4,
      "stateSpecified": true
    },
    {
      "fromDt": "03/2008",
      "toDt": "05/2008",
      "orgNm": "UNEMPLOYED",
      "city": "LOS ANGELES",
      "state": 4,
      "stateSpecified": true
    },
    {
      "fromDt": "06/2008",
      "toDt": "04/2011",
      "orgNm": "UNIONBANC INVESTMENT SERVICES",
      "city": "LOS ANGELES",
      "state": 4,
      "stateSpecified": true
    },
    {
      "fromDt": "04/2011",
      "toDt": null,
      "orgNm": "LPL FINANCIAL LLC",
      "city": "SAN MATEO",
      "state": 4,
      "stateSpecified": true
    }
  ],
  "OthrBuss": {
    "OthrBus": {
      "desc": "1. 9/4/2013 - DBA ONLY - BRICKLEY WEALTH MANAGEMENT, LLC - SAN MATEO, CA.  2. 9/15/2013: REAL ESTATE RENTAL - ANNE BRICKLEY REVOCABLE TRUST - I ASSIST MY GRANDMOTHER, ANNE BRICKLEY, IN LEASING HER FORMER SF RESIDENCE TO NON-CLIENT TENANTS.  IT IS A SINGLE FAMILY RESIDENCE. - TIME SPENT 1%."
    }
  },
  "DRPs": []
}