{
  "Info": {
    "lastNm": "PALKO",
    "firstNm": "JOSEPH",
    "midNm": "LOUIS",
    "sufNm": null,
    "indvlPK": "5335335",
    "actvAGReg": 0,
    "link": "http://www.adviserinfo.sec.gov/IAPD/Individual/5335335"
  },
  "OthrNms": [],
  "CrntEmps": [
    {
      "CrntRgstns": [
        {
          "regAuth": 21,
          "regCat": 0,
          "st": 2,
          "stDt": "2013-02-27T00:00:00"
        }
      ],
      "BrnchOfLocs": [
        {
          "str1": "1301 EAST 9TH STREET",
          "str2": "SUITE 3700",
          "city": "CLEVELAND",
          "state": 36,
          "stateSpecified": true,
          "cntry": "USA",
          "postlCd": "44114"
        },
        {
          "str1": "1301 EAST 9TH STREET",
          "str2": "SUITE 3700",
          "city": "CLEVELAND",
          "state": 36,
          "stateSpecified": true,
          "cntry": "United States",
          "postlCd": "44114"
        },
        {
          "str1": "1301 East 9th Street",
          "str2": "Suite 3700",
          "city": "CLEVELAND",
          "state": 36,
          "stateSpecified": true,
          "cntry": "United States",
          "postlCd": "44114"
        }
      ],
      "orgNm": "MCDONALD PARTNERS LLC",
      "orgPK": "135414",
      "str1": "1301 EAST 9TH STREET",
      "str2": "SUITE 3700",
      "city": "CLEVELAND",
      "state": 36,
      "stateSpecified": true,
      "cntry": "United States",
      "postlCd": "44114"
    }
  ],
  "Exms": [
    {
      "exmCd": 3,
      "exmNm": "Uniform Combined State Law Examination",
      "exmDt": "2007-07-18T00:00:00",
      "exmDtSpecified": true
    }
  ],
  "Dsgntns": [
    {
      "dsgntnNm": "Certified Financial Planner"
    }
  ],
  "PrevRgstns": [
    {
      "BrnchOfLocs": [
        {
          "city": "CLEVELAND",
          "state": 36,
          "stateSpecified": true
        }
      ],
      "orgNm": "UBS FINANCIAL SERVICES INC.",
      "orgPK": "8174",
      "regBeginDt": "2007-07-19T00:00:00",
      "regBeginDtSpecified": true,
      "regEndDt": "2013-02-25T00:00:00",
      "regEndDtSpecified": true
    }
  ],
  "EmpHss": [
    {
      "fromDt": "02/1997",
      "toDt": "04/2007",
      "orgNm": "CONNECTICUT RESERVE TECHNOLOGIES",
      "city": "CLEVELAND",
      "state": 36,
      "stateSpecified": true
    },
    {
      "fromDt": "01/2005",
      "toDt": "04/2007",
      "orgNm": "JR UNLIMITED ENTERPRISES",
      "city": "STRONGSVILLE",
      "state": 36,
      "stateSpecified": true
    },
    {
      "fromDt": "04/2007",
      "toDt": "02/2013",
      "orgNm": "UBS FINANCIAL SERVICES INC",
      "city": "CLEVELAND",
      "state": 36,
      "stateSpecified": true
    },
    {
      "fromDt": "02/2013",
      "toDt": null,
      "orgNm": "MCDONALD PARTNERS LLC",
      "city": "CLEVELAND",
      "state": 36,
      "stateSpecified": true
    }
  ],
  "OthrBuss": {
    "OthrBus": {
      "desc": "1)CLEVELAND ENGINEERING SOCIETY / 3500 LORAIN RD. CLEVELAND, OH 44113 / ASSOCIATION (I.E., TRADE OR INDUSTRY, SPORT...) / ENGINEERING (AEROSPACE, MACHINERY & EQUIPMENT, PRECISION ENGINEERING, WATCHES & JEWELLERY)   / LOCAL ENGINEERING SOCIETY / MEMBER OF BOARD OF DIRECTORS   / MEETINGS AND DIRECTION FOR SOCIETY. / START DATE 06/19/2012 - 06/01/2015.  2) CROWN POINT / PO BOX 4843220 IRA ROAD BATH, OH 44210/ BOARD MEMBER / START DATE 04/08/2008/ 4 HRS."
    }
  },
  "DRPs": []
}