{
  "Info": {
    "lastNm": "CARTER",
    "firstNm": "SHANNON",
    "midNm": "DAWN",
    "sufNm": null,
    "indvlPK": "5345182",
    "actvAGReg": 1,
    "link": "http://www.adviserinfo.sec.gov/IAPD/Individual/5345182"
  },
  "OthrNms": [],
  "CrntEmps": [
    {
      "CrntRgstns": [
        {
          "regAuth": 37,
          "regCat": 0,
          "st": 2,
          "stDt": "2007-09-10T00:00:00"
        },
        {
          "regAuth": 45,
          "regCat": 0,
          "st": 3,
          "stDt": "2013-03-04T00:00:00"
        },
        {
          "regAuth": 19,
          "regCat": 0,
          "st": 2,
          "stDt": "2013-03-22T00:00:00"
        }
      ],
      "BrnchOfLocs": [
        {
          "str1": "5100 N CLASSEN BOULEVARD",
          "str2": "SUITE 600",
          "city": "OKLAHOMA CITY",
          "state": 37,
          "stateSpecified": true,
          "cntry": "United States",
          "postlCd": "73118"
        }
      ],
      "orgNm": "INVESTRUST CONSULTING, LLC",
      "orgPK": "108037",
      "str1": "5100 N CLASSEN BOULEVARD",
      "str2": "SUITE 600",
      "city": "OKLAHOMA CITY",
      "state": 37,
      "stateSpecified": true,
      "cntry": "United States",
      "postlCd": "73118"
    }
  ],
  "Exms": [
    {
      "exmCd": 2,
      "exmNm": "Uniform Investment Adviser Law Examination",
      "exmDt": "2007-09-07T00:00:00",
      "exmDtSpecified": true
    }
  ],
  "Dsgntns": [],
  "PrevRgstns": [],
  "EmpHss": [
    {
      "fromDt": "10/2004",
      "toDt": null,
      "orgNm": "ASSET SERVICES COMPANY",
      "city": "OKLAHOMA CITY",
      "state": 37,
      "stateSpecified": true
    }
  ],
  "OthrBuss": {
    "OthrBus": {
      "desc": "THIS BUSINESS IS NOT INVESTMENT RELATED. ADJUNCT PROFESSOR FOR SNU IN OKC, SOUTHERN NAZARENE UNIVERSITY, 6729 NW 39TH EXPRESSWAY, BETHANY, OK 73008, SNU IS UNIVERSITY, APPROX 20-25 HOURS PER MONTH ARE DEVOTED TO TEACHING WHEN A CLASS IS SCHEDULED, WHICH IS NOT EVERY MONTH. MY DUTIES ARE TO TEACH THE CONCEPTS OF MANAGERIAL ECONOMICS, I DO NOT DEVOTE ANY TIME TO THIS BUSINESS DURING MY REGULAR WORKING HOURS."
    }
  },
  "DRPs": []
}