{
  "Info": {
    "lastNm": "ROSSI",
    "firstNm": "LYDIA",
    "midNm": "EMILIA",
    "sufNm": null,
    "indvlPK": "5347995",
    "actvAGReg": 0,
    "link": "http://www.adviserinfo.sec.gov/IAPD/Individual/5347995"
  },
  "OthrNms": [
    {
      "lastNm": "ROSSI",
      "firstNm": "LYDIA",
      "midNm": "EMILIA",
      "sufNm": null
    },
    {
      "lastNm": "SMITH",
      "firstNm": "LYDIA",
      "midNm": "EMILIA",
      "sufNm": null
    }
  ],
  "CrntEmps": [
    {
      "CrntRgstns": [
        {
          "regAuth": 47,
          "regCat": 0,
          "st": 2,
          "stDt": "2008-07-11T00:00:00"
        }
      ],
      "BrnchOfLocs": [
        {
          "str1": "8219 LEESBURG PIKE",
          "str2": "#200",
          "city": "VIENNA",
          "state": 47,
          "stateSpecified": true,
          "cntry": "United States",
          "postlCd": "22182"
        }
      ],
      "orgNm": "LINCOLN FINANCIAL ADVISORS CORPORATION",
      "orgPK": "3978",
      "str1": "1300 SOUTH CLINTON STREET",
      "str2": "SUITE 150",
      "city": "FORT WAYNE",
      "state": 16,
      "stateSpecified": true,
      "cntry": "United States",
      "postlCd": "46802"
    }
  ],
  "Exms": [
    {
      "exmCd": 3,
      "exmNm": "Uniform Combined State Law Examination",
      "exmDt": "2008-07-09T00:00:00",
      "exmDtSpecified": true
    }
  ],
  "Dsgntns": [],
  "PrevRgstns": [],
  "EmpHss": [
    {
      "fromDt": "08/2000",
      "toDt": "05/2007",
      "orgNm": "N/A",
      "city": "ARLINGTON",
      "state": 47,
      "stateSpecified": true
    },
    {
      "fromDt": "05/2007",
      "toDt": null,
      "orgNm": "LINCOLN FINANCIAL ADVISORS/SAGEMARK",
      "city": "VIENNA",
      "state": 47,
      "stateSpecified": true
    }
  ],
  "OthrBuss": {
    "OthrBus": null
  },
  "DRPs": [
    {
      "hasRegAction": 1,
      "hasRegActionSpecified": true,
      "hasCriminal": 1,
      "hasCriminalSpecified": true,
      "hasBankrupt": 0,
      "hasBankruptSpecified": true,
      "hasCivilJudc": 1,
      "hasCivilJudcSpecified": true,
      "hasBond": 1,
      "hasBondSpecified": true,
      "hasJudgment": 1,
      "hasJudgmentSpecified": true,
      "hasInvstgn": 1,
      "hasInvstgnSpecified": true,
      "hasCustComp": 1,
      "hasCustCompSpecified": true,
      "hasTermination": 1,
      "hasTerminationSpecified": true
    }
  ]
}