{
  "Info": {
    "lastNm": "CAMPBELL",
    "firstNm": "JENNIFER",
    "midNm": "LEIGH",
    "sufNm": null,
    "indvlPK": "5355429",
    "actvAGReg": 0,
    "link": "http://www.adviserinfo.sec.gov/IAPD/Individual/5355429"
  },
  "OthrNms": [
    {
      "lastNm": "CAMPBELL",
      "firstNm": "JENN",
      "midNm": "LEIGH",
      "sufNm": null
    }
  ],
  "CrntEmps": [
    {
      "CrntRgstns": [
        {
          "regAuth": 8,
          "regCat": 0,
          "st": 2,
          "stDt": "2012-04-12T00:00:00"
        }
      ],
      "BrnchOfLocs": [
        {
          "str1": "900 FOULK ROAD",
          "str2": "SUITE 201",
          "city": "WILMINGTON",
          "state": 8,
          "stateSpecified": true,
          "cntry": "United States",
          "postlCd": "19803"
        }
      ],
      "orgNm": "RAYMOND JAMES FINANCIAL SERVICES ADVISORS, INC",
      "orgPK": "149018",
      "str1": "880 CARILLON PARKWAY",
      "str2": null,
      "city": "SAINT PETERSBURG",
      "state": 9,
      "stateSpecified": true,
      "cntry": "United States",
      "postlCd": "33716"
    }
  ],
  "Exms": [
    {
      "exmCd": 3,
      "exmNm": "Uniform Combined State Law Examination",
      "exmDt": "2012-03-15T00:00:00",
      "exmDtSpecified": true
    }
  ],
  "Dsgntns": [],
  "PrevRgstns": [],
  "EmpHss": [
    {
      "fromDt": "06/2003",
      "toDt": "08/2006",
      "orgNm": "PROGRESIVE POOL MANAGEMENT",
      "city": "WILMINGTON",
      "state": 8,
      "stateSpecified": true
    },
    {
      "fromDt": "02/2005",
      "toDt": "08/2006",
      "orgNm": "ARANTI SALON",
      "city": "WILMINGTON",
      "state": 8,
      "stateSpecified": true
    },
    {
      "fromDt": "09/2006",
      "toDt": "06/2007",
      "orgNm": "UNIVERSITY OF DELAWARE",
      "city": "NEWARK",
      "state": 8,
      "stateSpecified": true
    },
    {
      "fromDt": "06/2007",
      "toDt": null,
      "orgNm": "RAYMOND JAMES FIANANCIAL SERVICES, INC.",
      "city": "WILMINGTON",
      "state": 8,
      "stateSpecified": true
    },
    {
      "fromDt": "07/2010",
      "toDt": null,
      "orgNm": "BUTLER FINANCIAL, LTD",
      "city": "WILMINGTON",
      "state": 8,
      "stateSpecified": true
    },
    {
      "fromDt": "04/2012",
      "toDt": null,
      "orgNm": "RAYMOND JAMES FINANCIAL SERVICES ADVISORS INC.",
      "city": "WILMINGTON",
      "state": 8,
      "stateSpecified": true
    },
    {
      "fromDt": "09/2012",
      "toDt": null,
      "orgNm": "SANFORD SCHOOL",
      "city": "HOCKESSIAN",
      "state": 8,
      "stateSpecified": true
    }
  ],
  "OthrBuss": {
    "OthrBus": {
      "desc": "1. SANFORD SCHOOL:NOT INVESTMENT RELATED:9/2012-PRESENT:HOCKESSIAN, DE:COACH:HIGH SCHOOL:45 HRS/MONTH:5 HRS DURING TRADING:HIGH SCHOOL VOLLYBALL COACH. 2. BUTLER FINANCIAL, LTD, WILMINGTON, DE, EMPLOYEE, INVESTMENT RELATED, 07/2010,  0HRS PER MONTH, 0 HRS DURING TRADING."
    }
  },
  "DRPs": []
}