{
  "Info": {
    "lastNm": "FINE",
    "firstNm": "HOWARD",
    "midNm": "SCOTT",
    "sufNm": null,
    "indvlPK": "5357653",
    "actvAGReg": 1,
    "link": "http://www.adviserinfo.sec.gov/IAPD/Individual/5357653"
  },
  "OthrNms": [
    {
      "lastNm": "FINE",
      "firstNm": "HOWARD",
      "midNm": "S",
      "sufNm": null
    }
  ],
  "CrntEmps": [
    {
      "CrntRgstns": [
        {
          "regAuth": 4,
          "regCat": 0,
          "st": 2,
          "stDt": "2016-01-19T00:00:00"
        },
        {
          "regAuth": 7,
          "regCat": 0,
          "st": 2,
          "stDt": "2016-01-19T00:00:00"
        },
        {
          "regAuth": 9,
          "regCat": 0,
          "st": 2,
          "stDt": "2016-01-19T00:00:00"
        },
        {
          "regAuth": 10,
          "regCat": 0,
          "st": 2,
          "stDt": "2016-01-19T00:00:00"
        },
        {
          "regAuth": 15,
          "regCat": 0,
          "st": 2,
          "stDt": "2016-01-19T00:00:00"
        },
        {
          "regAuth": 34,
          "regCat": 0,
          "st": 2,
          "stDt": "2016-01-19T00:00:00"
        },
        {
          "regAuth": 45,
          "regCat": 0,
          "st": 2,
          "stDt": "2016-01-19T00:00:00"
        }
      ],
      "BrnchOfLocs": [
        {
          "str1": "6455 IRVINE CENTER DRIVE",
          "str2": null,
          "city": "IRVINE",
          "state": 4,
          "stateSpecified": true,
          "cntry": null,
          "postlCd": "92618"
        }
      ],
      "orgNm": "CAPITAL BANK AND TRUST COMPANY",
      "orgPK": "170017",
      "str1": "6455 IRVINE CENTER DRIVE",
      "str2": null,
      "city": "IRVINE",
      "state": 4,
      "stateSpecified": true,
      "cntry": "United States",
      "postlCd": "92618"
    }
  ],
  "Exms": [
    {
      "exmCd": 2,
      "exmNm": "Uniform Investment Adviser Law Examination",
      "exmDt": "2010-01-18T00:00:00",
      "exmDtSpecified": true
    }
  ],
  "Dsgntns": [],
  "PrevRgstns": [
    {
      "BrnchOfLocs": [
        {
          "city": "RENO",
          "state": 34,
          "stateSpecified": true
        }
      ],
      "orgNm": "CAPITAL GUARDIAN TRUST COMPANY",
      "orgPK": "108236",
      "regBeginDt": "2010-01-19T00:00:00",
      "regBeginDtSpecified": true,
      "regEndDt": "2016-01-19T00:00:00",
      "regEndDtSpecified": true
    }
  ],
  "EmpHss": [
    {
      "fromDt": "06/2005",
      "toDt": "05/2007",
      "orgNm": "COMMERCE BANK",
      "city": "WICHITA",
      "state": 17,
      "stateSpecified": true
    },
    {
      "fromDt": "05/2007",
      "toDt": null,
      "orgNm": "CAPITAL GUARDIAN TRUST COMPANY",
      "city": "RENO",
      "state": 34,
      "stateSpecified": true
    },
    {
      "fromDt": "01/2016",
      "toDt": null,
      "orgNm": "CAPITAL BANK AND TRUST COMPANY",
      "city": "IRVINE",
      "state": 4,
      "stateSpecified": true
    }
  ],
  "OthrBuss": {
    "OthrBus": null
  },
  "DRPs": []
}