{
  "Info": {
    "lastNm": "CHIA",
    "firstNm": "DARREN",
    "midNm": "ANTHONY",
    "sufNm": null,
    "indvlPK": "5361712",
    "actvAGReg": 0,
    "link": "http://www.adviserinfo.sec.gov/IAPD/Individual/5361712"
  },
  "OthrNms": [],
  "CrntEmps": [
    {
      "CrntRgstns": [
        {
          "regAuth": 4,
          "regCat": 0,
          "st": 2,
          "stDt": "2012-10-01T00:00:00"
        },
        {
          "regAuth": 45,
          "regCat": 0,
          "st": 3,
          "stDt": "2014-08-18T00:00:00"
        }
      ],
      "BrnchOfLocs": [
        {
          "str1": "10011 VALLEY VIEW ST",
          "str2": null,
          "city": "CYPRESS",
          "state": 4,
          "stateSpecified": true,
          "cntry": "United States",
          "postlCd": "90630"
        },
        {
          "str1": "8901 VALLEY VIEW ST., STE. C",
          "str2": null,
          "city": "BUENA PARK",
          "state": 4,
          "stateSpecified": true,
          "cntry": "United States",
          "postlCd": "90620"
        }
      ],
      "orgNm": "J.P. MORGAN SECURITIES LLC",
      "orgPK": "79",
      "str1": "277 PARK AVENUE",
      "str2": null,
      "city": "NEW YORK",
      "state": 35,
      "stateSpecified": true,
      "cntry": "United States",
      "postlCd": "10172"
    }
  ],
  "Exms": [
    {
      "exmCd": 3,
      "exmNm": "Uniform Combined State Law Examination",
      "exmDt": "2009-09-24T00:00:00",
      "exmDtSpecified": true
    }
  ],
  "Dsgntns": [],
  "PrevRgstns": [
    {
      "BrnchOfLocs": [
        {
          "city": "BELLFLOWER",
          "state": 4,
          "stateSpecified": true
        },
        {
          "city": "BUENA PARK",
          "state": 4,
          "stateSpecified": true
        },
        {
          "city": "CYPRESS",
          "state": 4,
          "stateSpecified": true
        }
      ],
      "orgNm": "CHASE INVESTMENT SERVICES CORP.",
      "orgPK": "25574",
      "regBeginDt": "2009-12-18T00:00:00",
      "regBeginDtSpecified": true,
      "regEndDt": "2012-10-01T00:00:00",
      "regEndDtSpecified": true
    }
  ],
  "EmpHss": [
    {
      "fromDt": "08/2004",
      "toDt": "05/2009",
      "orgNm": "CAL STATE FULLERTON",
      "city": "FULLERTON",
      "state": 4,
      "stateSpecified": true
    },
    {
      "fromDt": "03/2006",
      "toDt": "04/2007",
      "orgNm": "INLAND LITHO",
      "city": "ANAHEIM",
      "state": 4,
      "stateSpecified": true
    },
    {
      "fromDt": "04/2007",
      "toDt": "08/2007",
      "orgNm": "UNEMPLOYED",
      "city": "FULLERTON",
      "state": 4,
      "stateSpecified": true
    },
    {
      "fromDt": "08/2007",
      "toDt": "08/2008",
      "orgNm": "CAL STATE FULLERTON",
      "city": "FULLERTON",
      "state": 4,
      "stateSpecified": true
    },
    {
      "fromDt": "07/2008",
      "toDt": "08/2009",
      "orgNm": "KEN UNGER - METLIFE",
      "city": "ORANGE",
      "state": 4,
      "stateSpecified": true
    },
    {
      "fromDt": "08/2009",
      "toDt": "11/2009",
      "orgNm": "METLIFE SECURITIES INC.",
      "city": "ORANGE",
      "state": 4,
      "stateSpecified": true
    },
    {
      "fromDt": "11/2009",
      "toDt": "10/2012",
      "orgNm": "CHASE INVESTMENT SERVICES CORP",
      "city": "BELLFLOWER",
      "state": 4,
      "stateSpecified": true
    },
    {
      "fromDt": "11/2009",
      "toDt": null,
      "orgNm": "J.P. MORGAN BANK",
      "city": "BELLFLOWER",
      "state": 4,
      "stateSpecified": true
    },
    {
      "fromDt": "10/2012",
      "toDt": null,
      "orgNm": "J.P. MORGAN SECURITIES LLC",
      "city": "BUENA PARK",
      "state": 4,
      "stateSpecified": true
    }
  ],
  "OthrBuss": {
    "OthrBus": null
  },
  "DRPs": []
}