{
  "Info": {
    "lastNm": "REISERT",
    "firstNm": "MATTHEW",
    "midNm": "CHRISTOPHER",
    "sufNm": null,
    "indvlPK": "5362007",
    "actvAGReg": 0,
    "link": "http://www.adviserinfo.sec.gov/IAPD/Individual/5362007"
  },
  "OthrNms": [],
  "CrntEmps": [
    {
      "CrntRgstns": [
        {
          "regAuth": 32,
          "regCat": 0,
          "st": 2,
          "stDt": "2012-01-18T00:00:00"
        }
      ],
      "BrnchOfLocs": [
        {
          "str1": "605 THIRD AVE.",
          "str2": null,
          "city": "NEW YORK",
          "state": 35,
          "stateSpecified": true,
          "cntry": "United States",
          "postlCd": "10158"
        }
      ],
      "orgNm": "NEUBERGER BERMAN LLC",
      "orgPK": "2908",
      "str1": "605 THIRD AVENUE",
      "str2": null,
      "city": "NEW YORK",
      "state": 35,
      "stateSpecified": true,
      "cntry": "United States",
      "postlCd": "10158"
    }
  ],
  "Exms": [
    {
      "exmCd": 0,
      "exmNm": "Uniform Securities Agent State Law Examination",
      "exmDt": "2008-07-06T00:00:00",
      "exmDtSpecified": true
    },
    {
      "exmCd": 2,
      "exmNm": "Uniform Investment Adviser Law Examination",
      "exmDt": "2012-01-17T00:00:00",
      "exmDtSpecified": true
    }
  ],
  "Dsgntns": [],
  "PrevRgstns": [],
  "EmpHss": [
    {
      "fromDt": "08/2004",
      "toDt": "01/2008",
      "orgNm": "SACRED HEART UNIVERSITY",
      "city": "FAIRFEILD",
      "state": 6,
      "stateSpecified": true
    },
    {
      "fromDt": "07/2007",
      "toDt": "10/2007",
      "orgNm": "GUNNALLEN FINANCIAL",
      "city": "TAMPA",
      "state": 9,
      "stateSpecified": true
    },
    {
      "fromDt": "03/2008",
      "toDt": "08/2008",
      "orgNm": "NATIONAL SECURITIES CORPORATION",
      "city": "NEW YORK",
      "state": 35,
      "stateSpecified": true
    },
    {
      "fromDt": "09/2008",
      "toDt": "04/2010",
      "orgNm": "CHASE INVESTMENT SERVICES CORP",
      "city": "NEW YORK",
      "state": 35,
      "stateSpecified": true
    },
    {
      "fromDt": "09/2008",
      "toDt": "04/2010",
      "orgNm": "JP MORGAN CHASE BANK NA",
      "city": "NEW YORK",
      "state": 35,
      "stateSpecified": true
    },
    {
      "fromDt": "04/2010",
      "toDt": "07/2011",
      "orgNm": "FIRST REPUBLIC BANK",
      "city": "NEW YORK",
      "state": 35,
      "stateSpecified": true
    },
    {
      "fromDt": "05/2010",
      "toDt": "07/2011",
      "orgNm": "FIRST REPUBLIC SECURITIES CO., LLC",
      "city": "NEW YORK",
      "state": 35,
      "stateSpecified": true
    },
    {
      "fromDt": "07/2011",
      "toDt": null,
      "orgNm": "NEUBERGER BERMAN LLC",
      "city": "NEW YORK",
      "state": 35,
      "stateSpecified": true
    }
  ],
  "OthrBuss": {
    "OthrBus": null
  },
  "DRPs": []
}