{
  "Info": {
    "lastNm": "STRAUBEL",
    "firstNm": "MICHAEL",
    "midNm": "MORGAN",
    "sufNm": null,
    "indvlPK": "5362867",
    "actvAGReg": 0,
    "link": "http://www.adviserinfo.sec.gov/IAPD/Individual/5362867"
  },
  "OthrNms": [
    {
      "lastNm": "STRAUBEL",
      "firstNm": "MICHAEL",
      "midNm": null,
      "sufNm": null
    }
  ],
  "CrntEmps": [
    {
      "CrntRgstns": [
        {
          "regAuth": 39,
          "regCat": 0,
          "st": 2,
          "stDt": "2014-06-06T00:00:00"
        }
      ],
      "BrnchOfLocs": [
        {
          "str1": "74 WEST BROAD STREET, SUITE 340",
          "str2": null,
          "city": "BETHLEHEM",
          "state": 39,
          "stateSpecified": true,
          "cntry": "United States",
          "postlCd": "18018"
        }
      ],
      "orgNm": "CORNERSTONE ADVISORS ASSET MANAGEMENT INC.",
      "orgPK": "138638",
      "str1": "74 WEST BROAD STREET, SUITE 340",
      "str2": null,
      "city": "BETHLEHEM",
      "state": 39,
      "stateSpecified": true,
      "cntry": "United States",
      "postlCd": "18018"
    },
    {
      "CrntRgstns": [
        {
          "regAuth": 39,
          "regCat": 0,
          "st": 2,
          "stDt": "2014-06-06T00:00:00"
        }
      ],
      "BrnchOfLocs": [
        {
          "str1": "74 WEST BROAD STREET",
          "str2": "SUITE 340",
          "city": "BETHLEHEM",
          "state": 39,
          "stateSpecified": true,
          "cntry": "United States",
          "postlCd": "18018"
        }
      ],
      "orgNm": "CORNERSTONE INSTITUTIONAL INVESTORS, INC.",
      "orgPK": "44664",
      "str1": "74 WEST BROAD STREET",
      "str2": "SUITE 340",
      "city": "BETHLEHEM",
      "state": 39,
      "stateSpecified": true,
      "cntry": "United States",
      "postlCd": "18018"
    }
  ],
  "Exms": [
    {
      "exmCd": 0,
      "exmNm": "Uniform Securities Agent State Law Examination",
      "exmDt": "2007-07-12T00:00:00",
      "exmDtSpecified": true
    },
    {
      "exmCd": 3,
      "exmNm": "Uniform Combined State Law Examination",
      "exmDt": "2014-04-17T00:00:00",
      "exmDtSpecified": true
    }
  ],
  "Dsgntns": [],
  "PrevRgstns": [
    {
      "BrnchOfLocs": [
        {
          "city": "BLUE BELL",
          "state": 39,
          "stateSpecified": true
        }
      ],
      "orgNm": "PERSIMMON CAPITAL MANAGEMENT LP",
      "orgPK": "108107",
      "regBeginDt": "2013-10-15T00:00:00",
      "regBeginDtSpecified": true,
      "regEndDt": "2013-11-14T00:00:00",
      "regEndDtSpecified": true
    }
  ],
  "EmpHss": [
    {
      "fromDt": "08/2003",
      "toDt": "05/2007",
      "orgNm": "GETTYSBURG COLLEGE",
      "city": "GETTYSBURG",
      "state": 39,
      "stateSpecified": true
    },
    {
      "fromDt": "06/2007",
      "toDt": "06/2008",
      "orgNm": "THE VANGUARD GROUP, INC",
      "city": "MALVERN",
      "state": 39,
      "stateSpecified": true
    },
    {
      "fromDt": "06/2008",
      "toDt": "03/2013",
      "orgNm": "SEI INVESTMENTS",
      "city": "OAKS",
      "state": 39,
      "stateSpecified": true
    },
    {
      "fromDt": "03/2013",
      "toDt": "10/2013",
      "orgNm": "ALPHAHEDGE CAPITAL PARTNERS, LLC",
      "city": "BLUE BELL",
      "state": 39,
      "stateSpecified": true
    },
    {
      "fromDt": "03/2013",
      "toDt": "10/2013",
      "orgNm": "PERSIMMON CAPITAL MANAGEMENT, LP",
      "city": "BLUE BELL",
      "state": 39,
      "stateSpecified": true
    },
    {
      "fromDt": "04/2013",
      "toDt": "10/2013",
      "orgNm": "NORTHERN LIGHTS DISTRIBUTORS, LLC",
      "city": "OMAHA",
      "state": 30,
      "stateSpecified": true
    },
    {
      "fromDt": "10/2013",
      "toDt": "05/2014",
      "orgNm": "CORNERSTONE INSTITUTIONAL INVESTORS, INC.",
      "city": "BETHLEHEM",
      "state": 39,
      "stateSpecified": true
    },
    {
      "fromDt": "01/2014",
      "toDt": null,
      "orgNm": "M HOLDINGS SECURITIES, INC.",
      "city": "BETHLEHEM",
      "state": 39,
      "stateSpecified": true
    },
    {
      "fromDt": "05/2014",
      "toDt": null,
      "orgNm": "CORNERSTONE ADVISORS ASSET MANAGEMENT, INC.",
      "city": "BETHLEHEM",
      "state": 39,
      "stateSpecified": true
    },
    {
      "fromDt": "05/2014",
      "toDt": null,
      "orgNm": "CORNERSTONE INSTITUTIONAL INVESTORS, INC.",
      "city": "BETHLEHEM",
      "state": 39,
      "stateSpecified": true
    }
  ],
  "OthrBuss": {
    "OthrBus": {
      "desc": "M HOLDINGS SECURITIES, INC./ INVESTMENT-RELATED/ BETHLEHEM, PA/ BD/ REGISTERED REPRESENTATIVE SINCE 1/2014/ 10 HRS/MO, 10 HRS/MO DURING SECURITIES TRADING HOURS/ DUTIES ARE AS A REGISTERED REP."
    }
  },
  "DRPs": []
}