{
  "Info": {
    "lastNm": "FENNELL",
    "firstNm": "SANDRA",
    "midNm": "STANDIFER",
    "sufNm": null,
    "indvlPK": "5373394",
    "actvAGReg": 0,
    "link": "http://www.adviserinfo.sec.gov/IAPD/Individual/5373394"
  },
  "OthrNms": [
    {
      "lastNm": "FENNELL",
      "firstNm": "SANDRA",
      "midNm": "S",
      "sufNm": null
    },
    {
      "lastNm": "STANDIFER",
      "firstNm": "SANDRA",
      "midNm": "JANNETTE",
      "sufNm": null
    }
  ],
  "CrntEmps": [
    {
      "CrntRgstns": [
        {
          "regAuth": 45,
          "regCat": 0,
          "st": 2,
          "stDt": "2008-09-10T00:00:00"
        }
      ],
      "BrnchOfLocs": [
        {
          "str1": "ONE DESTINY WAY",
          "str2": null,
          "city": "WESTLAKE",
          "state": 45,
          "stateSpecified": true,
          "cntry": "United States",
          "postlCd": "76262"
        }
      ],
      "orgNm": "STRATEGIC ADVISERS, INC.",
      "orgPK": "104555",
      "str1": "245 SUMMER STREET, V10G",
      "str2": null,
      "city": "BOSTON",
      "state": 20,
      "stateSpecified": true,
      "cntry": "United States",
      "postlCd": "02210"
    }
  ],
  "Exms": [
    {
      "exmCd": 0,
      "exmNm": "Uniform Securities Agent State Law Examination",
      "exmDt": "2007-10-15T00:00:00",
      "exmDtSpecified": true
    },
    {
      "exmCd": 3,
      "exmNm": "Uniform Combined State Law Examination",
      "exmDt": "2008-09-09T00:00:00",
      "exmDtSpecified": true
    }
  ],
  "Dsgntns": [],
  "PrevRgstns": [],
  "EmpHss": [
    {
      "fromDt": "06/2006",
      "toDt": "08/2006",
      "orgNm": "PRIDESTAFF",
      "city": "DALLAS",
      "state": 45,
      "stateSpecified": true
    },
    {
      "fromDt": "08/2006",
      "toDt": "06/2007",
      "orgNm": "CB RICHARD ELLIS, INC.",
      "city": "DALLAS",
      "state": 45,
      "stateSpecified": true
    },
    {
      "fromDt": "06/2007",
      "toDt": null,
      "orgNm": "FIDELITY",
      "city": "WESTLAKE",
      "state": 45,
      "stateSpecified": true
    }
  ],
  "OthrBuss": {
    "OthrBus": null
  },
  "DRPs": []
}