{
  "Info": {
    "lastNm": "MATTEI PEREZ",
    "firstNm": "JESUS",
    "midNm": "D",
    "sufNm": null,
    "indvlPK": "5380845",
    "actvAGReg": 1,
    "link": "http://www.adviserinfo.sec.gov/IAPD/Individual/5380845"
  },
  "OthrNms": [
    {
      "lastNm": "MATTEI PEREZ",
      "firstNm": "JESUS",
      "midNm": null,
      "sufNm": null
    },
    {
      "lastNm": "MATTEI PEREZ",
      "firstNm": "JESUS",
      "midNm": "DANIEL",
      "sufNm": null
    },
    {
      "lastNm": "MATTEI",
      "firstNm": "JESUS",
      "midNm": null,
      "sufNm": null
    },
    {
      "lastNm": "MATTEI",
      "firstNm": "JESUS",
      "midNm": "D",
      "sufNm": null
    },
    {
      "lastNm": "MATTEI",
      "firstNm": "JESUS",
      "midNm": "DANIEL",
      "sufNm": null
    }
  ],
  "CrntEmps": [
    {
      "CrntRgstns": [
        {
          "regAuth": 40,
          "regCat": 0,
          "st": 2,
          "stDt": "2012-09-07T00:00:00"
        }
      ],
      "BrnchOfLocs": [
        {
          "str1": "GAM TOWER 2 TABONUCO STREET",
          "str2": "SUITE 200",
          "city": "GUAYNABO",
          "state": 40,
          "stateSpecified": true,
          "cntry": "United States",
          "postlCd": "00968"
        }
      ],
      "orgNm": "SANTANDER ASSET MANAGEMENT",
      "orgPK": "109399",
      "str1": "GAM TOWER 2 TABONUCO STREET",
      "str2": "SUITE 200",
      "city": "GUAYNABO",
      "state": 40,
      "stateSpecified": true,
      "cntry": "United States",
      "postlCd": "00968"
    }
  ],
  "Exms": [
    {
      "exmCd": 3,
      "exmNm": "Uniform Combined State Law Examination",
      "exmDt": "2011-11-15T00:00:00",
      "exmDtSpecified": true
    }
  ],
  "Dsgntns": [
    {
      "dsgntnNm": "Chartered Financial Analyst"
    }
  ],
  "PrevRgstns": [
    {
      "BrnchOfLocs": [
        {
          "city": "SAN JUAN",
          "state": 40,
          "stateSpecified": true
        }
      ],
      "orgNm": "SANTANDER SECURITIES LLC",
      "orgPK": "41791",
      "regBeginDt": "2012-01-20T00:00:00",
      "regBeginDtSpecified": true,
      "regEndDt": "2014-08-15T00:00:00",
      "regEndDtSpecified": true
    }
  ],
  "EmpHss": [
    {
      "fromDt": "08/2004",
      "toDt": "06/2007",
      "orgNm": "BANCO POPULAR",
      "city": "SAN JUAN",
      "state": 40,
      "stateSpecified": true
    },
    {
      "fromDt": "06/2007",
      "toDt": "04/2011",
      "orgNm": "UBS",
      "city": "SAN JUAN",
      "state": 40,
      "stateSpecified": true
    },
    {
      "fromDt": "04/2011",
      "toDt": null,
      "orgNm": "SANTANDER ASSET MANAGEMENT",
      "city": "GUAYNABO",
      "state": 40,
      "stateSpecified": true
    }
  ],
  "OthrBuss": {
    "OthrBus": null
  },
  "DRPs": []
}