{
  "Info": {
    "lastNm": "LYNCH",
    "firstNm": "ROBERT",
    "midNm": "MICHAEL",
    "sufNm": null,
    "indvlPK": "5391025",
    "actvAGReg": 0,
    "link": "http://www.adviserinfo.sec.gov/IAPD/Individual/5391025"
  },
  "OthrNms": [
    {
      "lastNm": "ROBERT",
      "firstNm": "LYNCH",
      "midNm": "M",
      "sufNm": null
    }
  ],
  "CrntEmps": [
    {
      "CrntRgstns": [
        {
          "regAuth": 5,
          "regCat": 0,
          "st": 2,
          "stDt": "2015-06-17T00:00:00"
        }
      ],
      "BrnchOfLocs": [
        {
          "str1": "3033 IRIS AVENUE",
          "str2": null,
          "city": "BOULDER",
          "state": 5,
          "stateSpecified": true,
          "cntry": "United States",
          "postlCd": "80301"
        }
      ],
      "orgNm": "RAYMOND JAMES FINANCIAL SERVICES ADVISORS, INC",
      "orgPK": "149018",
      "str1": "880 CARILLON PARKWAY",
      "str2": null,
      "city": "SAINT PETERSBURG",
      "state": 9,
      "stateSpecified": true,
      "cntry": "United States",
      "postlCd": "33716"
    }
  ],
  "Exms": [
    {
      "exmCd": 3,
      "exmNm": "Uniform Combined State Law Examination",
      "exmDt": "2007-10-04T00:00:00",
      "exmDtSpecified": true
    }
  ],
  "Dsgntns": [],
  "PrevRgstns": [
    {
      "BrnchOfLocs": [
        {
          "city": "BOULDER",
          "state": 5,
          "stateSpecified": true
        }
      ],
      "orgNm": "UBS FINANCIAL SERVICES INC.",
      "orgPK": "8174",
      "regBeginDt": "2007-10-05T00:00:00",
      "regBeginDtSpecified": true,
      "regEndDt": "2009-12-22T00:00:00",
      "regEndDtSpecified": true
    },
    {
      "BrnchOfLocs": [
        {
          "city": "BOULDER",
          "state": 5,
          "stateSpecified": true
        },
        {
          "city": "DENVER",
          "state": 5,
          "stateSpecified": true
        },
        {
          "city": "DENVER",
          "state": 5,
          "stateSpecified": true
        }
      ],
      "orgNm": "KEY INVESTMENT SERVICES LLC",
      "orgPK": "136300",
      "regBeginDt": "2010-01-05T00:00:00",
      "regBeginDtSpecified": true,
      "regEndDt": "2012-06-25T00:00:00",
      "regEndDtSpecified": true
    },
    {
      "BrnchOfLocs": [
        {
          "city": "BOULDER",
          "state": 5,
          "stateSpecified": true
        },
        {
          "city": "OMAHA",
          "state": 30,
          "stateSpecified": true
        }
      ],
      "orgNm": "FIRST NATIONAL CAPITAL MARKETS",
      "orgPK": "115920",
      "regBeginDt": "2012-07-03T00:00:00",
      "regBeginDtSpecified": true,
      "regEndDt": "2015-06-18T00:00:00",
      "regEndDtSpecified": true
    }
  ],
  "EmpHss": [
    {
      "fromDt": "10/2002",
      "toDt": "07/2007",
      "orgNm": "FOREST PHARMACEUTICALS INC.",
      "city": "PHARMACEUTICAL",
      "state": 5,
      "stateSpecified": true
    },
    {
      "fromDt": "07/2007",
      "toDt": "12/2009",
      "orgNm": "UBS FINANCIAL SERVICES INC",
      "city": "BOULDER",
      "state": 5,
      "stateSpecified": true
    },
    {
      "fromDt": "01/2010",
      "toDt": "06/2012",
      "orgNm": "KEY INVESTMENT SERVICES",
      "city": "DENVER",
      "state": 5,
      "stateSpecified": true
    },
    {
      "fromDt": "07/2012",
      "toDt": null,
      "orgNm": "FIRST NATIONAL BANK",
      "city": "BOULDER",
      "state": 5,
      "stateSpecified": true
    },
    {
      "fromDt": "07/2012",
      "toDt": "06/2015",
      "orgNm": "FIRST NATIONAL CAPITAL MARKETS, INC.",
      "city": "OMAHA",
      "state": 30,
      "stateSpecified": true
    },
    {
      "fromDt": "06/2015",
      "toDt": null,
      "orgNm": "RAYMOND JAMES FINANCIAL SERVICES ADVISORS INC.",
      "city": "BOULDER",
      "state": 5,
      "stateSpecified": true
    },
    {
      "fromDt": "06/2015",
      "toDt": null,
      "orgNm": "RAYMOND JAMES FINANCIAL SERVICES,INC",
      "city": "BOULDER",
      "state": 5,
      "stateSpecified": true
    }
  ],
  "OthrBuss": {
    "OthrBus": {
      "desc": "FIRST NATIONAL BANK:INVESTMENT RELATED:7/2012-PRESENT:BOULDER, CO:ADVISOR:BANK/CREDIT UNION ASSOCIATE:160 HRS/MO:130 HRS DURING TRADING:Financial Advisor, Senior Manager for Branch based Advisor, Private Client Advisor."
    }
  },
  "DRPs": []
}