{
  "Info": {
    "lastNm": "BLAKE",
    "firstNm": "GREGORY",
    "midNm": "EDWARD",
    "sufNm": null,
    "indvlPK": "5392729",
    "actvAGReg": 1,
    "link": "http://www.adviserinfo.sec.gov/IAPD/Individual/5392729"
  },
  "OthrNms": [
    {
      "lastNm": "BLAKE",
      "firstNm": "GREGORY",
      "midNm": null,
      "sufNm": null
    }
  ],
  "CrntEmps": [
    {
      "CrntRgstns": [
        {
          "regAuth": 21,
          "regCat": 0,
          "st": 2,
          "stDt": "2014-12-05T00:00:00"
        }
      ],
      "BrnchOfLocs": [
        {
          "str1": "TOWSON CITY CENTER",
          "str2": "1 OLYMPIC PLACE, 8TH FLOOR",
          "city": "TOWSON",
          "state": 21,
          "stateSpecified": true,
          "cntry": "United States",
          "postlCd": "21204"
        }
      ],
      "orgNm": "WMS PARTNERS, LLC",
      "orgPK": "109971",
      "str1": "TOWSON CITY CENTER",
      "str2": "1 OLYMPIC PLACE, 8TH FLOOR",
      "city": "TOWSON",
      "state": 21,
      "stateSpecified": true,
      "cntry": "United States",
      "postlCd": "21204"
    }
  ],
  "Exms": [
    {
      "exmCd": 3,
      "exmNm": "Uniform Combined State Law Examination",
      "exmDt": "2007-09-06T00:00:00",
      "exmDtSpecified": true
    }
  ],
  "Dsgntns": [],
  "PrevRgstns": [
    {
      "BrnchOfLocs": [
        {
          "city": "WASHINGTON",
          "state": 7,
          "stateSpecified": true
        }
      ],
      "orgNm": "ALLIANCEBERNSTEIN L.P.",
      "orgPK": "108477",
      "regBeginDt": "2007-09-12T00:00:00",
      "regBeginDtSpecified": true,
      "regEndDt": "2011-03-28T00:00:00",
      "regEndDtSpecified": true
    },
    {
      "BrnchOfLocs": [
        {
          "city": "POTOMAC",
          "state": 21,
          "stateSpecified": true
        }
      ],
      "orgNm": "CONVERGENT WEALTH ADVISORS, LLC",
      "orgPK": "143719",
      "regBeginDt": "2012-05-09T00:00:00",
      "regBeginDtSpecified": true,
      "regEndDt": "2014-11-19T00:00:00",
      "regEndDtSpecified": true
    }
  ],
  "EmpHss": [
    {
      "fromDt": "08/2004",
      "toDt": "07/2007",
      "orgNm": "SANZ, INC.",
      "city": "VIENNA",
      "state": 47,
      "stateSpecified": true
    },
    {
      "fromDt": "07/2007",
      "toDt": "03/2011",
      "orgNm": "SANFORD C. BERNSTEIN",
      "city": "WASHINGTON",
      "state": 7,
      "stateSpecified": true
    },
    {
      "fromDt": "03/2011",
      "toDt": "11/2014",
      "orgNm": "CONVERGENT WEALTH ADVISORS",
      "city": "ROCKVILLE",
      "state": 21,
      "stateSpecified": true
    },
    {
      "fromDt": "11/2014",
      "toDt": null,
      "orgNm": "WMS PARTNERS, LLC",
      "city": "TOWSON",
      "state": 21,
      "stateSpecified": true
    }
  ],
  "OthrBuss": {
    "OthrBus": null
  },
  "DRPs": []
}