{
  "Info": {
    "lastNm": "WILCOX",
    "firstNm": "CURTIS",
    "midNm": "JOSH",
    "sufNm": null,
    "indvlPK": "5397519",
    "actvAGReg": 0,
    "link": "http://www.adviserinfo.sec.gov/IAPD/Individual/5397519"
  },
  "OthrNms": [],
  "CrntEmps": [
    {
      "CrntRgstns": [
        {
          "regAuth": 15,
          "regCat": 0,
          "st": 2,
          "stDt": "2013-04-12T00:00:00"
        },
        {
          "regAuth": 16,
          "regCat": 0,
          "st": 2,
          "stDt": "2013-04-19T00:00:00"
        },
        {
          "regAuth": 50,
          "regCat": 0,
          "st": 2,
          "stDt": "2013-04-19T00:00:00"
        },
        {
          "regAuth": 23,
          "regCat": 0,
          "st": 2,
          "stDt": "2013-04-25T00:00:00"
        },
        {
          "regAuth": 0,
          "regCat": 0,
          "st": 2,
          "stDt": "2014-01-21T00:00:00"
        },
        {
          "regAuth": 37,
          "regCat": 0,
          "st": 2,
          "stDt": "2014-01-27T00:00:00"
        },
        {
          "regAuth": 9,
          "regCat": 0,
          "st": 2,
          "stDt": "2015-04-27T00:00:00"
        },
        {
          "regAuth": 4,
          "regCat": 0,
          "st": 2,
          "stDt": "2015-07-01T00:00:00"
        },
        {
          "regAuth": 5,
          "regCat": 0,
          "st": 2,
          "stDt": "2015-07-01T00:00:00"
        },
        {
          "regAuth": 22,
          "regCat": 0,
          "st": 2,
          "stDt": "2015-07-01T00:00:00"
        },
        {
          "regAuth": 24,
          "regCat": 0,
          "st": 2,
          "stDt": "2015-07-01T00:00:00"
        },
        {
          "regAuth": 31,
          "regCat": 0,
          "st": 2,
          "stDt": "2015-07-01T00:00:00"
        },
        {
          "regAuth": 33,
          "regCat": 0,
          "st": 2,
          "stDt": "2015-07-01T00:00:00"
        },
        {
          "regAuth": 36,
          "regCat": 0,
          "st": 2,
          "stDt": "2015-07-01T00:00:00"
        },
        {
          "regAuth": 42,
          "regCat": 0,
          "st": 2,
          "stDt": "2015-07-01T00:00:00"
        },
        {
          "regAuth": 45,
          "regCat": 0,
          "st": 3,
          "stDt": "2015-07-01T00:00:00"
        },
        {
          "regAuth": 47,
          "regCat": 0,
          "st": 2,
          "stDt": "2015-07-01T00:00:00"
        },
        {
          "regAuth": 1,
          "regCat": 0,
          "st": 2,
          "stDt": "2015-07-06T00:00:00"
        },
        {
          "regAuth": 49,
          "regCat": 0,
          "st": 2,
          "stDt": "2015-07-06T00:00:00"
        },
        {
          "regAuth": 38,
          "regCat": 0,
          "st": 2,
          "stDt": "2015-07-07T00:00:00"
        },
        {
          "regAuth": 13,
          "regCat": 0,
          "st": 2,
          "stDt": "2015-07-08T00:00:00"
        },
        {
          "regAuth": 25,
          "regCat": 0,
          "st": 2,
          "stDt": "2015-07-09T00:00:00"
        },
        {
          "regAuth": 10,
          "regCat": 0,
          "st": 2,
          "stDt": "2015-07-13T00:00:00"
        },
        {
          "regAuth": 3,
          "regCat": 0,
          "st": 2,
          "stDt": "2015-07-20T00:00:00"
        },
        {
          "regAuth": 20,
          "regCat": 0,
          "st": 2,
          "stDt": "2015-08-18T00:00:00"
        },
        {
          "regAuth": 12,
          "regCat": 0,
          "st": 2,
          "stDt": "2015-12-10T00:00:00"
        },
        {
          "regAuth": 18,
          "regCat": 0,
          "st": 2,
          "stDt": "2015-12-14T00:00:00"
        },
        {
          "regAuth": 21,
          "regCat": 0,
          "st": 2,
          "stDt": "2015-12-16T00:00:00"
        }
      ],
      "BrnchOfLocs": [
        {
          "str1": "500 WEST MADISON",
          "str2": "SUITE 2850",
          "city": "CHICAGO",
          "state": 15,
          "stateSpecified": true,
          "cntry": "United States",
          "postlCd": "60661"
        }
      ],
      "orgNm": "VALIC FINANCIAL ADVISORS, INC.",
      "orgPK": "42803",
      "str1": "2929 ALLEN PKWY; L3-20",
      "str2": null,
      "city": "HOUSTON",
      "state": 45,
      "stateSpecified": true,
      "cntry": "United States",
      "postlCd": "77019"
    }
  ],
  "Exms": [
    {
      "exmCd": 0,
      "exmNm": "Uniform Securities Agent State Law Examination",
      "exmDt": "2011-06-07T00:00:00",
      "exmDtSpecified": true
    },
    {
      "exmCd": 3,
      "exmNm": "Uniform Combined State Law Examination",
      "exmDt": "2013-04-11T00:00:00",
      "exmDtSpecified": true
    }
  ],
  "Dsgntns": [],
  "PrevRgstns": [],
  "EmpHss": [
    {
      "fromDt": "01/1997",
      "toDt": "01/2007",
      "orgNm": "PRAIRIE HEIGHTS COMMUNITY SCHOOL",
      "city": "LAGRANGE",
      "state": 16,
      "stateSpecified": true
    },
    {
      "fromDt": "08/2000",
      "toDt": "04/2007",
      "orgNm": "WILCOX LAWN SERVICE",
      "city": "ANGOLA",
      "state": 16,
      "stateSpecified": true
    },
    {
      "fromDt": "08/2002",
      "toDt": "01/2007",
      "orgNm": "INDIANA UNIVERSITY",
      "city": "BLOOMINGTON",
      "state": 16,
      "stateSpecified": true
    },
    {
      "fromDt": "01/2007",
      "toDt": "04/2009",
      "orgNm": "HURLOW WEALTH MANAGEMENT",
      "city": "BLOOMINGTON",
      "state": 16,
      "stateSpecified": true
    },
    {
      "fromDt": "04/2009",
      "toDt": "11/2010",
      "orgNm": "UNEMPLOYED",
      "city": "BLOOMINGTON",
      "state": 16,
      "stateSpecified": true
    },
    {
      "fromDt": "11/2010",
      "toDt": null,
      "orgNm": "VALIC FINANCIAL ADVISORS",
      "city": "CHICAGO",
      "state": 15,
      "stateSpecified": true
    }
  ],
  "OthrBuss": {
    "OthrBus": null
  },
  "DRPs": []
}