{
  "Info": {
    "lastNm": "SHROPSHIRE",
    "firstNm": "ANTHONY",
    "midNm": "B",
    "sufNm": null,
    "indvlPK": "5401236",
    "actvAGReg": 0,
    "link": "http://www.adviserinfo.sec.gov/IAPD/Individual/5401236"
  },
  "OthrNms": [],
  "CrntEmps": [
    {
      "CrntRgstns": [
        {
          "regAuth": 32,
          "regCat": 0,
          "st": 2,
          "stDt": "2011-06-16T00:00:00"
        },
        {
          "regAuth": 45,
          "regCat": 0,
          "st": 3,
          "stDt": "2012-11-01T00:00:00"
        }
      ],
      "BrnchOfLocs": [
        {
          "str1": "717 5TH AVE",
          "str2": null,
          "city": "NEW YORK",
          "state": 35,
          "stateSpecified": true,
          "cntry": "United States",
          "postlCd": "10022"
        }
      ],
      "orgNm": "MERRILL LYNCH, PIERCE, FENNER & SMITH INCORPORATED",
      "orgPK": "7691",
      "str1": "ONE BRYANT PARK",
      "str2": null,
      "city": "NEW YORK",
      "state": 35,
      "stateSpecified": true,
      "cntry": "United States",
      "postlCd": "10036"
    }
  ],
  "Exms": [
    {
      "exmCd": 0,
      "exmNm": "Uniform Securities Agent State Law Examination",
      "exmDt": "2007-09-27T00:00:00",
      "exmDtSpecified": true
    },
    {
      "exmCd": 3,
      "exmNm": "Uniform Combined State Law Examination",
      "exmDt": "2010-06-04T00:00:00",
      "exmDtSpecified": true
    }
  ],
  "Dsgntns": [],
  "PrevRgstns": [
    {
      "BrnchOfLocs": [
        {
          "city": "NEW YORK",
          "state": 35,
          "stateSpecified": true
        }
      ],
      "orgNm": "MORGAN STANLEY",
      "orgPK": "149777",
      "regBeginDt": "2010-06-08T00:00:00",
      "regBeginDtSpecified": true,
      "regEndDt": "2011-06-28T00:00:00",
      "regEndDtSpecified": true
    }
  ],
  "EmpHss": [
    {
      "fromDt": "05/2005",
      "toDt": "04/2007",
      "orgNm": "PRUDENTIAL MORTGAGE CORP",
      "city": "GARDEN CITY",
      "state": 35,
      "stateSpecified": true
    },
    {
      "fromDt": "05/2007",
      "toDt": "07/2007",
      "orgNm": "FREEDOM MORTGAGE",
      "city": "GARDEN CITY",
      "state": 35,
      "stateSpecified": true
    },
    {
      "fromDt": "08/2007",
      "toDt": "02/2008",
      "orgNm": "JPMORGAN CHASE BANK NA",
      "city": "FREEPORT",
      "state": 35,
      "stateSpecified": true
    },
    {
      "fromDt": "03/2008",
      "toDt": "02/2010",
      "orgNm": "PARK AVE SECURITIES",
      "city": "WESTBURY",
      "state": 35,
      "stateSpecified": true
    },
    {
      "fromDt": "03/2010",
      "toDt": "06/2011",
      "orgNm": "MORGAN STANLEY SMITH BARNEY",
      "city": "NEW YORK",
      "state": 35,
      "stateSpecified": true
    },
    {
      "fromDt": "06/2011",
      "toDt": null,
      "orgNm": "MERRILL LYNCH, PIERCE, FENNER & SMITH INCORPORATED",
      "city": "NEW YORK",
      "state": 35,
      "stateSpecified": true
    },
    {
      "fromDt": "07/2011",
      "toDt": null,
      "orgNm": "BANK OF AMERICA, N.A.",
      "city": "NEW YORK",
      "state": 35,
      "stateSpecified": true
    }
  ],
  "OthrBuss": {
    "OthrBus": null
  },
  "DRPs": []
}