{
  "Info": {
    "lastNm": "REESE",
    "firstNm": "JARMICA",
    "midNm": "DEMETRIUS",
    "sufNm": null,
    "indvlPK": "5405956",
    "actvAGReg": 0,
    "link": "http://www.adviserinfo.sec.gov/IAPD/Individual/5405956"
  },
  "OthrNms": [
    {
      "lastNm": "REESE",
      "firstNm": "\"J\"",
      "midNm": null,
      "sufNm": null
    },
    {
      "lastNm": "REESE",
      "firstNm": "JARMICA",
      "midNm": null,
      "sufNm": null
    },
    {
      "lastNm": "REESE",
      "firstNm": "JARMICA",
      "midNm": "DEMETRIUS",
      "sufNm": null
    }
  ],
  "CrntEmps": [
    {
      "CrntRgstns": [
        {
          "regAuth": 34,
          "regCat": 0,
          "st": 2,
          "stDt": "2009-08-17T00:00:00"
        },
        {
          "regAuth": 5,
          "regCat": 0,
          "st": 2,
          "stDt": "2010-03-09T00:00:00"
        },
        {
          "regAuth": 1,
          "regCat": 0,
          "st": 2,
          "stDt": "2010-08-26T00:00:00"
        },
        {
          "regAuth": 4,
          "regCat": 0,
          "st": 2,
          "stDt": "2011-02-10T00:00:00"
        },
        {
          "regAuth": 9,
          "regCat": 0,
          "st": 2,
          "stDt": "2013-02-25T00:00:00"
        },
        {
          "regAuth": 49,
          "regCat": 0,
          "st": 2,
          "stDt": "2013-10-16T00:00:00"
        },
        {
          "regAuth": 14,
          "regCat": 0,
          "st": 2,
          "stDt": "2014-01-08T00:00:00"
        },
        {
          "regAuth": 28,
          "regCat": 0,
          "st": 2,
          "stDt": "2014-05-09T00:00:00"
        },
        {
          "regAuth": 42,
          "regCat": 0,
          "st": 2,
          "stDt": "2014-11-24T00:00:00"
        },
        {
          "regAuth": 32,
          "regCat": 0,
          "st": 2,
          "stDt": "2016-06-06T00:00:00"
        },
        {
          "regAuth": 45,
          "regCat": 0,
          "st": 3,
          "stDt": "2016-06-08T00:00:00"
        }
      ],
      "BrnchOfLocs": [
        {
          "str1": "9505 HILLWOOD DR",
          "str2": "SUITE 150",
          "city": "LAS VEGAS",
          "state": 34,
          "stateSpecified": true,
          "cntry": "United States",
          "postlCd": "89134"
        }
      ],
      "orgNm": "WADDELL & REED",
      "orgPK": "866",
      "str1": "6300 LAMAR AVENUE",
      "str2": null,
      "city": "OVERLAND PARK",
      "state": 17,
      "stateSpecified": true,
      "cntry": "United States",
      "postlCd": "66202-4200"
    }
  ],
  "Exms": [
    {
      "exmCd": 3,
      "exmNm": "Uniform Combined State Law Examination",
      "exmDt": "2007-11-02T00:00:00",
      "exmDtSpecified": true
    }
  ],
  "Dsgntns": [],
  "PrevRgstns": [
    {
      "BrnchOfLocs": [
        {
          "city": "HENDERSON",
          "state": 34,
          "stateSpecified": true
        }
      ],
      "orgNm": "AMERIPRISE FINANCIAL SERVICES, INC.",
      "orgPK": "6363",
      "regBeginDt": "2007-11-05T00:00:00",
      "regBeginDtSpecified": true,
      "regEndDt": "2009-08-12T00:00:00",
      "regEndDtSpecified": true
    }
  ],
  "EmpHss": [
    {
      "fromDt": "05/1998",
      "toDt": "08/2007",
      "orgNm": "U S AIR FORCE",
      "city": "COLORADO SPRINGS",
      "state": 5,
      "stateSpecified": true
    },
    {
      "fromDt": "08/2007",
      "toDt": "08/2009",
      "orgNm": "AMERIPRISE FINANCIAL SERVICES, INC.",
      "city": "LAS VEGAS",
      "state": 34,
      "stateSpecified": true
    },
    {
      "fromDt": "02/2009",
      "toDt": "03/2011",
      "orgNm": "LATIP LONE MOUNTAIN",
      "city": "LAS VEGAS",
      "state": 34,
      "stateSpecified": true
    },
    {
      "fromDt": "02/2009",
      "toDt": null,
      "orgNm": "TRUVELLA S. REESE, DMD LLC",
      "city": "LAS VEGAS",
      "state": 34,
      "stateSpecified": true
    },
    {
      "fromDt": "08/2009",
      "toDt": null,
      "orgNm": "VARIOUS INSURANCE CARRIERS FOR W&R INSURANCE AGENCIES",
      "city": "N LAS VEGAS",
      "state": 34,
      "stateSpecified": true
    },
    {
      "fromDt": "08/2009",
      "toDt": null,
      "orgNm": "WADDELL & REED, INC",
      "city": "LAS VEGAS",
      "state": 34,
      "stateSpecified": true
    },
    {
      "fromDt": "03/2010",
      "toDt": null,
      "orgNm": "LAS VEGAS AOG CHAPTER",
      "city": "LAS VEGAS",
      "state": 34,
      "stateSpecified": true
    },
    {
      "fromDt": "01/2013",
      "toDt": null,
      "orgNm": "BNI - MONEY MAKERS CHAPTER",
      "city": "LAS VEGAS",
      "state": 34,
      "stateSpecified": true
    }
  ],
  "OthrBuss": {
    "OthrBus": {
      "desc": "TRUVELLA S. REESE, DMD LLC/INVESTMENT RELATED: N/DENTISTRY/OFFICER/0 HRS PER MONTH, 0 HRS PER DAY DURING TRADING HRS/02/2009-PRESENT/LAS VEGAS, NV. 3/2010-PRESENT, LAS VEGAS AOG CHAPTER, LAS VEGAS, NV, INVEST-RELATED: N, ALUMNI CHAPTER, NETWORKING COORDINATOR & DIRECTOR, 1 HR/MO, 0 SEC HRS.    VARIOUS INSURANCE CARRIERS FOR W&R INSURANCE AGENCIES/INVESTMENT RELATED: Y/INSURANCE SALES/INSURANCE AGENT/08/2009-PRESENT/N LAS VEGAS, NV  1/2013-PRESENT, BNI - MONEY MAKERS CHAPTER, LAS VEGAS, NV, BUSINESS NETWORKING GROUP, VICE PRESIDENT, NOT INVESTMENT RELATED, 8 HOURS/MONTH, 0 HOURS/DAY DURING SECURITIES TRADING HOURS."
    }
  },
  "DRPs": []
}