{
  "Info": {
    "lastNm": "SEGER",
    "firstNm": "CODY",
    "midNm": "JAMES",
    "sufNm": null,
    "indvlPK": "5409444",
    "actvAGReg": 0,
    "link": "http://www.adviserinfo.sec.gov/IAPD/Individual/5409444"
  },
  "OthrNms": [],
  "CrntEmps": [
    {
      "CrntRgstns": [
        {
          "regAuth": 30,
          "regCat": 0,
          "st": 2,
          "stDt": "2009-08-28T00:00:00"
        }
      ],
      "BrnchOfLocs": [
        {
          "str1": "200 SOUTH 108TH AVENUE",
          "str2": null,
          "city": "OMAHA",
          "state": 30,
          "stateSpecified": true,
          "cntry": "United States",
          "postlCd": "68154"
        }
      ],
      "orgNm": "TD AMERITRADE, INC.",
      "orgPK": "7870",
      "str1": "200 SOUTH 108TH AVENUE",
      "str2": null,
      "city": "OMAHA",
      "state": 30,
      "stateSpecified": true,
      "cntry": "United States",
      "postlCd": "68154"
    }
  ],
  "Exms": [
    {
      "exmCd": 0,
      "exmNm": "Uniform Securities Agent State Law Examination",
      "exmDt": "2008-06-21T00:00:00",
      "exmDtSpecified": true
    },
    {
      "exmCd": 3,
      "exmNm": "Uniform Combined State Law Examination",
      "exmDt": "2009-08-20T00:00:00",
      "exmDtSpecified": true
    }
  ],
  "Dsgntns": [],
  "PrevRgstns": [
    {
      "BrnchOfLocs": [
        {
          "city": "OMAHA",
          "state": 30,
          "stateSpecified": true
        }
      ],
      "orgNm": "AMERIVEST INVESTMENT MANAGEMENT, LLC",
      "orgPK": "111514",
      "regBeginDt": "2009-08-28T00:00:00",
      "regBeginDtSpecified": true,
      "regEndDt": "2015-12-04T00:00:00",
      "regEndDtSpecified": true
    }
  ],
  "EmpHss": [
    {
      "fromDt": "12/2004",
      "toDt": "08/2007",
      "orgNm": "WAL-MART",
      "city": "BEATRICE/ FREMONT",
      "state": 30,
      "stateSpecified": true
    },
    {
      "fromDt": "08/2007",
      "toDt": "01/2008",
      "orgNm": "AEROTEK",
      "city": "OMAHA",
      "state": 30,
      "stateSpecified": true
    },
    {
      "fromDt": "01/2008",
      "toDt": null,
      "orgNm": "TD AMERITRADE",
      "city": "BELLEVUE",
      "state": 30,
      "stateSpecified": true
    }
  ],
  "OthrBuss": {
    "OthrBus": null
  },
  "DRPs": []
}