{
  "Info": {
    "lastNm": "BETANCOURT",
    "firstNm": "MICHELLE",
    "midNm": "ANN",
    "sufNm": null,
    "indvlPK": "5411155",
    "actvAGReg": 0,
    "link": "http://www.adviserinfo.sec.gov/IAPD/Individual/5411155"
  },
  "OthrNms": [
    {
      "lastNm": "DONOHUE",
      "firstNm": "MICHELLE",
      "midNm": "ANN",
      "sufNm": null
    }
  ],
  "CrntEmps": [
    {
      "CrntRgstns": [
        {
          "regAuth": 19,
          "regCat": 0,
          "st": 2,
          "stDt": "2016-01-05T00:00:00"
        },
        {
          "regAuth": 25,
          "regCat": 0,
          "st": 2,
          "stDt": "2016-01-06T00:00:00"
        }
      ],
      "BrnchOfLocs": [
        {
          "str1": null,
          "str2": null,
          "city": "Chandler",
          "state": 3,
          "stateSpecified": true,
          "cntry": "United States",
          "postlCd": null
        },
        {
          "str1": "1245 JJ KELLEY MEMORIAL DRIVE",
          "str2": null,
          "city": "ST LOUIS",
          "state": 25,
          "stateSpecified": true,
          "cntry": "United States",
          "postlCd": "63131"
        }
      ],
      "orgNm": "EDWARD JONES",
      "orgPK": "250",
      "str1": "12555 MANCHESTER RD",
      "str2": null,
      "city": "ST. LOUIS",
      "state": 25,
      "stateSpecified": true,
      "cntry": "United States",
      "postlCd": "63131"
    }
  ],
  "Exms": [
    {
      "exmCd": 3,
      "exmNm": "Uniform Combined State Law Examination",
      "exmDt": "2009-06-10T00:00:00",
      "exmDtSpecified": true
    }
  ],
  "Dsgntns": [],
  "PrevRgstns": [
    {
      "BrnchOfLocs": [
        {
          "city": "TEMPE",
          "state": 3,
          "stateSpecified": true
        }
      ],
      "orgNm": "EDWARD JONES",
      "orgPK": "250",
      "regBeginDt": "2009-06-22T00:00:00",
      "regBeginDtSpecified": true,
      "regEndDt": "2011-06-28T00:00:00",
      "regEndDtSpecified": true
    },
    {
      "BrnchOfLocs": [
        {
          "city": "HUNTSVILLE",
          "state": 1,
          "stateSpecified": true
        }
      ],
      "orgNm": "RAYMOND JAMES & ASSOCIATES, INC.",
      "orgPK": "705",
      "regBeginDt": "2013-05-23T00:00:00",
      "regBeginDtSpecified": true,
      "regEndDt": "2014-12-15T00:00:00",
      "regEndDtSpecified": true
    },
    {
      "BrnchOfLocs": [
        {
          "city": "NEW ORLEANS",
          "state": 19,
          "stateSpecified": true
        },
        {
          "city": "SEATTLE",
          "state": 49,
          "stateSpecified": true
        }
      ],
      "orgNm": "CAPITAL ONE ADVISORS, LLC",
      "orgPK": "136865",
      "regBeginDt": "2015-01-29T00:00:00",
      "regBeginDtSpecified": true,
      "regEndDt": "2015-12-16T00:00:00",
      "regEndDtSpecified": true
    }
  ],
  "EmpHss": [
    {
      "fromDt": "02/2005",
      "toDt": "11/2010",
      "orgNm": "AMC THEATRES",
      "city": "MESA",
      "state": 3,
      "stateSpecified": true
    },
    {
      "fromDt": "08/2005",
      "toDt": "05/2007",
      "orgNm": "ARIZONA STATE UNIVERSITY",
      "city": "TEMPE",
      "state": 3,
      "stateSpecified": true
    },
    {
      "fromDt": "03/2006",
      "toDt": "12/2010",
      "orgNm": "QUIXTAR",
      "city": "TEMPE",
      "state": 3,
      "stateSpecified": true
    },
    {
      "fromDt": "08/2007",
      "toDt": "06/2011",
      "orgNm": "EDWARD JONES",
      "city": "TEMPE",
      "state": 3,
      "stateSpecified": true
    },
    {
      "fromDt": "07/2011",
      "toDt": "04/2013",
      "orgNm": "THE VANGUARD GROUP, INC.",
      "city": "SCOTTSDALE",
      "state": 3,
      "stateSpecified": true
    },
    {
      "fromDt": "05/2013",
      "toDt": "12/2014",
      "orgNm": "RAYMOND JAMES & ASSOCIATES",
      "city": "HUNTSVILLE",
      "state": 1,
      "stateSpecified": true
    },
    {
      "fromDt": "01/2015",
      "toDt": "12/2015",
      "orgNm": "CAPITAL ONE",
      "city": "NEW ORLEANS",
      "state": 19,
      "stateSpecified": true
    },
    {
      "fromDt": "12/2015",
      "toDt": null,
      "orgNm": "Edward Jones",
      "city": "St Louis",
      "state": 25,
      "stateSpecified": true
    }
  ],
  "OthrBuss": {
    "OthrBus": {
      "desc": "Rental Property Chandler, AZ  Start date: 3/1/2013  Owner  Hours per week: 1  Hours during trading: 0  Property management company manages tenants, collects rent, maintenance and repairs. I approve the cost and communicate with the pool service company if needed.    \"Rental Property  Tempe, AZ  Start date: 3/15/2013  Owner  Hours per week: 1  Hours during trading: 0  Property management company manages tenants, collects rent, maintenance and repairs. I approve the cost and communicate with the pool service company if needed.\""
    }
  },
  "DRPs": []
}