{
  "Info": {
    "lastNm": "RAZZANO",
    "firstNm": "ANTHONY",
    "midNm": "JOHN",
    "sufNm": null,
    "indvlPK": "5422716",
    "actvAGReg": 1,
    "link": "http://www.adviserinfo.sec.gov/IAPD/Individual/5422716"
  },
  "OthrNms": [],
  "CrntEmps": [
    {
      "CrntRgstns": [
        {
          "regAuth": 39,
          "regCat": 0,
          "st": 2,
          "stDt": "2015-02-10T00:00:00"
        }
      ],
      "BrnchOfLocs": [
        {
          "str1": "1101 WILMINGTON ROAD",
          "str2": null,
          "city": "NEW CASTLE",
          "state": 39,
          "stateSpecified": true,
          "cntry": "UNITED STATES",
          "postlCd": "16101"
        }
      ],
      "orgNm": "RAZZANO INVESTMENT MANAGEMENT",
      "orgPK": "152666",
      "str1": "1101 WILMINGTON ROAD",
      "str2": null,
      "city": "NEW CASTLE",
      "state": 39,
      "stateSpecified": true,
      "cntry": "United States",
      "postlCd": "16101"
    }
  ],
  "Exms": [],
  "Dsgntns": [],
  "PrevRgstns": [
    {
      "BrnchOfLocs": [
        {
          "city": "NEW CASTLE",
          "state": 39,
          "stateSpecified": true
        }
      ],
      "orgNm": "RAZZANO INVESTMENT MANAGEMENT",
      "orgPK": "152666",
      "regBeginDt": "2011-04-08T00:00:00",
      "regBeginDtSpecified": true,
      "regEndDt": "2012-12-31T00:00:00",
      "regEndDtSpecified": true
    }
  ],
  "EmpHss": [
    {
      "fromDt": "10/2005",
      "toDt": null,
      "orgNm": "SELF EMPLOYED",
      "city": "NEW CASTLE",
      "state": 39,
      "stateSpecified": true
    }
  ],
  "OthrBuss": {
    "OthrBus": {
      "desc": "I AM A CPA WORKING WITH INDIVIDUALS, CORPORATIONS AND PARTNERSHIPS."
    }
  },
  "DRPs": []
}