{
  "Info": {
    "lastNm": "NOMMENSEN",
    "firstNm": "BECKY",
    "midNm": "L",
    "sufNm": null,
    "indvlPK": "5425071",
    "actvAGReg": 0,
    "link": "http://www.adviserinfo.sec.gov/IAPD/Individual/5425071"
  },
  "OthrNms": [
    {
      "lastNm": "NOMMFNSEN",
      "firstNm": "BECKY",
      "midNm": "L",
      "sufNm": null
    },
    {
      "lastNm": "WELTER",
      "firstNm": "BECKY",
      "midNm": "LYNN",
      "sufNm": null
    }
  ],
  "CrntEmps": [
    {
      "CrntRgstns": [
        {
          "regAuth": 50,
          "regCat": 0,
          "st": 2,
          "stDt": "2013-07-09T00:00:00"
        },
        {
          "regAuth": 4,
          "regCat": 0,
          "st": 2,
          "stDt": "2016-04-21T00:00:00"
        }
      ],
      "BrnchOfLocs": [
        {
          "str1": "100 HARBORVIEW PLAZA",
          "str2": "STE C-4",
          "city": "LA CROSSE",
          "state": 50,
          "stateSpecified": true,
          "cntry": "United States",
          "postlCd": "54601"
        }
      ],
      "orgNm": "MUTUAL OF OMAHA INVESTOR SERVICES, INC.",
      "orgPK": "611",
      "str1": "3300 MUTUAL OF OMAHA PLAZA",
      "str2": null,
      "city": "OMAHA",
      "state": 30,
      "stateSpecified": true,
      "cntry": "United States",
      "postlCd": "68175-1020"
    }
  ],
  "Exms": [
    {
      "exmCd": 0,
      "exmNm": "Uniform Securities Agent State Law Examination",
      "exmDt": "2008-02-05T00:00:00",
      "exmDtSpecified": true
    },
    {
      "exmCd": 2,
      "exmNm": "Uniform Investment Adviser Law Examination",
      "exmDt": "2013-06-22T00:00:00",
      "exmDtSpecified": true
    }
  ],
  "Dsgntns": [],
  "PrevRgstns": [],
  "EmpHss": [
    {
      "fromDt": "06/2005",
      "toDt": "11/2006",
      "orgNm": "UNEMPLOYED",
      "city": "PRAIRIE DU CHIEN",
      "state": 50,
      "stateSpecified": true
    },
    {
      "fromDt": "12/2006",
      "toDt": null,
      "orgNm": "MUTUAL OF OMAHA",
      "city": "LA CROSSE",
      "state": 50,
      "stateSpecified": true
    }
  ],
  "OthrBuss": {
    "OthrBus": {
      "desc": "ASSURANT HEALTH, SHORT TERM HEALTH INSURANCE, 2/14/2012, AGENT, LESS 1 HR PER MONTH, LESS 1HR PER MONTH DURING SECURITIES TRADING HOURS.   REQUESTING A DBA FOR USE AS A FINANCIAL ADVISOR WITH MUTUAL OF OMAHA INVESTOR SERVICES.    \"NOMMENSEN FINANCIAL\""
    }
  },
  "DRPs": []
}