{
  "Info": {
    "lastNm": "ESPOSITO",
    "firstNm": "MARK",
    "midNm": "F",
    "sufNm": null,
    "indvlPK": "5426153",
    "actvAGReg": 0,
    "link": "http://www.adviserinfo.sec.gov/IAPD/Individual/5426153"
  },
  "OthrNms": [
    {
      "lastNm": "ESPOSITO",
      "firstNm": "MARK",
      "midNm": "F",
      "sufNm": null
    },
    {
      "lastNm": "ESPOSITO",
      "firstNm": "MARK",
      "midNm": "FRANCIS",
      "sufNm": null
    }
  ],
  "CrntEmps": [
    {
      "CrntRgstns": [
        {
          "regAuth": 39,
          "regCat": 0,
          "st": 2,
          "stDt": "2014-08-25T00:00:00"
        },
        {
          "regAuth": 32,
          "regCat": 0,
          "st": 2,
          "stDt": "2015-12-03T00:00:00"
        },
        {
          "regAuth": 45,
          "regCat": 0,
          "st": 2,
          "stDt": "2015-12-11T00:00:00"
        }
      ],
      "BrnchOfLocs": [
        {
          "str1": "1100-1800 AMERICAN BLVD",
          "str2": "MERRILL EDGE ADVISORY CENTER",
          "city": "PENNINGTON",
          "state": 32,
          "stateSpecified": true,
          "cntry": "United States",
          "postlCd": "08534"
        }
      ],
      "orgNm": "MERRILL LYNCH, PIERCE, FENNER & SMITH INCORPORATED",
      "orgPK": "7691",
      "str1": "ONE BRYANT PARK",
      "str2": null,
      "city": "NEW YORK",
      "state": 35,
      "stateSpecified": true,
      "cntry": "United States",
      "postlCd": "10036"
    }
  ],
  "Exms": [
    {
      "exmCd": 3,
      "exmNm": "Uniform Combined State Law Examination",
      "exmDt": "2008-05-27T00:00:00",
      "exmDtSpecified": true
    }
  ],
  "Dsgntns": [],
  "PrevRgstns": [
    {
      "BrnchOfLocs": [
        {
          "city": "CENTER VALLEY",
          "state": 39,
          "stateSpecified": true
        }
      ],
      "orgNm": "MML INVESTORS SERVICES, LLC",
      "orgPK": "10409",
      "regBeginDt": "2009-01-21T00:00:00",
      "regBeginDtSpecified": true,
      "regEndDt": "2009-03-02T00:00:00",
      "regEndDtSpecified": true
    },
    {
      "BrnchOfLocs": [
        {
          "city": "CENTER VALLEY",
          "state": 39,
          "stateSpecified": true
        }
      ],
      "orgNm": "AMERIPRISE FINANCIAL SERVICES, INC.",
      "orgPK": "6363",
      "regBeginDt": "2009-02-25T00:00:00",
      "regBeginDtSpecified": true,
      "regEndDt": "2009-09-17T00:00:00",
      "regEndDtSpecified": true
    }
  ],
  "EmpHss": [
    {
      "fromDt": "04/2000",
      "toDt": "06/2007",
      "orgNm": "NUCCI'S ITALIAN ICE AND GELATO",
      "city": "BENSALEM",
      "state": 39,
      "stateSpecified": true
    },
    {
      "fromDt": "08/2005",
      "toDt": null,
      "orgNm": "UNITED STATES AIR FORCE",
      "city": "WILLOW GROVE",
      "state": 39,
      "stateSpecified": true
    },
    {
      "fromDt": "09/2007",
      "toDt": "01/2008",
      "orgNm": "EDWARD JONES",
      "city": "ST LOUIS",
      "state": 25,
      "stateSpecified": true
    },
    {
      "fromDt": "04/2008",
      "toDt": "02/2009",
      "orgNm": "MASSMUTUAL LIFE INSURANCE COMPANY",
      "city": "CENTER VALLEY",
      "state": 39,
      "stateSpecified": true
    },
    {
      "fromDt": "05/2008",
      "toDt": "02/2009",
      "orgNm": "MML INVESTORS SERVICES, INC",
      "city": "CENTER VALLEY",
      "state": 39,
      "stateSpecified": true
    },
    {
      "fromDt": "02/2009",
      "toDt": "08/2009",
      "orgNm": "AMERIPRISE FINANCIAL SERVICES",
      "city": "CENTER VALLEY",
      "state": 39,
      "stateSpecified": true
    },
    {
      "fromDt": "04/2011",
      "toDt": null,
      "orgNm": "MERRILL LYNCH, PIERCE, FENNER & SMITH INCORPORATED",
      "city": "NEW YORK",
      "state": 35,
      "stateSpecified": true
    },
    {
      "fromDt": "09/2011",
      "toDt": null,
      "orgNm": "BANK OF AMERICA, N.A.",
      "city": "NEW YORK",
      "state": 35,
      "stateSpecified": true
    }
  ],
  "OthrBuss": {
    "OthrBus": {
      "desc": "UNITED STATES AIR FORCE  WILLOW GROVE PA  SINCE 08-2008  SECURITY FORCES"
    }
  },
  "DRPs": []
}