{
  "Info": {
    "lastNm": "LEUNG",
    "firstNm": "KEVIN",
    "midNm": "H",
    "sufNm": null,
    "indvlPK": "5431630",
    "actvAGReg": 1,
    "link": "http://www.adviserinfo.sec.gov/IAPD/Individual/5431630"
  },
  "OthrNms": [],
  "CrntEmps": [
    {
      "CrntRgstns": [
        {
          "regAuth": 23,
          "regCat": 0,
          "st": 2,
          "stDt": "2015-11-16T00:00:00"
        }
      ],
      "BrnchOfLocs": [
        {
          "str1": "30100 TELEGRAPH RD",
          "str2": "STE 100",
          "city": "BINGHAM FARMS",
          "state": 23,
          "stateSpecified": true,
          "cntry": "United States",
          "postlCd": "48025"
        }
      ],
      "orgNm": "ABG PORTFOLIO STRATEGIES, INC.",
      "orgPK": "111116",
      "str1": "30100 TELEGRAPH RD",
      "str2": "STE 100",
      "city": "BINGHAM FARMS",
      "state": 23,
      "stateSpecified": true,
      "cntry": "United States",
      "postlCd": "48025"
    }
  ],
  "Exms": [
    {
      "exmCd": 2,
      "exmNm": "Uniform Investment Adviser Law Examination",
      "exmDt": "2015-11-12T00:00:00",
      "exmDtSpecified": true
    }
  ],
  "Dsgntns": [],
  "PrevRgstns": [],
  "EmpHss": [
    {
      "fromDt": "07/2005",
      "toDt": "09/2007",
      "orgNm": "Safeway",
      "city": "Mill Creek",
      "state": 49,
      "stateSpecified": true
    },
    {
      "fromDt": "09/2007",
      "toDt": "03/2008",
      "orgNm": "Merrill Lynch",
      "city": "Bellevue",
      "state": 49,
      "stateSpecified": true
    },
    {
      "fromDt": "03/2008",
      "toDt": "08/2008",
      "orgNm": "Unemployed",
      "city": "Seattle",
      "state": 49,
      "stateSpecified": true
    },
    {
      "fromDt": "08/2008",
      "toDt": "12/2008",
      "orgNm": "B-Line LLC",
      "city": "Seattle",
      "state": 49,
      "stateSpecified": true
    },
    {
      "fromDt": "01/2009",
      "toDt": "09/2012",
      "orgNm": "Benefit Administration Co",
      "city": "Seattle",
      "state": 49,
      "stateSpecified": true
    },
    {
      "fromDt": "09/2012",
      "toDt": "09/2014",
      "orgNm": "Pacific Portfolio Consulting",
      "city": "Seattle",
      "state": 49,
      "stateSpecified": true
    },
    {
      "fromDt": "09/2014",
      "toDt": "08/2015",
      "orgNm": "Unemployed",
      "city": "Seattle",
      "state": 49,
      "stateSpecified": true
    },
    {
      "fromDt": "08/2015",
      "toDt": null,
      "orgNm": "Alliance Benefit Group of Michigan",
      "city": "Bingham Farms",
      "state": 23,
      "stateSpecified": true
    }
  ],
  "OthrBuss": {
    "OthrBus": null
  },
  "DRPs": []
}