{
  "Info": {
    "lastNm": "Monterroza",
    "firstNm": "Giuliana",
    "midNm": "P",
    "sufNm": null,
    "indvlPK": "5434803",
    "actvAGReg": 0,
    "link": "http://www.adviserinfo.sec.gov/IAPD/Individual/5434803"
  },
  "OthrNms": [
    {
      "lastNm": "AVALOS FARRO",
      "firstNm": "GIULIANA",
      "midNm": "P",
      "sufNm": null
    },
    {
      "lastNm": "AVALOS FARRO",
      "firstNm": "GIULIANA",
      "midNm": "PILAR",
      "sufNm": null
    },
    {
      "lastNm": "AVALOS FARRO",
      "firstNm": "GIULIANA",
      "midNm": "PILAR",
      "sufNm": null
    },
    {
      "lastNm": "AVALOS FARRO",
      "firstNm": "GIULIANA",
      "midNm": "PILAR",
      "sufNm": null
    },
    {
      "lastNm": "AVALOS",
      "firstNm": "GIULIANA",
      "midNm": "P.",
      "sufNm": null
    },
    {
      "lastNm": "AVALOS",
      "firstNm": "GIULIANA",
      "midNm": "PILAR",
      "sufNm": null
    },
    {
      "lastNm": "AVALOS-FARRO",
      "firstNm": "GIULIANA",
      "midNm": "P",
      "sufNm": null
    },
    {
      "lastNm": "MONTERROZA",
      "firstNm": "GIULIANA",
      "midNm": "P",
      "sufNm": null
    }
  ],
  "CrntEmps": [
    {
      "CrntRgstns": [
        {
          "regAuth": 4,
          "regCat": 0,
          "st": 2,
          "stDt": "2010-10-18T00:00:00"
        }
      ],
      "BrnchOfLocs": [
        {
          "str1": "3007 CLAIREMONT DR SUITE E",
          "str2": null,
          "city": "SAN DIEGO",
          "state": 4,
          "stateSpecified": true,
          "cntry": "United States",
          "postlCd": "92117"
        }
      ],
      "orgNm": "EDWARD JONES",
      "orgPK": "250",
      "str1": "12555 MANCHESTER RD",
      "str2": null,
      "city": "ST. LOUIS",
      "state": 25,
      "stateSpecified": true,
      "cntry": "United States",
      "postlCd": "63131"
    }
  ],
  "Exms": [
    {
      "exmCd": 3,
      "exmNm": "Uniform Combined State Law Examination",
      "exmDt": "2008-02-05T00:00:00",
      "exmDtSpecified": true
    }
  ],
  "Dsgntns": [],
  "PrevRgstns": [
    {
      "BrnchOfLocs": [
        {
          "city": "LOS ANGELES",
          "state": 4,
          "stateSpecified": true
        },
        {
          "city": "LOS ANGELES",
          "state": 4,
          "stateSpecified": true
        }
      ],
      "orgNm": "WELLS FARGO INVESTMENTS, LLC",
      "orgPK": "10582",
      "regBeginDt": "2008-02-06T00:00:00",
      "regBeginDtSpecified": true,
      "regEndDt": "2010-02-16T00:00:00",
      "regEndDtSpecified": true
    }
  ],
  "EmpHss": [
    {
      "fromDt": "06/2004",
      "toDt": "03/2007",
      "orgNm": "UCLA",
      "city": "LOS ANGELES",
      "state": 4,
      "stateSpecified": true
    },
    {
      "fromDt": "07/2006",
      "toDt": "02/2010",
      "orgNm": "WELLS FARGO BANK",
      "city": "LOS ANGELES",
      "state": 4,
      "stateSpecified": true
    },
    {
      "fromDt": "10/2007",
      "toDt": "02/2010",
      "orgNm": "WELLS FARGO INVESTMENTS",
      "city": "LOS ANGELES",
      "state": 4,
      "stateSpecified": true
    },
    {
      "fromDt": "03/2010",
      "toDt": "10/2010",
      "orgNm": "UNEMPLOYED",
      "city": "PANORAMA CITY",
      "state": 4,
      "stateSpecified": true
    },
    {
      "fromDt": "10/2010",
      "toDt": null,
      "orgNm": "EDWARD JONES",
      "city": "ST. LOUIS",
      "state": 25,
      "stateSpecified": true
    }
  ],
  "OthrBuss": {
    "OthrBus": {
      "desc": "\"RENTAL PROPERTY  PANORAMA CITY, CA  START DATE: 6/2/2014  OWNER  HOURS PER MONTH: 1  HOURS DURING TRADING: 0  PROPERTY MANAGER: RESPONSIBLE FOR RENTING HOME AND PROVIDING CONTRATS TO TENANTS. OCASSIONALLY CALLING UPON MAINTENANCE CREW TO REPAIR FIX PROPERTY WHEN NEEDED.    RENTAL PROPERTY  SAN DIEGO, CA  START DATE: 7/3/2015  OWNER  HOURS PER MONTH: 1  HOURS DURING TRADING: 0  PROPERTY MANAGEMENT"
    }
  },
  "DRPs": []
}