{
  "Info": {
    "lastNm": "LUDWIG",
    "firstNm": "ERIC",
    "midNm": "THOMAS",
    "sufNm": null,
    "indvlPK": "5436713",
    "actvAGReg": 1,
    "link": "http://www.adviserinfo.sec.gov/IAPD/Individual/5436713"
  },
  "OthrNms": [],
  "CrntEmps": [
    {
      "CrntRgstns": [
        {
          "regAuth": 50,
          "regCat": 0,
          "st": 2,
          "stDt": "2014-08-05T00:00:00"
        }
      ],
      "BrnchOfLocs": [
        {
          "str1": "2808 KOHLER MEMORIAL DRIVE",
          "str2": "SUITE 6",
          "city": "SHEBOYGAN",
          "state": 50,
          "stateSpecified": true,
          "cntry": "United States",
          "postlCd": "53081"
        }
      ],
      "orgNm": "STOCKBRIDGE PRIVATE WEALTH MANAGEMENT, LLC",
      "orgPK": "171869",
      "str1": "2808 KOHLER MEMORIAL DRIVE",
      "str2": "SUITE 6",
      "city": "SHEBOYGAN",
      "state": 50,
      "stateSpecified": true,
      "cntry": "United States",
      "postlCd": "53081"
    }
  ],
  "Exms": [
    {
      "exmCd": 3,
      "exmNm": "Uniform Combined State Law Examination",
      "exmDt": "2007-11-16T00:00:00",
      "exmDtSpecified": true
    }
  ],
  "Dsgntns": [
    {
      "dsgntnNm": "Certified Financial Planner"
    }
  ],
  "PrevRgstns": [
    {
      "BrnchOfLocs": [
        {
          "city": "PORTAGE",
          "state": 50,
          "stateSpecified": true
        },
        {
          "city": "PORTAGE",
          "state": 50,
          "stateSpecified": true
        },
        {
          "city": "SHEBOYGAN",
          "state": 50,
          "stateSpecified": true
        },
        {
          "city": "WAUNAKEE",
          "state": 50,
          "stateSpecified": true
        },
        {
          "city": "WAUTOMA",
          "state": 50,
          "stateSpecified": true
        }
      ],
      "orgNm": "U.S. BANCORP INVESTMENTS, INC.",
      "orgPK": "17868",
      "regBeginDt": "2007-11-19T00:00:00",
      "regBeginDtSpecified": true,
      "regEndDt": "2014-08-04T00:00:00",
      "regEndDtSpecified": true
    }
  ],
  "EmpHss": [
    {
      "fromDt": "09/2004",
      "toDt": "09/2007",
      "orgNm": "AMERICAN EAGLE AIRLINE",
      "city": "DALLAS",
      "state": 45,
      "stateSpecified": true
    },
    {
      "fromDt": "09/2007",
      "toDt": "08/2014",
      "orgNm": "U.S. BANCORP INVESTMENTS, INC",
      "city": "SHEBOYGAN",
      "state": 50,
      "stateSpecified": true
    },
    {
      "fromDt": "08/2014",
      "toDt": "04/2015",
      "orgNm": "PURSHE KAPLAN STERLING INVESTMENTS",
      "city": "ALBANY",
      "state": 35,
      "stateSpecified": true
    },
    {
      "fromDt": "08/2014",
      "toDt": null,
      "orgNm": "STOCKBRIDGE PRIVATE WEALTH MGMT. LLC",
      "city": "SHEBOYGAN",
      "state": 50,
      "stateSpecified": true
    }
  ],
  "OthrBuss": {
    "OthrBus": null
  },
  "DRPs": [
    {
      "hasRegAction": 1,
      "hasRegActionSpecified": true,
      "hasCriminal": 1,
      "hasCriminalSpecified": true,
      "hasBankrupt": 1,
      "hasBankruptSpecified": true,
      "hasCivilJudc": 1,
      "hasCivilJudcSpecified": true,
      "hasBond": 1,
      "hasBondSpecified": true,
      "hasJudgment": 1,
      "hasJudgmentSpecified": true,
      "hasInvstgn": 1,
      "hasInvstgnSpecified": true,
      "hasCustComp": 0,
      "hasCustCompSpecified": true,
      "hasTermination": 1,
      "hasTerminationSpecified": true
    }
  ]
}