{
  "Info": {
    "lastNm": "KONDA",
    "firstNm": "BRANDON",
    "midNm": "MICHAEL",
    "sufNm": null,
    "indvlPK": "5438071",
    "actvAGReg": 0,
    "link": "http://www.adviserinfo.sec.gov/IAPD/Individual/5438071"
  },
  "OthrNms": [
    {
      "lastNm": "KONDA",
      "firstNm": "BRANDON",
      "midNm": "M",
      "sufNm": null
    }
  ],
  "CrntEmps": [
    {
      "CrntRgstns": [
        {
          "regAuth": 4,
          "regCat": 0,
          "st": 2,
          "stDt": "2010-05-04T00:00:00"
        },
        {
          "regAuth": 14,
          "regCat": 0,
          "st": 2,
          "stDt": "2010-07-28T00:00:00"
        },
        {
          "regAuth": 17,
          "regCat": 0,
          "st": 2,
          "stDt": "2010-09-29T00:00:00"
        },
        {
          "regAuth": 45,
          "regCat": 0,
          "st": 3,
          "stDt": "2013-09-26T00:00:00"
        },
        {
          "regAuth": 5,
          "regCat": 0,
          "st": 2,
          "stDt": "2014-06-10T00:00:00"
        }
      ],
      "BrnchOfLocs": [
        {
          "str1": "2 RUSSELL CT.",
          "str2": null,
          "city": "IRVINE",
          "state": 4,
          "stateSpecified": true,
          "cntry": "United States",
          "postlCd": "92617"
        },
        {
          "str1": "300 PARKLAND PLAZA",
          "str2": null,
          "city": "ANN ARBOR",
          "state": 23,
          "stateSpecified": true,
          "cntry": "United States",
          "postlCd": "48103"
        }
      ],
      "orgNm": "SPC",
      "orgPK": "110692",
      "str1": "300 PARKLAND PLAZA",
      "str2": null,
      "city": "ANN ARBOR",
      "state": 23,
      "stateSpecified": true,
      "cntry": "United States",
      "postlCd": "48103"
    }
  ],
  "Exms": [
    {
      "exmCd": 0,
      "exmNm": "Uniform Securities Agent State Law Examination",
      "exmDt": "2007-11-06T00:00:00",
      "exmDtSpecified": true
    },
    {
      "exmCd": 3,
      "exmNm": "Uniform Combined State Law Examination",
      "exmDt": "2008-10-06T00:00:00",
      "exmDtSpecified": true
    }
  ],
  "Dsgntns": [],
  "PrevRgstns": [
    {
      "BrnchOfLocs": [
        {
          "city": "TUSTIN",
          "state": 4,
          "stateSpecified": true
        }
      ],
      "orgNm": "COOPER MCMANUS",
      "orgPK": "111458",
      "regBeginDt": "2008-10-16T00:00:00",
      "regBeginDtSpecified": true,
      "regEndDt": "2010-03-10T00:00:00",
      "regEndDtSpecified": true
    }
  ],
  "EmpHss": [
    {
      "fromDt": "01/2003",
      "toDt": "09/2006",
      "orgNm": "PULTE HOMES",
      "city": "FAIRFAX",
      "state": 47,
      "stateSpecified": true
    },
    {
      "fromDt": "09/2006",
      "toDt": "06/2007",
      "orgNm": "PACIFIC CENTURY GROUP",
      "city": "IRVINE",
      "state": 4,
      "stateSpecified": true
    },
    {
      "fromDt": "07/2007",
      "toDt": "10/2007",
      "orgNm": "ELITE ED INSTITUTE",
      "city": "LA HARBA",
      "state": 4,
      "stateSpecified": true
    },
    {
      "fromDt": "10/2007",
      "toDt": "10/2008",
      "orgNm": "AIG FINANCIAL ADVISORS",
      "city": "IRVINE",
      "state": 4,
      "stateSpecified": true
    },
    {
      "fromDt": "10/2007",
      "toDt": "10/2008",
      "orgNm": "ICM",
      "city": "IRVINE",
      "state": 4,
      "stateSpecified": true
    },
    {
      "fromDt": "09/2008",
      "toDt": "03/2010",
      "orgNm": "SECURITIES AMERICA, INC.",
      "city": "IRVINE",
      "state": 4,
      "stateSpecified": true
    },
    {
      "fromDt": "10/2008",
      "toDt": "03/2010",
      "orgNm": "COOPER MCMANUS",
      "city": "TUSTIN",
      "state": 4,
      "stateSpecified": true
    },
    {
      "fromDt": "04/2010",
      "toDt": "08/2014",
      "orgNm": "SAMMONS SECURITIES CO., LLC",
      "city": "ANN ARBOR",
      "state": 23,
      "stateSpecified": true
    },
    {
      "fromDt": "08/2014",
      "toDt": null,
      "orgNm": "PARKLAND SECURITIES, LLC",
      "city": "ANN ARBOR",
      "state": 23,
      "stateSpecified": true
    }
  ],
  "OthrBuss": {
    "OthrBus": {
      "desc": "1.  LANDLORD; 3330 S 28TH STREET #204.  ALEXANDRIA, VA  22302.  1 HOUR PER MONTH; 09/06 - PRESENT.   2.  INDEPENDENT INSURANCE AGENT; 2 RUSSELL CT, IRVINE, CA  92617; 20 HOURS/MONTH.  09/08 - PRESENT."
    }
  },
  "DRPs": []
}