{
  "Info": {
    "lastNm": "DEAL",
    "firstNm": "SUMMER",
    "midNm": "PARMER",
    "sufNm": null,
    "indvlPK": "5450097",
    "actvAGReg": 0,
    "link": "http://www.adviserinfo.sec.gov/IAPD/Individual/5450097"
  },
  "OthrNms": [
    {
      "lastNm": "FARMER",
      "firstNm": "SUMMER",
      "midNm": "DAWN",
      "sufNm": null
    },
    {
      "lastNm": "PARMER",
      "firstNm": "SUMMER",
      "midNm": "DAWN",
      "sufNm": null
    },
    {
      "lastNm": "PARMER",
      "firstNm": "SUMMER",
      "midNm": "DAWN",
      "sufNm": null
    }
  ],
  "CrntEmps": [
    {
      "CrntRgstns": [
        {
          "regAuth": 10,
          "regCat": 0,
          "st": 2,
          "stDt": "2012-11-15T00:00:00"
        }
      ],
      "BrnchOfLocs": [
        {
          "str1": "210 BROOME STREET",
          "str2": null,
          "city": "LAGRANGE",
          "state": 10,
          "stateSpecified": true,
          "cntry": "United States",
          "postlCd": "30240"
        }
      ],
      "orgNm": "COMMONWEALTH FINANCIAL NETWORK",
      "orgPK": "8032",
      "str1": "29 SAWYER ROAD",
      "str2": null,
      "city": "WALTHAM",
      "state": 20,
      "stateSpecified": true,
      "cntry": "United States",
      "postlCd": "02453-3483"
    }
  ],
  "Exms": [
    {
      "exmCd": 3,
      "exmNm": "Uniform Combined State Law Examination",
      "exmDt": "2010-03-01T00:00:00",
      "exmDtSpecified": true
    }
  ],
  "Dsgntns": [],
  "PrevRgstns": [
    {
      "BrnchOfLocs": [
        {
          "city": "LAGRANGE",
          "state": 10,
          "stateSpecified": true
        }
      ],
      "orgNm": "LPL FINANCIAL LLC",
      "orgPK": "6413",
      "regBeginDt": "2010-03-02T00:00:00",
      "regBeginDtSpecified": true,
      "regEndDt": "2012-11-27T00:00:00",
      "regEndDtSpecified": true
    }
  ],
  "EmpHss": [
    {
      "fromDt": "08/2003",
      "toDt": "08/2007",
      "orgNm": "STUDENT-AUBURN UNIVERSITY",
      "city": "AUBURN",
      "state": 1,
      "stateSpecified": true
    },
    {
      "fromDt": "09/2004",
      "toDt": "10/2007",
      "orgNm": "CENTER FOR GOVERNMENTAL SERVICES",
      "city": "AUBURN",
      "state": 1,
      "stateSpecified": true
    },
    {
      "fromDt": "08/2006",
      "toDt": "05/2007",
      "orgNm": "THE CHARTER COMPANIES",
      "city": "AUBURN",
      "state": 1,
      "stateSpecified": true
    },
    {
      "fromDt": "10/2007",
      "toDt": "08/2008",
      "orgNm": "LPL FINANCIAL",
      "city": "LAGRANGE",
      "state": 10,
      "stateSpecified": true
    },
    {
      "fromDt": "08/2008",
      "toDt": "11/2012",
      "orgNm": "LPL FINANCIAL",
      "city": "LAGRANGE",
      "state": 10,
      "stateSpecified": true
    },
    {
      "fromDt": "11/2012",
      "toDt": null,
      "orgNm": "COMMONWEALTH FINANCIAL NETWORK",
      "city": "WALTHAM",
      "state": 20,
      "stateSpecified": true
    },
    {
      "fromDt": "11/2012",
      "toDt": null,
      "orgNm": "ELLIS & ELLIS INVESTMENT MANAGEMENT, LLC",
      "city": "LAGRANGE",
      "state": 10,
      "stateSpecified": true
    }
  ],
  "OthrBuss": {
    "OthrBus": {
      "desc": "FIXED INSURANCE SALES AT BRANCH LOCATION, INVESTMENT RELATED."
    }
  },
  "DRPs": []
}