{
  "Info": {
    "lastNm": "GIRARD",
    "firstNm": "JENNY",
    "midNm": "R",
    "sufNm": null,
    "indvlPK": "5453867",
    "actvAGReg": 0,
    "link": "http://www.adviserinfo.sec.gov/IAPD/Individual/5453867"
  },
  "OthrNms": [
    {
      "lastNm": "LOUTHAN",
      "firstNm": "JENNY",
      "midNm": "R",
      "sufNm": null
    }
  ],
  "CrntEmps": [
    {
      "CrntRgstns": [
        {
          "regAuth": 4,
          "regCat": 0,
          "st": 2,
          "stDt": "2015-09-11T00:00:00"
        },
        {
          "regAuth": 45,
          "regCat": 0,
          "st": 2,
          "stDt": "2015-09-17T00:00:00"
        }
      ],
      "BrnchOfLocs": [
        {
          "str1": "2049 CENTURY PARK E",
          "str2": "MOUNTAIN WEST PBIG",
          "city": "LOS ANGELES",
          "state": 4,
          "stateSpecified": true,
          "cntry": "United States",
          "postlCd": "90067"
        }
      ],
      "orgNm": "MERRILL LYNCH, PIERCE, FENNER & SMITH INCORPORATED",
      "orgPK": "7691",
      "str1": "ONE BRYANT PARK",
      "str2": null,
      "city": "NEW YORK",
      "state": 35,
      "stateSpecified": true,
      "cntry": "United States",
      "postlCd": "10036"
    }
  ],
  "Exms": [
    {
      "exmCd": 0,
      "exmNm": "Uniform Securities Agent State Law Examination",
      "exmDt": "2015-07-21T00:00:00",
      "exmDtSpecified": true
    },
    {
      "exmCd": 2,
      "exmNm": "Uniform Investment Adviser Law Examination",
      "exmDt": "2015-08-26T00:00:00",
      "exmDtSpecified": true
    }
  ],
  "Dsgntns": [],
  "PrevRgstns": [],
  "EmpHss": [
    {
      "fromDt": "09/2002",
      "toDt": "06/2007",
      "orgNm": "EDMONDS WOODWAY HIGH SCHOOL",
      "city": "EDMONDS",
      "state": 49,
      "stateSpecified": true
    },
    {
      "fromDt": "12/2004",
      "toDt": "08/2006",
      "orgNm": "ALBERTSONS",
      "city": "MOUNTLAKE TERRACE",
      "state": 49,
      "stateSpecified": true
    },
    {
      "fromDt": "08/2006",
      "toDt": "11/2007",
      "orgNm": "SCOTTS BAR AND GRILL",
      "city": "EDMONDS",
      "state": 49,
      "stateSpecified": true
    },
    {
      "fromDt": "07/2007",
      "toDt": "08/2007",
      "orgNm": "STARBUCKS",
      "city": "MOUNTLAKE TERRACE",
      "state": 49,
      "stateSpecified": true
    },
    {
      "fromDt": "11/2007",
      "toDt": "08/2009",
      "orgNm": "MERRILL LYNCH, PIERCE, FENNER & SMITH INCORPORATED",
      "city": "SEATTLE",
      "state": 49,
      "stateSpecified": true
    },
    {
      "fromDt": "09/2009",
      "toDt": "04/2015",
      "orgNm": "MERRILL LYNCH, PIERCE, FENNER & SMITH INCORPORATED",
      "city": "CENTURY CITY",
      "state": 4,
      "stateSpecified": true
    },
    {
      "fromDt": "04/2015",
      "toDt": "02/2016",
      "orgNm": "MERRILL LYNCH, PIERCE, FENNER & SMITH INCORPORATED",
      "city": "BEVERLY HILLS",
      "state": 4,
      "stateSpecified": true
    },
    {
      "fromDt": "05/2015",
      "toDt": null,
      "orgNm": "BANK OF AMERICA, N.A.",
      "city": "CENTURY CITY",
      "state": 4,
      "stateSpecified": true
    },
    {
      "fromDt": "02/2016",
      "toDt": null,
      "orgNm": "MERRILL LYNCH, PIERCE, FENNER & SMITH INCORPORATED",
      "city": "CENTURY CITY",
      "state": 4,
      "stateSpecified": true
    }
  ],
  "OthrBuss": {
    "OthrBus": null
  },
  "DRPs": []
}