{
  "Info": {
    "lastNm": "HOLT",
    "firstNm": "BRENT",
    "midNm": "STEVEN",
    "sufNm": null,
    "indvlPK": "5454897",
    "actvAGReg": 0,
    "link": "http://www.adviserinfo.sec.gov/IAPD/Individual/5454897"
  },
  "OthrNms": [],
  "CrntEmps": [
    {
      "CrntRgstns": [
        {
          "regAuth": 45,
          "regCat": 0,
          "st": 2,
          "stDt": "2013-09-10T00:00:00"
        }
      ],
      "BrnchOfLocs": [
        {
          "str1": "800 NORTH SHORELINE BLVD., SUITE 2200 SOUTH",
          "str2": null,
          "city": "CORPUS CHRISTI",
          "state": 45,
          "stateSpecified": true,
          "cntry": "United States",
          "postlCd": "78401"
        }
      ],
      "orgNm": "OXBOW ADVISORS, LLC",
      "orgPK": "156393",
      "str1": "800 NORTH SHORELINE BLVD., SUITE 2200 SOUTH",
      "str2": null,
      "city": "CORPUS CHRISTI",
      "state": 45,
      "stateSpecified": true,
      "cntry": "United States",
      "postlCd": "78401"
    },
    {
      "CrntRgstns": [
        {
          "regAuth": 45,
          "regCat": 0,
          "st": 2,
          "stDt": "2011-12-13T00:00:00"
        }
      ],
      "BrnchOfLocs": [
        {
          "str1": "711 N. CARANCAHUA",
          "str2": "SUITE 100",
          "city": "CORPUS CHRISTI",
          "state": 45,
          "stateSpecified": true,
          "cntry": "United States",
          "postlCd": "78475"
        },
        {
          "str1": "800 NORTH SHORELINE BLVD.",
          "str2": "SUITE 2200 SOUTH",
          "city": "CORPUS CHRISTI",
          "state": 45,
          "stateSpecified": true,
          "cntry": "UNITED STATES",
          "postlCd": "78401"
        }
      ],
      "orgNm": "HERNDON PLANT OAKLEY, LTD.",
      "orgPK": "44971",
      "str1": "800 N. SHORELINE BLVD",
      "str2": "SUITE 2200 SOUTH",
      "city": "CORPUS CHRISTI",
      "state": 45,
      "stateSpecified": true,
      "cntry": "United States",
      "postlCd": "78401"
    }
  ],
  "Exms": [
    {
      "exmCd": 0,
      "exmNm": "Uniform Securities Agent State Law Examination",
      "exmDt": "2007-12-27T00:00:00",
      "exmDtSpecified": true
    },
    {
      "exmCd": 2,
      "exmNm": "Uniform Investment Adviser Law Examination",
      "exmDt": "2011-07-27T00:00:00",
      "exmDtSpecified": true
    }
  ],
  "Dsgntns": [],
  "PrevRgstns": [],
  "EmpHss": [
    {
      "fromDt": "07/2006",
      "toDt": "11/2007",
      "orgNm": "HEALTHPOINT LTD",
      "city": "FORTH WORTH",
      "state": 45,
      "stateSpecified": true
    },
    {
      "fromDt": "11/2007",
      "toDt": null,
      "orgNm": "HERNDON PLANT OAKLEY LTD",
      "city": "CORPUS CHRISTI",
      "state": 45,
      "stateSpecified": true
    },
    {
      "fromDt": "12/2011",
      "toDt": null,
      "orgNm": "HERNDON PLANT OAKLEY, LTD",
      "city": "CORPUS CHRISTI",
      "state": 45,
      "stateSpecified": true
    },
    {
      "fromDt": "01/2012",
      "toDt": null,
      "orgNm": "OXBOW ADVISORS, LLC",
      "city": "CORPUS CHRISTI",
      "state": 45,
      "stateSpecified": true
    }
  ],
  "OthrBuss": {
    "OthrBus": {
      "desc": "LIFE INSURANCE AGENT - INDEPENDENT - WRITE POLICIES THROUGH BBA LIFE BROKERAGE (GENERAL AGENT - LOCATED AT 4838 HOLLY RD, #102 CORPUS CHRISTI, TX 78411).  RELATIONSHIP BEGAN IN JANUARY 2012.  2 HOURS/MONTH -  OFFER TERM, UL & FIXED ANNUITIES TO CLIENTS AS PART OF FINANCIAL PLAN."
    }
  },
  "DRPs": []
}