{
  "Info": {
    "lastNm": "MCRAE",
    "firstNm": "WILLIAM",
    "midNm": "BOWEN",
    "sufNm": "JR.",
    "indvlPK": "5456611",
    "actvAGReg": 0,
    "link": "http://www.adviserinfo.sec.gov/IAPD/Individual/5456611"
  },
  "OthrNms": [
    {
      "lastNm": "MCRAE",
      "firstNm": "WILLIAM",
      "midNm": "BOWEN",
      "sufNm": null
    }
  ],
  "CrntEmps": [
    {
      "CrntRgstns": [
        {
          "regAuth": 19,
          "regCat": 0,
          "st": 2,
          "stDt": "2009-03-16T00:00:00"
        },
        {
          "regAuth": 9,
          "regCat": 0,
          "st": 2,
          "stDt": "2012-05-17T00:00:00"
        }
      ],
      "BrnchOfLocs": [
        {
          "str1": "7031 COMMERCE CIRCLE",
          "str2": "STE 200",
          "city": "BATON ROUGE",
          "state": 19,
          "stateSpecified": true,
          "cntry": "United States",
          "postlCd": "70809"
        }
      ],
      "orgNm": "WELLS FARGO ADVISORS, LLC",
      "orgPK": "19616",
      "str1": "ONE NORTH JEFFERSON AVENUE",
      "str2": "MAIL CODE: H0004-050",
      "city": "ST. LOUIS",
      "state": 25,
      "stateSpecified": true,
      "cntry": "United States",
      "postlCd": "63103-2205"
    }
  ],
  "Exms": [
    {
      "exmCd": 3,
      "exmNm": "Uniform Combined State Law Examination",
      "exmDt": "2008-02-22T00:00:00",
      "exmDtSpecified": true
    }
  ],
  "Dsgntns": [],
  "PrevRgstns": [],
  "EmpHss": [
    {
      "fromDt": "05/2001",
      "toDt": "12/2007",
      "orgNm": "PHELPS DUNBAR LLP",
      "city": "BATON ROUGE",
      "state": 19,
      "stateSpecified": true
    },
    {
      "fromDt": "11/2007",
      "toDt": "01/2008",
      "orgNm": "A.G. EDWARDS",
      "city": "BATON ROUGE",
      "state": 19,
      "stateSpecified": true
    },
    {
      "fromDt": "01/2008",
      "toDt": "05/2009",
      "orgNm": "WACHOVIA SECURITIES, LLC",
      "city": "BATON ROUGE",
      "state": 19,
      "stateSpecified": true
    },
    {
      "fromDt": "05/2009",
      "toDt": null,
      "orgNm": "WELLS FARGO ADVISORS LLC",
      "city": "BATON ROUGE",
      "state": 19,
      "stateSpecified": true
    }
  ],
  "OthrBuss": {
    "OthrBus": {
      "desc": "710 HWY 45-ALT, LLC; INVESTMENT RELATED; WEST POINT, MS; LLC FOR COMMERCIAL REAL ESTATE; 25% OWNERSHIP; START DATE = 09/08/2013; NO TIME DEVOTED; PASSIVE INVESTOR. 2550 PASS ROAD-BILOXI, LLC; INVESTMENT RELATED; NASHVILLE, TN; COMMERCIAL REAL ESTATE; 33.33% OWNERSHIP; START DATE 12/15/2014; 0 HRS PER MONTH.  NOTARY PUBLIC; NON INV RELATED; STATE OF LA; START: 1998; LESS THAN 1 HR/MO; LESS THAN 1 HR DURING TRADING."
    }
  },
  "DRPs": []
}