{
  "Info": {
    "lastNm": "SPARKS",
    "firstNm": "ROBERT",
    "midNm": "B",
    "sufNm": null,
    "indvlPK": "5460942",
    "actvAGReg": 0,
    "link": "http://www.adviserinfo.sec.gov/IAPD/Individual/5460942"
  },
  "OthrNms": [],
  "CrntEmps": [
    {
      "CrntRgstns": [
        {
          "regAuth": 10,
          "regCat": 0,
          "st": 2,
          "stDt": "2008-03-04T00:00:00"
        },
        {
          "regAuth": 45,
          "regCat": 0,
          "st": 2,
          "stDt": "2009-03-23T00:00:00"
        }
      ],
      "BrnchOfLocs": [
        {
          "str1": "933 BROAD ST",
          "str2": null,
          "city": "AUGUSTA",
          "state": 10,
          "stateSpecified": true,
          "cntry": "United States",
          "postlCd": "30901"
        }
      ],
      "orgNm": "MERRILL LYNCH, PIERCE, FENNER & SMITH INCORPORATED",
      "orgPK": "7691",
      "str1": "ONE BRYANT PARK",
      "str2": null,
      "city": "NEW YORK",
      "state": 35,
      "stateSpecified": true,
      "cntry": "United States",
      "postlCd": "10036"
    }
  ],
  "Exms": [
    {
      "exmCd": 3,
      "exmNm": "Uniform Combined State Law Examination",
      "exmDt": "2008-02-27T00:00:00",
      "exmDtSpecified": true
    }
  ],
  "Dsgntns": [],
  "PrevRgstns": [],
  "EmpHss": [
    {
      "fromDt": "11/2004",
      "toDt": "12/2007",
      "orgNm": "THE SPARKS WAY LLC",
      "city": "EVANS",
      "state": 10,
      "stateSpecified": true
    },
    {
      "fromDt": "12/2005",
      "toDt": "12/2007",
      "orgNm": "H&R BLOCK",
      "city": "AUGUSTA",
      "state": 10,
      "stateSpecified": true
    },
    {
      "fromDt": "01/2007",
      "toDt": "12/2007",
      "orgNm": "UNIVERSITY OF PHOENIX",
      "city": "AUGUSTA",
      "state": 10,
      "stateSpecified": true
    },
    {
      "fromDt": "12/2007",
      "toDt": null,
      "orgNm": "MERRILL LYNCH, PIERCE, FENNER & SMITH INCORPORATED",
      "city": "AUGUSTA",
      "state": 10,
      "stateSpecified": true
    }
  ],
  "OthrBuss": {
    "OthrBus": null
  },
  "DRPs": []
}