{
  "Info": {
    "lastNm": "HATCH",
    "firstNm": "PEGGY",
    "midNm": "SUE",
    "sufNm": null,
    "indvlPK": "5465989",
    "actvAGReg": 0,
    "link": "http://www.adviserinfo.sec.gov/IAPD/Individual/5465989"
  },
  "OthrNms": [
    {
      "lastNm": "COOK",
      "firstNm": "PEGGY",
      "midNm": "SUE",
      "sufNm": null
    },
    {
      "lastNm": "HATCH",
      "firstNm": "PEGGY",
      "midNm": "C",
      "sufNm": null
    }
  ],
  "CrntEmps": [
    {
      "CrntRgstns": [
        {
          "regAuth": 4,
          "regCat": 0,
          "st": 2,
          "stDt": "2015-02-26T00:00:00"
        },
        {
          "regAuth": 45,
          "regCat": 0,
          "st": 2,
          "stDt": "2016-02-26T00:00:00"
        }
      ],
      "BrnchOfLocs": [
        {
          "str1": "2001 NORTH MAIN STREET",
          "str2": "THREE YGNACIO CENTER, STE 100",
          "city": "WALNUT CREEK",
          "state": 4,
          "stateSpecified": true,
          "cntry": "United States",
          "postlCd": "94596"
        }
      ],
      "orgNm": "STRATEGIC ADVISERS, INC.",
      "orgPK": "104555",
      "str1": "245 SUMMER STREET, V10G",
      "str2": null,
      "city": "BOSTON",
      "state": 20,
      "stateSpecified": true,
      "cntry": "United States",
      "postlCd": "02210"
    }
  ],
  "Exms": [
    {
      "exmCd": 0,
      "exmNm": "Uniform Securities Agent State Law Examination",
      "exmDt": "2008-02-05T00:00:00",
      "exmDtSpecified": true
    },
    {
      "exmCd": 2,
      "exmNm": "Uniform Investment Adviser Law Examination",
      "exmDt": "2015-02-17T00:00:00",
      "exmDtSpecified": true
    }
  ],
  "Dsgntns": [],
  "PrevRgstns": [],
  "EmpHss": [
    {
      "fromDt": "06/2006",
      "toDt": "08/2006",
      "orgNm": "UNEMPLOYED",
      "city": "JACKSONVILLE",
      "state": 9,
      "stateSpecified": true
    },
    {
      "fromDt": "09/2006",
      "toDt": "03/2010",
      "orgNm": "KELLY EDUCATIONAL STAFFING",
      "city": "JACKSONVILLE",
      "state": 9,
      "stateSpecified": true
    },
    {
      "fromDt": "10/2007",
      "toDt": "08/2012",
      "orgNm": "FIDELITY INVESTMENTS",
      "city": "JACKSONVILLE",
      "state": 9,
      "stateSpecified": true
    },
    {
      "fromDt": "09/2012",
      "toDt": "01/2013",
      "orgNm": "UNEMPLOYED",
      "city": "PLEASANTON",
      "state": 4,
      "stateSpecified": true
    },
    {
      "fromDt": "02/2013",
      "toDt": null,
      "orgNm": "FIDELITY INVESTMENTS",
      "city": "PLEASANTON",
      "state": 4,
      "stateSpecified": true
    }
  ],
  "OthrBuss": {
    "OthrBus": null
  },
  "DRPs": []
}