{
  "Info": {
    "lastNm": "JASKIEWICZ",
    "firstNm": "RENATA",
    "midNm": "BARBARA",
    "sufNm": null,
    "indvlPK": "5465391",
    "actvAGReg": 0,
    "link": "http://www.adviserinfo.sec.gov/IAPD/Individual/5465391"
  },
  "OthrNms": [
    {
      "lastNm": "BADAJ",
      "firstNm": "RENATA",
      "midNm": "BARABARA",
      "sufNm": null
    }
  ],
  "CrntEmps": [
    {
      "CrntRgstns": [
        {
          "regAuth": 4,
          "regCat": 0,
          "st": 2,
          "stDt": "2010-07-29T00:00:00"
        }
      ],
      "BrnchOfLocs": [
        {
          "str1": "555 W BEECH ST STE 458",
          "str2": null,
          "city": "SAN DIEGO",
          "state": 4,
          "stateSpecified": true,
          "cntry": "United States",
          "postlCd": "92101-2940"
        }
      ],
      "orgNm": "LPL FINANCIAL LLC",
      "orgPK": "6413",
      "str1": "75 STATE STREET, 22ND FLOOR",
      "str2": null,
      "city": "BOSTON",
      "state": 20,
      "stateSpecified": true,
      "cntry": "United States",
      "postlCd": "02109"
    }
  ],
  "Exms": [
    {
      "exmCd": 3,
      "exmNm": "Uniform Combined State Law Examination",
      "exmDt": "2009-12-14T00:00:00",
      "exmDtSpecified": true
    }
  ],
  "Dsgntns": [],
  "PrevRgstns": [
    {
      "BrnchOfLocs": [
        {
          "city": "SAN DIEGO",
          "state": 4,
          "stateSpecified": true
        }
      ],
      "orgNm": "AMERIPRISE FINANCIAL SERVICES, INC.",
      "orgPK": "6363",
      "regBeginDt": "2010-03-12T00:00:00",
      "regBeginDtSpecified": true,
      "regEndDt": "2010-07-30T00:00:00",
      "regEndDtSpecified": true
    }
  ],
  "EmpHss": [
    {
      "fromDt": "07/2005",
      "toDt": "02/2007",
      "orgNm": "HOMEMAKING",
      "city": "TUMON",
      "stateSpecified": false
    },
    {
      "fromDt": "02/2007",
      "toDt": "12/2007",
      "orgNm": "HOMEMAKING",
      "city": "CALIFORNIA",
      "state": 4,
      "stateSpecified": true
    },
    {
      "fromDt": "12/2007",
      "toDt": "07/2010",
      "orgNm": "AMERIPRISE FINANCIAL SERVICES INC.",
      "city": "SAN DIEGO",
      "state": 4,
      "stateSpecified": true
    },
    {
      "fromDt": "07/2010",
      "toDt": null,
      "orgNm": "LPL FINANCIAL LLC",
      "city": "SAN DIEGO",
      "state": 4,
      "stateSpecified": true
    }
  ],
  "OthrBuss": {
    "OthrBus": {
      "desc": "1. 07/07/2010 - NOTARY PUBLIC, DO NOT DO BUSINESS WITH CLIENTS/ 1% OF TIME/ SAN DIEGO, CA.     2. 03/11/2013 - NON-VARIABLE INSURANCE - PROVIDE ADDITIONAL INSURANCE COVERAGE FOR CLIENTS AS REQUIRED.   AS A FINANCIALA ADVISOR, RECOMMEND PRODUCTS AND SERVICES TO MEET CLIENT FINANCIAL OBJECTIVES AND GOALS TO INCLUDE HEALTH INSURANCE, LTC ECT.. LISTED ABOVE - TIME SPENT 2% - SAN DIEGO, CA.    3. 03/04/2016 - NO BUSINESS NAME - INV REL - 3262 Cristobal Way, Spring Valley, CA 91977 - Real Estate Rental - START 01/01/2016 - Purchased second home for in-laws in Arizona"
    }
  },
  "DRPs": []
}