{
  "Info": {
    "lastNm": "YOINGCO",
    "firstNm": "STEPHANIE",
    "midNm": "ANN",
    "sufNm": null,
    "indvlPK": "5470221",
    "actvAGReg": 0,
    "link": "http://www.adviserinfo.sec.gov/IAPD/Individual/5470221"
  },
  "OthrNms": [
    {
      "lastNm": "RIHEL",
      "firstNm": "STEPHANIE",
      "midNm": "ANN",
      "sufNm": null
    }
  ],
  "CrntEmps": [
    {
      "CrntRgstns": [
        {
          "regAuth": 21,
          "regCat": 0,
          "st": 2,
          "stDt": "2015-08-19T00:00:00"
        }
      ],
      "BrnchOfLocs": [
        {
          "str1": "CITI PERSONAL WEALTH MANAGEMENT",
          "str2": "1101 PENNSYLVANIA AVE NW, 11TH FLOOR",
          "city": "WASHINGTON",
          "state": 7,
          "stateSpecified": true,
          "cntry": "United States",
          "postlCd": "20004"
        },
        {
          "str1": "CITI PERSONAL WEALTH MANAGEMENT",
          "str2": "227 WEST MONROE ST, SUITE 418",
          "city": "CHICAGO",
          "state": 15,
          "stateSpecified": true,
          "cntry": "United States",
          "postlCd": "60606"
        },
        {
          "str1": "CITIBANK",
          "str2": "822 ROCKVILLE PIKE",
          "city": "ROCKVILLE",
          "state": 21,
          "stateSpecified": true,
          "cntry": "United States",
          "postlCd": "20852"
        }
      ],
      "orgNm": "CITIGROUP GLOBAL MARKETS INC.",
      "orgPK": "7059",
      "str1": "153 EAST 53RD STREET",
      "str2": null,
      "city": "NEW YORK",
      "state": 35,
      "stateSpecified": true,
      "cntry": "United States",
      "postlCd": "10022"
    }
  ],
  "Exms": [
    {
      "exmCd": 3,
      "exmNm": "Uniform Combined State Law Examination",
      "exmDt": "2008-03-28T00:00:00",
      "exmDtSpecified": true
    }
  ],
  "Dsgntns": [],
  "PrevRgstns": [
    {
      "BrnchOfLocs": [
        {
          "city": "BETHESDA",
          "state": 21,
          "stateSpecified": true
        },
        {
          "city": "GAITHERSBURG",
          "state": 21,
          "stateSpecified": true
        }
      ],
      "orgNm": "AMERIPRISE FINANCIAL SERVICES, INC.",
      "orgPK": "6363",
      "regBeginDt": "2008-03-31T00:00:00",
      "regBeginDtSpecified": true,
      "regEndDt": "2010-07-09T00:00:00",
      "regEndDtSpecified": true
    },
    {
      "BrnchOfLocs": [
        {
          "city": "EMMITSBURG",
          "state": 21,
          "stateSpecified": true
        },
        {
          "city": "FREDERICK",
          "state": 21,
          "stateSpecified": true
        },
        {
          "city": "FREDERICK",
          "state": 21,
          "stateSpecified": true
        },
        {
          "city": "FREDERICK",
          "state": 21,
          "stateSpecified": true
        },
        {
          "city": "FREDERICK",
          "state": 21,
          "stateSpecified": true
        },
        {
          "city": "FREDERICK",
          "state": 21,
          "stateSpecified": true
        },
        {
          "city": "FREDERICK",
          "state": 21,
          "stateSpecified": true
        },
        {
          "city": "FREDERICK",
          "state": 21,
          "stateSpecified": true
        },
        {
          "city": "FREDERICK",
          "state": 21,
          "stateSpecified": true
        },
        {
          "city": "LIBERTYTOWN",
          "state": 21,
          "stateSpecified": true
        },
        {
          "city": "THURMONT",
          "state": 21,
          "stateSpecified": true
        },
        {
          "city": "WALKERSVILLE",
          "state": 21,
          "stateSpecified": true
        }
      ],
      "orgNm": "PNC INVESTMENTS",
      "orgPK": "129052",
      "regBeginDt": "2010-07-12T00:00:00",
      "regBeginDtSpecified": true,
      "regEndDt": "2015-08-11T00:00:00",
      "regEndDtSpecified": true
    }
  ],
  "EmpHss": [
    {
      "fromDt": "07/2005",
      "toDt": "12/2006",
      "orgNm": "MORGAN'S",
      "city": "NEW MARKET",
      "state": 21,
      "stateSpecified": true
    },
    {
      "fromDt": "01/2006",
      "toDt": "09/2007",
      "orgNm": "COUNTRYWIDE HOME LOANS",
      "city": "FAIRFAX",
      "state": 47,
      "stateSpecified": true
    },
    {
      "fromDt": "09/2007",
      "toDt": "12/2007",
      "orgNm": "UNEMPLOYED",
      "city": "WALKERSVILLE",
      "state": 21,
      "stateSpecified": true
    },
    {
      "fromDt": "12/2007",
      "toDt": "06/2010",
      "orgNm": "AMERIPRISE FINANCIAL SERVICES INC.",
      "city": "ROCKVILLE",
      "state": 21,
      "stateSpecified": true
    },
    {
      "fromDt": "07/2010",
      "toDt": null,
      "orgNm": "PNC INVESTMENTS INC",
      "city": "PITTSBURGH",
      "state": 39,
      "stateSpecified": true
    },
    {
      "fromDt": "07/2015",
      "toDt": null,
      "orgNm": "CITIGROUP",
      "city": "BETHESDA",
      "state": 21,
      "stateSpecified": true
    }
  ],
  "OthrBuss": {
    "OthrBus": null
  },
  "DRPs": [
    {
      "hasRegAction": 1,
      "hasRegActionSpecified": true,
      "hasCriminal": 1,
      "hasCriminalSpecified": true,
      "hasBankrupt": 1,
      "hasBankruptSpecified": true,
      "hasCivilJudc": 1,
      "hasCivilJudcSpecified": true,
      "hasBond": 1,
      "hasBondSpecified": true,
      "hasJudgment": 1,
      "hasJudgmentSpecified": true,
      "hasInvstgn": 1,
      "hasInvstgnSpecified": true,
      "hasCustComp": 0,
      "hasCustCompSpecified": true,
      "hasTermination": 1,
      "hasTerminationSpecified": true
    }
  ]
}