{
  "Info": {
    "lastNm": "KIM",
    "firstNm": "ANNIE",
    "midNm": "ANH NGOC",
    "sufNm": null,
    "indvlPK": "5475904",
    "actvAGReg": 1,
    "link": "http://www.adviserinfo.sec.gov/IAPD/Individual/5475904"
  },
  "OthrNms": [
    {
      "lastNm": "HOANG",
      "firstNm": "ANH NGOC",
      "midNm": null,
      "sufNm": null
    },
    {
      "lastNm": "HOANG",
      "firstNm": "ANNIE",
      "midNm": "ANH NGOC",
      "sufNm": null
    }
  ],
  "CrntEmps": [
    {
      "CrntRgstns": [
        {
          "regAuth": 4,
          "regCat": 0,
          "st": 2,
          "stDt": "2012-02-13T00:00:00"
        }
      ],
      "BrnchOfLocs": [
        {
          "str1": "9229 SUNSET BOULEVARD",
          "str2": "SUITE 425",
          "city": "WEST HOLLYWOOD",
          "state": 4,
          "stateSpecified": true,
          "cntry": "United States",
          "postlCd": "90069"
        }
      ],
      "orgNm": "AR ASSET MANAGEMENT, INC.",
      "orgPK": "110342",
      "str1": "9229 SUNSET BOULEVARD",
      "str2": "SUITE 425",
      "city": "WEST HOLLYWOOD",
      "state": 4,
      "stateSpecified": true,
      "cntry": "United States",
      "postlCd": "90069"
    }
  ],
  "Exms": [
    {
      "exmCd": 2,
      "exmNm": "Uniform Investment Adviser Law Examination",
      "exmDt": "2011-11-15T00:00:00",
      "exmDtSpecified": true
    }
  ],
  "Dsgntns": [],
  "PrevRgstns": [],
  "EmpHss": [
    {
      "fromDt": "02/2000",
      "toDt": null,
      "orgNm": "AR ASSET MANAGEMENT, INC.",
      "city": "BEVERLY HILLS",
      "state": 4,
      "stateSpecified": true
    }
  ],
  "OthrBuss": {
    "OthrBus": null
  },
  "DRPs": []
}