{
  "Info": {
    "lastNm": "KIMS",
    "firstNm": "RONALD",
    "midNm": "JOSEPH",
    "sufNm": "JR.",
    "indvlPK": "5483455",
    "actvAGReg": 0,
    "link": "http://www.adviserinfo.sec.gov/IAPD/Individual/5483455"
  },
  "OthrNms": [
    {
      "lastNm": "KIMS",
      "firstNm": "RONALD",
      "midNm": "JOSEPH",
      "sufNm": null
    }
  ],
  "CrntEmps": [
    {
      "CrntRgstns": [
        {
          "regAuth": 39,
          "regCat": 0,
          "st": 2,
          "stDt": "2009-01-02T00:00:00"
        }
      ],
      "BrnchOfLocs": [
        {
          "str1": "1736 FERGUSON RD",
          "str2": null,
          "city": "ALLISON PARK",
          "state": 39,
          "stateSpecified": true,
          "cntry": "United States",
          "postlCd": "15101"
        }
      ],
      "orgNm": "THRIVENT INVESTMENT MANAGEMENT INC.",
      "orgPK": "18387",
      "str1": "625 FOURTH AVENUE SOUTH",
      "str2": null,
      "city": "MINNEAPOLIS",
      "state": 24,
      "stateSpecified": true,
      "cntry": "United States",
      "postlCd": "55415-1665"
    }
  ],
  "Exms": [
    {
      "exmCd": 3,
      "exmNm": "Uniform Combined State Law Examination",
      "exmDt": "2008-05-27T00:00:00",
      "exmDtSpecified": true
    }
  ],
  "Dsgntns": [],
  "PrevRgstns": [
    {
      "BrnchOfLocs": [
        {
          "city": "SEWICKLEY",
          "state": 39,
          "stateSpecified": true
        }
      ],
      "orgNm": "AMERIPRISE FINANCIAL SERVICES, INC.",
      "orgPK": "6363",
      "regBeginDt": "2008-05-28T00:00:00",
      "regBeginDtSpecified": true,
      "regEndDt": "2008-09-11T00:00:00",
      "regEndDtSpecified": true
    }
  ],
  "EmpHss": [
    {
      "fromDt": "04/2005",
      "toDt": "06/2008",
      "orgNm": "NATIONAL REAL ESTATE INFORMATION SERVICES",
      "city": "PITTSBURGH",
      "state": 39,
      "stateSpecified": true
    },
    {
      "fromDt": "01/2008",
      "toDt": "12/2008",
      "orgNm": "AMERIPRISE FINANCIAL SERVICES INC",
      "city": "MINNEAPOLIS",
      "state": 24,
      "stateSpecified": true
    },
    {
      "fromDt": "12/2008",
      "toDt": null,
      "orgNm": "THRIVENT FINANCIAL FOR LUTHERANS",
      "city": "APPLETON",
      "state": 50,
      "stateSpecified": true
    },
    {
      "fromDt": "01/2009",
      "toDt": null,
      "orgNm": "THRIVENT INVESTMENT MANAGEMENT INC",
      "city": "ALLISON PARK",
      "state": 39,
      "stateSpecified": true
    }
  ],
  "OthrBuss": {
    "OthrBus": {
      "desc": "1.  REAL ESTATE LICENSE -- PERSONAL USE ONLY NO NAME OF BUSINESS.  2.  OWNER OF RENTAL PROPERTY, GIBSONIA, PA, START DATE APRIL 2009, COLDWELL BANK MANAGES PROPERTY, I DEVOTE ZERO HOURS. 3. TOWNHOME ASSOCIATION BOARD OF DIRECTORS - BOARD MEMBER AT LARGE. WOODBRIDGE A TOWNHOME COMMUNITY. THE BUSINESS IS NOT INVESTMENT RELATED. ADDRESS OF BUSINESS 100 CLUBHOUSE LANE PITTSBURGH, PA 15237-3324. THE PURPOSE OF THE BOARD IS TO MANAGE THE TOWNHOME COMMUNITIES AFFAIRS. MY POSITION ON THE BOARD IS MEMBER AT LARGE. MY START DATE IS 1/1/2014. I WILL DEVOTE APPROXIMATELY 4 HOURS PER MONTH. THIS POSITION IS A NON PAY POSITION AS ARE ALL THE BOARD POSITIONS. MY DUTIES WILL INCLUDE ATTENDING A MONTHLY BOARD MEETING AND DEALING WITH ISSUES FACING THE TOWNHOME COMMUNITY."
    }
  },
  "DRPs": []
}