{
  "Info": {
    "lastNm": "RUSSELL",
    "firstNm": "EVAN",
    "midNm": "JOSEPH",
    "sufNm": null,
    "indvlPK": "5491110",
    "actvAGReg": 0,
    "link": "http://www.adviserinfo.sec.gov/IAPD/Individual/5491110"
  },
  "OthrNms": [],
  "CrntEmps": [
    {
      "CrntRgstns": [
        {
          "regAuth": 25,
          "regCat": 0,
          "st": 2,
          "stDt": "2011-03-04T00:00:00"
        }
      ],
      "BrnchOfLocs": [
        {
          "str1": "12555 MANCHESTER ROAD",
          "str2": null,
          "city": "ST. LOUIS",
          "state": 25,
          "stateSpecified": true,
          "cntry": "United States",
          "postlCd": "63131"
        }
      ],
      "orgNm": "EDWARD JONES",
      "orgPK": "250",
      "str1": "12555 MANCHESTER RD",
      "str2": null,
      "city": "ST. LOUIS",
      "state": 25,
      "stateSpecified": true,
      "cntry": "United States",
      "postlCd": "63131"
    }
  ],
  "Exms": [
    {
      "exmCd": 3,
      "exmNm": "Uniform Combined State Law Examination",
      "exmDt": "2010-12-17T00:00:00",
      "exmDtSpecified": true
    }
  ],
  "Dsgntns": [],
  "PrevRgstns": [],
  "EmpHss": [
    {
      "fromDt": "05/2004",
      "toDt": "02/2008",
      "orgNm": "U.S. TITLE GUARANTY CO.",
      "city": "ST. LOUIS",
      "state": 25,
      "stateSpecified": true
    },
    {
      "fromDt": "02/2008",
      "toDt": null,
      "orgNm": "EDWARD JONES",
      "city": "ST. LOUIS",
      "state": 25,
      "stateSpecified": true
    }
  ],
  "OthrBuss": {
    "OthrBus": {
      "desc": "Rental property St. Peters, MO  Start date: 4/1/2013  Landlord  Hours per week: 0  Hours during trading: 0  Collection of rents/maintenance"
    }
  },
  "DRPs": []
}