{
  "Info": {
    "lastNm": "VAN DYKE",
    "firstNm": "STEPHANIE",
    "midNm": "ELAINE",
    "sufNm": null,
    "indvlPK": "5492942",
    "actvAGReg": 0,
    "link": "http://www.adviserinfo.sec.gov/IAPD/Individual/5492942"
  },
  "OthrNms": [
    {
      "lastNm": "BATCHELOR",
      "firstNm": "STEPHANIE",
      "midNm": "ELAINE",
      "sufNm": null
    }
  ],
  "CrntEmps": [
    {
      "CrntRgstns": [
        {
          "regAuth": 47,
          "regCat": 0,
          "st": 2,
          "stDt": "2008-05-01T00:00:00"
        }
      ],
      "BrnchOfLocs": [
        {
          "str1": "277 BENDIX RD",
          "str2": "STE 450",
          "city": "VIRGINIA BCH",
          "state": 47,
          "stateSpecified": true,
          "cntry": "United States",
          "postlCd": "23452"
        }
      ],
      "orgNm": "NORTHWESTERN MUTUAL INVESTMENT SERVICES, LLC",
      "orgPK": "2881",
      "str1": "611 EAST WISCONSIN AVE",
      "str2": null,
      "city": "MILWAUKEE",
      "state": 50,
      "stateSpecified": true,
      "cntry": "United States",
      "postlCd": "53202-4797"
    }
  ],
  "Exms": [
    {
      "exmCd": 3,
      "exmNm": "Uniform Combined State Law Examination",
      "exmDt": "2008-04-28T00:00:00",
      "exmDtSpecified": true
    }
  ],
  "Dsgntns": [],
  "PrevRgstns": [],
  "EmpHss": [
    {
      "fromDt": "08/2003",
      "toDt": "05/2007",
      "orgNm": "NORTH CAROLINA STATE UNIVERSITY",
      "city": "RALEIGH",
      "state": 28,
      "stateSpecified": true
    },
    {
      "fromDt": "01/2006",
      "toDt": "05/2007",
      "orgNm": "ACCESS POINT INC",
      "city": "CARY",
      "state": 28,
      "stateSpecified": true
    },
    {
      "fromDt": "06/2007",
      "toDt": "02/2008",
      "orgNm": "WACHOVIA",
      "city": "GLEN ALLEN",
      "state": 47,
      "stateSpecified": true
    },
    {
      "fromDt": "02/2008",
      "toDt": "03/2008",
      "orgNm": "JOHN F VAN DER HYDE & ASSOCIATES, INC.",
      "city": "RICHMOND",
      "state": 47,
      "stateSpecified": true
    },
    {
      "fromDt": "03/2008",
      "toDt": "06/2011",
      "orgNm": "JOHN F VAN DER HYDE & ASSOCIATES, INC.",
      "city": "RICHMOND",
      "state": 47,
      "stateSpecified": true
    },
    {
      "fromDt": "03/2008",
      "toDt": null,
      "orgNm": "NORTHWESTERN MUTUAL INVESTMENT SERVICES, LLC",
      "city": "RICHMOND",
      "state": 47,
      "stateSpecified": true
    },
    {
      "fromDt": "06/2011",
      "toDt": "03/2013",
      "orgNm": "JEFFREY MILLER",
      "city": "RICHMOND",
      "state": 47,
      "stateSpecified": true
    },
    {
      "fromDt": "06/2011",
      "toDt": null,
      "orgNm": "NORTHWESTERN MUTUAL WEALTH MANAGEMENT COMPANY",
      "city": "MILWAUKEE",
      "state": 50,
      "stateSpecified": true
    },
    {
      "fromDt": "04/2013",
      "toDt": "02/2016",
      "orgNm": "JEFFREY SALAZAR",
      "city": "VIRGINIA BEACH",
      "state": 47,
      "stateSpecified": true
    },
    {
      "fromDt": "04/2013",
      "toDt": "02/2016",
      "orgNm": "JESSICA SALAZAR",
      "city": "VIRGINIA BEACH",
      "state": 47,
      "stateSpecified": true
    },
    {
      "fromDt": "04/2013",
      "toDt": "03/2016",
      "orgNm": "NORTHWESTERN MUTUAL INVESTMENT SERVICES, LLC",
      "city": "VIRGINIA BEACH",
      "state": 47,
      "stateSpecified": true
    },
    {
      "fromDt": "03/2016",
      "toDt": null,
      "orgNm": "John Van Der Hyde",
      "city": "VIRGINIA BEACH",
      "state": 47,
      "stateSpecified": true
    }
  ],
  "OthrBuss": {
    "OthrBus": null
  },
  "DRPs": []
}