{
  "Info": {
    "lastNm": "CARTER",
    "firstNm": "MICHELLE",
    "midNm": "LYN",
    "sufNm": null,
    "indvlPK": "5506079",
    "actvAGReg": 1,
    "link": "http://www.adviserinfo.sec.gov/IAPD/Individual/5506079"
  },
  "OthrNms": [],
  "CrntEmps": [
    {
      "CrntRgstns": [
        {
          "regAuth": 4,
          "regCat": 0,
          "st": 2,
          "stDt": "2008-05-14T00:00:00"
        }
      ],
      "BrnchOfLocs": [
        {
          "str1": "684 WEST CROMWELL AVENUE",
          "str2": "SUITE 103",
          "city": "FRESNO",
          "state": 4,
          "stateSpecified": true,
          "cntry": "United States",
          "postlCd": "93711"
        }
      ],
      "orgNm": "PATHWAYS ADVISORY GROUP, INC.",
      "orgPK": "143817",
      "str1": "684 WEST CROMWELL AVENUE",
      "str2": "SUITE 103",
      "city": "FRESNO",
      "state": 4,
      "stateSpecified": true,
      "cntry": "United States",
      "postlCd": "93711"
    }
  ],
  "Exms": [
    {
      "exmCd": 2,
      "exmNm": "Uniform Investment Adviser Law Examination",
      "exmDt": "2008-05-13T00:00:00",
      "exmDtSpecified": true
    }
  ],
  "Dsgntns": [
    {
      "dsgntnNm": "Certified Financial Planner"
    }
  ],
  "PrevRgstns": [],
  "EmpHss": [
    {
      "fromDt": "07/2004",
      "toDt": "01/2008",
      "orgNm": "PORTFOLIO ADVISORS",
      "city": "FRESNO",
      "state": 4,
      "stateSpecified": true
    },
    {
      "fromDt": "01/2008",
      "toDt": "05/2008",
      "orgNm": "PATHWAYS ADVISORY GROUP, INC",
      "city": "FRESNO",
      "state": 4,
      "stateSpecified": true
    },
    {
      "fromDt": "05/2008",
      "toDt": null,
      "orgNm": "PATHWAYS ADVISORY GROUP, INC.",
      "city": "FRESNO",
      "state": 4,
      "stateSpecified": true
    }
  ],
  "OthrBuss": {
    "OthrBus": null
  },
  "DRPs": []
}