{
  "Info": {
    "lastNm": "AGUILAR",
    "firstNm": "GABRIEL",
    "midNm": null,
    "sufNm": null,
    "indvlPK": "5509655",
    "actvAGReg": 0,
    "link": "http://www.adviserinfo.sec.gov/IAPD/Individual/5509655"
  },
  "OthrNms": [],
  "CrntEmps": [
    {
      "CrntRgstns": [
        {
          "regAuth": 45,
          "regCat": 0,
          "st": 2,
          "stDt": "2008-06-03T00:00:00"
        }
      ],
      "BrnchOfLocs": [
        {
          "str1": "13611 SKINNER ROAD SUITE 210",
          "str2": null,
          "city": "CYPRESS",
          "state": 45,
          "stateSpecified": true,
          "cntry": "United States",
          "postlCd": "77429"
        }
      ],
      "orgNm": "EDWARD JONES",
      "orgPK": "250",
      "str1": "12555 MANCHESTER RD",
      "str2": null,
      "city": "ST. LOUIS",
      "state": 25,
      "stateSpecified": true,
      "cntry": "United States",
      "postlCd": "63131"
    }
  ],
  "Exms": [
    {
      "exmCd": 3,
      "exmNm": "Uniform Combined State Law Examination",
      "exmDt": "2008-05-30T00:00:00",
      "exmDtSpecified": true
    }
  ],
  "Dsgntns": [],
  "PrevRgstns": [],
  "EmpHss": [
    {
      "fromDt": "01/2006",
      "toDt": "05/2007",
      "orgNm": "CAL STATE FULLERTON",
      "city": "FULLERTON",
      "state": 4,
      "stateSpecified": true
    },
    {
      "fromDt": "08/2006",
      "toDt": "03/2008",
      "orgNm": "BANK OF AMERICA",
      "city": "ALTADENA",
      "state": 4,
      "stateSpecified": true
    },
    {
      "fromDt": "03/2008",
      "toDt": null,
      "orgNm": "EDWARD JONES",
      "city": "ST LOUIS",
      "state": 25,
      "stateSpecified": true
    }
  ],
  "OthrBuss": {
    "OthrBus": null
  },
  "DRPs": []
}