{
  "Info": {
    "lastNm": "NOVAK",
    "firstNm": "STEPHANIE",
    "midNm": "LEE",
    "sufNm": null,
    "indvlPK": "5511278",
    "actvAGReg": 0,
    "link": "http://www.adviserinfo.sec.gov/IAPD/Individual/5511278"
  },
  "OthrNms": [
    {
      "lastNm": "GUNDERSON",
      "firstNm": "STEPHANIE",
      "midNm": "LEE",
      "sufNm": null
    }
  ],
  "CrntEmps": [
    {
      "CrntRgstns": [
        {
          "regAuth": 24,
          "regCat": 0,
          "st": 2,
          "stDt": "2013-11-14T00:00:00"
        }
      ],
      "BrnchOfLocs": [
        {
          "str1": "50 South Sixth Street",
          "str2": "Suite 2350",
          "city": "MINNEAPOLIS",
          "state": 24,
          "stateSpecified": true,
          "cntry": "United States",
          "postlCd": "55402"
        }
      ],
      "orgNm": "RBC CAPITAL MARKETS, LLC",
      "orgPK": "31194",
      "str1": "3 WORLD FINANCIAL CENTER",
      "str2": "200 VESEY ST.",
      "city": "NEW YORK",
      "state": 35,
      "stateSpecified": true,
      "cntry": "United States",
      "postlCd": "10281"
    }
  ],
  "Exms": [
    {
      "exmCd": 3,
      "exmNm": "Uniform Combined State Law Examination",
      "exmDt": "2010-03-29T00:00:00",
      "exmDtSpecified": true
    }
  ],
  "Dsgntns": [],
  "PrevRgstns": [
    {
      "BrnchOfLocs": [
        {
          "city": "MINNEAPOLIS",
          "state": 24,
          "stateSpecified": true
        },
        {
          "city": "ST. PAUL",
          "state": 24,
          "stateSpecified": true
        }
      ],
      "orgNm": "RBC CAPITAL MARKETS, LLC",
      "orgPK": "31194",
      "regBeginDt": "2010-03-30T00:00:00",
      "regBeginDtSpecified": true,
      "regEndDt": "2010-11-22T00:00:00",
      "regEndDtSpecified": true
    }
  ],
  "EmpHss": [
    {
      "fromDt": "01/2005",
      "toDt": "09/2007",
      "orgNm": "YOUTH ENCOUNTER",
      "city": "SHOREVIEW",
      "state": 24,
      "stateSpecified": true
    },
    {
      "fromDt": "10/2007",
      "toDt": "01/2008",
      "orgNm": "OFFICETEAM",
      "city": "ST PAUL",
      "state": 24,
      "stateSpecified": true
    },
    {
      "fromDt": "02/2008",
      "toDt": null,
      "orgNm": "RBC CAPITAL MARKETS, LLC",
      "city": "MINNEAPOLIS",
      "state": 24,
      "stateSpecified": true
    },
    {
      "fromDt": "02/2008",
      "toDt": null,
      "orgNm": "RBC GLOBAL ASSET MANAGEMENT (U.S.) INC.",
      "city": "MINNEAPOLIS",
      "state": 24,
      "stateSpecified": true
    }
  ],
  "OthrBuss": {
    "OthrBus": {
      "desc": "(1) TRADES OF HOPE; 4601 MOODY BLVD; HOME PARTIES FOR FAIR TRADE & HANDCRAFTED PRODUCTS; 09/08/14 TO 09/30/15; EMPLOYEE; MARKETING PRODUCTS AND SPEAKING AT HOME PARTIES; 20 HOURS DEVOTED PER MONTH; 4 HOURS DURING SECURITIES HOURS."
    }
  },
  "DRPs": []
}