{
  "Info": {
    "lastNm": "PREECE",
    "firstNm": "JAMES",
    "midNm": "THOMAS",
    "sufNm": null,
    "indvlPK": "5514886",
    "actvAGReg": 0,
    "link": "http://www.adviserinfo.sec.gov/IAPD/Individual/5514886"
  },
  "OthrNms": [],
  "CrntEmps": [
    {
      "CrntRgstns": [
        {
          "regAuth": 45,
          "regCat": 0,
          "st": 2,
          "stDt": "2015-05-21T00:00:00"
        }
      ],
      "BrnchOfLocs": [
        {
          "str1": "2209 N MAIN ST",
          "str2": null,
          "city": "TAYLOR",
          "state": 45,
          "stateSpecified": true,
          "cntry": "United States",
          "postlCd": "76574"
        },
        {
          "str1": "2251 DOUBLE CREEK DRIVE",
          "str2": "SUITE 601",
          "city": "ROUND ROCK",
          "state": 45,
          "stateSpecified": true,
          "cntry": "United States",
          "postlCd": "78664"
        }
      ],
      "orgNm": "MML INVESTORS SERVICES, LLC",
      "orgPK": "10409",
      "str1": "1295 STATE STREET",
      "str2": null,
      "city": "SPRINGFIELD",
      "state": 20,
      "stateSpecified": true,
      "cntry": "United States",
      "postlCd": "01111-0001"
    }
  ],
  "Exms": [
    {
      "exmCd": 3,
      "exmNm": "Uniform Combined State Law Examination",
      "exmDt": "2008-05-19T00:00:00",
      "exmDtSpecified": true
    }
  ],
  "Dsgntns": [],
  "PrevRgstns": [
    {
      "BrnchOfLocs": [
        {
          "city": "AUSTIN",
          "state": 45,
          "stateSpecified": true
        },
        {
          "city": "AUSTIN",
          "state": 45,
          "stateSpecified": true
        },
        {
          "city": "IRVING",
          "state": 45,
          "stateSpecified": true
        },
        {
          "city": "TAYLOR",
          "state": 45,
          "stateSpecified": true
        }
      ],
      "orgNm": "THRIVENT INVESTMENT MANAGEMENT INC.",
      "orgPK": "18387",
      "regBeginDt": "2008-05-21T00:00:00",
      "regBeginDtSpecified": true,
      "regEndDt": "2015-04-20T00:00:00",
      "regEndDtSpecified": true
    }
  ],
  "EmpHss": [
    {
      "fromDt": "08/2004",
      "toDt": "01/2008",
      "orgNm": "SELF EMPLOYED",
      "city": "TAYLOR",
      "state": 45,
      "stateSpecified": true
    },
    {
      "fromDt": "01/2008",
      "toDt": "04/2008",
      "orgNm": "MELISSA KNIPPA",
      "city": "AUSTIN",
      "state": 45,
      "stateSpecified": true
    },
    {
      "fromDt": "04/2008",
      "toDt": "04/2015",
      "orgNm": "THRIVENT FINANCIAL FOR LUTHERANS",
      "city": "APPLETON",
      "state": 50,
      "stateSpecified": true
    },
    {
      "fromDt": "04/2008",
      "toDt": "04/2015",
      "orgNm": "THRIVENT INVESTMENT MANAGEMENT INC",
      "city": "TAYLOR",
      "state": 45,
      "stateSpecified": true
    },
    {
      "fromDt": "03/2015",
      "toDt": null,
      "orgNm": "ST. PAUL LUTHERAN CHURCH",
      "city": "TAYLOR",
      "state": 45,
      "stateSpecified": true
    },
    {
      "fromDt": "04/2015",
      "toDt": null,
      "orgNm": "MASS MUTUAL LIFE INSURANCE COMPANY",
      "city": "TAYLOR",
      "state": 45,
      "stateSpecified": true
    },
    {
      "fromDt": "04/2015",
      "toDt": null,
      "orgNm": "MML INVESTORS SERVICES",
      "city": "TAYLOR",
      "state": 45,
      "stateSpecified": true
    }
  ],
  "OthrBuss": {
    "OthrBus": {
      "desc": "(1)NAME: N/A INV REL: Y  ADD:  303 COUNTY ROAD 424, TAYLOR, TX 76574 NATURE: AGRICULTURAL   POSITION: OWNER  START DATE:  09/01/2006 NO. HR/MO: 0  NO. HR/MO DURING SEC TRADING: 0  DESCRIBE DUTIES:LEASE 36 ACRES OF AGRICULTURAL EXEMPT REAL ESTATE CO-OWNED WITH MY SPOUSE TO FARMER KENNETH BECKERMANN.  EACH YEAR WE RECEIVED 1/3 OF THE PROFITS FROM THE HARVEST OF THE CROPS.   (2)NAME: ST. PAUL EVANGELICAL LUTHERAN CHURCH  INV REL:  N   ADD: 401 W. 7TH STREET, TAYLOR, TX 76574  NATURE: CHURCH   POSITION: LAY PASTOR  START DATE: 03/29/15 NO. HR/MO: 50  NO. HR/MO DURING SEC TRADING: 0  DESCRIBE DUTIES: PREPARE AND DELIVER SUNDAY SERMONS, ATTEND WEEKNIGHT COUNCIL MEETINGS, ETC."
    }
  },
  "DRPs": []
}