{
  "Info": {
    "lastNm": "FURSTE",
    "firstNm": "ANDREW",
    "midNm": null,
    "sufNm": null,
    "indvlPK": "5514919",
    "actvAGReg": 0,
    "link": "http://www.adviserinfo.sec.gov/IAPD/Individual/5514919"
  },
  "OthrNms": [
    {
      "lastNm": "FURSTE",
      "firstNm": "ANDREW",
      "midNm": "PERRY",
      "sufNm": null
    }
  ],
  "CrntEmps": [
    {
      "CrntRgstns": [
        {
          "regAuth": 33,
          "regCat": 0,
          "st": 2,
          "stDt": "2009-12-03T00:00:00"
        }
      ],
      "BrnchOfLocs": [
        {
          "str1": "6501 AMERICAS PKWY NE",
          "str2": "SUITE #100",
          "city": "ALBUQUERQUE",
          "state": 33,
          "stateSpecified": true,
          "cntry": "United States",
          "postlCd": "87110-5307"
        }
      ],
      "orgNm": "CHARLES SCHWAB & CO., INC.",
      "orgPK": "5393",
      "str1": "211 MAIN STREET",
      "str2": null,
      "city": "SAN FRANCISCO",
      "state": 4,
      "stateSpecified": true,
      "cntry": "United States",
      "postlCd": "94105"
    }
  ],
  "Exms": [
    {
      "exmCd": 3,
      "exmNm": "Uniform Combined State Law Examination",
      "exmDt": "2008-07-09T00:00:00",
      "exmDtSpecified": true
    }
  ],
  "Dsgntns": [],
  "PrevRgstns": [
    {
      "BrnchOfLocs": [
        {
          "city": "NAPLES",
          "state": 9,
          "stateSpecified": true
        }
      ],
      "orgNm": "MERRILL LYNCH, PIERCE, FENNER & SMITH INCORPORATED",
      "orgPK": "7691",
      "regBeginDt": "2008-07-15T00:00:00",
      "regBeginDtSpecified": true,
      "regEndDt": "2009-02-12T00:00:00",
      "regEndDtSpecified": true
    }
  ],
  "EmpHss": [
    {
      "fromDt": "07/2004",
      "toDt": "03/2008",
      "orgNm": "KEYSTONE MORTGAGE CO, INC.",
      "city": "NAPLES",
      "state": 9,
      "stateSpecified": true
    },
    {
      "fromDt": "03/2008",
      "toDt": "01/2009",
      "orgNm": "MERRILL LYNCH",
      "city": "NAPLES",
      "state": 9,
      "stateSpecified": true
    },
    {
      "fromDt": "02/2009",
      "toDt": "11/2009",
      "orgNm": "UNEMPLOYED",
      "city": "NAPLES",
      "state": 9,
      "stateSpecified": true
    },
    {
      "fromDt": "11/2009",
      "toDt": null,
      "orgNm": "CHARLES SCHWAB & CO., INC.",
      "city": "ALBUQUWEQUE",
      "state": 33,
      "stateSpecified": true
    },
    {
      "fromDt": "11/2009",
      "toDt": null,
      "orgNm": "CHARLES SCHWAB BANK",
      "city": "ALBUGUWEQUE",
      "state": 33,
      "stateSpecified": true
    }
  ],
  "OthrBuss": {
    "OthrBus": {
      "desc": "CHARLES SCHWAB BANK INVESTMENT RELATED, BANK PRODUCTS, DUAL EMPLOYEE,  REFERRALS OF HELOC, MORTGAGES, INVESTOR CHECKING PRODUCTS AND CREDIT CARDS FOR APPROXIMATELY 20 HOURS PER MONTH. START DATE: 11/02/2009"
    }
  },
  "DRPs": [
    {
      "hasRegAction": 1,
      "hasRegActionSpecified": true,
      "hasCriminal": 1,
      "hasCriminalSpecified": true,
      "hasBankrupt": 1,
      "hasBankruptSpecified": true,
      "hasCivilJudc": 1,
      "hasCivilJudcSpecified": true,
      "hasBond": 1,
      "hasBondSpecified": true,
      "hasJudgment": 1,
      "hasJudgmentSpecified": true,
      "hasInvstgn": 1,
      "hasInvstgnSpecified": true,
      "hasCustComp": 0,
      "hasCustCompSpecified": true,
      "hasTermination": 1,
      "hasTerminationSpecified": true
    }
  ]
}