{
  "Info": {
    "lastNm": "BRODSKY",
    "firstNm": "JEFFREY",
    "midNm": "HOWARD",
    "sufNm": null,
    "indvlPK": "5521265",
    "actvAGReg": 1,
    "link": "http://www.adviserinfo.sec.gov/IAPD/Individual/5521265"
  },
  "OthrNms": [],
  "CrntEmps": [
    {
      "CrntRgstns": [
        {
          "regAuth": 15,
          "regCat": 0,
          "st": 2,
          "stDt": "2008-07-14T00:00:00"
        }
      ],
      "BrnchOfLocs": [
        {
          "str1": "233 SOUTH WACKER DRIVE",
          "str2": "SUITE 1700",
          "city": "CHICAGO",
          "state": 15,
          "stateSpecified": true,
          "cntry": "United States",
          "postlCd": "60606"
        }
      ],
      "orgNm": "ERNST & YOUNG INVESTMENT ADVISERS LLP",
      "orgPK": "110921",
      "str1": "200 PLAZA DRIVE",
      "str2": "SUITE 2222",
      "city": "SECAUCUS",
      "state": 32,
      "stateSpecified": true,
      "cntry": "United States",
      "postlCd": "07094"
    }
  ],
  "Exms": [
    {
      "exmCd": 2,
      "exmNm": "Uniform Investment Adviser Law Examination",
      "exmDt": "2008-07-12T00:00:00",
      "exmDtSpecified": true
    }
  ],
  "Dsgntns": [],
  "PrevRgstns": [],
  "EmpHss": [
    {
      "fromDt": "10/1996",
      "toDt": null,
      "orgNm": "ERNST & YOUNG INVESTMENT ADVISERS LLP",
      "city": "CHICAGO",
      "state": 15,
      "stateSpecified": true
    }
  ],
  "OthrBuss": {
    "OthrBus": {
      "desc": "\"ENTERIORS BY HELENE\", 1544 CHRISTINA LANE, NORTHBROOK, IL 60062 - NOT INVESTMENT RELATED, APPROX. START IN FALL 2007, PROPRIETOR WITH SPOUSE, NO TIME SPENT, ONLY SPOUSE DEVOTES HER TIME TO THE BUSINESS."
    }
  },
  "DRPs": []
}