{
  "Info": {
    "lastNm": "AMBROSE",
    "firstNm": "JEFFRY",
    "midNm": "DAVID",
    "sufNm": null,
    "indvlPK": "5523215",
    "actvAGReg": 0,
    "link": "http://www.adviserinfo.sec.gov/IAPD/Individual/5523215"
  },
  "OthrNms": [],
  "CrntEmps": [
    {
      "CrntRgstns": [
        {
          "regAuth": 21,
          "regCat": 0,
          "st": 2,
          "stDt": "2008-07-11T00:00:00"
        },
        {
          "regAuth": 47,
          "regCat": 0,
          "st": 2,
          "stDt": "2014-02-19T00:00:00"
        },
        {
          "regAuth": 39,
          "regCat": 0,
          "st": 2,
          "stDt": "2014-02-28T00:00:00"
        }
      ],
      "BrnchOfLocs": [
        {
          "str1": "6200 OLD DOBBIN LANE",
          "str2": "SUITE 100",
          "city": "COLUMBIA",
          "state": 21,
          "stateSpecified": true,
          "cntry": "United States",
          "postlCd": "21045"
        }
      ],
      "orgNm": "AXA ADVISORS, LLC",
      "orgPK": "6627",
      "str1": "1290 AVENUE OF THE AMERICAS",
      "str2": null,
      "city": "NEW YORK",
      "state": 35,
      "stateSpecified": true,
      "cntry": "United States",
      "postlCd": "10104"
    }
  ],
  "Exms": [
    {
      "exmCd": 3,
      "exmNm": "Uniform Combined State Law Examination",
      "exmDt": "2008-07-10T00:00:00",
      "exmDtSpecified": true
    }
  ],
  "Dsgntns": [],
  "PrevRgstns": [],
  "EmpHss": [
    {
      "fromDt": "08/2005",
      "toDt": "05/2008",
      "orgNm": "UNIVERSITY OF MARYLAND",
      "city": "COLLEGE PARK",
      "state": 21,
      "stateSpecified": true
    },
    {
      "fromDt": "06/2006",
      "toDt": "08/2006",
      "orgNm": "WJB CONSTRUCTION",
      "city": "PARKVILLE",
      "state": 21,
      "stateSpecified": true
    },
    {
      "fromDt": "06/2007",
      "toDt": "08/2007",
      "orgNm": "R.E.S.I.",
      "city": "TOWSON",
      "state": 21,
      "stateSpecified": true
    },
    {
      "fromDt": "04/2008",
      "toDt": null,
      "orgNm": "AXA ADVISORS LLC",
      "city": "NEW YORK",
      "state": 35,
      "stateSpecified": true
    }
  ],
  "OthrBuss": {
    "OthrBus": null
  },
  "DRPs": []
}