{
  "Info": {
    "lastNm": "SHAH",
    "firstNm": "DEVANGI",
    "midNm": "J",
    "sufNm": null,
    "indvlPK": "5524151",
    "actvAGReg": 0,
    "link": "http://www.adviserinfo.sec.gov/IAPD/Individual/5524151"
  },
  "OthrNms": [
    {
      "lastNm": "SHAH",
      "firstNm": "DEVANGEE",
      "midNm": null,
      "sufNm": null
    },
    {
      "lastNm": "SHAH",
      "firstNm": "DEVANGI",
      "midNm": null,
      "sufNm": null
    }
  ],
  "CrntEmps": [
    {
      "CrntRgstns": [
        {
          "regAuth": 39,
          "regCat": 0,
          "st": 2,
          "stDt": "2008-10-15T00:00:00"
        }
      ],
      "BrnchOfLocs": [
        {
          "str1": "123 S BROAD ST",
          "str2": "[L1-RBO]",
          "city": "PHILADELPHIA",
          "state": 39,
          "stateSpecified": true,
          "cntry": "United States",
          "postlCd": "19109"
        },
        {
          "str1": "4905 W TILGHMAN ST 3RD FL",
          "str2": "[L3-RBO]",
          "city": "ALLENTOWN",
          "state": 39,
          "stateSpecified": true,
          "cntry": "United States",
          "postlCd": "18104"
        }
      ],
      "orgNm": "WELLS FARGO ADVISORS, LLC",
      "orgPK": "19616",
      "str1": "ONE NORTH JEFFERSON AVENUE",
      "str2": "MAIL CODE: H0004-050",
      "city": "ST. LOUIS",
      "state": 25,
      "stateSpecified": true,
      "cntry": "United States",
      "postlCd": "63103-2205"
    }
  ],
  "Exms": [
    {
      "exmCd": 3,
      "exmNm": "Uniform Combined State Law Examination",
      "exmDt": "2008-10-14T00:00:00",
      "exmDtSpecified": true
    }
  ],
  "Dsgntns": [],
  "PrevRgstns": [],
  "EmpHss": [
    {
      "fromDt": "11/2001",
      "toDt": "12/2007",
      "orgNm": "WELLS FARGO AUTO FINANCE",
      "city": "ALLENTOWN",
      "state": 39,
      "stateSpecified": true
    },
    {
      "fromDt": "01/2008",
      "toDt": "03/2008",
      "orgNm": "UNEMPLOYED",
      "city": "ALLENTOWN",
      "state": 39,
      "stateSpecified": true
    },
    {
      "fromDt": "04/2008",
      "toDt": "05/2009",
      "orgNm": "WACHOVIA SECURITIES, LLC",
      "city": "ALLENTOWN",
      "state": 39,
      "stateSpecified": true
    },
    {
      "fromDt": "05/2009",
      "toDt": null,
      "orgNm": "WELLS FARGO ADVISORS LLC",
      "city": "ALLENTOWN",
      "state": 39,
      "stateSpecified": true
    }
  ],
  "OthrBuss": {
    "OthrBus": null
  },
  "DRPs": []
}