{
  "Info": {
    "lastNm": "REED",
    "firstNm": "JEFFREY",
    "midNm": "TODD",
    "sufNm": null,
    "indvlPK": "5524927",
    "actvAGReg": 1,
    "link": "http://www.adviserinfo.sec.gov/IAPD/Individual/5524927"
  },
  "OthrNms": [],
  "CrntEmps": [
    {
      "CrntRgstns": [
        {
          "regAuth": 49,
          "regCat": 0,
          "st": 2,
          "stDt": "2008-05-26T00:00:00"
        }
      ],
      "BrnchOfLocs": [
        {
          "str1": null,
          "str2": null,
          "city": "SAMMAMISH",
          "state": 49,
          "stateSpecified": true,
          "cntry": "United States",
          "postlCd": null
        }
      ],
      "orgNm": "BERNTSON PORTER WEALTH MANAGEMENT, LLC",
      "orgPK": "116276",
      "str1": "11100 NE 8TH ST",
      "str2": "SUITE 400",
      "city": "BELLEVUE",
      "state": 49,
      "stateSpecified": true,
      "cntry": "United States",
      "postlCd": "98004"
    }
  ],
  "Exms": [
    {
      "exmCd": 2,
      "exmNm": "Uniform Investment Adviser Law Examination",
      "exmDt": "2008-05-23T00:00:00",
      "exmDtSpecified": true
    }
  ],
  "Dsgntns": [],
  "PrevRgstns": [],
  "EmpHss": [
    {
      "fromDt": "07/2000",
      "toDt": "07/2007",
      "orgNm": "LOGICALIS INC.",
      "city": "SEATTLE",
      "state": 49,
      "stateSpecified": true
    },
    {
      "fromDt": "07/2007",
      "toDt": null,
      "orgNm": "INDEPENDANT CONTRACTOR",
      "city": "SAMMAMISH",
      "state": 49,
      "stateSpecified": true
    }
  ],
  "OthrBuss": {
    "OthrBus": {
      "desc": "AXIS FACILITIES SERVICES CORPORATION, NON-INVESTMENT BUSINESS, 2419 E LK SAMMAMISH PL SE, ENVIRONMENTAL SERVICES, PARTNER/OWNER, VP OF FINANCE, STARTED 10/2007, 20 HOURS/MONTH, 5 HOURS A WEEK DURING TRADING HOURS, PROVIDE OVERSIGHT OF FINANCE AND LEGAL ACTIVITIES."
    }
  },
  "DRPs": []
}