{
  "Info": {
    "lastNm": "WARD",
    "firstNm": "KATHRYN",
    "midNm": "E",
    "sufNm": null,
    "indvlPK": "5526378",
    "actvAGReg": 0,
    "link": "http://www.adviserinfo.sec.gov/IAPD/Individual/5526378"
  },
  "OthrNms": [
    {
      "lastNm": "HARDEE",
      "firstNm": "KATHRYN",
      "midNm": "E",
      "sufNm": null
    }
  ],
  "CrntEmps": [
    {
      "CrntRgstns": [
        {
          "regAuth": 28,
          "regCat": 0,
          "st": 2,
          "stDt": "2010-05-28T00:00:00"
        },
        {
          "regAuth": 45,
          "regCat": 0,
          "st": 3,
          "stDt": "2013-03-22T00:00:00"
        },
        {
          "regAuth": 42,
          "regCat": 0,
          "st": 2,
          "stDt": "2014-04-29T00:00:00"
        }
      ],
      "BrnchOfLocs": [
        {
          "str1": "10267 OCEAN HWY",
          "str2": null,
          "city": "PAWLEYS ISLAND",
          "state": 42,
          "stateSpecified": true,
          "cntry": "United States",
          "postlCd": "29585"
        },
        {
          "str1": "2024 CORPORATE CENTRE DR",
          "str2": null,
          "city": "MYRTLE BEACH",
          "state": 42,
          "stateSpecified": true,
          "cntry": "United States",
          "postlCd": "29577"
        },
        {
          "str1": "4242 SIX FORKS RD",
          "str2": null,
          "city": "RALEIGH",
          "state": 28,
          "stateSpecified": true,
          "cntry": "United States",
          "postlCd": "27609"
        }
      ],
      "orgNm": "MERRILL LYNCH, PIERCE, FENNER & SMITH INCORPORATED",
      "orgPK": "7691",
      "str1": "ONE BRYANT PARK",
      "str2": null,
      "city": "NEW YORK",
      "state": 35,
      "stateSpecified": true,
      "cntry": "United States",
      "postlCd": "10036"
    }
  ],
  "Exms": [
    {
      "exmCd": 3,
      "exmNm": "Uniform Combined State Law Examination",
      "exmDt": "2010-05-27T00:00:00",
      "exmDtSpecified": true
    }
  ],
  "Dsgntns": [],
  "PrevRgstns": [],
  "EmpHss": [
    {
      "fromDt": "08/2005",
      "toDt": "05/2009",
      "orgNm": "NORTH CAROLINA STATE UNIVERSITY",
      "city": "RALEIGH",
      "state": 28,
      "stateSpecified": true
    },
    {
      "fromDt": "05/2006",
      "toDt": "09/2006",
      "orgNm": "BERT'S BAR AND GRILLE",
      "city": "BOONE",
      "state": 28,
      "stateSpecified": true
    },
    {
      "fromDt": "01/2007",
      "toDt": "09/2009",
      "orgNm": "STEVE ROSS AND KAREN MAYER",
      "city": "RALEIGH",
      "state": 28,
      "stateSpecified": true
    },
    {
      "fromDt": "09/2007",
      "toDt": "10/2007",
      "orgNm": "RED ROBIN",
      "city": "CARY",
      "state": 28,
      "stateSpecified": true
    },
    {
      "fromDt": "08/2008",
      "toDt": "09/2009",
      "orgNm": "CAROLINA SILVER COMPANY",
      "city": "RALEGIH",
      "state": 28,
      "stateSpecified": true
    },
    {
      "fromDt": "10/2009",
      "toDt": null,
      "orgNm": "MERRILL LYNCH, PIERCE, FENNER & SMITH INCORPORATED",
      "city": "RALEIGH",
      "state": 28,
      "stateSpecified": true
    }
  ],
  "OthrBuss": {
    "OthrBus": null
  },
  "DRPs": []
}