{
  "Info": {
    "lastNm": "SASAKI",
    "firstNm": "ADRIANE",
    "midNm": "MARIE",
    "sufNm": null,
    "indvlPK": "5527546",
    "actvAGReg": 0,
    "link": "http://www.adviserinfo.sec.gov/IAPD/Individual/5527546"
  },
  "OthrNms": [
    {
      "lastNm": "MEEK",
      "firstNm": "ADRIANE",
      "midNm": "MARIE",
      "sufNm": "MS"
    }
  ],
  "CrntEmps": [
    {
      "CrntRgstns": [
        {
          "regAuth": 49,
          "regCat": 0,
          "st": 2,
          "stDt": "2014-01-21T00:00:00"
        }
      ],
      "BrnchOfLocs": [
        {
          "str1": "4220 S MERIDIAN",
          "str2": null,
          "city": "PUYALLUP",
          "state": 49,
          "stateSpecified": true,
          "cntry": "United States",
          "postlCd": "98373"
        }
      ],
      "orgNm": "CETERA INVESTMENT ADVISERS LLC",
      "orgPK": "105644",
      "str1": "200 NORTH MARTINGALE ROAD",
      "str2": null,
      "city": "SCHAUMBURG",
      "state": 15,
      "stateSpecified": true,
      "cntry": "United States",
      "postlCd": "60173-2096"
    }
  ],
  "Exms": [
    {
      "exmCd": 3,
      "exmNm": "Uniform Combined State Law Examination",
      "exmDt": "2008-08-13T00:00:00",
      "exmDtSpecified": true
    }
  ],
  "Dsgntns": [],
  "PrevRgstns": [
    {
      "BrnchOfLocs": [
        {
          "city": "PUYALLUP",
          "state": 49,
          "stateSpecified": true
        },
        {
          "city": "PUYALLUP",
          "state": 49,
          "stateSpecified": true
        },
        {
          "city": "ST LOUIS",
          "state": 25,
          "stateSpecified": true
        }
      ],
      "orgNm": "EDWARD JONES",
      "orgPK": "250",
      "regBeginDt": "2008-08-18T00:00:00",
      "regBeginDtSpecified": true,
      "regEndDt": "2012-08-21T00:00:00",
      "regEndDtSpecified": true
    }
  ],
  "EmpHss": [
    {
      "fromDt": "09/1997",
      "toDt": "04/2008",
      "orgNm": "RUSSELL INVESTMENTS",
      "city": "TACOMA",
      "state": 49,
      "stateSpecified": true
    },
    {
      "fromDt": "05/2008",
      "toDt": "08/2012",
      "orgNm": "EDWARD JONES",
      "city": "ST LOUIS",
      "state": 25,
      "stateSpecified": true
    },
    {
      "fromDt": "08/2012",
      "toDt": null,
      "orgNm": "CETERA INVESTMENT SERVICES",
      "city": "ST.CLOUD",
      "state": 24,
      "stateSpecified": true
    },
    {
      "fromDt": "08/2012",
      "toDt": null,
      "orgNm": "COLUMBIA STATE BANK",
      "city": "PUYALLUP",
      "state": 49,
      "stateSpecified": true
    },
    {
      "fromDt": "01/2014",
      "toDt": null,
      "orgNm": "CETERA INVESTMENT ADVISERS LLC",
      "city": "PUYALLUP",
      "state": 49,
      "stateSpecified": true
    }
  ],
  "OthrBuss": {
    "OthrBus": null
  },
  "DRPs": []
}