{
  "Info": {
    "lastNm": "EMMETS",
    "firstNm": "DEAN",
    "midNm": "JACOB",
    "sufNm": null,
    "indvlPK": "5533995",
    "actvAGReg": 1,
    "link": "http://www.adviserinfo.sec.gov/IAPD/Individual/5533995"
  },
  "OthrNms": [],
  "CrntEmps": [
    {
      "CrntRgstns": [
        {
          "regAuth": 9,
          "regCat": 0,
          "st": 2,
          "stDt": "2008-10-21T00:00:00"
        },
        {
          "regAuth": 4,
          "regCat": 0,
          "st": 2,
          "stDt": "2009-05-20T00:00:00"
        }
      ],
      "BrnchOfLocs": [
        {
          "str1": "301 YAMATO ROAD , SUITE 2222",
          "str2": null,
          "city": "BOCA RATON",
          "state": 9,
          "stateSpecified": true,
          "cntry": "United States",
          "postlCd": "33431"
        }
      ],
      "orgNm": "SEEMAN HOLTZ FINANCIAL CORP.",
      "orgPK": "145239",
      "str1": "301 YAMATO ROAD , SUITE 2222",
      "str2": null,
      "city": "BOCA RATON",
      "state": 9,
      "stateSpecified": true,
      "cntry": "United States",
      "postlCd": "33431"
    }
  ],
  "Exms": [
    {
      "exmCd": 2,
      "exmNm": "Uniform Investment Adviser Law Examination",
      "exmDt": "2008-06-03T00:00:00",
      "exmDtSpecified": true
    }
  ],
  "Dsgntns": [],
  "PrevRgstns": [],
  "EmpHss": [
    {
      "fromDt": "08/2001",
      "toDt": null,
      "orgNm": "NATIONAL SENIOR INSURANCE",
      "city": "HOLLYWOOD",
      "state": 9,
      "stateSpecified": true
    },
    {
      "fromDt": "05/2008",
      "toDt": null,
      "orgNm": "SEEMAN HOLTZ FINANCIAL",
      "city": "HOLLYWOOD",
      "state": 9,
      "stateSpecified": true
    }
  ],
  "OthrBuss": {
    "OthrBus": {
      "desc": "LIFE INSURANCE AGENT WITH NATIONAL SENIOR INSURANCE SPENDING APPROXIMATELY 35 HOURS PER WEEK DURING MARKET HOURS. DUTIES INCLUDE SELLING AND SERVICING LIFE INSURANCE POLICIES."
    }
  },
  "DRPs": []
}