{
  "Info": {
    "lastNm": "FIRMENT",
    "firstNm": "NICOLAS",
    "midNm": "JAMES",
    "sufNm": null,
    "indvlPK": "5533565",
    "actvAGReg": 0,
    "link": "http://www.adviserinfo.sec.gov/IAPD/Individual/5533565"
  },
  "OthrNms": [
    {
      "lastNm": "FIRMANT",
      "firstNm": "NICOLAS",
      "midNm": "JAMES",
      "sufNm": null
    }
  ],
  "CrntEmps": [
    {
      "CrntRgstns": [
        {
          "regAuth": 36,
          "regCat": 0,
          "st": 2,
          "stDt": "2013-06-20T00:00:00"
        }
      ],
      "BrnchOfLocs": [
        {
          "str1": "1001 LIBERTY AVE., SUITE 900",
          "str2": null,
          "city": "PITTSBURGH",
          "state": 39,
          "stateSpecified": true,
          "cntry": "United States",
          "postlCd": "15222"
        }
      ],
      "orgNm": "STIFEL, NICOLAUS & COMPANY, INCORPORATED",
      "orgPK": "793",
      "str1": "501 N BROADWAY",
      "str2": null,
      "city": "ST LOUIS",
      "state": 25,
      "stateSpecified": true,
      "cntry": "United States",
      "postlCd": "63102"
    }
  ],
  "Exms": [
    {
      "exmCd": 3,
      "exmNm": "Uniform Combined State Law Examination",
      "exmDt": "2013-03-04T00:00:00",
      "exmDtSpecified": true
    }
  ],
  "Dsgntns": [],
  "PrevRgstns": [
    {
      "BrnchOfLocs": [
        {
          "city": "WASHINGTON",
          "state": 7,
          "stateSpecified": true
        }
      ],
      "orgNm": "HEIGHT ANALYTICS, LLC",
      "orgPK": "149162",
      "regBeginDt": "2013-03-26T00:00:00",
      "regBeginDtSpecified": true,
      "regEndDt": "2013-04-18T00:00:00",
      "regEndDtSpecified": true
    }
  ],
  "EmpHss": [
    {
      "fromDt": "08/2004",
      "toDt": "06/2008",
      "orgNm": "AVON LAKE HIGH SCHOOL",
      "city": "AVON LAKE",
      "state": 36,
      "stateSpecified": true
    },
    {
      "fromDt": "06/2007",
      "toDt": "09/2008",
      "orgNm": "SWEETBRIAR GOLF COURSE",
      "city": "AVON LAKE",
      "state": 36,
      "stateSpecified": true
    },
    {
      "fromDt": "09/2008",
      "toDt": "06/2012",
      "orgNm": "THE OHIO STATE UNIVERSITY",
      "city": "COLUMBUS",
      "state": 36,
      "stateSpecified": true
    },
    {
      "fromDt": "06/2009",
      "toDt": "09/2011",
      "orgNm": "STIFEL NICOLAUS",
      "city": "CLEVELAND",
      "state": 36,
      "stateSpecified": true
    },
    {
      "fromDt": "06/2009",
      "toDt": "06/2012",
      "orgNm": "THE OHIO STATE UNIVERSITY",
      "city": "COLUMBUS",
      "state": 36,
      "stateSpecified": true
    },
    {
      "fromDt": "06/2012",
      "toDt": "04/2013",
      "orgNm": "HEIGHT ANALYTICS, LLC",
      "city": "WASHINGTON",
      "state": 7,
      "stateSpecified": true
    },
    {
      "fromDt": "06/2012",
      "toDt": "04/2013",
      "orgNm": "HEIGHT SECURITIES, LLC",
      "city": "WASHINGTON",
      "state": 7,
      "stateSpecified": true
    },
    {
      "fromDt": "04/2013",
      "toDt": null,
      "orgNm": "STIFEL NICOLAUS",
      "city": "CLEVELAND",
      "state": 36,
      "stateSpecified": true
    }
  ],
  "OthrBuss": {
    "OthrBus": null
  },
  "DRPs": []
}