{
  "Info": {
    "lastNm": "KERR",
    "firstNm": "RYAN",
    "midNm": "H",
    "sufNm": null,
    "indvlPK": "5535627",
    "actvAGReg": 0,
    "link": "http://www.adviserinfo.sec.gov/IAPD/Individual/5535627"
  },
  "OthrNms": [
    {
      "lastNm": "KERR",
      "firstNm": "RYAN",
      "midNm": null,
      "sufNm": null
    }
  ],
  "CrntEmps": [
    {
      "CrntRgstns": [
        {
          "regAuth": 4,
          "regCat": 0,
          "st": 2,
          "stDt": "2012-07-23T00:00:00"
        }
      ],
      "BrnchOfLocs": [
        {
          "str1": "2423 E LINCOLN DR",
          "str2": null,
          "city": "PHOENIX",
          "state": 3,
          "stateSpecified": true,
          "cntry": "United States",
          "postlCd": "85016-1215"
        }
      ],
      "orgNm": "CHARLES SCHWAB & CO., INC.",
      "orgPK": "5393",
      "str1": "211 MAIN STREET",
      "str2": null,
      "city": "SAN FRANCISCO",
      "state": 4,
      "stateSpecified": true,
      "cntry": "United States",
      "postlCd": "94105"
    }
  ],
  "Exms": [
    {
      "exmCd": 3,
      "exmNm": "Uniform Combined State Law Examination",
      "exmDt": "2008-08-26T00:00:00",
      "exmDtSpecified": true
    }
  ],
  "Dsgntns": [],
  "PrevRgstns": [
    {
      "BrnchOfLocs": [
        {
          "city": "SUN CITY",
          "state": 3,
          "stateSpecified": true
        }
      ],
      "orgNm": "WELLS FARGO INVESTMENTS, LLC",
      "orgPK": "10582",
      "regBeginDt": "2008-09-15T00:00:00",
      "regBeginDtSpecified": true,
      "regEndDt": "2009-09-24T00:00:00",
      "regEndDtSpecified": true
    },
    {
      "BrnchOfLocs": [
        {
          "city": "PEORIA",
          "state": 3,
          "stateSpecified": true
        }
      ],
      "orgNm": "CHASE INVESTMENT SERVICES CORP.",
      "orgPK": "25574",
      "regBeginDt": "2009-10-13T00:00:00",
      "regBeginDtSpecified": true,
      "regEndDt": "2009-12-01T00:00:00",
      "regEndDtSpecified": true
    },
    {
      "BrnchOfLocs": [
        {
          "city": "TEMPE",
          "state": 3,
          "stateSpecified": true
        }
      ],
      "orgNm": "EDWARD JONES",
      "orgPK": "250",
      "regBeginDt": "2011-08-25T00:00:00",
      "regBeginDtSpecified": true,
      "regEndDt": "2011-09-08T00:00:00",
      "regEndDtSpecified": true
    }
  ],
  "EmpHss": [
    {
      "fromDt": "10/2005",
      "toDt": "10/2006",
      "orgNm": "AVONDALE POLICE DEPT.",
      "city": "AVONDALE",
      "state": 3,
      "stateSpecified": true
    },
    {
      "fromDt": "11/2005",
      "toDt": "11/2006",
      "orgNm": "AVONDALE POLICE DEPARTMENT",
      "city": "AVONDALE",
      "state": 39,
      "stateSpecified": true
    },
    {
      "fromDt": "11/2006",
      "toDt": "02/2007",
      "orgNm": "MARSHALL AND ILLSLEY",
      "city": "PHOENIX",
      "state": 3,
      "stateSpecified": true
    },
    {
      "fromDt": "02/2007",
      "toDt": "09/2009",
      "orgNm": "WELLS FARGO &AMP;CO.",
      "city": "SUN CITY/GOODYEAR",
      "state": 3,
      "stateSpecified": true
    },
    {
      "fromDt": "03/2007",
      "toDt": "09/2009",
      "orgNm": "WELLS FARGO BANK",
      "city": "SUN CITY",
      "state": 3,
      "stateSpecified": true
    },
    {
      "fromDt": "04/2008",
      "toDt": "09/2009",
      "orgNm": "WELLS FARGO INVESTMENTS",
      "city": "SUN CITY",
      "state": 3,
      "stateSpecified": true
    },
    {
      "fromDt": "09/2009",
      "toDt": "11/2009",
      "orgNm": "CHASE INVESTMENT SERVICES",
      "city": "PEORIA",
      "state": 3,
      "stateSpecified": true
    },
    {
      "fromDt": "11/2009",
      "toDt": "05/2011",
      "orgNm": "BANK OF AMERICA",
      "city": "TEMPE",
      "state": 3,
      "stateSpecified": true
    },
    {
      "fromDt": "08/2011",
      "toDt": "09/2011",
      "orgNm": "EDWARD JONES",
      "city": "TEMPE",
      "state": 3,
      "stateSpecified": true
    },
    {
      "fromDt": "09/2011",
      "toDt": "07/2012",
      "orgNm": "NOT EMPLOYED",
      "city": "AVONDALE",
      "state": 3,
      "stateSpecified": true
    },
    {
      "fromDt": "07/2012",
      "toDt": null,
      "orgNm": "CHARLES SCHWAB & CO., INC.",
      "city": "PHOENIX",
      "state": 3,
      "stateSpecified": true
    }
  ],
  "OthrBuss": {
    "OthrBus": null
  },
  "DRPs": []
}