{
  "Info": {
    "lastNm": "PEREZ",
    "firstNm": "LORI",
    "midNm": "KATHLEEN",
    "sufNm": null,
    "indvlPK": "5537159",
    "actvAGReg": 0,
    "link": "http://www.adviserinfo.sec.gov/IAPD/Individual/5537159"
  },
  "OthrNms": [
    {
      "lastNm": "ALLAN",
      "firstNm": "LORI",
      "midNm": "KATHLEEN",
      "sufNm": null
    }
  ],
  "CrntEmps": [
    {
      "CrntRgstns": [
        {
          "regAuth": 4,
          "regCat": 0,
          "st": 2,
          "stDt": "2008-08-28T00:00:00"
        },
        {
          "regAuth": 34,
          "regCat": 0,
          "st": 2,
          "stDt": "2016-02-17T00:00:00"
        }
      ],
      "BrnchOfLocs": [
        {
          "str1": "12988 SARATOGA",
          "str2": null,
          "city": "SUNNYVALE",
          "state": 4,
          "stateSpecified": true,
          "cntry": "United States",
          "postlCd": "95070"
        },
        {
          "str1": "400 UNIVERSITY AVE",
          "str2": null,
          "city": "PALO ALTO",
          "state": 4,
          "stateSpecified": true,
          "cntry": "United States",
          "postlCd": "94301"
        },
        {
          "str1": "400 UNIVERSITY AVE",
          "str2": null,
          "city": "PALO ALTO",
          "state": 4,
          "stateSpecified": true,
          "cntry": "United States",
          "postlCd": "94301-1812"
        },
        {
          "str1": "675 JEFFERSON AVE",
          "str2": null,
          "city": "REDWOOD CITY",
          "state": 4,
          "stateSpecified": true,
          "cntry": "United States",
          "postlCd": "94063"
        },
        {
          "str1": "716 SANTA CRUZ AVE",
          "str2": null,
          "city": "MENLO PARK",
          "state": 4,
          "stateSpecified": true,
          "cntry": "United States",
          "postlCd": "94025"
        },
        {
          "str1": "99 ALMADEN BLVD., STE. 100",
          "str2": null,
          "city": "SAN JOSE",
          "state": 4,
          "stateSpecified": true,
          "cntry": "United States",
          "postlCd": "95113-1687"
        },
        {
          "str1": "99 ALMADEN BOULEVARD STE 200",
          "str2": null,
          "city": "SAN JOSE",
          "state": 4,
          "stateSpecified": true,
          "cntry": "United States",
          "postlCd": "95113"
        }
      ],
      "orgNm": "UNIONBANC INVESTMENT SERVICES, LLC",
      "orgPK": "14455",
      "str1": "800 N. BRAND BOULEVARD",
      "str2": "16TH FLOOR",
      "city": "GLENDALE",
      "state": 4,
      "stateSpecified": true,
      "cntry": "United States",
      "postlCd": "91203"
    }
  ],
  "Exms": [
    {
      "exmCd": 3,
      "exmNm": "Uniform Combined State Law Examination",
      "exmDt": "2008-08-27T00:00:00",
      "exmDtSpecified": true
    }
  ],
  "Dsgntns": [],
  "PrevRgstns": [],
  "EmpHss": [
    {
      "fromDt": "01/1998",
      "toDt": null,
      "orgNm": "UNION BANK OF CALIFORNIA",
      "city": "SAN CARLOS",
      "state": 4,
      "stateSpecified": true
    },
    {
      "fromDt": "05/2008",
      "toDt": null,
      "orgNm": "UNIONBANC INVESTMENT SERVICES",
      "city": "SAN CARLOS",
      "state": 4,
      "stateSpecified": true
    }
  ],
  "OthrBuss": {
    "OthrBus": null
  },
  "DRPs": []
}