{
  "Info": {
    "lastNm": "MULLINS",
    "firstNm": "PETER",
    "midNm": "J",
    "sufNm": null,
    "indvlPK": "5541559",
    "actvAGReg": 0,
    "link": "http://www.adviserinfo.sec.gov/IAPD/Individual/5541559"
  },
  "OthrNms": [],
  "CrntEmps": [
    {
      "CrntRgstns": [
        {
          "regAuth": 15,
          "regCat": 0,
          "st": 2,
          "stDt": "2013-05-10T00:00:00"
        },
        {
          "regAuth": 45,
          "regCat": 0,
          "st": 2,
          "stDt": "2013-05-10T00:00:00"
        },
        {
          "regAuth": 50,
          "regCat": 0,
          "st": 2,
          "stDt": "2013-05-13T00:00:00"
        },
        {
          "regAuth": 16,
          "regCat": 0,
          "st": 2,
          "stDt": "2013-05-14T00:00:00"
        },
        {
          "regAuth": 9,
          "regCat": 0,
          "st": 2,
          "stDt": "2013-07-17T00:00:00"
        }
      ],
      "BrnchOfLocs": [
        {
          "str1": "10 S. RIVERSIDE PLAZA",
          "str2": "SUITE 1400",
          "city": "CHICAGO",
          "state": 15,
          "stateSpecified": true,
          "cntry": "United States",
          "postlCd": "60606-3840"
        }
      ],
      "orgNm": "VESTOR CAPITAL, LLC",
      "orgPK": "165855",
      "str1": "10 S. RIVERSIDE PLAZA",
      "str2": "SUITE 1400",
      "city": "CHICAGO",
      "state": 15,
      "stateSpecified": true,
      "cntry": "United States",
      "postlCd": "60606-3840"
    }
  ],
  "Exms": [
    {
      "exmCd": 3,
      "exmNm": "Uniform Combined State Law Examination",
      "exmDt": "2009-09-29T00:00:00",
      "exmDtSpecified": true
    }
  ],
  "Dsgntns": [],
  "PrevRgstns": [
    {
      "BrnchOfLocs": [
        {
          "city": "OAK BROOK",
          "state": 15,
          "stateSpecified": true
        }
      ],
      "orgNm": "MERRILL LYNCH, PIERCE, FENNER & SMITH INCORPORATED",
      "orgPK": "7691",
      "regBeginDt": "2009-09-30T00:00:00",
      "regBeginDtSpecified": true,
      "regEndDt": "2013-05-14T00:00:00",
      "regEndDtSpecified": true
    }
  ],
  "EmpHss": [
    {
      "fromDt": "04/2005",
      "toDt": "06/2009",
      "orgNm": "THE UNIVERSITY OF ARIZONA",
      "city": "TUCSON",
      "state": 3,
      "stateSpecified": true
    },
    {
      "fromDt": "06/2009",
      "toDt": "05/2013",
      "orgNm": "MERRILL LYNCH",
      "city": "OAKBROOK",
      "state": 15,
      "stateSpecified": true
    },
    {
      "fromDt": "11/2009",
      "toDt": "05/2013",
      "orgNm": "BANK OF AMERICA, NA",
      "city": "OAK BROOK",
      "state": 15,
      "stateSpecified": true
    },
    {
      "fromDt": "05/2013",
      "toDt": null,
      "orgNm": "VESTOR CAPITAL SECURITIES, LLC",
      "city": "CHICAGO",
      "state": 15,
      "stateSpecified": true
    },
    {
      "fromDt": "05/2013",
      "toDt": null,
      "orgNm": "VESTOR CAPITAL, LLC",
      "city": "CHICAGO",
      "state": 15,
      "stateSpecified": true
    }
  ],
  "OthrBuss": {
    "OthrBus": {
      "desc": "BUSINESS: VESTOR CAPITAL, LLC INVESTMENT RELATED: YES  ADDRESS: CHICAGO, IL 60606  NATURE OF BUSINESS: REGISTERED INVESTMENT ADVISER  POSITION: EMPLOYEE  START DATE: 05/10/2013  HOURS DEVOTED/MO: FULL TIME  DURING TRADING HOURS: FULL TIME  DUTIES: EMPLOYEE    BUSINESS OR ACTIVITY   NAME:  PETER J. MULLINS  FOR PROFIT OR NOT FOR PROFIT: FOR PROFIT  INVESTMENT RELATED: (YES OR NO):NO  COMPENSATION RECEIVED? (YES OR NO):NO  ADDRESS OF BUSINESS:244 ARBORETUM DR. LOMBARD, IL 60148  NATURE OF BUSINESS:RENTING MY CONDO  YOUR POSITION, TITLE, ASSOCIATION:OWNER   START DATE OF RELATIONSHIP:12/01/2011  NUMBER OF HOURS DEVOTED PER MONTH:0  NUMBER OF HOURS DEVOTED DURING SECURITIES TRADING HOURS:0  YOUR DUTIES:COLLECTING RENT, CALLING ASSOCIATION FOR MAINTENANCE."
    }
  },
  "DRPs": []
}