{
  "Info": {
    "lastNm": "CHEN",
    "firstNm": "IRVING",
    "midNm": null,
    "sufNm": null,
    "indvlPK": "5543270",
    "actvAGReg": 1,
    "link": "http://www.adviserinfo.sec.gov/IAPD/Individual/5543270"
  },
  "OthrNms": [],
  "CrntEmps": [
    {
      "CrntRgstns": [
        {
          "regAuth": 4,
          "regCat": 0,
          "st": 2,
          "stDt": "2008-06-27T00:00:00"
        },
        {
          "regAuth": 33,
          "regCat": 0,
          "st": 2,
          "stDt": "2014-04-08T00:00:00"
        },
        {
          "regAuth": 45,
          "regCat": 0,
          "st": 3,
          "stDt": "2014-04-16T00:00:00"
        }
      ],
      "BrnchOfLocs": [
        {
          "str1": "1450 FASHION ISLAND BLVD",
          "str2": null,
          "city": "SAN MATEO",
          "state": 4,
          "stateSpecified": true,
          "cntry": "United States",
          "postlCd": "94404"
        },
        {
          "str1": "5525 NW FISHER CREEK DRIVE",
          "str2": null,
          "city": "CAMAS",
          "state": 49,
          "stateSpecified": true,
          "cntry": "United States",
          "postlCd": "98607-9911"
        }
      ],
      "orgNm": "FISHER INVESTMENTS",
      "orgPK": "107342",
      "str1": "5525 NW FISHER CREEK DRIVE",
      "str2": null,
      "city": "CAMAS",
      "state": 49,
      "stateSpecified": true,
      "cntry": "United States",
      "postlCd": "98607-9911"
    }
  ],
  "Exms": [
    {
      "exmCd": 2,
      "exmNm": "Uniform Investment Adviser Law Examination",
      "exmDt": "2008-06-26T00:00:00",
      "exmDtSpecified": true
    }
  ],
  "Dsgntns": [],
  "PrevRgstns": [],
  "EmpHss": [
    {
      "fromDt": "08/2005",
      "toDt": null,
      "orgNm": "FISHER INVESTMENTS",
      "city": "WOODSIDE",
      "state": 4,
      "stateSpecified": true
    }
  ],
  "OthrBuss": {
    "OthrBus": null
  },
  "DRPs": []
}