{
  "Info": {
    "lastNm": "Buchanan",
    "firstNm": "Jamie",
    "midNm": "Michelle",
    "sufNm": null,
    "indvlPK": "5548547",
    "actvAGReg": 0,
    "link": "http://www.adviserinfo.sec.gov/IAPD/Individual/5548547"
  },
  "OthrNms": [
    {
      "lastNm": "STULL",
      "firstNm": "JAMIE",
      "midNm": "MICHELLE",
      "sufNm": null
    },
    {
      "lastNm": "THOMAS",
      "firstNm": "JAMIE",
      "midNm": "MICHELLE",
      "sufNm": null
    }
  ],
  "CrntEmps": [
    {
      "CrntRgstns": [
        {
          "regAuth": 3,
          "regCat": 0,
          "st": 2,
          "stDt": "2011-12-06T00:00:00"
        }
      ],
      "BrnchOfLocs": [
        {
          "str1": "8620 SOUTH RIVER PARKWAY",
          "str2": null,
          "city": "TEMPE",
          "state": 3,
          "stateSpecified": true,
          "cntry": "United States",
          "postlCd": "85284"
        }
      ],
      "orgNm": "EDWARD JONES",
      "orgPK": "250",
      "str1": "12555 MANCHESTER RD",
      "str2": null,
      "city": "ST. LOUIS",
      "state": 25,
      "stateSpecified": true,
      "cntry": "United States",
      "postlCd": "63131"
    }
  ],
  "Exms": [
    {
      "exmCd": 3,
      "exmNm": "Uniform Combined State Law Examination",
      "exmDt": "2011-11-19T00:00:00",
      "exmDtSpecified": true
    }
  ],
  "Dsgntns": [],
  "PrevRgstns": [],
  "EmpHss": [
    {
      "fromDt": "06/2004",
      "toDt": "04/2007",
      "orgNm": "SAFEWAY",
      "city": "TEMPE",
      "state": 3,
      "stateSpecified": true
    },
    {
      "fromDt": "04/2007",
      "toDt": "06/2008",
      "orgNm": "TARGET INC.",
      "city": "TEMPE",
      "state": 3,
      "stateSpecified": true
    },
    {
      "fromDt": "05/2007",
      "toDt": "12/2008",
      "orgNm": "TPRS PUBLISHING",
      "city": "CHANDLER",
      "state": 3,
      "stateSpecified": true
    },
    {
      "fromDt": "06/2008",
      "toDt": null,
      "orgNm": "EDWARD JONES",
      "city": "TEMPE",
      "state": 3,
      "stateSpecified": true
    }
  ],
  "OthrBuss": {
    "OthrBus": null
  },
  "DRPs": []
}