{
  "Info": {
    "lastNm": "LOVE",
    "firstNm": "JONATHAN",
    "midNm": "JEREMY",
    "sufNm": null,
    "indvlPK": "5548434",
    "actvAGReg": 0,
    "link": "http://www.adviserinfo.sec.gov/IAPD/Individual/5548434"
  },
  "OthrNms": [
    {
      "lastNm": "LOVE",
      "firstNm": "JONATHAN",
      "midNm": null,
      "sufNm": null
    }
  ],
  "CrntEmps": [
    {
      "CrntRgstns": [
        {
          "regAuth": 44,
          "regCat": 0,
          "st": 2,
          "stDt": "2013-06-21T00:00:00"
        },
        {
          "regAuth": 45,
          "regCat": 0,
          "st": 2,
          "stDt": "2015-03-25T00:00:00"
        }
      ],
      "BrnchOfLocs": [
        {
          "str1": "11513 PARKSIDE DRIVE",
          "str2": null,
          "city": "KNOXVILLE",
          "state": 44,
          "stateSpecified": true,
          "cntry": "United States",
          "postlCd": "37934"
        }
      ],
      "orgNm": "STRATEGIC ADVISERS, INC.",
      "orgPK": "104555",
      "str1": "245 SUMMER STREET, V10G",
      "str2": null,
      "city": "BOSTON",
      "state": 20,
      "stateSpecified": true,
      "cntry": "United States",
      "postlCd": "02210"
    }
  ],
  "Exms": [
    {
      "exmCd": 0,
      "exmNm": "Uniform Securities Agent State Law Examination",
      "exmDt": "2008-08-18T00:00:00",
      "exmDtSpecified": true
    },
    {
      "exmCd": 2,
      "exmNm": "Uniform Investment Adviser Law Examination",
      "exmDt": "2013-06-12T00:00:00",
      "exmDtSpecified": true
    }
  ],
  "Dsgntns": [],
  "PrevRgstns": [],
  "EmpHss": [
    {
      "fromDt": "05/2004",
      "toDt": "05/2008",
      "orgNm": "OUTBACK STEAKHOUSE",
      "city": "KNOXVILLE",
      "state": 44,
      "stateSpecified": true
    },
    {
      "fromDt": "09/2005",
      "toDt": "05/2008",
      "orgNm": "EDFINANCIAL SERVICES",
      "city": "KNOXVILLE",
      "state": 44,
      "stateSpecified": true
    },
    {
      "fromDt": "05/2008",
      "toDt": null,
      "orgNm": "FIDELITY INVESTMENTS",
      "city": "COVINGTON",
      "state": 18,
      "stateSpecified": true
    }
  ],
  "OthrBuss": {
    "OthrBus": null
  },
  "DRPs": []
}