{
  "Info": {
    "lastNm": "GARCIA",
    "firstNm": "KIMBERLY",
    "midNm": "ANN",
    "sufNm": null,
    "indvlPK": "5559501",
    "actvAGReg": 0,
    "link": "http://www.adviserinfo.sec.gov/IAPD/Individual/5559501"
  },
  "OthrNms": [
    {
      "lastNm": "HOPF",
      "firstNm": "KIMBERLY",
      "midNm": "ANN",
      "sufNm": null
    }
  ],
  "CrntEmps": [
    {
      "CrntRgstns": [
        {
          "regAuth": 4,
          "regCat": 0,
          "st": 2,
          "stDt": "2009-08-24T00:00:00"
        },
        {
          "regAuth": 32,
          "regCat": 0,
          "st": 2,
          "stDt": "2009-08-24T00:00:00"
        }
      ],
      "BrnchOfLocs": [
        {
          "str1": "107 SPRING STREET, SUITE 100",
          "str2": null,
          "city": "RAMSEY",
          "state": 32,
          "stateSpecified": true,
          "cntry": "United States",
          "postlCd": "07446"
        }
      ],
      "orgNm": "STIFEL, NICOLAUS & COMPANY, INCORPORATED",
      "orgPK": "793",
      "str1": "501 N BROADWAY",
      "str2": null,
      "city": "ST LOUIS",
      "state": 25,
      "stateSpecified": true,
      "cntry": "United States",
      "postlCd": "63102"
    }
  ],
  "Exms": [
    {
      "exmCd": 3,
      "exmNm": "Uniform Combined State Law Examination",
      "exmDt": "2009-08-22T00:00:00",
      "exmDtSpecified": true
    }
  ],
  "Dsgntns": [],
  "PrevRgstns": [],
  "EmpHss": [
    {
      "fromDt": "09/2005",
      "toDt": "06/2008",
      "orgNm": "ALLIANCE HAND & PHYSICAL THERAPY",
      "city": "WESTWOOD",
      "state": 32,
      "stateSpecified": true
    },
    {
      "fromDt": "06/2008",
      "toDt": null,
      "orgNm": "STIFEL NICOLAUS",
      "city": "RAMSEY",
      "state": 32,
      "stateSpecified": true
    }
  ],
  "OthrBuss": {
    "OthrBus": null
  },
  "DRPs": []
}