{
  "Info": {
    "lastNm": "IVY",
    "firstNm": "BRANDON",
    "midNm": "CRAIG",
    "sufNm": null,
    "indvlPK": "5565229",
    "actvAGReg": 1,
    "link": "http://www.adviserinfo.sec.gov/IAPD/Individual/5565229"
  },
  "OthrNms": [],
  "CrntEmps": [
    {
      "CrntRgstns": [
        {
          "regAuth": 45,
          "regCat": 0,
          "st": 2,
          "stDt": "2015-11-17T00:00:00"
        }
      ],
      "BrnchOfLocs": [
        {
          "str1": "1925 Hughes Landing Blvd., Suite 200",
          "str2": null,
          "city": "The Woodlands",
          "state": 45,
          "stateSpecified": true,
          "cntry": "United States",
          "postlCd": "77380"
        }
      ],
      "orgNm": "LINSCOMB & WILLIAMS",
      "orgPK": "106779",
      "str1": "1400 POST OAK BLVD",
      "str2": "SUITE 1000",
      "city": "HOUSTON",
      "state": 45,
      "stateSpecified": true,
      "cntry": "United States",
      "postlCd": "77056"
    }
  ],
  "Exms": [
    {
      "exmCd": 3,
      "exmNm": "Uniform Combined State Law Examination",
      "exmDt": "2009-02-05T00:00:00",
      "exmDtSpecified": true
    }
  ],
  "Dsgntns": [],
  "PrevRgstns": [
    {
      "BrnchOfLocs": [
        {
          "city": "BLAIRSVILLE",
          "state": 10,
          "stateSpecified": true
        },
        {
          "city": "TAMPA",
          "state": 9,
          "stateSpecified": true
        }
      ],
      "orgNm": "INVEST FINANCIAL CORPORATION",
      "orgPK": "12984",
      "regBeginDt": "2009-07-27T00:00:00",
      "regBeginDtSpecified": true,
      "regEndDt": "2012-03-16T00:00:00",
      "regEndDtSpecified": true
    },
    {
      "BrnchOfLocs": [
        {
          "city": "HOUSTON",
          "state": 45,
          "stateSpecified": true
        },
        {
          "city": "HOUSTON",
          "state": 45,
          "stateSpecified": true
        },
        {
          "city": "HOUSTON",
          "state": 45,
          "stateSpecified": true
        },
        {
          "city": "HUMBLE",
          "state": 45,
          "stateSpecified": true
        },
        {
          "city": "HUMBLE",
          "state": 45,
          "stateSpecified": true
        },
        {
          "city": "HUMBLE",
          "state": 45,
          "stateSpecified": true
        },
        {
          "city": "KINGWOOD",
          "state": 45,
          "stateSpecified": true
        },
        {
          "city": "SPRING",
          "state": 45,
          "stateSpecified": true
        },
        {
          "city": "SPRING",
          "state": 45,
          "stateSpecified": true
        },
        {
          "city": "SPRING",
          "state": 45,
          "stateSpecified": true
        },
        {
          "city": "SPRING",
          "state": 45,
          "stateSpecified": true
        },
        {
          "city": "THE WOODLANDS",
          "state": 45,
          "stateSpecified": true
        },
        {
          "city": "THE WOODLANDS",
          "state": 45,
          "stateSpecified": true
        }
      ],
      "orgNm": "MERRILL LYNCH, PIERCE, FENNER & SMITH INCORPORATED",
      "orgPK": "7691",
      "regBeginDt": "2012-04-11T00:00:00",
      "regBeginDtSpecified": true,
      "regEndDt": "2015-11-05T00:00:00",
      "regEndDtSpecified": true
    }
  ],
  "EmpHss": [
    {
      "fromDt": "02/2006",
      "toDt": "08/2007",
      "orgNm": "ITALYS HOME REPAIR",
      "city": "BLAIRSVILLE",
      "state": 10,
      "stateSpecified": true
    },
    {
      "fromDt": "08/2007",
      "toDt": "11/2007",
      "orgNm": "UNEMPLOYED",
      "city": "BLAIRSVILLE",
      "state": 10,
      "stateSpecified": true
    },
    {
      "fromDt": "11/2007",
      "toDt": "12/2007",
      "orgNm": "UPS",
      "city": "BLAIRSVILLE",
      "state": 10,
      "stateSpecified": true
    },
    {
      "fromDt": "12/2007",
      "toDt": "03/2012",
      "orgNm": "UNITED COMMUNITY BANKS INC.",
      "city": "BLAIRSVILLE",
      "state": 10,
      "stateSpecified": true
    },
    {
      "fromDt": "06/2008",
      "toDt": "07/2009",
      "orgNm": "RELIANCE SECURITIES LLC",
      "city": "BLAIRSVILLE",
      "state": 10,
      "stateSpecified": true
    },
    {
      "fromDt": "07/2009",
      "toDt": "03/2012",
      "orgNm": "INVEST FINANCIAL CORPORATION",
      "city": "TAMPA",
      "state": 9,
      "stateSpecified": true
    },
    {
      "fromDt": "03/2012",
      "toDt": "10/2015",
      "orgNm": "MERRILL LYNCH, PIERCE, FENNER & SMITH INCORPORATED",
      "city": "HUMBLE",
      "state": 45,
      "stateSpecified": true
    },
    {
      "fromDt": "05/2012",
      "toDt": "10/2015",
      "orgNm": "BANK OF AMERICA, N.A.",
      "city": "HUMBLE",
      "state": 45,
      "stateSpecified": true
    },
    {
      "fromDt": "10/2015",
      "toDt": null,
      "orgNm": "Linscomb & Williams, Inc.",
      "city": "Houston",
      "state": 45,
      "stateSpecified": true
    }
  ],
  "OthrBuss": {
    "OthrBus": null
  },
  "DRPs": []
}