{
  "Info": {
    "lastNm": "BASEL",
    "firstNm": "WILLIAM",
    "midNm": null,
    "sufNm": null,
    "indvlPK": "5570448",
    "actvAGReg": 0,
    "link": "http://www.adviserinfo.sec.gov/IAPD/Individual/5570448"
  },
  "OthrNms": [],
  "CrntEmps": [
    {
      "CrntRgstns": [
        {
          "regAuth": 4,
          "regCat": 0,
          "st": 2,
          "stDt": "2015-03-02T00:00:00"
        }
      ],
      "BrnchOfLocs": [
        {
          "str1": "444 S. FLOWER STREET",
          "str2": "SUITE 4200",
          "city": "LOS ANGELES",
          "state": 4,
          "stateSpecified": true,
          "cntry": "United States",
          "postlCd": "90071"
        }
      ],
      "orgNm": "MML INVESTORS SERVICES, LLC",
      "orgPK": "10409",
      "str1": "1295 STATE STREET",
      "str2": null,
      "city": "SPRINGFIELD",
      "state": 20,
      "stateSpecified": true,
      "cntry": "United States",
      "postlCd": "01111-0001"
    }
  ],
  "Exms": [
    {
      "exmCd": 3,
      "exmNm": "Uniform Combined State Law Examination",
      "exmDt": "2008-09-29T00:00:00",
      "exmDtSpecified": true
    }
  ],
  "Dsgntns": [
    {
      "dsgntnNm": "Certified Financial Planner"
    }
  ],
  "PrevRgstns": [
    {
      "BrnchOfLocs": [
        {
          "city": "PRINCETON",
          "state": 32,
          "stateSpecified": true
        }
      ],
      "orgNm": "WELLS FARGO ADVISORS, LLC",
      "orgPK": "19616",
      "regBeginDt": "2008-10-09T00:00:00",
      "regBeginDtSpecified": true,
      "regEndDt": "2009-03-11T00:00:00",
      "regEndDtSpecified": true
    },
    {
      "BrnchOfLocs": [
        {
          "city": "LOS ANGELES",
          "state": 4,
          "stateSpecified": true
        },
        {
          "city": "LOS ANGELES",
          "state": 4,
          "stateSpecified": true
        }
      ],
      "orgNm": "NORTHWESTERN MUTUAL INVESTMENT SERVICES, LLC",
      "orgPK": "2881",
      "regBeginDt": "2010-04-15T00:00:00",
      "regBeginDtSpecified": true,
      "regEndDt": "2015-01-16T00:00:00",
      "regEndDtSpecified": true
    }
  ],
  "EmpHss": [
    {
      "fromDt": "01/2006",
      "toDt": "07/2008",
      "orgNm": "VILIA",
      "city": "S BRUNSWICK",
      "state": 32,
      "stateSpecified": true
    },
    {
      "fromDt": "07/2008",
      "toDt": "03/2009",
      "orgNm": "WACHOVIA SECURITIES",
      "city": "PRINCETON",
      "state": 32,
      "stateSpecified": true
    },
    {
      "fromDt": "04/2009",
      "toDt": "12/2009",
      "orgNm": "VILIA",
      "city": "S. BRUNSWICK",
      "state": 32,
      "stateSpecified": true
    },
    {
      "fromDt": "03/2010",
      "toDt": "01/2015",
      "orgNm": "NORTHWESTERN MUTUAL INVESTMENT SERVICES, LLC",
      "city": "LOS ANGELES",
      "state": 4,
      "stateSpecified": true
    },
    {
      "fromDt": "03/2010",
      "toDt": "01/2015",
      "orgNm": "NORTHWESTERN MUTUAL LIFE INSURANCE COMPANY",
      "city": "MILWAUKEE",
      "state": 50,
      "stateSpecified": true
    },
    {
      "fromDt": "12/2012",
      "toDt": "01/2015",
      "orgNm": "NORTHWESTERN MUTUAL INVESTMENT SERVICES, LLC",
      "city": "LOS ANGELES",
      "state": 4,
      "stateSpecified": true
    },
    {
      "fromDt": "01/2015",
      "toDt": null,
      "orgNm": "LENOX ADVISORS INC./ MASS MUTUAL",
      "city": "LOS ANGELES",
      "state": 4,
      "stateSpecified": true
    },
    {
      "fromDt": "01/2015",
      "toDt": null,
      "orgNm": "MASS MUTUAL LIFE INSURANCE COMPANY",
      "city": "LOS ANGELES",
      "state": 4,
      "stateSpecified": true
    },
    {
      "fromDt": "02/2015",
      "toDt": null,
      "orgNm": "MML INVESTORS SERVICES",
      "city": "LOS ANGELES",
      "state": 4,
      "stateSpecified": true
    }
  ],
  "OthrBuss": {
    "OthrBus": {
      "desc": "NAME: WILLIAM BASEL/LENOX ADVISORS   INV REL: Y ADD:  444 S. FLOWER STREET SUITE 4200 LOS ANGELES, CA 90071 NATURE: NONMMLIA INSURANCE BROKERAGE  POSITION:  SALES/AGENT START DATE: 01/12/2015  NO. HR/MO: 2  NO. HR/MO DURING SEC TRADING:   2 DESCRIBE DUTIES: INDIVIDUAL LIFE & HEALTH"
    }
  },
  "DRPs": []
}