{
  "Info": {
    "lastNm": "SHUSTER",
    "firstNm": "JAMES",
    "midNm": "THOMAS",
    "sufNm": null,
    "indvlPK": "5581486",
    "actvAGReg": 0,
    "link": "http://www.adviserinfo.sec.gov/IAPD/Individual/5581486"
  },
  "OthrNms": [
    {
      "lastNm": "SHUSTER",
      "firstNm": "JAMES",
      "midNm": null,
      "sufNm": null
    }
  ],
  "CrntEmps": [
    {
      "CrntRgstns": [
        {
          "regAuth": 36,
          "regCat": 0,
          "st": 2,
          "stDt": "2011-07-05T00:00:00"
        },
        {
          "regAuth": 18,
          "regCat": 0,
          "st": 2,
          "stDt": "2011-07-08T00:00:00"
        },
        {
          "regAuth": 23,
          "regCat": 0,
          "st": 2,
          "stDt": "2011-11-07T00:00:00"
        }
      ],
      "BrnchOfLocs": [
        {
          "str1": "250 PEARL STREET",
          "str2": null,
          "city": "GRAND RAPIDS",
          "state": 23,
          "stateSpecified": true,
          "cntry": "United States",
          "postlCd": "49503"
        }
      ],
      "orgNm": "OPPENHEIMER & CO. INC.",
      "orgPK": "249",
      "str1": "85 BROAD STREET",
      "str2": "22ND FLOOR.",
      "city": "NEW YORK",
      "state": 35,
      "stateSpecified": true,
      "cntry": "United States",
      "postlCd": "10004"
    }
  ],
  "Exms": [
    {
      "exmCd": 3,
      "exmNm": "Uniform Combined State Law Examination",
      "exmDt": "2008-10-16T00:00:00",
      "exmDtSpecified": true
    }
  ],
  "Dsgntns": [],
  "PrevRgstns": [
    {
      "BrnchOfLocs": [
        {
          "city": "GRAND RAPIDS",
          "state": 23,
          "stateSpecified": true
        },
        {
          "city": "ST LOUIS",
          "state": 25,
          "stateSpecified": true
        }
      ],
      "orgNm": "EDWARD JONES",
      "orgPK": "250",
      "regBeginDt": "2008-10-29T00:00:00",
      "regBeginDtSpecified": true,
      "regEndDt": "2011-07-08T00:00:00",
      "regEndDtSpecified": true
    }
  ],
  "EmpHss": [
    {
      "fromDt": "04/2004",
      "toDt": "08/2008",
      "orgNm": "IMPERIAL LEASING",
      "city": "GRAND RAPIDS",
      "state": 20,
      "stateSpecified": true
    },
    {
      "fromDt": "08/2008",
      "toDt": "06/2011",
      "orgNm": "EDWARD JONES",
      "city": "ST LOUIS",
      "state": 25,
      "stateSpecified": true
    },
    {
      "fromDt": "07/2011",
      "toDt": null,
      "orgNm": "OPPENHEIMER & CO. INC.",
      "city": "GRAND RAPIDS",
      "state": 23,
      "stateSpecified": true
    }
  ],
  "OthrBuss": {
    "OthrBus": null
  },
  "DRPs": []
}