{
  "Info": {
    "lastNm": "Zink",
    "firstNm": "Kirk",
    "midNm": "Edward",
    "sufNm": null,
    "indvlPK": "5581899",
    "actvAGReg": 0,
    "link": "http://www.adviserinfo.sec.gov/IAPD/Individual/5581899"
  },
  "OthrNms": [
    {
      "lastNm": "ZINK",
      "firstNm": "KIRK",
      "midNm": null,
      "sufNm": null
    }
  ],
  "CrntEmps": [
    {
      "CrntRgstns": [
        {
          "regAuth": 24,
          "regCat": 0,
          "st": 2,
          "stDt": "2013-12-10T00:00:00"
        }
      ],
      "BrnchOfLocs": [
        {
          "str1": "910 CENTRAL AVENUE NE",
          "str2": null,
          "city": "EAST GRAND FORKS",
          "state": 24,
          "stateSpecified": true,
          "cntry": "United States",
          "postlCd": "56721"
        }
      ],
      "orgNm": "EDWARD JONES",
      "orgPK": "250",
      "str1": "12555 MANCHESTER RD",
      "str2": null,
      "city": "ST. LOUIS",
      "state": 25,
      "stateSpecified": true,
      "cntry": "United States",
      "postlCd": "63131"
    }
  ],
  "Exms": [
    {
      "exmCd": 3,
      "exmNm": "Uniform Combined State Law Examination",
      "exmDt": "2008-10-16T00:00:00",
      "exmDtSpecified": true
    }
  ],
  "Dsgntns": [],
  "PrevRgstns": [],
  "EmpHss": [
    {
      "fromDt": "08/2005",
      "toDt": "08/2008",
      "orgNm": "NORTH VALLEY HEALTH SYSTEMS",
      "city": "GRAND FORKS",
      "state": 29,
      "stateSpecified": true
    },
    {
      "fromDt": "08/2008",
      "toDt": null,
      "orgNm": "EDWARD JONES",
      "city": "ST LOUIS",
      "state": 25,
      "stateSpecified": true
    }
  ],
  "OthrBuss": {
    "OthrBus": {
      "desc": "HILLSBORO HIGH SCHOOL TYPE OF BUSINESS: EDUCATION  HILLSBORO, ND  START DATE 9/1/2011  COACH  HOURS PER WEEK: 5  HOURS DURING TRADING: 0  COACHING BOTH VARSITY CROSS-COUNTY AND ELEMENTARY WRESTLING."
    }
  },
  "DRPs": [
    {
      "hasRegAction": 1,
      "hasRegActionSpecified": true,
      "hasCriminal": 1,
      "hasCriminalSpecified": true,
      "hasBankrupt": 0,
      "hasBankruptSpecified": true,
      "hasCivilJudc": 1,
      "hasCivilJudcSpecified": true,
      "hasBond": 1,
      "hasBondSpecified": true,
      "hasJudgment": 1,
      "hasJudgmentSpecified": true,
      "hasInvstgn": 1,
      "hasInvstgnSpecified": true,
      "hasCustComp": 1,
      "hasCustCompSpecified": true,
      "hasTermination": 1,
      "hasTerminationSpecified": true
    }
  ]
}