{
  "Info": {
    "lastNm": "DUQUETTE",
    "firstNm": "KENNETH",
    "midNm": "ORIN",
    "sufNm": null,
    "indvlPK": "5584379",
    "actvAGReg": 0,
    "link": "http://www.adviserinfo.sec.gov/IAPD/Individual/5584379"
  },
  "OthrNms": [],
  "CrntEmps": [
    {
      "CrntRgstns": [
        {
          "regAuth": 7,
          "regCat": 0,
          "st": 2,
          "stDt": "2016-05-09T00:00:00"
        }
      ],
      "BrnchOfLocs": [
        {
          "str1": "1501 K Street NW",
          "str2": "Suite 1100",
          "city": "Washington",
          "state": 7,
          "stateSpecified": true,
          "cntry": "United States",
          "postlCd": "20005"
        }
      ],
      "orgNm": "UBS FINANCIAL SERVICES INC.",
      "orgPK": "8174",
      "str1": "1200 HARBOR BOULEVARD",
      "str2": null,
      "city": "WEEHAWKEN",
      "state": 32,
      "stateSpecified": true,
      "cntry": "United States",
      "postlCd": "07086"
    }
  ],
  "Exms": [
    {
      "exmCd": 0,
      "exmNm": "Uniform Securities Agent State Law Examination",
      "exmDt": "2008-10-09T00:00:00",
      "exmDtSpecified": true
    },
    {
      "exmCd": 3,
      "exmNm": "Uniform Combined State Law Examination",
      "exmDt": "2013-09-24T00:00:00",
      "exmDtSpecified": true
    }
  ],
  "Dsgntns": [],
  "PrevRgstns": [
    {
      "BrnchOfLocs": [
        {
          "city": "NEW YORK",
          "state": 35,
          "stateSpecified": true
        },
        {
          "city": "SANDY",
          "state": 46,
          "stateSpecified": true
        },
        {
          "city": "WASHINGTON",
          "state": 7,
          "stateSpecified": true
        }
      ],
      "orgNm": "E*TRADE CAPITAL MANAGEMENT, LLC",
      "orgPK": "42159",
      "regBeginDt": "2013-09-25T00:00:00",
      "regBeginDtSpecified": true,
      "regEndDt": "2016-04-27T00:00:00",
      "regEndDtSpecified": true
    }
  ],
  "EmpHss": [
    {
      "fromDt": "01/2004",
      "toDt": "06/2007",
      "orgNm": "AFFILIATED COMPUTER SERVICES",
      "city": "SANDY",
      "state": 46,
      "stateSpecified": true
    },
    {
      "fromDt": "01/2007",
      "toDt": "12/2009",
      "orgNm": "SALT LAKE COMMUNITY COLLEGE",
      "city": "TAYLORVILLE",
      "state": 46,
      "stateSpecified": true
    },
    {
      "fromDt": "06/2007",
      "toDt": "08/2008",
      "orgNm": "METTEL",
      "city": "SALT LAKE CITY",
      "state": 46,
      "stateSpecified": true
    },
    {
      "fromDt": "08/2008",
      "toDt": "04/2015",
      "orgNm": "E*TRADE SECURITIES LLC",
      "city": "SANDY",
      "state": 46,
      "stateSpecified": true
    },
    {
      "fromDt": "02/2011",
      "toDt": "06/2011",
      "orgNm": "REALIZATION MEDIA",
      "city": "SALT LAKE CITY",
      "state": 46,
      "stateSpecified": true
    },
    {
      "fromDt": "09/2013",
      "toDt": "04/2015",
      "orgNm": "E*TRADE CAPITAL MANAGEMENT LLC",
      "city": "SANDY",
      "state": 46,
      "stateSpecified": true
    },
    {
      "fromDt": "04/2015",
      "toDt": "04/2016",
      "orgNm": "E*TRADE CAPITAL MANAGEMENT LLC",
      "city": "WASHINGTON",
      "state": 7,
      "stateSpecified": true
    },
    {
      "fromDt": "04/2015",
      "toDt": "04/2016",
      "orgNm": "E*TRADE SECURITIES LLC",
      "city": "WASHINGTON",
      "state": 7,
      "stateSpecified": true
    },
    {
      "fromDt": "05/2016",
      "toDt": null,
      "orgNm": "UBS FINANCIAL SERVICES INC.",
      "city": "WASHINGTON",
      "state": 7,
      "stateSpecified": true
    }
  ],
  "OthrBuss": {
    "OthrBus": null
  },
  "DRPs": []
}