{
  "Info": {
    "lastNm": "CHALUPA",
    "firstNm": "JACOB",
    "midNm": "CHARLES",
    "sufNm": null,
    "indvlPK": "5586995",
    "actvAGReg": 0,
    "link": "http://www.adviserinfo.sec.gov/IAPD/Individual/5586995"
  },
  "OthrNms": [
    {
      "lastNm": "CHALUPA",
      "firstNm": "JAKE",
      "midNm": null,
      "sufNm": null
    },
    {
      "lastNm": "CHALUPA",
      "firstNm": "JAKE",
      "midNm": "CHARLES",
      "sufNm": null
    }
  ],
  "CrntEmps": [
    {
      "CrntRgstns": [
        {
          "regAuth": 36,
          "regCat": 0,
          "st": 2,
          "stDt": "2009-06-29T00:00:00"
        }
      ],
      "BrnchOfLocs": [
        {
          "str1": "NORTHWOOD",
          "str2": "2550 WOODVILLE RD.",
          "city": "NORTHWOOD",
          "state": 36,
          "stateSpecified": true,
          "cntry": "United States",
          "postlCd": "43619"
        }
      ],
      "orgNm": "THE HUNTINGTON INVESTMENT COMPANY",
      "orgPK": "16986",
      "str1": "41 SOUTH HIGH STREET",
      "str2": null,
      "city": "COLUMBUS",
      "state": 36,
      "stateSpecified": true,
      "cntry": "United States",
      "postlCd": "43215-6101"
    }
  ],
  "Exms": [
    {
      "exmCd": 3,
      "exmNm": "Uniform Combined State Law Examination",
      "exmDt": "2008-11-26T00:00:00",
      "exmDtSpecified": true
    }
  ],
  "Dsgntns": [],
  "PrevRgstns": [
    {
      "BrnchOfLocs": [
        {
          "city": "CENTERVILLE",
          "state": 36,
          "stateSpecified": true
        }
      ],
      "orgNm": "MORGAN STANLEY & CO. LLC",
      "orgPK": "8209",
      "regBeginDt": "2008-12-01T00:00:00",
      "regBeginDtSpecified": true,
      "regEndDt": "2009-06-01T00:00:00",
      "regEndDtSpecified": true
    },
    {
      "BrnchOfLocs": [
        {
          "city": "BEAVERCREEK",
          "state": 36,
          "stateSpecified": true
        }
      ],
      "orgNm": "MORGAN STANLEY",
      "orgPK": "149777",
      "regBeginDt": "2009-06-01T00:00:00",
      "regBeginDtSpecified": true,
      "regEndDt": "2009-06-19T00:00:00",
      "regEndDtSpecified": true
    }
  ],
  "EmpHss": [
    {
      "fromDt": "02/2005",
      "toDt": "06/2007",
      "orgNm": "CRACKER BARREL",
      "city": "CENTERVILLE",
      "state": 36,
      "stateSpecified": true
    },
    {
      "fromDt": "08/2007",
      "toDt": "07/2008",
      "orgNm": "KEY CORP",
      "city": "DAYTON",
      "state": 36,
      "stateSpecified": true
    },
    {
      "fromDt": "07/2008",
      "toDt": "06/2009",
      "orgNm": "MORGAN STANLEY",
      "city": "CENTERVILLE",
      "state": 36,
      "stateSpecified": true
    },
    {
      "fromDt": "06/2009",
      "toDt": "06/2009",
      "orgNm": "MORGAN STANLEY SMITH BARNEY",
      "city": "CENTERVILLE",
      "state": 36,
      "stateSpecified": true
    },
    {
      "fromDt": "06/2009",
      "toDt": null,
      "orgNm": "THE HUNTINGTON INVESTMENT COMPANY",
      "city": "COLUMBUS",
      "state": 36,
      "stateSpecified": true
    }
  ],
  "OthrBuss": {
    "OthrBus": null
  },
  "DRPs": [
    {
      "hasRegAction": 1,
      "hasRegActionSpecified": true,
      "hasCriminal": 1,
      "hasCriminalSpecified": true,
      "hasBankrupt": 1,
      "hasBankruptSpecified": true,
      "hasCivilJudc": 1,
      "hasCivilJudcSpecified": true,
      "hasBond": 1,
      "hasBondSpecified": true,
      "hasJudgment": 1,
      "hasJudgmentSpecified": true,
      "hasInvstgn": 1,
      "hasInvstgnSpecified": true,
      "hasCustComp": 0,
      "hasCustCompSpecified": true,
      "hasTermination": 1,
      "hasTerminationSpecified": true
    }
  ]
}