{
  "Info": {
    "lastNm": "ZHENG",
    "firstNm": "RICHARD",
    "midNm": "DEWEI",
    "sufNm": null,
    "indvlPK": "5587507",
    "actvAGReg": 0,
    "link": "http://www.adviserinfo.sec.gov/IAPD/Individual/5587507"
  },
  "OthrNms": [
    {
      "lastNm": "ZHENG",
      "firstNm": "RICHARD",
      "midNm": "D",
      "sufNm": null
    }
  ],
  "CrntEmps": [
    {
      "CrntRgstns": [
        {
          "regAuth": 32,
          "regCat": 0,
          "st": 2,
          "stDt": "2013-05-24T00:00:00"
        }
      ],
      "BrnchOfLocs": [
        {
          "str1": "250 W 34TH ST 27TH FL",
          "str2": "ONE PENN PLAZA",
          "city": "NEW YORK",
          "state": 35,
          "stateSpecified": true,
          "cntry": "United States",
          "postlCd": "10119"
        }
      ],
      "orgNm": "WELLS FARGO ADVISORS, LLC",
      "orgPK": "19616",
      "str1": "ONE NORTH JEFFERSON AVENUE",
      "str2": "MAIL CODE: H0004-050",
      "city": "ST. LOUIS",
      "state": 25,
      "stateSpecified": true,
      "cntry": "United States",
      "postlCd": "63103-2205"
    }
  ],
  "Exms": [
    {
      "exmCd": 3,
      "exmNm": "Uniform Combined State Law Examination",
      "exmDt": "2013-05-23T00:00:00",
      "exmDtSpecified": true
    }
  ],
  "Dsgntns": [],
  "PrevRgstns": [],
  "EmpHss": [
    {
      "fromDt": "07/2006",
      "toDt": "12/2010",
      "orgNm": "CHIMERA SECURITIES LLC",
      "city": "NEW YORK",
      "state": 35,
      "stateSpecified": true
    },
    {
      "fromDt": "01/2011",
      "toDt": "12/2012",
      "orgNm": "UNEMPLOYED",
      "city": "JACKSON HEIGHTS",
      "state": 35,
      "stateSpecified": true
    },
    {
      "fromDt": "12/2012",
      "toDt": "01/2013",
      "orgNm": "CELEBRITEA CAFE",
      "city": "BROOKLYN",
      "state": 35,
      "stateSpecified": true
    },
    {
      "fromDt": "02/2013",
      "toDt": null,
      "orgNm": "WELLS FARGO ADVISORS, LLC",
      "city": "NEW YORK",
      "state": 35,
      "stateSpecified": true
    }
  ],
  "OthrBuss": {
    "OthrBus": null
  },
  "DRPs": []
}