{
  "Info": {
    "lastNm": "FROEBER",
    "firstNm": "TERRY",
    "midNm": "LEE",
    "sufNm": null,
    "indvlPK": "5588232",
    "actvAGReg": 0,
    "link": "http://www.adviserinfo.sec.gov/IAPD/Individual/5588232"
  },
  "OthrNms": [],
  "CrntEmps": [
    {
      "CrntRgstns": [
        {
          "regAuth": 23,
          "regCat": 0,
          "st": 2,
          "stDt": "2010-04-08T00:00:00"
        }
      ],
      "BrnchOfLocs": [
        {
          "str1": null,
          "str2": null,
          "city": "ROCHESTER HILLS",
          "state": 23,
          "stateSpecified": true,
          "cntry": "United States",
          "postlCd": null
        },
        {
          "str1": "100 MOTOR PARKWAY",
          "str2": "2ND FLOOR",
          "city": "HAUPPAUGE",
          "state": 35,
          "stateSpecified": true,
          "cntry": "United States",
          "postlCd": "11788"
        }
      ],
      "orgNm": "FIRST EMPIRE ASSET MANAGEMENT, INC",
      "orgPK": "134411",
      "str1": "100 MOTOR PARKWAY",
      "str2": "2ND FLOOR",
      "city": "HAUPPAUGE",
      "state": 35,
      "stateSpecified": true,
      "cntry": "United States",
      "postlCd": "11788"
    }
  ],
  "Exms": [
    {
      "exmCd": 3,
      "exmNm": "Uniform Combined State Law Examination",
      "exmDt": "2009-09-03T00:00:00",
      "exmDtSpecified": true
    }
  ],
  "Dsgntns": [],
  "PrevRgstns": [],
  "EmpHss": [
    {
      "fromDt": "12/2005",
      "toDt": "08/2008",
      "orgNm": "UNEMPLOYED",
      "city": "ROCHESTER HILLS",
      "state": 23,
      "stateSpecified": true
    },
    {
      "fromDt": "08/2008",
      "toDt": null,
      "orgNm": "FIRST EMPIRE SECURITIES, INC.",
      "city": "HAUPPAUGE",
      "state": 35,
      "stateSpecified": true
    }
  ],
  "OthrBuss": {
    "OthrBus": {
      "desc": "BALANCE SHEET MGMT. SERVICES, LPC SERVICES, FIRST EMPIRE CD MGMT,FIRST EMPIRE ASSET MANAGEMENT."
    }
  },
  "DRPs": []
}