{
  "Info": {
    "lastNm": "Bernstein",
    "firstNm": "Victor",
    "midNm": "Steven",
    "sufNm": null,
    "indvlPK": "5592605",
    "actvAGReg": 0,
    "link": "http://www.adviserinfo.sec.gov/IAPD/Individual/5592605"
  },
  "OthrNms": [
    {
      "lastNm": "BERNSTEIN",
      "firstNm": "VICTOR",
      "midNm": null,
      "sufNm": null
    }
  ],
  "CrntEmps": [
    {
      "CrntRgstns": [
        {
          "regAuth": 25,
          "regCat": 0,
          "st": 2,
          "stDt": "2008-12-02T00:00:00"
        }
      ],
      "BrnchOfLocs": [
        {
          "str1": "622 LOUDON RD SUITE 202",
          "str2": null,
          "city": "LATHAM",
          "state": 35,
          "stateSpecified": true,
          "cntry": "United States",
          "postlCd": "12110"
        }
      ],
      "orgNm": "EDWARD JONES",
      "orgPK": "250",
      "str1": "12555 MANCHESTER RD",
      "str2": null,
      "city": "ST. LOUIS",
      "state": 25,
      "stateSpecified": true,
      "cntry": "United States",
      "postlCd": "63131"
    }
  ],
  "Exms": [
    {
      "exmCd": 3,
      "exmNm": "Uniform Combined State Law Examination",
      "exmDt": "2008-11-13T00:00:00",
      "exmDtSpecified": true
    }
  ],
  "Dsgntns": [],
  "PrevRgstns": [],
  "EmpHss": [
    {
      "fromDt": "02/1986",
      "toDt": "04/2008",
      "orgNm": "CVS PHARMACY",
      "city": "WOONSOCKET",
      "state": 41,
      "stateSpecified": true
    },
    {
      "fromDt": "05/2008",
      "toDt": "09/2008",
      "orgNm": "NONE",
      "city": "DELMAR",
      "state": 35,
      "stateSpecified": true
    },
    {
      "fromDt": "09/2008",
      "toDt": null,
      "orgNm": "EDWARD JONES",
      "city": "ST LOUIS",
      "state": 25,
      "stateSpecified": true
    }
  ],
  "OthrBuss": {
    "OthrBus": null
  },
  "DRPs": [
    {
      "hasRegAction": 1,
      "hasRegActionSpecified": true,
      "hasCriminal": 1,
      "hasCriminalSpecified": true,
      "hasBankrupt": 1,
      "hasBankruptSpecified": true,
      "hasCivilJudc": 1,
      "hasCivilJudcSpecified": true,
      "hasBond": 1,
      "hasBondSpecified": true,
      "hasJudgment": 1,
      "hasJudgmentSpecified": true,
      "hasInvstgn": 1,
      "hasInvstgnSpecified": true,
      "hasCustComp": 0,
      "hasCustCompSpecified": true,
      "hasTermination": 1,
      "hasTerminationSpecified": true
    }
  ]
}