{
  "Info": {
    "lastNm": "THOMAS",
    "firstNm": "WILLIAM",
    "midNm": "BRENNAN",
    "sufNm": null,
    "indvlPK": "5595672",
    "actvAGReg": 0,
    "link": "http://www.adviserinfo.sec.gov/IAPD/Individual/5595672"
  },
  "OthrNms": [
    {
      "lastNm": "THOMAS",
      "firstNm": "WILLIAM",
      "midNm": null,
      "sufNm": null
    }
  ],
  "CrntEmps": [
    {
      "CrntRgstns": [
        {
          "regAuth": 20,
          "regCat": 0,
          "st": 2,
          "stDt": "2015-05-12T00:00:00"
        }
      ],
      "BrnchOfLocs": [
        {
          "str1": "130 TURNER STREET, BUILDING 3",
          "str2": "SUITE 230",
          "city": "WALTHAM",
          "state": 20,
          "stateSpecified": true,
          "cntry": "United States",
          "postlCd": "02453"
        },
        {
          "str1": "45 LYMAN STREET, SUITE 27",
          "str2": null,
          "city": "WESTBOROUGH",
          "state": 20,
          "stateSpecified": true,
          "cntry": "United States",
          "postlCd": "01581"
        }
      ],
      "orgNm": "BAY FINANCIAL ADVISORS, INC.",
      "orgPK": "130576",
      "str1": "130 TURNER STREET, BUILDING 3",
      "str2": "SUITE 230",
      "city": "WALTHAM",
      "state": 20,
      "stateSpecified": true,
      "cntry": "United States",
      "postlCd": "02453"
    },
    {
      "CrntRgstns": [
        {
          "regAuth": 20,
          "regCat": 0,
          "st": 2,
          "stDt": "2011-03-22T00:00:00"
        }
      ],
      "BrnchOfLocs": [
        {
          "str1": "45 LYMAN STREET, SUITE 27",
          "str2": "CHAUNCY PLACE",
          "city": "WESTBOROUGH",
          "state": 20,
          "stateSpecified": true,
          "cntry": "United States",
          "postlCd": "01581"
        }
      ],
      "orgNm": "LPL FINANCIAL LLC",
      "orgPK": "6413",
      "str1": "75 STATE STREET, 22ND FLOOR",
      "str2": null,
      "city": "BOSTON",
      "state": 20,
      "stateSpecified": true,
      "cntry": "United States",
      "postlCd": "02109"
    }
  ],
  "Exms": [
    {
      "exmCd": 3,
      "exmNm": "Uniform Combined State Law Examination",
      "exmDt": "2011-03-18T00:00:00",
      "exmDtSpecified": true
    }
  ],
  "Dsgntns": [
    {
      "dsgntnNm": "Certified Financial Planner"
    }
  ],
  "PrevRgstns": [],
  "EmpHss": [
    {
      "fromDt": "06/2003",
      "toDt": "09/2006",
      "orgNm": "WAYSIDE COMMUNITY POOL ASSOCIATION",
      "city": "WESTBOROUGH",
      "state": 20,
      "stateSpecified": true
    },
    {
      "fromDt": "12/2005",
      "toDt": "06/2008",
      "orgNm": "UNIVERSITY OF MASSACHUSETTS",
      "city": "AMHERST",
      "state": 20,
      "stateSpecified": true
    },
    {
      "fromDt": "05/2006",
      "toDt": "08/2006",
      "orgNm": "CULTURAL SURVIVAL",
      "city": "CAMBRIDGE",
      "state": 20,
      "stateSpecified": true
    },
    {
      "fromDt": "09/2008",
      "toDt": null,
      "orgNm": "LPL FINANCIAL LLC",
      "city": "WESTBOROUGH",
      "state": 20,
      "stateSpecified": true
    },
    {
      "fromDt": "04/2015",
      "toDt": null,
      "orgNm": "BAY FINANCIAL ADVISORS, INC",
      "city": "WESTBOROUGH",
      "state": 20,
      "stateSpecified": true
    }
  ],
  "OthrBuss": {
    "OthrBus": {
      "desc": "(1) 01/11/2011: THOMAS FINANCIAL ASSOCIATES - DBA FOR LPL BUSINESS (ENTITY FOR LPL BUSINESS) - INV REL - AT REPORTED BUSINESS LOCATION(S)       (2) 01/21/2011: JKT FINANCIAL - DBA FOR LPL BUSINESS (ENTITY FOR LPL BUSINESS) - INV REL - AT REPORTED BUSINESS LOCATION(S)        (3) 11/20/2013: NO BUSINESS NAME - NOT INV REL - AT REPORTED BUSINESS LOCATION(S) - NOTARY - 1% OF TIME SPENT - PROVIDE NOTARY SERVICES       (4) 05/04/2015: BAY FINANCIAL ADVISORS, INC. - INV REL - AT REPORTED BUSINESS LOCATION(S) - REGISTERED INVESTMENT ADVISOR - START 05/01/2015 - 5 HR/MO 1 DURING SECS TRDG HRS"
    }
  },
  "DRPs": []
}