{
  "Info": {
    "lastNm": "NAIMAN",
    "firstNm": "JOSEPH",
    "midNm": null,
    "sufNm": null,
    "indvlPK": "5596772",
    "actvAGReg": 0,
    "link": "http://www.adviserinfo.sec.gov/IAPD/Individual/5596772"
  },
  "OthrNms": [
    {
      "lastNm": "NAIMAN",
      "firstNm": "JOE",
      "midNm": null,
      "sufNm": null
    },
    {
      "lastNm": "NAIMAN",
      "firstNm": "JOSEPH",
      "midNm": "S",
      "sufNm": null
    }
  ],
  "CrntEmps": [
    {
      "CrntRgstns": [
        {
          "regAuth": 4,
          "regCat": 0,
          "st": 2,
          "stDt": "2012-04-27T00:00:00"
        },
        {
          "regAuth": 45,
          "regCat": 0,
          "st": 3,
          "stDt": "2012-05-01T00:00:00"
        }
      ],
      "BrnchOfLocs": [
        {
          "str1": "350 S GRAND AVE",
          "str2": null,
          "city": "LOS ANGELES",
          "state": 4,
          "stateSpecified": true,
          "cntry": "United States",
          "postlCd": "90071"
        }
      ],
      "orgNm": "MERRILL LYNCH, PIERCE, FENNER & SMITH INCORPORATED",
      "orgPK": "7691",
      "str1": "ONE BRYANT PARK",
      "str2": null,
      "city": "NEW YORK",
      "state": 35,
      "stateSpecified": true,
      "cntry": "United States",
      "postlCd": "10036"
    }
  ],
  "Exms": [
    {
      "exmCd": 3,
      "exmNm": "Uniform Combined State Law Examination",
      "exmDt": "2009-10-19T00:00:00",
      "exmDtSpecified": true
    }
  ],
  "Dsgntns": [],
  "PrevRgstns": [
    {
      "BrnchOfLocs": [
        {
          "city": "WOODLAND HILLS",
          "state": 4,
          "stateSpecified": true
        }
      ],
      "orgNm": "NEW ENGLAND SECURITIES",
      "orgPK": "615",
      "regBeginDt": "2009-11-18T00:00:00",
      "regBeginDtSpecified": true,
      "regEndDt": "2010-09-08T00:00:00",
      "regEndDtSpecified": true
    },
    {
      "BrnchOfLocs": [
        {
          "city": "WOODLAND HLS",
          "state": 4,
          "stateSpecified": true
        }
      ],
      "orgNm": "NORTHWESTERN MUTUAL INVESTMENT SERVICES, LLC",
      "orgPK": "2881",
      "regBeginDt": "2011-09-29T00:00:00",
      "regBeginDtSpecified": true,
      "regEndDt": "2012-04-10T00:00:00",
      "regEndDtSpecified": true
    }
  ],
  "EmpHss": [
    {
      "fromDt": "09/2005",
      "toDt": "06/2007",
      "orgNm": "UNIVERSITY OF CALIFORNIA LOS ANGELES",
      "city": "LOS ANGELES",
      "state": 4,
      "stateSpecified": true
    },
    {
      "fromDt": "09/2005",
      "toDt": "06/2008",
      "orgNm": "UNIVERSITY OF CALIFORNIA LOS ANGELES CBD",
      "city": "LOS ANGELES",
      "state": 4,
      "stateSpecified": true
    },
    {
      "fromDt": "10/2005",
      "toDt": "06/2008",
      "orgNm": "UNIVERSITY OF CALIFORNIA LOS ANGELES CBD",
      "city": "LOS ANGELES",
      "state": 4,
      "stateSpecified": true
    },
    {
      "fromDt": "08/2007",
      "toDt": "08/2009",
      "orgNm": "CHIMERA SECURITIES",
      "city": "SANTA MONICA",
      "state": 4,
      "stateSpecified": true
    },
    {
      "fromDt": "08/2007",
      "toDt": "08/2009",
      "orgNm": "CHIMERA SECURITIES",
      "city": "SANTA MONICA",
      "state": 4,
      "stateSpecified": true
    },
    {
      "fromDt": "01/2009",
      "toDt": "04/2009",
      "orgNm": "IN HOME SUPPORTIVE SERVICES",
      "city": "LOS ANGELES",
      "state": 4,
      "stateSpecified": true
    },
    {
      "fromDt": "04/2009",
      "toDt": "08/2011",
      "orgNm": "IN HOME SUPPORTIVE SERVICES",
      "city": "LOS ANGELES",
      "state": 4,
      "stateSpecified": true
    },
    {
      "fromDt": "08/2009",
      "toDt": "08/2010",
      "orgNm": "NEW ENGLAND SECURITIES",
      "city": "WOODLAND HILLS",
      "state": 4,
      "stateSpecified": true
    },
    {
      "fromDt": "08/2009",
      "toDt": "08/2010",
      "orgNm": "NEW ENGLAND SECURITIES",
      "city": "WOODLAND HILLS",
      "state": 4,
      "stateSpecified": true
    },
    {
      "fromDt": "08/2011",
      "toDt": "04/2012",
      "orgNm": "MITCHELL C BEER",
      "city": "WOODLAND HILLS",
      "state": 4,
      "stateSpecified": true
    },
    {
      "fromDt": "08/2011",
      "toDt": "10/2011",
      "orgNm": "MITCHELL C BEER",
      "city": "WOODLAND HLS",
      "state": 4,
      "stateSpecified": true
    },
    {
      "fromDt": "08/2011",
      "toDt": "04/2012",
      "orgNm": "NORTHWESTERN MUTUAL INVESTMENT SERVICES",
      "city": "WOODLAND HILLS",
      "state": 4,
      "stateSpecified": true
    },
    {
      "fromDt": "08/2011",
      "toDt": "10/2011",
      "orgNm": "NORTHWESTERN MUTUAL INVESTMENT SERVICES, LLC",
      "city": "WOODLAND HLS",
      "state": 4,
      "stateSpecified": true
    },
    {
      "fromDt": "10/2011",
      "toDt": "04/2012",
      "orgNm": "NORTHWESTERN MUTUAL INVESTMENT SERVICE, LLC",
      "city": "WOODLAND HILLS",
      "state": 4,
      "stateSpecified": true
    },
    {
      "fromDt": "10/2011",
      "toDt": "04/2012",
      "orgNm": "NORTHWESTERN MUTUAL WEALTH MANAGEMENT COMPANY",
      "city": "MILWAUKEE",
      "state": 50,
      "stateSpecified": true
    },
    {
      "fromDt": "04/2012",
      "toDt": null,
      "orgNm": "MERRILL LYNCH, PIERCE, FENNER & SMITH INCORPORATED",
      "city": "LOS ANGELES",
      "state": 4,
      "stateSpecified": true
    },
    {
      "fromDt": "09/2015",
      "toDt": null,
      "orgNm": "BANK OF AMERICA, N.A.",
      "city": "LOS ANGELES",
      "state": 4,
      "stateSpecified": true
    }
  ],
  "OthrBuss": {
    "OthrBus": null
  },
  "DRPs": []
}