{
  "Info": {
    "lastNm": "CICCI",
    "firstNm": "NICHOLAS",
    "midNm": "FREDERICK",
    "sufNm": null,
    "indvlPK": "5597483",
    "actvAGReg": 0,
    "link": "http://www.adviserinfo.sec.gov/IAPD/Individual/5597483"
  },
  "OthrNms": [
    {
      "lastNm": "CICCI",
      "firstNm": "NICHOLAS",
      "midNm": "F",
      "sufNm": null
    },
    {
      "lastNm": "CICCI",
      "firstNm": "NICHOLAS",
      "midNm": "F",
      "sufNm": null
    },
    {
      "lastNm": "CICCI",
      "firstNm": "NICHOLAS",
      "midNm": "F",
      "sufNm": "MR"
    }
  ],
  "CrntEmps": [
    {
      "CrntRgstns": [
        {
          "regAuth": 28,
          "regCat": 0,
          "st": 2,
          "stDt": "2010-11-02T00:00:00"
        }
      ],
      "BrnchOfLocs": [
        {
          "str1": "401 S TRYON ST 9TH & 2ND FLS",
          "str2": "[N1-RBO]",
          "city": "CHARLOTTE",
          "state": 28,
          "stateSpecified": true,
          "cntry": "United States",
          "postlCd": "28202"
        },
        {
          "str1": "4525 SHARON RD",
          "str2": null,
          "city": "CHARLOTTE",
          "state": 28,
          "stateSpecified": true,
          "cntry": "United States",
          "postlCd": "28211"
        }
      ],
      "orgNm": "WELLS FARGO ADVISORS, LLC",
      "orgPK": "19616",
      "str1": "ONE NORTH JEFFERSON AVENUE",
      "str2": "MAIL CODE: H0004-050",
      "city": "ST. LOUIS",
      "state": 25,
      "stateSpecified": true,
      "cntry": "United States",
      "postlCd": "63103-2205"
    }
  ],
  "Exms": [
    {
      "exmCd": 0,
      "exmNm": "Uniform Securities Agent State Law Examination",
      "exmDt": "2008-10-21T00:00:00",
      "exmDtSpecified": true
    },
    {
      "exmCd": 3,
      "exmNm": "Uniform Combined State Law Examination",
      "exmDt": "2010-03-31T00:00:00",
      "exmDtSpecified": true
    }
  ],
  "Dsgntns": [],
  "PrevRgstns": [
    {
      "BrnchOfLocs": [
        {
          "city": "PITTSBURGH",
          "state": 39,
          "stateSpecified": true
        }
      ],
      "orgNm": "FEDERATED SECURITIES CORP.",
      "orgPK": "5009",
      "regBeginDt": "2010-04-06T00:00:00",
      "regBeginDtSpecified": true,
      "regEndDt": "2010-11-05T00:00:00",
      "regEndDtSpecified": true
    },
    {
      "BrnchOfLocs": [
        {
          "city": "PITTSBURGH",
          "state": 39,
          "stateSpecified": true
        }
      ],
      "orgNm": "FEDERATED INVESTMENT COUNSELING",
      "orgPK": "105325",
      "regBeginDt": "2010-04-06T00:00:00",
      "regBeginDtSpecified": true,
      "regEndDt": "2010-11-05T00:00:00",
      "regEndDtSpecified": true
    }
  ],
  "EmpHss": [
    {
      "fromDt": "08/2004",
      "toDt": "05/2008",
      "orgNm": "DUQUESNE UNIVERSITY",
      "city": "PITTSBURGH",
      "state": 39,
      "stateSpecified": true
    },
    {
      "fromDt": "05/2008",
      "toDt": "08/2008",
      "orgNm": "BRUSCHETTA'S RESTAURANT",
      "city": "PITTSBURGH",
      "state": 39,
      "stateSpecified": true
    },
    {
      "fromDt": "09/2008",
      "toDt": "02/2010",
      "orgNm": "THE VANGUARD GROUP",
      "city": "CHARLOTTE",
      "state": 28,
      "stateSpecified": true
    },
    {
      "fromDt": "02/2010",
      "toDt": "10/2010",
      "orgNm": "FEDERATED INVESTORS, INC.",
      "city": "PITTSBURGH",
      "state": 39,
      "stateSpecified": true
    },
    {
      "fromDt": "02/2010",
      "toDt": "10/2010",
      "orgNm": "FEDERATED SECURITIES CORP.",
      "city": "PITTSBURGH",
      "state": 39,
      "stateSpecified": true
    },
    {
      "fromDt": "04/2010",
      "toDt": "10/2010",
      "orgNm": "FEDERATED INVESTMENT COUNSELING",
      "city": "PITTSBURGH",
      "state": 39,
      "stateSpecified": true
    },
    {
      "fromDt": "11/2010",
      "toDt": null,
      "orgNm": "WELLS FARGO ADVISORS LLC",
      "city": "CHARLOTTE",
      "state": 28,
      "stateSpecified": true
    }
  ],
  "OthrBuss": {
    "OthrBus": null
  },
  "DRPs": []
}