{
  "Info": {
    "lastNm": "WALKER",
    "firstNm": "BRETT",
    "midNm": "ELLIS",
    "sufNm": null,
    "indvlPK": "5597189",
    "actvAGReg": 0,
    "link": "http://www.adviserinfo.sec.gov/IAPD/Individual/5597189"
  },
  "OthrNms": [],
  "CrntEmps": [
    {
      "CrntRgstns": [
        {
          "regAuth": 26,
          "regCat": 0,
          "st": 2,
          "stDt": "2010-04-05T00:00:00"
        },
        {
          "regAuth": 19,
          "regCat": 0,
          "st": 2,
          "stDt": "2010-07-02T00:00:00"
        },
        {
          "regAuth": 45,
          "regCat": 0,
          "st": 2,
          "stDt": "2010-07-02T00:00:00"
        },
        {
          "regAuth": 9,
          "regCat": 0,
          "st": 2,
          "stDt": "2010-07-06T00:00:00"
        },
        {
          "regAuth": 4,
          "regCat": 0,
          "st": 2,
          "stDt": "2012-08-27T00:00:00"
        },
        {
          "regAuth": 1,
          "regCat": 0,
          "st": 2,
          "stDt": "2012-10-24T00:00:00"
        },
        {
          "regAuth": 50,
          "regCat": 0,
          "st": 2,
          "stDt": "2014-08-01T00:00:00"
        },
        {
          "regAuth": 34,
          "regCat": 0,
          "st": 2,
          "stDt": "2016-03-14T00:00:00"
        }
      ],
      "BrnchOfLocs": [
        {
          "str1": "2600 CITIPLACE DR., SUITE 100",
          "str2": null,
          "city": "BATON ROUGE",
          "state": 19,
          "stateSpecified": true,
          "cntry": "UNITED STATES",
          "postlCd": "70808"
        },
        {
          "str1": "888 HOWARD AVENUE",
          "str2": null,
          "city": "BILOXI",
          "state": 26,
          "stateSpecified": true,
          "cntry": "United States",
          "postlCd": "39530"
        }
      ],
      "orgNm": "HANCOCK INVESTMENT SERVICES, INC.",
      "orgPK": "40637",
      "str1": "2600 CITIPLACE DRIVE",
      "str2": "SUITE 100",
      "city": "BATON ROUGE",
      "state": 19,
      "stateSpecified": true,
      "cntry": "United States",
      "postlCd": "70808"
    }
  ],
  "Exms": [
    {
      "exmCd": 0,
      "exmNm": "Uniform Securities Agent State Law Examination",
      "exmDt": "2009-09-10T00:00:00",
      "exmDtSpecified": true
    },
    {
      "exmCd": 2,
      "exmNm": "Uniform Investment Adviser Law Examination",
      "exmDt": "2010-04-01T00:00:00",
      "exmDtSpecified": true
    }
  ],
  "Dsgntns": [],
  "PrevRgstns": [],
  "EmpHss": [
    {
      "fromDt": "01/2006",
      "toDt": "04/2008",
      "orgNm": "DELTA STATE UNIVERSITY",
      "city": "CLEVELAND",
      "state": 26,
      "stateSpecified": true
    },
    {
      "fromDt": "05/2008",
      "toDt": "07/2010",
      "orgNm": "HANCOCK INVESTMENT SERVICES, INC.",
      "city": "GULFPORT",
      "state": 26,
      "stateSpecified": true
    },
    {
      "fromDt": "07/2010",
      "toDt": null,
      "orgNm": "HANCOCK INVESTMENT SERVICES, INC.",
      "city": "BILOXI",
      "state": 26,
      "stateSpecified": true
    }
  ],
  "OthrBuss": {
    "OthrBus": null
  },
  "DRPs": []
}