{
  "Info": {
    "lastNm": "ODJO",
    "firstNm": "YASMINA",
    "midNm": null,
    "sufNm": null,
    "indvlPK": "5603167",
    "actvAGReg": 0,
    "link": "http://www.adviserinfo.sec.gov/IAPD/Individual/5603167"
  },
  "OthrNms": [],
  "CrntEmps": [
    {
      "CrntRgstns": [
        {
          "regAuth": 32,
          "regCat": 0,
          "st": 2,
          "stDt": "2008-12-24T00:00:00"
        }
      ],
      "BrnchOfLocs": [
        {
          "str1": "452 FIFTH AVENUE",
          "str2": "6TH FLOOR",
          "city": "NEW YORK",
          "state": 35,
          "stateSpecified": true,
          "cntry": "United States",
          "postlCd": "10018"
        }
      ],
      "orgNm": "HSBC SECURITIES (USA) INC.",
      "orgPK": "19585",
      "str1": "452 FIFTH AVENUE",
      "str2": null,
      "city": "NEW YORK",
      "state": 35,
      "stateSpecified": true,
      "cntry": "United States",
      "postlCd": "10018"
    }
  ],
  "Exms": [
    {
      "exmCd": 3,
      "exmNm": "Uniform Combined State Law Examination",
      "exmDt": "2008-12-23T00:00:00",
      "exmDtSpecified": true
    }
  ],
  "Dsgntns": [
    {
      "dsgntnNm": "Chartered Financial Analyst"
    }
  ],
  "PrevRgstns": [],
  "EmpHss": [
    {
      "fromDt": "08/2006",
      "toDt": "10/2006",
      "orgNm": "N/A",
      "city": "N/A",
      "stateSpecified": false
    },
    {
      "fromDt": "10/2006",
      "toDt": "08/2008",
      "orgNm": "HSBC",
      "city": "LONDON",
      "stateSpecified": false
    },
    {
      "fromDt": "08/2008",
      "toDt": null,
      "orgNm": "HSBC",
      "city": "NEW YORK",
      "state": 35,
      "stateSpecified": true
    }
  ],
  "OthrBuss": {
    "OthrBus": null
  },
  "DRPs": []
}