{
  "Info": {
    "lastNm": "LEBER",
    "firstNm": "ADAM",
    "midNm": "R",
    "sufNm": null,
    "indvlPK": "5603319",
    "actvAGReg": 0,
    "link": "http://www.adviserinfo.sec.gov/IAPD/Individual/5603319"
  },
  "OthrNms": [
    {
      "lastNm": "LEBER",
      "firstNm": "ADAM",
      "midNm": "R",
      "sufNm": null
    }
  ],
  "CrntEmps": [
    {
      "CrntRgstns": [
        {
          "regAuth": 15,
          "regCat": 0,
          "st": 2,
          "stDt": "2015-01-21T00:00:00"
        }
      ],
      "BrnchOfLocs": [
        {
          "str1": "111 W MONROE 21EAST",
          "str2": null,
          "city": "CHICAGO",
          "state": 15,
          "stateSpecified": true,
          "cntry": "United States",
          "postlCd": "60603"
        },
        {
          "str1": "111 W MONROE 6TH FL",
          "str2": null,
          "city": "CHICAGO",
          "state": 15,
          "stateSpecified": true,
          "cntry": "United States",
          "postlCd": "60603"
        }
      ],
      "orgNm": "BMO HARRIS FINANCIAL ADVISORS, INC.",
      "orgPK": "137115",
      "str1": "115 S LASALLE STREET",
      "str2": "13W",
      "city": "CHICAGO",
      "state": 15,
      "stateSpecified": true,
      "cntry": "United States",
      "postlCd": "60603"
    }
  ],
  "Exms": [
    {
      "exmCd": 3,
      "exmNm": "Uniform Combined State Law Examination",
      "exmDt": "2008-11-12T00:00:00",
      "exmDtSpecified": true
    }
  ],
  "Dsgntns": [],
  "PrevRgstns": [
    {
      "BrnchOfLocs": [
        {
          "city": "CHICAGO",
          "state": 15,
          "stateSpecified": true
        },
        {
          "city": "CHICAGO",
          "state": 15,
          "stateSpecified": true
        }
      ],
      "orgNm": "CHASE INVESTMENT SERVICES CORP.",
      "orgPK": "25574",
      "regBeginDt": "2009-07-23T00:00:00",
      "regBeginDtSpecified": true,
      "regEndDt": "2012-10-01T00:00:00",
      "regEndDtSpecified": true
    },
    {
      "BrnchOfLocs": [
        {
          "city": "CHICAGO",
          "state": 15,
          "stateSpecified": true
        },
        {
          "city": "CHICAGO",
          "state": 15,
          "stateSpecified": true
        }
      ],
      "orgNm": "J.P. MORGAN SECURITIES LLC",
      "orgPK": "79",
      "regBeginDt": "2012-10-01T00:00:00",
      "regBeginDtSpecified": true,
      "regEndDt": "2015-01-08T00:00:00",
      "regEndDtSpecified": true
    }
  ],
  "EmpHss": [
    {
      "fromDt": "04/2004",
      "toDt": "05/2008",
      "orgNm": "US BANK N.A.",
      "city": "ELGIN",
      "state": 15,
      "stateSpecified": true
    },
    {
      "fromDt": "06/2008",
      "toDt": "07/2009",
      "orgNm": "NEW ENGLAND SECURITIES",
      "city": "NORTHBROOK",
      "state": 15,
      "stateSpecified": true
    },
    {
      "fromDt": "07/2009",
      "toDt": "10/2012",
      "orgNm": "CHASE INVESTMENT SERVICES CORP",
      "city": "LINCOLNWOOD",
      "state": 15,
      "stateSpecified": true
    },
    {
      "fromDt": "07/2009",
      "toDt": "01/2015",
      "orgNm": "JPMORGAN CHASE BANK NA",
      "city": "CHICAGO",
      "state": 15,
      "stateSpecified": true
    },
    {
      "fromDt": "10/2012",
      "toDt": "01/2015",
      "orgNm": "J.P. MORGAN SECURITIES LLC",
      "city": "CHICAGO",
      "state": 15,
      "stateSpecified": true
    },
    {
      "fromDt": "02/2014",
      "toDt": null,
      "orgNm": "NIU ASSOCIATION OF PHI KAPPA PSI",
      "city": "DEKALB",
      "state": 15,
      "stateSpecified": true
    },
    {
      "fromDt": "01/2015",
      "toDt": null,
      "orgNm": "BMO HARRIS FINANCIAL ADVISORS",
      "city": "CHICAGO",
      "state": 15,
      "stateSpecified": true
    }
  ],
  "OthrBuss": {
    "OthrBus": {
      "desc": "NIU ASSOCIATION OF PHI KAPPA PSI DEKALB, IL 60015  PRESIDENT/DIRECTOR   ALUMNI HOUSING CORPORATION FOR THE PHILANTHROPIC FRATERNITY PHI KAPPA PSI'S NORTHERN ILLINOIS UNIVERSITY CHAPTER. RESPONSIBILITIES INCLUDE OVERSIGHT OF OTHER OFFICERS, NEGOTIATION AND FULFILLMENT OF CONTRACTS, AND GENERAL MAINTENANCE AND UPKEEP OF THE FRATERNITY HOUSE. THE POSITION IS HELD FOR AN INDEFINITE TERM (DETERMINED BY VOTING ALUMNI MEMBERS). THERE IS NO COMPENSATION FOR THE POSITION(S). THE TIME COMMITMENT IS 2-3 HOURS PER WEEK WITH NO TIME REQUIRED DURING TRADING HOURS."
    }
  },
  "DRPs": []
}