{
  "Info": {
    "lastNm": "SMITH",
    "firstNm": "LAQUITA",
    "midNm": "R",
    "sufNm": null,
    "indvlPK": "5608960",
    "actvAGReg": 0,
    "link": "http://www.adviserinfo.sec.gov/IAPD/Individual/5608960"
  },
  "OthrNms": [],
  "CrntEmps": [
    {
      "CrntRgstns": [
        {
          "regAuth": 1,
          "regCat": 0,
          "st": 2,
          "stDt": "2013-02-13T00:00:00"
        }
      ],
      "BrnchOfLocs": [
        {
          "str1": "2900 HIGHWAY 280",
          "str2": "SUITE 100",
          "city": "BIRMINGHAM",
          "state": 1,
          "stateSpecified": true,
          "cntry": "United States",
          "postlCd": "35223"
        }
      ],
      "orgNm": "RAYMOND JAMES & ASSOCIATES, INC.",
      "orgPK": "705",
      "str1": "880 CARILLON PARKWAY",
      "str2": null,
      "city": "ST PETERSBURG",
      "state": 9,
      "stateSpecified": true,
      "cntry": "United States",
      "postlCd": "33716"
    }
  ],
  "Exms": [
    {
      "exmCd": 3,
      "exmNm": "Uniform Combined State Law Examination",
      "exmDt": "2009-06-19T00:00:00",
      "exmDtSpecified": true
    }
  ],
  "Dsgntns": [],
  "PrevRgstns": [
    {
      "BrnchOfLocs": [
        {
          "city": "MONTGOMERY",
          "state": 1,
          "stateSpecified": true
        },
        {
          "city": "MOODY",
          "state": 1,
          "stateSpecified": true
        }
      ],
      "orgNm": "COLONIAL ASSET MANAGEMENT INC",
      "orgPK": "108950",
      "regBeginDt": "2009-06-24T00:00:00",
      "regBeginDtSpecified": true,
      "regEndDt": "2009-10-29T00:00:00",
      "regEndDtSpecified": true
    },
    {
      "BrnchOfLocs": [
        {
          "city": "BIRMINGHAM",
          "state": 1,
          "stateSpecified": true
        }
      ],
      "orgNm": "MORGAN KEEGAN & COMPANY, LLC",
      "orgPK": "4161",
      "regBeginDt": "2009-10-30T00:00:00",
      "regBeginDtSpecified": true,
      "regEndDt": "2013-02-13T00:00:00",
      "regEndDtSpecified": true
    }
  ],
  "EmpHss": [
    {
      "fromDt": "07/2003",
      "toDt": "02/2007",
      "orgNm": "COLONIAL BANK",
      "city": "BIRMINGHAM",
      "state": 1,
      "stateSpecified": true
    },
    {
      "fromDt": "02/2007",
      "toDt": "10/2009",
      "orgNm": "COLONIAL BROKERAGE INC.",
      "city": "MOODY",
      "state": 1,
      "stateSpecified": true
    },
    {
      "fromDt": "06/2009",
      "toDt": "10/2009",
      "orgNm": "COLONIAL ASSET MANAGEMENT",
      "city": "MONTGOMERY",
      "state": 1,
      "stateSpecified": true
    },
    {
      "fromDt": "10/2009",
      "toDt": "02/2013",
      "orgNm": "MORGAN KEEGAN & COMPANY INC",
      "city": "BIRMINGHAM",
      "state": 1,
      "stateSpecified": true
    },
    {
      "fromDt": "02/2013",
      "toDt": null,
      "orgNm": "RAYMOND JAMES & ASSOCIATES, INC.",
      "city": "BIRMINGHAM",
      "state": 1,
      "stateSpecified": true
    }
  ],
  "OthrBuss": {
    "OthrBus": null
  },
  "DRPs": []
}