{
  "Info": {
    "lastNm": "OWEN",
    "firstNm": "DANIEL",
    "midNm": "HILL",
    "sufNm": null,
    "indvlPK": "5609433",
    "actvAGReg": 0,
    "link": "http://www.adviserinfo.sec.gov/IAPD/Individual/5609433"
  },
  "OthrNms": [],
  "CrntEmps": [
    {
      "CrntRgstns": [
        {
          "regAuth": 28,
          "regCat": 0,
          "st": 2,
          "stDt": "2011-09-26T00:00:00"
        }
      ],
      "BrnchOfLocs": [
        {
          "str1": "1111 MILITARY CUTOFF RD",
          "str2": "STE 251",
          "city": "WILMINGTON",
          "state": 28,
          "stateSpecified": true,
          "cntry": "United States",
          "postlCd": "28405"
        }
      ],
      "orgNm": "NORTHWESTERN MUTUAL INVESTMENT SERVICES, LLC",
      "orgPK": "2881",
      "str1": "611 EAST WISCONSIN AVE",
      "str2": null,
      "city": "MILWAUKEE",
      "state": 50,
      "stateSpecified": true,
      "cntry": "United States",
      "postlCd": "53202-4797"
    }
  ],
  "Exms": [
    {
      "exmCd": 0,
      "exmNm": "Uniform Securities Agent State Law Examination",
      "exmDt": "2008-11-25T00:00:00",
      "exmDtSpecified": true
    },
    {
      "exmCd": 2,
      "exmNm": "Uniform Investment Adviser Law Examination",
      "exmDt": "2011-09-16T00:00:00",
      "exmDtSpecified": true
    }
  ],
  "Dsgntns": [],
  "PrevRgstns": [],
  "EmpHss": [
    {
      "fromDt": "07/2003",
      "toDt": "01/2007",
      "orgNm": "BLUE HORIZONS",
      "city": "WILMINGTON",
      "state": 28,
      "stateSpecified": true
    },
    {
      "fromDt": "02/2007",
      "toDt": "06/2007",
      "orgNm": "EAST COAST CONTRACTING",
      "city": "WILMINGTON",
      "state": 28,
      "stateSpecified": true
    },
    {
      "fromDt": "07/2007",
      "toDt": "11/2008",
      "orgNm": "AFLAC",
      "city": "WILMINGTON",
      "state": 28,
      "stateSpecified": true
    },
    {
      "fromDt": "07/2007",
      "toDt": null,
      "orgNm": "HEALTH COMMUNICATIONS INC. (HCI)",
      "city": "CARY",
      "state": 28,
      "stateSpecified": true
    },
    {
      "fromDt": "08/2007",
      "toDt": "04/2009",
      "orgNm": "NORTH CAROLINA ADMINISTRATIVE OFFICE OF THE COURTS (NC AOC)",
      "city": "RALEIGH",
      "state": 28,
      "stateSpecified": true
    },
    {
      "fromDt": "11/2008",
      "toDt": null,
      "orgNm": "NORTHWESTERN MUTUAL INVESTMENT SERVICES, LLC",
      "city": "WILMINGTON",
      "state": 28,
      "stateSpecified": true
    },
    {
      "fromDt": "11/2008",
      "toDt": null,
      "orgNm": "NORTHWESTERN MUTUAL LIFE INSURANCE COMPANY",
      "city": "MILWAUKEE",
      "state": 50,
      "stateSpecified": true
    },
    {
      "fromDt": "01/2012",
      "toDt": "03/2016",
      "orgNm": "NORTHWESTERN MUTUAL INVESTMENT SERVICES, LLC",
      "city": "WILMINGTON",
      "state": 28,
      "stateSpecified": true
    },
    {
      "fromDt": "01/2016",
      "toDt": null,
      "orgNm": "Northwestern Mutual Wealth Management Company",
      "city": "Milwaukee",
      "state": 50,
      "stateSpecified": true
    }
  ],
  "OthrBuss": {
    "OthrBus": {
      "desc": "MAY EARN COMMISSIONS FROM INSURANCE COMPANIES NOT AFFILIATED WITH NORTHWESTERN MUTUAL FOR SALES OF NON-VARIABLE LIFE, HEALTH, ANNUITY AND /OR DISABILITY INCOME INSURANCE PRODUCTS."
    }
  },
  "DRPs": []
}