{
  "Info": {
    "lastNm": "LAI",
    "firstNm": "HUNG",
    "midNm": "EN",
    "sufNm": null,
    "indvlPK": "5610027",
    "actvAGReg": 0,
    "link": "http://www.adviserinfo.sec.gov/IAPD/Individual/5610027"
  },
  "OthrNms": [
    {
      "lastNm": "LAI",
      "firstNm": "HUNG",
      "midNm": "E",
      "sufNm": null
    },
    {
      "lastNm": "LAI",
      "firstNm": "HUNG",
      "midNm": "M",
      "sufNm": null
    },
    {
      "lastNm": "LAI",
      "firstNm": "MICHAEL",
      "midNm": "M",
      "sufNm": null
    }
  ],
  "CrntEmps": [
    {
      "CrntRgstns": [
        {
          "regAuth": 45,
          "regCat": 0,
          "st": 2,
          "stDt": "2014-02-18T00:00:00"
        }
      ],
      "BrnchOfLocs": [
        {
          "str1": "9600 BELLAIRE BLVD",
          "str2": null,
          "city": "HOUSTON",
          "state": 45,
          "stateSpecified": true,
          "cntry": "United States",
          "postlCd": "77036"
        }
      ],
      "orgNm": "CETERA INVESTMENT ADVISERS LLC",
      "orgPK": "105644",
      "str1": "200 NORTH MARTINGALE ROAD",
      "str2": null,
      "city": "SCHAUMBURG",
      "state": 15,
      "stateSpecified": true,
      "cntry": "United States",
      "postlCd": "60173-2096"
    }
  ],
  "Exms": [
    {
      "exmCd": 0,
      "exmNm": "Uniform Securities Agent State Law Examination",
      "exmDt": "2008-11-26T00:00:00",
      "exmDtSpecified": true
    },
    {
      "exmCd": 2,
      "exmNm": "Uniform Investment Adviser Law Examination",
      "exmDt": "2011-04-01T00:00:00",
      "exmDtSpecified": true
    }
  ],
  "Dsgntns": [
    {
      "dsgntnNm": "Certified Financial Planner"
    }
  ],
  "PrevRgstns": [
    {
      "BrnchOfLocs": [
        {
          "city": "BELLAIRE",
          "state": 45,
          "stateSpecified": true
        },
        {
          "city": "HOUSTON",
          "state": 45,
          "stateSpecified": true
        },
        {
          "city": "HOUSTON",
          "state": 45,
          "stateSpecified": true
        },
        {
          "city": "HOUSTON",
          "state": 45,
          "stateSpecified": true
        },
        {
          "city": "HOUSTON",
          "state": 45,
          "stateSpecified": true
        },
        {
          "city": "HOUSTON",
          "state": 45,
          "stateSpecified": true
        },
        {
          "city": "HOUSTON",
          "state": 45,
          "stateSpecified": true
        },
        {
          "city": "HOUSTON",
          "state": 45,
          "stateSpecified": true
        }
      ],
      "orgNm": "CHASE INVESTMENT SERVICES CORP.",
      "orgPK": "25574",
      "regBeginDt": "2011-04-04T00:00:00",
      "regBeginDtSpecified": true,
      "regEndDt": "2012-10-01T00:00:00",
      "regEndDtSpecified": true
    },
    {
      "BrnchOfLocs": [
        {
          "city": "HOUSTON",
          "state": 45,
          "stateSpecified": true
        },
        {
          "city": "HOUSTON",
          "state": 45,
          "stateSpecified": true
        },
        {
          "city": "HOUSTON",
          "state": 45,
          "stateSpecified": true
        },
        {
          "city": "HOUSTON",
          "state": 45,
          "stateSpecified": true
        }
      ],
      "orgNm": "J.P. MORGAN SECURITIES LLC",
      "orgPK": "79",
      "regBeginDt": "2012-10-01T00:00:00",
      "regBeginDtSpecified": true,
      "regEndDt": "2012-12-03T00:00:00",
      "regEndDtSpecified": true
    },
    {
      "BrnchOfLocs": [
        {
          "city": "HOUSTON",
          "state": 45,
          "stateSpecified": true
        },
        {
          "city": "HOUSTON",
          "state": 45,
          "stateSpecified": true
        },
        {
          "city": "HOUSTON",
          "state": 45,
          "stateSpecified": true
        }
      ],
      "orgNm": "WELLS FARGO ADVISORS, LLC",
      "orgPK": "19616",
      "regBeginDt": "2012-11-30T00:00:00",
      "regBeginDtSpecified": true,
      "regEndDt": "2013-12-05T00:00:00",
      "regEndDtSpecified": true
    },
    {
      "BrnchOfLocs": [
        {
          "city": "KATY",
          "state": 45,
          "stateSpecified": true
        },
        {
          "city": "KATY",
          "state": 45,
          "stateSpecified": true
        }
      ],
      "orgNm": "J.P. MORGAN SECURITIES LLC",
      "orgPK": "79",
      "regBeginDt": "2013-12-04T00:00:00",
      "regBeginDtSpecified": true,
      "regEndDt": "2014-02-10T00:00:00",
      "regEndDtSpecified": true
    }
  ],
  "EmpHss": [
    {
      "fromDt": "09/2005",
      "toDt": "08/2008",
      "orgNm": "PRINCIPAL AMERICAN ENGLISH SCHOOL",
      "city": "JHONGLI",
      "stateSpecified": false
    },
    {
      "fromDt": "08/2008",
      "toDt": "10/2008",
      "orgNm": "UNEMPLOYED",
      "city": "AUSTIN",
      "state": 45,
      "stateSpecified": true
    },
    {
      "fromDt": "10/2008",
      "toDt": "10/2012",
      "orgNm": "CHASE INVESTMENT SERVICES CORP",
      "city": "HOUSTON",
      "state": 45,
      "stateSpecified": true
    },
    {
      "fromDt": "10/2008",
      "toDt": "10/2008",
      "orgNm": "JPMORGAN CHASE BANK NA",
      "city": "HOUSTON",
      "state": 45,
      "stateSpecified": true
    },
    {
      "fromDt": "10/2012",
      "toDt": "11/2012",
      "orgNm": "J.P. MORGAN SECURITIES LLC",
      "city": "HOUSTON",
      "state": 45,
      "stateSpecified": true
    },
    {
      "fromDt": "11/2012",
      "toDt": "12/2013",
      "orgNm": "WELLS FARGO ADVISORS, LLC",
      "city": "HOUSTON",
      "state": 45,
      "stateSpecified": true
    },
    {
      "fromDt": "12/2013",
      "toDt": "02/2014",
      "orgNm": "JPMORGAN SECURITIES LLC",
      "city": "HOUSTON",
      "state": 45,
      "stateSpecified": true
    },
    {
      "fromDt": "02/2014",
      "toDt": null,
      "orgNm": "CETERA INVESMENT ADVISER LLC",
      "city": "ST CLOUD",
      "state": 24,
      "stateSpecified": true
    },
    {
      "fromDt": "02/2014",
      "toDt": null,
      "orgNm": "CETERA INVESTMENT SERVICES LLC",
      "city": "ST CLOUD",
      "state": 24,
      "stateSpecified": true
    },
    {
      "fromDt": "02/2014",
      "toDt": null,
      "orgNm": "EAST WEST BANK",
      "city": "HOUSTON",
      "state": 45,
      "stateSpecified": true
    }
  ],
  "OthrBuss": {
    "OthrBus": null
  },
  "DRPs": []
}