{
  "Info": {
    "lastNm": "TUHACEK",
    "firstNm": "WILL",
    "midNm": "GEZA",
    "sufNm": null,
    "indvlPK": "5612359",
    "actvAGReg": 1,
    "link": "http://www.adviserinfo.sec.gov/IAPD/Individual/5612359"
  },
  "OthrNms": [],
  "CrntEmps": [
    {
      "CrntRgstns": [
        {
          "regAuth": 4,
          "regCat": 0,
          "st": 2,
          "stDt": "2014-08-28T00:00:00"
        },
        {
          "regAuth": 49,
          "regCat": 0,
          "st": 2,
          "stDt": "2014-08-28T00:00:00"
        },
        {
          "regAuth": 19,
          "regCat": 0,
          "st": 2,
          "stDt": "2014-12-11T00:00:00"
        },
        {
          "regAuth": 45,
          "regCat": 0,
          "st": 2,
          "stDt": "2014-12-11T00:00:00"
        }
      ],
      "BrnchOfLocs": [
        {
          "str1": "116 NEW MONTGOMERY STREET",
          "str2": "SUITE 300",
          "city": "SAN FRANCISCO",
          "state": 4,
          "stateSpecified": true,
          "cntry": "United States",
          "postlCd": "94105"
        }
      ],
      "orgNm": "FUTUREADVISOR",
      "orgPK": "154604",
      "str1": "116 NEW MONTGOMERY STREET",
      "str2": "SUITE 300",
      "city": "SAN FRANCISCO",
      "state": 4,
      "stateSpecified": true,
      "cntry": "United States",
      "postlCd": "94105"
    }
  ],
  "Exms": [
    {
      "exmCd": 2,
      "exmNm": "Uniform Investment Adviser Law Examination",
      "exmDt": "2014-08-05T00:00:00",
      "exmDtSpecified": true
    }
  ],
  "Dsgntns": [],
  "PrevRgstns": [
    {
      "BrnchOfLocs": [
        {
          "city": "CAMAS",
          "state": 49,
          "stateSpecified": true
        },
        {
          "city": "SAN MATEO",
          "state": 4,
          "stateSpecified": true
        }
      ],
      "orgNm": "FISHER INVESTMENTS",
      "orgPK": "107342",
      "regBeginDt": "2008-12-02T00:00:00",
      "regBeginDtSpecified": true,
      "regEndDt": "2010-01-04T00:00:00",
      "regEndDtSpecified": true
    }
  ],
  "EmpHss": [
    {
      "fromDt": "08/2001",
      "toDt": "12/2006",
      "orgNm": "UNIVERSITY OF SOUTHERN CALIFORNIA",
      "city": "LOS ANGELES",
      "state": 4,
      "stateSpecified": true
    },
    {
      "fromDt": "02/2007",
      "toDt": "09/2008",
      "orgNm": "FISHER INVESTMENTS",
      "city": "WOODSIDE",
      "state": 4,
      "stateSpecified": true
    },
    {
      "fromDt": "09/2008",
      "toDt": "01/2010",
      "orgNm": "FISHER INVESTMENTS",
      "city": "WOODSIDE",
      "state": 4,
      "stateSpecified": true
    },
    {
      "fromDt": "01/2010",
      "toDt": "04/2014",
      "orgNm": "US MARINE CORPS",
      "city": "CAMP PENDLETON",
      "state": 4,
      "stateSpecified": true
    },
    {
      "fromDt": "06/2014",
      "toDt": null,
      "orgNm": "FUTUREADVISOR",
      "city": "SAN FRANCISCO",
      "state": 4,
      "stateSpecified": true
    }
  ],
  "OthrBuss": {
    "OthrBus": null
  },
  "DRPs": []
}