{
  "Info": {
    "lastNm": "ROYBALL",
    "firstNm": "MISHAELA",
    "midNm": "ANNE",
    "sufNm": null,
    "indvlPK": "5613934",
    "actvAGReg": 0,
    "link": "http://www.adviserinfo.sec.gov/IAPD/Individual/5613934"
  },
  "OthrNms": [
    {
      "lastNm": "VAN VALKENBURGH",
      "firstNm": "MISHAELA",
      "midNm": null,
      "sufNm": null
    },
    {
      "lastNm": "VAN VALKENBURGH",
      "firstNm": "MISHAELA",
      "midNm": "ANNE",
      "sufNm": null
    }
  ],
  "CrntEmps": [
    {
      "CrntRgstns": [
        {
          "regAuth": 4,
          "regCat": 0,
          "st": 2,
          "stDt": "2014-01-02T00:00:00"
        }
      ],
      "BrnchOfLocs": [
        {
          "str1": "2180 HARVARD ST",
          "str2": "STE 410",
          "city": "SACRAMENTO",
          "state": 4,
          "stateSpecified": true,
          "cntry": "United States",
          "postlCd": "95815-3317"
        }
      ],
      "orgNm": "CAMBRIDGE INVESTMENT RESEARCH ADVISORS, INC.",
      "orgPK": "134139",
      "str1": "1776 PLEASANT PLAIN RD.",
      "str2": null,
      "city": "FAIRFIELD",
      "state": 13,
      "stateSpecified": true,
      "cntry": "United States",
      "postlCd": "52556-8757"
    }
  ],
  "Exms": [
    {
      "exmCd": 3,
      "exmNm": "Uniform Combined State Law Examination",
      "exmDt": "2013-11-12T00:00:00",
      "exmDtSpecified": true
    }
  ],
  "Dsgntns": [],
  "PrevRgstns": [],
  "EmpHss": [
    {
      "fromDt": "06/2004",
      "toDt": "12/2008",
      "orgNm": "CALIFORNIA STATE UNIVERSITY OF ACRAMENTO",
      "city": "SACRAMENTO",
      "state": 4,
      "stateSpecified": true
    },
    {
      "fromDt": "02/2005",
      "toDt": "05/2007",
      "orgNm": "ALBERTSONS GROCERIES",
      "city": "SACRAMENTO",
      "state": 4,
      "stateSpecified": true
    },
    {
      "fromDt": "05/2007",
      "toDt": "10/2007",
      "orgNm": "ADVANCE KIDS",
      "city": "SACRAMENTO",
      "state": 4,
      "stateSpecified": true
    },
    {
      "fromDt": "09/2008",
      "toDt": "10/2008",
      "orgNm": "ADVANCE KIDS",
      "city": "SACRAMENTO",
      "state": 4,
      "stateSpecified": true
    },
    {
      "fromDt": "10/2008",
      "toDt": null,
      "orgNm": "NORTH STAR FINANCIAL",
      "city": "SACRAMENTO",
      "state": 4,
      "stateSpecified": true
    },
    {
      "fromDt": "03/2011",
      "toDt": null,
      "orgNm": "CAMBRIDGE INVESTMENT RESEARCH, INC.",
      "city": "FAIRFIELD",
      "state": 13,
      "stateSpecified": true
    },
    {
      "fromDt": "01/2014",
      "toDt": null,
      "orgNm": "CAMBRIDGE INVESTMENT RESEARCH ADVISORS, INC.",
      "city": "FAIRFIELD",
      "state": 13,
      "stateSpecified": true
    }
  ],
  "OthrBuss": {
    "OthrBus": {
      "desc": "1)INDEPENDENT INSURANCE AGENT FOR VARIOUS INDEPENDENT INSURANCE COMPANIES. 2)MISHAELA ROYBALL. SACRAMENTO, CA. BEGAN 1/2015. TAX PREPARATION FOR STATE AND FEDERAL PERSONAL RETURNS. SPENDS 20 HR/WK, NONE DURING TRADING."
    }
  },
  "DRPs": []
}