{
  "Info": {
    "lastNm": "EDWARDS",
    "firstNm": "WILLIAM",
    "midNm": "B",
    "sufNm": null,
    "indvlPK": "5616144",
    "actvAGReg": 0,
    "link": "http://www.adviserinfo.sec.gov/IAPD/Individual/5616144"
  },
  "OthrNms": [
    {
      "lastNm": "EDWARDS",
      "firstNm": "BILL",
      "midNm": null,
      "sufNm": null
    }
  ],
  "CrntEmps": [
    {
      "CrntRgstns": [
        {
          "regAuth": 44,
          "regCat": 0,
          "st": 2,
          "stDt": "2015-01-02T00:00:00"
        }
      ],
      "BrnchOfLocs": [
        {
          "str1": "795 Ridge Lake Boulevard",
          "str2": "Suite 200",
          "city": "Memphis",
          "state": 44,
          "stateSpecified": true,
          "cntry": "United States",
          "postlCd": "38120"
        }
      ],
      "orgNm": "MSI FINANCIAL SERVICES, INC.",
      "orgPK": "14251",
      "str1": "1095 AVENUE OF THE AMERICAS",
      "str2": null,
      "city": "NEW YORK",
      "state": 35,
      "stateSpecified": true,
      "cntry": "United States",
      "postlCd": "10036"
    }
  ],
  "Exms": [
    {
      "exmCd": 0,
      "exmNm": "Uniform Securities Agent State Law Examination",
      "exmDt": "2009-02-02T00:00:00",
      "exmDtSpecified": true
    },
    {
      "exmCd": 2,
      "exmNm": "Uniform Investment Adviser Law Examination",
      "exmDt": "2012-11-16T00:00:00",
      "exmDtSpecified": true
    }
  ],
  "Dsgntns": [],
  "PrevRgstns": [
    {
      "BrnchOfLocs": [
        {
          "city": "MEMPHIS",
          "state": 44,
          "stateSpecified": true
        }
      ],
      "orgNm": "NEW ENGLAND SECURITIES",
      "orgPK": "615",
      "regBeginDt": "2012-11-29T00:00:00",
      "regBeginDtSpecified": true,
      "regEndDt": "2015-01-02T00:00:00",
      "regEndDtSpecified": true
    }
  ],
  "EmpHss": [
    {
      "fromDt": "06/2000",
      "toDt": "02/2008",
      "orgNm": "GOLF, INC.",
      "city": "OLIVER BRANCH",
      "state": 26,
      "stateSpecified": true
    },
    {
      "fromDt": "06/2004",
      "toDt": "10/2008",
      "orgNm": "LOS ANGELES ANGELS",
      "city": "ANAHEIM",
      "state": 4,
      "stateSpecified": true
    },
    {
      "fromDt": "11/2008",
      "toDt": null,
      "orgNm": "NEW ENGLAND SECURITIES",
      "city": "MEMPHIS",
      "state": 44,
      "stateSpecified": true
    },
    {
      "fromDt": "01/2015",
      "toDt": null,
      "orgNm": "METLIFE SECURITIES INC.",
      "city": "MEMPHIS",
      "state": 44,
      "stateSpecified": true
    }
  ],
  "OthrBuss": {
    "OthrBus": {
      "desc": "1)INDEPENDENT INSURANCE AGENT SELLING DENTAL & GROUP DISABILITY INCOME, FIXED ANNUITIES ,DISABILITY,LIFE/ACCIDENT/HEALTH, LTC, MEDICARE RELATED PRODUCTS AT BUSINESS ADDRESS FOR 1HR/WK DURING SECURITIES TRADING & 0HRS/WKND & EVENINGS SINCE 3/2009 Individual and group for all Life Settlements with Ashar Group LLC      2)PITCHING COACH FOR EVANGELICAL CHRISTIAN SCHOOLS BASEBALL TEAM CORDOVA, TN  1 WEEKDAY AND 6 EVENING/WEEKEND HOURS SINCE 6/2010"
    }
  },
  "DRPs": []
}