{
  "Info": {
    "lastNm": "STAPLETON",
    "firstNm": "JOSEPH",
    "midNm": "MUIR",
    "sufNm": null,
    "indvlPK": "5617995",
    "actvAGReg": 1,
    "link": "http://www.adviserinfo.sec.gov/IAPD/Individual/5617995"
  },
  "OthrNms": [],
  "CrntEmps": [
    {
      "CrntRgstns": [
        {
          "regAuth": 4,
          "regCat": 0,
          "st": 2,
          "stDt": "2010-12-08T00:00:00"
        }
      ],
      "BrnchOfLocs": [
        {
          "str1": "19900 MACARTHUR BLVD",
          "str2": "SUITE 920",
          "city": "IRVINE",
          "state": 4,
          "stateSpecified": true,
          "cntry": "United States",
          "postlCd": "92612"
        }
      ],
      "orgNm": "SIGNATURE RESOURCES CAPITAL MANAGEMENT, LLC",
      "orgPK": "144069",
      "str1": "19900 MACARTHUR BLVD",
      "str2": "SUITE 920",
      "city": "IRVINE",
      "state": 4,
      "stateSpecified": true,
      "cntry": "United States",
      "postlCd": "92612"
    },
    {
      "CrntRgstns": [
        {
          "regAuth": 4,
          "regCat": 0,
          "st": 2,
          "stDt": "2016-05-06T00:00:00"
        }
      ],
      "BrnchOfLocs": [
        {
          "str1": "4041 MACARTHUR BLVD",
          "str2": "SUITE 475",
          "city": "NEWPORT BEACH",
          "state": 4,
          "stateSpecified": true,
          "cntry": "United States",
          "postlCd": "92660"
        }
      ],
      "orgNm": "SPINNAKER INVESTMENT GROUP, LLC",
      "orgPK": "283414",
      "str1": "4041 MACARTHUR BLVD",
      "str2": "SUITE 475",
      "city": "NEWPORT BEACH",
      "state": 4,
      "stateSpecified": true,
      "cntry": "United States",
      "postlCd": "92660"
    }
  ],
  "Exms": [
    {
      "exmCd": 3,
      "exmNm": "Uniform Combined State Law Examination",
      "exmDt": "2008-12-23T00:00:00",
      "exmDtSpecified": true
    }
  ],
  "Dsgntns": [],
  "PrevRgstns": [
    {
      "BrnchOfLocs": [
        {
          "city": "IRVINE",
          "state": 4,
          "stateSpecified": true
        }
      ],
      "orgNm": "SIGNATOR INVESTORS, INC.",
      "orgPK": "468",
      "regBeginDt": "2008-12-24T00:00:00",
      "regBeginDtSpecified": true,
      "regEndDt": "2010-11-24T00:00:00",
      "regEndDtSpecified": true
    }
  ],
  "EmpHss": [
    {
      "fromDt": "01/2005",
      "toDt": "12/2007",
      "orgNm": "CHRISCO ENTERPRISES INC",
      "city": "TUCSON",
      "state": 3,
      "stateSpecified": true
    },
    {
      "fromDt": "07/2006",
      "toDt": "12/2007",
      "orgNm": "BALBOA CAPITAL",
      "city": "IRVINE",
      "state": 4,
      "stateSpecified": true
    },
    {
      "fromDt": "01/2008",
      "toDt": "09/2008",
      "orgNm": "KIMERA RESTAURANT",
      "city": "IRVINE",
      "state": 4,
      "stateSpecified": true
    },
    {
      "fromDt": "03/2008",
      "toDt": "05/2016",
      "orgNm": "SIGNATURE RESOURCES, I&FS, INC.",
      "city": "IRVINE",
      "state": 4,
      "stateSpecified": true
    },
    {
      "fromDt": "11/2008",
      "toDt": "11/2014",
      "orgNm": "SIGNATOR INVESTORS, INC.",
      "city": "IRVINE",
      "state": 4,
      "stateSpecified": true
    },
    {
      "fromDt": "11/2010",
      "toDt": "05/2016",
      "orgNm": "SIGNATURE RESOURCES CAPITAL MANAGEMENT",
      "city": "IRVINE",
      "state": 4,
      "stateSpecified": true
    },
    {
      "fromDt": "10/2014",
      "toDt": "05/2016",
      "orgNm": "MASSMUTUAL LIFE INSURANCE COMPANY",
      "city": "IRVINE",
      "state": 4,
      "stateSpecified": true
    },
    {
      "fromDt": "10/2014",
      "toDt": "05/2016",
      "orgNm": "MML INVESTORS SERVICES LLC",
      "city": "IRVINE",
      "state": 4,
      "stateSpecified": true
    },
    {
      "fromDt": "05/2016",
      "toDt": null,
      "orgNm": "SPINNAKER INVESTMENT GROUP, LLC",
      "city": "NEWPORT BEACH",
      "state": 4,
      "stateSpecified": true
    }
  ],
  "OthrBuss": {
    "OthrBus": null
  },
  "DRPs": []
}