{
  "Info": {
    "lastNm": "BROWN",
    "firstNm": "SCOTT",
    "midNm": "RANDOLPH",
    "sufNm": null,
    "indvlPK": "5631979",
    "actvAGReg": 0,
    "link": "http://www.adviserinfo.sec.gov/IAPD/Individual/5631979"
  },
  "OthrNms": [],
  "CrntEmps": [
    {
      "CrntRgstns": [
        {
          "regAuth": 9,
          "regCat": 0,
          "st": 2,
          "stDt": "2009-10-21T00:00:00"
        }
      ],
      "BrnchOfLocs": [
        {
          "str1": "4890 W KENNEDY BLVD STE 320",
          "str2": null,
          "city": "TAMPA",
          "state": 9,
          "stateSpecified": true,
          "cntry": "United States",
          "postlCd": "33609-1869"
        }
      ],
      "orgNm": "LPL FINANCIAL LLC",
      "orgPK": "6413",
      "str1": "75 STATE STREET, 22ND FLOOR",
      "str2": null,
      "city": "BOSTON",
      "state": 20,
      "stateSpecified": true,
      "cntry": "United States",
      "postlCd": "02109"
    }
  ],
  "Exms": [
    {
      "exmCd": 3,
      "exmNm": "Uniform Combined State Law Examination",
      "exmDt": "2009-10-14T00:00:00",
      "exmDtSpecified": true
    }
  ],
  "Dsgntns": [],
  "PrevRgstns": [],
  "EmpHss": [
    {
      "fromDt": "04/2000",
      "toDt": "10/2008",
      "orgNm": "L.V. THOMPSON, INC.",
      "city": "TAMPA",
      "state": 9,
      "stateSpecified": true
    },
    {
      "fromDt": "01/2009",
      "toDt": "07/2009",
      "orgNm": "LPL FINANCIAL",
      "city": "TAMPA",
      "state": 9,
      "stateSpecified": true
    },
    {
      "fromDt": "07/2009",
      "toDt": null,
      "orgNm": "LPL FINANCIAL, LLC",
      "city": "TAMPA",
      "state": 9,
      "stateSpecified": true
    }
  ],
  "OthrBuss": {
    "OthrBus": {
      "desc": "1. 6/2/2010: NO BUSINESS NAME - ACT IN A FIDUCIARY CAPACITY - INV REL - AT REPORTED BUSINESS LOCATION - MRS. DORIS HODGES, MY MOTHER.  I AM A CO-TRUSTEE WITH MY BROTHER FOR MY MOTHER'S TRUST.    2. 12/16/2010: NO BUSINESS NAME - OTHER - INV REL - AT REPORTED BUSINESS LOCATION - I am set up with United Healthcare Insurance Pilot for the Referral Model-Individual Commercial products. - Other-Health insurance referrals - 5% TIME SPENT."
    }
  },
  "DRPs": []
}