{
  "Info": {
    "lastNm": "Lowry",
    "firstNm": "Scott",
    "midNm": "Christopher",
    "sufNm": null,
    "indvlPK": "5635951",
    "actvAGReg": 0,
    "link": "http://www.adviserinfo.sec.gov/IAPD/Individual/5635951"
  },
  "OthrNms": [
    {
      "lastNm": "LOWRY",
      "firstNm": "SCOTT",
      "midNm": "C",
      "sufNm": null
    }
  ],
  "CrntEmps": [
    {
      "CrntRgstns": [
        {
          "regAuth": 19,
          "regCat": 0,
          "st": 2,
          "stDt": "2009-04-01T00:00:00"
        }
      ],
      "BrnchOfLocs": [
        {
          "str1": "922 NORTH AVENUE G",
          "str2": null,
          "city": "CROWLEY",
          "state": 19,
          "stateSpecified": true,
          "cntry": "United States",
          "postlCd": "70526"
        }
      ],
      "orgNm": "EDWARD JONES",
      "orgPK": "250",
      "str1": "12555 MANCHESTER RD",
      "str2": null,
      "city": "ST. LOUIS",
      "state": 25,
      "stateSpecified": true,
      "cntry": "United States",
      "postlCd": "63131"
    }
  ],
  "Exms": [
    {
      "exmCd": 3,
      "exmNm": "Uniform Combined State Law Examination",
      "exmDt": "2009-03-27T00:00:00",
      "exmDtSpecified": true
    }
  ],
  "Dsgntns": [],
  "PrevRgstns": [],
  "EmpHss": [
    {
      "fromDt": "11/2001",
      "toDt": "01/2009",
      "orgNm": "HOLLISTER CO.",
      "city": "LAFAYETTW",
      "state": 19,
      "stateSpecified": true
    },
    {
      "fromDt": "09/2006",
      "toDt": "11/2006",
      "orgNm": "GRADCITY.COM",
      "city": "LAFAYETTE",
      "state": 19,
      "stateSpecified": true
    },
    {
      "fromDt": "01/2009",
      "toDt": null,
      "orgNm": "EDWARD JONES",
      "city": "ST LOUIS",
      "state": 25,
      "stateSpecified": true
    }
  ],
  "OthrBuss": {
    "OthrBus": null
  },
  "DRPs": []
}