{
  "Info": {
    "lastNm": "MCGUIRE",
    "firstNm": "SEAN",
    "midNm": "MICHAEL",
    "sufNm": null,
    "indvlPK": "5636671",
    "actvAGReg": 0,
    "link": "http://www.adviserinfo.sec.gov/IAPD/Individual/5636671"
  },
  "OthrNms": [
    {
      "lastNm": "MCGUIRE",
      "firstNm": "SEAN",
      "midNm": null,
      "sufNm": null
    }
  ],
  "CrntEmps": [
    {
      "CrntRgstns": [
        {
          "regAuth": 41,
          "regCat": 0,
          "st": 2,
          "stDt": "2009-10-02T00:00:00"
        }
      ],
      "BrnchOfLocs": [
        {
          "str1": "4435 OLD POST RD",
          "str2": null,
          "city": "CHARLESTOWN",
          "state": 41,
          "stateSpecified": true,
          "cntry": "United States",
          "postlCd": "02813"
        }
      ],
      "orgNm": "WELLS FARGO ADVISORS FINANCIAL NETWORK, LLC",
      "orgPK": "11025",
      "str1": "ONE NORTH JEFFERSON AVENUE",
      "str2": "MAIL CODE: H0004-050",
      "city": "ST. LOUIS",
      "state": 25,
      "stateSpecified": true,
      "cntry": "United States",
      "postlCd": "63103"
    }
  ],
  "Exms": [
    {
      "exmCd": 3,
      "exmNm": "Uniform Combined State Law Examination",
      "exmDt": "2009-04-03T00:00:00",
      "exmDtSpecified": true
    }
  ],
  "Dsgntns": [],
  "PrevRgstns": [
    {
      "BrnchOfLocs": [
        {
          "city": "CHARLESTOWN",
          "state": 41,
          "stateSpecified": true
        }
      ],
      "orgNm": "WELLS FARGO ADVISORS, LLC",
      "orgPK": "19616",
      "regBeginDt": "2009-04-06T00:00:00",
      "regBeginDtSpecified": true,
      "regEndDt": "2009-10-05T00:00:00",
      "regEndDtSpecified": true
    }
  ],
  "EmpHss": [
    {
      "fromDt": "09/2004",
      "toDt": "05/2008",
      "orgNm": "COLLEGE",
      "city": "KINGSTON",
      "state": 41,
      "stateSpecified": true
    },
    {
      "fromDt": "06/2008",
      "toDt": "12/2008",
      "orgNm": "UNEMPLOYED",
      "city": "CHARLESTOWN",
      "state": 41,
      "stateSpecified": true
    },
    {
      "fromDt": "01/2009",
      "toDt": "10/2009",
      "orgNm": "WACHOVIA SECURITIES, LLC",
      "city": "CHARLESTOWN",
      "state": 41,
      "stateSpecified": true
    },
    {
      "fromDt": "10/2009",
      "toDt": null,
      "orgNm": "WELLS FARGO ADVISORS FINANCIAL NETWORK LLC",
      "city": "CHARLESTOWN",
      "state": 41,
      "stateSpecified": true
    }
  ],
  "OthrBuss": {
    "OthrBus": null
  },
  "DRPs": []
}