{
  "Info": {
    "lastNm": "HARKLAU",
    "firstNm": "NICHOLAS",
    "midNm": "LYNN",
    "sufNm": null,
    "indvlPK": "5637624",
    "actvAGReg": 0,
    "link": "http://www.adviserinfo.sec.gov/IAPD/Individual/5637624"
  },
  "OthrNms": [
    {
      "lastNm": "HARKLAU",
      "firstNm": "NICHOLAS",
      "midNm": "L",
      "sufNm": null
    },
    {
      "lastNm": "HARKLAU",
      "firstNm": "NICK",
      "midNm": "LYNN",
      "sufNm": null
    }
  ],
  "CrntEmps": [
    {
      "CrntRgstns": [
        {
          "regAuth": 13,
          "regCat": 0,
          "st": 2,
          "stDt": "2015-12-23T00:00:00"
        }
      ],
      "BrnchOfLocs": [
        {
          "str1": "5400 University Ave",
          "str2": null,
          "city": "West Des Moines",
          "state": 13,
          "stateSpecified": true,
          "cntry": "United States",
          "postlCd": "50266"
        }
      ],
      "orgNm": "FBL INVESTMENT MANAGEMENT SERVICES, INC.",
      "orgPK": "5308",
      "str1": "5400 UNIVERSITY AVE",
      "str2": null,
      "city": "WEST DES MOINES",
      "state": 13,
      "stateSpecified": true,
      "cntry": "United States",
      "postlCd": "50266-5997"
    }
  ],
  "Exms": [
    {
      "exmCd": 0,
      "exmNm": "Uniform Securities Agent State Law Examination",
      "exmDt": "2009-02-23T00:00:00",
      "exmDtSpecified": true
    }
  ],
  "Dsgntns": [
    {
      "dsgntnNm": "Certified Financial Planner"
    }
  ],
  "PrevRgstns": [],
  "EmpHss": [
    {
      "fromDt": "07/2005",
      "toDt": "12/2008",
      "orgNm": "IOWA STATE UNIVERSITY",
      "city": "AMES",
      "state": 13,
      "stateSpecified": true
    },
    {
      "fromDt": "01/2009",
      "toDt": "08/2015",
      "orgNm": "COUNTRY FINANCIAL",
      "city": "W DES MOINES",
      "state": 13,
      "stateSpecified": true
    },
    {
      "fromDt": "09/2015",
      "toDt": null,
      "orgNm": "FBL Marketing Services",
      "city": "West Des Moines",
      "state": 13,
      "stateSpecified": true
    },
    {
      "fromDt": "09/2015",
      "toDt": null,
      "orgNm": "Farm Bureau Financial Services",
      "city": "West Des Moines",
      "state": 13,
      "stateSpecified": true
    }
  ],
  "OthrBuss": {
    "OthrBus": {
      "desc": "1) HHS LLC, not investment related.  610 9th St N, Humboldt, IA  50548.  Rental property, 2400 Cram Ave SE, Bemidji, MN  56601. 1/6 owner of llc.  starting 11/14/14.  5-10 hrs/mo, 0 hours during securities trading hours.  Maintenance, reviewing lease, tenant. 2) Rental property, not investment related.  6829-6831 Townsend Ave, Urbandale, IA  50322.  Rental property.  Owner, starting 7/13/2009.  5-10 hrs/mo, 0 hours during securities trading hours.  Maintain property.  3) FBL INVESTMENT MANAGEMENT SERVICES, INC. INVESTMENT RELATED. 5400 UNIVERSITY AVE, WEST DES MOINES, IA 50266. FINANCIAL PLANNING. INVESTMENT ADVISER REPRESENTATIVE. DATE OF FBLIMS RELEASE LETTER, UNTIL FURTHER NOTICE. Varied HOURS PER MONTH. Varied HOURS DEVOTED PER MONTH DURING TRADING HOURS. PROVIDE FINANCIAL PLANNING SERVICES TO CUSTOMERS. FEE BASED, HOURLY RATE."
    }
  },
  "DRPs": []
}