{
  "Info": {
    "lastNm": "MAHER",
    "firstNm": "MICHAEL",
    "midNm": "WILLIAM",
    "sufNm": null,
    "indvlPK": "5642037",
    "actvAGReg": 0,
    "link": "http://www.adviserinfo.sec.gov/IAPD/Individual/5642037"
  },
  "OthrNms": [],
  "CrntEmps": [
    {
      "CrntRgstns": [
        {
          "regAuth": 23,
          "regCat": 0,
          "st": 2,
          "stDt": "2016-05-13T00:00:00"
        }
      ],
      "BrnchOfLocs": [
        {
          "str1": "11611 N. MERIDIAN STREET",
          "str2": "SUITE 300",
          "city": "CARMEL",
          "state": 16,
          "stateSpecified": true,
          "cntry": "United States",
          "postlCd": "46032"
        },
        {
          "str1": "30300 TELEGRAPH ROAD",
          "str2": "SUITE 160",
          "city": "BINGHAM FARMS",
          "state": 23,
          "stateSpecified": true,
          "cntry": "United States",
          "postlCd": "48025"
        }
      ],
      "orgNm": "SIGNATOR INVESTORS, INC.",
      "orgPK": "468",
      "str1": "380 STUART STREET",
      "str2": "S-8",
      "city": "BOSTON",
      "state": 20,
      "stateSpecified": true,
      "cntry": "United States",
      "postlCd": "02116"
    }
  ],
  "Exms": [
    {
      "exmCd": 0,
      "exmNm": "Uniform Securities Agent State Law Examination",
      "exmDt": "2009-04-23T00:00:00",
      "exmDtSpecified": true
    },
    {
      "exmCd": 2,
      "exmNm": "Uniform Investment Adviser Law Examination",
      "exmDt": "2014-11-10T00:00:00",
      "exmDtSpecified": true
    }
  ],
  "Dsgntns": [],
  "PrevRgstns": [
    {
      "BrnchOfLocs": [
        {
          "city": "TROY",
          "state": 23,
          "stateSpecified": true
        }
      ],
      "orgNm": "LPL FINANCIAL LLC",
      "orgPK": "6413",
      "regBeginDt": "2014-11-12T00:00:00",
      "regBeginDtSpecified": true,
      "regEndDt": "2015-09-02T00:00:00",
      "regEndDtSpecified": true
    },
    {
      "BrnchOfLocs": [
        {
          "city": "BINGHAM FARMS",
          "state": 23,
          "stateSpecified": true
        },
        {
          "city": "CARMEL",
          "state": 16,
          "stateSpecified": true
        }
      ],
      "orgNm": "TRANSAMERICA FINANCIAL ADVISORS, INC",
      "orgPK": "16164",
      "regBeginDt": "2015-08-28T00:00:00",
      "regBeginDtSpecified": true,
      "regEndDt": "2016-05-13T00:00:00",
      "regEndDtSpecified": true
    }
  ],
  "EmpHss": [
    {
      "fromDt": "02/2006",
      "toDt": "05/2008",
      "orgNm": "CBRE",
      "city": "SOUTHFIELD",
      "state": 23,
      "stateSpecified": true
    },
    {
      "fromDt": "05/2008",
      "toDt": "01/2009",
      "orgNm": "MAHER CORPORATION",
      "city": "SAINT CLAIR SHORES",
      "state": 23,
      "stateSpecified": true
    },
    {
      "fromDt": "01/2009",
      "toDt": "10/2013",
      "orgNm": "MAHER FINANCIAL GROUP",
      "city": "FARMINGTON HILLS",
      "state": 23,
      "stateSpecified": true
    },
    {
      "fromDt": "02/2009",
      "toDt": "10/2013",
      "orgNm": "NORTHSTAR FINANCIAL PARTNERS",
      "city": "TROY",
      "state": 23,
      "stateSpecified": true
    },
    {
      "fromDt": "10/2013",
      "toDt": "08/2015",
      "orgNm": "LPL FINANCIAL",
      "city": "TROY",
      "state": 23,
      "stateSpecified": true
    },
    {
      "fromDt": "10/2013",
      "toDt": null,
      "orgNm": "MAHER CORPORATION",
      "city": "TROY",
      "state": 23,
      "stateSpecified": true
    },
    {
      "fromDt": "08/2015",
      "toDt": null,
      "orgNm": "TRANSAMERICA FINANCIAL ADVISORS, INC",
      "city": "BINGHAM FARMS",
      "state": 23,
      "stateSpecified": true
    },
    {
      "fromDt": "11/2015",
      "toDt": null,
      "orgNm": "MAHER ASSET MANAGEMENT",
      "city": "BINGHAM FARMS",
      "state": 23,
      "stateSpecified": true
    },
    {
      "fromDt": "05/2016",
      "toDt": null,
      "orgNm": "SIGNATOR INVESTORS, INC.",
      "city": "BINGHAM FARMS",
      "state": 23,
      "stateSpecified": true
    }
  ],
  "OthrBuss": {
    "OthrBus": {
      "desc": "1)MAHER CORPORATION/INVESTMENT RELATED /1339 HAMPTON GROSSE POINTE WOODS, MI /President/Owner of corporation that is licensed as a real estate broker in MI, Maher Corporation is also licensed in MI as an insurance agency for fixed insurance products, DBA Maher Insurance Agency, start 05.2008, 8 hrs/mo, 0 hrs   MAHER ASSET MANAGEMENT; 11/05/2015; YES INV RELATED; 30300 TELEGRAPH ROAD, 160, BINGHAM FARMS, MI 48025; OWNER-PRESIDENT; SECURITIES THROUGH TFA AND INSURANCE SALES; 160 HRS/MO; 6 TRADING HRS; SECURITIES THROUGH TFA AND INSURANCE SALES."
    }
  },
  "DRPs": []
}