{
  "Info": {
    "lastNm": "TRACY",
    "firstNm": "WILLIAM",
    "midNm": "COOKE",
    "sufNm": "JR",
    "indvlPK": "5643600",
    "actvAGReg": 1,
    "link": "http://www.adviserinfo.sec.gov/IAPD/Individual/5643600"
  },
  "OthrNms": [
    {
      "lastNm": "TRACY",
      "firstNm": "WILLIAM",
      "midNm": "COOKE",
      "sufNm": null
    }
  ],
  "CrntEmps": [
    {
      "CrntRgstns": [
        {
          "regAuth": 17,
          "regCat": 0,
          "st": 2,
          "stDt": "2009-02-12T00:00:00"
        }
      ],
      "BrnchOfLocs": [
        {
          "str1": "7301 COLLEGE BOULEVARD",
          "str2": "SUITE 220",
          "city": "OVERLAND PARK",
          "state": 17,
          "stateSpecified": true,
          "cntry": "United States",
          "postlCd": "66210"
        }
      ],
      "orgNm": "THE MUTUAL FUND STORE",
      "orgPK": "109238",
      "str1": "7301 COLLEGE BOULEVARD",
      "str2": "SUITE 220",
      "city": "OVERLAND PARK",
      "state": 17,
      "stateSpecified": true,
      "cntry": "United States",
      "postlCd": "66210"
    }
  ],
  "Exms": [
    {
      "exmCd": 2,
      "exmNm": "Uniform Investment Adviser Law Examination",
      "exmDt": "2009-01-31T00:00:00",
      "exmDtSpecified": true
    }
  ],
  "Dsgntns": [
    {
      "dsgntnNm": "Chartered Financial Analyst"
    }
  ],
  "PrevRgstns": [],
  "EmpHss": [
    {
      "fromDt": "08/2004",
      "toDt": "02/2008",
      "orgNm": "PAPA JOHN'S",
      "city": "COLUMBIA",
      "state": 25,
      "stateSpecified": true
    },
    {
      "fromDt": "02/2008",
      "toDt": "04/2008",
      "orgNm": "UNEMPLOYED",
      "city": "KANSAS CITY",
      "state": 25,
      "stateSpecified": true
    },
    {
      "fromDt": "04/2008",
      "toDt": null,
      "orgNm": "THE MUTUAL FUND STORE, LLC",
      "city": "OVERLAND PARK",
      "state": 17,
      "stateSpecified": true
    },
    {
      "fromDt": "04/2008",
      "toDt": null,
      "orgNm": "TMFS ADVISORS, LLC",
      "city": "OVERLAND PARK",
      "state": 17,
      "stateSpecified": true
    }
  ],
  "OthrBuss": {
    "OthrBus": null
  },
  "DRPs": [
    {
      "hasRegAction": 1,
      "hasRegActionSpecified": true,
      "hasCriminal": 1,
      "hasCriminalSpecified": true,
      "hasBankrupt": 0,
      "hasBankruptSpecified": true,
      "hasCivilJudc": 1,
      "hasCivilJudcSpecified": true,
      "hasBond": 1,
      "hasBondSpecified": true,
      "hasJudgment": 1,
      "hasJudgmentSpecified": true,
      "hasInvstgn": 1,
      "hasInvstgnSpecified": true,
      "hasCustComp": 1,
      "hasCustCompSpecified": true,
      "hasTermination": 1,
      "hasTerminationSpecified": true
    }
  ]
}