{
  "Info": {
    "lastNm": "PAULSEN",
    "firstNm": "RHONDA",
    "midNm": "L",
    "sufNm": null,
    "indvlPK": "5645584",
    "actvAGReg": 0,
    "link": "http://www.adviserinfo.sec.gov/IAPD/Individual/5645584"
  },
  "OthrNms": [
    {
      "lastNm": "PAULSEN",
      "firstNm": "RHONDA",
      "midNm": "LYNN",
      "sufNm": null
    }
  ],
  "CrntEmps": [
    {
      "CrntRgstns": [
        {
          "regAuth": 13,
          "regCat": 0,
          "st": 2,
          "stDt": "2013-12-20T00:00:00"
        },
        {
          "regAuth": 37,
          "regCat": 0,
          "st": 2,
          "stDt": "2015-10-05T00:00:00"
        },
        {
          "regAuth": 45,
          "regCat": 0,
          "st": 2,
          "stDt": "2015-10-05T00:00:00"
        }
      ],
      "BrnchOfLocs": [
        {
          "str1": "19 1ST ST NE",
          "str2": null,
          "city": "MASON CITY",
          "state": 13,
          "stateSpecified": true,
          "cntry": "United States",
          "postlCd": "50401"
        }
      ],
      "orgNm": "THRIVENT INVESTMENT MANAGEMENT INC.",
      "orgPK": "18387",
      "str1": "625 FOURTH AVENUE SOUTH",
      "str2": null,
      "city": "MINNEAPOLIS",
      "state": 24,
      "stateSpecified": true,
      "cntry": "United States",
      "postlCd": "55415-1665"
    }
  ],
  "Exms": [
    {
      "exmCd": 3,
      "exmNm": "Uniform Combined State Law Examination",
      "exmDt": "2013-11-20T00:00:00",
      "exmDtSpecified": true
    }
  ],
  "Dsgntns": [],
  "PrevRgstns": [],
  "EmpHss": [
    {
      "fromDt": "10/2005",
      "toDt": "08/2006",
      "orgNm": "MEDIAPLEX",
      "city": "LOS ANGELES",
      "state": 4,
      "stateSpecified": true
    },
    {
      "fromDt": "08/2006",
      "toDt": "05/2008",
      "orgNm": "CARLSON SCHOOL OF MANAGEMENT",
      "city": "MINNEAPOLIS",
      "state": 24,
      "stateSpecified": true
    },
    {
      "fromDt": "06/2008",
      "toDt": "12/2013",
      "orgNm": "THRIVENT FINANCIAL",
      "city": "MINNEAPOLIS",
      "state": 24,
      "stateSpecified": true
    },
    {
      "fromDt": "09/2013",
      "toDt": null,
      "orgNm": "THRIVENT INVESTMENT MANAGEMENT INC",
      "city": "MASON CITY",
      "state": 13,
      "stateSpecified": true
    },
    {
      "fromDt": "12/2013",
      "toDt": "03/2014",
      "orgNm": "THRIVENT FINANCIAL FOR LUTHERANS",
      "city": "APPLETON",
      "state": 50,
      "stateSpecified": true
    },
    {
      "fromDt": "03/2014",
      "toDt": null,
      "orgNm": "THRIVENT FINANCIAL",
      "city": "APPLETON",
      "state": 50,
      "stateSpecified": true
    }
  ],
  "OthrBuss": {
    "OthrBus": null
  },
  "DRPs": []
}