{
  "Info": {
    "lastNm": "QUALLS",
    "firstNm": "CHRYSTAL",
    "midNm": null,
    "sufNm": null,
    "indvlPK": "5651774",
    "actvAGReg": 0,
    "link": "http://www.adviserinfo.sec.gov/IAPD/Individual/5651774"
  },
  "OthrNms": [
    {
      "lastNm": "QUALLS",
      "firstNm": "CHRYSTAL",
      "midNm": "LEE",
      "sufNm": null
    },
    {
      "lastNm": "SINGER",
      "firstNm": "CHRYSTAL",
      "midNm": "LEE",
      "sufNm": null
    },
    {
      "lastNm": "SINGER",
      "firstNm": "CRYSTAL",
      "midNm": null,
      "sufNm": null
    }
  ],
  "CrntEmps": [
    {
      "CrntRgstns": [
        {
          "regAuth": 36,
          "regCat": 0,
          "st": 2,
          "stDt": "2012-07-02T00:00:00"
        }
      ],
      "BrnchOfLocs": [
        {
          "str1": "15501 MUNN ROAD",
          "str2": null,
          "city": "CLEVELAND",
          "state": 36,
          "stateSpecified": true,
          "cntry": "United States",
          "postlCd": "44111"
        }
      ],
      "orgNm": "PFS INVESTMENTS INC.",
      "orgPK": "10111",
      "str1": "1 PRIMERICA PARKWAY",
      "str2": null,
      "city": "DULUTH",
      "state": 10,
      "stateSpecified": true,
      "cntry": "United States",
      "postlCd": "30099-0001"
    }
  ],
  "Exms": [
    {
      "exmCd": 0,
      "exmNm": "Uniform Securities Agent State Law Examination",
      "exmDt": "2011-06-28T00:00:00",
      "exmDtSpecified": true
    }
  ],
  "Dsgntns": [],
  "PrevRgstns": [],
  "EmpHss": [
    {
      "fromDt": "10/1997",
      "toDt": "01/2009",
      "orgNm": "STATE CHEMICAL",
      "city": "CLEVELAND",
      "state": 36,
      "stateSpecified": true
    },
    {
      "fromDt": "07/2005",
      "toDt": "09/2007",
      "orgNm": "MAIDS TO ORDER",
      "city": "AVON LAKE",
      "state": 36,
      "stateSpecified": true
    },
    {
      "fromDt": "01/2009",
      "toDt": null,
      "orgNm": "PRIMERICA FINANCIAL SERVICES",
      "city": "CLEVELAND",
      "state": 36,
      "stateSpecified": true
    },
    {
      "fromDt": "08/2009",
      "toDt": null,
      "orgNm": "PFS INVESTMENTS INC",
      "city": "CLEVELAND",
      "state": 36,
      "stateSpecified": true
    }
  ],
  "OthrBuss": {
    "OthrBus": {
      "desc": "SALES OF INVESTMENT-RELATED PRODUCTS, PART-TIME OR FULL-TIME FOR COMPANIES AFFILIATED WITH PFS INVESTMENTS, INC.  MECH TECH SERVICES,LLC. - OWNER/V.P./SEC - ASHLAND, KY. - START DATE 12/18/2014 TO PRESENT.  BLUEGRASS INNOVATIVE REMOLDING SOLUTIONS,LLC. - OWNER/VP/SEC - ASHLAND, KY. -  START DATE 02/06/2015 TO PRESENT.  I MAY ALSO RECEIVE NON-INVESTMENT RELATED COMPENSATION FROM PRIMERICA CLIENT SERVICES, INC. (A CO-LOCATED AFFILIATE OF PFS INVESTMENTS INC.) FOR PART-TIME REFERRALS OF HOME SECURITY AND AUTOMATION PRODUCTS, AS WELL AS OTHER HOME RELATED SERVICES."
    }
  },
  "DRPs": []
}