{
  "Info": {
    "lastNm": "LULAY",
    "firstNm": "TYLER",
    "midNm": "ANTHONY",
    "sufNm": null,
    "indvlPK": "5652613",
    "actvAGReg": 0,
    "link": "http://www.adviserinfo.sec.gov/IAPD/Individual/5652613"
  },
  "OthrNms": [
    {
      "lastNm": "LULAY",
      "firstNm": "TYLER",
      "midNm": "A",
      "sufNm": null
    }
  ],
  "CrntEmps": [
    {
      "CrntRgstns": [
        {
          "regAuth": 38,
          "regCat": 0,
          "st": 2,
          "stDt": "2011-08-16T00:00:00"
        }
      ],
      "BrnchOfLocs": [
        {
          "str1": "1171 NORTH FIRST AVENUE",
          "str2": null,
          "city": "STAYTON",
          "state": 38,
          "stateSpecified": true,
          "cntry": "United States",
          "postlCd": "97383"
        }
      ],
      "orgNm": "RAYMOND JAMES FINANCIAL SERVICES ADVISORS, INC",
      "orgPK": "149018",
      "str1": "880 CARILLON PARKWAY",
      "str2": null,
      "city": "SAINT PETERSBURG",
      "state": 9,
      "stateSpecified": true,
      "cntry": "United States",
      "postlCd": "33716"
    }
  ],
  "Exms": [
    {
      "exmCd": 0,
      "exmNm": "Uniform Securities Agent State Law Examination",
      "exmDt": "2009-11-18T00:00:00",
      "exmDtSpecified": true
    },
    {
      "exmCd": 2,
      "exmNm": "Uniform Investment Adviser Law Examination",
      "exmDt": "2011-08-02T00:00:00",
      "exmDtSpecified": true
    }
  ],
  "Dsgntns": [],
  "PrevRgstns": [],
  "EmpHss": [
    {
      "fromDt": "09/2004",
      "toDt": "12/2008",
      "orgNm": "MONTANA STATE UNIVERSITY",
      "city": "BOZEMAN",
      "state": 27,
      "stateSpecified": true
    },
    {
      "fromDt": "09/2004",
      "toDt": "12/2008",
      "orgNm": "UNEMPLOYED",
      "city": "BOZEMAN",
      "state": 27,
      "stateSpecified": true
    },
    {
      "fromDt": "06/2006",
      "toDt": "08/2006",
      "orgNm": "KENYON NOBLE",
      "city": "BOZEMAN",
      "state": 27,
      "stateSpecified": true
    },
    {
      "fromDt": "06/2007",
      "toDt": "07/2007",
      "orgNm": "MSU FOOTBALL CAMP",
      "city": "BOZEMAN",
      "state": 27,
      "stateSpecified": true
    },
    {
      "fromDt": "06/2008",
      "toDt": "08/2008",
      "orgNm": "ROCKY MOUNTAIN BANK",
      "city": "BOZEMAN",
      "state": 27,
      "stateSpecified": true
    },
    {
      "fromDt": "04/2009",
      "toDt": "03/2010",
      "orgNm": "NEW YORK LIFE INSURANCE CO.",
      "city": "NEW YORK",
      "state": 35,
      "stateSpecified": true
    },
    {
      "fromDt": "03/2010",
      "toDt": null,
      "orgNm": "LIFE INSURANCE",
      "city": "STAYTON",
      "state": 38,
      "stateSpecified": true
    },
    {
      "fromDt": "03/2010",
      "toDt": null,
      "orgNm": "NON-VARIABLE INSURANCE",
      "city": "STAYTON",
      "state": 38,
      "stateSpecified": true
    },
    {
      "fromDt": "08/2010",
      "toDt": null,
      "orgNm": "LULAY FINANCIAL, LLC",
      "city": "STAYTON",
      "state": 38,
      "stateSpecified": true
    },
    {
      "fromDt": "08/2010",
      "toDt": null,
      "orgNm": "RAYMOND JAMES FINANCIAL SERVICES, INC",
      "city": "STAYTON",
      "state": 38,
      "stateSpecified": true
    },
    {
      "fromDt": "08/2011",
      "toDt": null,
      "orgNm": "RAYMOND JAMES FINANCIAL SERVICES ADVISORS INC.",
      "city": "STAYTON",
      "state": 38,
      "stateSpecified": true
    }
  ],
  "OthrBuss": {
    "OthrBus": {
      "desc": "1. REGIS HIGH SCHOOL - STAYTON, OR.  BOARD MEMBER.  STARTED 7/31/13 TO PRESENT.  1 HOUR WEEKLY, 0 DURING TRADING HOURS.  NOT INVESTMENT RELATED. 2. NON-VARIABLE INSURANCE - STAYTON, OR. 03/2010 TO PRESENT. ADVISOR. WHEN DOING FINANCIAL PLANNING FOR A CLIENT, WE MAY ADVISE THEM TO BUY SOME LIFE INSURANCE. 4 HOURS PER MONTH, 1 HOUR DURING TRADING.  3. LULAY FINANCIAL, LLC - STAYTON, OR. 08/2010 TO PRESENT. NOT INVESTMENT RELATED. SUPPORT COMPANY/DBA (NON-OWNER). FINANCIAL ADDVISOR. 200 HOURS PER MONTH, 130 HOURS DURING TRADING."
    }
  },
  "DRPs": []
}