{
  "Info": {
    "lastNm": "WAGNER",
    "firstNm": "AARON",
    "midNm": "CLAYTON",
    "sufNm": null,
    "indvlPK": "5663584",
    "actvAGReg": 0,
    "link": "http://www.adviserinfo.sec.gov/IAPD/Individual/5663584"
  },
  "OthrNms": [
    {
      "lastNm": "WAGNER",
      "firstNm": "AARON",
      "midNm": null,
      "sufNm": null
    }
  ],
  "CrntEmps": [
    {
      "CrntRgstns": [
        {
          "regAuth": 49,
          "regCat": 0,
          "st": 2,
          "stDt": "2015-07-06T00:00:00"
        }
      ],
      "BrnchOfLocs": [
        {
          "str1": "10900 NE 8TH ST",
          "str2": "STE 1550",
          "city": "BELLEVUE",
          "state": 49,
          "stateSpecified": true,
          "cntry": "United States",
          "postlCd": "98004"
        }
      ],
      "orgNm": "HORNOR, TOWNSEND & KENT, INC.",
      "orgPK": "4031",
      "str1": "600 DRESHER RD",
      "str2": "STE C1C",
      "city": "HORSHAM",
      "state": 39,
      "stateSpecified": true,
      "cntry": "United States",
      "postlCd": "19044"
    }
  ],
  "Exms": [
    {
      "exmCd": 0,
      "exmNm": "Uniform Securities Agent State Law Examination",
      "exmDt": "2009-10-09T00:00:00",
      "exmDtSpecified": true
    },
    {
      "exmCd": 2,
      "exmNm": "Uniform Investment Adviser Law Examination",
      "exmDt": "2011-02-24T00:00:00",
      "exmDtSpecified": true
    }
  ],
  "Dsgntns": [],
  "PrevRgstns": [
    {
      "BrnchOfLocs": [
        {
          "city": "BELLEVUE",
          "state": 49,
          "stateSpecified": true
        }
      ],
      "orgNm": "AXA ADVISORS, LLC",
      "orgPK": "6627",
      "regBeginDt": "2011-03-01T00:00:00",
      "regBeginDtSpecified": true,
      "regEndDt": "2013-02-12T00:00:00",
      "regEndDtSpecified": true
    },
    {
      "BrnchOfLocs": [
        {
          "city": "BELLEVUE",
          "state": 49,
          "stateSpecified": true
        }
      ],
      "orgNm": "PRUCO SECURITIES, LLC.",
      "orgPK": "5685",
      "regBeginDt": "2013-03-21T00:00:00",
      "regBeginDtSpecified": true,
      "regEndDt": "2014-10-14T00:00:00",
      "regEndDtSpecified": true
    }
  ],
  "EmpHss": [
    {
      "fromDt": "12/1998",
      "toDt": "09/2006",
      "orgNm": "UNITED STATES ARMY RESERVE",
      "city": "FORT LEWIS",
      "state": 49,
      "stateSpecified": true
    },
    {
      "fromDt": "10/2005",
      "toDt": "04/2009",
      "orgNm": "KELLER WILLIAM REALTY",
      "city": "MARYSVILLE",
      "state": 49,
      "stateSpecified": true
    },
    {
      "fromDt": "12/2005",
      "toDt": "08/2008",
      "orgNm": "PHOENIX FIREPLACE",
      "city": "LYNNWOOD",
      "state": 49,
      "stateSpecified": true
    },
    {
      "fromDt": "04/2009",
      "toDt": "02/2013",
      "orgNm": "AXA ADVISORS LLC",
      "city": "NEW YORK",
      "state": 35,
      "stateSpecified": true
    },
    {
      "fromDt": "04/2009",
      "toDt": "08/2010",
      "orgNm": "MCCORMACKS & SCHMICHTS SEAFOOD",
      "city": "SEATTLE",
      "state": 49,
      "stateSpecified": true
    },
    {
      "fromDt": "02/2013",
      "toDt": "09/2014",
      "orgNm": "PRUCO SECURITIES, LLC",
      "city": "BELLEVUE",
      "state": 49,
      "stateSpecified": true
    },
    {
      "fromDt": "02/2013",
      "toDt": "09/2014",
      "orgNm": "THE PRUDENTIAL INSURANCE COMPANY OF AMERICA",
      "city": "BELLEVUE",
      "state": 49,
      "stateSpecified": true
    },
    {
      "fromDt": "10/2014",
      "toDt": null,
      "orgNm": "PENN MUTUAL LIFE INSURANCE CO",
      "city": "HORSHAM",
      "state": 39,
      "stateSpecified": true
    },
    {
      "fromDt": "03/2015",
      "toDt": null,
      "orgNm": "HORNOR TOWNSEND & KENT INC",
      "city": "HORSHAM",
      "state": 39,
      "stateSpecified": true
    }
  ],
  "OthrBuss": {
    "OthrBus": {
      "desc": "INSURANCE BROKERAGE - DBA: PACIFIC CAPITAL RESOURCE GROUP, INC; INVESTMENT RELATED:  YES;  ADDRESS:  10900 NE 8TH ST, STE 1550, BELLEVUE, WA 98004;  NATURE OF OBA:  INSURANCE SALES AND SERVICE ;                  RELATIONSHIP/TITLE:     AGENT;  START DATE OF OBA:   OCTOBER 2014;  APPROXIMATE NUMBER OF HOURS/MONTH:     72  ;  APPROXIMATE NUMBER OF HOURS/MONTH DEVOTED TO THIS ACTIVITY DURING SECURITIES TRADING HOURS:  72;  DUTIES: INSURANCE SALES AND SERVICE FOR MULTIPLE CARRIERS INCLUDING PENN MUTUAL LIFE INSURANCE COMPANY."
    }
  },
  "DRPs": [
    {
      "hasRegAction": 1,
      "hasRegActionSpecified": true,
      "hasCriminal": 1,
      "hasCriminalSpecified": true,
      "hasBankrupt": 1,
      "hasBankruptSpecified": true,
      "hasCivilJudc": 1,
      "hasCivilJudcSpecified": true,
      "hasBond": 1,
      "hasBondSpecified": true,
      "hasJudgment": 1,
      "hasJudgmentSpecified": true,
      "hasInvstgn": 1,
      "hasInvstgnSpecified": true,
      "hasCustComp": 0,
      "hasCustCompSpecified": true,
      "hasTermination": 0,
      "hasTerminationSpecified": true
    }
  ]
}