{
  "Info": {
    "lastNm": "PEARSON",
    "firstNm": "JAY",
    "midNm": null,
    "sufNm": null,
    "indvlPK": "5667225",
    "actvAGReg": 0,
    "link": "http://www.adviserinfo.sec.gov/IAPD/Individual/5667225"
  },
  "OthrNms": [],
  "CrntEmps": [
    {
      "CrntRgstns": [
        {
          "regAuth": 10,
          "regCat": 0,
          "st": 2,
          "stDt": "2011-12-02T00:00:00"
        }
      ],
      "BrnchOfLocs": [
        {
          "str1": "534 MEDLOCK RD",
          "str2": "STE 210",
          "city": "DECATUR",
          "state": 10,
          "stateSpecified": true,
          "cntry": "United States",
          "postlCd": "30030"
        }
      ],
      "orgNm": "PFS INVESTMENTS INC.",
      "orgPK": "10111",
      "str1": "1 PRIMERICA PARKWAY",
      "str2": null,
      "city": "DULUTH",
      "state": 10,
      "stateSpecified": true,
      "cntry": "United States",
      "postlCd": "30099-0001"
    }
  ],
  "Exms": [
    {
      "exmCd": 0,
      "exmNm": "Uniform Securities Agent State Law Examination",
      "exmDt": "2010-03-03T00:00:00",
      "exmDtSpecified": true
    },
    {
      "exmCd": 2,
      "exmNm": "Uniform Investment Adviser Law Examination",
      "exmDt": "2011-11-11T00:00:00",
      "exmDtSpecified": true
    }
  ],
  "Dsgntns": [],
  "PrevRgstns": [],
  "EmpHss": [
    {
      "fromDt": "03/2005",
      "toDt": "08/2007",
      "orgNm": "SMOKE RISE AGENT RLTY",
      "city": "STN MTN",
      "state": 10,
      "stateSpecified": true
    },
    {
      "fromDt": "01/2007",
      "toDt": "08/2009",
      "orgNm": "AMERICARE GROUP",
      "city": "ST. MTN",
      "state": 10,
      "stateSpecified": true
    },
    {
      "fromDt": "08/2007",
      "toDt": "12/2007",
      "orgNm": "WILBORN REALTY",
      "city": "CONYERS",
      "state": 10,
      "stateSpecified": true
    },
    {
      "fromDt": "12/2007",
      "toDt": "12/2008",
      "orgNm": "SOLID SOURCE REALTY",
      "city": "ALPHARETTA",
      "state": 10,
      "stateSpecified": true
    },
    {
      "fromDt": "12/2008",
      "toDt": null,
      "orgNm": "PRIMERICA FINANICAL SERVICES",
      "city": "DECATUR",
      "state": 10,
      "stateSpecified": true
    },
    {
      "fromDt": "08/2009",
      "toDt": null,
      "orgNm": "PFS INVESTMENTS INC",
      "city": "DECATUR",
      "state": 10,
      "stateSpecified": true
    }
  ],
  "OthrBuss": {
    "OthrBus": {
      "desc": "SALES OF INVESTMENT-RELATED PRODUCTS; PART-TIME OR FULL TIME FOR COMAPNIES AFFILIATED WITH PFS INVESTMENTS INC.  08/02/2013-08/17/2013; 1% OWNER - VELTECH: CONSTRUCTION.  I MAY ALSO RECEIVE NON-INVESTMENT RELATED COMPENSATION FROM PRIMERICA CLIENT SERVICES, INC. (A CO-LOCATED AFFILIATE OF PFS INVESTMENTS INC.) FOR PART-TIME REFERRALS OF HOME SECURITY AND AUTOMATION PRODUCTS, AS WELL AS OTHER HOME RELATED SERVICES."
    }
  },
  "DRPs": [
    {
      "hasRegAction": 1,
      "hasRegActionSpecified": true,
      "hasCriminal": 1,
      "hasCriminalSpecified": true,
      "hasBankrupt": 1,
      "hasBankruptSpecified": true,
      "hasCivilJudc": 1,
      "hasCivilJudcSpecified": true,
      "hasBond": 1,
      "hasBondSpecified": true,
      "hasJudgment": 0,
      "hasJudgmentSpecified": true,
      "hasInvstgn": 1,
      "hasInvstgnSpecified": true,
      "hasCustComp": 1,
      "hasCustCompSpecified": true,
      "hasTermination": 1,
      "hasTerminationSpecified": true
    }
  ]
}