{
  "Info": {
    "lastNm": "PINNER",
    "firstNm": "LAURIE",
    "midNm": "BRYN",
    "sufNm": null,
    "indvlPK": "5669017",
    "actvAGReg": 1,
    "link": "http://www.adviserinfo.sec.gov/IAPD/Individual/5669017"
  },
  "OthrNms": [],
  "CrntEmps": [
    {
      "CrntRgstns": [
        {
          "regAuth": 2,
          "regCat": 0,
          "st": 2,
          "stDt": "2013-12-13T00:00:00"
        },
        {
          "regAuth": 19,
          "regCat": 0,
          "st": 2,
          "stDt": "2014-11-25T00:00:00"
        },
        {
          "regAuth": 45,
          "regCat": 0,
          "st": 2,
          "stDt": "2014-11-25T00:00:00"
        }
      ],
      "BrnchOfLocs": [
        {
          "str1": "222 N. HERVEY",
          "str2": "SUITE D",
          "city": "HOPE",
          "state": 2,
          "stateSpecified": true,
          "cntry": "United States",
          "postlCd": "71801"
        }
      ],
      "orgNm": "MUSTARD SEED WEALTH MANAGEMENT",
      "orgPK": "117737",
      "str1": "202 S. PINE",
      "str2": "SUITE 102",
      "city": "MAGNOLIA",
      "state": 2,
      "stateSpecified": true,
      "cntry": "United States",
      "postlCd": "71753"
    }
  ],
  "Exms": [
    {
      "exmCd": 3,
      "exmNm": "Uniform Combined State Law Examination",
      "exmDt": "2012-06-06T00:00:00",
      "exmDtSpecified": true
    },
    {
      "exmCd": 2,
      "exmNm": "Uniform Investment Adviser Law Examination",
      "exmDt": "2013-03-27T00:00:00",
      "exmDtSpecified": true
    }
  ],
  "Dsgntns": [],
  "PrevRgstns": [],
  "EmpHss": [
    {
      "fromDt": "08/1998",
      "toDt": "12/2008",
      "orgNm": "SCHOOL",
      "city": "MAGNOLIA",
      "state": 2,
      "stateSpecified": true
    },
    {
      "fromDt": "08/2005",
      "toDt": "07/2011",
      "orgNm": "MUSTARD SEED FINANCIAL, LLC",
      "city": "MAGNOLIA",
      "state": 2,
      "stateSpecified": true
    },
    {
      "fromDt": "08/2006",
      "toDt": "01/2009",
      "orgNm": "FAMILY PHARMACY",
      "city": "HOPE",
      "state": 2,
      "stateSpecified": true
    },
    {
      "fromDt": "07/2011",
      "toDt": "11/2013",
      "orgNm": "WILLIS FINANCIAL SERVICES",
      "city": "HOPE",
      "state": 2,
      "stateSpecified": true
    },
    {
      "fromDt": "02/2012",
      "toDt": "11/2013",
      "orgNm": "H.D. VEST INVESTMENT SERVICES",
      "city": "HOPE",
      "state": 2,
      "stateSpecified": true
    },
    {
      "fromDt": "11/2013",
      "toDt": null,
      "orgNm": "MUSTARD SEED FINANCIAL, LLC",
      "city": "HOPE",
      "state": 2,
      "stateSpecified": true
    }
  ],
  "OthrBuss": {
    "OthrBus": null
  },
  "DRPs": []
}