{
  "Info": {
    "lastNm": "HAUGE",
    "firstNm": "BENJAMIN",
    "midNm": "R",
    "sufNm": null,
    "indvlPK": "5670307",
    "actvAGReg": 0,
    "link": "http://www.adviserinfo.sec.gov/IAPD/Individual/5670307"
  },
  "OthrNms": [],
  "CrntEmps": [
    {
      "CrntRgstns": [
        {
          "regAuth": 45,
          "regCat": 0,
          "st": 3,
          "stDt": "2012-04-16T00:00:00"
        }
      ],
      "BrnchOfLocs": [
        {
          "str1": "4343 EASTON COMMONS",
          "str2": null,
          "city": "COLUMBUS",
          "state": 36,
          "stateSpecified": true,
          "cntry": "United States",
          "postlCd": "43219"
        }
      ],
      "orgNm": "MORGAN STANLEY",
      "orgPK": "149777",
      "str1": "2000 WESTCHESTER AVENUE",
      "str2": null,
      "city": "PURCHASE",
      "state": 35,
      "stateSpecified": true,
      "cntry": "United States",
      "postlCd": "10577-2530"
    }
  ],
  "Exms": [
    {
      "exmCd": 0,
      "exmNm": "Uniform Securities Agent State Law Examination",
      "exmDt": "2010-09-13T00:00:00",
      "exmDtSpecified": true
    }
  ],
  "Dsgntns": [],
  "PrevRgstns": [],
  "EmpHss": [
    {
      "fromDt": "01/2000",
      "toDt": "01/2008",
      "orgNm": "UNEMPLOYED",
      "city": "DUBLIN",
      "state": 36,
      "stateSpecified": true
    },
    {
      "fromDt": "01/2008",
      "toDt": "04/2010",
      "orgNm": "UNIVERSITY OF DAYTON BOOKSTORE",
      "city": "DAYTON",
      "state": 36,
      "stateSpecified": true
    },
    {
      "fromDt": "05/2009",
      "toDt": "08/2009",
      "orgNm": "MERRILL LYNCH",
      "city": "COLUMBUS",
      "state": 36,
      "stateSpecified": true
    },
    {
      "fromDt": "05/2010",
      "toDt": "08/2010",
      "orgNm": "ENDLESS SUMMER POOL AND SPA SERVICE",
      "city": "COLUMBUS",
      "state": 36,
      "stateSpecified": true
    },
    {
      "fromDt": "08/2010",
      "toDt": "01/2012",
      "orgNm": "JPMORGAN DISTRIBUTION SERVICES",
      "city": "NEW YORK",
      "state": 35,
      "stateSpecified": true
    },
    {
      "fromDt": "01/2012",
      "toDt": null,
      "orgNm": "MORGAN STANLEY SMITH BARNEY",
      "city": "COLUMBUS",
      "state": 36,
      "stateSpecified": true
    }
  ],
  "OthrBuss": {
    "OthrBus": null
  },
  "DRPs": []
}