{
  "Info": {
    "lastNm": "KENNEDY",
    "firstNm": "MATTHEW",
    "midNm": "DAVID",
    "sufNm": null,
    "indvlPK": "5672999",
    "actvAGReg": 0,
    "link": "http://www.adviserinfo.sec.gov/IAPD/Individual/5672999"
  },
  "OthrNms": [],
  "CrntEmps": [
    {
      "CrntRgstns": [
        {
          "regAuth": 10,
          "regCat": 0,
          "st": 2,
          "stDt": "2015-12-04T00:00:00"
        }
      ],
      "BrnchOfLocs": [
        {
          "str1": "3414 Peachtree Road N.E., Suite 200",
          "str2": null,
          "city": "Atlanta",
          "state": 10,
          "stateSpecified": true,
          "cntry": "United States",
          "postlCd": "30326"
        },
        {
          "str1": "520 MADISON AVENUE, 16TH FLOOR",
          "str2": null,
          "city": "NEW YORK",
          "state": 35,
          "stateSpecified": true,
          "cntry": "United States",
          "postlCd": "10022-4213"
        }
      ],
      "orgNm": "JEFFERIES INVESTMENT ADVISERS, LLC",
      "orgPK": "121767",
      "str1": "520 MADISON AVENUE, 16TH FLOOR",
      "str2": null,
      "city": "NEW YORK",
      "state": 35,
      "stateSpecified": true,
      "cntry": "United States",
      "postlCd": "10022-4213"
    }
  ],
  "Exms": [
    {
      "exmCd": 3,
      "exmNm": "Uniform Combined State Law Examination",
      "exmDt": "2009-08-17T00:00:00",
      "exmDtSpecified": true
    }
  ],
  "Dsgntns": [],
  "PrevRgstns": [
    {
      "BrnchOfLocs": [
        {
          "city": "NEW YORK",
          "state": 35,
          "stateSpecified": true
        }
      ],
      "orgNm": "OPPENHEIMER & CO. INC.",
      "orgPK": "249",
      "regBeginDt": "2009-08-19T00:00:00",
      "regBeginDtSpecified": true,
      "regEndDt": "2015-11-20T00:00:00",
      "regEndDtSpecified": true
    }
  ],
  "EmpHss": [
    {
      "fromDt": "05/2005",
      "toDt": "08/2008",
      "orgNm": "INFINI-LIGHT",
      "city": "STONE MOUNTAIN",
      "state": 10,
      "stateSpecified": true
    },
    {
      "fromDt": "01/2007",
      "toDt": "08/2008",
      "orgNm": "MILLBWORK COMPONENTS",
      "city": "STONE MOUNTAIN",
      "state": 10,
      "stateSpecified": true
    },
    {
      "fromDt": "08/2008",
      "toDt": "05/2009",
      "orgNm": "UNEMPLOYED",
      "city": "ROSWELL",
      "state": 10,
      "stateSpecified": true
    },
    {
      "fromDt": "05/2009",
      "toDt": "11/2015",
      "orgNm": "OPPENHEIMER & CO. INC.",
      "city": "ATLANTA",
      "state": 10,
      "stateSpecified": true
    },
    {
      "fromDt": "11/2015",
      "toDt": null,
      "orgNm": "JEFFERIES LLC",
      "city": "ATLANTA",
      "state": 10,
      "stateSpecified": true
    }
  ],
  "OthrBuss": {
    "OthrBus": null
  },
  "DRPs": []
}