{
  "Info": {
    "lastNm": "Flynn",
    "firstNm": "Carly",
    "midNm": "Jo",
    "sufNm": null,
    "indvlPK": "5679414",
    "actvAGReg": 0,
    "link": "http://www.adviserinfo.sec.gov/IAPD/Individual/5679414"
  },
  "OthrNms": [
    {
      "lastNm": "FLYNN",
      "firstNm": "CARLY",
      "midNm": "J",
      "sufNm": null
    },
    {
      "lastNm": "KLOECKNER",
      "firstNm": "CARLY",
      "midNm": "JO",
      "sufNm": null
    }
  ],
  "CrntEmps": [
    {
      "CrntRgstns": [
        {
          "regAuth": 50,
          "regCat": 0,
          "st": 2,
          "stDt": "2014-11-24T00:00:00"
        }
      ],
      "BrnchOfLocs": [
        {
          "str1": "4445 TAYLOR AVENUE SUITE A",
          "str2": null,
          "city": "RACINE",
          "state": 50,
          "stateSpecified": true,
          "cntry": "United States",
          "postlCd": "53405"
        }
      ],
      "orgNm": "EDWARD JONES",
      "orgPK": "250",
      "str1": "12555 MANCHESTER RD",
      "str2": null,
      "city": "ST. LOUIS",
      "state": 25,
      "stateSpecified": true,
      "cntry": "United States",
      "postlCd": "63131"
    }
  ],
  "Exms": [
    {
      "exmCd": 3,
      "exmNm": "Uniform Combined State Law Examination",
      "exmDt": "2009-11-05T00:00:00",
      "exmDtSpecified": true
    }
  ],
  "Dsgntns": [],
  "PrevRgstns": [],
  "EmpHss": [
    {
      "fromDt": "10/2005",
      "toDt": "05/2007",
      "orgNm": "TRANE",
      "city": "LACROSSE",
      "state": 50,
      "stateSpecified": true
    },
    {
      "fromDt": "06/2007",
      "toDt": "06/2009",
      "orgNm": "FEDERATED INSURANCE COMPANY",
      "city": "TAMPA",
      "state": 9,
      "stateSpecified": true
    },
    {
      "fromDt": "06/2009",
      "toDt": null,
      "orgNm": "EDWARD JONES",
      "city": "BRANDON",
      "state": 9,
      "stateSpecified": true
    }
  ],
  "OthrBuss": {
    "OthrBus": null
  },
  "DRPs": []
}