{
  "Info": {
    "lastNm": "MILLER",
    "firstNm": "PETER",
    "midNm": "A",
    "sufNm": null,
    "indvlPK": "5685273",
    "actvAGReg": 0,
    "link": "http://www.adviserinfo.sec.gov/IAPD/Individual/5685273"
  },
  "OthrNms": [
    {
      "lastNm": "MILLER",
      "firstNm": "PETER",
      "midNm": "ALEXANDER",
      "sufNm": null
    }
  ],
  "CrntEmps": [
    {
      "CrntRgstns": [
        {
          "regAuth": 4,
          "regCat": 0,
          "st": 2,
          "stDt": "2013-03-12T00:00:00"
        },
        {
          "regAuth": 45,
          "regCat": 0,
          "st": 2,
          "stDt": "2013-03-18T00:00:00"
        },
        {
          "regAuth": 6,
          "regCat": 0,
          "st": 2,
          "stDt": "2016-01-25T00:00:00"
        }
      ],
      "BrnchOfLocs": [
        {
          "str1": "100 FEDERAL ST",
          "str2": null,
          "city": "BOSTON",
          "state": 20,
          "stateSpecified": true,
          "cntry": "United States",
          "postlCd": "02110"
        },
        {
          "str1": "101 CALIFORNIA ST",
          "str2": null,
          "city": "SAN FRANCISCO",
          "state": 4,
          "stateSpecified": true,
          "cntry": "United States",
          "postlCd": "94111"
        }
      ],
      "orgNm": "MERRILL LYNCH, PIERCE, FENNER & SMITH INCORPORATED",
      "orgPK": "7691",
      "str1": "ONE BRYANT PARK",
      "str2": null,
      "city": "NEW YORK",
      "state": 35,
      "stateSpecified": true,
      "cntry": "United States",
      "postlCd": "10036"
    }
  ],
  "Exms": [
    {
      "exmCd": 3,
      "exmNm": "Uniform Combined State Law Examination",
      "exmDt": "2013-03-08T00:00:00",
      "exmDtSpecified": true
    }
  ],
  "Dsgntns": [],
  "PrevRgstns": [],
  "EmpHss": [
    {
      "fromDt": "08/2002",
      "toDt": "09/2007",
      "orgNm": "THE HAVERFORD SCHOOL",
      "city": "HAVERFORD",
      "state": 39,
      "stateSpecified": true
    },
    {
      "fromDt": "09/2007",
      "toDt": "08/2012",
      "orgNm": "UNIVERSITY OF VIRGINIA",
      "city": "CHARLOTTESVILLE",
      "state": 4,
      "stateSpecified": true
    },
    {
      "fromDt": "08/2012",
      "toDt": null,
      "orgNm": "MERRILL LYNCH, PIERCE, FENNER & SMITH INCORPORATED",
      "city": "BOSTON",
      "state": 20,
      "stateSpecified": true
    },
    {
      "fromDt": "01/2015",
      "toDt": null,
      "orgNm": "BANK OF AMERICA, N.A.",
      "city": "BOSTON",
      "state": 20,
      "stateSpecified": true
    }
  ],
  "OthrBuss": {
    "OthrBus": null
  },
  "DRPs": []
}