{
  "Info": {
    "lastNm": "CASTLEBERRY",
    "firstNm": "JUSTIN",
    "midNm": "ALEXANDER",
    "sufNm": null,
    "indvlPK": "5686351",
    "actvAGReg": 0,
    "link": "http://www.adviserinfo.sec.gov/IAPD/Individual/5686351"
  },
  "OthrNms": [
    {
      "lastNm": "CASTLEBERRY",
      "firstNm": "JUSTIN",
      "midNm": null,
      "sufNm": null
    }
  ],
  "CrntEmps": [
    {
      "CrntRgstns": [
        {
          "regAuth": 36,
          "regCat": 0,
          "st": 2,
          "stDt": "2016-05-26T00:00:00"
        }
      ],
      "BrnchOfLocs": [
        {
          "str1": "7755 MONTGOMERY ROAD",
          "str2": "STE 200",
          "city": "CINCINNATI",
          "state": 36,
          "stateSpecified": true,
          "cntry": "United States",
          "postlCd": "45236"
        }
      ],
      "orgNm": "MORGAN STANLEY",
      "orgPK": "149777",
      "str1": "2000 WESTCHESTER AVENUE",
      "str2": null,
      "city": "PURCHASE",
      "state": 35,
      "stateSpecified": true,
      "cntry": "United States",
      "postlCd": "10577-2530"
    }
  ],
  "Exms": [
    {
      "exmCd": 3,
      "exmNm": "Uniform Combined State Law Examination",
      "exmDt": "2009-09-23T00:00:00",
      "exmDtSpecified": true
    }
  ],
  "Dsgntns": [],
  "PrevRgstns": [
    {
      "BrnchOfLocs": [
        {
          "city": "CHICAGO",
          "state": 15,
          "stateSpecified": true
        },
        {
          "city": "WEEHAWKEN",
          "state": 32,
          "stateSpecified": true
        },
        {
          "city": "WEEHAWKWN",
          "state": 32,
          "stateSpecified": true
        }
      ],
      "orgNm": "UBS FINANCIAL SERVICES INC.",
      "orgPK": "8174",
      "regBeginDt": "2009-09-25T00:00:00",
      "regBeginDtSpecified": true,
      "regEndDt": "2016-05-20T00:00:00",
      "regEndDtSpecified": true
    }
  ],
  "EmpHss": [
    {
      "fromDt": "08/2005",
      "toDt": "05/2009",
      "orgNm": "BUCKNELL UNIVERSITY",
      "city": "LEWISBURG",
      "state": 39,
      "stateSpecified": true
    },
    {
      "fromDt": "06/2007",
      "toDt": "08/2007",
      "orgNm": "TUESDAY MORNING",
      "city": "RIVERSIDE",
      "state": 4,
      "stateSpecified": true
    },
    {
      "fromDt": "06/2008",
      "toDt": "08/2008",
      "orgNm": "HERSHEY",
      "city": "HERSHEY",
      "state": 39,
      "stateSpecified": true
    },
    {
      "fromDt": "07/2009",
      "toDt": "04/2016",
      "orgNm": "UBS FINANCIAL SERVICES INC",
      "city": "WEEHAWKEN",
      "state": 32,
      "stateSpecified": true
    },
    {
      "fromDt": "05/2016",
      "toDt": null,
      "orgNm": "Morgan Stanley",
      "city": "Beavercreek",
      "state": 36,
      "stateSpecified": true
    }
  ],
  "OthrBuss": {
    "OthrBus": null
  },
  "DRPs": []
}