{
  "Info": {
    "lastNm": "SAUTER",
    "firstNm": "SHANE",
    "midNm": "MICHAEL",
    "sufNm": null,
    "indvlPK": "5687105",
    "actvAGReg": 0,
    "link": "http://www.adviserinfo.sec.gov/IAPD/Individual/5687105"
  },
  "OthrNms": [],
  "CrntEmps": [
    {
      "CrntRgstns": [
        {
          "regAuth": 18,
          "regCat": 0,
          "st": 2,
          "stDt": "2015-01-28T00:00:00"
        },
        {
          "regAuth": 45,
          "regCat": 0,
          "st": 2,
          "stDt": "2015-01-28T00:00:00"
        }
      ],
      "BrnchOfLocs": [
        {
          "str1": "100 HOWE DRIVE",
          "str2": null,
          "city": "COVINGTON",
          "state": 18,
          "stateSpecified": true,
          "cntry": "United States",
          "postlCd": "41015"
        }
      ],
      "orgNm": "STRATEGIC ADVISERS, INC.",
      "orgPK": "104555",
      "str1": "245 SUMMER STREET, V10G",
      "str2": null,
      "city": "BOSTON",
      "state": 20,
      "stateSpecified": true,
      "cntry": "United States",
      "postlCd": "02210"
    }
  ],
  "Exms": [
    {
      "exmCd": 0,
      "exmNm": "Uniform Securities Agent State Law Examination",
      "exmDt": "2014-06-09T00:00:00",
      "exmDtSpecified": true
    },
    {
      "exmCd": 3,
      "exmNm": "Uniform Combined State Law Examination",
      "exmDt": "2015-01-22T00:00:00",
      "exmDtSpecified": true
    }
  ],
  "Dsgntns": [],
  "PrevRgstns": [],
  "EmpHss": [
    {
      "fromDt": "05/2004",
      "toDt": "09/2009",
      "orgNm": "CITY OF MASON PARKS & RECREATION",
      "city": "MASON",
      "state": 36,
      "stateSpecified": true
    },
    {
      "fromDt": "03/2005",
      "toDt": "08/2006",
      "orgNm": "LIFETIME FITNESS",
      "city": "MASON",
      "state": 36,
      "stateSpecified": true
    },
    {
      "fromDt": "01/2007",
      "toDt": "05/2010",
      "orgNm": "OHIO UNIVERSITY",
      "city": "ATHENS",
      "state": 36,
      "stateSpecified": true
    },
    {
      "fromDt": "06/2009",
      "toDt": "04/2014",
      "orgNm": "SUMMIT FINANCIAL GROUP, INC.",
      "city": "LOVELAND",
      "state": 36,
      "stateSpecified": true
    },
    {
      "fromDt": "04/2014",
      "toDt": null,
      "orgNm": "FIDELITY BROKERAGE SERVICES, LLC",
      "city": "COVINGTON",
      "state": 18,
      "stateSpecified": true
    }
  ],
  "OthrBuss": {
    "OthrBus": null
  },
  "DRPs": []
}