{
  "Info": {
    "lastNm": "KNUTSON",
    "firstNm": "PETER",
    "midNm": "MICHAEL",
    "sufNm": null,
    "indvlPK": "5690331",
    "actvAGReg": 0,
    "link": "http://www.adviserinfo.sec.gov/IAPD/Individual/5690331"
  },
  "OthrNms": [
    {
      "lastNm": "KNUTSON",
      "firstNm": "PETER",
      "midNm": "MICHAEL",
      "sufNm": null
    }
  ],
  "CrntEmps": [
    {
      "CrntRgstns": [
        {
          "regAuth": 24,
          "regCat": 0,
          "st": 2,
          "stDt": "2014-02-04T00:00:00"
        }
      ],
      "BrnchOfLocs": [
        {
          "str1": "681 EAST LAKE STREET",
          "str2": "SUITE 354",
          "city": "WAYZATA",
          "state": 24,
          "stateSpecified": true,
          "cntry": "United States",
          "postlCd": "55391"
        }
      ],
      "orgNm": "UBS FINANCIAL SERVICES INC.",
      "orgPK": "8174",
      "str1": "1200 HARBOR BOULEVARD",
      "str2": null,
      "city": "WEEHAWKEN",
      "state": 32,
      "stateSpecified": true,
      "cntry": "United States",
      "postlCd": "07086"
    }
  ],
  "Exms": [
    {
      "exmCd": 3,
      "exmNm": "Uniform Combined State Law Examination",
      "exmDt": "2014-03-21T00:00:00",
      "exmDtSpecified": true
    }
  ],
  "Dsgntns": [],
  "PrevRgstns": [],
  "EmpHss": [
    {
      "fromDt": "09/1996",
      "toDt": "05/2013",
      "orgNm": "SCHOOL",
      "city": "MINNEAPOLIS/ST. PAUL",
      "state": 24,
      "stateSpecified": true
    },
    {
      "fromDt": "08/2011",
      "toDt": "08/2013",
      "orgNm": "LET'S PLAY HOCKEY",
      "city": "MINNEAPOLIS",
      "state": 24,
      "stateSpecified": true
    },
    {
      "fromDt": "06/2013",
      "toDt": null,
      "orgNm": "UBS FINANCIAL SERVICES INC.",
      "city": "WAYZATA",
      "state": 24,
      "stateSpecified": true
    }
  ],
  "OthrBuss": {
    "OthrBus": null
  },
  "DRPs": []
}