{
  "Info": {
    "lastNm": "STRANIERE",
    "firstNm": "ANTHONY",
    "midNm": "M.",
    "sufNm": "II",
    "indvlPK": "5696638",
    "actvAGReg": 0,
    "link": "http://www.adviserinfo.sec.gov/IAPD/Individual/5696638"
  },
  "OthrNms": [
    {
      "lastNm": "STRANIERE II",
      "firstNm": "ANTHONY",
      "midNm": "M.",
      "sufNm": null
    },
    {
      "lastNm": "STRANIERE",
      "firstNm": "TONY",
      "midNm": null,
      "sufNm": null
    },
    {
      "lastNm": "STRANIERE",
      "firstNm": "TONY",
      "midNm": "M.",
      "sufNm": null
    }
  ],
  "CrntEmps": [
    {
      "CrntRgstns": [
        {
          "regAuth": 39,
          "regCat": 0,
          "st": 2,
          "stDt": "2010-01-05T00:00:00"
        }
      ],
      "BrnchOfLocs": [
        {
          "str1": null,
          "str2": null,
          "city": "VERO BEACH",
          "state": 9,
          "stateSpecified": true,
          "cntry": "United States",
          "postlCd": null
        },
        {
          "str1": "2204 SOUTH MAIN ST",
          "str2": null,
          "city": "MANSFIELD",
          "state": 39,
          "stateSpecified": true,
          "cntry": "United States",
          "postlCd": "16933"
        }
      ],
      "orgNm": "LATITUDE ADVISORS, LLC",
      "orgPK": "151001",
      "str1": null,
      "str2": null,
      "city": "VERO BEACH",
      "state": 9,
      "stateSpecified": true,
      "cntry": "United States",
      "postlCd": null
    }
  ],
  "Exms": [
    {
      "exmCd": 3,
      "exmNm": "Uniform Combined State Law Examination",
      "exmDt": "2009-08-28T00:00:00",
      "exmDtSpecified": true
    }
  ],
  "Dsgntns": [],
  "PrevRgstns": [
    {
      "BrnchOfLocs": [
        {
          "city": "MANSFIELD",
          "state": 39,
          "stateSpecified": true
        }
      ],
      "orgNm": "MEDALLION ADVISORY SERVICES, LLC",
      "orgPK": "113788",
      "regBeginDt": "2009-08-31T00:00:00",
      "regBeginDtSpecified": true,
      "regEndDt": "2009-12-31T00:00:00",
      "regEndDtSpecified": true
    }
  ],
  "EmpHss": [
    {
      "fromDt": "06/1999",
      "toDt": null,
      "orgNm": "ESRCC",
      "city": "HORSEHEADS",
      "state": 35,
      "stateSpecified": true
    },
    {
      "fromDt": "07/2009",
      "toDt": "12/2009",
      "orgNm": "MEDALLION INVESTMENT SERVICES, INC",
      "city": "SEVERNA PARK",
      "state": 21,
      "stateSpecified": true
    },
    {
      "fromDt": "01/2010",
      "toDt": null,
      "orgNm": "GWN SECURITIES INC",
      "city": "PALM BEACH GARDENS",
      "state": 9,
      "stateSpecified": true
    },
    {
      "fromDt": "01/2010",
      "toDt": null,
      "orgNm": "LATITUDE ADVISORS, LLC",
      "city": "VERO BEACH",
      "state": 9,
      "stateSpecified": true
    }
  ],
  "OthrBuss": {
    "OthrBus": {
      "desc": "06-1991 TO PRESENT-EMPIRE STATE REGIONAL COUNCIL OF CARPENTERS 181 INDUSTRIAL PARK ROAD, HORSEHEADS, NY 14845;TITLE-UNION CARPENTAR;DUTIES-WORK ON VARIOUS PROJECTS AS A CARPENTER;TIME SPENT-1500 HRS YEARLY; COMPENSATED BY HOURLY RATE.   01/2010 - LATITUDE ADVISORS, LLC - IA REP - COMPENSATED VIA FEES - 5% OF TIME    INSURANCE PLANNING  POSITION: AGENT NATURE: INSURNACE PLANNING INVESTMENT RELATED: YES NUMBER OF HOURS: 50 INVESTMENT RELATED HOURS: 2 START DATE: 01/01/2010  ADDRESS: 2204 SOUTH MAIN ST, MANSFIELD PA 16933  DESCRIPTION: INSURANCE AGENT FOR LIFE AND HEALTH.    BANKING REP.  POSITION: BANKING REP. NATURE: ONLINE BANKING INVESTMENT RELATED: YES NUMBER OF HOURS: 2 INVESTMENT RELATED HOURS: 24 START DATE: 04/04/2011  ADDRESS: EVERBANK, 11 OVAL DR SUITE 107, ISLANDIA NY 11749  DESCRIPTION: BANKING REPRESENTATIVE PROVIDING BASIC BANKING SERVICES TO CLIENTS."
    }
  },
  "DRPs": []
}