{
  "Info": {
    "lastNm": "LARGE",
    "firstNm": "ANDREW",
    "midNm": "PIERCE",
    "sufNm": null,
    "indvlPK": "5699415",
    "actvAGReg": 0,
    "link": "http://www.adviserinfo.sec.gov/IAPD/Individual/5699415"
  },
  "OthrNms": [],
  "CrntEmps": [
    {
      "CrntRgstns": [
        {
          "regAuth": 30,
          "regCat": 0,
          "st": 2,
          "stDt": "2014-04-16T00:00:00"
        }
      ],
      "BrnchOfLocs": [
        {
          "str1": "12325 PORT GRACE BLVD",
          "str2": null,
          "city": "LA VISTA",
          "state": 30,
          "stateSpecified": true,
          "cntry": "United States",
          "postlCd": "68128"
        }
      ],
      "orgNm": "SECURITIES AMERICA ADVISORS, INC.",
      "orgPK": "110518",
      "str1": "12325 PORT GRACE BLVD.",
      "str2": null,
      "city": "LA VISTA",
      "state": 30,
      "stateSpecified": true,
      "cntry": "United States",
      "postlCd": "68128-8204"
    },
    {
      "CrntRgstns": [
        {
          "regAuth": 30,
          "regCat": 0,
          "st": 2,
          "stDt": "2014-09-12T00:00:00"
        }
      ],
      "BrnchOfLocs": [
        {
          "str1": "12325 PORT GRACE BLVD",
          "str2": null,
          "city": "LA VISTA",
          "state": 30,
          "stateSpecified": true,
          "cntry": "United States",
          "postlCd": "68128"
        }
      ],
      "orgNm": "ARBOR POINT ADVISORS",
      "orgPK": "165127",
      "str1": "12325 PORT GRACE BLVD.",
      "str2": null,
      "city": "LAVISTA",
      "state": 30,
      "stateSpecified": true,
      "cntry": "United States",
      "postlCd": "68128"
    }
  ],
  "Exms": [
    {
      "exmCd": 0,
      "exmNm": "Uniform Securities Agent State Law Examination",
      "exmDt": "2009-09-10T00:00:00",
      "exmDtSpecified": true
    },
    {
      "exmCd": 3,
      "exmNm": "Uniform Combined State Law Examination",
      "exmDt": "2012-07-12T00:00:00",
      "exmDtSpecified": true
    }
  ],
  "Dsgntns": [],
  "PrevRgstns": [
    {
      "BrnchOfLocs": [
        {
          "city": "BOCA RATON",
          "state": 9,
          "stateSpecified": true
        },
        {
          "city": "BOYNTON BEACH",
          "state": 9,
          "stateSpecified": true
        },
        {
          "city": "OMAHA",
          "state": 30,
          "stateSpecified": true
        },
        {
          "city": "OMAHA",
          "state": 30,
          "stateSpecified": true
        },
        {
          "city": "OMAHA",
          "state": 30,
          "stateSpecified": true
        }
      ],
      "orgNm": "TD AMERITRADE, INC.",
      "orgPK": "7870",
      "regBeginDt": "2012-07-23T00:00:00",
      "regBeginDtSpecified": true,
      "regEndDt": "2014-01-08T00:00:00",
      "regEndDtSpecified": true
    },
    {
      "BrnchOfLocs": [
        {
          "city": "BOCA RATON",
          "state": 9,
          "stateSpecified": true
        },
        {
          "city": "BOYNTON BEACH",
          "state": 9,
          "stateSpecified": true
        },
        {
          "city": "OMAHA",
          "state": 30,
          "stateSpecified": true
        }
      ],
      "orgNm": "AMERIVEST INVESTMENT MANAGEMENT, LLC",
      "orgPK": "111514",
      "regBeginDt": "2012-07-23T00:00:00",
      "regBeginDtSpecified": true,
      "regEndDt": "2014-01-08T00:00:00",
      "regEndDtSpecified": true
    }
  ],
  "EmpHss": [
    {
      "fromDt": "08/2004",
      "toDt": "12/2008",
      "orgNm": "UNL",
      "city": "LINCOLN",
      "state": 30,
      "stateSpecified": true
    },
    {
      "fromDt": "03/2006",
      "toDt": "08/2007",
      "orgNm": "MIDWEST WEB",
      "city": "LINCOLN",
      "state": 30,
      "stateSpecified": true
    },
    {
      "fromDt": "01/2008",
      "toDt": "05/2009",
      "orgNm": "US BANK",
      "city": "LINCOLN",
      "state": 30,
      "stateSpecified": true
    },
    {
      "fromDt": "06/2009",
      "toDt": "07/2009",
      "orgNm": "TDI",
      "city": "OMAHA",
      "state": 30,
      "stateSpecified": true
    },
    {
      "fromDt": "07/2009",
      "toDt": "01/2014",
      "orgNm": "TD AMERITRADE",
      "city": "OMAHA",
      "state": 30,
      "stateSpecified": true
    },
    {
      "fromDt": "04/2014",
      "toDt": null,
      "orgNm": "SECURITIES AMERICA ADVISORS",
      "city": "LA VISTA",
      "state": 30,
      "stateSpecified": true
    },
    {
      "fromDt": "04/2014",
      "toDt": null,
      "orgNm": "SECURITIES AMERICA INC",
      "city": "LA VISTA",
      "state": 30,
      "stateSpecified": true
    },
    {
      "fromDt": "09/2014",
      "toDt": null,
      "orgNm": "ARBOR POINT ADVISORS",
      "city": "LA VISTA",
      "state": 30,
      "stateSpecified": true
    }
  ],
  "OthrBuss": {
    "OthrBus": {
      "desc": "1) SECURITIES AMERICA ADVISORS - INVESTMENT ADVISORY - INVESTMENT RELATED - IAR - START DATE:  04/2014 - LOCATED AT 12325 PORT GRACE BLVD, LA VISTA, NE 68128, United States - LESS THAN 1% TIME SPENT   2) ARBOR POINT ADVISORS - INVESTMENT ADVISORY - IAR - BEGINNING 9/2014 - LESS THAN 1% TIME SPENT"
    }
  },
  "DRPs": []
}