{
  "Info": {
    "lastNm": "FIORE",
    "firstNm": "ANTHONY",
    "midNm": "MICHAEL",
    "sufNm": null,
    "indvlPK": "5707913",
    "actvAGReg": 0,
    "link": "http://www.adviserinfo.sec.gov/IAPD/Individual/5707913"
  },
  "OthrNms": [],
  "CrntEmps": [
    {
      "CrntRgstns": [
        {
          "regAuth": 23,
          "regCat": 0,
          "st": 2,
          "stDt": "2013-01-10T00:00:00"
        }
      ],
      "BrnchOfLocs": [
        {
          "str1": "33533 WEST 12 MILE ROAD",
          "str2": "SUITE 100",
          "city": "FARMINGTON HILLS",
          "state": 23,
          "stateSpecified": true,
          "cntry": "United States",
          "postlCd": "48331"
        }
      ],
      "orgNm": "MML INVESTORS SERVICES, LLC",
      "orgPK": "10409",
      "str1": "1295 STATE STREET",
      "str2": null,
      "city": "SPRINGFIELD",
      "state": 20,
      "stateSpecified": true,
      "cntry": "United States",
      "postlCd": "01111-0001"
    }
  ],
  "Exms": [
    {
      "exmCd": 3,
      "exmNm": "Uniform Combined State Law Examination",
      "exmDt": "2012-12-07T00:00:00",
      "exmDtSpecified": true
    }
  ],
  "Dsgntns": [],
  "PrevRgstns": [],
  "EmpHss": [
    {
      "fromDt": "09/1990",
      "toDt": "12/2010",
      "orgNm": "STUDENT",
      "city": "COMMERCE TOWNSHIP",
      "state": 23,
      "stateSpecified": true
    },
    {
      "fromDt": "07/2005",
      "toDt": "08/2007",
      "orgNm": "YOUR WAY",
      "city": "COMMERCE TOWNSHIP",
      "state": 23,
      "stateSpecified": true
    },
    {
      "fromDt": "06/2008",
      "toDt": "01/2009",
      "orgNm": "INTERA",
      "city": "TROY",
      "state": 23,
      "stateSpecified": true
    },
    {
      "fromDt": "02/2009",
      "toDt": "10/2012",
      "orgNm": "DETROIT FINANCIAL GROUP",
      "city": "FARMINGTON HILLS",
      "state": 23,
      "stateSpecified": true
    },
    {
      "fromDt": "09/2012",
      "toDt": null,
      "orgNm": "MASS MUTUAL FINANCIAL GROUP",
      "city": "FARMINGTON HILLS",
      "state": 23,
      "stateSpecified": true
    },
    {
      "fromDt": "09/2012",
      "toDt": null,
      "orgNm": "MML INVESTORS SERVICES",
      "city": "FARMINGTON HILLS",
      "state": 23,
      "stateSpecified": true
    }
  ],
  "OthrBuss": {
    "OthrBus": {
      "desc": "Name: Business Benefit Resource LLC  Inv rel: Y  Add: 33533 W. 12 mile Rd Suite 100 Farmington Hill, MI. 48331  Nature: Life, health  Position: Sales, agent  Start date: 5/04/2016  No. HR/MO: 10  No. HR/MO during sec trading: 10"
    }
  },
  "DRPs": []
}