{
  "Info": {
    "lastNm": "DRIEVER",
    "firstNm": "CATHARINE",
    "midNm": null,
    "sufNm": null,
    "indvlPK": "5707057",
    "actvAGReg": 0,
    "link": "http://www.adviserinfo.sec.gov/IAPD/Individual/5707057"
  },
  "OthrNms": [],
  "CrntEmps": [
    {
      "CrntRgstns": [
        {
          "regAuth": 32,
          "regCat": 0,
          "st": 2,
          "stDt": "2012-10-04T00:00:00"
        },
        {
          "regAuth": 45,
          "regCat": 0,
          "st": 3,
          "stDt": "2015-01-29T00:00:00"
        }
      ],
      "BrnchOfLocs": [
        {
          "str1": "522 FIFTH AVENUE, FLOORS 10, 11 AND 12",
          "str2": "PWM",
          "city": "NEW YORK",
          "state": 35,
          "stateSpecified": true,
          "cntry": "United States",
          "postlCd": "10036"
        }
      ],
      "orgNm": "MORGAN STANLEY",
      "orgPK": "149777",
      "str1": "2000 WESTCHESTER AVENUE",
      "str2": null,
      "city": "PURCHASE",
      "state": 35,
      "stateSpecified": true,
      "cntry": "United States",
      "postlCd": "10577-2530"
    }
  ],
  "Exms": [
    {
      "exmCd": 3,
      "exmNm": "Uniform Combined State Law Examination",
      "exmDt": "2012-10-03T00:00:00",
      "exmDtSpecified": true
    }
  ],
  "Dsgntns": [],
  "PrevRgstns": [],
  "EmpHss": [
    {
      "fromDt": "08/2004",
      "toDt": "05/2008",
      "orgNm": "BUCKNELL UNIVERSITY",
      "city": "LEWISBURG",
      "state": 39,
      "stateSpecified": true
    },
    {
      "fromDt": "06/2007",
      "toDt": "08/2007",
      "orgNm": "ERNST & YOUNG LP",
      "city": "NEW YORK",
      "state": 35,
      "stateSpecified": true
    },
    {
      "fromDt": "08/2008",
      "toDt": "08/2010",
      "orgNm": "ERNST & YOUNG LP",
      "city": "NEW YORK",
      "state": 35,
      "stateSpecified": true
    },
    {
      "fromDt": "08/2010",
      "toDt": "07/2013",
      "orgNm": "MORGAN STANLEY & CO INC",
      "city": "NEW YORK",
      "state": 35,
      "stateSpecified": true
    },
    {
      "fromDt": "09/2011",
      "toDt": null,
      "orgNm": "NEW YORK UNIVERSITY STERN SCHOOL OF BUSINESS",
      "city": "NEW YORK",
      "state": 35,
      "stateSpecified": true
    },
    {
      "fromDt": "07/2013",
      "toDt": null,
      "orgNm": "MORGAN STANLEY",
      "city": "NEW YORK",
      "state": 35,
      "stateSpecified": true
    }
  ],
  "OthrBuss": {
    "OthrBus": null
  },
  "DRPs": []
}