{
  "Info": {
    "lastNm": "BERCES URBAN",
    "firstNm": "DANIEL",
    "midNm": null,
    "sufNm": null,
    "indvlPK": "5711979",
    "actvAGReg": 0,
    "link": "http://www.adviserinfo.sec.gov/IAPD/Individual/5711979"
  },
  "OthrNms": [
    {
      "lastNm": "BERCES-URBAN",
      "firstNm": "DANIEL",
      "midNm": null,
      "sufNm": null
    }
  ],
  "CrntEmps": [
    {
      "CrntRgstns": [
        {
          "regAuth": 45,
          "regCat": 0,
          "st": 2,
          "stDt": "2016-01-04T00:00:00"
        },
        {
          "regAuth": 32,
          "regCat": 0,
          "st": 2,
          "stDt": "2016-01-13T00:00:00"
        }
      ],
      "BrnchOfLocs": [
        {
          "str1": "1290 AVENUE OF THE AMERICAS",
          "str2": "12th FLOOR",
          "city": "NEW YORK",
          "state": 35,
          "stateSpecified": true,
          "cntry": "United States",
          "postlCd": "10104"
        }
      ],
      "orgNm": "MORGAN STANLEY",
      "orgPK": "149777",
      "str1": "2000 WESTCHESTER AVENUE",
      "str2": null,
      "city": "PURCHASE",
      "state": 35,
      "stateSpecified": true,
      "cntry": "United States",
      "postlCd": "10577-2530"
    }
  ],
  "Exms": [
    {
      "exmCd": 0,
      "exmNm": "Uniform Securities Agent State Law Examination",
      "exmDt": "2009-12-09T00:00:00",
      "exmDtSpecified": true
    },
    {
      "exmCd": 2,
      "exmNm": "Uniform Investment Adviser Law Examination",
      "exmDt": "2013-08-13T00:00:00",
      "exmDtSpecified": true
    }
  ],
  "Dsgntns": [],
  "PrevRgstns": [
    {
      "BrnchOfLocs": [
        {
          "city": "NEW YORK",
          "state": 35,
          "stateSpecified": true
        }
      ],
      "orgNm": "CREDIT SUISSE SECURITIES (USA) LLC",
      "orgPK": "816",
      "regBeginDt": "2013-08-19T00:00:00",
      "regBeginDtSpecified": true,
      "regEndDt": "2016-01-28T00:00:00",
      "regEndDtSpecified": true
    }
  ],
  "EmpHss": [
    {
      "fromDt": "01/1998",
      "toDt": "06/2007",
      "orgNm": "STUDENT",
      "city": "LIVINGSTON",
      "state": 32,
      "stateSpecified": true
    },
    {
      "fromDt": "06/2007",
      "toDt": "08/2007",
      "orgNm": "GUGGENHEIM CAPITAL MARKETS, LLC",
      "city": "NEW YORK",
      "state": 35,
      "stateSpecified": true
    },
    {
      "fromDt": "08/2007",
      "toDt": "05/2008",
      "orgNm": "STUDENT",
      "city": "NEW YORK",
      "state": 35,
      "stateSpecified": true
    },
    {
      "fromDt": "05/2008",
      "toDt": "08/2008",
      "orgNm": "MERRILL LYNCH",
      "city": "NEW YORK",
      "state": 35,
      "stateSpecified": true
    },
    {
      "fromDt": "08/2008",
      "toDt": "06/2009",
      "orgNm": "STUDENT",
      "city": "NEW YORK",
      "state": 35,
      "stateSpecified": true
    },
    {
      "fromDt": "06/2009",
      "toDt": "04/2013",
      "orgNm": "GUGGENHEIM SECURITIES, LLC",
      "city": "NEW YORK",
      "state": 35,
      "stateSpecified": true
    },
    {
      "fromDt": "06/2013",
      "toDt": "01/2016",
      "orgNm": "CREDIT SUISSE SECURITIES (USA) LLC",
      "city": "NEW YORK",
      "state": 35,
      "stateSpecified": true
    },
    {
      "fromDt": "03/2014",
      "toDt": "01/2016",
      "orgNm": "CREDIT SUISSE LENDING LLC",
      "city": "NEW YORK",
      "state": 35,
      "stateSpecified": true
    },
    {
      "fromDt": "01/2016",
      "toDt": null,
      "orgNm": "MORGAN STANLEY PRIVATE BANK, NATIONAL ASSOCIATION",
      "city": "NEW YORK",
      "state": 35,
      "stateSpecified": true
    },
    {
      "fromDt": "01/2016",
      "toDt": null,
      "orgNm": "MORGAN STANLEY SMITH BARNEY LLC",
      "city": "NEW YORK",
      "state": 35,
      "stateSpecified": true
    }
  ],
  "OthrBuss": {
    "OthrBus": null
  },
  "DRPs": []
}