{
  "Info": {
    "lastNm": "YOUNG",
    "firstNm": "YANMIN",
    "midNm": null,
    "sufNm": null,
    "indvlPK": "5712633",
    "actvAGReg": 0,
    "link": "http://www.adviserinfo.sec.gov/IAPD/Individual/5712633"
  },
  "OthrNms": [
    {
      "lastNm": "FANG",
      "firstNm": "YANMIN",
      "midNm": null,
      "sufNm": null
    }
  ],
  "CrntEmps": [
    {
      "CrntRgstns": [
        {
          "regAuth": 45,
          "regCat": 0,
          "st": 2,
          "stDt": "2016-03-03T00:00:00"
        }
      ],
      "BrnchOfLocs": [
        {
          "str1": "161 W SPRING CREEK PKWY",
          "str2": null,
          "city": "PLANO",
          "state": 45,
          "stateSpecified": true,
          "cntry": "United States",
          "postlCd": "75023"
        },
        {
          "str1": "551 E. 15TH STREET",
          "str2": null,
          "city": "PLANO",
          "state": 45,
          "stateSpecified": true,
          "cntry": "United States",
          "postlCd": "75074"
        },
        {
          "str1": "720 W RENNER RD",
          "str2": null,
          "city": "RICHARDSON",
          "state": 45,
          "stateSpecified": true,
          "cntry": "United States",
          "postlCd": "75080"
        }
      ],
      "orgNm": "J.P. MORGAN SECURITIES LLC",
      "orgPK": "79",
      "str1": "277 PARK AVENUE",
      "str2": null,
      "city": "NEW YORK",
      "state": 35,
      "stateSpecified": true,
      "cntry": "United States",
      "postlCd": "10172"
    }
  ],
  "Exms": [
    {
      "exmCd": 0,
      "exmNm": "Uniform Securities Agent State Law Examination",
      "exmDt": "2009-11-23T00:00:00",
      "exmDtSpecified": true
    },
    {
      "exmCd": 3,
      "exmNm": "Uniform Combined State Law Examination",
      "exmDt": "2016-02-26T00:00:00",
      "exmDtSpecified": true
    }
  ],
  "Dsgntns": [],
  "PrevRgstns": [],
  "EmpHss": [
    {
      "fromDt": "05/2006",
      "toDt": "08/2009",
      "orgNm": "NORDSTROM",
      "city": "DALLAS",
      "state": 45,
      "stateSpecified": true
    },
    {
      "fromDt": "09/2009",
      "toDt": "10/2009",
      "orgNm": "CHASE INVESTMENT SERVICE",
      "city": "PLANO",
      "state": 45,
      "stateSpecified": true
    },
    {
      "fromDt": "09/2009",
      "toDt": "10/2009",
      "orgNm": "JP MORGAN CHASE BANK NA",
      "city": "PLANO",
      "state": 45,
      "stateSpecified": true
    },
    {
      "fromDt": "11/2009",
      "toDt": "03/2010",
      "orgNm": "FARMERS INSURANCE GROUP",
      "city": "ARLINGTON",
      "state": 45,
      "stateSpecified": true
    },
    {
      "fromDt": "01/2010",
      "toDt": "03/2010",
      "orgNm": "FARMERS FINANCIAL SOLUTIONS",
      "city": "ARLINGTON",
      "state": 45,
      "stateSpecified": true
    },
    {
      "fromDt": "03/2010",
      "toDt": "10/2012",
      "orgNm": "CHASE INVESTMENT SERVICES CORP",
      "city": "PLANO",
      "state": 45,
      "stateSpecified": true
    },
    {
      "fromDt": "03/2010",
      "toDt": null,
      "orgNm": "JP MORGAN CHASE BANK  NA",
      "city": "PLANO",
      "state": 45,
      "stateSpecified": true
    },
    {
      "fromDt": "10/2012",
      "toDt": null,
      "orgNm": "J.P. MORGAN SECURITIES LLC",
      "city": "PLANO",
      "state": 45,
      "stateSpecified": true
    }
  ],
  "OthrBuss": {
    "OthrBus": null
  },
  "DRPs": []
}