{
  "Info": {
    "lastNm": "KNOTTS",
    "firstNm": "RYAN",
    "midNm": "CHRISTOPHER",
    "sufNm": null,
    "indvlPK": "5714649",
    "actvAGReg": 0,
    "link": "http://www.adviserinfo.sec.gov/IAPD/Individual/5714649"
  },
  "OthrNms": [
    {
      "lastNm": "KNOTTS",
      "firstNm": "RYAN",
      "midNm": null,
      "sufNm": null
    }
  ],
  "CrntEmps": [
    {
      "CrntRgstns": [
        {
          "regAuth": 39,
          "regCat": 0,
          "st": 2,
          "stDt": "2011-03-01T00:00:00"
        },
        {
          "regAuth": 36,
          "regCat": 0,
          "st": 2,
          "stDt": "2011-03-03T00:00:00"
        }
      ],
      "BrnchOfLocs": [
        {
          "str1": "CLEVELAND ISG",
          "str2": "1900 E. 9TH STREET",
          "city": "CLEVELAND",
          "state": 36,
          "stateSpecified": true,
          "cntry": "United States",
          "postlCd": "44114"
        }
      ],
      "orgNm": "PNC INVESTMENTS",
      "orgPK": "129052",
      "str1": "300 FIFTH AVENUE",
      "str2": "26TH FLOOR",
      "city": "PITTSBURGH",
      "state": 39,
      "stateSpecified": true,
      "cntry": "United States",
      "postlCd": "15222-2722"
    }
  ],
  "Exms": [
    {
      "exmCd": 3,
      "exmNm": "Uniform Combined State Law Examination",
      "exmDt": "2009-12-07T00:00:00",
      "exmDtSpecified": true
    }
  ],
  "Dsgntns": [],
  "PrevRgstns": [
    {
      "BrnchOfLocs": [
        {
          "city": "LYNDHURST",
          "state": 36,
          "stateSpecified": true
        },
        {
          "city": "S EUCLID,",
          "state": 36,
          "stateSpecified": true
        },
        {
          "city": "ST LOUIS",
          "state": 25,
          "stateSpecified": true
        }
      ],
      "orgNm": "EDWARD JONES",
      "orgPK": "250",
      "regBeginDt": "2009-12-14T00:00:00",
      "regBeginDtSpecified": true,
      "regEndDt": "2011-01-07T00:00:00",
      "regEndDtSpecified": true
    }
  ],
  "EmpHss": [
    {
      "fromDt": "06/2005",
      "toDt": "09/2009",
      "orgNm": "JOHN CARROLL UNIVERSITY",
      "city": "UNIVERSITY HEIGHTS",
      "state": 36,
      "stateSpecified": true
    },
    {
      "fromDt": "12/2006",
      "toDt": "09/2009",
      "orgNm": "DICK'S SPORTING GOODS",
      "city": "LYNDHURST",
      "state": 36,
      "stateSpecified": true
    },
    {
      "fromDt": "09/2009",
      "toDt": "01/2011",
      "orgNm": "EDWARD JONES",
      "city": "ST LOUIS",
      "state": 25,
      "stateSpecified": true
    },
    {
      "fromDt": "02/2011",
      "toDt": "04/2012",
      "orgNm": "PNC BANK",
      "city": "CLEVELAND",
      "state": 36,
      "stateSpecified": true
    },
    {
      "fromDt": "02/2011",
      "toDt": "04/2012",
      "orgNm": "PNC INVESTMENTS",
      "city": "CLEVELAND",
      "state": 36,
      "stateSpecified": true
    },
    {
      "fromDt": "04/2012",
      "toDt": "04/2013",
      "orgNm": "PNC INVESTMENTS",
      "city": "PITTSBURGH",
      "state": 39,
      "stateSpecified": true
    },
    {
      "fromDt": "04/2013",
      "toDt": "04/2014",
      "orgNm": "PNC INVESTMENTS",
      "city": "PITTSBURGH",
      "state": 39,
      "stateSpecified": true
    },
    {
      "fromDt": "04/2014",
      "toDt": null,
      "orgNm": "PNC INVESTMENTS",
      "city": "PITTSBURGH",
      "state": 39,
      "stateSpecified": true
    }
  ],
  "OthrBuss": {
    "OthrBus": {
      "desc": "CRUMP LIFE INSURANCE, 4135 NORTH FRONT STREET, HARRISBURG, PA 17110.  LIFE, LONG TERM CARE AND DISABILITY INSURANCE SALES AND MARKETING AGENT.  NUMBER OF HOURS PER MONTH WILL VARY. SALES OF  VARIABLE AND TRADITIONAL LIFE INSURANCE, LONG-TERM CARE AND DISABILITY INSURANCE  TO PNC INVESTMENTS' CUSTOMERS. THERE IS AN AGREEMENT BETWEEN CRUMP AND PNC INSURANCE SERVICES, LLC."
    }
  },
  "DRPs": []
}