{
  "Info": {
    "lastNm": "PERKINS",
    "firstNm": "ANTHONY",
    "midNm": null,
    "sufNm": null,
    "indvlPK": "5719625",
    "actvAGReg": 0,
    "link": "http://www.adviserinfo.sec.gov/IAPD/Individual/5719625"
  },
  "OthrNms": [
    {
      "lastNm": "PERKINS",
      "firstNm": "ANTHONY",
      "midNm": "D",
      "sufNm": null
    }
  ],
  "CrntEmps": [
    {
      "CrntRgstns": [
        {
          "regAuth": 25,
          "regCat": 0,
          "st": 2,
          "stDt": "2013-06-06T00:00:00"
        }
      ],
      "BrnchOfLocs": [
        {
          "str1": "1628 CLARKSON RD",
          "str2": null,
          "city": "CHESTERFILED",
          "state": 25,
          "stateSpecified": true,
          "cntry": "United States",
          "postlCd": "63017"
        }
      ],
      "orgNm": "AMERIVEST INVESTMENT MANAGEMENT, LLC",
      "orgPK": "111514",
      "str1": "200 SOUTH 108TH AVENUE",
      "str2": null,
      "city": "OMAHA",
      "state": 30,
      "stateSpecified": true,
      "cntry": "United States",
      "postlCd": "68154"
    },
    {
      "CrntRgstns": [
        {
          "regAuth": 25,
          "regCat": 0,
          "st": 2,
          "stDt": "2013-06-06T00:00:00"
        }
      ],
      "BrnchOfLocs": [
        {
          "str1": "1628 CLARKSON RD",
          "str2": null,
          "city": "CHESTERFIELD",
          "state": 25,
          "stateSpecified": true,
          "cntry": "United States",
          "postlCd": "63017"
        }
      ],
      "orgNm": "TD AMERITRADE, INC.",
      "orgPK": "7870",
      "str1": "200 SOUTH 108TH AVENUE",
      "str2": null,
      "city": "OMAHA",
      "state": 30,
      "stateSpecified": true,
      "cntry": "United States",
      "postlCd": "68154"
    }
  ],
  "Exms": [
    {
      "exmCd": 3,
      "exmNm": "Uniform Combined State Law Examination",
      "exmDt": "2010-01-29T00:00:00",
      "exmDtSpecified": true
    }
  ],
  "Dsgntns": [],
  "PrevRgstns": [
    {
      "BrnchOfLocs": [
        {
          "city": "TOWN AND COUNTRY",
          "state": 25,
          "stateSpecified": true
        }
      ],
      "orgNm": "PNC INVESTMENTS",
      "orgPK": "129052",
      "regBeginDt": "2010-02-01T00:00:00",
      "regBeginDtSpecified": true,
      "regEndDt": "2012-03-23T00:00:00",
      "regEndDtSpecified": true
    },
    {
      "BrnchOfLocs": [
        {
          "city": "ST. LOUIS",
          "state": 25,
          "stateSpecified": true
        }
      ],
      "orgNm": "PNC INVESTMENTS",
      "orgPK": "129052",
      "regBeginDt": "2012-10-11T00:00:00",
      "regBeginDtSpecified": true,
      "regEndDt": "2013-05-15T00:00:00",
      "regEndDtSpecified": true
    }
  ],
  "EmpHss": [
    {
      "fromDt": "10/2005",
      "toDt": "01/2007",
      "orgNm": "THE WINE MERCHANT",
      "city": "SAINT LOUIS",
      "state": 25,
      "stateSpecified": true
    },
    {
      "fromDt": "01/2007",
      "toDt": "01/2008",
      "orgNm": "ROYAL BANKS OF MISSOURI",
      "city": "SAINT LOUIS",
      "state": 25,
      "stateSpecified": true
    },
    {
      "fromDt": "01/2008",
      "toDt": "09/2009",
      "orgNm": "NATIONAL CITY BANK",
      "city": "SAINT LOUIS",
      "state": 25,
      "stateSpecified": true
    },
    {
      "fromDt": "09/2009",
      "toDt": "11/2009",
      "orgNm": "NATCITY INVESTMENTS",
      "city": "CLEVELAND",
      "state": 36,
      "stateSpecified": true
    },
    {
      "fromDt": "11/2009",
      "toDt": "05/2013",
      "orgNm": "PNC BANK, N.A.",
      "city": "ST. LOUIS",
      "state": 25,
      "stateSpecified": true
    },
    {
      "fromDt": "11/2009",
      "toDt": "03/2012",
      "orgNm": "PNC INVESTMENTS",
      "city": "TOWN AND COUNTRY",
      "state": 25,
      "stateSpecified": true
    },
    {
      "fromDt": "09/2012",
      "toDt": "05/2013",
      "orgNm": "PNC INVESTMENTS",
      "city": "ST. LOUIS",
      "state": 25,
      "stateSpecified": true
    },
    {
      "fromDt": "05/2013",
      "toDt": null,
      "orgNm": "TD AMERITRADE",
      "city": "CHESTERFIELD",
      "state": 25,
      "stateSpecified": true
    }
  ],
  "OthrBuss": {
    "OthrBus": null
  },
  "DRPs": []
}