{
  "Info": {
    "lastNm": "DE LA GARZA",
    "firstNm": "CARLOS",
    "midNm": "ARMANDO",
    "sufNm": null,
    "indvlPK": "5720619",
    "actvAGReg": 0,
    "link": "http://www.adviserinfo.sec.gov/IAPD/Individual/5720619"
  },
  "OthrNms": [],
  "CrntEmps": [
    {
      "CrntRgstns": [
        {
          "regAuth": 45,
          "regCat": 0,
          "st": 2,
          "stDt": "2011-01-03T00:00:00"
        }
      ],
      "BrnchOfLocs": [
        {
          "str1": "10611 MCPHERSON ROAD",
          "str2": "1ST FLOOR",
          "city": "LAREDO",
          "state": 45,
          "stateSpecified": true,
          "cntry": "United States",
          "postlCd": "78045"
        },
        {
          "str1": "1100 MATAMOROS ST",
          "str2": null,
          "city": "LAREDO",
          "state": 45,
          "stateSpecified": true,
          "cntry": "United States",
          "postlCd": "78040"
        },
        {
          "str1": "1200 GUADELUPE STREET",
          "str2": null,
          "city": "LAREDO",
          "state": 45,
          "stateSpecified": true,
          "cntry": "United States",
          "postlCd": "78040"
        },
        {
          "str1": "221 N KANSAS ST 1ST FL",
          "str2": "[TK-RBO]",
          "city": "EL PASO",
          "state": 45,
          "stateSpecified": true,
          "cntry": "United States",
          "postlCd": "79901"
        },
        {
          "str1": "5219 SAN DARIO AVENUE",
          "str2": null,
          "city": "LAREDO",
          "state": 45,
          "stateSpecified": true,
          "cntry": "United States",
          "postlCd": "78041"
        }
      ],
      "orgNm": "WELLS FARGO ADVISORS, LLC",
      "orgPK": "19616",
      "str1": "ONE NORTH JEFFERSON AVENUE",
      "str2": "MAIL CODE: H0004-050",
      "city": "ST. LOUIS",
      "state": 25,
      "stateSpecified": true,
      "cntry": "United States",
      "postlCd": "63103-2205"
    }
  ],
  "Exms": [
    {
      "exmCd": 3,
      "exmNm": "Uniform Combined State Law Examination",
      "exmDt": "2010-11-08T00:00:00",
      "exmDtSpecified": true
    }
  ],
  "Dsgntns": [],
  "PrevRgstns": [
    {
      "BrnchOfLocs": [
        {
          "city": "LAREDO",
          "state": 45,
          "stateSpecified": true
        }
      ],
      "orgNm": "WELLS FARGO INVESTMENTS, LLC",
      "orgPK": "10582",
      "regBeginDt": "2010-11-10T00:00:00",
      "regBeginDtSpecified": true,
      "regEndDt": "2011-01-03T00:00:00",
      "regEndDtSpecified": true
    }
  ],
  "EmpHss": [
    {
      "fromDt": "08/2003",
      "toDt": "05/2007",
      "orgNm": "TEXAS A&M INTERNATIONAL UNIVERSITY",
      "city": "LAREDO",
      "state": 45,
      "stateSpecified": true
    },
    {
      "fromDt": "03/2005",
      "toDt": null,
      "orgNm": "WELLS FARGO BANK, N.A.",
      "city": "LAREDO",
      "state": 45,
      "stateSpecified": true
    },
    {
      "fromDt": "08/2010",
      "toDt": "01/2011",
      "orgNm": "WELLS FARGO INVESTMENTS, LLC",
      "city": "LAREDO",
      "state": 45,
      "stateSpecified": true
    },
    {
      "fromDt": "01/2011",
      "toDt": null,
      "orgNm": "WELLS FARGO ADVISORS LLC",
      "city": "LAREDO",
      "state": 45,
      "stateSpecified": true
    }
  ],
  "OthrBuss": {
    "OthrBus": null
  },
  "DRPs": []
}