{
  "Info": {
    "lastNm": "ROBERTSON",
    "firstNm": "JOHN JR.",
    "midNm": "WILLIAM",
    "sufNm": null,
    "indvlPK": "5722077",
    "actvAGReg": 0,
    "link": "http://www.adviserinfo.sec.gov/IAPD/Individual/5722077"
  },
  "OthrNms": [
    {
      "lastNm": "ROBERTSON",
      "firstNm": "JOHN",
      "midNm": null,
      "sufNm": null
    }
  ],
  "CrntEmps": [
    {
      "CrntRgstns": [
        {
          "regAuth": 49,
          "regCat": 0,
          "st": 2,
          "stDt": "2009-11-30T00:00:00"
        }
      ],
      "BrnchOfLocs": [
        {
          "str1": "23745 225TH WAY S E STE",
          "str2": "SUITE 104",
          "city": "MAPLE VALLEY",
          "state": 49,
          "stateSpecified": true,
          "cntry": "United States",
          "postlCd": "98038"
        }
      ],
      "orgNm": "EDWARD JONES",
      "orgPK": "250",
      "str1": "12555 MANCHESTER RD",
      "str2": null,
      "city": "ST. LOUIS",
      "state": 25,
      "stateSpecified": true,
      "cntry": "United States",
      "postlCd": "63131"
    }
  ],
  "Exms": [
    {
      "exmCd": 3,
      "exmNm": "Uniform Combined State Law Examination",
      "exmDt": "2009-11-25T00:00:00",
      "exmDtSpecified": true
    }
  ],
  "Dsgntns": [],
  "PrevRgstns": [],
  "EmpHss": [
    {
      "fromDt": "09/2005",
      "toDt": "02/2007",
      "orgNm": "EXCELL DATA",
      "city": "BELLEVUE",
      "state": 49,
      "stateSpecified": true
    },
    {
      "fromDt": "03/2007",
      "toDt": "08/2007",
      "orgNm": "CIBER, INC.",
      "city": "KIRKLAND",
      "state": 49,
      "stateSpecified": true
    },
    {
      "fromDt": "08/2007",
      "toDt": "03/2008",
      "orgNm": "YOH, IT",
      "city": "SEATTLE",
      "state": 49,
      "stateSpecified": true
    },
    {
      "fromDt": "04/2008",
      "toDt": "12/2008",
      "orgNm": "CIBER, INC.",
      "city": "KIRKLAND",
      "state": 49,
      "stateSpecified": true
    },
    {
      "fromDt": "12/2008",
      "toDt": "02/2009",
      "orgNm": "UNEMPLOYED",
      "city": "FEDERAL WAY",
      "state": 49,
      "stateSpecified": true
    },
    {
      "fromDt": "02/2009",
      "toDt": "03/2009",
      "orgNm": "COMFORCE",
      "city": "BELLEVUE",
      "state": 49,
      "stateSpecified": true
    },
    {
      "fromDt": "04/2009",
      "toDt": "05/2009",
      "orgNm": "UNEMPLOYED",
      "city": "FEDERAL WAY",
      "state": 49,
      "stateSpecified": true
    },
    {
      "fromDt": "06/2009",
      "toDt": "10/2009",
      "orgNm": "PENGUIN WINDOWS",
      "city": "LAKEWOOD",
      "state": 49,
      "stateSpecified": true
    },
    {
      "fromDt": "10/2009",
      "toDt": null,
      "orgNm": "EDWARD JONES",
      "city": "ST LOUIS",
      "state": 25,
      "stateSpecified": true
    }
  ],
  "OthrBuss": {
    "OthrBus": null
  },
  "DRPs": []
}