{
  "Info": {
    "lastNm": "DEGRAEVE",
    "firstNm": "GREGORY",
    "midNm": "A",
    "sufNm": null,
    "indvlPK": "5722861",
    "actvAGReg": 0,
    "link": "http://www.adviserinfo.sec.gov/IAPD/Individual/5722861"
  },
  "OthrNms": [
    {
      "lastNm": "DEGRAEVE",
      "firstNm": "GREG",
      "midNm": "A",
      "sufNm": null
    },
    {
      "lastNm": "DEGRAEVE",
      "firstNm": "GREGORY",
      "midNm": null,
      "sufNm": null
    },
    {
      "lastNm": "DEGRAEVE",
      "firstNm": "GREGORY",
      "midNm": "A",
      "sufNm": "GREG"
    }
  ],
  "CrntEmps": [
    {
      "CrntRgstns": [
        {
          "regAuth": 6,
          "regCat": 0,
          "st": 2,
          "stDt": "2016-01-05T00:00:00"
        }
      ],
      "BrnchOfLocs": [
        {
          "str1": "500 CUMMINGS CTR",
          "str2": null,
          "city": "BEVERLY",
          "state": 20,
          "stateSpecified": true,
          "cntry": "United States",
          "postlCd": "01915"
        }
      ],
      "orgNm": "MERRILL LYNCH, PIERCE, FENNER & SMITH INCORPORATED",
      "orgPK": "7691",
      "str1": "ONE BRYANT PARK",
      "str2": null,
      "city": "NEW YORK",
      "state": 35,
      "stateSpecified": true,
      "cntry": "United States",
      "postlCd": "10036"
    }
  ],
  "Exms": [
    {
      "exmCd": 0,
      "exmNm": "Uniform Securities Agent State Law Examination",
      "exmDt": "2009-11-16T00:00:00",
      "exmDtSpecified": true
    },
    {
      "exmCd": 3,
      "exmNm": "Uniform Combined State Law Examination",
      "exmDt": "2015-09-24T00:00:00",
      "exmDtSpecified": true
    }
  ],
  "Dsgntns": [],
  "PrevRgstns": [
    {
      "BrnchOfLocs": [
        {
          "city": "BOSTON",
          "state": 20,
          "stateSpecified": true
        },
        {
          "city": "St Louis",
          "state": 25,
          "stateSpecified": true
        }
      ],
      "orgNm": "MANULIFE ASSET MANAGEMENT (US) LLC",
      "orgPK": "106435",
      "regBeginDt": "2015-10-05T00:00:00",
      "regBeginDtSpecified": true,
      "regEndDt": "2015-12-23T00:00:00",
      "regEndDtSpecified": true
    }
  ],
  "EmpHss": [
    {
      "fromDt": "09/2001",
      "toDt": "02/2007",
      "orgNm": "Plymouth State University",
      "city": "Plymouth",
      "state": 31,
      "stateSpecified": true
    },
    {
      "fromDt": "05/2002",
      "toDt": "06/2007",
      "orgNm": "FLYING GOOSE BREW PUB",
      "city": "NEW LONDON",
      "state": 31,
      "stateSpecified": true
    },
    {
      "fromDt": "06/2007",
      "toDt": "05/2008",
      "orgNm": "E COAST SALES SOLUTIONS",
      "city": "ROCHESTER",
      "state": 31,
      "stateSpecified": true
    },
    {
      "fromDt": "05/2008",
      "toDt": "12/2015",
      "orgNm": "JOHN HANCOCK",
      "city": "PORTSMOUTH",
      "state": 31,
      "stateSpecified": true
    },
    {
      "fromDt": "12/2015",
      "toDt": null,
      "orgNm": "MERRILL LYNCH, PIERCE, FENNER & SMITH INCORPORATED",
      "city": "Beverly",
      "state": 20,
      "stateSpecified": true
    },
    {
      "fromDt": "03/2016",
      "toDt": null,
      "orgNm": "BANK OF AMERICA, N.A.",
      "city": "BEVERLY",
      "state": 20,
      "stateSpecified": true
    }
  ],
  "OthrBuss": {
    "OthrBus": null
  },
  "DRPs": []
}