{
  "Info": {
    "lastNm": "FARRIS",
    "firstNm": "WILLIAM",
    "midNm": "JOSEPH",
    "sufNm": "JR.",
    "indvlPK": "5728520",
    "actvAGReg": 0,
    "link": "http://www.adviserinfo.sec.gov/IAPD/Individual/5728520"
  },
  "OthrNms": [
    {
      "lastNm": "FARRIS",
      "firstNm": "BILLY",
      "midNm": null,
      "sufNm": null
    },
    {
      "lastNm": "FARRIS",
      "firstNm": "WILLIAM",
      "midNm": "JOSEPH",
      "sufNm": null
    }
  ],
  "CrntEmps": [
    {
      "CrntRgstns": [
        {
          "regAuth": 4,
          "regCat": 0,
          "st": 2,
          "stDt": "2014-02-25T00:00:00"
        },
        {
          "regAuth": 5,
          "regCat": 0,
          "st": 2,
          "stDt": "2014-02-25T00:00:00"
        },
        {
          "regAuth": 45,
          "regCat": 0,
          "st": 2,
          "stDt": "2014-12-16T00:00:00"
        }
      ],
      "BrnchOfLocs": [
        {
          "str1": "100  DETROIT ST",
          "str2": null,
          "city": "DENVER",
          "state": 5,
          "stateSpecified": true,
          "cntry": "United States",
          "postlCd": "80206"
        },
        {
          "str1": "1629 S COLORADO BLVD",
          "str2": null,
          "city": "DENVER",
          "state": 5,
          "stateSpecified": true,
          "cntry": "United States",
          "postlCd": "80222"
        },
        {
          "str1": "3435 S UNIVERSITY BLVD",
          "str2": null,
          "city": "ENGLEWOOD",
          "state": 5,
          "stateSpecified": true,
          "cntry": "United States",
          "postlCd": "80110"
        },
        {
          "str1": "747 S COLORADO BLVD",
          "str2": null,
          "city": "DENVER",
          "state": 5,
          "stateSpecified": true,
          "cntry": "United States",
          "postlCd": "80246"
        }
      ],
      "orgNm": "J.P. MORGAN SECURITIES LLC",
      "orgPK": "79",
      "str1": "277 PARK AVENUE",
      "str2": null,
      "city": "NEW YORK",
      "state": 35,
      "stateSpecified": true,
      "cntry": "United States",
      "postlCd": "10172"
    }
  ],
  "Exms": [
    {
      "exmCd": 3,
      "exmNm": "Uniform Combined State Law Examination",
      "exmDt": "2014-02-24T00:00:00",
      "exmDtSpecified": true
    }
  ],
  "Dsgntns": [],
  "PrevRgstns": [],
  "EmpHss": [
    {
      "fromDt": "08/2004",
      "toDt": "12/2009",
      "orgNm": "COLORADO STATE UNIVERSITY",
      "city": "FORT COLLINS",
      "state": 5,
      "stateSpecified": true
    },
    {
      "fromDt": "05/2006",
      "toDt": "08/2007",
      "orgNm": "SUNRAY PLACE APARTMENTS",
      "city": "FORT COLLINS",
      "state": 5,
      "stateSpecified": true
    },
    {
      "fromDt": "05/2008",
      "toDt": "08/2008",
      "orgNm": "THE PAVILLIONS - SILVER SAGE",
      "city": "FORT COLLINS",
      "state": 5,
      "stateSpecified": true
    },
    {
      "fromDt": "01/2009",
      "toDt": "04/2009",
      "orgNm": "UNEMPLOYED",
      "city": "FORT COLLINS",
      "state": 5,
      "stateSpecified": true
    },
    {
      "fromDt": "05/2009",
      "toDt": "07/2009",
      "orgNm": "BENGALS",
      "city": "CINCINNATI",
      "state": 36,
      "stateSpecified": true
    },
    {
      "fromDt": "07/2009",
      "toDt": "07/2009",
      "orgNm": "UNEMPLOYED",
      "city": "LAKEWOOD",
      "state": 5,
      "stateSpecified": true
    },
    {
      "fromDt": "08/2009",
      "toDt": "11/2009",
      "orgNm": "VALLEY CREST",
      "city": "PARKER",
      "state": 5,
      "stateSpecified": true
    },
    {
      "fromDt": "09/2009",
      "toDt": "10/2009",
      "orgNm": "UNEMPLOYED",
      "city": "LAKEWOOD",
      "state": 5,
      "stateSpecified": true
    },
    {
      "fromDt": "11/2009",
      "toDt": "03/2010",
      "orgNm": "NORTHWESTERN MUTUAL INVESTMENT SERVICES, LLC",
      "city": "FORT COLLINS",
      "state": 5,
      "stateSpecified": true
    },
    {
      "fromDt": "11/2009",
      "toDt": "03/2010",
      "orgNm": "NORTHWESTERN MUTUAL LIFE INSURANCE COMPANY",
      "city": "FORT COLLINS",
      "state": 5,
      "stateSpecified": true
    },
    {
      "fromDt": "04/2010",
      "toDt": "08/2010",
      "orgNm": "ARIZONA RATTLERS",
      "city": "PHOENIX",
      "state": 3,
      "stateSpecified": true
    },
    {
      "fromDt": "10/2010",
      "toDt": null,
      "orgNm": "JPMORGAN CHASE BANK NA",
      "city": "LAKEWOOD",
      "state": 5,
      "stateSpecified": true
    },
    {
      "fromDt": "11/2010",
      "toDt": "12/2011",
      "orgNm": "QUARTERBACK ACADEMY",
      "city": "BRENTWOOD",
      "state": 4,
      "stateSpecified": true
    },
    {
      "fromDt": "07/2011",
      "toDt": "10/2012",
      "orgNm": "CHASE INVESTMENT SERVICES CORP",
      "city": "LAKEWOOD",
      "state": 5,
      "stateSpecified": true
    },
    {
      "fromDt": "10/2012",
      "toDt": null,
      "orgNm": "J.P. MORGAN SECURITIES LLC",
      "city": "LAKEWOOD",
      "state": 5,
      "stateSpecified": true
    }
  ],
  "OthrBuss": {
    "OthrBus": null
  },
  "DRPs": []
}