{
  "Info": {
    "lastNm": "BULLIS",
    "firstNm": "PATRICK",
    "midNm": "STEPHEN",
    "sufNm": null,
    "indvlPK": "5733997",
    "actvAGReg": 0,
    "link": "http://www.adviserinfo.sec.gov/IAPD/Individual/5733997"
  },
  "OthrNms": [
    {
      "lastNm": "BULLIS",
      "firstNm": "PATRICK",
      "midNm": null,
      "sufNm": null
    }
  ],
  "CrntEmps": [
    {
      "CrntRgstns": [
        {
          "regAuth": 20,
          "regCat": 0,
          "st": 2,
          "stDt": "2010-07-08T00:00:00"
        }
      ],
      "BrnchOfLocs": [
        {
          "str1": "72 BURNCOAT ST",
          "str2": null,
          "city": "WORCESTER",
          "state": 20,
          "stateSpecified": true,
          "cntry": "United States",
          "postlCd": "01605"
        }
      ],
      "orgNm": "H.D. VEST ADVISORY SERVICES, INC",
      "orgPK": "104556",
      "str1": "6333 NORTH STATE HIGHWAY 161",
      "str2": "4TH FLOOR",
      "city": "IRVING",
      "state": 45,
      "stateSpecified": true,
      "cntry": "United States",
      "postlCd": "75038"
    }
  ],
  "Exms": [
    {
      "exmCd": 0,
      "exmNm": "Uniform Securities Agent State Law Examination",
      "exmDt": "2010-01-18T00:00:00",
      "exmDtSpecified": true
    },
    {
      "exmCd": 2,
      "exmNm": "Uniform Investment Adviser Law Examination",
      "exmDt": "2010-06-24T00:00:00",
      "exmDtSpecified": true
    }
  ],
  "Dsgntns": [],
  "PrevRgstns": [],
  "EmpHss": [
    {
      "fromDt": "01/2002",
      "toDt": null,
      "orgNm": "PATRICK BULLIS  CPA",
      "city": "HOLDEN",
      "state": 20,
      "stateSpecified": true
    },
    {
      "fromDt": "11/2007",
      "toDt": "06/2011",
      "orgNm": "EQUIPMENT AND SYSTEMS FOR INDUSTRY INC",
      "city": "HOPKINTON",
      "state": 20,
      "stateSpecified": true
    },
    {
      "fromDt": "04/2010",
      "toDt": null,
      "orgNm": "H.D. VEST INVESTMENT SERVICES",
      "city": "HOLDEN",
      "state": 20,
      "stateSpecified": true
    },
    {
      "fromDt": "07/2010",
      "toDt": null,
      "orgNm": "HD VEST ADVISORY SERVICES",
      "city": "HOLDEN",
      "state": 20,
      "stateSpecified": true
    }
  ],
  "OthrBuss": {
    "OthrBus": {
      "desc": "H.D. VEST INSURANCE AGENCY INC~'NIR'~6333 NORTH STATE HWY 161~4TH FLOOR~IRVING~TX~75038~EQUITY INDEXED ANNUITY~EQUITY INDEXED ANNUITY ~7/2012~10HRS~0HRS~SALE OF EIA~~PATRICK BULLIS CPA~'NIR'~336 SHREWSBURY ST~~HOLDEN~MA~01520~TAX PREPARATION/ACCOUNTING~OWNER/SOLE PROPRIETER~1/2002~50HRS~0HRS~ACCT, BOOKKEEPING, TAX PREPARATION, PAYROLL SERVICES"
    }
  },
  "DRPs": []
}