{
  "Info": {
    "lastNm": "Oliver",
    "firstNm": "Wesley",
    "midNm": "Alan",
    "sufNm": null,
    "indvlPK": "5737002",
    "actvAGReg": 0,
    "link": "http://www.adviserinfo.sec.gov/IAPD/Individual/5737002"
  },
  "OthrNms": [
    {
      "lastNm": "OLIVWER",
      "firstNm": "WESLEY",
      "midNm": null,
      "sufNm": null
    }
  ],
  "CrntEmps": [
    {
      "CrntRgstns": [
        {
          "regAuth": 45,
          "regCat": 0,
          "st": 2,
          "stDt": "2010-01-19T00:00:00"
        }
      ],
      "BrnchOfLocs": [
        {
          "str1": "3200 BROADWAY BOULEVARD",
          "str2": "SUITE 140",
          "city": "GARLAND",
          "state": 45,
          "stateSpecified": true,
          "cntry": "United States",
          "postlCd": "75043-1252"
        }
      ],
      "orgNm": "EDWARD JONES",
      "orgPK": "250",
      "str1": "12555 MANCHESTER RD",
      "str2": null,
      "city": "ST. LOUIS",
      "state": 25,
      "stateSpecified": true,
      "cntry": "United States",
      "postlCd": "63131"
    }
  ],
  "Exms": [
    {
      "exmCd": 3,
      "exmNm": "Uniform Combined State Law Examination",
      "exmDt": "2010-01-15T00:00:00",
      "exmDtSpecified": true
    }
  ],
  "Dsgntns": [],
  "PrevRgstns": [],
  "EmpHss": [
    {
      "fromDt": "08/2004",
      "toDt": "11/2009",
      "orgNm": "T-MOBILE USA",
      "city": "CEDAR HILL",
      "state": 45,
      "stateSpecified": true
    },
    {
      "fromDt": "11/2009",
      "toDt": null,
      "orgNm": "EDWARD JONES",
      "city": "ST. LOUIS",
      "state": 25,
      "stateSpecified": true
    }
  ],
  "OthrBuss": {
    "OthrBus": {
      "desc": "WJ Oliver Managment Property/Realestate Management  Rockwall, TX  Start date: 7/15/2009  Owner  Hours per week: 0  Hours during trading: 0  Currently Inactive    MESQUITE THUNDER SOCCER TEAM  HEAD COACH  MONEY-HANDLING"
    }
  },
  "DRPs": []
}