{
  "Info": {
    "lastNm": "Flavin",
    "firstNm": "Mark",
    "midNm": "Andrew",
    "sufNm": null,
    "indvlPK": "5742526",
    "actvAGReg": 0,
    "link": "http://www.adviserinfo.sec.gov/IAPD/Individual/5742526"
  },
  "OthrNms": [
    {
      "lastNm": "FLAVIN",
      "firstNm": "MARK",
      "midNm": "A",
      "sufNm": null
    }
  ],
  "CrntEmps": [
    {
      "CrntRgstns": [
        {
          "regAuth": 17,
          "regCat": 0,
          "st": 2,
          "stDt": "2010-02-08T00:00:00"
        },
        {
          "regAuth": 25,
          "regCat": 0,
          "st": 2,
          "stDt": "2010-02-09T00:00:00"
        }
      ],
      "BrnchOfLocs": [
        {
          "str1": "11300 TOMAHAWK CREEK PKWY",
          "str2": "STE 15-",
          "city": "LEAWOOD",
          "state": 17,
          "stateSpecified": true,
          "cntry": "United States",
          "postlCd": "66211"
        }
      ],
      "orgNm": "EDWARD JONES",
      "orgPK": "250",
      "str1": "12555 MANCHESTER RD",
      "str2": null,
      "city": "ST. LOUIS",
      "state": 25,
      "stateSpecified": true,
      "cntry": "United States",
      "postlCd": "63131"
    }
  ],
  "Exms": [
    {
      "exmCd": 3,
      "exmNm": "Uniform Combined State Law Examination",
      "exmDt": "2010-02-05T00:00:00",
      "exmDtSpecified": true
    }
  ],
  "Dsgntns": [],
  "PrevRgstns": [],
  "EmpHss": [
    {
      "fromDt": "07/1997",
      "toDt": "09/2009",
      "orgNm": "UNITED SERVICES COMMUNITY ACTION AGENCY",
      "city": "KANSAS CITY",
      "state": 25,
      "stateSpecified": true
    },
    {
      "fromDt": "12/2009",
      "toDt": null,
      "orgNm": "EDWARD JONES",
      "city": "ST LOUIS",
      "state": 25,
      "stateSpecified": true
    }
  ],
  "OthrBuss": {
    "OthrBus": {
      "desc": "Academie Lafayette Board of Directors Kansas City, MO  Start date: 12/1/2014  Board Member  Hours per week: 0  Hours during trading: 0  Participate in the oversight of school operations. Support the mission of the school through fundraising and policy development. Member of the Development Committee which sets the fundraising and growth strategy for the school."
    }
  },
  "DRPs": []
}