{
  "Info": {
    "lastNm": "BRADY",
    "firstNm": "MATTHEW",
    "midNm": "ERIC",
    "sufNm": null,
    "indvlPK": "5745857",
    "actvAGReg": 0,
    "link": "http://www.adviserinfo.sec.gov/IAPD/Individual/5745857"
  },
  "OthrNms": [],
  "CrntEmps": [
    {
      "CrntRgstns": [
        {
          "regAuth": 1,
          "regCat": 0,
          "st": 2,
          "stDt": "2014-05-06T00:00:00"
        },
        {
          "regAuth": 8,
          "regCat": 0,
          "st": 2,
          "stDt": "2014-05-06T00:00:00"
        },
        {
          "regAuth": 21,
          "regCat": 0,
          "st": 2,
          "stDt": "2014-05-06T00:00:00"
        },
        {
          "regAuth": 28,
          "regCat": 0,
          "st": 2,
          "stDt": "2014-05-06T00:00:00"
        },
        {
          "regAuth": 39,
          "regCat": 0,
          "st": 2,
          "stDt": "2014-05-06T00:00:00"
        },
        {
          "regAuth": 42,
          "regCat": 0,
          "st": 2,
          "stDt": "2014-05-06T00:00:00"
        },
        {
          "regAuth": 47,
          "regCat": 0,
          "st": 2,
          "stDt": "2014-05-06T00:00:00"
        },
        {
          "regAuth": 10,
          "regCat": 0,
          "st": 2,
          "stDt": "2014-05-07T00:00:00"
        },
        {
          "regAuth": 51,
          "regCat": 0,
          "st": 2,
          "stDt": "2014-05-16T00:00:00"
        },
        {
          "regAuth": 7,
          "regCat": 0,
          "st": 2,
          "stDt": "2015-08-20T00:00:00"
        }
      ],
      "BrnchOfLocs": [
        {
          "str1": "ONE FREEDOM VALLEY DRIVE",
          "str2": null,
          "city": "OAKS",
          "state": 39,
          "stateSpecified": true,
          "cntry": "United States",
          "postlCd": "19456"
        }
      ],
      "orgNm": "SEI INVESTMENTS MANAGEMENT CORP",
      "orgPK": "105146",
      "str1": "ONE FREEDOM VALLEY DRIVE",
      "str2": null,
      "city": "OAKS",
      "state": 39,
      "stateSpecified": true,
      "cntry": "United States",
      "postlCd": "19456"
    }
  ],
  "Exms": [
    {
      "exmCd": 0,
      "exmNm": "Uniform Securities Agent State Law Examination",
      "exmDt": "2012-09-05T00:00:00",
      "exmDtSpecified": true
    },
    {
      "exmCd": 2,
      "exmNm": "Uniform Investment Adviser Law Examination",
      "exmDt": "2014-05-05T00:00:00",
      "exmDtSpecified": true
    }
  ],
  "Dsgntns": [],
  "PrevRgstns": [],
  "EmpHss": [
    {
      "fromDt": "09/2004",
      "toDt": "05/2008",
      "orgNm": "GEORGE WASHINGTON UNIVERSITY",
      "city": "WASINGTON",
      "state": 7,
      "stateSpecified": true
    },
    {
      "fromDt": "06/2008",
      "toDt": "09/2008",
      "orgNm": "PIRATE VOYAGES",
      "city": "OCEAN CITY",
      "state": 32,
      "stateSpecified": true
    },
    {
      "fromDt": "10/2008",
      "toDt": "12/2008",
      "orgNm": "STRIDE & ASSOCIATES",
      "city": "LOS ANGELES",
      "state": 4,
      "stateSpecified": true
    },
    {
      "fromDt": "01/2009",
      "toDt": "06/2009",
      "orgNm": "MAINLAND REGIONAL HIGH SCHOOL",
      "city": "LINWOOD",
      "state": 32,
      "stateSpecified": true
    },
    {
      "fromDt": "05/2009",
      "toDt": "08/2009",
      "orgNm": "ATLANTIC COAST ROWING CLUB",
      "city": "SOMERS POINT",
      "state": 32,
      "stateSpecified": true
    },
    {
      "fromDt": "07/2009",
      "toDt": "03/2010",
      "orgNm": "FORMICAS BAKERY",
      "city": "ATLANTIC CITY",
      "state": 32,
      "stateSpecified": true
    },
    {
      "fromDt": "07/2009",
      "toDt": "03/2010",
      "orgNm": "OCEAN CITY HOME BANK",
      "city": "VENTNOR",
      "state": 32,
      "stateSpecified": true
    },
    {
      "fromDt": "03/2010",
      "toDt": "06/2012",
      "orgNm": "PHELAN HALLINAN & SCHMIEG, LLP",
      "city": "PHILADELPHIA",
      "state": 39,
      "stateSpecified": true
    },
    {
      "fromDt": "06/2012",
      "toDt": "01/2014",
      "orgNm": "THE VANGUARD GROUP, INC.",
      "city": "MALVERN",
      "state": 39,
      "stateSpecified": true
    },
    {
      "fromDt": "01/2014",
      "toDt": null,
      "orgNm": "SEI INVESTMENTS DISTRIBUTION COMPANY",
      "city": "OAKD",
      "state": 39,
      "stateSpecified": true
    },
    {
      "fromDt": "01/2014",
      "toDt": null,
      "orgNm": "SEI INVESTMENTS MANAGEMENT CORP",
      "city": "OAKS",
      "state": 39,
      "stateSpecified": true
    }
  ],
  "OthrBuss": {
    "OthrBus": {
      "desc": "One-third owner in venture to purchase real estate, Time devoted: 15-20 hours per month during non-business hours, compensation is contingent on real estate income/proceeds."
    }
  },
  "DRPs": []
}