{
  "Info": {
    "lastNm": "MARGER",
    "firstNm": "CARY",
    "midNm": "SETH",
    "sufNm": null,
    "indvlPK": "5746211",
    "actvAGReg": 0,
    "link": "http://www.adviserinfo.sec.gov/IAPD/Individual/5746211"
  },
  "OthrNms": [
    {
      "lastNm": "MARGER",
      "firstNm": "CARY",
      "midNm": null,
      "sufNm": null
    },
    {
      "lastNm": "MARGER",
      "firstNm": "CARY",
      "midNm": "S",
      "sufNm": null
    },
    {
      "lastNm": "MARGER",
      "firstNm": "CARY",
      "midNm": "SETH",
      "sufNm": null
    }
  ],
  "CrntEmps": [
    {
      "CrntRgstns": [
        {
          "regAuth": 46,
          "regCat": 0,
          "st": 2,
          "stDt": "2014-04-24T00:00:00"
        },
        {
          "regAuth": 45,
          "regCat": 0,
          "st": 3,
          "stDt": "2014-05-06T00:00:00"
        }
      ],
      "BrnchOfLocs": [
        {
          "str1": "60 E SOUTH TEMPLE",
          "str2": null,
          "city": "SALT LAKE CITY",
          "state": 46,
          "stateSpecified": true,
          "cntry": "United States",
          "postlCd": "84111"
        }
      ],
      "orgNm": "MERRILL LYNCH, PIERCE, FENNER & SMITH INCORPORATED",
      "orgPK": "7691",
      "str1": "ONE BRYANT PARK",
      "str2": null,
      "city": "NEW YORK",
      "state": 35,
      "stateSpecified": true,
      "cntry": "United States",
      "postlCd": "10036"
    }
  ],
  "Exms": [
    {
      "exmCd": 3,
      "exmNm": "Uniform Combined State Law Examination",
      "exmDt": "2010-03-12T00:00:00",
      "exmDtSpecified": true
    }
  ],
  "Dsgntns": [],
  "PrevRgstns": [
    {
      "BrnchOfLocs": [
        {
          "city": "THE WOODLANDS",
          "state": 45,
          "stateSpecified": true
        }
      ],
      "orgNm": "MERRILL LYNCH, PIERCE, FENNER & SMITH INCORPORATED",
      "orgPK": "7691",
      "regBeginDt": "2010-04-27T00:00:00",
      "regBeginDtSpecified": true,
      "regEndDt": "2012-04-30T00:00:00",
      "regEndDtSpecified": true
    }
  ],
  "EmpHss": [
    {
      "fromDt": "10/2004",
      "toDt": "05/2007",
      "orgNm": "DEER VALLEY RESORT",
      "city": "PARK CITY",
      "state": 46,
      "stateSpecified": true
    },
    {
      "fromDt": "05/2007",
      "toDt": "08/2007",
      "orgNm": "FOREVER PEAKS",
      "city": "PARK CITY",
      "state": 46,
      "stateSpecified": true
    },
    {
      "fromDt": "08/2007",
      "toDt": "02/2008",
      "orgNm": "RAYTHEON POLAR SERVICES",
      "city": "CENTENNIAL",
      "state": 5,
      "stateSpecified": true
    },
    {
      "fromDt": "02/2008",
      "toDt": "08/2008",
      "orgNm": "EXTENDED TRAVEL",
      "city": "DENVER",
      "state": 5,
      "stateSpecified": true
    },
    {
      "fromDt": "08/2008",
      "toDt": "02/2009",
      "orgNm": "RAYTHEEN",
      "city": "CENTENNIAL",
      "state": 5,
      "stateSpecified": true
    },
    {
      "fromDt": "02/2009",
      "toDt": "08/2009",
      "orgNm": "EXTENDED TRAVEL",
      "city": "DENVER",
      "state": 5,
      "stateSpecified": true
    },
    {
      "fromDt": "02/2009",
      "toDt": "08/2009",
      "orgNm": "UNEMPLOYED",
      "city": "DENVER",
      "state": 5,
      "stateSpecified": true
    },
    {
      "fromDt": "08/2009",
      "toDt": "11/2009",
      "orgNm": "IP RENTAL",
      "city": "DENVER",
      "state": 5,
      "stateSpecified": true
    },
    {
      "fromDt": "12/2009",
      "toDt": "04/2010",
      "orgNm": "AXA ADVISORS, LLC",
      "city": "THE WOODLANDS",
      "state": 45,
      "stateSpecified": true
    },
    {
      "fromDt": "04/2010",
      "toDt": "04/2012",
      "orgNm": "BANK OF AMERICA",
      "city": "THE WOODLANDS",
      "state": 45,
      "stateSpecified": true
    },
    {
      "fromDt": "07/2010",
      "toDt": "04/2012",
      "orgNm": "BANK OF AMERICA, NA",
      "city": "THE WOODLANDS",
      "state": 45,
      "stateSpecified": true
    },
    {
      "fromDt": "04/2012",
      "toDt": "10/2012",
      "orgNm": "EXTENDED TRAVEL",
      "city": "HUNTINGTON BEACH",
      "state": 4,
      "stateSpecified": true
    },
    {
      "fromDt": "10/2012",
      "toDt": "03/2013",
      "orgNm": "PACIFIC ARCHITECTS AND ENGINEERS",
      "city": "CENTENNIAL",
      "state": 5,
      "stateSpecified": true
    },
    {
      "fromDt": "03/2013",
      "toDt": "08/2013",
      "orgNm": "EXTENDED TRAVEL",
      "city": "HUNTINGTON BEACH",
      "state": 4,
      "stateSpecified": true
    },
    {
      "fromDt": "08/2013",
      "toDt": "02/2014",
      "orgNm": "PACIFIC ARCHITECTS AND ENGINEERS",
      "city": "CENTENNIAL",
      "state": 5,
      "stateSpecified": true
    },
    {
      "fromDt": "02/2014",
      "toDt": "04/2014",
      "orgNm": "EXTENDED TRAVEL",
      "city": "SALT LAKE CITY",
      "state": 46,
      "stateSpecified": true
    },
    {
      "fromDt": "04/2014",
      "toDt": null,
      "orgNm": "MERRILL LYNCH, PIERCE, FENNER & SMITH INCORPORATED",
      "city": "SALT LAKE CITY",
      "state": 46,
      "stateSpecified": true
    },
    {
      "fromDt": "05/2014",
      "toDt": null,
      "orgNm": "BANK OF AMERICA, N.A.",
      "city": "SALT LAKE CITY",
      "state": 46,
      "stateSpecified": true
    }
  ],
  "OthrBuss": {
    "OthrBus": null
  },
  "DRPs": []
}