{
  "Info": {
    "lastNm": "HOCHSTEDLER",
    "firstNm": "SCOTT",
    "midNm": "D",
    "sufNm": null,
    "indvlPK": "5754431",
    "actvAGReg": 0,
    "link": "http://www.adviserinfo.sec.gov/IAPD/Individual/5754431"
  },
  "OthrNms": [],
  "CrntEmps": [
    {
      "CrntRgstns": [
        {
          "regAuth": 36,
          "regCat": 0,
          "st": 2,
          "stDt": "2015-04-27T00:00:00"
        }
      ],
      "BrnchOfLocs": [
        {
          "str1": "2704 S GOYER RD",
          "str2": null,
          "city": "KOKOMO",
          "state": 16,
          "stateSpecified": true,
          "cntry": "United States",
          "postlCd": "46902"
        },
        {
          "str1": "785 DOVER RD NE",
          "str2": null,
          "city": "SUGARCREEK",
          "state": 36,
          "stateSpecified": true,
          "cntry": "United States",
          "postlCd": "44681"
        }
      ],
      "orgNm": "CREATIVE FINANCIAL DESIGNS, INC.",
      "orgPK": "109032",
      "str1": "2704 S GOYER RD",
      "str2": null,
      "city": "KOKOMO",
      "state": 16,
      "stateSpecified": true,
      "cntry": "United States",
      "postlCd": "46902"
    }
  ],
  "Exms": [],
  "Dsgntns": [],
  "PrevRgstns": [],
  "EmpHss": [
    {
      "fromDt": "09/2005",
      "toDt": null,
      "orgNm": "NEW CREATION FELLOWSHIP",
      "city": "KIDRON",
      "state": 36,
      "stateSpecified": true
    },
    {
      "fromDt": "01/2008",
      "toDt": "02/2010",
      "orgNm": "CHURCH COMMUNICATION NET",
      "city": "FREDERICKSBURG",
      "state": 36,
      "stateSpecified": true
    },
    {
      "fromDt": "02/2008",
      "toDt": "10/2011",
      "orgNm": "MRS YODERS RESTAURANT",
      "city": "MT HOPE",
      "state": 36,
      "stateSpecified": true
    },
    {
      "fromDt": "07/2009",
      "toDt": "11/2009",
      "orgNm": "YOUTH SPECIALTIES",
      "city": "FREDERICKSBURG",
      "state": 36,
      "stateSpecified": true
    },
    {
      "fromDt": "12/2009",
      "toDt": null,
      "orgNm": "COVENANT FINANCIAL ADV",
      "city": "WALNUT CREEK",
      "state": 36,
      "stateSpecified": true
    },
    {
      "fromDt": "10/2011",
      "toDt": null,
      "orgNm": "CFD INVESTMENTS",
      "city": "KOKOMO",
      "state": 16,
      "stateSpecified": true
    }
  ],
  "OthrBuss": {
    "OthrBus": {
      "desc": "1.INDEPENDENT INSURANCE SALES"
    }
  },
  "DRPs": []
}