{
  "Info": {
    "lastNm": "ROMITO",
    "firstNm": "AMELIA",
    "midNm": "CHRISTINE",
    "sufNm": null,
    "indvlPK": "5756350",
    "actvAGReg": 0,
    "link": "http://www.adviserinfo.sec.gov/IAPD/Individual/5756350"
  },
  "OthrNms": [
    {
      "lastNm": "ROMITO",
      "firstNm": "AMY",
      "midNm": "C",
      "sufNm": null
    }
  ],
  "CrntEmps": [
    {
      "CrntRgstns": [
        {
          "regAuth": 9,
          "regCat": 0,
          "st": 2,
          "stDt": "2014-01-10T00:00:00"
        }
      ],
      "BrnchOfLocs": [
        {
          "str1": "79 E. MAIN STREET",
          "str2": null,
          "city": "WASHINGTONVILLE",
          "state": 35,
          "stateSpecified": true,
          "cntry": "United States",
          "postlCd": "10992"
        }
      ],
      "orgNm": "SII INVESTMENTS, INC.",
      "orgPK": "2225",
      "str1": "5555 W GRANDE MARKET DRIVE",
      "str2": null,
      "city": "APPLETON",
      "state": 50,
      "stateSpecified": true,
      "cntry": "United States",
      "postlCd": "54913-8403"
    }
  ],
  "Exms": [
    {
      "exmCd": 3,
      "exmNm": "Uniform Combined State Law Examination",
      "exmDt": "2013-12-30T00:00:00",
      "exmDtSpecified": true
    }
  ],
  "Dsgntns": [],
  "PrevRgstns": [],
  "EmpHss": [
    {
      "fromDt": "08/2006",
      "toDt": "05/2007",
      "orgNm": "PACE UNIVERSITY",
      "city": "PLEASANTVILLE",
      "state": 35,
      "stateSpecified": true
    },
    {
      "fromDt": "05/2007",
      "toDt": "08/2007",
      "orgNm": "ELANT & GOSHEN",
      "city": "GOSHEN",
      "state": 35,
      "stateSpecified": true
    },
    {
      "fromDt": "08/2007",
      "toDt": "05/2010",
      "orgNm": "MOUNT SAINT MARY COLLEGE",
      "city": "NEWBURGH",
      "state": 35,
      "stateSpecified": true
    },
    {
      "fromDt": "06/2010",
      "toDt": null,
      "orgNm": "FERRIGNO FINANCIAL",
      "city": "WASHINGTONVILLE",
      "state": 35,
      "stateSpecified": true
    },
    {
      "fromDt": "03/2013",
      "toDt": null,
      "orgNm": "SII INVESTMENTS",
      "city": "WASHINGTONVILLE",
      "state": 35,
      "stateSpecified": true
    }
  ],
  "OthrBuss": {
    "OthrBus": null
  },
  "DRPs": []
}