{
  "Info": {
    "lastNm": "BUCHANAN",
    "firstNm": "RYAN",
    "midNm": "HAMBRICK",
    "sufNm": null,
    "indvlPK": "5759276",
    "actvAGReg": 1,
    "link": "http://www.adviserinfo.sec.gov/IAPD/Individual/5759276"
  },
  "OthrNms": [
    {
      "lastNm": "BUCHANAN",
      "firstNm": "RYAN",
      "midNm": null,
      "sufNm": null
    }
  ],
  "CrntEmps": [
    {
      "CrntRgstns": [
        {
          "regAuth": 10,
          "regCat": 0,
          "st": 2,
          "stDt": "2013-03-21T00:00:00"
        },
        {
          "regAuth": 45,
          "regCat": 0,
          "st": 2,
          "stDt": "2013-10-22T00:00:00"
        }
      ],
      "BrnchOfLocs": [
        {
          "str1": "3333 PIEDMONT ROAD",
          "str2": "TERMINUS 200, SUITE 2050",
          "city": "BUCKHEAD-ATLANTA",
          "state": 10,
          "stateSpecified": true,
          "cntry": "United States",
          "postlCd": "30305"
        }
      ],
      "orgNm": "RH BUCHANAN & CO. ASSET MANAGEMENT, LLC",
      "orgPK": "166806",
      "str1": "3333 PIEDMONT ROAD",
      "str2": "TERMINUS 200, SUITE 2050",
      "city": "BUCKHEAD-ATLANTA",
      "state": 10,
      "stateSpecified": true,
      "cntry": "United States",
      "postlCd": "30305"
    }
  ],
  "Exms": [
    {
      "exmCd": 3,
      "exmNm": "Uniform Combined State Law Examination",
      "exmDt": "2010-06-09T00:00:00",
      "exmDtSpecified": true
    }
  ],
  "Dsgntns": [
    {
      "dsgntnNm": "Certified Financial Planner"
    }
  ],
  "PrevRgstns": [
    {
      "BrnchOfLocs": [
        {
          "city": "ATLANTA",
          "state": 10,
          "stateSpecified": true
        }
      ],
      "orgNm": "AXA ADVISORS, LLC",
      "orgPK": "6627",
      "regBeginDt": "2010-06-11T00:00:00",
      "regBeginDtSpecified": true,
      "regEndDt": "2011-05-05T00:00:00",
      "regEndDtSpecified": true
    },
    {
      "BrnchOfLocs": [
        {
          "city": "MCDONOUGH",
          "state": 10,
          "stateSpecified": true
        }
      ],
      "orgNm": "CAPE INVESTMENT ADVISORY, INC.",
      "orgPK": "146384",
      "regBeginDt": "2011-05-10T00:00:00",
      "regBeginDtSpecified": true,
      "regEndDt": "2013-01-29T00:00:00",
      "regEndDtSpecified": true
    }
  ],
  "EmpHss": [
    {
      "fromDt": "04/2003",
      "toDt": "08/2006",
      "orgNm": "GAINESVILLE STATE",
      "city": "WATKINSVILLE",
      "state": 10,
      "stateSpecified": true
    },
    {
      "fromDt": "08/2006",
      "toDt": "12/2008",
      "orgNm": "PIEDMONT COLLEGE",
      "city": "ATHENS",
      "state": 10,
      "stateSpecified": true
    },
    {
      "fromDt": "09/2007",
      "toDt": "01/2008",
      "orgNm": "DEKLE REALTY",
      "city": "ATHENS",
      "state": 10,
      "stateSpecified": true
    },
    {
      "fromDt": "02/2008",
      "toDt": "06/2008",
      "orgNm": "UNEMPLOYED",
      "city": "ATHENS",
      "state": 10,
      "stateSpecified": true
    },
    {
      "fromDt": "07/2008",
      "toDt": "12/2009",
      "orgNm": "LANSDOWNE ROAD",
      "city": "ATHENS",
      "state": 10,
      "stateSpecified": true
    },
    {
      "fromDt": "12/2008",
      "toDt": "02/2010",
      "orgNm": "BUCHANAN CHIROPRATIC CLINIC",
      "city": "STOCKBRIDGE",
      "state": 10,
      "stateSpecified": true
    },
    {
      "fromDt": "02/2010",
      "toDt": "05/2011",
      "orgNm": "AXA ADVISORS, LLC",
      "city": "NY",
      "state": 35,
      "stateSpecified": true
    },
    {
      "fromDt": "05/2011",
      "toDt": "01/2013",
      "orgNm": "CAPE INVESTMENT ADVISORY",
      "city": "MCDONOUGH",
      "state": 10,
      "stateSpecified": true
    },
    {
      "fromDt": "05/2011",
      "toDt": "01/2013",
      "orgNm": "CAPE SECURITIES INC",
      "city": "MCDONOUGH",
      "state": 10,
      "stateSpecified": true
    },
    {
      "fromDt": "01/2013",
      "toDt": "03/2013",
      "orgNm": "STEPHEN A. KOHN & ASSOCIATES, LTD.",
      "city": "LAKEWOOD",
      "state": 5,
      "stateSpecified": true
    },
    {
      "fromDt": "02/2013",
      "toDt": null,
      "orgNm": "RH BUCHANAN & CO. ASSET MANAGEMENT, LLC",
      "city": "ATLANTA",
      "state": 10,
      "stateSpecified": true
    },
    {
      "fromDt": "12/2014",
      "toDt": null,
      "orgNm": "DEMPSEY LORD SMITH, LLC",
      "city": "ROME",
      "state": 10,
      "stateSpecified": true
    }
  ],
  "OthrBuss": {
    "OthrBus": {
      "desc": "(1) RYAN HAMBRICK BUCHANAN IS A LICENSED INSURANCE AGENT, FOR WHICH HE RECEIVES COMMISSIONS.   (2) MR. BUCHANAN IS AN IAR WITH RH BUCHANAN & CO. ASSET MANAGEMENT, LLC.    (3) MR. BUCHANAN IS A REGISTERED REPRESENTATIVE WITH DEMPSEY LORD SMITH, LLC.    (4) MR. BUCHANAN IS THE FINANCE MANAGER FOR BUCHANAN CHIROPRACTIC CLINIC, PC."
    }
  },
  "DRPs": []
}