{
  "Info": {
    "lastNm": "SPARKS",
    "firstNm": "TIMOTHY",
    "midNm": "JON",
    "sufNm": null,
    "indvlPK": "5762751",
    "actvAGReg": 1,
    "link": "http://www.adviserinfo.sec.gov/IAPD/Individual/5762751"
  },
  "OthrNms": [
    {
      "lastNm": "SPARKS",
      "firstNm": "TIMOTHY",
      "midNm": null,
      "sufNm": null
    }
  ],
  "CrntEmps": [
    {
      "CrntRgstns": [
        {
          "regAuth": 18,
          "regCat": 0,
          "st": 2,
          "stDt": "2015-10-26T00:00:00"
        },
        {
          "regAuth": 45,
          "regCat": 0,
          "st": 2,
          "stDt": "2015-10-26T00:00:00"
        }
      ],
      "BrnchOfLocs": [
        {
          "str1": null,
          "str2": null,
          "city": "Mt. Sterling",
          "state": 18,
          "stateSpecified": true,
          "cntry": "United States",
          "postlCd": null
        },
        {
          "str1": "3067 W. INA RD.",
          "str2": "SUITE 125",
          "city": "TUCSON",
          "state": 3,
          "stateSpecified": true,
          "cntry": "United States",
          "postlCd": "85741"
        }
      ],
      "orgNm": "SECURE INVESTMENT MANAGEMENT, LLC",
      "orgPK": "141195",
      "str1": "3067 W. INA RD.",
      "str2": "SUITE 125",
      "city": "TUCSON",
      "state": 3,
      "stateSpecified": true,
      "cntry": "United States",
      "postlCd": "85741"
    }
  ],
  "Exms": [
    {
      "exmCd": 2,
      "exmNm": "Uniform Investment Adviser Law Examination",
      "exmDt": "2010-06-08T00:00:00",
      "exmDtSpecified": true
    }
  ],
  "Dsgntns": [],
  "PrevRgstns": [
    {
      "BrnchOfLocs": [
        {
          "city": "LEXINGTON",
          "state": 18,
          "stateSpecified": true
        },
        {
          "city": "SARASOTA",
          "state": 9,
          "stateSpecified": true
        }
      ],
      "orgNm": "GLOBAL FINANCIAL PRIVATE CAPITAL, LLC",
      "orgPK": "132070",
      "regBeginDt": "2010-06-10T00:00:00",
      "regBeginDtSpecified": true,
      "regEndDt": "2011-11-30T00:00:00",
      "regEndDtSpecified": true
    },
    {
      "BrnchOfLocs": [
        {
          "city": "CORNELIUS",
          "state": 28,
          "stateSpecified": true
        },
        {
          "city": "LEXINGTON",
          "state": 18,
          "stateSpecified": true
        }
      ],
      "orgNm": "ALPHASTAR CAPITAL MANAGEMENT, LLC",
      "orgPK": "157423",
      "regBeginDt": "2011-12-05T00:00:00",
      "regBeginDtSpecified": true,
      "regEndDt": "2012-10-03T00:00:00",
      "regEndDtSpecified": true
    },
    {
      "BrnchOfLocs": [
        {
          "city": "CINCINNATI",
          "state": 36,
          "stateSpecified": true
        },
        {
          "city": "LEXINGTON",
          "state": 18,
          "stateSpecified": true
        },
        {
          "city": "LEXINGTON",
          "state": 18,
          "stateSpecified": true
        },
        {
          "city": "MT. STERLING",
          "state": 18,
          "stateSpecified": true
        }
      ],
      "orgNm": "HORTER INVESTMENT MANAGEMENT, LLC",
      "orgPK": "119880",
      "regBeginDt": "2012-10-05T00:00:00",
      "regBeginDtSpecified": true,
      "regEndDt": "2015-10-20T00:00:00",
      "regEndDtSpecified": true
    }
  ],
  "EmpHss": [
    {
      "fromDt": "04/2005",
      "toDt": "12/2006",
      "orgNm": "FIRST EQUITY CONSULTANTS, LLC",
      "city": "LEXINGTON",
      "state": 18,
      "stateSpecified": true
    },
    {
      "fromDt": "03/2006",
      "toDt": "12/2007",
      "orgNm": "EQUITY FIRST MORTGAGE, LLC",
      "city": "LEXINGTON",
      "state": 18,
      "stateSpecified": true
    },
    {
      "fromDt": "12/2006",
      "toDt": "12/2011",
      "orgNm": "FAMILY WEALTH STRATEGIES, LLC",
      "city": "LEXINGTON",
      "state": 18,
      "stateSpecified": true
    },
    {
      "fromDt": "02/2010",
      "toDt": "12/2011",
      "orgNm": "GLOBAL FINANCIAL PRIVATE CAPITAL, LLC",
      "city": "LEXINGTON",
      "state": 18,
      "stateSpecified": true
    },
    {
      "fromDt": "01/2011",
      "toDt": null,
      "orgNm": "SPARKS FINANCIAL GROUP",
      "city": "LEXINGTON",
      "state": 18,
      "stateSpecified": true
    },
    {
      "fromDt": "12/2011",
      "toDt": "10/2012",
      "orgNm": "ALPHASTAR CAPITAL MANAGEMENT",
      "city": "LEXINGTON",
      "state": 18,
      "stateSpecified": true
    },
    {
      "fromDt": "10/2012",
      "toDt": "10/2015",
      "orgNm": "HORTER INVESTMENT MANAGEMENT, LLC",
      "city": "CINCINNATI",
      "state": 36,
      "stateSpecified": true
    },
    {
      "fromDt": "10/2015",
      "toDt": null,
      "orgNm": "Secure Investment Managment, LLC",
      "city": "Tucson",
      "state": 3,
      "stateSpecified": true
    }
  ],
  "OthrBuss": {
    "OthrBus": {
      "desc": "Sparks Financial Group - Non-Investment Related Business - 1703 Oldham Road Mt. Sterling, KY 40356 - Insurance/Annuity related business - Owner - Start Date - 01/2011 - Present - 40 hours per week and during trading hours."
    }
  },
  "DRPs": []
}