{
  "Info": {
    "lastNm": "ANDERSON",
    "firstNm": "KYLE",
    "midNm": "ROYDEN",
    "sufNm": null,
    "indvlPK": "5765213",
    "actvAGReg": 0,
    "link": "http://www.adviserinfo.sec.gov/IAPD/Individual/5765213"
  },
  "OthrNms": [],
  "CrntEmps": [
    {
      "CrntRgstns": [
        {
          "regAuth": 4,
          "regCat": 0,
          "st": 2,
          "stDt": "2010-06-15T00:00:00"
        }
      ],
      "BrnchOfLocs": [
        {
          "str1": "18400 VON KARMAN AVENUE",
          "str2": "SUITE 400",
          "city": "IRVINE",
          "state": 4,
          "stateSpecified": true,
          "cntry": "United States",
          "postlCd": "92612-5011"
        }
      ],
      "orgNm": "LINCOLN FINANCIAL ADVISORS CORPORATION",
      "orgPK": "3978",
      "str1": "1300 SOUTH CLINTON STREET",
      "str2": "SUITE 150",
      "city": "FORT WAYNE",
      "state": 16,
      "stateSpecified": true,
      "cntry": "United States",
      "postlCd": "46802"
    }
  ],
  "Exms": [
    {
      "exmCd": 3,
      "exmNm": "Uniform Combined State Law Examination",
      "exmDt": "2010-06-04T00:00:00",
      "exmDtSpecified": true
    }
  ],
  "Dsgntns": [],
  "PrevRgstns": [],
  "EmpHss": [
    {
      "fromDt": "09/1994",
      "toDt": "06/2009",
      "orgNm": "VIDEO APPLICATIONS",
      "city": "TUSTIN",
      "state": 4,
      "stateSpecified": true
    },
    {
      "fromDt": "01/2008",
      "toDt": "12/2009",
      "orgNm": "CANTINAS RANCH CLP",
      "city": "COSTA MESA",
      "state": 4,
      "stateSpecified": true
    },
    {
      "fromDt": "12/2009",
      "toDt": null,
      "orgNm": "KYLE ANDERSON INSURANCE",
      "city": "COSTA MESA",
      "state": 4,
      "stateSpecified": true
    },
    {
      "fromDt": "06/2010",
      "toDt": null,
      "orgNm": "LINCOLN FINANCIAL ADVISORS",
      "city": "IRVINE",
      "state": 4,
      "stateSpecified": true
    }
  ],
  "OthrBuss": {
    "OthrBus": {
      "desc": "1)KYLE ANDERSON, 194 ALBERT PLACE, COSTA MESA, CA. 92627 INSURANCE, INVESTMENT RELATED, AGENT/SOLE PROPRIETOR OFFERING ACCIDENT AND HEALTH AND TRADITIONAL LIFE INSURANCE AND FIXED ANNUITIES. START DATE 04/06/2010 WORKING 40 HPM ALL DURING TRADING HOURS."
    }
  },
  "DRPs": []
}