{
  "Info": {
    "lastNm": "DUCATT",
    "firstNm": "DENNIS",
    "midNm": "JAMES",
    "sufNm": null,
    "indvlPK": "5772216",
    "actvAGReg": 0,
    "link": "http://www.adviserinfo.sec.gov/IAPD/Individual/5772216"
  },
  "OthrNms": [
    {
      "lastNm": "DUCATT",
      "firstNm": "DENNIS",
      "midNm": "J",
      "sufNm": null
    }
  ],
  "CrntEmps": [
    {
      "CrntRgstns": [
        {
          "regAuth": 12,
          "regCat": 0,
          "st": 2,
          "stDt": "2015-04-14T00:00:00"
        },
        {
          "regAuth": 4,
          "regCat": 0,
          "st": 2,
          "stDt": "2015-04-23T00:00:00"
        },
        {
          "regAuth": 47,
          "regCat": 0,
          "st": 2,
          "stDt": "2015-04-23T00:00:00"
        }
      ],
      "BrnchOfLocs": [
        {
          "str1": "900 FORT STREET MALL, SUITE 1200",
          "str2": null,
          "city": "HONOLULU",
          "state": 12,
          "stateSpecified": true,
          "cntry": "United States",
          "postlCd": "96813"
        }
      ],
      "orgNm": "WEALTHBRIDGE, INC.",
      "orgPK": "144198",
      "str1": "900 FORT STREET MALL",
      "str2": "SUITE 1200",
      "city": "HONOLULU",
      "state": 12,
      "stateSpecified": true,
      "cntry": "United States",
      "postlCd": "96813"
    },
    {
      "CrntRgstns": [
        {
          "regAuth": 12,
          "regCat": 0,
          "st": 2,
          "stDt": "2016-04-11T00:00:00"
        }
      ],
      "BrnchOfLocs": [
        {
          "str1": "1348 HUNAKAI ST",
          "str2": null,
          "city": "HONOLULU",
          "state": 12,
          "stateSpecified": true,
          "cntry": "United States",
          "postlCd": "96816"
        }
      ],
      "orgNm": "BANCWEST INVESTMENT SERVICES, INC.",
      "orgPK": "29357",
      "str1": "13220 CALIFORNIA STREET",
      "str2": "2ND FLOOR",
      "city": "OMAHA",
      "state": 30,
      "stateSpecified": true,
      "cntry": "United States",
      "postlCd": "68154-9750"
    }
  ],
  "Exms": [
    {
      "exmCd": 0,
      "exmNm": "Uniform Securities Agent State Law Examination",
      "exmDt": "2010-07-26T00:00:00",
      "exmDtSpecified": true
    },
    {
      "exmCd": 3,
      "exmNm": "Uniform Combined State Law Examination",
      "exmDt": "2014-06-04T00:00:00",
      "exmDtSpecified": true
    }
  ],
  "Dsgntns": [],
  "PrevRgstns": [
    {
      "BrnchOfLocs": [
        {
          "city": "HONOLULU",
          "state": 12,
          "stateSpecified": true
        },
        {
          "city": "HONOLULU",
          "state": 12,
          "stateSpecified": true
        }
      ],
      "orgNm": "BANKOH INVESTMENT SERVICES, INC.",
      "orgPK": "29280",
      "regBeginDt": "2014-06-05T00:00:00",
      "regBeginDtSpecified": true,
      "regEndDt": "2015-03-27T00:00:00",
      "regEndDtSpecified": true
    }
  ],
  "EmpHss": [
    {
      "fromDt": "01/2006",
      "toDt": "08/2009",
      "orgNm": "FIRST ASSEMBLY",
      "city": "HONOLULU",
      "state": 12,
      "stateSpecified": true
    },
    {
      "fromDt": "08/2009",
      "toDt": "10/2010",
      "orgNm": "MISSIONS CHINA",
      "city": "HONOLULU",
      "state": 12,
      "stateSpecified": true
    },
    {
      "fromDt": "10/2009",
      "toDt": "02/2012",
      "orgNm": "MUTUAL OF OMAHA",
      "city": "HONOLULU",
      "state": 12,
      "stateSpecified": true
    },
    {
      "fromDt": "02/2012",
      "toDt": "04/2015",
      "orgNm": "BANK OF HAWAII",
      "city": "HONOLULU",
      "state": 12,
      "stateSpecified": true
    },
    {
      "fromDt": "03/2012",
      "toDt": "04/2015",
      "orgNm": "BANKOH INVESTMENT SERVICES, INC.",
      "city": "HONOLULU",
      "state": 12,
      "stateSpecified": true
    },
    {
      "fromDt": "04/2015",
      "toDt": "03/2016",
      "orgNm": "CHANG HOLDING COMPANY INCORPORATED",
      "city": "HONOLULU",
      "state": 12,
      "stateSpecified": true
    },
    {
      "fromDt": "04/2015",
      "toDt": "04/2016",
      "orgNm": "WEALTHBRIDGE, INC",
      "city": "HONOLULU",
      "state": 12,
      "stateSpecified": true
    },
    {
      "fromDt": "04/2016",
      "toDt": null,
      "orgNm": "BANCWEST INVESTMENT SERVICES",
      "city": "HONOLULU",
      "state": 12,
      "stateSpecified": true
    }
  ],
  "OthrBuss": {
    "OthrBus": null
  },
  "DRPs": []
}