{
  "Info": {
    "lastNm": "DIMANDO",
    "firstNm": "CHRISTOPHER",
    "midNm": "J",
    "sufNm": null,
    "indvlPK": "5772038",
    "actvAGReg": 0,
    "link": "http://www.adviserinfo.sec.gov/IAPD/Individual/5772038"
  },
  "OthrNms": [
    {
      "lastNm": "DIMANDO",
      "firstNm": "CHRIS",
      "midNm": null,
      "sufNm": null
    }
  ],
  "CrntEmps": [
    {
      "CrntRgstns": [
        {
          "regAuth": 36,
          "regCat": 0,
          "st": 2,
          "stDt": "2013-07-11T00:00:00"
        }
      ],
      "BrnchOfLocs": [
        {
          "str1": "1070 COMMERCE DR BLDG 3",
          "str2": null,
          "city": "PERRYSBURG",
          "state": 36,
          "stateSpecified": true,
          "cntry": "United States",
          "postlCd": "43551-5259"
        }
      ],
      "orgNm": "AMERITAS INVESTMENT CORP.",
      "orgPK": "14869",
      "str1": "5900 \"O\" STREET",
      "str2": null,
      "city": "LINCOLN",
      "state": 30,
      "stateSpecified": true,
      "cntry": "United States",
      "postlCd": "68510"
    }
  ],
  "Exms": [],
  "Dsgntns": [],
  "PrevRgstns": [],
  "EmpHss": [
    {
      "fromDt": "02/2003",
      "toDt": "02/2015",
      "orgNm": "OHIO ARMY NATIONAL GUARD",
      "city": "SANDUSKY",
      "state": 36,
      "stateSpecified": true
    },
    {
      "fromDt": "03/2006",
      "toDt": "08/2006",
      "orgNm": "FRICKERS",
      "city": "SYLVANIA",
      "state": 36,
      "stateSpecified": true
    },
    {
      "fromDt": "05/2006",
      "toDt": "09/2007",
      "orgNm": "INVERNESS COUNTRY CLUB",
      "city": "TOLEDO",
      "state": 36,
      "stateSpecified": true
    },
    {
      "fromDt": "08/2006",
      "toDt": "05/2011",
      "orgNm": "THE UNIVERSITY OF TOLEDO",
      "city": "TOLEDO",
      "state": 36,
      "stateSpecified": true
    },
    {
      "fromDt": "01/2008",
      "toDt": "02/2009",
      "orgNm": "DEPLOYED OHIO ARMY NATIONAL GUARD (IRAQ)",
      "city": "SANDUSKY",
      "state": 36,
      "stateSpecified": true
    },
    {
      "fromDt": "08/2010",
      "toDt": "11/2010",
      "orgNm": "FRICKERS",
      "city": "PERRYSBURG",
      "state": 36,
      "stateSpecified": true
    },
    {
      "fromDt": "12/2010",
      "toDt": "01/2011",
      "orgNm": "NORTHWESTERN MUTUAL FINANCIAL NETWORK",
      "city": "TOLEDO",
      "state": 36,
      "stateSpecified": true
    },
    {
      "fromDt": "05/2011",
      "toDt": "09/2011",
      "orgNm": "UNEMPLOYED",
      "city": "TOLEDO",
      "state": 36,
      "stateSpecified": true
    },
    {
      "fromDt": "09/2011",
      "toDt": "11/2012",
      "orgNm": "DEPLOYED OHIO ARMY NATIONAL GUARD (AFGHANISTAN)",
      "city": "SANDUSKY",
      "state": 36,
      "stateSpecified": true
    },
    {
      "fromDt": "11/2012",
      "toDt": "01/2013",
      "orgNm": "UNEMPLOYED",
      "city": "TOLEDO",
      "state": 36,
      "stateSpecified": true
    },
    {
      "fromDt": "03/2013",
      "toDt": null,
      "orgNm": "AMERITAS INVESTMENT CORP",
      "city": "LINCOLN",
      "state": 30,
      "stateSpecified": true
    },
    {
      "fromDt": "03/2013",
      "toDt": null,
      "orgNm": "CREATIVE FINANCIAL PARTNERS",
      "city": "PERRYSBURG",
      "state": 36,
      "stateSpecified": true
    },
    {
      "fromDt": "01/2015",
      "toDt": null,
      "orgNm": "AMERITAS LIFE INSURANCE CORP",
      "city": "LINCOLN",
      "state": 30,
      "stateSpecified": true
    }
  ],
  "OthrBuss": {
    "OthrBus": {
      "desc": "LICENSED AS AN INDEPENDENT INSURANCE AGENT TO SELL FIXED INSURANCE PRODUCTS * CREATIVE FINANCIAL SERVICES; SAME AS BRANCH; INV REL; FIXED INSURANCE/FIXED ANNUITIES; AGENT; START DATE=03/2013; HRS/MO=20; TRADING HRS/MO=10; PROSPECTING/FACT FINDING FOR FIXED INSURANCE SALES"
    }
  },
  "DRPs": []
}