{
  "Info": {
    "lastNm": "PENCE",
    "firstNm": "JORDAN",
    "midNm": "RYAN",
    "sufNm": null,
    "indvlPK": "5780166",
    "actvAGReg": 0,
    "link": "http://www.adviserinfo.sec.gov/IAPD/Individual/5780166"
  },
  "OthrNms": [],
  "CrntEmps": [
    {
      "CrntRgstns": [
        {
          "regAuth": 45,
          "regCat": 0,
          "st": 2,
          "stDt": "2013-11-21T00:00:00"
        }
      ],
      "BrnchOfLocs": [
        {
          "str1": "4201 42ND STREET NE",
          "str2": "SUITE 100",
          "city": "CEDAR RAPIDS",
          "state": 13,
          "stateSpecified": true,
          "cntry": "United States",
          "postlCd": "52402"
        },
        {
          "str1": "717 S. COPPELL ROAD",
          "str2": null,
          "city": "COPPELL",
          "state": 45,
          "stateSpecified": true,
          "cntry": "United States",
          "postlCd": "75019"
        }
      ],
      "orgNm": "BFC PLANNING, INC.",
      "orgPK": "119682",
      "str1": "4201 42ND STREET NE",
      "str2": "SUITE 100",
      "city": "CEDAR RAPIDS",
      "state": 13,
      "stateSpecified": true,
      "cntry": "United States",
      "postlCd": "52402"
    }
  ],
  "Exms": [
    {
      "exmCd": 3,
      "exmNm": "Uniform Combined State Law Examination",
      "exmDt": "2010-07-21T00:00:00",
      "exmDtSpecified": true
    }
  ],
  "Dsgntns": [],
  "PrevRgstns": [
    {
      "BrnchOfLocs": [
        {
          "city": "ADDISON",
          "state": 45,
          "stateSpecified": true
        },
        {
          "city": "ADDISON",
          "state": 45,
          "stateSpecified": true
        },
        {
          "city": "COPPELL",
          "state": 45,
          "stateSpecified": true
        }
      ],
      "orgNm": "HORNOR, TOWNSEND & KENT, INC.",
      "orgPK": "4031",
      "regBeginDt": "2010-10-22T00:00:00",
      "regBeginDtSpecified": true,
      "regEndDt": "2013-11-01T00:00:00",
      "regEndDtSpecified": true
    }
  ],
  "EmpHss": [
    {
      "fromDt": "08/2006",
      "toDt": "06/2010",
      "orgNm": "UNIVERSITY OF ARKANSAS",
      "city": "FAYETTEVILLE",
      "state": 2,
      "stateSpecified": true
    },
    {
      "fromDt": "10/2009",
      "toDt": "06/2010",
      "orgNm": "TRAVELER",
      "city": "FAYETTEVILLE",
      "state": 2,
      "stateSpecified": true
    },
    {
      "fromDt": "10/2009",
      "toDt": "06/2010",
      "orgNm": "UNIV OF ARKANSAS COM STORE",
      "city": "FAYETTEVILLE",
      "state": 2,
      "stateSpecified": true
    },
    {
      "fromDt": "04/2010",
      "toDt": "11/2013",
      "orgNm": "HORNOR TOWNSEND & KENT INC",
      "city": "HORSHAM",
      "state": 39,
      "stateSpecified": true
    },
    {
      "fromDt": "04/2010",
      "toDt": "11/2013",
      "orgNm": "PENN MUTUAL LIFE INS CO",
      "city": "HORSHAM",
      "state": 39,
      "stateSpecified": true
    },
    {
      "fromDt": "11/2013",
      "toDt": null,
      "orgNm": "BFC PLANNING",
      "city": "MARION",
      "state": 13,
      "stateSpecified": true
    },
    {
      "fromDt": "11/2013",
      "toDt": null,
      "orgNm": "SECURITIES MANAGEMENT & RESEARCH,INC.",
      "city": "MARION",
      "state": 13,
      "stateSpecified": true
    }
  ],
  "OthrBuss": {
    "OthrBus": {
      "desc": "1.WEALTH CONCEPTS FINANCIAL/BROKERAGE-Y-COPPELL,TX-INSURANCE AND INVESTMENTS-FINANCIAL ADVISOR-04/2013-80-50-MEET CLIENTS & DISCOVER NEEDS.  2.SAFE TRACK-Y-COPPELL,TX-INSURANCE SALES-AGENT-11/2013-1-0-SALES AND CUSTOMER SERVICE.  3.ANICO-Y-COPPELL,TX-LIFE INSURANCE SALES-AGENT-10/2013-80-50-INSURANCE SALES.  4. JET FINANCIAL-N-COPPELL, TX-REAL ESTATE-CO-OWNER-01/2007-0-0-OWNS REAL ESTATE PROPERTY."
    }
  },
  "DRPs": []
}