{
  "Info": {
    "lastNm": "HEWITT",
    "firstNm": "LARRY",
    "midNm": "DON",
    "sufNm": null,
    "indvlPK": "5782275",
    "actvAGReg": 0,
    "link": "http://www.adviserinfo.sec.gov/IAPD/Individual/5782275"
  },
  "OthrNms": [],
  "CrntEmps": [
    {
      "CrntRgstns": [
        {
          "regAuth": 37,
          "regCat": 0,
          "st": 2,
          "stDt": "2015-05-22T00:00:00"
        }
      ],
      "BrnchOfLocs": [
        {
          "str1": "UTICA PLACE",
          "str2": "2200 SOUTH UTICA PLACE, FLOORS 2, 3 AND 5",
          "city": "TULSA",
          "state": 37,
          "stateSpecified": true,
          "cntry": "United States",
          "postlCd": "74114"
        }
      ],
      "orgNm": "MORGAN STANLEY",
      "orgPK": "149777",
      "str1": "2000 WESTCHESTER AVENUE",
      "str2": null,
      "city": "PURCHASE",
      "state": 35,
      "stateSpecified": true,
      "cntry": "United States",
      "postlCd": "10577-2530"
    }
  ],
  "Exms": [
    {
      "exmCd": 3,
      "exmNm": "Uniform Combined State Law Examination",
      "exmDt": "2010-06-01T00:00:00",
      "exmDtSpecified": true
    }
  ],
  "Dsgntns": [],
  "PrevRgstns": [
    {
      "BrnchOfLocs": [
        {
          "city": "TULSA",
          "state": 37,
          "stateSpecified": true
        },
        {
          "city": "Tulsa",
          "state": 37,
          "stateSpecified": true
        }
      ],
      "orgNm": "AMERIPRISE FINANCIAL SERVICES, INC.",
      "orgPK": "6363",
      "regBeginDt": "2010-06-02T00:00:00",
      "regBeginDtSpecified": true,
      "regEndDt": "2012-03-09T00:00:00",
      "regEndDtSpecified": true
    },
    {
      "BrnchOfLocs": [
        {
          "city": "TULSA",
          "state": 37,
          "stateSpecified": true
        }
      ],
      "orgNm": "MORGAN STANLEY",
      "orgPK": "149777",
      "regBeginDt": "2012-03-13T00:00:00",
      "regBeginDtSpecified": true,
      "regEndDt": "2014-04-14T00:00:00",
      "regEndDtSpecified": true
    }
  ],
  "EmpHss": [
    {
      "fromDt": "04/1986",
      "toDt": "11/2008",
      "orgNm": "BLUECROSS BLUESHIELD OF OK",
      "city": "TULSA",
      "state": 37,
      "stateSpecified": true
    },
    {
      "fromDt": "11/2008",
      "toDt": "07/2009",
      "orgNm": "INCEPTURE, INC.",
      "city": "JACKSONVILLE",
      "state": 9,
      "stateSpecified": true
    },
    {
      "fromDt": "07/2009",
      "toDt": "04/2010",
      "orgNm": "UNEMPLOYED",
      "city": "TULSA",
      "state": 37,
      "stateSpecified": true
    },
    {
      "fromDt": "04/2010",
      "toDt": "03/2012",
      "orgNm": "AMERIPRISE FINANCIAL SERVICES INC",
      "city": "TULSA",
      "state": 37,
      "stateSpecified": true
    },
    {
      "fromDt": "03/2012",
      "toDt": "04/2014",
      "orgNm": "MORGAN STANLEY SMITH BARNEY",
      "city": "TULSA",
      "state": 37,
      "stateSpecified": true
    },
    {
      "fromDt": "04/2014",
      "toDt": "05/2015",
      "orgNm": "RETIRED",
      "city": "TULSA",
      "state": 37,
      "stateSpecified": true
    },
    {
      "fromDt": "05/2015",
      "toDt": null,
      "orgNm": "MORGAN STANLEY",
      "city": "TULSA",
      "state": 37,
      "stateSpecified": true
    },
    {
      "fromDt": "06/2015",
      "toDt": null,
      "orgNm": "MORGAN STANLEY PRIVATE BANK, NATIONAL ASSOCIATION",
      "city": "NEW YORK",
      "state": 35,
      "stateSpecified": true
    }
  ],
  "OthrBuss": {
    "OthrBus": null
  },
  "DRPs": []
}