{
  "Info": {
    "lastNm": "LARKEY",
    "firstNm": "JENNIFER",
    "midNm": "LYNN",
    "sufNm": null,
    "indvlPK": "5782672",
    "actvAGReg": 0,
    "link": "http://www.adviserinfo.sec.gov/IAPD/Individual/5782672"
  },
  "OthrNms": [
    {
      "lastNm": "HAMILL",
      "firstNm": "JENNIFER",
      "midNm": "LYNN",
      "sufNm": null
    },
    {
      "lastNm": "LARKEY",
      "firstNm": "JENNIFER",
      "midNm": "L",
      "sufNm": null
    }
  ],
  "CrntEmps": [
    {
      "CrntRgstns": [
        {
          "regAuth": 45,
          "regCat": 0,
          "st": 2,
          "stDt": "2016-06-06T00:00:00"
        }
      ],
      "BrnchOfLocs": [
        {
          "str1": "1700 NORTH VALLEY MILLS DRIVE",
          "str2": null,
          "city": "WACO",
          "state": 45,
          "stateSpecified": true,
          "cntry": "United States",
          "postlCd": "76710"
        }
      ],
      "orgNm": "RAYMOND JAMES FINANCIAL SERVICES ADVISORS, INC",
      "orgPK": "149018",
      "str1": "880 CARILLON PARKWAY",
      "str2": null,
      "city": "SAINT PETERSBURG",
      "state": 9,
      "stateSpecified": true,
      "cntry": "United States",
      "postlCd": "33716"
    }
  ],
  "Exms": [
    {
      "exmCd": 0,
      "exmNm": "Uniform Securities Agent State Law Examination",
      "exmDt": "2010-06-08T00:00:00",
      "exmDtSpecified": true
    },
    {
      "exmCd": 3,
      "exmNm": "Uniform Combined State Law Examination",
      "exmDt": "2014-04-01T00:00:00",
      "exmDtSpecified": true
    }
  ],
  "Dsgntns": [],
  "PrevRgstns": [
    {
      "BrnchOfLocs": [
        {
          "city": "SAN ANTONIO",
          "state": 45,
          "stateSpecified": true
        },
        {
          "city": "WACO",
          "state": 45,
          "stateSpecified": true
        }
      ],
      "orgNm": "WELLS FARGO ADVISORS, LLC",
      "orgPK": "19616",
      "regBeginDt": "2014-04-01T00:00:00",
      "regBeginDtSpecified": true,
      "regEndDt": "2015-08-25T00:00:00",
      "regEndDtSpecified": true
    }
  ],
  "EmpHss": [
    {
      "fromDt": "02/2006",
      "toDt": "11/2008",
      "orgNm": "FIRST NATIONAL BANK TEXAS",
      "city": "KILLEEN",
      "state": 45,
      "stateSpecified": true
    },
    {
      "fromDt": "11/2008",
      "toDt": "01/2009",
      "orgNm": "UNEMPLOYED",
      "city": "GATESVILLE",
      "state": 45,
      "stateSpecified": true
    },
    {
      "fromDt": "01/2009",
      "toDt": "06/2010",
      "orgNm": "MAURICES",
      "city": "GATESVILLE",
      "state": 45,
      "stateSpecified": true
    },
    {
      "fromDt": "02/2010",
      "toDt": "12/2013",
      "orgNm": "CHASE INVESTMENT SERVICES",
      "city": "WACO",
      "state": 45,
      "stateSpecified": true
    },
    {
      "fromDt": "02/2010",
      "toDt": "12/2013",
      "orgNm": "JP MORGAN CHASE BANK NA",
      "city": "WACO",
      "state": 45,
      "stateSpecified": true
    },
    {
      "fromDt": "12/2013",
      "toDt": "04/2016",
      "orgNm": "WELLS FARGO BANK NA",
      "city": "WACO",
      "state": 45,
      "stateSpecified": true
    },
    {
      "fromDt": "01/2014",
      "toDt": "04/2016",
      "orgNm": "WELLS FARGO ADVISORS LLC",
      "city": "WACO",
      "state": 45,
      "stateSpecified": true
    },
    {
      "fromDt": "04/2016",
      "toDt": null,
      "orgNm": "EXTRACO BANKS",
      "city": "WACO",
      "state": 45,
      "stateSpecified": true
    },
    {
      "fromDt": "05/2016",
      "toDt": null,
      "orgNm": "RAYMOND JAMES FINANCIAL SERVICES, INC.",
      "city": "WACO",
      "state": 45,
      "stateSpecified": true
    },
    {
      "fromDt": "06/2016",
      "toDt": null,
      "orgNm": "RAYMOND JAMES FINANCIAL SERVICES ADVISORS INC.",
      "city": "WACO",
      "state": 45,
      "stateSpecified": true
    }
  ],
  "OthrBuss": {
    "OthrBus": {
      "desc": "1) EXTRACO BANKS - INVESTMENT RELATED - WACO, TX - BANK - FINANCIAL ADVISOR ADMINISTRATIVE ASSISTANT/CLIENT SERVICES CONSULTANT - 160 HOURS DEVOTED PER MONTH, SOME DURING TRADING HOURS, FINANCIAL ADVISOR ADMINISTRATIVE ASSISTANT AND CLIENT SERVICES CONSULTANT."
    }
  },
  "DRPs": []
}