{
  "Info": {
    "lastNm": "OCONNOR",
    "firstNm": "KEVIN",
    "midNm": "M",
    "sufNm": null,
    "indvlPK": "5798369",
    "actvAGReg": 0,
    "link": "http://www.adviserinfo.sec.gov/IAPD/Individual/5798369"
  },
  "OthrNms": [],
  "CrntEmps": [
    {
      "CrntRgstns": [
        {
          "regAuth": 21,
          "regCat": 0,
          "st": 2,
          "stDt": "2012-05-15T00:00:00"
        }
      ],
      "BrnchOfLocs": [
        {
          "str1": "201 INTERNATIONAL CIR",
          "str2": "SUITE 100",
          "city": "HUNT VALLEY",
          "state": 21,
          "stateSpecified": true,
          "cntry": "United States",
          "postlCd": "21030"
        }
      ],
      "orgNm": "NORTHWESTERN MUTUAL INVESTMENT SERVICES, LLC",
      "orgPK": "2881",
      "str1": "611 EAST WISCONSIN AVE",
      "str2": null,
      "city": "MILWAUKEE",
      "state": 50,
      "stateSpecified": true,
      "cntry": "United States",
      "postlCd": "53202-4797"
    }
  ],
  "Exms": [
    {
      "exmCd": 0,
      "exmNm": "Uniform Securities Agent State Law Examination",
      "exmDt": "2011-08-23T00:00:00",
      "exmDtSpecified": true
    },
    {
      "exmCd": 2,
      "exmNm": "Uniform Investment Adviser Law Examination",
      "exmDt": "2012-05-14T00:00:00",
      "exmDtSpecified": true
    }
  ],
  "Dsgntns": [],
  "PrevRgstns": [],
  "EmpHss": [
    {
      "fromDt": "08/2004",
      "toDt": "05/2007",
      "orgNm": "HEREFORD HIGH SCHOOL",
      "city": "HEREFORD",
      "state": 21,
      "stateSpecified": true
    },
    {
      "fromDt": "04/2005",
      "toDt": "08/2008",
      "orgNm": "GREYSTONE GOLF COURSE",
      "city": "WHITEHALL",
      "state": 21,
      "stateSpecified": true
    },
    {
      "fromDt": "08/2005",
      "toDt": "08/2008",
      "orgNm": "THE BALTIMORE COUNTY REVENUE AUTHORITY",
      "city": "BALTIMORE",
      "state": 21,
      "stateSpecified": true
    },
    {
      "fromDt": "12/2006",
      "toDt": "03/2007",
      "orgNm": "DAMONS BAR & GRILL",
      "city": "COCKEYSVILLE",
      "state": 21,
      "stateSpecified": true
    },
    {
      "fromDt": "08/2007",
      "toDt": "05/2011",
      "orgNm": "MT SAINT MARY'S COLLEGE",
      "city": "EMMITSBURG",
      "state": 21,
      "stateSpecified": true
    },
    {
      "fromDt": "05/2008",
      "toDt": "08/2008",
      "orgNm": "CIMINO OFFICE SYSTEMS",
      "city": "BALTIMORE",
      "state": 21,
      "stateSpecified": true
    },
    {
      "fromDt": "12/2008",
      "toDt": "03/2009",
      "orgNm": "SKI LIBERTY",
      "city": "CARROLL VALLEY",
      "state": 39,
      "stateSpecified": true
    },
    {
      "fromDt": "06/2009",
      "toDt": "08/2009",
      "orgNm": "THE BALTIMORE COUNTY REVENUE AUTHORITY",
      "city": "EAST BALTIMORE",
      "state": 21,
      "stateSpecified": true
    },
    {
      "fromDt": "11/2009",
      "toDt": "03/2010",
      "orgNm": "SKI LIBERTY",
      "city": "CARROLL VALLEY",
      "state": 39,
      "stateSpecified": true
    },
    {
      "fromDt": "06/2010",
      "toDt": null,
      "orgNm": "NORTHWESTERN MUTUAL LIFE INSURANCE COMPANY",
      "city": "MILWAUKEE",
      "state": 50,
      "stateSpecified": true
    },
    {
      "fromDt": "06/2011",
      "toDt": null,
      "orgNm": "NORTHWESTERN MUTUAL INVESTMENT SERVICES, LLC",
      "city": "HUNT VALLEY",
      "state": 21,
      "stateSpecified": true
    },
    {
      "fromDt": "01/2016",
      "toDt": null,
      "orgNm": "Northwestern Mutual Wealth Management Company",
      "city": "Milwaukee",
      "state": 50,
      "stateSpecified": true
    }
  ],
  "OthrBuss": {
    "OthrBus": {
      "desc": "MAY EARN COMMISSIONS FROM INSURANCE COMPANIES NOT AFFILIATED WITH NORTHWESTERN MUTUAL FOR SALES OF NON-VARIABLE LIFE, HEALTH, ANNUITY AND/OR DISABILITY INCOME INSURANCE PRODUCTS."
    }
  },
  "DRPs": []
}