{
  "Info": {
    "lastNm": "LAIRD",
    "firstNm": "AMBER",
    "midNm": "MARIE",
    "sufNm": null,
    "indvlPK": "5800990",
    "actvAGReg": 0,
    "link": "http://www.adviserinfo.sec.gov/IAPD/Individual/5800990"
  },
  "OthrNms": [],
  "CrntEmps": [
    {
      "CrntRgstns": [
        {
          "regAuth": 30,
          "regCat": 0,
          "st": 2,
          "stDt": "2015-07-15T00:00:00"
        }
      ],
      "BrnchOfLocs": [
        {
          "str1": "5800 HIDCOTE DRIVE",
          "str2": "SUITE 200",
          "city": "LINCOLN",
          "state": 30,
          "stateSpecified": true,
          "cntry": "United States",
          "postlCd": "68516"
        }
      ],
      "orgNm": "UBS FINANCIAL SERVICES INC.",
      "orgPK": "8174",
      "str1": "1200 HARBOR BOULEVARD",
      "str2": null,
      "city": "WEEHAWKEN",
      "state": 32,
      "stateSpecified": true,
      "cntry": "United States",
      "postlCd": "07086"
    }
  ],
  "Exms": [
    {
      "exmCd": 3,
      "exmNm": "Uniform Combined State Law Examination",
      "exmDt": "2011-02-11T00:00:00",
      "exmDtSpecified": true
    }
  ],
  "Dsgntns": [],
  "PrevRgstns": [
    {
      "BrnchOfLocs": [
        {
          "city": "HOUSTON",
          "state": 45,
          "stateSpecified": true
        }
      ],
      "orgNm": "MORGAN KEEGAN & COMPANY, LLC",
      "orgPK": "4161",
      "regBeginDt": "2011-02-14T00:00:00",
      "regBeginDtSpecified": true,
      "regEndDt": "2013-02-13T00:00:00",
      "regEndDtSpecified": true
    },
    {
      "BrnchOfLocs": [
        {
          "city": "HOUSTON",
          "state": 45,
          "stateSpecified": true
        }
      ],
      "orgNm": "RAYMOND JAMES & ASSOCIATES, INC.",
      "orgPK": "705",
      "regBeginDt": "2013-02-13T00:00:00",
      "regBeginDtSpecified": true,
      "regEndDt": "2015-07-13T00:00:00",
      "regEndDtSpecified": true
    }
  ],
  "EmpHss": [
    {
      "fromDt": "06/2005",
      "toDt": "06/2010",
      "orgNm": "TEXAS TECH UNIVERSITY",
      "city": "LUBBOCK",
      "state": 45,
      "stateSpecified": true
    },
    {
      "fromDt": "06/2010",
      "toDt": "02/2013",
      "orgNm": "MORGAN KEEGAN",
      "city": "HOUSTON",
      "state": 45,
      "stateSpecified": true
    },
    {
      "fromDt": "02/2013",
      "toDt": "07/2015",
      "orgNm": "RAYMOND JAMES & ASSOCIATES, INC.",
      "city": "HOUSTON",
      "state": 45,
      "stateSpecified": true
    },
    {
      "fromDt": "07/2015",
      "toDt": null,
      "orgNm": "UBS",
      "city": "DENVER",
      "state": 5,
      "stateSpecified": true
    }
  ],
  "OthrBuss": {
    "OthrBus": null
  },
  "DRPs": []
}