{
  "Info": {
    "lastNm": "MCCONNELL",
    "firstNm": "MATTHEW",
    "midNm": "J",
    "sufNm": null,
    "indvlPK": "5803376",
    "actvAGReg": 0,
    "link": "http://www.adviserinfo.sec.gov/IAPD/Individual/5803376"
  },
  "OthrNms": [
    {
      "lastNm": "MC CONNELL",
      "firstNm": "MATTHEW",
      "midNm": "J",
      "sufNm": null
    }
  ],
  "CrntEmps": [
    {
      "CrntRgstns": [
        {
          "regAuth": 47,
          "regCat": 0,
          "st": 2,
          "stDt": "2014-09-03T00:00:00"
        }
      ],
      "BrnchOfLocs": [
        {
          "str1": "16583 FOREST ROAD",
          "str2": null,
          "city": "FOREST",
          "state": 47,
          "stateSpecified": true,
          "cntry": "United States",
          "postlCd": "24551"
        }
      ],
      "orgNm": "AMERIPRISE FINANCIAL SERVICES, INC.",
      "orgPK": "6363",
      "str1": "707 2ND AVENUE SOUTH",
      "str2": null,
      "city": "MINNEAPOLIS",
      "state": 24,
      "stateSpecified": true,
      "cntry": "United States",
      "postlCd": "55402"
    }
  ],
  "Exms": [
    {
      "exmCd": 3,
      "exmNm": "Uniform Combined State Law Examination",
      "exmDt": "2014-04-30T00:00:00",
      "exmDtSpecified": true
    }
  ],
  "Dsgntns": [],
  "PrevRgstns": [],
  "EmpHss": [
    {
      "fromDt": "01/2005",
      "toDt": "01/2010",
      "orgNm": "CENTRAL VIRGINIA COMMUNITY COLLEGE",
      "city": "LYNCHBURG",
      "state": 47,
      "stateSpecified": true
    },
    {
      "fromDt": "01/2010",
      "toDt": "12/2011",
      "orgNm": "VIRGINIA TECH",
      "city": "BLACKSBURG",
      "state": 47,
      "stateSpecified": true
    },
    {
      "fromDt": "12/2011",
      "toDt": "12/2013",
      "orgNm": "UNEMPLOYED",
      "city": "FOREST",
      "state": 47,
      "stateSpecified": true
    },
    {
      "fromDt": "01/2014",
      "toDt": null,
      "orgNm": "AMERIPRISE FINANCIAL SERVICES, INC.",
      "city": "FOREST",
      "state": 47,
      "stateSpecified": true
    }
  ],
  "OthrBuss": {
    "OthrBus": null
  },
  "DRPs": []
}