{
  "Info": {
    "lastNm": "PAVLIC",
    "firstNm": "MADELYN",
    "midNm": "ELIZABETH",
    "sufNm": null,
    "indvlPK": "5809172",
    "actvAGReg": 0,
    "link": "http://www.adviserinfo.sec.gov/IAPD/Individual/5809172"
  },
  "OthrNms": [
    {
      "lastNm": "PAVLIC",
      "firstNm": "MADELYN",
      "midNm": null,
      "sufNm": null
    }
  ],
  "CrntEmps": [
    {
      "CrntRgstns": [
        {
          "regAuth": 15,
          "regCat": 0,
          "st": 2,
          "stDt": "2014-01-01T00:00:00"
        }
      ],
      "BrnchOfLocs": [
        {
          "str1": "222 W ADAMS ST",
          "str2": null,
          "city": "CHICAGO",
          "state": 15,
          "stateSpecified": true,
          "cntry": "United States",
          "postlCd": "60606"
        },
        {
          "str1": "222 W. ADAMS",
          "str2": null,
          "city": "CHICAGO",
          "state": 15,
          "stateSpecified": true,
          "cntry": "United States",
          "postlCd": "60606"
        },
        {
          "str1": "222 WEST ADAMS ST",
          "str2": null,
          "city": "CHICAGO",
          "state": 15,
          "stateSpecified": true,
          "cntry": "UNITED STATES",
          "postlCd": "60606-5312"
        }
      ],
      "orgNm": "WILLIAM BLAIR",
      "orgPK": "1252",
      "str1": "222 W ADAMS ST",
      "str2": null,
      "city": "CHICAGO",
      "state": 15,
      "stateSpecified": true,
      "cntry": "United States",
      "postlCd": "60606"
    }
  ],
  "Exms": [
    {
      "exmCd": 3,
      "exmNm": "Uniform Combined State Law Examination",
      "exmDt": "2013-12-27T00:00:00",
      "exmDtSpecified": true
    }
  ],
  "Dsgntns": [],
  "PrevRgstns": [],
  "EmpHss": [
    {
      "fromDt": "08/2002",
      "toDt": "10/2008",
      "orgNm": "PAVLIC INVESTMENT ADVISORS",
      "city": "DELAFIELD",
      "state": 50,
      "stateSpecified": true
    },
    {
      "fromDt": "08/2006",
      "toDt": "05/2010",
      "orgNm": "SAINT LOUIS UNIVERSITY",
      "city": "SAINT LOUIS",
      "state": 25,
      "stateSpecified": true
    },
    {
      "fromDt": "10/2008",
      "toDt": "05/2010",
      "orgNm": "KENNEDY CAPITAL MANAGEMENT",
      "city": "ST. LOUIS",
      "state": 25,
      "stateSpecified": true
    },
    {
      "fromDt": "06/2010",
      "toDt": null,
      "orgNm": "WILLIAM BLAIR & COMPANY",
      "city": "CHICAGO",
      "state": 15,
      "stateSpecified": true
    }
  ],
  "OthrBuss": {
    "OthrBus": null
  },
  "DRPs": []
}