{
  "Info": {
    "lastNm": "RICHARDSON",
    "firstNm": "SCOTT",
    "midNm": "SHEPHERD",
    "sufNm": null,
    "indvlPK": "5818131",
    "actvAGReg": 0,
    "link": "http://www.adviserinfo.sec.gov/IAPD/Individual/5818131"
  },
  "OthrNms": [],
  "CrntEmps": [
    {
      "CrntRgstns": [
        {
          "regAuth": 10,
          "regCat": 0,
          "st": 2,
          "stDt": "2010-09-07T00:00:00"
        }
      ],
      "BrnchOfLocs": [
        {
          "str1": "136 BULL STREET",
          "str2": null,
          "city": "SAVANNAH",
          "state": 10,
          "stateSpecified": true,
          "cntry": "United States",
          "postlCd": "31401"
        },
        {
          "str1": "311 JOHNNY MERCER BOULEVARD",
          "str2": null,
          "city": "SAVANNAH",
          "state": 10,
          "stateSpecified": true,
          "cntry": "United States",
          "postlCd": "31410"
        },
        {
          "str1": "3280 PEACHTREE RD NE STES 300 & 400",
          "str2": "[G2-RBO]",
          "city": "ATLANTA",
          "state": 10,
          "stateSpecified": true,
          "cntry": "United States",
          "postlCd": "30305"
        },
        {
          "str1": "5703 WATERS AVE",
          "str2": null,
          "city": "SAVANNAH",
          "state": 10,
          "stateSpecified": true,
          "cntry": "United States",
          "postlCd": "31404"
        }
      ],
      "orgNm": "WELLS FARGO ADVISORS, LLC",
      "orgPK": "19616",
      "str1": "ONE NORTH JEFFERSON AVENUE",
      "str2": "MAIL CODE: H0004-050",
      "city": "ST. LOUIS",
      "state": 25,
      "stateSpecified": true,
      "cntry": "United States",
      "postlCd": "63103-2205"
    }
  ],
  "Exms": [
    {
      "exmCd": 3,
      "exmNm": "Uniform Combined State Law Examination",
      "exmDt": "2010-09-03T00:00:00",
      "exmDtSpecified": true
    }
  ],
  "Dsgntns": [],
  "PrevRgstns": [],
  "EmpHss": [
    {
      "fromDt": "01/2006",
      "toDt": "06/2010",
      "orgNm": "HAMPTON ISLAND REALTY, LLC",
      "city": "RICEBORO",
      "state": 10,
      "stateSpecified": true
    },
    {
      "fromDt": "06/2010",
      "toDt": null,
      "orgNm": "WELLS FARGO ADVISORS LLC",
      "city": "SAVANNAH",
      "state": 10,
      "stateSpecified": true
    }
  ],
  "OthrBuss": {
    "OthrBus": {
      "desc": "WHITE BUFFALO, LLC, INVESTMENT RELATED, SAVANNAH, GA, 49% OWNERS, RENTAL,START: 2006, 1-2 HOURS PER MONTH/0 DURING TRADING, DUTIES: OWN 3 PROPERTIES, (SIX TOTAL UNITS) WHICH ARE PRIMARILY RENTED TO STUDENTS.- RENTAL PROPERTY; INVESTMENT RELATED; SAVANNAH, GA; 100% OWNERSHIP WITH SPOUSE; START DATE = 01/01/2012; ONE HOUR DEVOTED PER MONTH; NOT DURING TRADING HOURS.  RENTAL PROPERTY; INV RELATED; SAVANNAH, GA; CO-OWNER; START DATE 10/16/2014; 1 HR PER MONTH; 0 HRS DURING TRADING.  BULL-TIDE LLC, NOT INV RELATED, TOWNSEND, GA, 50% OWNER, START: 8/2015, 0 HOURS, DUTIES: GOLF MEMBERSHIP"
    }
  },
  "DRPs": [
    {
      "hasRegAction": 1,
      "hasRegActionSpecified": true,
      "hasCriminal": 1,
      "hasCriminalSpecified": true,
      "hasBankrupt": 1,
      "hasBankruptSpecified": true,
      "hasCivilJudc": 1,
      "hasCivilJudcSpecified": true,
      "hasBond": 1,
      "hasBondSpecified": true,
      "hasJudgment": 1,
      "hasJudgmentSpecified": true,
      "hasInvstgn": 1,
      "hasInvstgnSpecified": true,
      "hasCustComp": 0,
      "hasCustCompSpecified": true,
      "hasTermination": 1,
      "hasTerminationSpecified": true
    }
  ]
}