{
  "Info": {
    "lastNm": "ELLINGER",
    "firstNm": "VICTORIA",
    "midNm": "LOUISE",
    "sufNm": null,
    "indvlPK": "5821488",
    "actvAGReg": 0,
    "link": "http://www.adviserinfo.sec.gov/IAPD/Individual/5821488"
  },
  "OthrNms": [
    {
      "lastNm": "COLEMAN",
      "firstNm": "VICKI",
      "midNm": "LOUISE",
      "sufNm": null
    },
    {
      "lastNm": "ELLINGER",
      "firstNm": "VICTORIA",
      "midNm": null,
      "sufNm": null
    }
  ],
  "CrntEmps": [
    {
      "CrntRgstns": [
        {
          "regAuth": 36,
          "regCat": 0,
          "st": 2,
          "stDt": "2013-01-30T00:00:00"
        }
      ],
      "BrnchOfLocs": [
        {
          "str1": "3200 W MARKET ST",
          "str2": "STE 300",
          "city": "AKRON",
          "state": 36,
          "stateSpecified": true,
          "cntry": "United States",
          "postlCd": "44333-3326"
        }
      ],
      "orgNm": "AMERIPRISE FINANCIAL SERVICES, INC.",
      "orgPK": "6363",
      "str1": "707 2ND AVENUE SOUTH",
      "str2": null,
      "city": "MINNEAPOLIS",
      "state": 24,
      "stateSpecified": true,
      "cntry": "United States",
      "postlCd": "55402"
    }
  ],
  "Exms": [
    {
      "exmCd": 3,
      "exmNm": "Uniform Combined State Law Examination",
      "exmDt": "2010-11-02T00:00:00",
      "exmDtSpecified": true
    }
  ],
  "Dsgntns": [],
  "PrevRgstns": [
    {
      "BrnchOfLocs": [
        {
          "city": "AKRON",
          "state": 36,
          "stateSpecified": true
        }
      ],
      "orgNm": "MORGAN STANLEY",
      "orgPK": "149777",
      "regBeginDt": "2010-11-03T00:00:00",
      "regBeginDtSpecified": true,
      "regEndDt": "2011-09-07T00:00:00",
      "regEndDtSpecified": true
    },
    {
      "BrnchOfLocs": [
        {
          "city": "HUDSON",
          "state": 36,
          "stateSpecified": true
        }
      ],
      "orgNm": "AMERIPRISE FINANCIAL SERVICES, INC.",
      "orgPK": "6363",
      "regBeginDt": "2011-11-30T00:00:00",
      "regBeginDtSpecified": true,
      "regEndDt": "2013-01-02T00:00:00",
      "regEndDtSpecified": true
    }
  ],
  "EmpHss": [
    {
      "fromDt": "10/2004",
      "toDt": "08/2007",
      "orgNm": "UNIVISION",
      "city": "TORONTO",
      "stateSpecified": false
    },
    {
      "fromDt": "09/2007",
      "toDt": "12/2009",
      "orgNm": "AMERIDIAL/DCCI",
      "city": "NORTH CANTON",
      "state": 36,
      "stateSpecified": true
    },
    {
      "fromDt": "01/2010",
      "toDt": "06/2010",
      "orgNm": "INDEPENDENT CONSULTING",
      "city": "AKRON",
      "state": 36,
      "stateSpecified": true
    },
    {
      "fromDt": "07/2010",
      "toDt": "08/2011",
      "orgNm": "MORGAN STANLEY SMITH BARNEY",
      "city": "AKRON",
      "state": 36,
      "stateSpecified": true
    },
    {
      "fromDt": "11/2011",
      "toDt": null,
      "orgNm": "AMERIPRISE FINANCIAL SERVICES INC",
      "city": "AKRON",
      "state": 36,
      "stateSpecified": true
    }
  ],
  "OthrBuss": {
    "OthrBus": null
  },
  "DRPs": []
}