{
  "Info": {
    "lastNm": "MARTINEK",
    "firstNm": "BRANDON",
    "midNm": "G",
    "sufNm": null,
    "indvlPK": "5823076",
    "actvAGReg": 0,
    "link": "http://www.adviserinfo.sec.gov/IAPD/Individual/5823076"
  },
  "OthrNms": [],
  "CrntEmps": [
    {
      "CrntRgstns": [
        {
          "regAuth": 50,
          "regCat": 0,
          "st": 2,
          "stDt": "2010-10-20T00:00:00"
        },
        {
          "regAuth": 9,
          "regCat": 0,
          "st": 2,
          "stDt": "2014-08-04T00:00:00"
        },
        {
          "regAuth": 20,
          "regCat": 0,
          "st": 2,
          "stDt": "2014-08-25T00:00:00"
        },
        {
          "regAuth": 2,
          "regCat": 0,
          "st": 2,
          "stDt": "2014-09-19T00:00:00"
        }
      ],
      "BrnchOfLocs": [
        {
          "str1": "3051 PROGRESS WAY",
          "str2": "STE 208",
          "city": "KAUKAUNA",
          "state": 50,
          "stateSpecified": true,
          "cntry": "United States",
          "postlCd": "54130"
        }
      ],
      "orgNm": "SII INVESTMENTS, INC.",
      "orgPK": "2225",
      "str1": "5555 W GRANDE MARKET DRIVE",
      "str2": null,
      "city": "APPLETON",
      "state": 50,
      "stateSpecified": true,
      "cntry": "United States",
      "postlCd": "54913-8403"
    }
  ],
  "Exms": [
    {
      "exmCd": 3,
      "exmNm": "Uniform Combined State Law Examination",
      "exmDt": "2010-10-19T00:00:00",
      "exmDtSpecified": true
    }
  ],
  "Dsgntns": [],
  "PrevRgstns": [
    {
      "BrnchOfLocs": [
        {
          "city": "APPLETON",
          "state": 50,
          "stateSpecified": true
        }
      ],
      "orgNm": "INVESTMENT CENTERS OF AMERICA, INC.",
      "orgPK": "16443",
      "regBeginDt": "2010-10-20T00:00:00",
      "regBeginDtSpecified": true,
      "regEndDt": "2014-05-06T00:00:00",
      "regEndDtSpecified": true
    }
  ],
  "EmpHss": [
    {
      "fromDt": "09/2005",
      "toDt": "05/2010",
      "orgNm": "FULL-TIME STUDENT",
      "city": "MADISON",
      "state": 50,
      "stateSpecified": true
    },
    {
      "fromDt": "05/2006",
      "toDt": "08/2006",
      "orgNm": "ANDREW SCHMIDT INVESTMENTS",
      "city": "APPLETON",
      "state": 50,
      "stateSpecified": true
    },
    {
      "fromDt": "05/2007",
      "toDt": "09/2009",
      "orgNm": "WALTERS FINANCIAL GROUP",
      "city": "GREENVILLE",
      "state": 50,
      "stateSpecified": true
    },
    {
      "fromDt": "05/2010",
      "toDt": "07/2010",
      "orgNm": "UNEMPLOYED",
      "city": "APPLETON",
      "state": 50,
      "stateSpecified": true
    },
    {
      "fromDt": "07/2010",
      "toDt": "05/2014",
      "orgNm": "SII INVESTMENTS, INC.",
      "city": "APPLETON",
      "state": 50,
      "stateSpecified": true
    },
    {
      "fromDt": "05/2014",
      "toDt": null,
      "orgNm": "SII INVESTMENTS",
      "city": "KAUKAUNA",
      "state": 50,
      "stateSpecified": true
    }
  ],
  "OthrBuss": {
    "OthrBus": {
      "desc": "1) VALLEY INVESTMENT SOLUTIONS, LLC - REPRESENTATIVE INVOLVED WITH SALES & SERVICE OF FIXED INSURANCE PRODUCTS.  2) TAX SERVICES - TAX PREPARER."
    }
  },
  "DRPs": []
}