{
  "Info": {
    "lastNm": "TAMBURELLO",
    "firstNm": "STEPHANIE",
    "midNm": "A",
    "sufNm": null,
    "indvlPK": "5823386",
    "actvAGReg": 0,
    "link": "http://www.adviserinfo.sec.gov/IAPD/Individual/5823386"
  },
  "OthrNms": [
    {
      "lastNm": "BUYAJIAN",
      "firstNm": "STEPHANIE",
      "midNm": "ANN",
      "sufNm": null
    },
    {
      "lastNm": "BUYAJIAN",
      "firstNm": "STEPHANIE",
      "midNm": "ANN",
      "sufNm": null
    },
    {
      "lastNm": "TAMBURELLO",
      "firstNm": "STEPHANIE",
      "midNm": "ANN",
      "sufNm": null
    },
    {
      "lastNm": "TAMBURELLO",
      "firstNm": "STEPHANIE",
      "midNm": "ANN",
      "sufNm": null
    }
  ],
  "CrntEmps": [
    {
      "CrntRgstns": [
        {
          "regAuth": 45,
          "regCat": 0,
          "st": 2,
          "stDt": "2014-12-09T00:00:00"
        }
      ],
      "BrnchOfLocs": [
        {
          "str1": "17225 EL CAMINO REAL",
          "str2": null,
          "city": "HOUSTON",
          "state": 45,
          "stateSpecified": true,
          "cntry": "United States",
          "postlCd": "77058"
        }
      ],
      "orgNm": "MERRILL LYNCH, PIERCE, FENNER & SMITH INCORPORATED",
      "orgPK": "7691",
      "str1": "ONE BRYANT PARK",
      "str2": null,
      "city": "NEW YORK",
      "state": 35,
      "stateSpecified": true,
      "cntry": "United States",
      "postlCd": "10036"
    }
  ],
  "Exms": [
    {
      "exmCd": 0,
      "exmNm": "Uniform Securities Agent State Law Examination",
      "exmDt": "2011-06-24T00:00:00",
      "exmDtSpecified": true
    },
    {
      "exmCd": 3,
      "exmNm": "Uniform Combined State Law Examination",
      "exmDt": "2014-12-05T00:00:00",
      "exmDtSpecified": true
    }
  ],
  "Dsgntns": [],
  "PrevRgstns": [],
  "EmpHss": [
    {
      "fromDt": "09/2001",
      "toDt": "09/2006",
      "orgNm": "RT REPORTING",
      "city": "HOUSTON",
      "state": 45,
      "stateSpecified": true
    },
    {
      "fromDt": "09/2006",
      "toDt": "03/2014",
      "orgNm": "TAMBURELLO REPORTING SERVICE",
      "city": "HOUSTON",
      "state": 45,
      "stateSpecified": true
    },
    {
      "fromDt": "07/2010",
      "toDt": "01/2011",
      "orgNm": "AXA ADVISORS, LLC",
      "city": "NEW YORK",
      "state": 35,
      "stateSpecified": true
    },
    {
      "fromDt": "06/2011",
      "toDt": "03/2014",
      "orgNm": "AXA ADVISORS, LLC",
      "city": "NEW YORK",
      "state": 35,
      "stateSpecified": true
    },
    {
      "fromDt": "03/2014",
      "toDt": null,
      "orgNm": "MERRILL LYNCH, PIERCE, FENNER & SMITH INCORPORATED",
      "city": "HOUSTON",
      "state": 45,
      "stateSpecified": true
    },
    {
      "fromDt": "12/2014",
      "toDt": null,
      "orgNm": "BANK OF AMERICA, N.A.",
      "city": "HOUSTON",
      "state": 45,
      "stateSpecified": true
    }
  ],
  "OthrBuss": {
    "OthrBus": null
  },
  "DRPs": []
}