{
  "Info": {
    "lastNm": "ABERSON",
    "firstNm": "AARON",
    "midNm": "JARRET",
    "sufNm": "MR.",
    "indvlPK": "5828415",
    "actvAGReg": 1,
    "link": "http://www.adviserinfo.sec.gov/IAPD/Individual/5828415"
  },
  "OthrNms": [],
  "CrntEmps": [
    {
      "CrntRgstns": [
        {
          "regAuth": 10,
          "regCat": 0,
          "st": 2,
          "stDt": "2010-10-04T00:00:00"
        }
      ],
      "BrnchOfLocs": [
        {
          "str1": "3379 PEACHTREE ROAD NE",
          "str2": "SUITE 230",
          "city": "ATLANTA",
          "state": 10,
          "stateSpecified": true,
          "cntry": "United States",
          "postlCd": "30326"
        }
      ],
      "orgNm": "AJAX CAPITAL ADVISORS, INC.",
      "orgPK": "150229",
      "str1": "3379 PEACHTREE ROAD NE",
      "str2": "SUITE 230",
      "city": "ATLANTA",
      "state": 10,
      "stateSpecified": true,
      "cntry": "United States",
      "postlCd": "30326"
    }
  ],
  "Exms": [
    {
      "exmCd": 2,
      "exmNm": "Uniform Investment Adviser Law Examination",
      "exmDt": "2010-10-01T00:00:00",
      "exmDtSpecified": true
    }
  ],
  "Dsgntns": [],
  "PrevRgstns": [],
  "EmpHss": [
    {
      "fromDt": "06/2005",
      "toDt": "09/2012",
      "orgNm": "AARON J. ABERSON, LLC",
      "city": "ROSWELL",
      "state": 10,
      "stateSpecified": true
    },
    {
      "fromDt": "08/2010",
      "toDt": null,
      "orgNm": "AJAX CAPITAL ADVISORS, INC.",
      "city": "ATLANTA",
      "state": 10,
      "stateSpecified": true
    }
  ],
  "OthrBuss": {
    "OthrBus": {
      "desc": "I AM PRESENTLY EMPLOYED AS AN INDEPENDENT CONTRACTOR/ATTORNEY WITH THE MANELY LAW FIRM, JUSTICE CAFÉ, 211 ROSWELL STREET, MARIETTA, GA. 30060.  THIS WORK INVOLVES NO INVESTMENT RELATED ACTIVITIES, BUT IS PURELY LEGAL IN NATURE.  THIS WORK INVOLVES THE REPRESENTATION OF THE FIRM'S CLIENTS IN FAMILY LAW MATTERS, AND OTHER CIVIL LITIGATION.  I BEGAN THIS WORK IN APRIL, 2014.  THE AMOUNT OF TIME SPENT IN THIS WORK VARIES, BUT SEEMS TO AVERAGE AROUND 15-20 HOURS PER WEEK, MOSTLY PERFORMED DURING TRADING HOURS."
    }
  },
  "DRPs": []
}