{
  "Info": {
    "lastNm": "PIERCE",
    "firstNm": "MICHAEL",
    "midNm": "DOUGLAS",
    "sufNm": null,
    "indvlPK": "5829772",
    "actvAGReg": 0,
    "link": "http://www.adviserinfo.sec.gov/IAPD/Individual/5829772"
  },
  "OthrNms": [],
  "CrntEmps": [
    {
      "CrntRgstns": [
        {
          "regAuth": 4,
          "regCat": 0,
          "st": 2,
          "stDt": "2012-01-04T00:00:00"
        }
      ],
      "BrnchOfLocs": [
        {
          "str1": "1995 UNIVERSITY AVE - STE 120",
          "str2": null,
          "city": "BERKELEY",
          "state": 4,
          "stateSpecified": true,
          "cntry": "United States",
          "postlCd": "94704"
        }
      ],
      "orgNm": "STRATEGIC ADVISERS, INC.",
      "orgPK": "104555",
      "str1": "245 SUMMER STREET, V10G",
      "str2": null,
      "city": "BOSTON",
      "state": 20,
      "stateSpecified": true,
      "cntry": "United States",
      "postlCd": "02210"
    }
  ],
  "Exms": [
    {
      "exmCd": 3,
      "exmNm": "Uniform Combined State Law Examination",
      "exmDt": "2011-07-11T00:00:00",
      "exmDtSpecified": true
    }
  ],
  "Dsgntns": [],
  "PrevRgstns": [],
  "EmpHss": [
    {
      "fromDt": "06/2006",
      "toDt": "09/2010",
      "orgNm": "CHATHAM BARS INN",
      "city": "CHATHAM",
      "state": 20,
      "stateSpecified": true
    },
    {
      "fromDt": "09/2006",
      "toDt": "05/2010",
      "orgNm": "UNIVERSITY OF MASSACHUSETTS-AMHERST",
      "city": "AMHERST",
      "state": 20,
      "stateSpecified": true
    },
    {
      "fromDt": "06/2010",
      "toDt": "08/2010",
      "orgNm": "MORGAN STANLEY SMITH BARNEY",
      "city": "HARWICH",
      "state": 20,
      "stateSpecified": true
    },
    {
      "fromDt": "10/2010",
      "toDt": null,
      "orgNm": "FIDELITY INVESTMENTS",
      "city": "DUBLIN",
      "state": 4,
      "stateSpecified": true
    }
  ],
  "OthrBuss": {
    "OthrBus": null
  },
  "DRPs": []
}