{
  "Info": {
    "lastNm": "SHELDON",
    "firstNm": "CURTIS",
    "midNm": "LEE",
    "sufNm": null,
    "indvlPK": "5831786",
    "actvAGReg": 1,
    "link": "http://www.adviserinfo.sec.gov/IAPD/Individual/5831786"
  },
  "OthrNms": [],
  "CrntEmps": [
    {
      "CrntRgstns": [
        {
          "regAuth": 47,
          "regCat": 0,
          "st": 2,
          "stDt": "2011-01-11T00:00:00"
        },
        {
          "regAuth": 45,
          "regCat": 0,
          "st": 3,
          "stDt": "2013-06-25T00:00:00"
        }
      ],
      "BrnchOfLocs": [
        {
          "str1": "1800 DIAGONAL ROAD",
          "str2": "SUITE 600",
          "city": "ALEXANDRIA",
          "state": 47,
          "stateSpecified": true,
          "cntry": "United States",
          "postlCd": "22314"
        }
      ],
      "orgNm": "C.L. SHELDON & COMPANY, LLC",
      "orgPK": "152582",
      "str1": "1800 DIAGONAL ROAD",
      "str2": "SUITE 600",
      "city": "ALEXANDRIA",
      "state": 47,
      "stateSpecified": true,
      "cntry": "United States",
      "postlCd": "22314"
    }
  ],
  "Exms": [
    {
      "exmCd": 2,
      "exmNm": "Uniform Investment Adviser Law Examination",
      "exmDt": "2010-12-20T00:00:00",
      "exmDtSpecified": true
    }
  ],
  "Dsgntns": [
    {
      "dsgntnNm": "Certified Financial Planner"
    }
  ],
  "PrevRgstns": [],
  "EmpHss": [
    {
      "fromDt": "06/1983",
      "toDt": "07/2010",
      "orgNm": "USAF",
      "city": "PENTAGON",
      "state": 47,
      "stateSpecified": true
    },
    {
      "fromDt": "09/2009",
      "toDt": null,
      "orgNm": "C.L. SHELDON & COMPANY",
      "city": "FAIRFAX STATION",
      "state": 47,
      "stateSpecified": true
    }
  ],
  "OthrBuss": {
    "OthrBus": {
      "desc": "CHECK 6, INC. NOT INVESTMENT RELATED; P.O. BOX 190; JENKS, OK 74307; LEADERSHIP TRAINING; INDEPENDENT CONTRACTOR/CONSULTANT; 1 JUN 10; 16 HOURS PER MONTH, 12 HOURS PER MONTH DURING TRADING HOURS.  I PROVIDE INSTRUCTION ON \"PLAN BASED EXECUTION\" IN HIGH RISK/HIGH RELIABILITY OPERATIONAL ENVIRONMENTS."
    }
  },
  "DRPs": []
}