{
  "Info": {
    "lastNm": "JACKSON",
    "firstNm": "JOSEPH",
    "midNm": "STEPHEN",
    "sufNm": null,
    "indvlPK": "5833704",
    "actvAGReg": 0,
    "link": "http://www.adviserinfo.sec.gov/IAPD/Individual/5833704"
  },
  "OthrNms": [
    {
      "lastNm": "JACKSON",
      "firstNm": "JOSEPH",
      "midNm": "S",
      "sufNm": null
    }
  ],
  "CrntEmps": [
    {
      "CrntRgstns": [
        {
          "regAuth": 45,
          "regCat": 0,
          "st": 2,
          "stDt": "2011-01-12T00:00:00"
        },
        {
          "regAuth": 4,
          "regCat": 0,
          "st": 2,
          "stDt": "2015-11-09T00:00:00"
        }
      ],
      "BrnchOfLocs": [
        {
          "str1": "1200 WILSHIRE BLVD",
          "str2": null,
          "city": "SANTA MONICA",
          "state": 4,
          "stateSpecified": true,
          "cntry": "United States",
          "postlCd": "90403"
        }
      ],
      "orgNm": "STRATEGIC ADVISERS, INC.",
      "orgPK": "104555",
      "str1": "245 SUMMER STREET, V10G",
      "str2": null,
      "city": "BOSTON",
      "state": 20,
      "stateSpecified": true,
      "cntry": "United States",
      "postlCd": "02210"
    }
  ],
  "Exms": [
    {
      "exmCd": 0,
      "exmNm": "Uniform Securities Agent State Law Examination",
      "exmDt": "2010-11-08T00:00:00",
      "exmDtSpecified": true
    },
    {
      "exmCd": 3,
      "exmNm": "Uniform Combined State Law Examination",
      "exmDt": "2011-01-11T00:00:00",
      "exmDtSpecified": true
    }
  ],
  "Dsgntns": [],
  "PrevRgstns": [],
  "EmpHss": [
    {
      "fromDt": "09/2005",
      "toDt": "03/2009",
      "orgNm": "UNIVERSITY OF CINCINNATI",
      "city": "CINCINNATI",
      "state": 36,
      "stateSpecified": true
    },
    {
      "fromDt": "09/2006",
      "toDt": "03/2007",
      "orgNm": "BEST BUY",
      "city": "SPRINGDALE",
      "state": 36,
      "stateSpecified": true
    },
    {
      "fromDt": "03/2007",
      "toDt": "12/2007",
      "orgNm": "COLLIERS TURLEY MARTIN TUCKER",
      "city": "CINCINNATI",
      "state": 36,
      "stateSpecified": true
    },
    {
      "fromDt": "03/2008",
      "toDt": "09/2008",
      "orgNm": "BEAR CREEK CAPITAL",
      "city": "MONTGOMERY",
      "state": 36,
      "stateSpecified": true
    },
    {
      "fromDt": "02/2009",
      "toDt": "07/2009",
      "orgNm": "WELLS FARGO FINANCIAL",
      "city": "LIBERTY TOWNSHIP",
      "state": 36,
      "stateSpecified": true
    },
    {
      "fromDt": "08/2009",
      "toDt": "06/2010",
      "orgNm": "UNIVERSITY OF CINCINNATI",
      "city": "CINCINNATI",
      "state": 36,
      "stateSpecified": true
    },
    {
      "fromDt": "03/2010",
      "toDt": "06/2010",
      "orgNm": "MESSER CONSTRUCTION",
      "city": "CINCINNATI",
      "state": 36,
      "stateSpecified": true
    },
    {
      "fromDt": "08/2010",
      "toDt": null,
      "orgNm": "FIDELITY INVESTMENTS",
      "city": "COVINGTON",
      "state": 18,
      "stateSpecified": true
    }
  ],
  "OthrBuss": {
    "OthrBus": null
  },
  "DRPs": []
}