{
  "Info": {
    "lastNm": "PEARSON",
    "firstNm": "CHARISSE",
    "midNm": "NICOLE",
    "sufNm": null,
    "indvlPK": "5836774",
    "actvAGReg": 1,
    "link": "http://www.adviserinfo.sec.gov/IAPD/Individual/5836774"
  },
  "OthrNms": [],
  "CrntEmps": [
    {
      "CrntRgstns": [
        {
          "regAuth": 45,
          "regCat": 0,
          "st": 2,
          "stDt": "2013-01-14T00:00:00"
        }
      ],
      "BrnchOfLocs": [
        {
          "str1": "9800 FREDERICKSBURG ROAD",
          "str2": null,
          "city": "SAN ANTONIO",
          "state": 45,
          "stateSpecified": true,
          "cntry": "United States",
          "postlCd": "78288"
        }
      ],
      "orgNm": "USAA INVESTMENT MANAGEMENT COMPANY",
      "orgPK": "5475",
      "str1": "9800 FREDERICKSBURG ROAD",
      "str2": null,
      "city": "SAN ANTONIO",
      "state": 45,
      "stateSpecified": true,
      "cntry": "United States",
      "postlCd": "78288-0227"
    }
  ],
  "Exms": [
    {
      "exmCd": 3,
      "exmNm": "Uniform Combined State Law Examination",
      "exmDt": "2010-10-28T00:00:00",
      "exmDtSpecified": true
    },
    {
      "exmCd": 0,
      "exmNm": "Uniform Securities Agent State Law Examination",
      "exmDt": "2013-07-25T00:00:00",
      "exmDtSpecified": true
    }
  ],
  "Dsgntns": [],
  "PrevRgstns": [
    {
      "BrnchOfLocs": [
        {
          "city": "SAN ANTONIO",
          "state": 45,
          "stateSpecified": true
        }
      ],
      "orgNm": "USAA FINANCIAL PLANNING SERVICES",
      "orgPK": "106352",
      "regBeginDt": "2010-11-08T00:00:00",
      "regBeginDtSpecified": true,
      "regEndDt": "2013-01-16T00:00:00",
      "regEndDtSpecified": true
    }
  ],
  "EmpHss": [
    {
      "fromDt": "02/2002",
      "toDt": "05/2008",
      "orgNm": "UNIVERSITY OF TEXAS AT SAN ANTONIO",
      "city": "SAN ANTONIO",
      "state": 45,
      "stateSpecified": true
    },
    {
      "fromDt": "10/2004",
      "toDt": "01/2007",
      "orgNm": "VICTORIA'S SECRET",
      "city": "SAN ANTONIO",
      "state": 45,
      "stateSpecified": true
    },
    {
      "fromDt": "07/2005",
      "toDt": "08/2006",
      "orgNm": "THE EDDINGTON GROUP, INC.",
      "city": "SAN ANTONIO",
      "state": 45,
      "stateSpecified": true
    },
    {
      "fromDt": "08/2006",
      "toDt": "01/2013",
      "orgNm": "USAA FINANCIAL PLANNING SERVICES",
      "city": "SAN ANTONIO",
      "state": 45,
      "stateSpecified": true
    },
    {
      "fromDt": "09/2007",
      "toDt": "01/2010",
      "orgNm": "H&R BLOCK",
      "city": "SAN ANTONIO",
      "state": 45,
      "stateSpecified": true
    },
    {
      "fromDt": "03/2010",
      "toDt": null,
      "orgNm": "WORD OF FAITH CHRISTIAN CENTER",
      "city": "SAN ANTONIO",
      "state": 45,
      "stateSpecified": true
    },
    {
      "fromDt": "08/2010",
      "toDt": "01/2013",
      "orgNm": "USAA FINANCIAL ADVISORS, INC",
      "city": "SAN ANTONIO",
      "state": 45,
      "stateSpecified": true
    },
    {
      "fromDt": "01/2013",
      "toDt": null,
      "orgNm": "USAA INVESTMENT MANAGEMENT COMPANY",
      "city": "SAN ANTONIO",
      "state": 45,
      "stateSpecified": true
    }
  ],
  "OthrBuss": {
    "OthrBus": {
      "desc": "ASSISTS CHURCHES W/ THEIR ACCOUNTING BOOKKEEPING AND TAX REPORTING - NON INVESTMENT-RELATED NAME: WORD OF FAITH CHRISTIAN CENTER  ADDRESS: 1928 BASSE RD  SAN ANTONIO, TX 78219  NATURE OF THE BUSINESS: RELIGIOUS ORGANIZATION  MY POSITION: VOLUNTEER/ ACCOUNTING CONSULTANT  RELATIONSHIP TO BUSINESS: MY PARENTS ARE THE PASTORS  START DATE OF RELATIONSHIP: MARCH 2010  APPROX HRS/MTH: 12-20 HRS/MTH   HRS DEVOTED DURING TRADING HRS: NONE  DUTIES: CLERICAL; ACCOUNTING BOOKKEEPING; DRAFT FINANCIAL STATEMENTS; ASSISTANCE W/ TAX REPORTING"
    }
  },
  "DRPs": []
}