{
  "Info": {
    "lastNm": "STEVENS",
    "firstNm": "HENRY",
    "midNm": "ALAN",
    "sufNm": null,
    "indvlPK": "5839339",
    "actvAGReg": 1,
    "link": "http://www.adviserinfo.sec.gov/IAPD/Individual/5839339"
  },
  "OthrNms": [],
  "CrntEmps": [
    {
      "CrntRgstns": [
        {
          "regAuth": 45,
          "regCat": 0,
          "st": 2,
          "stDt": "2011-01-28T00:00:00"
        },
        {
          "regAuth": 19,
          "regCat": 0,
          "st": 2,
          "stDt": "2013-10-28T00:00:00"
        }
      ],
      "BrnchOfLocs": [
        {
          "str1": "9303 NEW TRAILS DRIVE",
          "str2": "SUITE 450",
          "city": "THE WOODLANDS",
          "state": 45,
          "stateSpecified": true,
          "cntry": "United States",
          "postlCd": "77381"
        }
      ],
      "orgNm": "INVESTMENT ADVISORY SERVICES, INC",
      "orgPK": "112486",
      "str1": "9303 NEW TRAILS DRIVE",
      "str2": "SUITE 450",
      "city": "THE WOODLANDS",
      "state": 45,
      "stateSpecified": true,
      "cntry": "United States",
      "postlCd": "77381"
    }
  ],
  "Exms": [
    {
      "exmCd": 2,
      "exmNm": "Uniform Investment Adviser Law Examination",
      "exmDt": "2010-09-29T00:00:00",
      "exmDtSpecified": true
    }
  ],
  "Dsgntns": [],
  "PrevRgstns": [],
  "EmpHss": [
    {
      "fromDt": "08/2006",
      "toDt": "05/2010",
      "orgNm": "TEXAS A&M UNIVERSITY",
      "city": "COLLEGE STATION",
      "state": 45,
      "stateSpecified": true
    },
    {
      "fromDt": "06/2010",
      "toDt": "07/2010",
      "orgNm": "NONE",
      "city": "COLLEGE STATION",
      "state": 45,
      "stateSpecified": true
    },
    {
      "fromDt": "08/2010",
      "toDt": null,
      "orgNm": "INVESTMENT ADVISORY SERVICES, INC.",
      "city": "THE WOODLANDS",
      "state": 45,
      "stateSpecified": true
    }
  ],
  "OthrBuss": {
    "OthrBus": null
  },
  "DRPs": []
}