{
  "Info": {
    "lastNm": "COTHRAN",
    "firstNm": "CHARLES",
    "midNm": "BRYAN",
    "sufNm": null,
    "indvlPK": "5850473",
    "actvAGReg": 1,
    "link": "http://www.adviserinfo.sec.gov/IAPD/Individual/5850473"
  },
  "OthrNms": [
    {
      "lastNm": "COTHRAN",
      "firstNm": "BRYAN",
      "midNm": null,
      "sufNm": null
    }
  ],
  "CrntEmps": [
    {
      "CrntRgstns": [
        {
          "regAuth": 44,
          "regCat": 0,
          "st": 2,
          "stDt": "2010-12-01T00:00:00"
        },
        {
          "regAuth": 2,
          "regCat": 0,
          "st": 2,
          "stDt": "2013-08-12T00:00:00"
        }
      ],
      "BrnchOfLocs": [
        {
          "str1": "5865 RIDGEWAY CENTER PARKWAY",
          "str2": "SUITE 300",
          "city": "MEMPHIS",
          "state": 44,
          "stateSpecified": true,
          "cntry": "United States",
          "postlCd": "38120"
        }
      ],
      "orgNm": "COTHRAN CAPITAL, LLC",
      "orgPK": "154975",
      "str1": "5865 RIDGEWAY CENTER PARKWAY",
      "str2": "SUITE 300",
      "city": "MEMPHIS",
      "state": 44,
      "stateSpecified": true,
      "cntry": "United States",
      "postlCd": "38120"
    }
  ],
  "Exms": [
    {
      "exmCd": 2,
      "exmNm": "Uniform Investment Adviser Law Examination",
      "exmDt": "2010-02-17T00:00:00",
      "exmDtSpecified": true
    }
  ],
  "Dsgntns": [],
  "PrevRgstns": [],
  "EmpHss": [
    {
      "fromDt": "12/2004",
      "toDt": null,
      "orgNm": "COTHRAN INSURANCE",
      "city": "CORDOVA",
      "state": 44,
      "stateSpecified": true
    }
  ],
  "OthrBuss": {
    "OthrBus": null
  },
  "DRPs": []
}