{
  "Info": {
    "lastNm": "WITHEE",
    "firstNm": "DAVID",
    "midNm": "FREDERICK",
    "sufNm": "JR",
    "indvlPK": "5853483",
    "actvAGReg": 0,
    "link": "http://www.adviserinfo.sec.gov/IAPD/Individual/5853483"
  },
  "OthrNms": [
    {
      "lastNm": "WITHEE",
      "firstNm": "DAVID",
      "midNm": "FREDERICK",
      "sufNm": null
    },
    {
      "lastNm": "WITHEE",
      "firstNm": "DAVID",
      "midNm": "FREDERICK",
      "sufNm": "JR."
    }
  ],
  "CrntEmps": [
    {
      "CrntRgstns": [
        {
          "regAuth": 9,
          "regCat": 0,
          "st": 2,
          "stDt": "2013-08-23T00:00:00"
        }
      ],
      "BrnchOfLocs": [
        {
          "str1": "8851 CONROY-WINDERMERE ROAD",
          "str2": "STIS WEALTH",
          "city": "ORLANDO",
          "state": 9,
          "stateSpecified": true,
          "cntry": "United States",
          "postlCd": "32835"
        }
      ],
      "orgNm": "SUNTRUST INVESTMENT SERVICES, INC.",
      "orgPK": "17499",
      "str1": "303 PEACHTREE CENTER AVENUE",
      "str2": "SUNTRUST GARDEN OFFICES SUITE 140",
      "city": "ATLANTA",
      "state": 10,
      "stateSpecified": true,
      "cntry": "United States",
      "postlCd": "30303"
    }
  ],
  "Exms": [
    {
      "exmCd": 3,
      "exmNm": "Uniform Combined State Law Examination",
      "exmDt": "2011-01-21T00:00:00",
      "exmDtSpecified": true
    }
  ],
  "Dsgntns": [],
  "PrevRgstns": [
    {
      "BrnchOfLocs": [
        {
          "city": "TAMPA",
          "state": 9,
          "stateSpecified": true
        }
      ],
      "orgNm": "ALLIANCEBERNSTEIN L.P.",
      "orgPK": "108477",
      "regBeginDt": "2011-01-24T00:00:00",
      "regBeginDtSpecified": true,
      "regEndDt": "2013-02-27T00:00:00",
      "regEndDtSpecified": true
    }
  ],
  "EmpHss": [
    {
      "fromDt": "04/2004",
      "toDt": "07/2013",
      "orgNm": "ENTERPRISE HOLDINGS, INC.",
      "city": "ORLANDO",
      "state": 9,
      "stateSpecified": true
    },
    {
      "fromDt": "04/2004",
      "toDt": "07/2010",
      "orgNm": "ENTERPRISE RENT-A-CAR",
      "city": "ORLANDO",
      "state": 9,
      "stateSpecified": true
    },
    {
      "fromDt": "09/2010",
      "toDt": "02/2013",
      "orgNm": "ALLIANCEBERNSTEIN, L.P.",
      "city": "TAMPA",
      "state": 9,
      "stateSpecified": true
    },
    {
      "fromDt": "09/2010",
      "toDt": null,
      "orgNm": "BERNSTEIN GLOBAL WEALTH MANAGEMENT",
      "city": "TAMPA",
      "state": 9,
      "stateSpecified": true
    },
    {
      "fromDt": "07/2013",
      "toDt": null,
      "orgNm": "SUNTRUST BANK",
      "city": "ORLANDO",
      "state": 9,
      "stateSpecified": true
    },
    {
      "fromDt": "08/2013",
      "toDt": null,
      "orgNm": "SUNTRUST INVESTMENT SERVICES",
      "city": "ATLANTA",
      "state": 10,
      "stateSpecified": true
    }
  ],
  "OthrBuss": {
    "OthrBus": null
  },
  "DRPs": []
}