{
  "Info": {
    "lastNm": "NGUYEN",
    "firstNm": "HUONG CHRISTY",
    "midNm": null,
    "sufNm": null,
    "indvlPK": "5854895",
    "actvAGReg": 0,
    "link": "http://www.adviserinfo.sec.gov/IAPD/Individual/5854895"
  },
  "OthrNms": [
    {
      "lastNm": "NGUYEN",
      "firstNm": "CHRISTY HUONG",
      "midNm": null,
      "sufNm": null
    }
  ],
  "CrntEmps": [
    {
      "CrntRgstns": [
        {
          "regAuth": 4,
          "regCat": 0,
          "st": 2,
          "stDt": "2016-01-13T00:00:00"
        }
      ],
      "BrnchOfLocs": [
        {
          "str1": "46801 Warm Spring Blvd.",
          "str2": null,
          "city": "Fremont",
          "state": 4,
          "stateSpecified": true,
          "cntry": "United States",
          "postlCd": "94539"
        },
        {
          "str1": "CITIBANK",
          "str2": "43804 CHRISTY STREET",
          "city": "FREMONT",
          "state": 4,
          "stateSpecified": true,
          "cntry": "United States",
          "postlCd": "94538"
        },
        {
          "str1": "One Sansome Street",
          "str2": "22nd Floor, Suite 29",
          "city": "San Francisco",
          "state": 4,
          "stateSpecified": true,
          "cntry": "United States",
          "postlCd": "94104"
        }
      ],
      "orgNm": "CITIGROUP GLOBAL MARKETS INC.",
      "orgPK": "7059",
      "str1": "153 EAST 53RD STREET",
      "str2": null,
      "city": "NEW YORK",
      "state": 35,
      "stateSpecified": true,
      "cntry": "United States",
      "postlCd": "10022"
    }
  ],
  "Exms": [
    {
      "exmCd": 0,
      "exmNm": "Uniform Securities Agent State Law Examination",
      "exmDt": "2011-08-31T00:00:00",
      "exmDtSpecified": true
    },
    {
      "exmCd": 3,
      "exmNm": "Uniform Combined State Law Examination",
      "exmDt": "2013-08-16T00:00:00",
      "exmDtSpecified": true
    }
  ],
  "Dsgntns": [],
  "PrevRgstns": [
    {
      "BrnchOfLocs": [
        {
          "city": "PALO ALTO",
          "state": 4,
          "stateSpecified": true
        }
      ],
      "orgNm": "STRATEGIC ADVISERS, INC.",
      "orgPK": "104555",
      "regBeginDt": "2014-08-28T00:00:00",
      "regBeginDtSpecified": true,
      "regEndDt": "2015-09-04T00:00:00",
      "regEndDtSpecified": true
    }
  ],
  "EmpHss": [
    {
      "fromDt": "08/2005",
      "toDt": "08/2009",
      "orgNm": "CALIFORNIA STATE UNIVERSITY EAST BAY",
      "city": "HAYWARD",
      "state": 4,
      "stateSpecified": true
    },
    {
      "fromDt": "01/2007",
      "toDt": "09/2007",
      "orgNm": "SILICON VALLEY BANK",
      "city": "SAN JOSE",
      "state": 4,
      "stateSpecified": true
    },
    {
      "fromDt": "10/2009",
      "toDt": "08/2010",
      "orgNm": "BURR PILGER & MAYER INC",
      "city": "SAN JOSE",
      "state": 4,
      "stateSpecified": true
    },
    {
      "fromDt": "09/2010",
      "toDt": "08/2015",
      "orgNm": "FIDELITY",
      "city": "PALO ALTO",
      "state": 4,
      "stateSpecified": true
    }
  ],
  "OthrBuss": {
    "OthrBus": null
  },
  "DRPs": [
    {
      "hasRegAction": 1,
      "hasRegActionSpecified": true,
      "hasCriminal": 1,
      "hasCriminalSpecified": true,
      "hasBankrupt": 0,
      "hasBankruptSpecified": true,
      "hasCivilJudc": 1,
      "hasCivilJudcSpecified": true,
      "hasBond": 1,
      "hasBondSpecified": true,
      "hasJudgment": 1,
      "hasJudgmentSpecified": true,
      "hasInvstgn": 1,
      "hasInvstgnSpecified": true,
      "hasCustComp": 1,
      "hasCustCompSpecified": true,
      "hasTermination": 1,
      "hasTerminationSpecified": true
    }
  ]
}