{
  "Info": {
    "lastNm": "ODONOGHUE",
    "firstNm": "KAREN",
    "midNm": "ANNE",
    "sufNm": null,
    "indvlPK": "5855773",
    "actvAGReg": 0,
    "link": "http://www.adviserinfo.sec.gov/IAPD/Individual/5855773"
  },
  "OthrNms": [
    {
      "lastNm": "MARCANO",
      "firstNm": "KAREN",
      "midNm": "ANNE",
      "sufNm": null
    }
  ],
  "CrntEmps": [
    {
      "CrntRgstns": [
        {
          "regAuth": 31,
          "regCat": 0,
          "st": 2,
          "stDt": "2012-05-01T00:00:00"
        },
        {
          "regAuth": 45,
          "regCat": 0,
          "st": 3,
          "stDt": "2015-03-20T00:00:00"
        }
      ],
      "BrnchOfLocs": [
        {
          "str1": "110 CHAPEL ST",
          "str2": null,
          "city": "PORTSMOUTH",
          "state": 31,
          "stateSpecified": true,
          "cntry": "United States",
          "postlCd": "03801"
        }
      ],
      "orgNm": "WELLS FARGO ADVISORS FINANCIAL NETWORK, LLC",
      "orgPK": "11025",
      "str1": "ONE NORTH JEFFERSON AVENUE",
      "str2": "MAIL CODE: H0004-050",
      "city": "ST. LOUIS",
      "state": 25,
      "stateSpecified": true,
      "cntry": "United States",
      "postlCd": "63103"
    }
  ],
  "Exms": [
    {
      "exmCd": 3,
      "exmNm": "Uniform Combined State Law Examination",
      "exmDt": "2012-04-30T00:00:00",
      "exmDtSpecified": true
    }
  ],
  "Dsgntns": [],
  "PrevRgstns": [],
  "EmpHss": [
    {
      "fromDt": "06/2004",
      "toDt": "11/2010",
      "orgNm": "HARVARD UNIVERSITY",
      "city": "CAMBRIDGE",
      "state": 20,
      "stateSpecified": true
    },
    {
      "fromDt": "10/2010",
      "toDt": "06/2011",
      "orgNm": "WELLS FARGO ADVISORS, LLC",
      "city": "PORTSMOUTH",
      "state": 31,
      "stateSpecified": true
    },
    {
      "fromDt": "06/2011",
      "toDt": null,
      "orgNm": "WELLS FARGO ADVISORS FINANCIAL NETWORK, LLC",
      "city": "PORTSMOUTH",
      "state": 31,
      "stateSpecified": true
    }
  ],
  "OthrBuss": {
    "OthrBus": null
  },
  "DRPs": []
}