{
  "Info": {
    "lastNm": "PHELPS",
    "firstNm": "JACOB",
    "midNm": "ANDREW",
    "sufNm": null,
    "indvlPK": "5855315",
    "actvAGReg": 0,
    "link": "http://www.adviserinfo.sec.gov/IAPD/Individual/5855315"
  },
  "OthrNms": [
    {
      "lastNm": "PHELPS",
      "firstNm": "JACOB",
      "midNm": null,
      "sufNm": null
    }
  ],
  "CrntEmps": [
    {
      "CrntRgstns": [
        {
          "regAuth": 18,
          "regCat": 0,
          "st": 2,
          "stDt": "2012-07-30T00:00:00"
        }
      ],
      "BrnchOfLocs": [
        {
          "str1": "661 DISHMAN LANE EXT",
          "str2": null,
          "city": "BOWLING GREEN",
          "state": 18,
          "stateSpecified": true,
          "cntry": "United States",
          "postlCd": "42104"
        }
      ],
      "orgNm": "INVEST FINANCIAL CORPORATION",
      "orgPK": "12984",
      "str1": "12750 CITRUS PARK LANE",
      "str2": "SUITE 300",
      "city": "TAMPA",
      "state": 9,
      "stateSpecified": true,
      "cntry": "United States",
      "postlCd": "33625"
    }
  ],
  "Exms": [
    {
      "exmCd": 3,
      "exmNm": "Uniform Combined State Law Examination",
      "exmDt": "2011-04-13T00:00:00",
      "exmDtSpecified": true
    }
  ],
  "Dsgntns": [],
  "PrevRgstns": [],
  "EmpHss": [
    {
      "fromDt": "05/2006",
      "toDt": "12/2006",
      "orgNm": "LANDMARK FINACIAL ADVISORS",
      "city": "BOWLING GREEN",
      "state": 18,
      "stateSpecified": true
    },
    {
      "fromDt": "01/2007",
      "toDt": "10/2007",
      "orgNm": "FRUIT OF THE LOOM",
      "city": "BOWLING GREEN",
      "state": 18,
      "stateSpecified": true
    },
    {
      "fromDt": "10/2007",
      "toDt": null,
      "orgNm": "FRANKLIN BANK & TRUST",
      "city": "BOWLING GREEN",
      "state": 18,
      "stateSpecified": true
    },
    {
      "fromDt": "11/2010",
      "toDt": null,
      "orgNm": "INVEST FINANCIAL CORPORATION",
      "city": "BOWLING GREEN",
      "state": 18,
      "stateSpecified": true
    }
  ],
  "OthrBuss": {
    "OthrBus": null
  },
  "DRPs": []
}