{
  "Info": {
    "lastNm": "Hunter",
    "firstNm": "Daniel",
    "midNm": "Joseph",
    "sufNm": null,
    "indvlPK": "5872554",
    "actvAGReg": 0,
    "link": "http://www.adviserinfo.sec.gov/IAPD/Individual/5872554"
  },
  "OthrNms": [
    {
      "lastNm": "HUNTER",
      "firstNm": "DANIEL",
      "midNm": "J",
      "sufNm": null
    }
  ],
  "CrntEmps": [
    {
      "CrntRgstns": [
        {
          "regAuth": 4,
          "regCat": 0,
          "st": 2,
          "stDt": "2011-09-13T00:00:00"
        }
      ],
      "BrnchOfLocs": [
        {
          "str1": "8006 FOLSOM-AUBURN RD",
          "str2": null,
          "city": "FOLSOM",
          "state": 4,
          "stateSpecified": true,
          "cntry": "United States",
          "postlCd": "95630"
        }
      ],
      "orgNm": "EDWARD JONES",
      "orgPK": "250",
      "str1": "12555 MANCHESTER RD",
      "str2": null,
      "city": "ST. LOUIS",
      "state": 25,
      "stateSpecified": true,
      "cntry": "United States",
      "postlCd": "63131"
    }
  ],
  "Exms": [
    {
      "exmCd": 3,
      "exmNm": "Uniform Combined State Law Examination",
      "exmDt": "2011-02-04T00:00:00",
      "exmDtSpecified": true
    }
  ],
  "Dsgntns": [],
  "PrevRgstns": [],
  "EmpHss": [
    {
      "fromDt": "08/2005",
      "toDt": "07/2008",
      "orgNm": "CALIFORNIA STATE UNIVERSITY FRESNO",
      "city": "FRESNO",
      "state": 4,
      "stateSpecified": true
    },
    {
      "fromDt": "05/2007",
      "toDt": "08/2007",
      "orgNm": "HUNTER STALLION STATION",
      "city": "WILTON",
      "state": 4,
      "stateSpecified": true
    },
    {
      "fromDt": "06/2008",
      "toDt": "10/2008",
      "orgNm": "SILKY'S BACKGATE PUB",
      "city": "ELK GROVE",
      "state": 4,
      "stateSpecified": true
    },
    {
      "fromDt": "08/2008",
      "toDt": "07/2010",
      "orgNm": "CALIFORNIA STATE UNIVERSITY SACRAMENTO",
      "city": "SACRAMENTO",
      "state": 4,
      "stateSpecified": true
    },
    {
      "fromDt": "06/2009",
      "toDt": "09/2009",
      "orgNm": "SACRAMENTO MUSIC CIRCUS",
      "city": "SACRAMENTO",
      "state": 4,
      "stateSpecified": true
    },
    {
      "fromDt": "06/2010",
      "toDt": "09/2010",
      "orgNm": "WELLS FARGO ADVISORS",
      "city": "SACRAMENTO",
      "state": 4,
      "stateSpecified": true
    },
    {
      "fromDt": "12/2010",
      "toDt": null,
      "orgNm": "EDWARD JONES",
      "city": "ST LOUIS",
      "state": 25,
      "stateSpecified": true
    }
  ],
  "OthrBuss": {
    "OthrBus": null
  },
  "DRPs": []
}