{
  "Info": {
    "lastNm": "SWIFT",
    "firstNm": "JORDAN",
    "midNm": "S",
    "sufNm": null,
    "indvlPK": "5878818",
    "actvAGReg": 0,
    "link": "http://www.adviserinfo.sec.gov/IAPD/Individual/5878818"
  },
  "OthrNms": [
    {
      "lastNm": "SWIFT",
      "firstNm": "JORDAN",
      "midNm": null,
      "sufNm": null
    }
  ],
  "CrntEmps": [
    {
      "CrntRgstns": [
        {
          "regAuth": 45,
          "regCat": 0,
          "st": 2,
          "stDt": "2014-10-13T00:00:00"
        },
        {
          "regAuth": 4,
          "regCat": 0,
          "st": 2,
          "stDt": "2014-10-14T00:00:00"
        }
      ],
      "BrnchOfLocs": [
        {
          "str1": "2815 TOWNSGATE RD",
          "str2": null,
          "city": "WESTLAKE VILLAGE",
          "state": 4,
          "stateSpecified": true,
          "cntry": "United States",
          "postlCd": "91361"
        }
      ],
      "orgNm": "MERRILL LYNCH, PIERCE, FENNER & SMITH INCORPORATED",
      "orgPK": "7691",
      "str1": "ONE BRYANT PARK",
      "str2": null,
      "city": "NEW YORK",
      "state": 35,
      "stateSpecified": true,
      "cntry": "United States",
      "postlCd": "10036"
    }
  ],
  "Exms": [
    {
      "exmCd": 3,
      "exmNm": "Uniform Combined State Law Examination",
      "exmDt": "2014-10-13T00:00:00",
      "exmDtSpecified": true
    }
  ],
  "Dsgntns": [],
  "PrevRgstns": [],
  "EmpHss": [
    {
      "fromDt": "07/2004",
      "toDt": "03/2007",
      "orgNm": "THE MASTER'S COLLEGE",
      "city": "SANTA CLARITA",
      "state": 4,
      "stateSpecified": true
    },
    {
      "fromDt": "01/2006",
      "toDt": "10/2006",
      "orgNm": "TOWER FUNDING",
      "city": "VALENCIA",
      "state": 4,
      "stateSpecified": true
    },
    {
      "fromDt": "03/2007",
      "toDt": "08/2007",
      "orgNm": "PAT SWIFT CABINETS",
      "city": "OJAI",
      "state": 4,
      "stateSpecified": true
    },
    {
      "fromDt": "08/2007",
      "toDt": "08/2009",
      "orgNm": "CAL STATE CHANNELL ISLANDS",
      "city": "CAMARILLO",
      "state": 4,
      "stateSpecified": true
    },
    {
      "fromDt": "02/2008",
      "toDt": "12/2010",
      "orgNm": "BANK OF AMERICA",
      "city": "VENTURA",
      "state": 4,
      "stateSpecified": true
    },
    {
      "fromDt": "12/2010",
      "toDt": null,
      "orgNm": "MERRILL LYNCH, PIERCE, FENNER & SMITH INCORPORATED",
      "city": "WESTLAKE VILLAGE",
      "state": 4,
      "stateSpecified": true
    },
    {
      "fromDt": "01/2015",
      "toDt": null,
      "orgNm": "BANK OF AMERICA, N.A.",
      "city": "WESTLAKE VILLAGE",
      "state": 4,
      "stateSpecified": true
    }
  ],
  "OthrBuss": {
    "OthrBus": null
  },
  "DRPs": []
}