{
  "Info": {
    "lastNm": "PATERSON",
    "firstNm": "ROBERT",
    "midNm": "EDWARD",
    "sufNm": null,
    "indvlPK": "5878267",
    "actvAGReg": 1,
    "link": "http://www.adviserinfo.sec.gov/IAPD/Individual/5878267"
  },
  "OthrNms": [],
  "CrntEmps": [
    {
      "CrntRgstns": [
        {
          "regAuth": 4,
          "regCat": 0,
          "st": 2,
          "stDt": "2012-10-01T00:00:00"
        }
      ],
      "BrnchOfLocs": [
        {
          "str1": "16870 WEST BERNARDO DRIVE, SUITE 170",
          "str2": null,
          "city": "SAN DIEGO",
          "state": 4,
          "stateSpecified": true,
          "cntry": "United States",
          "postlCd": "92127"
        }
      ],
      "orgNm": "BETA WEALTH GROUP, INC",
      "orgPK": "165224",
      "str1": "16870 WEST BERNARDO DRIVE, SUITE 170",
      "str2": null,
      "city": "SAN DIEGO",
      "state": 4,
      "stateSpecified": true,
      "cntry": "United States",
      "postlCd": "92127"
    }
  ],
  "Exms": [
    {
      "exmCd": 3,
      "exmNm": "Uniform Combined State Law Examination",
      "exmDt": "2011-04-28T00:00:00",
      "exmDtSpecified": true
    }
  ],
  "Dsgntns": [],
  "PrevRgstns": [
    {
      "BrnchOfLocs": [
        {
          "city": "SAN DIEGO",
          "state": 4,
          "stateSpecified": true
        }
      ],
      "orgNm": "RAYMOND JAMES FINANCIAL SERVICES ADVISORS, INC",
      "orgPK": "149018",
      "regBeginDt": "2011-05-02T00:00:00",
      "regBeginDtSpecified": true,
      "regEndDt": "2012-09-28T00:00:00",
      "regEndDtSpecified": true
    }
  ],
  "EmpHss": [
    {
      "fromDt": "10/2003",
      "toDt": "10/2007",
      "orgNm": "20/20 MORTGAGE",
      "city": "SAN DIEGO",
      "state": 4,
      "stateSpecified": true
    },
    {
      "fromDt": "12/2007",
      "toDt": "02/2011",
      "orgNm": "HUMANSCALE",
      "city": "SAN DIEGO",
      "state": 4,
      "stateSpecified": true
    },
    {
      "fromDt": "01/2011",
      "toDt": "09/2012",
      "orgNm": "RAYMOND JAMES FINANCIAL SERVICES, INC.",
      "city": "SAN DIEGO",
      "state": 4,
      "stateSpecified": true
    },
    {
      "fromDt": "09/2012",
      "toDt": null,
      "orgNm": "BETA WEALTH GROUP, INC",
      "city": "SAN DIEGO",
      "state": 4,
      "stateSpecified": true
    }
  ],
  "OthrBuss": {
    "OthrBus": null
  },
  "DRPs": []
}