{
  "Info": {
    "lastNm": "TOMAICH",
    "firstNm": "KYLE",
    "midNm": "JOHN",
    "sufNm": null,
    "indvlPK": "5880635",
    "actvAGReg": 0,
    "link": "http://www.adviserinfo.sec.gov/IAPD/Individual/5880635"
  },
  "OthrNms": [],
  "CrntEmps": [
    {
      "CrntRgstns": [
        {
          "regAuth": 24,
          "regCat": 0,
          "st": 2,
          "stDt": "2014-01-15T00:00:00"
        }
      ],
      "BrnchOfLocs": [
        {
          "str1": "312 WEST SUPERIOR ST",
          "str2": "STE 100",
          "city": "DULUTH",
          "state": 24,
          "stateSpecified": true,
          "cntry": "United States",
          "postlCd": "55802"
        }
      ],
      "orgNm": "WELLS FARGO ADVISORS FINANCIAL NETWORK, LLC",
      "orgPK": "11025",
      "str1": "ONE NORTH JEFFERSON AVENUE",
      "str2": "MAIL CODE: H0004-050",
      "city": "ST. LOUIS",
      "state": 25,
      "stateSpecified": true,
      "cntry": "United States",
      "postlCd": "63103"
    }
  ],
  "Exms": [
    {
      "exmCd": 0,
      "exmNm": "Uniform Securities Agent State Law Examination",
      "exmDt": "2011-10-04T00:00:00",
      "exmDtSpecified": true
    }
  ],
  "Dsgntns": [],
  "PrevRgstns": [],
  "EmpHss": [
    {
      "fromDt": "03/2006",
      "toDt": "04/2007",
      "orgNm": "THE SAGRES COMPANY",
      "city": "SAN DIEGO",
      "state": 4,
      "stateSpecified": true
    },
    {
      "fromDt": "04/2007",
      "toDt": "11/2007",
      "orgNm": "CBAY SYSTEMS",
      "city": "SAN DIEGO",
      "state": 4,
      "stateSpecified": true
    },
    {
      "fromDt": "11/2007",
      "toDt": "01/2008",
      "orgNm": "UNEMPLOYED",
      "city": "SAN DIEGO",
      "state": 4,
      "stateSpecified": true
    },
    {
      "fromDt": "01/2008",
      "toDt": "11/2008",
      "orgNm": "ERNEST PACKAGING COMPANY",
      "city": "VISTA",
      "state": 4,
      "stateSpecified": true
    },
    {
      "fromDt": "11/2008",
      "toDt": "03/2009",
      "orgNm": "UNEMPLOYED",
      "city": "SAN DIEGO",
      "state": 4,
      "stateSpecified": true
    },
    {
      "fromDt": "03/2009",
      "toDt": "02/2011",
      "orgNm": "50 BELOW",
      "city": "DULUTH",
      "state": 24,
      "stateSpecified": true
    },
    {
      "fromDt": "02/2011",
      "toDt": null,
      "orgNm": "WELLS FARGO ADVISORS FINANCIAL NETWORK LLC",
      "city": "DULUTH",
      "state": 24,
      "stateSpecified": true
    }
  ],
  "OthrBuss": {
    "OthrBus": null
  },
  "DRPs": []
}