{
  "Info": {
    "lastNm": "PELLEGRINI",
    "firstNm": "TOREY",
    "midNm": "JOSEPH",
    "sufNm": null,
    "indvlPK": "5886904",
    "actvAGReg": 0,
    "link": "http://www.adviserinfo.sec.gov/IAPD/Individual/5886904"
  },
  "OthrNms": [
    {
      "lastNm": "PELLEGRINI",
      "firstNm": "TOREY",
      "midNm": null,
      "sufNm": null
    },
    {
      "lastNm": "PELLIGINI",
      "firstNm": "TOREY",
      "midNm": "JOSEPH",
      "sufNm": null
    }
  ],
  "CrntEmps": [
    {
      "CrntRgstns": [
        {
          "regAuth": 20,
          "regCat": 0,
          "st": 2,
          "stDt": "2012-01-06T00:00:00"
        }
      ],
      "BrnchOfLocs": [
        {
          "str1": "60 STATE STREET",
          "str2": null,
          "city": "BOSTON",
          "state": 20,
          "stateSpecified": true,
          "cntry": "United States",
          "postlCd": "02109-1820"
        }
      ],
      "orgNm": "PIONEER INSTITUTIONAL ASSET MANAGEMENT, INC.",
      "orgPK": "138756",
      "str1": "60 STATE STREET",
      "str2": null,
      "city": "BOSTON",
      "state": 20,
      "stateSpecified": true,
      "cntry": "United States",
      "postlCd": "02109-1820"
    }
  ],
  "Exms": [
    {
      "exmCd": 2,
      "exmNm": "Uniform Investment Adviser Law Examination",
      "exmDt": "2011-03-09T00:00:00",
      "exmDtSpecified": true
    },
    {
      "exmCd": 0,
      "exmNm": "Uniform Securities Agent State Law Examination",
      "exmDt": "2011-03-23T00:00:00",
      "exmDtSpecified": true
    }
  ],
  "Dsgntns": [],
  "PrevRgstns": [
    {
      "BrnchOfLocs": [
        {
          "city": "BOSTON",
          "state": 20,
          "stateSpecified": true
        }
      ],
      "orgNm": "NORTHWESTERN MUTUAL INVESTMENT SERVICES, LLC",
      "orgPK": "2881",
      "regBeginDt": "2011-06-02T00:00:00",
      "regBeginDtSpecified": true,
      "regEndDt": "2012-01-03T00:00:00",
      "regEndDtSpecified": true
    }
  ],
  "EmpHss": [
    {
      "fromDt": "06/2006",
      "toDt": "05/2008",
      "orgNm": "PLYMOUTH YACHT CLUB",
      "city": "PLYMOUTH",
      "state": 20,
      "stateSpecified": true
    },
    {
      "fromDt": "09/2006",
      "toDt": "05/2010",
      "orgNm": "SALVE REGINA UNIVERSITY",
      "city": "NEWPORT",
      "state": 41,
      "stateSpecified": true
    },
    {
      "fromDt": "06/2008",
      "toDt": "05/2009",
      "orgNm": "WIANNO YACHT CLUB",
      "city": "OSTERVILLE",
      "state": 20,
      "stateSpecified": true
    },
    {
      "fromDt": "06/2009",
      "toDt": "08/2010",
      "orgNm": "SAKONNET YACHT CLUB",
      "city": "LITTLE COMPTON",
      "state": 41,
      "stateSpecified": true
    },
    {
      "fromDt": "06/2010",
      "toDt": "09/2010",
      "orgNm": "DRIVING ALPHA, LLC",
      "city": "NORWELL",
      "state": 20,
      "stateSpecified": true
    },
    {
      "fromDt": "12/2010",
      "toDt": "04/2011",
      "orgNm": "MASSMUTUAL LIFE INSURANCE COMPANY",
      "city": "PROVIDENCE",
      "state": 41,
      "stateSpecified": true
    },
    {
      "fromDt": "02/2011",
      "toDt": "04/2011",
      "orgNm": "MML INVESTORS SERVICES",
      "city": "PROVIDENCE",
      "state": 41,
      "stateSpecified": true
    },
    {
      "fromDt": "05/2011",
      "toDt": "12/2011",
      "orgNm": "NORTHWESTERN MUTUAL INVESTMENT SERVICES, LLC",
      "city": "BOSTON",
      "state": 20,
      "stateSpecified": true
    },
    {
      "fromDt": "05/2011",
      "toDt": "12/2011",
      "orgNm": "NORTHWESTERN MUTUAL LIFE INSURANCE COMPANY",
      "city": "MILWAUKEE",
      "state": 50,
      "stateSpecified": true
    },
    {
      "fromDt": "12/2011",
      "toDt": "03/2012",
      "orgNm": "PIONEER INVESTMENT MANAGEMENT USA INC.",
      "city": "BOSTON",
      "state": 20,
      "stateSpecified": true
    },
    {
      "fromDt": "04/2012",
      "toDt": "10/2014",
      "orgNm": "PIONEER INVESTMENT MANAGEMENT USA, INC.",
      "city": "BOSTON",
      "state": 20,
      "stateSpecified": true
    },
    {
      "fromDt": "11/2014",
      "toDt": "08/2015",
      "orgNm": "PIONEER INVESTMENT MANAGEMENT USA, INC.",
      "city": "BOSTON",
      "state": 20,
      "stateSpecified": true
    },
    {
      "fromDt": "09/2015",
      "toDt": null,
      "orgNm": "PIONEER INVESTMENT MANAGEMENT USA, INC.",
      "city": "BOSTON",
      "state": 20,
      "stateSpecified": true
    }
  ],
  "OthrBuss": {
    "OthrBus": null
  },
  "DRPs": []
}