{
  "Info": {
    "lastNm": "Holtgrieve",
    "firstNm": "Dakota",
    "midNm": "Weston",
    "sufNm": null,
    "indvlPK": "5888853",
    "actvAGReg": 0,
    "link": "http://www.adviserinfo.sec.gov/IAPD/Individual/5888853"
  },
  "OthrNms": [
    {
      "lastNm": "HOLTGRIEVE",
      "firstNm": "DAKOTA",
      "midNm": null,
      "sufNm": null
    }
  ],
  "CrntEmps": [
    {
      "CrntRgstns": [
        {
          "regAuth": 25,
          "regCat": 0,
          "st": 2,
          "stDt": "2011-04-11T00:00:00"
        },
        {
          "regAuth": 17,
          "regCat": 0,
          "st": 2,
          "stDt": "2011-10-10T00:00:00"
        },
        {
          "regAuth": 45,
          "regCat": 0,
          "st": 3,
          "stDt": "2014-08-28T00:00:00"
        }
      ],
      "BrnchOfLocs": [
        {
          "str1": "401 SOUTH MAIN",
          "str2": null,
          "city": "PRATT",
          "state": 17,
          "stateSpecified": true,
          "cntry": "United States",
          "postlCd": "67124"
        }
      ],
      "orgNm": "EDWARD JONES",
      "orgPK": "250",
      "str1": "12555 MANCHESTER RD",
      "str2": null,
      "city": "ST. LOUIS",
      "state": 25,
      "stateSpecified": true,
      "cntry": "United States",
      "postlCd": "63131"
    }
  ],
  "Exms": [
    {
      "exmCd": 3,
      "exmNm": "Uniform Combined State Law Examination",
      "exmDt": "2011-04-07T00:00:00",
      "exmDtSpecified": true
    }
  ],
  "Dsgntns": [],
  "PrevRgstns": [],
  "EmpHss": [
    {
      "fromDt": "05/2000",
      "toDt": "05/2007",
      "orgNm": "WATERLOO HIGH SCHOOL",
      "city": "WATERLOO",
      "state": 15,
      "stateSpecified": true
    },
    {
      "fromDt": "08/2007",
      "toDt": "12/2010",
      "orgNm": "KANSAS STATE UNIVERSITY",
      "city": "MANHATTAN",
      "state": 17,
      "stateSpecified": true
    },
    {
      "fromDt": "05/2008",
      "toDt": "08/2008",
      "orgNm": "WHITETAIL SALES & SERVICE",
      "city": "ELDON",
      "state": 25,
      "stateSpecified": true
    },
    {
      "fromDt": "05/2009",
      "toDt": "08/2009",
      "orgNm": "ARCHER DANIELS MIDLAND",
      "city": "MEMPHIS",
      "state": 44,
      "stateSpecified": true
    },
    {
      "fromDt": "05/2010",
      "toDt": "08/2010",
      "orgNm": "HELENA CHEMICAL COMPANY",
      "city": "GOODLAND",
      "state": 17,
      "stateSpecified": true
    },
    {
      "fromDt": "02/2011",
      "toDt": null,
      "orgNm": "EDWARD JONES",
      "city": "ST LOUIS",
      "state": 25,
      "stateSpecified": true
    }
  ],
  "OthrBuss": {
    "OthrBus": null
  },
  "DRPs": []
}