{
  "Info": {
    "lastNm": "MILLER",
    "firstNm": "JOHN",
    "midNm": "PATRICK",
    "sufNm": null,
    "indvlPK": "5889623",
    "actvAGReg": 0,
    "link": "http://www.adviserinfo.sec.gov/IAPD/Individual/5889623"
  },
  "OthrNms": [],
  "CrntEmps": [
    {
      "CrntRgstns": [
        {
          "regAuth": 21,
          "regCat": 0,
          "st": 2,
          "stDt": "2011-10-31T00:00:00"
        }
      ],
      "BrnchOfLocs": [
        {
          "str1": "410 SEVERN AVE BLDG B",
          "str2": null,
          "city": "ANNAPOLIS",
          "state": 21,
          "stateSpecified": true,
          "cntry": "United States",
          "postlCd": "21403"
        }
      ],
      "orgNm": "MORGAN STANLEY",
      "orgPK": "149777",
      "str1": "2000 WESTCHESTER AVENUE",
      "str2": null,
      "city": "PURCHASE",
      "state": 35,
      "stateSpecified": true,
      "cntry": "United States",
      "postlCd": "10577-2530"
    }
  ],
  "Exms": [
    {
      "exmCd": 3,
      "exmNm": "Uniform Combined State Law Examination",
      "exmDt": "2011-10-28T00:00:00",
      "exmDtSpecified": true
    }
  ],
  "Dsgntns": [],
  "PrevRgstns": [],
  "EmpHss": [
    {
      "fromDt": "06/2000",
      "toDt": "08/2006",
      "orgNm": "CHAUNCEY'S SURFS SHOP",
      "city": "OCEAN CITY",
      "state": 21,
      "stateSpecified": true
    },
    {
      "fromDt": "08/2006",
      "toDt": "12/2010",
      "orgNm": "FLAGLER COLLEGE",
      "city": "SAINT AUGUSTINE",
      "state": 9,
      "stateSpecified": true
    },
    {
      "fromDt": "01/2011",
      "toDt": "06/2011",
      "orgNm": "MORGAN STANLEY SMITH BARNEY LLC",
      "city": "ANNAPOLIS",
      "state": 21,
      "stateSpecified": true
    },
    {
      "fromDt": "06/2011",
      "toDt": "02/2015",
      "orgNm": "MORGAN STANLEY SMITH BARNEY LLC",
      "city": "ANNAPOLIS",
      "state": 21,
      "stateSpecified": true
    },
    {
      "fromDt": "02/2015",
      "toDt": null,
      "orgNm": "MORGAN STANLEY SMITH BARNEY LLC",
      "city": "ANNAPOLIS",
      "state": 21,
      "stateSpecified": true
    }
  ],
  "OthrBuss": {
    "OthrBus": null
  },
  "DRPs": []
}