{
  "Info": {
    "lastNm": "EAGLESON",
    "firstNm": "MYCHAL",
    "midNm": "VASHON",
    "sufNm": null,
    "indvlPK": "5890838",
    "actvAGReg": 1,
    "link": "http://www.adviserinfo.sec.gov/IAPD/Individual/5890838"
  },
  "OthrNms": [],
  "CrntEmps": [
    {
      "CrntRgstns": [
        {
          "regAuth": 16,
          "regCat": 0,
          "st": 2,
          "stDt": "2015-10-07T00:00:00"
        }
      ],
      "BrnchOfLocs": [
        {
          "str1": "201 N. Illinois Street",
          "str2": "Suite 700",
          "city": "Indianapolis",
          "state": 16,
          "stateSpecified": true,
          "cntry": "United States",
          "postlCd": "46204"
        }
      ],
      "orgNm": "BKD WEALTH ADVISORS, LLC",
      "orgPK": "110905",
      "str1": "910 EAST ST LOUIS ST",
      "str2": "SUITE 200",
      "city": "SPRINGFIELD",
      "state": 25,
      "stateSpecified": true,
      "cntry": "United States",
      "postlCd": "65806"
    }
  ],
  "Exms": [
    {
      "exmCd": 2,
      "exmNm": "Uniform Investment Adviser Law Examination",
      "exmDt": "2013-05-31T00:00:00",
      "exmDtSpecified": true
    },
    {
      "exmCd": 0,
      "exmNm": "Uniform Securities Agent State Law Examination",
      "exmDt": "2014-06-24T00:00:00",
      "exmDtSpecified": true
    }
  ],
  "Dsgntns": [
    {
      "dsgntnNm": "Certified Financial Planner"
    }
  ],
  "PrevRgstns": [
    {
      "BrnchOfLocs": [
        {
          "city": "WHITESTOWN",
          "state": 16,
          "stateSpecified": true
        }
      ],
      "orgNm": "EAGLESON FINANCIAL PLANNING",
      "orgPK": "168053",
      "regBeginDt": "2013-06-18T00:00:00",
      "regBeginDtSpecified": true,
      "regEndDt": "2014-03-05T00:00:00",
      "regEndDtSpecified": true
    },
    {
      "BrnchOfLocs": [
        {
          "city": "INDIANAPOLIS",
          "state": 16,
          "stateSpecified": true
        }
      ],
      "orgNm": "SCHWAB PRIVATE CLIENT INVESTMENT ADVISORY, INC.",
      "orgPK": "159035",
      "regBeginDt": "2014-06-09T00:00:00",
      "regBeginDtSpecified": true,
      "regEndDt": "2015-09-04T00:00:00",
      "regEndDtSpecified": true
    }
  ],
  "EmpHss": [
    {
      "fromDt": "08/2004",
      "toDt": "05/2008",
      "orgNm": "PIKE HIGH SCHOOL",
      "city": "INDIANAPOLIS",
      "state": 16,
      "stateSpecified": true
    },
    {
      "fromDt": "06/2008",
      "toDt": "02/2011",
      "orgNm": "PNC BANK",
      "city": "ZIONSVILLE",
      "state": 16,
      "stateSpecified": true
    },
    {
      "fromDt": "02/2011",
      "toDt": "03/2012",
      "orgNm": "CHARLES SCHWAB & CO., INC.",
      "city": "INDIANAPOLIS",
      "state": 16,
      "stateSpecified": true
    },
    {
      "fromDt": "03/2012",
      "toDt": "08/2012",
      "orgNm": "ZIONSVILLE COMMUNITY SCHOOLS",
      "city": "ZIONSVILLE",
      "state": 16,
      "stateSpecified": true
    },
    {
      "fromDt": "08/2012",
      "toDt": "12/2012",
      "orgNm": "MSD WASHINGTON TOWNSHIP",
      "city": "INDIANAPOLIS",
      "state": 16,
      "stateSpecified": true
    },
    {
      "fromDt": "12/2012",
      "toDt": "05/2013",
      "orgNm": "PNC BANK",
      "city": "LEBANON",
      "state": 16,
      "stateSpecified": true
    },
    {
      "fromDt": "05/2013",
      "toDt": "05/2014",
      "orgNm": "EAGLESON FINANCIAL PLANNING LLC",
      "city": "WHITESTOWN",
      "state": 16,
      "stateSpecified": true
    },
    {
      "fromDt": "05/2014",
      "toDt": "09/2015",
      "orgNm": "SCHWAB PRIVATE CLIENT INVESTMENT ADVISORY, INC.",
      "city": "INDIANAPOLIS,",
      "state": 16,
      "stateSpecified": true
    },
    {
      "fromDt": "10/2015",
      "toDt": null,
      "orgNm": "BKD Wealth Advisors, LLC",
      "city": "Indianapolis",
      "state": 16,
      "stateSpecified": true
    }
  ],
  "OthrBuss": {
    "OthrBus": null
  },
  "DRPs": []
}