{
  "Info": {
    "lastNm": "SALAZAR",
    "firstNm": "RUTH",
    "midNm": "E",
    "sufNm": null,
    "indvlPK": "5902142",
    "actvAGReg": 0,
    "link": "http://www.adviserinfo.sec.gov/IAPD/Individual/5902142"
  },
  "OthrNms": [],
  "CrntEmps": [
    {
      "CrntRgstns": [
        {
          "regAuth": 9,
          "regCat": 0,
          "st": 2,
          "stDt": "2016-03-04T00:00:00"
        }
      ],
      "BrnchOfLocs": [
        {
          "str1": "1111 BRICKELL AVE",
          "str2": null,
          "city": "MIAMI",
          "state": 9,
          "stateSpecified": true,
          "cntry": "United States",
          "postlCd": "33131"
        }
      ],
      "orgNm": "MORGAN STANLEY",
      "orgPK": "149777",
      "str1": "2000 WESTCHESTER AVENUE",
      "str2": null,
      "city": "PURCHASE",
      "state": 35,
      "stateSpecified": true,
      "cntry": "United States",
      "postlCd": "10577-2530"
    }
  ],
  "Exms": [
    {
      "exmCd": 3,
      "exmNm": "Uniform Combined State Law Examination",
      "exmDt": "2012-01-17T00:00:00",
      "exmDtSpecified": true
    }
  ],
  "Dsgntns": [],
  "PrevRgstns": [
    {
      "BrnchOfLocs": [
        {
          "city": "MIAMI",
          "state": 9,
          "stateSpecified": true
        }
      ],
      "orgNm": "CREDIT SUISSE SECURITIES (USA) LLC",
      "orgPK": "816",
      "regBeginDt": "2012-01-19T00:00:00",
      "regBeginDtSpecified": true,
      "regEndDt": "2016-03-23T00:00:00",
      "regEndDtSpecified": true
    }
  ],
  "EmpHss": [
    {
      "fromDt": "05/2006",
      "toDt": "09/2006",
      "orgNm": "SOUTH DADE SENIOR HIGH SCHOOL",
      "city": "HOMESTEAD",
      "state": 9,
      "stateSpecified": true
    },
    {
      "fromDt": "08/2006",
      "toDt": "05/2010",
      "orgNm": "UNIVERSITY OF MIAMI",
      "city": "CORAL GABLES",
      "state": 9,
      "stateSpecified": true
    },
    {
      "fromDt": "08/2006",
      "toDt": "05/2010",
      "orgNm": "UNIVERSITY OF MIAMI AUXILIARY SERVICES",
      "city": "CORAL GABLES",
      "state": 9,
      "stateSpecified": true
    },
    {
      "fromDt": "05/2007",
      "toDt": "12/2007",
      "orgNm": "UNIVERSITY OF MIAMI HECHT ATHLETIC CENTER",
      "city": "CORAL GABLES",
      "state": 9,
      "stateSpecified": true
    },
    {
      "fromDt": "05/2010",
      "toDt": "03/2011",
      "orgNm": "UNEMPLOYED",
      "city": "HOMESTEAD",
      "state": 9,
      "stateSpecified": true
    },
    {
      "fromDt": "03/2011",
      "toDt": "03/2016",
      "orgNm": "CREDIT SUISSE SECURITIES (USA) LLC",
      "city": "MIAMI",
      "state": 9,
      "stateSpecified": true
    },
    {
      "fromDt": "03/2016",
      "toDt": null,
      "orgNm": "MORGAN STANLEY",
      "city": "MIAMI",
      "state": 9,
      "stateSpecified": true
    }
  ],
  "OthrBuss": {
    "OthrBus": null
  },
  "DRPs": []
}