{
  "Info": {
    "lastNm": "SECORD",
    "firstNm": "JOHN",
    "midNm": "DAVID",
    "sufNm": null,
    "indvlPK": "5904067",
    "actvAGReg": 0,
    "link": "http://www.adviserinfo.sec.gov/IAPD/Individual/5904067"
  },
  "OthrNms": [],
  "CrntEmps": [
    {
      "CrntRgstns": [
        {
          "regAuth": 13,
          "regCat": 0,
          "st": 2,
          "stDt": "2011-05-26T00:00:00"
        }
      ],
      "BrnchOfLocs": [
        {
          "str1": "5400 UNIVERSITY AVE",
          "str2": null,
          "city": "WEST DES MOINES",
          "state": 13,
          "stateSpecified": true,
          "cntry": "United States",
          "postlCd": "50266"
        }
      ],
      "orgNm": "FBL INVESTMENT MANAGEMENT SERVICES, INC.",
      "orgPK": "5308",
      "str1": "5400 UNIVERSITY AVE",
      "str2": null,
      "city": "WEST DES MOINES",
      "state": 13,
      "stateSpecified": true,
      "cntry": "United States",
      "postlCd": "50266-5997"
    }
  ],
  "Exms": [
    {
      "exmCd": 0,
      "exmNm": "Uniform Securities Agent State Law Examination",
      "exmDt": "2010-05-12T00:00:00",
      "exmDtSpecified": true
    },
    {
      "exmCd": 2,
      "exmNm": "Uniform Investment Adviser Law Examination",
      "exmDt": "2010-06-14T00:00:00",
      "exmDtSpecified": true
    },
    {
      "exmCd": 3,
      "exmNm": "Uniform Combined State Law Examination",
      "exmDt": "2010-06-14T00:00:00",
      "exmDtSpecified": true
    }
  ],
  "Dsgntns": [],
  "PrevRgstns": [],
  "EmpHss": [
    {
      "fromDt": "01/2005",
      "toDt": "05/2008",
      "orgNm": "TEXAS A&M- CORPUS CHRISTI",
      "city": "CORPUS CHRISTI",
      "state": 45,
      "stateSpecified": true
    },
    {
      "fromDt": "05/2008",
      "toDt": "11/2008",
      "orgNm": "UNEMPLOYED",
      "city": "CORPUS CHRISTI",
      "state": 45,
      "stateSpecified": true
    },
    {
      "fromDt": "11/2008",
      "toDt": "12/2009",
      "orgNm": "TENNESSEE TEMPLE UNIVERSITY",
      "city": "CHATTANOOGA",
      "state": 44,
      "stateSpecified": true
    },
    {
      "fromDt": "01/2010",
      "toDt": "12/2010",
      "orgNm": "UNEMPLOYED",
      "city": "BRANDON",
      "state": 43,
      "stateSpecified": true
    },
    {
      "fromDt": "01/2011",
      "toDt": "05/2011",
      "orgNm": "PRIMERICA FINANCIAL SERVICES",
      "city": "BOWIE",
      "state": 21,
      "stateSpecified": true
    },
    {
      "fromDt": "03/2011",
      "toDt": "05/2011",
      "orgNm": "PFS INVESTMENTS INC",
      "city": "BOWIE",
      "state": 21,
      "stateSpecified": true
    },
    {
      "fromDt": "05/2011",
      "toDt": null,
      "orgNm": "EQUITRUST MARKETING SERV LLC",
      "city": "WEST DES MOINES",
      "state": 13,
      "stateSpecified": true
    },
    {
      "fromDt": "05/2011",
      "toDt": null,
      "orgNm": "FARM BUREAU",
      "city": "WEST DES MOINES",
      "state": 13,
      "stateSpecified": true
    }
  ],
  "OthrBuss": {
    "OthrBus": {
      "desc": "FARM BUREAU, NOT INVESTMENT RELATED, 5400 UNIVERSITY AVE, WDM IA, INSURANCE, 05/16/2011, FULL TIME"
    }
  },
  "DRPs": []
}