{
  "Info": {
    "lastNm": "CARPENTER",
    "firstNm": "JOHN",
    "midNm": "THOMAS",
    "sufNm": "IV",
    "indvlPK": "5904373",
    "actvAGReg": 0,
    "link": "http://www.adviserinfo.sec.gov/IAPD/Individual/5904373"
  },
  "OthrNms": [
    {
      "lastNm": "CARPENTER IV",
      "firstNm": "JOHN",
      "midNm": null,
      "sufNm": null
    },
    {
      "lastNm": "CARPENTER",
      "firstNm": "J.T.",
      "midNm": null,
      "sufNm": null
    }
  ],
  "CrntEmps": [
    {
      "CrntRgstns": [
        {
          "regAuth": 45,
          "regCat": 0,
          "st": 2,
          "stDt": "2012-05-16T00:00:00"
        },
        {
          "regAuth": 9,
          "regCat": 0,
          "st": 2,
          "stDt": "2012-06-07T00:00:00"
        }
      ],
      "BrnchOfLocs": [
        {
          "str1": "4601 TOUCHTON RD EAST, BLDG 400",
          "str2": null,
          "city": "JACKSONVILLE",
          "state": 9,
          "stateSpecified": true,
          "cntry": "United States",
          "postlCd": "32246"
        }
      ],
      "orgNm": "STRATEGIC ADVISERS, INC.",
      "orgPK": "104555",
      "str1": "245 SUMMER STREET, V10G",
      "str2": null,
      "city": "BOSTON",
      "state": 20,
      "stateSpecified": true,
      "cntry": "United States",
      "postlCd": "02210"
    }
  ],
  "Exms": [
    {
      "exmCd": 0,
      "exmNm": "Uniform Securities Agent State Law Examination",
      "exmDt": "2011-06-17T00:00:00",
      "exmDtSpecified": true
    },
    {
      "exmCd": 3,
      "exmNm": "Uniform Combined State Law Examination",
      "exmDt": "2012-05-15T00:00:00",
      "exmDtSpecified": true
    }
  ],
  "Dsgntns": [],
  "PrevRgstns": [],
  "EmpHss": [
    {
      "fromDt": "08/2006",
      "toDt": "05/2010",
      "orgNm": "UNIVERSITY OF SOUTH CAROLINA",
      "city": "COLUMBIA",
      "state": 42,
      "stateSpecified": true
    },
    {
      "fromDt": "05/2007",
      "toDt": "05/2009",
      "orgNm": "TEXAS ROADHOUSE",
      "city": "IRMO",
      "state": 42,
      "stateSpecified": true
    },
    {
      "fromDt": "06/2009",
      "toDt": "03/2011",
      "orgNm": "SOUTH CAROLINA DEPARTMENT OF REVENUE",
      "city": "COLUMBIA",
      "state": 42,
      "stateSpecified": true
    },
    {
      "fromDt": "03/2011",
      "toDt": null,
      "orgNm": "FIDELITY BROKERAGE SERVICES, LLC",
      "city": "JACKSONVILLE",
      "state": 9,
      "stateSpecified": true
    }
  ],
  "OthrBuss": {
    "OthrBus": null
  },
  "DRPs": []
}