{
  "Info": {
    "lastNm": "APPIAH",
    "firstNm": "ANTHONY",
    "midNm": "YAW",
    "sufNm": null,
    "indvlPK": "5908581",
    "actvAGReg": 0,
    "link": "http://www.adviserinfo.sec.gov/IAPD/Individual/5908581"
  },
  "OthrNms": [
    {
      "lastNm": "APPIAH",
      "firstNm": "ANTHONY",
      "midNm": null,
      "sufNm": null
    }
  ],
  "CrntEmps": [
    {
      "CrntRgstns": [
        {
          "regAuth": 32,
          "regCat": 0,
          "st": 2,
          "stDt": "2015-10-22T00:00:00"
        }
      ],
      "BrnchOfLocs": [
        {
          "str1": "1000 HARBOR BLVD.",
          "str2": null,
          "city": "WEEHAWKEN",
          "state": 32,
          "stateSpecified": true,
          "cntry": "United States",
          "postlCd": "07086"
        },
        {
          "str1": "1200 HARBOR BOULEVARD",
          "str2": null,
          "city": "WEEHAWKEN",
          "state": 32,
          "stateSpecified": true,
          "cntry": "UNITED STATES",
          "postlCd": "07086"
        }
      ],
      "orgNm": "UBS FINANCIAL SERVICES INC.",
      "orgPK": "8174",
      "str1": "1200 HARBOR BOULEVARD",
      "str2": null,
      "city": "WEEHAWKEN",
      "state": 32,
      "stateSpecified": true,
      "cntry": "United States",
      "postlCd": "07086"
    }
  ],
  "Exms": [
    {
      "exmCd": 0,
      "exmNm": "Uniform Securities Agent State Law Examination",
      "exmDt": "2015-10-29T00:00:00",
      "exmDtSpecified": true
    }
  ],
  "Dsgntns": [
    {
      "dsgntnNm": "Chartered Financial Analyst"
    }
  ],
  "PrevRgstns": [],
  "EmpHss": [
    {
      "fromDt": "08/2006",
      "toDt": "05/2011",
      "orgNm": "CLEARBROOK INVESTMENT CONSULTING",
      "city": "STAMFORD",
      "state": 6,
      "stateSpecified": true
    },
    {
      "fromDt": "05/2011",
      "toDt": "08/2015",
      "orgNm": "BROWN BROTHERS HARRIMAN & CO.",
      "city": "NEW YORK",
      "state": 35,
      "stateSpecified": true
    },
    {
      "fromDt": "08/2015",
      "toDt": null,
      "orgNm": "UBS FINANCIAL SERVICES",
      "city": "WEEHAWKEN",
      "state": 32,
      "stateSpecified": true
    }
  ],
  "OthrBuss": {
    "OthrBus": null
  },
  "DRPs": []
}