{
  "Info": {
    "lastNm": "MICHNOVICZ",
    "firstNm": "SAMUEL",
    "midNm": "ANDREW",
    "sufNm": null,
    "indvlPK": "5908950",
    "actvAGReg": 0,
    "link": "http://www.adviserinfo.sec.gov/IAPD/Individual/5908950"
  },
  "OthrNms": [
    {
      "lastNm": "MICHNOVICZ",
      "firstNm": "SAMUEL",
      "midNm": "A",
      "sufNm": null
    }
  ],
  "CrntEmps": [
    {
      "CrntRgstns": [
        {
          "regAuth": 33,
          "regCat": 0,
          "st": 2,
          "stDt": "2015-09-18T00:00:00"
        }
      ],
      "BrnchOfLocs": [
        {
          "str1": "3780 FOOTHILLS RD",
          "str2": "STE C-1",
          "city": "LAS CRUCES",
          "state": 33,
          "stateSpecified": true,
          "cntry": "United States",
          "postlCd": "88011"
        }
      ],
      "orgNm": "WELLS FARGO ADVISORS FINANCIAL NETWORK, LLC",
      "orgPK": "11025",
      "str1": "ONE NORTH JEFFERSON AVENUE",
      "str2": "MAIL CODE: H0004-050",
      "city": "ST. LOUIS",
      "state": 25,
      "stateSpecified": true,
      "cntry": "United States",
      "postlCd": "63103"
    }
  ],
  "Exms": [
    {
      "exmCd": 3,
      "exmNm": "Uniform Combined State Law Examination",
      "exmDt": "2015-09-17T00:00:00",
      "exmDtSpecified": true
    }
  ],
  "Dsgntns": [],
  "PrevRgstns": [],
  "EmpHss": [
    {
      "fromDt": "06/2006",
      "toDt": "08/2006",
      "orgNm": "EASTERN NEW MEXICO UNIVERSITY",
      "city": "LAS CRUCES",
      "state": 33,
      "stateSpecified": true
    },
    {
      "fromDt": "08/2006",
      "toDt": "10/2007",
      "orgNm": "EASTERN NEW MEXICO UNIVERSITY",
      "city": "PORTALES",
      "state": 33,
      "stateSpecified": true
    },
    {
      "fromDt": "11/2007",
      "toDt": "03/2008",
      "orgNm": "UNEMPLOYED/ IN SCHOOL",
      "city": "PORTALES",
      "state": 33,
      "stateSpecified": true
    },
    {
      "fromDt": "04/2008",
      "toDt": "12/2008",
      "orgNm": "PORTALES HOMES",
      "city": "PORTALES",
      "state": 33,
      "stateSpecified": true
    },
    {
      "fromDt": "01/2009",
      "toDt": "05/2009",
      "orgNm": "UNEMPLOYED/ IN SCHOOL",
      "city": "PORTALES",
      "state": 33,
      "stateSpecified": true
    },
    {
      "fromDt": "06/2009",
      "toDt": "03/2010",
      "orgNm": "SPROLES-WOODARD, LLP",
      "city": "ARTESIA",
      "state": 33,
      "stateSpecified": true
    },
    {
      "fromDt": "04/2010",
      "toDt": null,
      "orgNm": "CATTLE BARON",
      "city": "LAS CRUCES",
      "state": 33,
      "stateSpecified": true
    },
    {
      "fromDt": "04/2011",
      "toDt": null,
      "orgNm": "WELLS FARGO ADVISORS FINANCIAL NETWORK, LLC",
      "city": "LAS CRUCES",
      "state": 33,
      "stateSpecified": true
    }
  ],
  "OthrBuss": {
    "OthrBus": {
      "desc": "CATTLE BARON RESTAURANTS,INC.; NOT INVESTMENT RELATED; LAS CRUCES, NM; RESTAURANT; HOST; START DATE 4/29/2010; 30 HRS PER MONTH; 0 HRS DURING TRADING."
    }
  },
  "DRPs": []
}