{
  "Info": {
    "lastNm": "HYBSCH",
    "firstNm": "WILLIAM",
    "midNm": "JOHN",
    "sufNm": "III",
    "indvlPK": "5914917",
    "actvAGReg": 0,
    "link": "http://www.adviserinfo.sec.gov/IAPD/Individual/5914917"
  },
  "OthrNms": [
    {
      "lastNm": "HYBSCH",
      "firstNm": "BILL",
      "midNm": "JOHN",
      "sufNm": null
    },
    {
      "lastNm": "HYBSCH",
      "firstNm": "WILLIAM",
      "midNm": "JOHN",
      "sufNm": null
    }
  ],
  "CrntEmps": [
    {
      "CrntRgstns": [
        {
          "regAuth": 31,
          "regCat": 0,
          "st": 2,
          "stDt": "2012-04-05T00:00:00"
        },
        {
          "regAuth": 45,
          "regCat": 0,
          "st": 2,
          "stDt": "2012-04-05T00:00:00"
        }
      ],
      "BrnchOfLocs": [
        {
          "str1": "TWO CONTRA WAY",
          "str2": null,
          "city": "MERRIMACK",
          "state": 31,
          "stateSpecified": true,
          "cntry": "United States",
          "postlCd": "03054"
        }
      ],
      "orgNm": "STRATEGIC ADVISERS, INC.",
      "orgPK": "104555",
      "str1": "245 SUMMER STREET, V10G",
      "str2": null,
      "city": "BOSTON",
      "state": 20,
      "stateSpecified": true,
      "cntry": "United States",
      "postlCd": "02210"
    }
  ],
  "Exms": [
    {
      "exmCd": 0,
      "exmNm": "Uniform Securities Agent State Law Examination",
      "exmDt": "2011-07-12T00:00:00",
      "exmDtSpecified": true
    },
    {
      "exmCd": 3,
      "exmNm": "Uniform Combined State Law Examination",
      "exmDt": "2012-04-03T00:00:00",
      "exmDtSpecified": true
    }
  ],
  "Dsgntns": [],
  "PrevRgstns": [],
  "EmpHss": [
    {
      "fromDt": "01/2006",
      "toDt": "05/2008",
      "orgNm": "UNIVERSITY OF NEW HAMPSHIRE",
      "city": "DURHAM",
      "state": 31,
      "stateSpecified": true
    },
    {
      "fromDt": "06/2006",
      "toDt": "08/2006",
      "orgNm": "PRINT MANAGEMENT GROUP",
      "city": "BOW",
      "state": 31,
      "stateSpecified": true
    },
    {
      "fromDt": "06/2007",
      "toDt": "08/2007",
      "orgNm": "PRINT MANAGEMENT GROUP",
      "city": "BOW",
      "state": 31,
      "stateSpecified": true
    },
    {
      "fromDt": "06/2008",
      "toDt": "10/2008",
      "orgNm": "DERRYFIELD RESTAURANT AND BAR",
      "city": "MANCHESTER",
      "state": 31,
      "stateSpecified": true
    },
    {
      "fromDt": "01/2009",
      "toDt": "03/2011",
      "orgNm": "ED REILLY SUBARU",
      "city": "CONCORD",
      "state": 31,
      "stateSpecified": true
    },
    {
      "fromDt": "04/2011",
      "toDt": null,
      "orgNm": "FIDELITY INVESTMENTS",
      "city": "MERRIMACK",
      "state": 31,
      "stateSpecified": true
    }
  ],
  "OthrBuss": {
    "OthrBus": null
  },
  "DRPs": []
}