{
  "Info": {
    "lastNm": "SHOEMAKER",
    "firstNm": "JANE",
    "midNm": "ELLEN",
    "sufNm": null,
    "indvlPK": "5918235",
    "actvAGReg": 0,
    "link": "http://www.adviserinfo.sec.gov/IAPD/Individual/5918235"
  },
  "OthrNms": [
    {
      "lastNm": "FREDRITZ",
      "firstNm": "JANE",
      "midNm": "E",
      "sufNm": null
    }
  ],
  "CrntEmps": [
    {
      "CrntRgstns": [
        {
          "regAuth": 36,
          "regCat": 0,
          "st": 2,
          "stDt": "2016-04-07T00:00:00"
        }
      ],
      "BrnchOfLocs": [
        {
          "str1": "521 S Main Street",
          "str2": "Suite 200",
          "city": "Findlay",
          "state": 36,
          "stateSpecified": true,
          "cntry": "United States",
          "postlCd": "45840"
        }
      ],
      "orgNm": "EAGLE STRATEGIES LLC",
      "orgPK": "110826",
      "str1": "51 MADISON AVENUE",
      "str2": "ROOM 913",
      "city": "NEW YORK",
      "state": 35,
      "stateSpecified": true,
      "cntry": "United States",
      "postlCd": "10010"
    }
  ],
  "Exms": [
    {
      "exmCd": 3,
      "exmNm": "Uniform Combined State Law Examination",
      "exmDt": "2016-03-14T00:00:00",
      "exmDtSpecified": true
    }
  ],
  "Dsgntns": [],
  "PrevRgstns": [],
  "EmpHss": [
    {
      "fromDt": "01/1996",
      "toDt": "03/2011",
      "orgNm": "COOPER TIRE & RUBBER CO",
      "city": "FINDLAY",
      "state": 36,
      "stateSpecified": true
    },
    {
      "fromDt": "04/2011",
      "toDt": "05/2014",
      "orgNm": "MOYER FINANCIAL SERVICES",
      "city": "FINDLAY",
      "state": 36,
      "stateSpecified": true
    },
    {
      "fromDt": "05/2014",
      "toDt": null,
      "orgNm": "MOYER FINANCIAL SERVICES",
      "city": "FINDLAY",
      "state": 36,
      "stateSpecified": true
    },
    {
      "fromDt": "05/2014",
      "toDt": null,
      "orgNm": "NYLIFE SECURITIES LLC",
      "city": "FINDLAY",
      "state": 36,
      "stateSpecified": true
    },
    {
      "fromDt": "04/2016",
      "toDt": null,
      "orgNm": "Eagle Strategies LLC",
      "city": "Findlay",
      "state": 36,
      "stateSpecified": true
    }
  ],
  "OthrBuss": {
    "OthrBus": {
      "desc": "[NRA CERTIFIED INSTRUCTOR; EDUCATOR AND INSTRUCTOR; COMPENSATION: FEES]   [HANCOCK COUNTY CONSERVATION LEAGUE; THE HANCOCK COUNTY CONSERVATION LEAGUE IS A FIREARM AND SHOOTING CLUB AFFILIATED WITH THE NATIONAL RIFLE ASSOCIATION.; 13748 JACKSON TWP. RD. 168, FINDLAY, OH 45840; START DATE 06/2015; ROLE/TITLE: SECRETARY; NOT INVESTMENT RELATED; 4 HOURS PER MONTH; 0 HOURS PER MONTH DURING SECURITIES TRADING HOURS]    [OPERATING UNDER THE DBA NAME OF MOYER FINANCIAL SERVICES FOR THE PURPOSE OF SERVICING ITS INSURANCE AND FINANCIAL PRODUCT CLIENTS; INVESTMENT RELATED; ASSOCIATE; FINDLAY, OH]    [Zonta Club of Findlay; Zonta Club of Findlay is a global service organization of executives and professionals working together to advance the status of women through service and advocacy.; P.O. Box 415, Findlay, OH 45839-0415; Start Date 05/2016; Role/Title: President; Not Investment Related; 20 hours per month; 4 hours per month during securities trading hours]"
    }
  },
  "DRPs": []
}