{
  "Info": {
    "lastNm": "O'BRIEN",
    "firstNm": "HEALY",
    "midNm": "CONOR",
    "sufNm": null,
    "indvlPK": "5921734",
    "actvAGReg": 1,
    "link": "http://www.adviserinfo.sec.gov/IAPD/Individual/5921734"
  },
  "OthrNms": [],
  "CrntEmps": [
    {
      "CrntRgstns": [
        {
          "regAuth": 39,
          "regCat": 0,
          "st": 2,
          "stDt": "2013-03-11T00:00:00"
        }
      ],
      "BrnchOfLocs": [
        {
          "str1": "ONE FREEDOM VALLEY DRIVE",
          "str2": null,
          "city": "OAKS",
          "state": 39,
          "stateSpecified": true,
          "cntry": "United States",
          "postlCd": "19456"
        }
      ],
      "orgNm": "SEI INVESTMENTS MANAGEMENT CORP",
      "orgPK": "105146",
      "str1": "ONE FREEDOM VALLEY DRIVE",
      "str2": null,
      "city": "OAKS",
      "state": 39,
      "stateSpecified": true,
      "cntry": "United States",
      "postlCd": "19456"
    }
  ],
  "Exms": [
    {
      "exmCd": 2,
      "exmNm": "Uniform Investment Adviser Law Examination",
      "exmDt": "2013-03-09T00:00:00",
      "exmDtSpecified": true
    }
  ],
  "Dsgntns": [],
  "PrevRgstns": [],
  "EmpHss": [
    {
      "fromDt": "08/2006",
      "toDt": "06/2008",
      "orgNm": "TOWER HILL SCHOOL",
      "city": "WILMINGTON",
      "state": 8,
      "stateSpecified": true
    },
    {
      "fromDt": "08/2008",
      "toDt": "06/2010",
      "orgNm": "UNIVERSITY OF DELAWARE",
      "city": "NEWARK",
      "state": 8,
      "stateSpecified": true
    },
    {
      "fromDt": "08/2010",
      "toDt": "08/2012",
      "orgNm": "CORNELL UNIVERSITY",
      "city": "ITHACA",
      "state": 35,
      "stateSpecified": true
    },
    {
      "fromDt": "05/2011",
      "toDt": "08/2011",
      "orgNm": "GREENVILLE FINANCIAL GROUP",
      "city": "GREENVILLE",
      "state": 8,
      "stateSpecified": true
    },
    {
      "fromDt": "10/2012",
      "toDt": null,
      "orgNm": "SEI",
      "city": "OAKS",
      "state": 39,
      "stateSpecified": true
    }
  ],
  "OthrBuss": {
    "OthrBus": null
  },
  "DRPs": []
}