{
  "Info": {
    "lastNm": "BOWER",
    "firstNm": "DONALD",
    "midNm": "NELSON",
    "sufNm": "III",
    "indvlPK": "5926647",
    "actvAGReg": 0,
    "link": "http://www.adviserinfo.sec.gov/IAPD/Individual/5926647"
  },
  "OthrNms": [
    {
      "lastNm": "BOWER",
      "firstNm": "DONALD",
      "midNm": "NELSON",
      "sufNm": null
    },
    {
      "lastNm": "BOWER",
      "firstNm": "DONALD",
      "midNm": "NELSON",
      "sufNm": "III"
    }
  ],
  "CrntEmps": [
    {
      "CrntRgstns": [
        {
          "regAuth": 4,
          "regCat": 0,
          "st": 2,
          "stDt": "2016-02-08T00:00:00"
        },
        {
          "regAuth": 39,
          "regCat": 0,
          "st": 2,
          "stDt": "2016-02-08T00:00:00"
        },
        {
          "regAuth": 47,
          "regCat": 0,
          "st": 2,
          "stDt": "2016-02-08T00:00:00"
        }
      ],
      "BrnchOfLocs": [
        {
          "str1": "300 WEST WATER ST",
          "str2": null,
          "city": "ELMIRA",
          "state": 35,
          "stateSpecified": true,
          "cntry": "United States",
          "postlCd": "14901"
        }
      ],
      "orgNm": "INVEST FINANCIAL CORPORATION",
      "orgPK": "12984",
      "str1": "12750 CITRUS PARK LANE",
      "str2": "SUITE 300",
      "city": "TAMPA",
      "state": 9,
      "stateSpecified": true,
      "cntry": "United States",
      "postlCd": "33625"
    }
  ],
  "Exms": [
    {
      "exmCd": 3,
      "exmNm": "Uniform Combined State Law Examination",
      "exmDt": "2011-07-29T00:00:00",
      "exmDtSpecified": true
    }
  ],
  "Dsgntns": [],
  "PrevRgstns": [
    {
      "BrnchOfLocs": [
        {
          "city": "CHINO HILLS",
          "state": 4,
          "stateSpecified": true
        },
        {
          "city": "CLAREMONT",
          "state": 4,
          "stateSpecified": true
        },
        {
          "city": "ST LOUIS",
          "state": 25,
          "stateSpecified": true
        },
        {
          "city": "TEMPE",
          "state": 3,
          "stateSpecified": true
        }
      ],
      "orgNm": "EDWARD JONES",
      "orgPK": "250",
      "regBeginDt": "2011-10-10T00:00:00",
      "regBeginDtSpecified": true,
      "regEndDt": "2015-12-09T00:00:00",
      "regEndDtSpecified": true
    }
  ],
  "EmpHss": [
    {
      "fromDt": "06/2000",
      "toDt": "06/2008",
      "orgNm": "STUDENT",
      "city": "ERIN",
      "state": 35,
      "stateSpecified": true
    },
    {
      "fromDt": "06/2007",
      "toDt": "06/2009",
      "orgNm": "HORSEHEADS DO-IT CENTER",
      "city": "HORSEHEADS",
      "state": 35,
      "stateSpecified": true
    },
    {
      "fromDt": "06/2008",
      "toDt": "09/2008",
      "orgNm": "DANDY MINI-MART",
      "city": "BREESPORT",
      "state": 35,
      "stateSpecified": true
    },
    {
      "fromDt": "08/2008",
      "toDt": "05/2011",
      "orgNm": "LYCOMING COLLEGE",
      "city": "WILLIAMSPORT",
      "state": 39,
      "stateSpecified": true
    },
    {
      "fromDt": "06/2011",
      "toDt": "12/2015",
      "orgNm": "EDWARD JONES",
      "city": "ST. LOUIS",
      "state": 25,
      "stateSpecified": true
    },
    {
      "fromDt": "02/2016",
      "toDt": null,
      "orgNm": "Community Bank, NA",
      "city": "Elmira",
      "state": 35,
      "stateSpecified": true
    },
    {
      "fromDt": "02/2016",
      "toDt": null,
      "orgNm": "INVEST Financial Corp.",
      "city": "Tampa",
      "state": 9,
      "stateSpecified": true
    }
  ],
  "OthrBuss": {
    "OthrBus": {
      "desc": "Tender III Acres; not investment related; owner - start date 1/10/2016; 1039 Red Chalk Road Ext. Erin, NY 14838; decision making, purchases & sales of swine farm; 20 hours per mo, 0 during trading."
    }
  },
  "DRPs": []
}