{
  "Info": {
    "lastNm": "NORTH",
    "firstNm": "GARRISON",
    "midNm": "REXON",
    "sufNm": null,
    "indvlPK": "5927506",
    "actvAGReg": 0,
    "link": "http://www.adviserinfo.sec.gov/IAPD/Individual/5927506"
  },
  "OthrNms": [
    {
      "lastNm": "NORTH",
      "firstNm": "GARRY",
      "midNm": null,
      "sufNm": null
    }
  ],
  "CrntEmps": [
    {
      "CrntRgstns": [
        {
          "regAuth": 39,
          "regCat": 0,
          "st": 2,
          "stDt": "2014-10-29T00:00:00"
        }
      ],
      "BrnchOfLocs": [
        {
          "str1": "480 NEW HOLLAND AVE STE 7201",
          "str2": null,
          "city": "LANCASTER",
          "state": 39,
          "stateSpecified": true,
          "cntry": "United States",
          "postlCd": "17602"
        }
      ],
      "orgNm": "SECURITIES AMERICA ADVISORS, INC.",
      "orgPK": "110518",
      "str1": "12325 PORT GRACE BLVD.",
      "str2": null,
      "city": "LA VISTA",
      "state": 30,
      "stateSpecified": true,
      "cntry": "United States",
      "postlCd": "68128-8204"
    }
  ],
  "Exms": [
    {
      "exmCd": 0,
      "exmNm": "Uniform Securities Agent State Law Examination",
      "exmDt": "2012-12-20T00:00:00",
      "exmDtSpecified": true
    },
    {
      "exmCd": 2,
      "exmNm": "Uniform Investment Adviser Law Examination",
      "exmDt": "2013-03-14T00:00:00",
      "exmDtSpecified": true
    }
  ],
  "Dsgntns": [],
  "PrevRgstns": [],
  "EmpHss": [
    {
      "fromDt": "05/2006",
      "toDt": "09/2007",
      "orgNm": "FREEZE AND FRIZZ INC.",
      "city": "LITITZ",
      "state": 39,
      "stateSpecified": true
    },
    {
      "fromDt": "05/2007",
      "toDt": "08/2011",
      "orgNm": "LANCASTER COUNTRY CLUB",
      "city": "LANCASTER",
      "state": 39,
      "stateSpecified": true
    },
    {
      "fromDt": "06/2008",
      "toDt": "07/2010",
      "orgNm": "KEYSTONE FIREWORKS",
      "city": "LANCASTER",
      "state": 39,
      "stateSpecified": true
    },
    {
      "fromDt": "08/2008",
      "toDt": "05/2012",
      "orgNm": "PHILADELPHIA BIBLICAL UNIVERSITY",
      "city": "LANGHORNE",
      "state": 39,
      "stateSpecified": true
    },
    {
      "fromDt": "12/2008",
      "toDt": "01/2012",
      "orgNm": "FRANKLIN AND MARSHALL COLLEGE",
      "city": "LANCASTER",
      "state": 39,
      "stateSpecified": true
    },
    {
      "fromDt": "05/2012",
      "toDt": null,
      "orgNm": "MASTER'S ADVISORS",
      "city": "LANCASTER",
      "state": 39,
      "stateSpecified": true
    },
    {
      "fromDt": "09/2012",
      "toDt": null,
      "orgNm": "SECURITIES AMERICA, INC",
      "city": "LANCASTER",
      "state": 39,
      "stateSpecified": true
    },
    {
      "fromDt": "10/2014",
      "toDt": null,
      "orgNm": "SECURITIES AMERICA ADVISORS",
      "city": "LANCASTER",
      "state": 39,
      "stateSpecified": true
    }
  ],
  "OthrBuss": {
    "OthrBus": {
      "desc": "INSURANCE SALES - Agent - Investment Related - Start Date: 8/2012 - Located at 480 NEW HOLLAND AVE STE 7201, LANCASTER PA 17602-2292  SECURITIES AMERICA ADVISORS - Investment Advisory - INVESTMENT ADVISOR REPRESENTATIVE - Investment Related - Start Date: 10/2014 - Located at 480 NEW HOLLAND AVE STE 7201, LANCASTER PA 17602-2292  NEFFSVILLE MENNONITE CHURCH POSITION: Writing checks to fund church ministries NATURE: Treasurer of church class. INVESTMENT RELATED: No NUMBER OF HOURS: 1 SECURITIES TRADING HOURS: 0 START DATE: 01/01/2015 ADDRESS: 2371 Lititz Pike, Lancaster PA 17601 DESCRIPTION: I am named on the bank account and have checkwriting privileges."
    }
  },
  "DRPs": []
}