{
  "Info": {
    "lastNm": "REED",
    "firstNm": "JEREMY",
    "midNm": "JOSEPH",
    "sufNm": null,
    "indvlPK": "5929998",
    "actvAGReg": 0,
    "link": "http://www.adviserinfo.sec.gov/IAPD/Individual/5929998"
  },
  "OthrNms": [],
  "CrntEmps": [
    {
      "CrntRgstns": [
        {
          "regAuth": 21,
          "regCat": 0,
          "st": 2,
          "stDt": "2015-10-20T00:00:00"
        }
      ],
      "BrnchOfLocs": [
        {
          "str1": "500 EAST PRATT STREET",
          "str2": null,
          "city": "BALTIMORE",
          "state": 21,
          "stateSpecified": true,
          "cntry": "United States",
          "postlCd": "21202"
        }
      ],
      "orgNm": "UBS FINANCIAL SERVICES INC.",
      "orgPK": "8174",
      "str1": "1200 HARBOR BOULEVARD",
      "str2": null,
      "city": "WEEHAWKEN",
      "state": 32,
      "stateSpecified": true,
      "cntry": "United States",
      "postlCd": "07086"
    }
  ],
  "Exms": [
    {
      "exmCd": 2,
      "exmNm": "Uniform Investment Adviser Law Examination",
      "exmDt": "2011-05-10T00:00:00",
      "exmDtSpecified": true
    },
    {
      "exmCd": 0,
      "exmNm": "Uniform Securities Agent State Law Examination",
      "exmDt": "2013-02-08T00:00:00",
      "exmDtSpecified": true
    }
  ],
  "Dsgntns": [],
  "PrevRgstns": [
    {
      "BrnchOfLocs": [
        {
          "city": "COLUMBIA",
          "state": 21,
          "stateSpecified": true
        }
      ],
      "orgNm": "BLACK INK WEALTH MANAGEMENT, INC.",
      "orgPK": "120887",
      "regBeginDt": "2011-06-03T00:00:00",
      "regBeginDtSpecified": true,
      "regEndDt": "2012-09-17T00:00:00",
      "regEndDtSpecified": true
    },
    {
      "BrnchOfLocs": [
        {
          "city": "BALTIMORE",
          "state": 21,
          "stateSpecified": true
        },
        {
          "city": "COLUMBIA",
          "state": 21,
          "stateSpecified": true
        }
      ],
      "orgNm": "MORGAN STANLEY",
      "orgPK": "149777",
      "regBeginDt": "2013-04-08T00:00:00",
      "regBeginDtSpecified": true,
      "regEndDt": "2015-10-20T00:00:00",
      "regEndDtSpecified": true
    }
  ],
  "EmpHss": [
    {
      "fromDt": "09/2005",
      "toDt": "12/2008",
      "orgNm": "UMBC",
      "city": "CATONSVILLE",
      "state": 21,
      "stateSpecified": true
    },
    {
      "fromDt": "01/2006",
      "toDt": "07/2008",
      "orgNm": "FINANCIAL ACCOUNTING OF MD",
      "city": "ELLICOTT CITY",
      "state": 21,
      "stateSpecified": true
    },
    {
      "fromDt": "09/2007",
      "toDt": "05/2010",
      "orgNm": "UMBC",
      "city": "CATONSVILLE",
      "state": 21,
      "stateSpecified": true
    },
    {
      "fromDt": "07/2008",
      "toDt": "09/2012",
      "orgNm": "ALMS & ASSOCIATES, INC.",
      "city": "COLUMBIA",
      "state": 21,
      "stateSpecified": true
    },
    {
      "fromDt": "01/2009",
      "toDt": "09/2012",
      "orgNm": "ALTERNATIVE INVESTMENT SYSTEMS",
      "city": "ELKRIDGE",
      "state": 21,
      "stateSpecified": true
    },
    {
      "fromDt": "09/2012",
      "toDt": "12/2012",
      "orgNm": "WEALTH SERVICES, LLC",
      "city": "HAGERSTOWN",
      "state": 21,
      "stateSpecified": true
    },
    {
      "fromDt": "12/2012",
      "toDt": "08/2013",
      "orgNm": "MORGAN STANLEY SMITH BARNEY LLC",
      "city": "BALTIMORE",
      "state": 21,
      "stateSpecified": true
    },
    {
      "fromDt": "08/2013",
      "toDt": "01/2015",
      "orgNm": "MORGAN STANLEY SMITH BARNEY LLC",
      "city": "COLUMBIA",
      "state": 21,
      "stateSpecified": true
    },
    {
      "fromDt": "01/2015",
      "toDt": "10/2015",
      "orgNm": "MORGAN STANLEY PRIVATE BANK, NATIONAL ASSOCIATION",
      "city": "NEW YORK",
      "state": 35,
      "stateSpecified": true
    },
    {
      "fromDt": "10/2015",
      "toDt": null,
      "orgNm": "UBS FINANCIAL SERVICES INC.",
      "city": "BALTIMORE",
      "state": 21,
      "stateSpecified": true
    }
  ],
  "OthrBuss": {
    "OthrBus": {
      "desc": "Reed Properties 16, LLC / 6400 Greenfield Road, Unit 910 Elkridge,Maryland 21075 / Other/ Real Estate  / Rental Properties / Sole proprietorship /  / Buy rental properties, hire property manager / Start Date 2/18/16 Single Member LLC  /"
    }
  },
  "DRPs": []
}