{
  "Info": {
    "lastNm": "THIBAULT",
    "firstNm": "JACQUELINE",
    "midNm": "M",
    "sufNm": null,
    "indvlPK": "5930259",
    "actvAGReg": 0,
    "link": "http://www.adviserinfo.sec.gov/IAPD/Individual/5930259"
  },
  "OthrNms": [],
  "CrntEmps": [
    {
      "CrntRgstns": [
        {
          "regAuth": 32,
          "regCat": 0,
          "st": 2,
          "stDt": "2014-02-12T00:00:00"
        }
      ],
      "BrnchOfLocs": [
        {
          "str1": "3 ATRIUM DRIVE",
          "str2": "SUITE 255",
          "city": "ALBANY",
          "state": 35,
          "stateSpecified": true,
          "cntry": "United States",
          "postlCd": "12205"
        }
      ],
      "orgNm": "NORTHWESTERN MUTUAL INVESTMENT SERVICES, LLC",
      "orgPK": "2881",
      "str1": "611 EAST WISCONSIN AVE",
      "str2": null,
      "city": "MILWAUKEE",
      "state": 50,
      "stateSpecified": true,
      "cntry": "United States",
      "postlCd": "53202-4797"
    }
  ],
  "Exms": [
    {
      "exmCd": 3,
      "exmNm": "Uniform Combined State Law Examination",
      "exmDt": "2014-02-10T00:00:00",
      "exmDtSpecified": true
    }
  ],
  "Dsgntns": [],
  "PrevRgstns": [],
  "EmpHss": [
    {
      "fromDt": "09/2005",
      "toDt": "06/2009",
      "orgNm": "SHENENDEHOWA HIGH SCHOOL",
      "city": "CLIFTON PARK",
      "state": 35,
      "stateSpecified": true
    },
    {
      "fromDt": "10/2006",
      "toDt": "03/2009",
      "orgNm": "CLIFTON PARK ICE ARENA",
      "city": "CLIFTON PARK",
      "state": 35,
      "stateSpecified": true
    },
    {
      "fromDt": "05/2007",
      "toDt": "06/2013",
      "orgNm": "COBURG VILLAGE",
      "city": "REXFORD",
      "state": 35,
      "stateSpecified": true
    },
    {
      "fromDt": "08/2009",
      "toDt": "08/2010",
      "orgNm": "LIL LAMBS CHRISTIAN DAY CARE",
      "city": "CLIFTON PARK",
      "state": 35,
      "stateSpecified": true
    },
    {
      "fromDt": "08/2009",
      "toDt": "05/2013",
      "orgNm": "SUNY OSWEGO",
      "city": "OSWEGO",
      "state": 35,
      "stateSpecified": true
    },
    {
      "fromDt": "06/2010",
      "toDt": "08/2010",
      "orgNm": "CLIFTON PARK PARKS AND REC",
      "city": "CLIFTON PARK",
      "state": 35,
      "stateSpecified": true
    },
    {
      "fromDt": "06/2011",
      "toDt": "10/2011",
      "orgNm": "NORTHWESTERN MUTUAL LIFE INSURANCE COMPANY",
      "city": "MILWAUKEE",
      "state": 50,
      "stateSpecified": true
    },
    {
      "fromDt": "05/2012",
      "toDt": "08/2012",
      "orgNm": "ACTIVE NETWORK",
      "city": "SARATOGA",
      "state": 35,
      "stateSpecified": true
    },
    {
      "fromDt": "09/2012",
      "toDt": "05/2013",
      "orgNm": "SUNY OSWEGO",
      "city": "OSWEGO",
      "state": 35,
      "stateSpecified": true
    },
    {
      "fromDt": "06/2013",
      "toDt": null,
      "orgNm": "WILLIAM JOSEPH NEWMAN",
      "city": "ALBANY",
      "state": 35,
      "stateSpecified": true
    },
    {
      "fromDt": "07/2013",
      "toDt": null,
      "orgNm": "NORTHWESTERN MUTUAL INVESTMENT SERVICES, LLC",
      "city": "ALBANY",
      "state": 35,
      "stateSpecified": true
    },
    {
      "fromDt": "02/2014",
      "toDt": null,
      "orgNm": "NORTHWESTERN MUTUAL WEALTH MANAGEMENT COMPANY",
      "city": "ALBANY",
      "state": 35,
      "stateSpecified": true
    }
  ],
  "OthrBuss": {
    "OthrBus": null
  },
  "DRPs": []
}