{
  "Info": {
    "lastNm": "SMITH",
    "firstNm": "TYLER",
    "midNm": "DEAN",
    "sufNm": null,
    "indvlPK": "5931235",
    "actvAGReg": 0,
    "link": "http://www.adviserinfo.sec.gov/IAPD/Individual/5931235"
  },
  "OthrNms": [],
  "CrntEmps": [
    {
      "CrntRgstns": [
        {
          "regAuth": 28,
          "regCat": 0,
          "st": 2,
          "stDt": "2011-09-07T00:00:00"
        }
      ],
      "BrnchOfLocs": [
        {
          "str1": "780 NW Borad Street",
          "str2": "Suite 300",
          "city": "Southern Pines",
          "state": 28,
          "stateSpecified": true,
          "cntry": "United States",
          "postlCd": "28387"
        }
      ],
      "orgNm": "H. BECK, INC.",
      "orgPK": "1763",
      "str1": "6600 ROCKLEDGE DRIVE",
      "str2": "6TH FLOOR",
      "city": "BETHESDA",
      "state": 21,
      "stateSpecified": true,
      "cntry": "United States",
      "postlCd": "20817-1806"
    }
  ],
  "Exms": [
    {
      "exmCd": 3,
      "exmNm": "Uniform Combined State Law Examination",
      "exmDt": "2011-09-06T00:00:00",
      "exmDtSpecified": true
    }
  ],
  "Dsgntns": [],
  "PrevRgstns": [],
  "EmpHss": [
    {
      "fromDt": "01/2000",
      "toDt": null,
      "orgNm": "COMPUTER SERVICES",
      "city": "CARTHAGE",
      "state": 28,
      "stateSpecified": true
    },
    {
      "fromDt": "04/2005",
      "toDt": "10/2010",
      "orgNm": "ALTUS",
      "city": "TUSTIN",
      "state": 4,
      "stateSpecified": true
    },
    {
      "fromDt": "06/2011",
      "toDt": null,
      "orgNm": "H. BECK, INC.",
      "city": "ROCKVILLE",
      "state": 21,
      "stateSpecified": true
    }
  ],
  "OthrBuss": {
    "OthrBus": {
      "desc": "SMITH INSURANCE SERVICES - INSURANCE SERVICES POSITION: AGENT NATURE: INSURANCE SALES INVESTMENT RELATED: YES NUMBER OF HOURS: 1 INVESTMENT RELATED HOURS: 1 START DATE: 06/16/2011  ADDRESS: 100 MARKET SQUARE, PO BOX 1168, PINEHURST NC 28370  DESCRIPTION: INSURANCE SALES OF TERM AND WHOLE LIFE POLICIES.    SOLUTION PROS - COMPUTER SERVICES  POSITION: OWNER NATURE: BUSINESS, MARKETING, OTHER INVESTMENT RELATED: NO NUMBER OF HOURS: 1 INVESTMENT RELATED HOURS: 1 START DATE: 01/17/1996  ADDRESS: 725 NIAGARA CARTHAGE ROAD, CARTHAGE NC 28327  DESCRIPTION: COMPUTER CONSULTING SERVICES. NETWORKING, PC REPAIR, SYSTEM SECURITY AND OTHER COMPUTER RELATED SERVICES."
    }
  },
  "DRPs": [
    {
      "hasRegAction": 1,
      "hasRegActionSpecified": true,
      "hasCriminal": 1,
      "hasCriminalSpecified": true,
      "hasBankrupt": 1,
      "hasBankruptSpecified": true,
      "hasCivilJudc": 1,
      "hasCivilJudcSpecified": true,
      "hasBond": 1,
      "hasBondSpecified": true,
      "hasJudgment": 1,
      "hasJudgmentSpecified": true,
      "hasInvstgn": 1,
      "hasInvstgnSpecified": true,
      "hasCustComp": 0,
      "hasCustCompSpecified": true,
      "hasTermination": 1,
      "hasTerminationSpecified": true
    }
  ]
}