{
  "Info": {
    "lastNm": "Gerscovich",
    "firstNm": "Carina",
    "midNm": "Luisa",
    "sufNm": null,
    "indvlPK": "5936803",
    "actvAGReg": 0,
    "link": "http://www.adviserinfo.sec.gov/IAPD/Individual/5936803"
  },
  "OthrNms": [
    {
      "lastNm": "GERSCOVICH",
      "firstNm": "CARINA",
      "midNm": null,
      "sufNm": null
    }
  ],
  "CrntEmps": [
    {
      "CrntRgstns": [
        {
          "regAuth": 9,
          "regCat": 0,
          "st": 2,
          "stDt": "2016-03-09T00:00:00"
        },
        {
          "regAuth": 45,
          "regCat": 0,
          "st": 3,
          "stDt": "2016-04-11T00:00:00"
        }
      ],
      "BrnchOfLocs": [
        {
          "str1": "4705 S APOPKA VINELAND RD",
          "str2": null,
          "city": "ORLANDO",
          "state": 9,
          "stateSpecified": true,
          "cntry": "United States",
          "postlCd": "32819"
        }
      ],
      "orgNm": "MERRILL LYNCH, PIERCE, FENNER & SMITH INCORPORATED",
      "orgPK": "7691",
      "str1": "ONE BRYANT PARK",
      "str2": null,
      "city": "NEW YORK",
      "state": 35,
      "stateSpecified": true,
      "cntry": "United States",
      "postlCd": "10036"
    }
  ],
  "Exms": [
    {
      "exmCd": 3,
      "exmNm": "Uniform Combined State Law Examination",
      "exmDt": "2012-12-11T00:00:00",
      "exmDtSpecified": true
    }
  ],
  "Dsgntns": [],
  "PrevRgstns": [
    {
      "BrnchOfLocs": [
        {
          "city": "CHARLESTON",
          "state": 42,
          "stateSpecified": true
        },
        {
          "city": "CHARLESTON",
          "state": 42,
          "stateSpecified": true
        },
        {
          "city": "ST LOUIS",
          "state": 25,
          "stateSpecified": true
        }
      ],
      "orgNm": "EDWARD JONES",
      "orgPK": "250",
      "regBeginDt": "2013-02-05T00:00:00",
      "regBeginDtSpecified": true,
      "regEndDt": "2016-02-18T00:00:00",
      "regEndDtSpecified": true
    }
  ],
  "EmpHss": [
    {
      "fromDt": "08/2004",
      "toDt": "12/2010",
      "orgNm": "COLLEGE OF CHARLESTON",
      "city": "CHARLESTON",
      "state": 42,
      "stateSpecified": true
    },
    {
      "fromDt": "05/2006",
      "toDt": "09/2006",
      "orgNm": "JOJO BOUTIQUE",
      "city": "CHARLESTON",
      "state": 42,
      "stateSpecified": true
    },
    {
      "fromDt": "05/2007",
      "toDt": "08/2007",
      "orgNm": "NANNY",
      "city": "CHARLESTON",
      "state": 42,
      "stateSpecified": true
    },
    {
      "fromDt": "05/2008",
      "toDt": "06/2009",
      "orgNm": "TAYLOR MUSIC GROUP",
      "city": "CHARLESTON",
      "state": 42,
      "stateSpecified": true
    },
    {
      "fromDt": "05/2009",
      "toDt": "08/2009",
      "orgNm": "MAD RIVER BAR AND GRILLE",
      "city": "CHARLESTON",
      "state": 42,
      "stateSpecified": true
    },
    {
      "fromDt": "05/2009",
      "toDt": "01/2011",
      "orgNm": "OCEAN ROOM AT THE SANCTUARY",
      "city": "KIAWAH ISALND",
      "state": 42,
      "stateSpecified": true
    },
    {
      "fromDt": "02/2010",
      "toDt": "12/2010",
      "orgNm": "NANNY",
      "city": "CHALRESTON",
      "state": 42,
      "stateSpecified": true
    },
    {
      "fromDt": "08/2010",
      "toDt": "12/2010",
      "orgNm": "CHARLESTON CONCERT ASSOCIATION",
      "city": "CHARLESTON",
      "state": 42,
      "stateSpecified": true
    },
    {
      "fromDt": "01/2011",
      "toDt": "06/2011",
      "orgNm": "NANNY",
      "city": "CHARLESTON",
      "state": 42,
      "stateSpecified": true
    },
    {
      "fromDt": "06/2011",
      "toDt": "09/2012",
      "orgNm": "EDWARD JONES",
      "city": "CHARLESTON",
      "state": 42,
      "stateSpecified": true
    },
    {
      "fromDt": "09/2012",
      "toDt": "02/2016",
      "orgNm": "EDWARD JONES",
      "city": "ST LOUIS",
      "state": 25,
      "stateSpecified": true
    },
    {
      "fromDt": "02/2016",
      "toDt": null,
      "orgNm": "MERRILL LYNCH, PIERCE, FENNER & SMITH INCORPORATED",
      "city": "WINTER PARK",
      "state": 9,
      "stateSpecified": true
    },
    {
      "fromDt": "03/2016",
      "toDt": null,
      "orgNm": "BANK OF AMERICA, N.A.",
      "city": "WINTER PARK",
      "state": 9,
      "stateSpecified": true
    }
  ],
  "OthrBuss": {
    "OthrBus": {
      "desc": "I*93880 FOR PROFIT OR NOT FOR PROFIT: NON-PROFIT ORGANIZATION  NAME OF OUTSIDE BUSINESS ORGANIZATION: TRINITY PREPARATORY SCHOOL ALUMNI ADVISORY BOARD  INVESTMENT RELATED: N  ADDRESS OF BUSINESS:   5700 TRINITY PREP LANE,   WINTER PARK, FLORIDA 32792  NATURE OF BUSINESS: OTHER, NON- PROFIT SCHOOL BOARD  POSITION, TITLE, ASSOCIATION: ADVISORY BOARD MEMBER,   START DATE OF RELATIONSHIP: 5/10/2016  NUMBER OF HOURS DEVOTED: 30 HOUR(S) ANNUALLY  NUMBER OF HOURS DEVOTED DURING TRADING HOURS: 0  DUTIES: THE PURPOSE OF THIS BOARD IS TO ENGAGE TRINITY ALUMNI INTO CURRENT EVENTS. I AM IN CHARGE OF REACHING OUT TO MY CLASS ALUMNI (2004)"
    }
  },
  "DRPs": []
}