{
  "Info": {
    "lastNm": "SMITH",
    "firstNm": "BLAKE",
    "midNm": "ALAN",
    "sufNm": null,
    "indvlPK": "5937024",
    "actvAGReg": 0,
    "link": "http://www.adviserinfo.sec.gov/IAPD/Individual/5937024"
  },
  "OthrNms": [],
  "CrntEmps": [
    {
      "CrntRgstns": [
        {
          "regAuth": 23,
          "regCat": 0,
          "st": 2,
          "stDt": "2013-01-02T00:00:00"
        },
        {
          "regAuth": 28,
          "regCat": 0,
          "st": 2,
          "stDt": "2013-04-03T00:00:00"
        }
      ],
      "BrnchOfLocs": [
        {
          "str1": "26200 AMERICAN DRIVE",
          "str2": "FIFTH FLOOR",
          "city": "SOUTHFIELD",
          "state": 23,
          "stateSpecified": true,
          "cntry": "United States",
          "postlCd": "48034"
        }
      ],
      "orgNm": "HANTZ FINANCIAL SERVICES, INC.",
      "orgPK": "46047",
      "str1": "26200 AMERICAN DRIVE",
      "str2": "FIFTH FLOOR",
      "city": "SOUTHFIELD",
      "state": 23,
      "stateSpecified": true,
      "cntry": "United States",
      "postlCd": "48034"
    }
  ],
  "Exms": [
    {
      "exmCd": 3,
      "exmNm": "Uniform Combined State Law Examination",
      "exmDt": "2012-11-09T00:00:00",
      "exmDtSpecified": true
    }
  ],
  "Dsgntns": [],
  "PrevRgstns": [],
  "EmpHss": [
    {
      "fromDt": "08/2002",
      "toDt": "08/2007",
      "orgNm": "THURSTON HIGH SCHOOL",
      "city": "REDFORD",
      "state": 23,
      "stateSpecified": true
    },
    {
      "fromDt": "08/2007",
      "toDt": "05/2008",
      "orgNm": "EASTERN MICHIGAN UNIVERSITY",
      "city": "YPSILANTI",
      "state": 23,
      "stateSpecified": true
    },
    {
      "fromDt": "05/2008",
      "toDt": "08/2008",
      "orgNm": "ABSOLUTE BEST LANDSCAPING",
      "city": "SOUTH LYON",
      "state": 23,
      "stateSpecified": true
    },
    {
      "fromDt": "08/2008",
      "toDt": "05/2009",
      "orgNm": "ADRAIN COLLEGE",
      "city": "ADRIAN",
      "state": 23,
      "stateSpecified": true
    },
    {
      "fromDt": "05/2009",
      "toDt": "08/2009",
      "orgNm": "VISCOUNT POOLS",
      "city": "CANTON",
      "state": 23,
      "stateSpecified": true
    },
    {
      "fromDt": "08/2009",
      "toDt": null,
      "orgNm": "WESTERN MICHIGAN UNIVERSITY",
      "city": "KALAMAZOO",
      "state": 23,
      "stateSpecified": true
    },
    {
      "fromDt": "05/2010",
      "toDt": "08/2010",
      "orgNm": "ABSOLUTE BEST LANDSCAPING",
      "city": "SOUTH LYON",
      "state": 23,
      "stateSpecified": true
    },
    {
      "fromDt": "01/2011",
      "toDt": "06/2011",
      "orgNm": "SMOOTHIE KING",
      "city": "KALAMAZOO",
      "state": 23,
      "stateSpecified": true
    },
    {
      "fromDt": "06/2011",
      "toDt": "08/2011",
      "orgNm": "HANTZ FINANCIAL SERVICES",
      "city": "SOUTHFIELD",
      "state": 23,
      "stateSpecified": true
    },
    {
      "fromDt": "01/2012",
      "toDt": null,
      "orgNm": "HANTZ FINANCIAL SERVICES",
      "city": "SOUTHFIELD",
      "state": 23,
      "stateSpecified": true
    }
  ],
  "OthrBuss": {
    "OthrBus": null
  },
  "DRPs": []
}