{
  "Info": {
    "lastNm": "LEE",
    "firstNm": "K",
    "midNm": "PATRICK",
    "sufNm": null,
    "indvlPK": "5939306",
    "actvAGReg": 0,
    "link": "http://www.adviserinfo.sec.gov/IAPD/Individual/5939306"
  },
  "OthrNms": [
    {
      "lastNm": "LEE",
      "firstNm": "K",
      "midNm": "PATRICK",
      "sufNm": null
    },
    {
      "lastNm": "LEE",
      "firstNm": "KAI",
      "midNm": "PATRICK",
      "sufNm": null
    },
    {
      "lastNm": "LEE",
      "firstNm": "KAI",
      "midNm": "PATRICK",
      "sufNm": null
    }
  ],
  "CrntEmps": [
    {
      "CrntRgstns": [
        {
          "regAuth": 4,
          "regCat": 0,
          "st": 2,
          "stDt": "2012-03-09T00:00:00"
        }
      ],
      "BrnchOfLocs": [
        {
          "str1": "1 BRIDGE PLAZA",
          "str2": "SUITE 275-216",
          "city": "FORT LEE",
          "state": 32,
          "stateSpecified": true,
          "cntry": "United States",
          "postlCd": "07024"
        },
        {
          "str1": "1299 OCEAN AVENUE",
          "str2": "SUITE 210",
          "city": "SANTA MONICA",
          "state": 4,
          "stateSpecified": true,
          "cntry": "United States",
          "postlCd": "90401"
        }
      ],
      "orgNm": "SYNDICATED CAPITAL, INC.",
      "orgPK": "29037",
      "str1": "1299 OCEAN AVENUE",
      "str2": "SUITE 210",
      "city": "SANTA MONICA",
      "state": 4,
      "stateSpecified": true,
      "cntry": "United States",
      "postlCd": "90401"
    }
  ],
  "Exms": [
    {
      "exmCd": 3,
      "exmNm": "Uniform Combined State Law Examination",
      "exmDt": "2011-08-13T00:00:00",
      "exmDtSpecified": true
    }
  ],
  "Dsgntns": [],
  "PrevRgstns": [],
  "EmpHss": [
    {
      "fromDt": "06/2001",
      "toDt": "06/2011",
      "orgNm": "SCHOOLS",
      "city": "DIAMOND BAR",
      "state": 4,
      "stateSpecified": true
    },
    {
      "fromDt": "06/2011",
      "toDt": null,
      "orgNm": "SYNDICATED CAPITAL",
      "city": "SANTA MONICA",
      "state": 4,
      "stateSpecified": true
    }
  ],
  "OthrBuss": {
    "OthrBus": null
  },
  "DRPs": []
}