{
  "Info": {
    "lastNm": "EILEK",
    "firstNm": "DAMON",
    "midNm": "THOMAS",
    "sufNm": null,
    "indvlPK": "5950457",
    "actvAGReg": 0,
    "link": "http://www.adviserinfo.sec.gov/IAPD/Individual/5950457"
  },
  "OthrNms": [
    {
      "lastNm": "HURLEY",
      "firstNm": "DAMON",
      "midNm": "JAMES",
      "sufNm": null
    }
  ],
  "CrntEmps": [
    {
      "CrntRgstns": [
        {
          "regAuth": 38,
          "regCat": 0,
          "st": 2,
          "stDt": "2011-10-24T00:00:00"
        }
      ],
      "BrnchOfLocs": [
        {
          "str1": "29294 S ELLENSBURG AVE",
          "str2": null,
          "city": "GOLD BEACH",
          "state": 38,
          "stateSpecified": true,
          "cntry": "United States",
          "postlCd": "97444"
        }
      ],
      "orgNm": "EDWARD JONES",
      "orgPK": "250",
      "str1": "12555 MANCHESTER RD",
      "str2": null,
      "city": "ST. LOUIS",
      "state": 25,
      "stateSpecified": true,
      "cntry": "United States",
      "postlCd": "63131"
    }
  ],
  "Exms": [
    {
      "exmCd": 3,
      "exmNm": "Uniform Combined State Law Examination",
      "exmDt": "2011-08-27T00:00:00",
      "exmDtSpecified": true
    }
  ],
  "Dsgntns": [],
  "PrevRgstns": [],
  "EmpHss": [
    {
      "fromDt": "02/1996",
      "toDt": "07/2011",
      "orgNm": "SELF-EMPLOYED",
      "city": "GOLD BEACH",
      "state": 38,
      "stateSpecified": true
    },
    {
      "fromDt": "07/2011",
      "toDt": null,
      "orgNm": "EDWARD JONES",
      "city": "ST LOUIS",
      "state": 25,
      "stateSpecified": true
    }
  ],
  "OthrBuss": {
    "OthrBus": null
  },
  "DRPs": []
}