{
  "Info": {
    "lastNm": "KELLEHER",
    "firstNm": "BRIAN",
    "midNm": null,
    "sufNm": null,
    "indvlPK": "5950253",
    "actvAGReg": 1,
    "link": "http://www.adviserinfo.sec.gov/IAPD/Individual/5950253"
  },
  "OthrNms": [],
  "CrntEmps": [
    {
      "CrntRgstns": [
        {
          "regAuth": 20,
          "regCat": 0,
          "st": 2,
          "stDt": "2014-12-08T00:00:00"
        }
      ],
      "BrnchOfLocs": [
        {
          "str1": "230 3RD AVENUE",
          "str2": "6TH FLOOR",
          "city": "WALTHAM",
          "state": 20,
          "stateSpecified": true,
          "cntry": "United States",
          "postlCd": "02451"
        }
      ],
      "orgNm": "BALLENTINE PARTNERS",
      "orgPK": "152802",
      "str1": "230 THIRD AVENUE",
      "str2": "SUITE 6",
      "city": "WALTHAM",
      "state": 20,
      "stateSpecified": true,
      "cntry": "United States",
      "postlCd": "02451"
    }
  ],
  "Exms": [
    {
      "exmCd": 2,
      "exmNm": "Uniform Investment Adviser Law Examination",
      "exmDt": "2014-12-05T00:00:00",
      "exmDtSpecified": true
    }
  ],
  "Dsgntns": [],
  "PrevRgstns": [],
  "EmpHss": [
    {
      "fromDt": "08/2006",
      "toDt": "06/2010",
      "orgNm": "ELLINGTON HIGH SCHOOL",
      "city": "ELLINGTON",
      "state": 6,
      "stateSpecified": true
    },
    {
      "fromDt": "08/2010",
      "toDt": "05/2014",
      "orgNm": "BENTLEY UNIVERSITY",
      "city": "WALTHAM",
      "state": 20,
      "stateSpecified": true
    },
    {
      "fromDt": "06/2011",
      "toDt": "05/2014",
      "orgNm": "UBS FINANCIAL SERVICES",
      "city": "WELLESLEY",
      "state": 20,
      "stateSpecified": true
    },
    {
      "fromDt": "05/2012",
      "toDt": "11/2012",
      "orgNm": "NOT YOUR AVERAGE JOE",
      "city": "WATERTOWN",
      "state": 20,
      "stateSpecified": true
    },
    {
      "fromDt": "06/2014",
      "toDt": null,
      "orgNm": "BALLENTINE PARTNERS, LLC",
      "city": "WALTHAM",
      "state": 20,
      "stateSpecified": true
    }
  ],
  "OthrBuss": {
    "OthrBus": null
  },
  "DRPs": []
}