{
  "Info": {
    "lastNm": "ARNESON",
    "firstNm": "CHASE",
    "midNm": "STEVEN",
    "sufNm": null,
    "indvlPK": "5953325",
    "actvAGReg": 1,
    "link": "http://www.adviserinfo.sec.gov/IAPD/Individual/5953325"
  },
  "OthrNms": [
    {
      "lastNm": "ARNESON",
      "firstNm": "CHASE",
      "midNm": "S",
      "sufNm": null
    },
    {
      "lastNm": "ARNESON",
      "firstNm": "CHASE",
      "midNm": "S",
      "sufNm": null
    }
  ],
  "CrntEmps": [
    {
      "CrntRgstns": [
        {
          "regAuth": 4,
          "regCat": 0,
          "st": 2,
          "stDt": "2014-12-19T00:00:00"
        }
      ],
      "BrnchOfLocs": [
        {
          "str1": "13100 SKYLINE BOULEVARD",
          "str2": null,
          "city": "WOODSIDE",
          "state": 4,
          "stateSpecified": true,
          "cntry": "United States",
          "postlCd": "94062"
        },
        {
          "str1": "5525 NW FISHER CREEK DRIVE",
          "str2": null,
          "city": "CAMAS",
          "state": 49,
          "stateSpecified": true,
          "cntry": "United States",
          "postlCd": "98607-9911"
        }
      ],
      "orgNm": "FISHER INVESTMENTS",
      "orgPK": "107342",
      "str1": "5525 NW FISHER CREEK DRIVE",
      "str2": null,
      "city": "CAMAS",
      "state": 49,
      "stateSpecified": true,
      "cntry": "United States",
      "postlCd": "98607-9911"
    }
  ],
  "Exms": [
    {
      "exmCd": 0,
      "exmNm": "Uniform Securities Agent State Law Examination",
      "exmDt": "2011-11-09T00:00:00",
      "exmDtSpecified": true
    },
    {
      "exmCd": 2,
      "exmNm": "Uniform Investment Adviser Law Examination",
      "exmDt": "2014-12-19T00:00:00",
      "exmDtSpecified": true
    }
  ],
  "Dsgntns": [],
  "PrevRgstns": [],
  "EmpHss": [
    {
      "fromDt": "05/2006",
      "toDt": "05/2008",
      "orgNm": "CHURCH",
      "city": "CINCINNATI",
      "state": 36,
      "stateSpecified": true
    },
    {
      "fromDt": "05/2008",
      "toDt": "05/2011",
      "orgNm": "UNIV OF UTAH (UT)",
      "city": "SALT LAKE CITY",
      "stateSpecified": false
    },
    {
      "fromDt": "06/2008",
      "toDt": "08/2008",
      "orgNm": "THE OAKS RESTAURANT",
      "city": "OGDEN",
      "state": 46,
      "stateSpecified": true
    },
    {
      "fromDt": "09/2008",
      "toDt": "12/2010",
      "orgNm": "VALET PARKING SERVICES INC",
      "city": "SALT LAKE CITY",
      "state": 46,
      "stateSpecified": true
    },
    {
      "fromDt": "05/2010",
      "toDt": "12/2010",
      "orgNm": "UNIVERSITY VENTURE FUND",
      "city": "SALT LAKE CITY",
      "state": 46,
      "stateSpecified": true
    },
    {
      "fromDt": "06/2011",
      "toDt": "06/2013",
      "orgNm": "GOLDMAN SACHS & CO.",
      "city": "SALT LAKE CITY",
      "state": 46,
      "stateSpecified": true
    },
    {
      "fromDt": "07/2013",
      "toDt": null,
      "orgNm": "FISHER INVESTMENTS",
      "city": "WOODSIDE",
      "state": 4,
      "stateSpecified": true
    }
  ],
  "OthrBuss": {
    "OthrBus": null
  },
  "DRPs": []
}