{
  "Info": {
    "lastNm": "PHILLIPS",
    "firstNm": "JUDITH ALEJANDRA",
    "midNm": "CANTUA",
    "sufNm": null,
    "indvlPK": "5953415",
    "actvAGReg": 0,
    "link": "http://www.adviserinfo.sec.gov/IAPD/Individual/5953415"
  },
  "OthrNms": [
    {
      "lastNm": "CANTUA",
      "firstNm": "ALEJANDRA",
      "midNm": "BARRIOS",
      "sufNm": null
    },
    {
      "lastNm": "CANTUA",
      "firstNm": "ALEJANDRA",
      "midNm": "BARRIOS",
      "sufNm": null
    },
    {
      "lastNm": "CANTUA",
      "firstNm": "ALI",
      "midNm": "BARRIOS",
      "sufNm": null
    },
    {
      "lastNm": "CANTUA",
      "firstNm": "JUDITH ALEJANDRA",
      "midNm": null,
      "sufNm": null
    },
    {
      "lastNm": "CANTUA",
      "firstNm": "JUDITH",
      "midNm": "ALEJANDRA",
      "sufNm": null
    },
    {
      "lastNm": "CANTUA",
      "firstNm": "JUDITH ALEJANDRA",
      "midNm": "BARRIOS",
      "sufNm": null
    }
  ],
  "CrntEmps": [
    {
      "CrntRgstns": [
        {
          "regAuth": 45,
          "regCat": 0,
          "st": 2,
          "stDt": "2012-08-30T00:00:00"
        },
        {
          "regAuth": 19,
          "regCat": 0,
          "st": 2,
          "stDt": "2012-10-29T00:00:00"
        }
      ],
      "BrnchOfLocs": [
        {
          "str1": "3200 TROUP HWY STE 150",
          "str2": null,
          "city": "TYLER",
          "state": 45,
          "stateSpecified": true,
          "cntry": "United States",
          "postlCd": "75701"
        },
        {
          "str1": "481 MUNN ROAD SUITE 225",
          "str2": null,
          "city": "FORT MILL",
          "state": 42,
          "stateSpecified": true,
          "cntry": "United States",
          "postlCd": "29715"
        }
      ],
      "orgNm": "LPL FINANCIAL LLC",
      "orgPK": "6413",
      "str1": "75 STATE STREET, 22ND FLOOR",
      "str2": null,
      "city": "BOSTON",
      "state": 20,
      "stateSpecified": true,
      "cntry": "United States",
      "postlCd": "02109"
    }
  ],
  "Exms": [
    {
      "exmCd": 3,
      "exmNm": "Uniform Combined State Law Examination",
      "exmDt": "2011-10-12T00:00:00",
      "exmDtSpecified": true
    }
  ],
  "Dsgntns": [],
  "PrevRgstns": [
    {
      "BrnchOfLocs": [
        {
          "city": "TYLER",
          "state": 45,
          "stateSpecified": true
        }
      ],
      "orgNm": "MORGAN KEEGAN & COMPANY, LLC",
      "orgPK": "4161",
      "regBeginDt": "2011-10-13T00:00:00",
      "regBeginDtSpecified": true,
      "regEndDt": "2012-08-31T00:00:00",
      "regEndDtSpecified": true
    }
  ],
  "EmpHss": [
    {
      "fromDt": "08/2004",
      "toDt": "05/2008",
      "orgNm": "UNIVERSITY OF NORTH TEXAS",
      "city": "DENTON",
      "state": 45,
      "stateSpecified": true
    },
    {
      "fromDt": "09/2006",
      "toDt": "03/2008",
      "orgNm": "DIANE BLOTNER & ASSOCIATES",
      "city": "DALLAS",
      "state": 45,
      "stateSpecified": true
    },
    {
      "fromDt": "05/2008",
      "toDt": "01/2009",
      "orgNm": "N/A-UNEMPLOYED",
      "city": "JACKSONVILLE",
      "state": 45,
      "stateSpecified": true
    },
    {
      "fromDt": "01/2009",
      "toDt": "04/2009",
      "orgNm": "ANN TAYLOR LOFT",
      "city": "TYLER",
      "state": 45,
      "stateSpecified": true
    },
    {
      "fromDt": "04/2009",
      "toDt": "06/2011",
      "orgNm": "REGIONS BANK",
      "city": "TYLER",
      "state": 45,
      "stateSpecified": true
    },
    {
      "fromDt": "06/2011",
      "toDt": "08/2012",
      "orgNm": "MORGAN KEEGAN & COMPANY, INC.",
      "city": "TYLER",
      "state": 45,
      "stateSpecified": true
    },
    {
      "fromDt": "08/2012",
      "toDt": null,
      "orgNm": "LPL FINANCIAL",
      "city": "TYLER",
      "state": 45,
      "stateSpecified": true
    }
  ],
  "OthrBuss": {
    "OthrBus": {
      "desc": "1. 08/30/2012 - INCOME SOLUTIONS WEALTH MANAGEMENT/ DBA ONLY/ 100%/ TYLER, TX"
    }
  },
  "DRPs": []
}