{
  "Info": {
    "lastNm": "MARKOVICH",
    "firstNm": "PETER",
    "midNm": "DANIEL",
    "sufNm": null,
    "indvlPK": "5957185",
    "actvAGReg": 0,
    "link": "http://www.adviserinfo.sec.gov/IAPD/Individual/5957185"
  },
  "OthrNms": [],
  "CrntEmps": [
    {
      "CrntRgstns": [
        {
          "regAuth": 45,
          "regCat": 0,
          "st": 2,
          "stDt": "2016-04-22T00:00:00"
        }
      ],
      "BrnchOfLocs": [
        {
          "str1": "1250 CAPITAL OF TEXAS HWY S. #2-125",
          "str2": null,
          "city": "AUSTIN",
          "state": 45,
          "stateSpecified": true,
          "cntry": "United States",
          "postlCd": "78746"
        }
      ],
      "orgNm": "KESTRA ADVISORY SERVICES, LLC",
      "orgPK": "283330",
      "str1": "1250 CAPITAL OF TEXAS HWY S BUILDING 2",
      "str2": "SUITE 125",
      "city": "AUSTIN",
      "state": 45,
      "stateSpecified": true,
      "cntry": "United States",
      "postlCd": "78746"
    },
    {
      "CrntRgstns": [
        {
          "regAuth": 45,
          "regCat": 0,
          "st": 2,
          "stDt": "2012-11-19T00:00:00"
        }
      ],
      "BrnchOfLocs": [
        {
          "str1": "1250 CAPITAL OF TEXAS HWY S. #2-125",
          "str2": null,
          "city": "AUSTIN",
          "state": 45,
          "stateSpecified": true,
          "cntry": "UNITED STATES",
          "postlCd": "78746"
        }
      ],
      "orgNm": "KESTRA INVESTMENT SERVICES, LLC",
      "orgPK": "42046",
      "str1": "1250 CAPITAL OF TEXAS HIGHWAY S.",
      "str2": "2-125",
      "city": "AUSTIN",
      "state": 45,
      "stateSpecified": true,
      "cntry": "United States",
      "postlCd": "78746"
    }
  ],
  "Exms": [
    {
      "exmCd": 0,
      "exmNm": "Uniform Securities Agent State Law Examination",
      "exmDt": "2011-09-21T00:00:00",
      "exmDtSpecified": true
    }
  ],
  "Dsgntns": [
    {
      "dsgntnNm": "Certified Financial Planner"
    }
  ],
  "PrevRgstns": [],
  "EmpHss": [
    {
      "fromDt": "05/2006",
      "toDt": "08/2006",
      "orgNm": "NFPSI",
      "city": "AUSTIN",
      "state": 45,
      "stateSpecified": true
    },
    {
      "fromDt": "08/2006",
      "toDt": "05/2007",
      "orgNm": "TRINITY UNIVERSITY",
      "city": "SAN ANTONIO",
      "state": 45,
      "stateSpecified": true
    },
    {
      "fromDt": "05/2007",
      "toDt": "08/2007",
      "orgNm": "NFPSI",
      "city": "AUSTIN",
      "state": 45,
      "stateSpecified": true
    },
    {
      "fromDt": "08/2007",
      "toDt": "05/2008",
      "orgNm": "TRINITY UNIVERSITY",
      "city": "SAN ANTONIO",
      "state": 45,
      "stateSpecified": true
    },
    {
      "fromDt": "07/2008",
      "toDt": "08/2008",
      "orgNm": "GREEN MOUNTAIN ENERGY",
      "city": "AUSTIN",
      "state": 45,
      "stateSpecified": true
    },
    {
      "fromDt": "08/2008",
      "toDt": "06/2009",
      "orgNm": "TRINITY UNIVERSITY",
      "city": "SAN ANTONIO",
      "state": 45,
      "stateSpecified": true
    },
    {
      "fromDt": "07/2009",
      "toDt": "05/2011",
      "orgNm": "SOUTH TEXAS MONEY MANAGEMENT",
      "city": "AUSTIN",
      "state": 45,
      "stateSpecified": true
    },
    {
      "fromDt": "05/2011",
      "toDt": "04/2016",
      "orgNm": "NFP SECURITIES, INC",
      "city": "AUSTIN",
      "state": 45,
      "stateSpecified": true
    },
    {
      "fromDt": "04/2016",
      "toDt": null,
      "orgNm": "KESTRA FINANCIAL SERVICES, INC",
      "city": "Austin",
      "state": 45,
      "stateSpecified": true
    }
  ],
  "OthrBuss": {
    "OthrBus": null
  },
  "DRPs": []
}