{
  "Info": {
    "lastNm": "STEVENSON",
    "firstNm": "THOMAS",
    "midNm": "JAMES",
    "sufNm": null,
    "indvlPK": "5957044",
    "actvAGReg": 1,
    "link": "http://www.adviserinfo.sec.gov/IAPD/Individual/5957044"
  },
  "OthrNms": [
    {
      "lastNm": "STEVENSON",
      "firstNm": "THOMAS",
      "midNm": "J",
      "sufNm": null
    },
    {
      "lastNm": "STEVENSON",
      "firstNm": "TJ",
      "midNm": null,
      "sufNm": null
    }
  ],
  "CrntEmps": [
    {
      "CrntRgstns": [
        {
          "regAuth": 45,
          "regCat": 0,
          "st": 2,
          "stDt": "2015-02-12T00:00:00"
        }
      ],
      "BrnchOfLocs": [
        {
          "str1": "7200 N. MO PAC EXPY",
          "str2": "SUITE 315",
          "city": "AUSTIN",
          "state": 45,
          "stateSpecified": true,
          "cntry": "United States",
          "postlCd": "78731"
        }
      ],
      "orgNm": "AUSTIN ASSET",
      "orgPK": "105441",
      "str1": "7200 N. MOPAC, SUITE 315",
      "str2": null,
      "city": "AUSTIN",
      "state": 45,
      "stateSpecified": true,
      "cntry": "United States",
      "postlCd": "78731"
    }
  ],
  "Exms": [
    {
      "exmCd": 0,
      "exmNm": "Uniform Securities Agent State Law Examination",
      "exmDt": "2014-08-06T00:00:00",
      "exmDtSpecified": true
    },
    {
      "exmCd": 2,
      "exmNm": "Uniform Investment Adviser Law Examination",
      "exmDt": "2014-09-08T00:00:00",
      "exmDtSpecified": true
    }
  ],
  "Dsgntns": [],
  "PrevRgstns": [
    {
      "BrnchOfLocs": [
        {
          "city": "AUSTIN",
          "state": 45,
          "stateSpecified": true
        }
      ],
      "orgNm": "LUCIEN STIRLING & GRAY ADVISORY GROUP INC",
      "orgPK": "112641",
      "regBeginDt": "2014-09-08T00:00:00",
      "regBeginDtSpecified": true,
      "regEndDt": "2014-11-18T00:00:00",
      "regEndDtSpecified": true
    }
  ],
  "EmpHss": [
    {
      "fromDt": "01/2005",
      "toDt": "06/2011",
      "orgNm": "UNEMPLOYED DUE TO EDUCATION",
      "city": "AUSTIN",
      "state": 45,
      "stateSpecified": true
    },
    {
      "fromDt": "06/2011",
      "toDt": "01/2012",
      "orgNm": "NORTHWESTERN MUTUAL",
      "city": "AUSTIN",
      "state": 45,
      "stateSpecified": true
    },
    {
      "fromDt": "01/2012",
      "toDt": "05/2013",
      "orgNm": "MATTSON FINANCIAL SERVICES",
      "city": "WACO",
      "state": 45,
      "stateSpecified": true
    },
    {
      "fromDt": "05/2013",
      "toDt": "09/2013",
      "orgNm": "UNEMPLOYED",
      "city": "AUSTIN",
      "state": 45,
      "stateSpecified": true
    },
    {
      "fromDt": "09/2013",
      "toDt": "11/2014",
      "orgNm": "LUCIEN, STIRLING & GRAY FINANCIAL CORPORATION",
      "city": "AUSTIN",
      "state": 45,
      "stateSpecified": true
    },
    {
      "fromDt": "11/2014",
      "toDt": null,
      "orgNm": "AUSTIN ASSET",
      "city": "AUSTIN",
      "state": 45,
      "stateSpecified": true
    }
  ],
  "OthrBuss": {
    "OthrBus": null
  },
  "DRPs": []
}