{
  "Info": {
    "lastNm": "EDDY",
    "firstNm": "SAMUEL",
    "midNm": "J",
    "sufNm": null,
    "indvlPK": "5961870",
    "actvAGReg": 0,
    "link": "http://www.adviserinfo.sec.gov/IAPD/Individual/5961870"
  },
  "OthrNms": [
    {
      "lastNm": "EDDY",
      "firstNm": "SAM",
      "midNm": "J",
      "sufNm": null
    }
  ],
  "CrntEmps": [
    {
      "CrntRgstns": [
        {
          "regAuth": 36,
          "regCat": 0,
          "st": 2,
          "stDt": "2011-10-18T00:00:00"
        },
        {
          "regAuth": 45,
          "regCat": 0,
          "st": 2,
          "stDt": "2013-01-17T00:00:00"
        }
      ],
      "BrnchOfLocs": [
        {
          "str1": "4137 BOARDMAN CANFIELD RD",
          "str2": null,
          "city": "CANFIELD",
          "state": 36,
          "stateSpecified": true,
          "cntry": "United States",
          "postlCd": "44406"
        }
      ],
      "orgNm": "MERRILL LYNCH, PIERCE, FENNER & SMITH INCORPORATED",
      "orgPK": "7691",
      "str1": "ONE BRYANT PARK",
      "str2": null,
      "city": "NEW YORK",
      "state": 35,
      "stateSpecified": true,
      "cntry": "United States",
      "postlCd": "10036"
    }
  ],
  "Exms": [
    {
      "exmCd": 3,
      "exmNm": "Uniform Combined State Law Examination",
      "exmDt": "2011-10-14T00:00:00",
      "exmDtSpecified": true
    }
  ],
  "Dsgntns": [],
  "PrevRgstns": [],
  "EmpHss": [
    {
      "fromDt": "07/1994",
      "toDt": "03/2010",
      "orgNm": "YOUNGSTOWN STATE UNIVERSITY",
      "city": "YOUNGSTOWN",
      "state": 36,
      "stateSpecified": true
    },
    {
      "fromDt": "03/2010",
      "toDt": "05/2010",
      "orgNm": "UNEMPLOYED",
      "city": "YOUNGSTOWN",
      "state": 36,
      "stateSpecified": true
    },
    {
      "fromDt": "05/2010",
      "toDt": "02/2011",
      "orgNm": "YOUNGSTOWN STATE UNIVERSITY",
      "city": "YOUNGSTOWN",
      "state": 36,
      "stateSpecified": true
    },
    {
      "fromDt": "02/2011",
      "toDt": "06/2011",
      "orgNm": "YOUNGSTOWN STATE UNIV PENGUIN CLUB",
      "city": "YOUNGSTOWN",
      "state": 36,
      "stateSpecified": true
    },
    {
      "fromDt": "06/2011",
      "toDt": "07/2011",
      "orgNm": "UNEMPLOYED",
      "city": "YOUNGSTOWN",
      "state": 36,
      "stateSpecified": true
    },
    {
      "fromDt": "07/2011",
      "toDt": null,
      "orgNm": "MERRILL LYNCH, PIERCE, FENNER & SMITH INCORPORATED",
      "city": "CANFIELD",
      "state": 36,
      "stateSpecified": true
    },
    {
      "fromDt": "12/2011",
      "toDt": null,
      "orgNm": "BANK OF AMERICA, N.A.",
      "city": "CANFIELD",
      "state": 36,
      "stateSpecified": true
    }
  ],
  "OthrBuss": {
    "OthrBus": {
      "desc": "I*85735 For profit or not for profit: Non-Profit Organization  Name of outside business organization: Youngstown State University Penguin Club  Investment related: N  Address of business:   One University Plaza,   Youngstown, Ohio 44555  Nature of business: Charitable Organization,  Position, title, association: Advisory Board Member,   Start date of relationship: 41506  Number of hours devoted: 2 hour(s) Quarterly  Number of hours devoted during trading hours: 2  Duties: Support YSU Athletics by way of financial support through ticket sales, public events, such as banquets, golf outings, auctions and other forms of donor giving."
    }
  },
  "DRPs": []
}