{
  "Info": {
    "lastNm": "MCCREE",
    "firstNm": "JAMI",
    "midNm": "LEE",
    "sufNm": null,
    "indvlPK": "5961848",
    "actvAGReg": 0,
    "link": "http://www.adviserinfo.sec.gov/IAPD/Individual/5961848"
  },
  "OthrNms": [
    {
      "lastNm": "MCCREE",
      "firstNm": "JAMI",
      "midNm": null,
      "sufNm": null
    },
    {
      "lastNm": "PERRY",
      "firstNm": "JAMI",
      "midNm": null,
      "sufNm": null
    },
    {
      "lastNm": "PERRY-MORROW",
      "firstNm": "JAMI",
      "midNm": null,
      "sufNm": null
    }
  ],
  "CrntEmps": [
    {
      "CrntRgstns": [
        {
          "regAuth": 45,
          "regCat": 0,
          "st": 2,
          "stDt": "2015-10-02T00:00:00"
        },
        {
          "regAuth": 9,
          "regCat": 0,
          "st": 2,
          "stDt": "2015-10-05T00:00:00"
        }
      ],
      "BrnchOfLocs": [
        {
          "str1": "2301 SE MONTEREY RD",
          "str2": null,
          "city": "STUART",
          "state": 9,
          "stateSpecified": true,
          "cntry": "United States",
          "postlCd": "34996"
        }
      ],
      "orgNm": "MERRILL LYNCH, PIERCE, FENNER & SMITH INCORPORATED",
      "orgPK": "7691",
      "str1": "ONE BRYANT PARK",
      "str2": null,
      "city": "NEW YORK",
      "state": 35,
      "stateSpecified": true,
      "cntry": "United States",
      "postlCd": "10036"
    }
  ],
  "Exms": [
    {
      "exmCd": 3,
      "exmNm": "Uniform Combined State Law Examination",
      "exmDt": "2011-10-20T00:00:00",
      "exmDtSpecified": true
    }
  ],
  "Dsgntns": [],
  "PrevRgstns": [
    {
      "BrnchOfLocs": [
        {
          "city": "LUTZ",
          "state": 9,
          "stateSpecified": true
        },
        {
          "city": "STUART",
          "state": 9,
          "stateSpecified": true
        },
        {
          "city": "TAMPA",
          "state": 9,
          "stateSpecified": true
        },
        {
          "city": "TAMPA",
          "state": 9,
          "stateSpecified": true
        }
      ],
      "orgNm": "MERRILL LYNCH, PIERCE, FENNER & SMITH INCORPORATED",
      "orgPK": "7691",
      "regBeginDt": "2011-10-24T00:00:00",
      "regBeginDtSpecified": true,
      "regEndDt": "2014-10-03T00:00:00",
      "regEndDtSpecified": true
    },
    {
      "BrnchOfLocs": [
        {
          "city": "ST. PETERSBURG",
          "state": 9,
          "stateSpecified": true
        }
      ],
      "orgNm": "RAYMOND JAMES & ASSOCIATES, INC.",
      "orgPK": "705",
      "regBeginDt": "2014-10-10T00:00:00",
      "regBeginDtSpecified": true,
      "regEndDt": "2015-09-24T00:00:00",
      "regEndDtSpecified": true
    }
  ],
  "EmpHss": [
    {
      "fromDt": "10/2005",
      "toDt": "08/2006",
      "orgNm": "PRAWNBROKER GRILL",
      "city": "STUART",
      "state": 9,
      "stateSpecified": true
    },
    {
      "fromDt": "08/2006",
      "toDt": "12/2009",
      "orgNm": "STETSON UNIVERSITY",
      "city": "DELAND",
      "state": 9,
      "stateSpecified": true
    },
    {
      "fromDt": "12/2006",
      "toDt": "01/2007",
      "orgNm": "PRAWNBROKER GRILL",
      "city": "STUART",
      "state": 9,
      "stateSpecified": true
    },
    {
      "fromDt": "05/2007",
      "toDt": "08/2007",
      "orgNm": "YMCA OF THE TREASURE COAST",
      "city": "STUART",
      "state": 9,
      "stateSpecified": true
    },
    {
      "fromDt": "12/2007",
      "toDt": "01/2008",
      "orgNm": "SECURITY FORCES INC.",
      "city": "WEST PALM BEACH",
      "state": 9,
      "stateSpecified": true
    },
    {
      "fromDt": "03/2008",
      "toDt": "05/2008",
      "orgNm": "DELAND FAMILY YMCA",
      "city": "DELAND",
      "state": 9,
      "stateSpecified": true
    },
    {
      "fromDt": "08/2008",
      "toDt": "05/2009",
      "orgNm": "DELAND FAMILY YMCA",
      "city": "DELAND",
      "state": 9,
      "stateSpecified": true
    },
    {
      "fromDt": "05/2009",
      "toDt": "08/2009",
      "orgNm": "YMCA OF THE TREASURE COAST",
      "city": "STUART",
      "state": 9,
      "stateSpecified": true
    },
    {
      "fromDt": "01/2010",
      "toDt": "06/2010",
      "orgNm": "PRAWNBROKER GRILL",
      "city": "STUART",
      "state": 9,
      "stateSpecified": true
    },
    {
      "fromDt": "01/2010",
      "toDt": "06/2010",
      "orgNm": "YMCA OF THE TREASURE COAST",
      "city": "STUART",
      "state": 9,
      "stateSpecified": true
    },
    {
      "fromDt": "06/2010",
      "toDt": "06/2011",
      "orgNm": "NOVA SOUTHEASTERN UNIVERSITY",
      "city": "DAVIE",
      "state": 9,
      "stateSpecified": true
    },
    {
      "fromDt": "07/2011",
      "toDt": "10/2014",
      "orgNm": "MERRILL LYNCH, PIERCE, FENNER & SMITH INCORPORATED",
      "city": "STUART",
      "state": 9,
      "stateSpecified": true
    },
    {
      "fromDt": "11/2011",
      "toDt": "10/2014",
      "orgNm": "BANK OF AMERICA, N.A.",
      "city": "STUART",
      "state": 9,
      "stateSpecified": true
    },
    {
      "fromDt": "10/2014",
      "toDt": "09/2015",
      "orgNm": "RAYMOND JAMES & ASSOCIATES, INC.",
      "city": "ST. PETERSBURG",
      "state": 9,
      "stateSpecified": true
    },
    {
      "fromDt": "09/2015",
      "toDt": null,
      "orgNm": "MERRILL LYNCH, PIERCE, FENNER & SMITH INCORPORATED",
      "city": "STUART",
      "state": 9,
      "stateSpecified": true
    }
  ],
  "OthrBuss": {
    "OthrBus": null
  },
  "DRPs": []
}