{
  "Info": {
    "lastNm": "MALTAIS",
    "firstNm": "REBECCA",
    "midNm": "ANNE",
    "sufNm": null,
    "indvlPK": "5961855",
    "actvAGReg": 1,
    "link": "http://www.adviserinfo.sec.gov/IAPD/Individual/5961855"
  },
  "OthrNms": [
    {
      "lastNm": "EUGLEY",
      "firstNm": "BECCA",
      "midNm": null,
      "sufNm": null
    },
    {
      "lastNm": "EUGLEY",
      "firstNm": "REBECCA",
      "midNm": "ANNE",
      "sufNm": null
    },
    {
      "lastNm": "MALTAIS",
      "firstNm": "BECCA",
      "midNm": null,
      "sufNm": null
    }
  ],
  "CrntEmps": [
    {
      "CrntRgstns": [
        {
          "regAuth": 20,
          "regCat": 0,
          "st": 2,
          "stDt": "2015-01-12T00:00:00"
        }
      ],
      "BrnchOfLocs": [
        {
          "str1": null,
          "str2": null,
          "city": "LINCOLN",
          "state": 20,
          "stateSpecified": true,
          "cntry": "United States",
          "postlCd": null
        }
      ],
      "orgNm": "POWERHOUSE ASSETS LLC",
      "orgPK": "157538",
      "str1": null,
      "str2": null,
      "city": "LINCOLN",
      "state": 20,
      "stateSpecified": true,
      "cntry": "United States",
      "postlCd": null
    }
  ],
  "Exms": [
    {
      "exmCd": 0,
      "exmNm": "Uniform Securities Agent State Law Examination",
      "exmDt": "2011-10-13T00:00:00",
      "exmDtSpecified": true
    },
    {
      "exmCd": 3,
      "exmNm": "Uniform Combined State Law Examination",
      "exmDt": "2012-04-02T00:00:00",
      "exmDtSpecified": true
    }
  ],
  "Dsgntns": [],
  "PrevRgstns": [
    {
      "BrnchOfLocs": [
        {
          "city": "MERRIMACK",
          "state": 31,
          "stateSpecified": true
        }
      ],
      "orgNm": "STRATEGIC ADVISERS, INC.",
      "orgPK": "104555",
      "regBeginDt": "2012-04-05T00:00:00",
      "regBeginDtSpecified": true,
      "regEndDt": "2013-02-22T00:00:00",
      "regEndDtSpecified": true
    }
  ],
  "EmpHss": [
    {
      "fromDt": "02/2006",
      "toDt": "01/2007",
      "orgNm": "WELLS FARGO FINANCIAL",
      "city": "METHUEN",
      "state": 20,
      "stateSpecified": true
    },
    {
      "fromDt": "02/2007",
      "toDt": "10/2010",
      "orgNm": "WELLS FARGO FINANCIAL",
      "city": "SALEM",
      "state": 31,
      "stateSpecified": true
    },
    {
      "fromDt": "11/2010",
      "toDt": "05/2011",
      "orgNm": "BANK OF AMERICA",
      "city": "BEDFORD",
      "state": 31,
      "stateSpecified": true
    },
    {
      "fromDt": "07/2011",
      "toDt": "02/2013",
      "orgNm": "FIDELITY INVESTMENTS",
      "city": "MERRIMACK",
      "state": 31,
      "stateSpecified": true
    },
    {
      "fromDt": "02/2013",
      "toDt": "01/2015",
      "orgNm": "UNEMPLOYED",
      "city": "DERRY",
      "state": 31,
      "stateSpecified": true
    },
    {
      "fromDt": "01/2015",
      "toDt": null,
      "orgNm": "POWERHOUSE ASSETS LLC",
      "city": "LINCOLN",
      "state": 20,
      "stateSpecified": true
    }
  ],
  "OthrBuss": {
    "OthrBus": null
  },
  "DRPs": []
}