{
  "Info": {
    "lastNm": "GARTNER",
    "firstNm": "EDWARD",
    "midNm": null,
    "sufNm": null,
    "indvlPK": "5963417",
    "actvAGReg": 0,
    "link": "http://www.adviserinfo.sec.gov/IAPD/Individual/5963417"
  },
  "OthrNms": [
    {
      "lastNm": "GARTNER",
      "firstNm": "EDWARD",
      "midNm": "J.",
      "sufNm": "III"
    }
  ],
  "CrntEmps": [
    {
      "CrntRgstns": [
        {
          "regAuth": 32,
          "regCat": 0,
          "st": 2,
          "stDt": "2013-04-23T00:00:00"
        }
      ],
      "BrnchOfLocs": [
        {
          "str1": "1140 ROUTE 22 EAST",
          "str2": "SUITE 202",
          "city": "BRIDGEWATER",
          "state": 32,
          "stateSpecified": true,
          "cntry": "United States",
          "postlCd": "08807"
        }
      ],
      "orgNm": "MML INVESTORS SERVICES, LLC",
      "orgPK": "10409",
      "str1": "1295 STATE STREET",
      "str2": null,
      "city": "SPRINGFIELD",
      "state": 20,
      "stateSpecified": true,
      "cntry": "United States",
      "postlCd": "01111-0001"
    }
  ],
  "Exms": [
    {
      "exmCd": 0,
      "exmNm": "Uniform Securities Agent State Law Examination",
      "exmDt": "2012-03-20T00:00:00",
      "exmDtSpecified": true
    },
    {
      "exmCd": 2,
      "exmNm": "Uniform Investment Adviser Law Examination",
      "exmDt": "2013-03-02T00:00:00",
      "exmDtSpecified": true
    }
  ],
  "Dsgntns": [],
  "PrevRgstns": [],
  "EmpHss": [
    {
      "fromDt": "06/2005",
      "toDt": "04/2011",
      "orgNm": "GARTNER AUTOMOTIVE",
      "city": "SHALLOTE",
      "state": 28,
      "stateSpecified": true
    },
    {
      "fromDt": "04/2011",
      "toDt": "07/2011",
      "orgNm": "UNEMPLOYED",
      "city": "LONGS",
      "state": 42,
      "stateSpecified": true
    },
    {
      "fromDt": "08/2011",
      "toDt": null,
      "orgNm": "MASS MUTUAL LIFE INSURANCE COMPANY",
      "city": "BRIDGEWATER",
      "state": 32,
      "stateSpecified": true
    },
    {
      "fromDt": "10/2011",
      "toDt": null,
      "orgNm": "MML INVESTORS SERVICES",
      "city": "BRIDGEWATER",
      "state": 32,
      "stateSpecified": true
    }
  ],
  "OthrBuss": {
    "OthrBus": {
      "desc": "(1)NAME:EDWARD GARTNER. INV REL:Y ADDR:1140 ROUTE 22 EAST, NATURE:INDIVIDUAL AND GROUP HEALTH INSURANCE, POSITION:AGENT, START:09/01/2011, NO HR/MO:5 NO HR/MO DUR TRADING:3."
    }
  },
  "DRPs": []
}