{
  "Info": {
    "lastNm": "RESSLER",
    "firstNm": "TIMOTHY",
    "midNm": "J.",
    "sufNm": null,
    "indvlPK": "5964754",
    "actvAGReg": 0,
    "link": "http://www.adviserinfo.sec.gov/IAPD/Individual/5964754"
  },
  "OthrNms": [],
  "CrntEmps": [
    {
      "CrntRgstns": [
        {
          "regAuth": 6,
          "regCat": 0,
          "st": 2,
          "stDt": "2014-06-18T00:00:00"
        }
      ],
      "BrnchOfLocs": [
        {
          "str1": "2321 WHITNEY AVENUE",
          "str2": "SUITE 503",
          "city": "HAMDEN",
          "state": 6,
          "stateSpecified": true,
          "cntry": "United States",
          "postlCd": "06518"
        }
      ],
      "orgNm": "AXA ADVISORS, LLC",
      "orgPK": "6627",
      "str1": "1290 AVENUE OF THE AMERICAS",
      "str2": null,
      "city": "NEW YORK",
      "state": 35,
      "stateSpecified": true,
      "cntry": "United States",
      "postlCd": "10104"
    }
  ],
  "Exms": [
    {
      "exmCd": 0,
      "exmNm": "Uniform Securities Agent State Law Examination",
      "exmDt": "2012-06-02T00:00:00",
      "exmDtSpecified": true
    },
    {
      "exmCd": 2,
      "exmNm": "Uniform Investment Adviser Law Examination",
      "exmDt": "2014-06-16T00:00:00",
      "exmDtSpecified": true
    }
  ],
  "Dsgntns": [],
  "PrevRgstns": [],
  "EmpHss": [
    {
      "fromDt": "08/2005",
      "toDt": "05/2009",
      "orgNm": "SPRINGFIELD COLLEGE",
      "city": "SPRINGFIELD",
      "state": 20,
      "stateSpecified": true
    },
    {
      "fromDt": "06/2009",
      "toDt": "08/2009",
      "orgNm": "TOWN OF OLD LYME",
      "city": "OLD LYME",
      "state": 6,
      "stateSpecified": true
    },
    {
      "fromDt": "08/2009",
      "toDt": "06/2010",
      "orgNm": "NANJING FOREIGN LANGUAGE SCHOOL",
      "city": "NANJING",
      "stateSpecified": false
    },
    {
      "fromDt": "06/2010",
      "toDt": "08/2010",
      "orgNm": "TOWN OF OLD LYME",
      "city": "OLD LYME",
      "state": 6,
      "stateSpecified": true
    },
    {
      "fromDt": "08/2010",
      "toDt": "06/2011",
      "orgNm": "REGIONAL SCHOOL DISTRICT 18",
      "city": "OLD LYME",
      "state": 6,
      "stateSpecified": true
    },
    {
      "fromDt": "07/2011",
      "toDt": null,
      "orgNm": "TNT CLAMBAKES",
      "city": "OLD LYME",
      "state": 6,
      "stateSpecified": true
    },
    {
      "fromDt": "10/2011",
      "toDt": null,
      "orgNm": "AXA ADVISORS, LLC",
      "city": "NEW YORK",
      "state": 35,
      "stateSpecified": true
    }
  ],
  "OthrBuss": {
    "OthrBus": null
  },
  "DRPs": []
}