{
  "Info": {
    "lastNm": "Cochran",
    "firstNm": "Thoras",
    "midNm": "Ann",
    "sufNm": null,
    "indvlPK": "5971405",
    "actvAGReg": 0,
    "link": "http://www.adviserinfo.sec.gov/IAPD/Individual/5971405"
  },
  "OthrNms": [
    {
      "lastNm": "COCHRAN",
      "firstNm": "THORAS",
      "midNm": null,
      "sufNm": null
    },
    {
      "lastNm": "COCHRAN",
      "firstNm": "THORAS",
      "midNm": "ANN",
      "sufNm": null
    },
    {
      "lastNm": "FREEMAN",
      "firstNm": "THORAS",
      "midNm": "ANN",
      "sufNm": null
    }
  ],
  "CrntEmps": [
    {
      "CrntRgstns": [
        {
          "regAuth": 4,
          "regCat": 0,
          "st": 2,
          "stDt": "2011-12-13T00:00:00"
        }
      ],
      "BrnchOfLocs": [
        {
          "str1": "2615 GANYON DRIVE",
          "str2": "SUITE 1",
          "city": "ANDERSON",
          "state": 4,
          "stateSpecified": true,
          "cntry": "United States",
          "postlCd": "96007"
        }
      ],
      "orgNm": "EDWARD JONES",
      "orgPK": "250",
      "str1": "12555 MANCHESTER RD",
      "str2": null,
      "city": "ST. LOUIS",
      "state": 25,
      "stateSpecified": true,
      "cntry": "United States",
      "postlCd": "63131"
    }
  ],
  "Exms": [
    {
      "exmCd": 3,
      "exmNm": "Uniform Combined State Law Examination",
      "exmDt": "2011-10-14T00:00:00",
      "exmDtSpecified": true
    }
  ],
  "Dsgntns": [],
  "PrevRgstns": [],
  "EmpHss": [
    {
      "fromDt": "03/2000",
      "toDt": "09/2006",
      "orgNm": "OWENS HEALTHCARE",
      "city": "REDDING",
      "state": 4,
      "stateSpecified": true
    },
    {
      "fromDt": "09/2006",
      "toDt": "07/2010",
      "orgNm": "APEX TECHNOLOGY MANAGEMENT",
      "city": "REDDING",
      "state": 4,
      "stateSpecified": true
    },
    {
      "fromDt": "07/2010",
      "toDt": "10/2010",
      "orgNm": "VESTRA RESOURCES",
      "city": "REDDING",
      "state": 4,
      "stateSpecified": true
    },
    {
      "fromDt": "10/2010",
      "toDt": "08/2011",
      "orgNm": "DOUBLE J CONSTRUCTION/COCHRAN TRANSPORT",
      "city": "COTTONWOOD,",
      "state": 4,
      "stateSpecified": true
    },
    {
      "fromDt": "08/2011",
      "toDt": null,
      "orgNm": "EDWARD JONES",
      "city": "ST LOUIS",
      "state": 25,
      "stateSpecified": true
    }
  ],
  "OthrBuss": {
    "OthrBus": {
      "desc": "COCHRAN TRANSPORT/DOUBLE J CONSTRUCTION TRUCKING/CONSTRUCTION  COTTONWOOD, CA 96022  7/1/1994 CO-OWNER  080 ADMINISTRATIVE/BOOKKEEPER FOR SPOUSE'S BUSINESS    Double J Construction  Cottonwood, CA  Start date: 1/15/2009  Office Manager/Book keeper  Hours per week: 2  Hours during trading: 0  Office manager, accounts payable, accounts receivable, marketing"
    }
  },
  "DRPs": []
}