{
  "Info": {
    "lastNm": "GRIFFIN",
    "firstNm": "JUSTIN",
    "midNm": "DAVID",
    "sufNm": null,
    "indvlPK": "5974758",
    "actvAGReg": 1,
    "link": "http://www.adviserinfo.sec.gov/IAPD/Individual/5974758"
  },
  "OthrNms": [
    {
      "lastNm": "GRIFFIN",
      "firstNm": "JUSTIN",
      "midNm": "D",
      "sufNm": null
    }
  ],
  "CrntEmps": [
    {
      "CrntRgstns": [
        {
          "regAuth": 20,
          "regCat": 0,
          "st": 2,
          "stDt": "2012-01-17T00:00:00"
        },
        {
          "regAuth": 45,
          "regCat": 0,
          "st": 3,
          "stDt": "2015-08-17T00:00:00"
        }
      ],
      "BrnchOfLocs": [
        {
          "str1": "54 MAIN STREET",
          "str2": "SUITE 102",
          "city": "LEOMINSTER",
          "state": 20,
          "stateSpecified": true,
          "cntry": "United States",
          "postlCd": "01453"
        }
      ],
      "orgNm": "NEW HARBOR FINANCIAL GROUP, LLC",
      "orgPK": "155528",
      "str1": "54 MAIN STREET",
      "str2": "SUITE 102",
      "city": "LEOMINSTER",
      "state": 20,
      "stateSpecified": true,
      "cntry": "United States",
      "postlCd": "01453"
    }
  ],
  "Exms": [
    {
      "exmCd": 2,
      "exmNm": "Uniform Investment Adviser Law Examination",
      "exmDt": "2012-01-09T00:00:00",
      "exmDtSpecified": true
    }
  ],
  "Dsgntns": [],
  "PrevRgstns": [],
  "EmpHss": [
    {
      "fromDt": "11/2003",
      "toDt": "11/2008",
      "orgNm": "DUNDEE WEALTH MANAGEMENT",
      "city": "GUELPH",
      "stateSpecified": false
    },
    {
      "fromDt": "12/2008",
      "toDt": "12/2009",
      "orgNm": "UNEMPLOYED",
      "city": "GUELPH",
      "stateSpecified": false
    },
    {
      "fromDt": "12/2009",
      "toDt": "09/2011",
      "orgNm": "TD BANK",
      "city": "LEOMINSTER",
      "state": 20,
      "stateSpecified": true
    },
    {
      "fromDt": "10/2011",
      "toDt": "10/2011",
      "orgNm": "NEW YORK LIFE",
      "city": "WESTBOROUGH",
      "state": 20,
      "stateSpecified": true
    },
    {
      "fromDt": "11/2011",
      "toDt": null,
      "orgNm": "NEW HARBOR FINANCIAL GROUP, LLC",
      "city": "LEOMINSTER",
      "state": 20,
      "stateSpecified": true
    }
  ],
  "OthrBuss": {
    "OthrBus": null
  },
  "DRPs": []
}