{
  "Info": {
    "lastNm": "FRIESEN",
    "firstNm": "JOHN",
    "midNm": "PHILLIP",
    "sufNm": "JR",
    "indvlPK": "5976769",
    "actvAGReg": 0,
    "link": "http://www.adviserinfo.sec.gov/IAPD/Individual/5976769"
  },
  "OthrNms": [
    {
      "lastNm": "FRIESEN JR",
      "firstNm": "JOHN",
      "midNm": "PHILIP",
      "sufNm": null
    },
    {
      "lastNm": "FRIESEN JR.",
      "firstNm": "JOHN",
      "midNm": "PHILLIP",
      "sufNm": "JR."
    },
    {
      "lastNm": "FRIESEN",
      "firstNm": "JOHN",
      "midNm": "PHILIP",
      "sufNm": "JR."
    },
    {
      "lastNm": "FRIESEN",
      "firstNm": "JOHN",
      "midNm": "PHILLIP",
      "sufNm": "JR."
    }
  ],
  "CrntEmps": [
    {
      "CrntRgstns": [
        {
          "regAuth": 45,
          "regCat": 0,
          "st": 2,
          "stDt": "2011-11-25T00:00:00"
        }
      ],
      "BrnchOfLocs": [
        {
          "str1": "755 E. MULBERRY",
          "str2": "SUITE 300",
          "city": "SAN ANTONIO",
          "state": 45,
          "stateSpecified": true,
          "cntry": "United States",
          "postlCd": "78212"
        }
      ],
      "orgNm": "MORGAN STANLEY",
      "orgPK": "149777",
      "str1": "2000 WESTCHESTER AVENUE",
      "str2": null,
      "city": "PURCHASE",
      "state": 35,
      "stateSpecified": true,
      "cntry": "United States",
      "postlCd": "10577-2530"
    }
  ],
  "Exms": [
    {
      "exmCd": 3,
      "exmNm": "Uniform Combined State Law Examination",
      "exmDt": "2011-11-23T00:00:00",
      "exmDtSpecified": true
    }
  ],
  "Dsgntns": [],
  "PrevRgstns": [],
  "EmpHss": [
    {
      "fromDt": "05/2006",
      "toDt": "08/2009",
      "orgNm": "JACKSONCOOKSEY",
      "city": "DALLAS",
      "state": 45,
      "stateSpecified": true
    },
    {
      "fromDt": "08/2009",
      "toDt": "09/2011",
      "orgNm": "UNIVERSITY OF TEXAS - MBA",
      "city": "AUSTIN",
      "state": 45,
      "stateSpecified": true
    },
    {
      "fromDt": "05/2010",
      "toDt": "08/2010",
      "orgNm": "DIMENSIONAL FUND ADVISORS",
      "city": "AUSTIN",
      "state": 45,
      "stateSpecified": true
    },
    {
      "fromDt": "09/2011",
      "toDt": null,
      "orgNm": "MORGAN STANLEY SMITH BARNEY",
      "city": "LUFKIN",
      "state": 45,
      "stateSpecified": true
    },
    {
      "fromDt": "01/2015",
      "toDt": null,
      "orgNm": "MORGAN STANLEY PRIVATE BANK, NATIONAL ASSOCIATION",
      "city": "NEW YORK",
      "state": 35,
      "stateSpecified": true
    }
  ],
  "OthrBuss": {
    "OthrBus": null
  },
  "DRPs": []
}