{
  "Info": {
    "lastNm": "MCAULEY",
    "firstNm": "MARK",
    "midNm": "DAVID",
    "sufNm": null,
    "indvlPK": "5977054",
    "actvAGReg": 1,
    "link": "http://www.adviserinfo.sec.gov/IAPD/Individual/5977054"
  },
  "OthrNms": [],
  "CrntEmps": [
    {
      "CrntRgstns": [
        {
          "regAuth": 20,
          "regCat": 0,
          "st": 2,
          "stDt": "2012-11-08T00:00:00"
        }
      ],
      "BrnchOfLocs": [
        {
          "str1": "1350 BELMONT STREET",
          "str2": "SUITE 106",
          "city": "BROCKTON",
          "state": 20,
          "stateSpecified": true,
          "cntry": "United States",
          "postlCd": "02301"
        }
      ],
      "orgNm": "MDM FINANCIAL STRATEGIES",
      "orgPK": "165653",
      "str1": "1350 BELMONT STREET",
      "str2": "SUITE 106",
      "city": "BROCKTON",
      "state": 20,
      "stateSpecified": true,
      "cntry": "United States",
      "postlCd": "02301"
    }
  ],
  "Exms": [
    {
      "exmCd": 2,
      "exmNm": "Uniform Investment Adviser Law Examination",
      "exmDt": "2011-08-30T00:00:00",
      "exmDtSpecified": true
    },
    {
      "exmCd": 2,
      "exmNm": "Uniform Investment Adviser Law Examination",
      "exmDt": "2011-08-30T00:00:00",
      "exmDtSpecified": true
    }
  ],
  "Dsgntns": [],
  "PrevRgstns": [
    {
      "BrnchOfLocs": [
        {
          "city": "RAYNHAM",
          "state": 20,
          "stateSpecified": true
        }
      ],
      "orgNm": "EQUITYTRUST",
      "orgPK": "127412",
      "regBeginDt": "2011-10-17T00:00:00",
      "regBeginDtSpecified": true,
      "regEndDt": "2013-03-22T00:00:00",
      "regEndDtSpecified": true
    }
  ],
  "EmpHss": [
    {
      "fromDt": "06/2005",
      "toDt": null,
      "orgNm": "MDM FINANCIAL SOLUTIONS, INC.",
      "city": "BROCKTON",
      "state": 20,
      "stateSpecified": true
    },
    {
      "fromDt": "06/2005",
      "toDt": null,
      "orgNm": "SHARKANSKY, LLP",
      "city": "BROCKTON",
      "state": 20,
      "stateSpecified": true
    },
    {
      "fromDt": "09/2011",
      "toDt": null,
      "orgNm": "EQUITYTRUST",
      "city": "RAYNHAM",
      "state": 20,
      "stateSpecified": true
    }
  ],
  "OthrBuss": {
    "OthrBus": {
      "desc": "CPA AT  SHARKANSKY, LLP (CPA FIRM)  1350 BELMONT STREET  BROCKTON, MA 02301  NON-INVESTMENT RELATED  APPROX 20 HOURS PER WEEK  HAVE WORKED THERE SINCE JUNE, 2005  WORK ON A PART-TIME BASIS...FLEXIBLE SCHEDULE"
    }
  },
  "DRPs": []
}