{
  "Info": {
    "lastNm": "BUZZELL",
    "firstNm": "MATTHEW",
    "midNm": "JOHN",
    "sufNm": null,
    "indvlPK": "5979127",
    "actvAGReg": 0,
    "link": "http://www.adviserinfo.sec.gov/IAPD/Individual/5979127"
  },
  "OthrNms": [
    {
      "lastNm": "BUZZELL",
      "firstNm": "MATTHEW",
      "midNm": null,
      "sufNm": null
    }
  ],
  "CrntEmps": [
    {
      "CrntRgstns": [
        {
          "regAuth": 24,
          "regCat": 0,
          "st": 2,
          "stDt": "2013-11-19T00:00:00"
        },
        {
          "regAuth": 45,
          "regCat": 0,
          "st": 3,
          "stDt": "2015-02-05T00:00:00"
        }
      ],
      "BrnchOfLocs": [
        {
          "str1": "2064 SUPERIOR DR. NW",
          "str2": null,
          "city": "ROCHESTER",
          "state": 24,
          "stateSpecified": true,
          "cntry": "United States",
          "postlCd": "55901-5024"
        }
      ],
      "orgNm": "RBC CAPITAL MARKETS, LLC",
      "orgPK": "31194",
      "str1": "3 WORLD FINANCIAL CENTER",
      "str2": "200 VESEY ST.",
      "city": "NEW YORK",
      "state": 35,
      "stateSpecified": true,
      "cntry": "United States",
      "postlCd": "10281"
    }
  ],
  "Exms": [
    {
      "exmCd": 3,
      "exmNm": "Uniform Combined State Law Examination",
      "exmDt": "2011-12-08T00:00:00",
      "exmDtSpecified": true
    }
  ],
  "Dsgntns": [],
  "PrevRgstns": [],
  "EmpHss": [
    {
      "fromDt": "03/2004",
      "toDt": "05/2011",
      "orgNm": "LOCKHEED MARTIN",
      "city": "EAGAN",
      "state": 24,
      "stateSpecified": true
    },
    {
      "fromDt": "06/2011",
      "toDt": "08/2011",
      "orgNm": "UNEMPLOYED",
      "city": "MINNEAPOLIS",
      "state": 24,
      "stateSpecified": true
    },
    {
      "fromDt": "09/2011",
      "toDt": null,
      "orgNm": "RBC CAPITAL MARKETS, LLC",
      "city": "ROCHESTER",
      "state": 24,
      "stateSpecified": true
    }
  ],
  "OthrBuss": {
    "OthrBus": {
      "desc": "RESIDENTIAL RENTAL PROPERTY; 4007 - 4009 PILLSBURY AVE MINNEAPOLIS, MN 55409; PARTIAL OWNER OF A RESIDENTIAL DUPLEX; PROJECTED START DATE: 03/10/08; NO PROJECTED END DATE; CAPACITY; MY INVOLVEMENT INCLUDED FINDING RENTERS AND OCCASIONAL MAINTENANCE; DUTIES: I HELP FIND RENTERS AND OCCASIONALLY PERFORM MAINTENANCE; TOTAL HOURS PER MONTH: 0; TOTAL HOURS DURING TRADING HOURS: 0"
    }
  },
  "DRPs": []
}