{
  "Info": {
    "lastNm": "LIZZA",
    "firstNm": "PATRICK",
    "midNm": "MICHAEL",
    "sufNm": null,
    "indvlPK": "5985854",
    "actvAGReg": 0,
    "link": "http://www.adviserinfo.sec.gov/IAPD/Individual/5985854"
  },
  "OthrNms": [],
  "CrntEmps": [
    {
      "CrntRgstns": [
        {
          "regAuth": 4,
          "regCat": 0,
          "st": 2,
          "stDt": "2011-12-20T00:00:00"
        },
        {
          "regAuth": 45,
          "regCat": 0,
          "st": 3,
          "stDt": "2015-02-10T00:00:00"
        }
      ],
      "BrnchOfLocs": [
        {
          "str1": "75 280 HIGHWAY 111",
          "str2": null,
          "city": "INDIAN WELLS",
          "state": 4,
          "stateSpecified": true,
          "cntry": "United States",
          "postlCd": "92210"
        }
      ],
      "orgNm": "UBS FINANCIAL SERVICES INC.",
      "orgPK": "8174",
      "str1": "1200 HARBOR BOULEVARD",
      "str2": null,
      "city": "WEEHAWKEN",
      "state": 32,
      "stateSpecified": true,
      "cntry": "United States",
      "postlCd": "07086"
    }
  ],
  "Exms": [
    {
      "exmCd": 3,
      "exmNm": "Uniform Combined State Law Examination",
      "exmDt": "2011-12-19T00:00:00",
      "exmDtSpecified": true
    }
  ],
  "Dsgntns": [],
  "PrevRgstns": [],
  "EmpHss": [
    {
      "fromDt": "09/1994",
      "toDt": "09/2011",
      "orgNm": "THE PLANTATION GOLF CLUB",
      "city": "INDIO",
      "state": 4,
      "stateSpecified": true
    },
    {
      "fromDt": "10/2011",
      "toDt": null,
      "orgNm": "UBS FINANCIAL SERVICES",
      "city": "INDIAN WELLS",
      "state": 4,
      "stateSpecified": true
    }
  ],
  "OthrBuss": {
    "OthrBus": {
      "desc": "1)XAVIER COLLEGE PREPARATORY HIGH SCHOOL / 34-200 COOK STREET PALM DESERT CALIFORNIA/RIVERSIDE COUNTY 92211-1620 / OTHER / EDUCATION   / PRIVATE CATHOLIC HIGH SCHOOL / OFFICER   / TREASURER / START DATE 07/01/2009."
    }
  },
  "DRPs": []
}