{
  "Info": {
    "lastNm": "CRAWFORD",
    "firstNm": "STANLEY",
    "midNm": "RICHARD",
    "sufNm": null,
    "indvlPK": "5985282",
    "actvAGReg": 0,
    "link": "http://www.adviserinfo.sec.gov/IAPD/Individual/5985282"
  },
  "OthrNms": [],
  "CrntEmps": [
    {
      "CrntRgstns": [
        {
          "regAuth": 25,
          "regCat": 0,
          "st": 2,
          "stDt": "2016-04-15T00:00:00"
        }
      ],
      "BrnchOfLocs": [
        {
          "str1": "ONE N JEFFERSON AVE",
          "str2": null,
          "city": "ST. LOUIS",
          "state": 25,
          "stateSpecified": true,
          "cntry": "United States",
          "postlCd": "63103"
        }
      ],
      "orgNm": "WELLS FARGO ADVISORS, LLC",
      "orgPK": "19616",
      "str1": "ONE NORTH JEFFERSON AVENUE",
      "str2": "MAIL CODE: H0004-050",
      "city": "ST. LOUIS",
      "state": 25,
      "stateSpecified": true,
      "cntry": "United States",
      "postlCd": "63103-2205"
    }
  ],
  "Exms": [
    {
      "exmCd": 3,
      "exmNm": "Uniform Combined State Law Examination",
      "exmDt": "2015-04-16T00:00:00",
      "exmDtSpecified": true
    }
  ],
  "Dsgntns": [],
  "PrevRgstns": [],
  "EmpHss": [
    {
      "fromDt": "01/2004",
      "toDt": "08/2008",
      "orgNm": "NATIONAL FOOTBALL LEAGUE- JUNIOR PLAYER DEVELOPMENT",
      "city": "ST. LOUIS",
      "state": 25,
      "stateSpecified": true
    },
    {
      "fromDt": "08/2008",
      "toDt": "05/2011",
      "orgNm": "WESTMINSTER COLLEGE",
      "city": "FULTON",
      "state": 25,
      "stateSpecified": true
    },
    {
      "fromDt": "01/2011",
      "toDt": "09/2011",
      "orgNm": "WESTMINSTER COLLEGE BUSINESS OFFICE",
      "city": "FULTON",
      "state": 25,
      "stateSpecified": true
    },
    {
      "fromDt": "10/2011",
      "toDt": null,
      "orgNm": "FIRST CLEARING, LLC",
      "city": "ST LOUIS",
      "state": 25,
      "stateSpecified": true
    }
  ],
  "OthrBuss": {
    "OthrBus": null
  },
  "DRPs": []
}