{
  "Info": {
    "lastNm": "KOZLOWSKI",
    "firstNm": "KYLE",
    "midNm": "MICHAEL",
    "sufNm": null,
    "indvlPK": "5996003",
    "actvAGReg": 0,
    "link": "http://www.adviserinfo.sec.gov/IAPD/Individual/5996003"
  },
  "OthrNms": [
    {
      "lastNm": "KOZLOWSKI",
      "firstNm": "KYLE",
      "midNm": "M",
      "sufNm": null
    }
  ],
  "CrntEmps": [
    {
      "CrntRgstns": [
        {
          "regAuth": 32,
          "regCat": 0,
          "st": 2,
          "stDt": "2014-09-17T00:00:00"
        }
      ],
      "BrnchOfLocs": [
        {
          "str1": "VILLAGE PARK BUSINESS CENTER",
          "str2": "6390 MAIN STREET",
          "city": "WILLIAMSVILLE",
          "state": 35,
          "stateSpecified": true,
          "cntry": "United States",
          "postlCd": "14221"
        }
      ],
      "orgNm": "UBS FINANCIAL SERVICES INC.",
      "orgPK": "8174",
      "str1": "1200 HARBOR BOULEVARD",
      "str2": null,
      "city": "WEEHAWKEN",
      "state": 32,
      "stateSpecified": true,
      "cntry": "United States",
      "postlCd": "07086"
    }
  ],
  "Exms": [
    {
      "exmCd": 3,
      "exmNm": "Uniform Combined State Law Examination",
      "exmDt": "2014-09-16T00:00:00",
      "exmDtSpecified": true
    }
  ],
  "Dsgntns": [],
  "PrevRgstns": [],
  "EmpHss": [
    {
      "fromDt": "09/2003",
      "toDt": "06/2007",
      "orgNm": "STARPOINT CENTRAL SCHOOL",
      "city": "LOCKPORT",
      "state": 35,
      "stateSpecified": true
    },
    {
      "fromDt": "04/2005",
      "toDt": "09/2012",
      "orgNm": "WESTERN NEW YORK ROLLER HOCKEY",
      "city": "CHEEKTOWAGA",
      "state": 35,
      "stateSpecified": true
    },
    {
      "fromDt": "04/2006",
      "toDt": "10/2006",
      "orgNm": "WESTWOOD COUNTRY CLUB",
      "city": "WILLIAMSVILLE",
      "state": 35,
      "stateSpecified": true
    },
    {
      "fromDt": "04/2010",
      "toDt": "10/2012",
      "orgNm": "ROSS RENTAL STATION",
      "city": "LOCKPORT",
      "state": 35,
      "stateSpecified": true
    },
    {
      "fromDt": "07/2011",
      "toDt": "09/2013",
      "orgNm": "UBS FINANCIAL SERVICES INC",
      "city": "WILLIAMSVILLE",
      "state": 35,
      "stateSpecified": true
    },
    {
      "fromDt": "09/2013",
      "toDt": null,
      "orgNm": "UBS FINANCIAL SERVICES INC",
      "city": "WILLIAMSVILLE",
      "state": 35,
      "stateSpecified": true
    }
  ],
  "OthrBuss": {
    "OthrBus": null
  },
  "DRPs": []
}