{
  "Info": {
    "lastNm": "Hutto",
    "firstNm": "Charles",
    "midNm": "Lynn",
    "sufNm": "Jr",
    "indvlPK": "5999957",
    "actvAGReg": 0,
    "link": "http://www.adviserinfo.sec.gov/IAPD/Individual/5999957"
  },
  "OthrNms": [
    {
      "lastNm": "HUTTO",
      "firstNm": "CHARLES",
      "midNm": "LYNN",
      "sufNm": null
    }
  ],
  "CrntEmps": [
    {
      "CrntRgstns": [
        {
          "regAuth": 45,
          "regCat": 0,
          "st": 2,
          "stDt": "2012-03-19T00:00:00"
        }
      ],
      "BrnchOfLocs": [
        {
          "str1": "301 S MARSHALL ST",
          "str2": null,
          "city": "HENDERSON",
          "state": 45,
          "stateSpecified": true,
          "cntry": "United States",
          "postlCd": "75654-3550"
        }
      ],
      "orgNm": "EDWARD JONES",
      "orgPK": "250",
      "str1": "12555 MANCHESTER RD",
      "str2": null,
      "city": "ST. LOUIS",
      "state": 25,
      "stateSpecified": true,
      "cntry": "United States",
      "postlCd": "63131"
    }
  ],
  "Exms": [
    {
      "exmCd": 3,
      "exmNm": "Uniform Combined State Law Examination",
      "exmDt": "2012-01-20T00:00:00",
      "exmDtSpecified": true
    }
  ],
  "Dsgntns": [],
  "PrevRgstns": [],
  "EmpHss": [
    {
      "fromDt": "05/2006",
      "toDt": "10/2011",
      "orgNm": "CHARLIE HUTTO MUSIC",
      "city": "NASHVILLE",
      "state": 44,
      "stateSpecified": true
    },
    {
      "fromDt": "05/2006",
      "toDt": "04/2007",
      "orgNm": "NATALIE STOVALL BAND",
      "city": "NASHVILLE",
      "state": 44,
      "stateSpecified": true
    },
    {
      "fromDt": "04/2007",
      "toDt": "04/2008",
      "orgNm": "CAPITOL RECORDS",
      "city": "NASHVILLE",
      "state": 44,
      "stateSpecified": true
    },
    {
      "fromDt": "04/2008",
      "toDt": "05/2011",
      "orgNm": "GOLDEN MUSIC NASHVILLE (SJW ENTERPRISES)",
      "city": "NASHVILLE",
      "state": 44,
      "stateSpecified": true
    },
    {
      "fromDt": "04/2009",
      "toDt": "07/2011",
      "orgNm": "WIDE OPEN MUSIC GROUP",
      "city": "NASHVILLE",
      "state": 44,
      "stateSpecified": true
    },
    {
      "fromDt": "11/2011",
      "toDt": null,
      "orgNm": "EDWARD JONES",
      "city": "ST LOUIS",
      "state": 25,
      "stateSpecified": true
    }
  ],
  "OthrBuss": {
    "OthrBus": null
  },
  "DRPs": []
}