{
  "Info": {
    "lastNm": "PEEK",
    "firstNm": "GERI LEE",
    "midNm": "DAVIDSON",
    "sufNm": null,
    "indvlPK": "6006314",
    "actvAGReg": 0,
    "link": "http://www.adviserinfo.sec.gov/IAPD/Individual/6006314"
  },
  "OthrNms": [
    {
      "lastNm": "DAVIDSON",
      "firstNm": "GERI-LEE",
      "midNm": null,
      "sufNm": null
    }
  ],
  "CrntEmps": [
    {
      "CrntRgstns": [
        {
          "regAuth": 5,
          "regCat": 0,
          "st": 2,
          "stDt": "2013-06-04T00:00:00"
        }
      ],
      "BrnchOfLocs": [
        {
          "str1": "FINANCIAL CENTER TWO",
          "str2": "2220 BRIARGATE PARKWAY",
          "city": "COLORADO SPRINGS",
          "state": 5,
          "stateSpecified": true,
          "cntry": "United States",
          "postlCd": "80920"
        }
      ],
      "orgNm": "T. ROWE PRICE ADVISORY SERVICES, INC.",
      "orgPK": "108958",
      "str1": "100 EAST PRATT STREET",
      "str2": null,
      "city": "BALTIMORE",
      "state": 21,
      "stateSpecified": true,
      "cntry": "United States",
      "postlCd": "21202"
    }
  ],
  "Exms": [
    {
      "exmCd": 3,
      "exmNm": "Uniform Combined State Law Examination",
      "exmDt": "2013-06-03T00:00:00",
      "exmDtSpecified": true
    }
  ],
  "Dsgntns": [],
  "PrevRgstns": [],
  "EmpHss": [
    {
      "fromDt": "03/2006",
      "toDt": "10/2008",
      "orgNm": "BARCLAYS/FIRST SOURCE",
      "city": "COLORADO SPRINGS",
      "state": 5,
      "stateSpecified": true
    },
    {
      "fromDt": "11/2008",
      "toDt": "03/2010",
      "orgNm": "FREEDOM COMMUNICATIONS",
      "city": "COLORADO SPRINGS",
      "state": 5,
      "stateSpecified": true
    },
    {
      "fromDt": "03/2010",
      "toDt": "10/2011",
      "orgNm": "UNEMPLOYED",
      "city": "COLORADO SPRINGS",
      "state": 5,
      "stateSpecified": true
    },
    {
      "fromDt": "10/2011",
      "toDt": "11/2011",
      "orgNm": "BATH AND BODY WORKS",
      "city": "COLORADO SPRINGS",
      "state": 5,
      "stateSpecified": true
    },
    {
      "fromDt": "11/2011",
      "toDt": null,
      "orgNm": "T. ROWE PRICE",
      "city": "COLORADO SPRINGS",
      "state": 5,
      "stateSpecified": true
    }
  ],
  "OthrBuss": {
    "OthrBus": null
  },
  "DRPs": []
}