{
  "Info": {
    "lastNm": "BAILEY",
    "firstNm": "CELESTE",
    "midNm": "ANNE",
    "sufNm": null,
    "indvlPK": "6006188",
    "actvAGReg": 0,
    "link": "http://www.adviserinfo.sec.gov/IAPD/Individual/6006188"
  },
  "OthrNms": [],
  "CrntEmps": [
    {
      "CrntRgstns": [
        {
          "regAuth": 15,
          "regCat": 0,
          "st": 2,
          "stDt": "2012-03-12T00:00:00"
        }
      ],
      "BrnchOfLocs": [
        {
          "str1": "FLINT CREEK CROSSING",
          "str2": "760 WEST MAIN STREET",
          "city": "BARRINGTON",
          "state": 15,
          "stateSpecified": true,
          "cntry": "United States",
          "postlCd": "60010"
        }
      ],
      "orgNm": "MORGAN STANLEY",
      "orgPK": "149777",
      "str1": "2000 WESTCHESTER AVENUE",
      "str2": null,
      "city": "PURCHASE",
      "state": 35,
      "stateSpecified": true,
      "cntry": "United States",
      "postlCd": "10577-2530"
    }
  ],
  "Exms": [
    {
      "exmCd": 3,
      "exmNm": "Uniform Combined State Law Examination",
      "exmDt": "2012-03-09T00:00:00",
      "exmDtSpecified": true
    }
  ],
  "Dsgntns": [],
  "PrevRgstns": [],
  "EmpHss": [
    {
      "fromDt": "06/2001",
      "toDt": "06/2011",
      "orgNm": "NORTH SHORE PRIVATE ASSET MANAGEMENT",
      "city": "LAKE FOREST",
      "state": 15,
      "stateSpecified": true
    },
    {
      "fromDt": "04/2011",
      "toDt": "01/2012",
      "orgNm": "BARRINGTON AREA SOCCER ASSOCIATION",
      "city": "BARRINGTON",
      "state": 15,
      "stateSpecified": true
    },
    {
      "fromDt": "11/2011",
      "toDt": "01/2015",
      "orgNm": "MORGAN STANLEY SMITH BARNEY LLC",
      "city": "BARRINGTON",
      "state": 15,
      "stateSpecified": true
    },
    {
      "fromDt": "01/2015",
      "toDt": null,
      "orgNm": "MORGAN STANLEY PRIVATE BANK, NATIONAL ASSOCIATION",
      "city": "NEW YORK",
      "state": 35,
      "stateSpecified": true
    },
    {
      "fromDt": "01/2015",
      "toDt": null,
      "orgNm": "MORGAN STANLEY SMITH BARNEY LLC",
      "city": "BARRINGTON",
      "state": 15,
      "stateSpecified": true
    }
  ],
  "OthrBuss": {
    "OthrBus": {
      "desc": "BARRINGTON AREA SOCCER ASSOCIATION, INDEPENDENT CONTRACTOR; SOCCER CLUB; COACH/REFEREE; DURING BUSINESS HOURS- 0; AFTER BUSINESS HOURS- 50; NOT INVESTMENT RELATED;"
    }
  },
  "DRPs": []
}