{
  "Info": {
    "lastNm": "CICCI",
    "firstNm": "TINA",
    "midNm": "MARIE",
    "sufNm": null,
    "indvlPK": "6009822",
    "actvAGReg": 0,
    "link": "http://www.adviserinfo.sec.gov/IAPD/Individual/6009822"
  },
  "OthrNms": [
    {
      "lastNm": "CICCI",
      "firstNm": "TINA",
      "midNm": "MARIE",
      "sufNm": null
    },
    {
      "lastNm": "LONGORIA",
      "firstNm": "TINA",
      "midNm": "MARIE",
      "sufNm": null
    }
  ],
  "CrntEmps": [
    {
      "CrntRgstns": [
        {
          "regAuth": 20,
          "regCat": 0,
          "st": 2,
          "stDt": "2014-01-23T00:00:00"
        }
      ],
      "BrnchOfLocs": [
        {
          "str1": "16 CHESTNUT ST STE 111",
          "str2": null,
          "city": "FOXBOROUGH",
          "state": 20,
          "stateSpecified": true,
          "cntry": "United States",
          "postlCd": "02035"
        }
      ],
      "orgNm": "LPL FINANCIAL LLC",
      "orgPK": "6413",
      "str1": "75 STATE STREET, 22ND FLOOR",
      "str2": null,
      "city": "BOSTON",
      "state": 20,
      "stateSpecified": true,
      "cntry": "United States",
      "postlCd": "02109"
    }
  ],
  "Exms": [
    {
      "exmCd": 3,
      "exmNm": "Uniform Combined State Law Examination",
      "exmDt": "2012-04-04T00:00:00",
      "exmDtSpecified": true
    }
  ],
  "Dsgntns": [],
  "PrevRgstns": [],
  "EmpHss": [
    {
      "fromDt": "07/2000",
      "toDt": "10/2011",
      "orgNm": "PROPHET BRAND STRATEGY",
      "city": "SAN FRANCISCO",
      "state": 4,
      "stateSpecified": true
    },
    {
      "fromDt": "10/2011",
      "toDt": "03/2012",
      "orgNm": "UNEMPLOYED",
      "city": "EAST WALPOLE",
      "state": 20,
      "stateSpecified": true
    },
    {
      "fromDt": "03/2012",
      "toDt": "12/2013",
      "orgNm": "ING FINANCIAL PARTNERS, INC.",
      "city": "FOXBOROUGH",
      "state": 20,
      "stateSpecified": true
    },
    {
      "fromDt": "01/2014",
      "toDt": null,
      "orgNm": "LPL FINANCIAL",
      "city": "FOXBOROUGH",
      "state": 20,
      "stateSpecified": true
    }
  ],
  "OthrBuss": {
    "OthrBus": {
      "desc": "1. 1/15/2014 - DBA ONLY - DC ADVISORS, LLC - FOXBOROUGH, MA.   2. 1/28/2014: REAL ESTATE RENTAL - MY HUSBAND AND I OWN A 1/3 SHARE OF A LAKEFRONT PROPERTY IN OSSIPEE, NH.  WE HAVE THE ABILITY TO RENT OUT THE PROPERTY IF WE WANT.  THE PROPERTY IS OWNED AS \"THE BUSHWOOD TRUST AGREEMENT OF 2013\". - TIME SPENT 1% - OSSIPEE, NH.    3. 12/4/2014: OUTSIDE/W-2 EMPLOYMENT - PROPHET BRAND STRATEGY - CONTRACTOR FOR PROPHET, A LEADING BRAND STRATEGY CONSULTING FIRM. - NOT INVESTMENT RELATED - 120 HOURS PER MONTH/100 HOURS DURING TRADING - EAST WALPOLE, MA."
    }
  },
  "DRPs": []
}