{
  "Info": {
    "lastNm": "FUTERNICK",
    "firstNm": "IRWIN",
    "midNm": "KEITH",
    "sufNm": null,
    "indvlPK": "6011095",
    "actvAGReg": 0,
    "link": "http://www.adviserinfo.sec.gov/IAPD/Individual/6011095"
  },
  "OthrNms": [],
  "CrntEmps": [
    {
      "CrntRgstns": [
        {
          "regAuth": 23,
          "regCat": 0,
          "st": 2,
          "stDt": "2012-03-14T00:00:00"
        },
        {
          "regAuth": 46,
          "regCat": 0,
          "st": 2,
          "stDt": "2012-04-19T00:00:00"
        }
      ],
      "BrnchOfLocs": [
        {
          "str1": "101 WEST BIG BEAVER ROAD",
          "str2": null,
          "city": "TROY",
          "state": 23,
          "stateSpecified": true,
          "cntry": "United States",
          "postlCd": "48084"
        }
      ],
      "orgNm": "MORGAN STANLEY",
      "orgPK": "149777",
      "str1": "2000 WESTCHESTER AVENUE",
      "str2": null,
      "city": "PURCHASE",
      "state": 35,
      "stateSpecified": true,
      "cntry": "United States",
      "postlCd": "10577-2530"
    }
  ],
  "Exms": [
    {
      "exmCd": 3,
      "exmNm": "Uniform Combined State Law Examination",
      "exmDt": "2012-03-09T00:00:00",
      "exmDtSpecified": true
    }
  ],
  "Dsgntns": [],
  "PrevRgstns": [],
  "EmpHss": [
    {
      "fromDt": "06/1987",
      "toDt": "06/2011",
      "orgNm": "NATIONWIDE MOBILE HOME PARKS, INC.",
      "city": "WESTLAND",
      "state": 23,
      "stateSpecified": true
    },
    {
      "fromDt": "06/2011",
      "toDt": "12/2011",
      "orgNm": "UNEMPLOYED",
      "city": "WEST BLOOMFIELD",
      "state": 23,
      "stateSpecified": true
    },
    {
      "fromDt": "12/2011",
      "toDt": "05/2015",
      "orgNm": "MORGAN STANLEY SMITH BARNEY LLC",
      "city": "BIRMINGHAM",
      "state": 23,
      "stateSpecified": true
    },
    {
      "fromDt": "01/2015",
      "toDt": "05/2015",
      "orgNm": "MORGAN STANLEY PRIVATE BANK, NATIONAL ASSOCIATION",
      "city": "NEW YORK",
      "state": 35,
      "stateSpecified": true
    },
    {
      "fromDt": "05/2015",
      "toDt": null,
      "orgNm": "MORGAN STANLEY PRIVATE BANK, NATIONAL ASSOCIATION",
      "city": "NEW YORK",
      "state": 35,
      "stateSpecified": true
    },
    {
      "fromDt": "05/2015",
      "toDt": null,
      "orgNm": "MORGAN STANLEY SMITH BARNEY LLC",
      "city": "BIRMINGHAM",
      "state": 23,
      "stateSpecified": true
    }
  ],
  "OthrBuss": {
    "OthrBus": null
  },
  "DRPs": []
}