{
  "Info": {
    "lastNm": "DISHAW",
    "firstNm": "KELLY",
    "midNm": "MARIE",
    "sufNm": null,
    "indvlPK": "6013522",
    "actvAGReg": 0,
    "link": "http://www.adviserinfo.sec.gov/IAPD/Individual/6013522"
  },
  "OthrNms": [],
  "CrntEmps": [
    {
      "CrntRgstns": [
        {
          "regAuth": 23,
          "regCat": 0,
          "st": 2,
          "stDt": "2012-11-14T00:00:00"
        }
      ],
      "BrnchOfLocs": [
        {
          "str1": "300 COUNTRY PINE LANE",
          "str2": "SUITE 1",
          "city": "BATTLE CREEK",
          "state": 23,
          "stateSpecified": true,
          "cntry": "United States",
          "postlCd": "49015"
        }
      ],
      "orgNm": "J.J.B. HILLIARD, W.L. LYONS, LLC",
      "orgPK": "453",
      "str1": "500 WEST JEFFERSON STREET",
      "str2": null,
      "city": "LOUISVILLE",
      "state": 18,
      "stateSpecified": true,
      "cntry": "United States",
      "postlCd": "40202"
    }
  ],
  "Exms": [
    {
      "exmCd": 3,
      "exmNm": "Uniform Combined State Law Examination",
      "exmDt": "2012-11-12T00:00:00",
      "exmDtSpecified": true
    }
  ],
  "Dsgntns": [],
  "PrevRgstns": [],
  "EmpHss": [
    {
      "fromDt": "08/2004",
      "toDt": "01/2012",
      "orgNm": "CHMURA ORTHODONTICS",
      "city": "MARSHALL",
      "state": 23,
      "stateSpecified": true
    },
    {
      "fromDt": "01/2012",
      "toDt": null,
      "orgNm": "J.J.B. HILLIARD, W.L. LYONS, LLC",
      "city": "BATTLE CREEK",
      "state": 23,
      "stateSpecified": true
    }
  ],
  "OthrBuss": {
    "OthrBus": null
  },
  "DRPs": []
}