{
  "Info": {
    "lastNm": "DEBOER",
    "firstNm": "ADDISON",
    "midNm": "ALAN",
    "sufNm": null,
    "indvlPK": "6013394",
    "actvAGReg": 0,
    "link": "http://www.adviserinfo.sec.gov/IAPD/Individual/6013394"
  },
  "OthrNms": [],
  "CrntEmps": [
    {
      "CrntRgstns": [
        {
          "regAuth": 45,
          "regCat": 0,
          "st": 3,
          "stDt": "2013-12-04T00:00:00"
        },
        {
          "regAuth": 34,
          "regCat": 0,
          "st": 2,
          "stDt": "2015-03-04T00:00:00"
        }
      ],
      "BrnchOfLocs": [
        {
          "str1": "280 PILOT RD",
          "str2": null,
          "city": "LAS VEGAS",
          "state": 34,
          "stateSpecified": true,
          "cntry": "United States",
          "postlCd": "89119-3513"
        }
      ],
      "orgNm": "AMERIPRISE FINANCIAL SERVICES, INC.",
      "orgPK": "6363",
      "str1": "707 2ND AVENUE SOUTH",
      "str2": null,
      "city": "MINNEAPOLIS",
      "state": 24,
      "stateSpecified": true,
      "cntry": "United States",
      "postlCd": "55402"
    }
  ],
  "Exms": [
    {
      "exmCd": 0,
      "exmNm": "Uniform Securities Agent State Law Examination",
      "exmDt": "2012-02-11T00:00:00",
      "exmDtSpecified": true
    },
    {
      "exmCd": 2,
      "exmNm": "Uniform Investment Adviser Law Examination",
      "exmDt": "2014-07-19T00:00:00",
      "exmDtSpecified": true
    }
  ],
  "Dsgntns": [],
  "PrevRgstns": [],
  "EmpHss": [
    {
      "fromDt": "05/2006",
      "toDt": "08/2006",
      "orgNm": "RIVERVIEW PACKAGEING",
      "city": "ARDEN HILLS",
      "state": 24,
      "stateSpecified": true
    },
    {
      "fromDt": "08/2006",
      "toDt": "02/2010",
      "orgNm": "THE COLORADO COLLEGE",
      "city": "COLORADO SPRINGS",
      "state": 5,
      "stateSpecified": true
    },
    {
      "fromDt": "05/2007",
      "toDt": "09/2008",
      "orgNm": "THE CITY OF SPRING LAKE PARK",
      "city": "SPRING LAKE PARK",
      "state": 24,
      "stateSpecified": true
    },
    {
      "fromDt": "02/2010",
      "toDt": "05/2010",
      "orgNm": "QUAD CITY MALLARDS",
      "city": "MOLINE",
      "state": 15,
      "stateSpecified": true
    },
    {
      "fromDt": "05/2010",
      "toDt": "10/2010",
      "orgNm": "UNEMPLOYED",
      "city": "SPRING LAKE PARK",
      "state": 24,
      "stateSpecified": true
    },
    {
      "fromDt": "10/2010",
      "toDt": "01/2011",
      "orgNm": "LAREDO BUCKS",
      "city": "LAREDO",
      "state": 45,
      "stateSpecified": true
    },
    {
      "fromDt": "01/2011",
      "toDt": "04/2011",
      "orgNm": "ACCELERATION MINNESOTA",
      "city": "ARDEN HILLS",
      "state": 24,
      "stateSpecified": true
    },
    {
      "fromDt": "04/2011",
      "toDt": "09/2011",
      "orgNm": "CANBERRA KNIGHTS",
      "city": "CANBERRA AUSTRALIA",
      "stateSpecified": false
    },
    {
      "fromDt": "09/2011",
      "toDt": "10/2011",
      "orgNm": "TULSA OILERS",
      "city": "TULSA",
      "state": 37,
      "stateSpecified": true
    },
    {
      "fromDt": "01/2012",
      "toDt": null,
      "orgNm": "AMERIPRISE FINANCIAL SERVICES,INC",
      "city": "MINNEAPOLIS",
      "state": 24,
      "stateSpecified": true
    }
  ],
  "OthrBuss": {
    "OthrBus": null
  },
  "DRPs": []
}