{
  "Info": {
    "lastNm": "TUFTE",
    "firstNm": "JESSICA",
    "midNm": "KOCZUR",
    "sufNm": null,
    "indvlPK": "6013370",
    "actvAGReg": 0,
    "link": "http://www.adviserinfo.sec.gov/IAPD/Individual/6013370"
  },
  "OthrNms": [
    {
      "lastNm": "TUFTE",
      "firstNm": "JESSICA",
      "midNm": "K",
      "sufNm": null
    }
  ],
  "CrntEmps": [
    {
      "CrntRgstns": [
        {
          "regAuth": 4,
          "regCat": 0,
          "st": 2,
          "stDt": "2012-10-19T00:00:00"
        }
      ],
      "BrnchOfLocs": [
        {
          "str1": "30 25th Ave S",
          "str2": "Ste 101",
          "city": "ST CLOUD",
          "state": 24,
          "stateSpecified": true,
          "cntry": "United States",
          "postlCd": "56301"
        }
      ],
      "orgNm": "AMERIPRISE FINANCIAL SERVICES, INC.",
      "orgPK": "6363",
      "str1": "707 2ND AVENUE SOUTH",
      "str2": null,
      "city": "MINNEAPOLIS",
      "state": 24,
      "stateSpecified": true,
      "cntry": "United States",
      "postlCd": "55402"
    }
  ],
  "Exms": [
    {
      "exmCd": 3,
      "exmNm": "Uniform Combined State Law Examination",
      "exmDt": "2012-10-17T00:00:00",
      "exmDtSpecified": true
    }
  ],
  "Dsgntns": [],
  "PrevRgstns": [],
  "EmpHss": [
    {
      "fromDt": "02/2006",
      "toDt": "10/2011",
      "orgNm": "PEBBLE BEACH COMPANY",
      "city": "PEBBLE BEACH",
      "state": 4,
      "stateSpecified": true
    },
    {
      "fromDt": "01/2012",
      "toDt": null,
      "orgNm": "AMERIPRISE FINANCIAL SERVICES INC.",
      "city": "SAN RAMON",
      "state": 4,
      "stateSpecified": true
    }
  ],
  "OthrBuss": {
    "OthrBus": null
  },
  "DRPs": []
}