{
  "Info": {
    "lastNm": "HORVATH",
    "firstNm": "KRISTEN",
    "midNm": "RENEE",
    "sufNm": null,
    "indvlPK": "6015826",
    "actvAGReg": 0,
    "link": "http://www.adviserinfo.sec.gov/IAPD/Individual/6015826"
  },
  "OthrNms": [
    {
      "lastNm": "HOMIAK",
      "firstNm": "KRISTEN",
      "midNm": "R",
      "sufNm": null
    },
    {
      "lastNm": "HOMIAK",
      "firstNm": "KRISTEN",
      "midNm": "RENEE",
      "sufNm": null
    },
    {
      "lastNm": "HOMIAK",
      "firstNm": "KRISTEN",
      "midNm": "RENEE",
      "sufNm": null
    }
  ],
  "CrntEmps": [
    {
      "CrntRgstns": [
        {
          "regAuth": 23,
          "regCat": 0,
          "st": 2,
          "stDt": "2014-09-09T00:00:00"
        }
      ],
      "BrnchOfLocs": [
        {
          "str1": "2000 TOWN CENTER",
          "str2": "SUITE 2000",
          "city": "SOUTHFIELD",
          "state": 23,
          "stateSpecified": true,
          "cntry": "United States",
          "postlCd": "48075"
        }
      ],
      "orgNm": "TIAA-CREF INDIVIDUAL & INSTITUTIONAL SERVICES, LLC",
      "orgPK": "20472",
      "str1": "730 THIRD AVENUE",
      "str2": null,
      "city": "NEW YORK",
      "state": 35,
      "stateSpecified": true,
      "cntry": "United States",
      "postlCd": "10017-3206"
    }
  ],
  "Exms": [
    {
      "exmCd": 0,
      "exmNm": "Uniform Securities Agent State Law Examination",
      "exmDt": "2012-02-21T00:00:00",
      "exmDtSpecified": true
    },
    {
      "exmCd": 3,
      "exmNm": "Uniform Combined State Law Examination",
      "exmDt": "2014-09-08T00:00:00",
      "exmDtSpecified": true
    }
  ],
  "Dsgntns": [],
  "PrevRgstns": [],
  "EmpHss": [
    {
      "fromDt": "11/2005",
      "toDt": "08/2006",
      "orgNm": "SOMATA SPA",
      "city": "RIVERVIEW",
      "state": 23,
      "stateSpecified": true
    },
    {
      "fromDt": "08/2006",
      "toDt": "06/2007",
      "orgNm": "CENTRAL MICHIGAN UNIVERSITY",
      "city": "MOUNT PLEASANT",
      "state": 23,
      "stateSpecified": true
    },
    {
      "fromDt": "06/2007",
      "toDt": "08/2007",
      "orgNm": "MALLIE'S SPORTS BAR",
      "city": "SOUTHGATE",
      "state": 23,
      "stateSpecified": true
    },
    {
      "fromDt": "08/2007",
      "toDt": "12/2007",
      "orgNm": "CENTRAL MICHIGAN UNIVERSITY",
      "city": "MOUNT PLEASANT",
      "state": 23,
      "stateSpecified": true
    },
    {
      "fromDt": "11/2007",
      "toDt": "07/2008",
      "orgNm": "NEW YORK & COMPANY",
      "city": "DEARBORN",
      "state": 23,
      "stateSpecified": true
    },
    {
      "fromDt": "05/2008",
      "toDt": "05/2009",
      "orgNm": "EXPRESS",
      "city": "TAYLOR",
      "state": 23,
      "stateSpecified": true
    },
    {
      "fromDt": "05/2009",
      "toDt": "07/2009",
      "orgNm": "CENTRAL MICHIGAN UNIVERSITY",
      "city": "MOUNT PLEASANT",
      "state": 23,
      "stateSpecified": true
    },
    {
      "fromDt": "07/2009",
      "toDt": "06/2010",
      "orgNm": "ALDO ACCESSORIES",
      "city": "NOVI",
      "state": 23,
      "stateSpecified": true
    },
    {
      "fromDt": "06/2010",
      "toDt": "03/2011",
      "orgNm": "BEBE",
      "city": "NOVI",
      "state": 23,
      "stateSpecified": true
    },
    {
      "fromDt": "03/2011",
      "toDt": "07/2014",
      "orgNm": "JPMORGAN CHASE BANK",
      "city": "TRENTON",
      "state": 23,
      "stateSpecified": true
    },
    {
      "fromDt": "01/2012",
      "toDt": "10/2012",
      "orgNm": "CHASE INVESTMENT SERVICES CORP",
      "city": "TRENTON",
      "state": 23,
      "stateSpecified": true
    },
    {
      "fromDt": "10/2012",
      "toDt": "07/2014",
      "orgNm": "J.P. MORGAN SECURITIES LLC",
      "city": "BROWNSTOWN TWP",
      "state": 23,
      "stateSpecified": true
    },
    {
      "fromDt": "07/2014",
      "toDt": null,
      "orgNm": "TIAA",
      "city": "SOUTHFIELD",
      "state": 23,
      "stateSpecified": true
    },
    {
      "fromDt": "07/2014",
      "toDt": null,
      "orgNm": "TIAA-CREF INDIVIDUAL & INSTITUTIONAL SERVICES, LLC",
      "city": "SOUTHFIELD",
      "state": 23,
      "stateSpecified": true
    }
  ],
  "OthrBuss": {
    "OthrBus": null
  },
  "DRPs": []
}