{
  "Info": {
    "lastNm": "FORT",
    "firstNm": "JUSTIN",
    "midNm": "LEE",
    "sufNm": null,
    "indvlPK": "6015079",
    "actvAGReg": 1,
    "link": "http://www.adviserinfo.sec.gov/IAPD/Individual/6015079"
  },
  "OthrNms": [],
  "CrntEmps": [
    {
      "CrntRgstns": [
        {
          "regAuth": 45,
          "regCat": 0,
          "st": 2,
          "stDt": "2014-04-15T00:00:00"
        }
      ],
      "BrnchOfLocs": [
        {
          "str1": "19520 WEST CATAWBA AVENUE",
          "str2": "SUITE 312B",
          "city": "CORNELIUS",
          "state": 28,
          "stateSpecified": true,
          "cntry": "United States",
          "postlCd": "28031"
        },
        {
          "str1": "7701 SAN FELIPE BLVD",
          "str2": "SUITE 100",
          "city": "AUSTIN",
          "state": 45,
          "stateSpecified": true,
          "cntry": "United States",
          "postlCd": "78729"
        }
      ],
      "orgNm": "ALPHASTAR CAPITAL MANAGEMENT, LLC",
      "orgPK": "157423",
      "str1": "19520 WEST CATAWBA AVENUE",
      "str2": "SUITE 312B",
      "city": "CORNELIUS",
      "state": 28,
      "stateSpecified": true,
      "cntry": "United States",
      "postlCd": "28031"
    }
  ],
  "Exms": [
    {
      "exmCd": 2,
      "exmNm": "Uniform Investment Adviser Law Examination",
      "exmDt": "2011-07-18T00:00:00",
      "exmDtSpecified": true
    }
  ],
  "Dsgntns": [
    {
      "dsgntnNm": "Chartered Financial Consultant"
    }
  ],
  "PrevRgstns": [
    {
      "BrnchOfLocs": [
        {
          "city": "AUSTIN",
          "state": 45,
          "stateSpecified": true
        }
      ],
      "orgNm": "ARBOR MUTUAL ADVISORS, INC.",
      "orgPK": "159275",
      "regBeginDt": "2012-06-27T00:00:00",
      "regBeginDtSpecified": true,
      "regEndDt": "2014-03-31T00:00:00",
      "regEndDtSpecified": true
    }
  ],
  "EmpHss": [
    {
      "fromDt": "06/2004",
      "toDt": "05/2007",
      "orgNm": "BULWARK EXTERMINATING",
      "city": "AUSTIN",
      "state": 45,
      "stateSpecified": true
    },
    {
      "fromDt": "07/2007",
      "toDt": "11/2010",
      "orgNm": "ADVANCED FINANCIAL STRATEGIES",
      "city": "AUSTIN",
      "state": 45,
      "stateSpecified": true
    },
    {
      "fromDt": "04/2008",
      "toDt": null,
      "orgNm": "FORT FINANCIAL GROUP",
      "city": "AUSTIN",
      "state": 45,
      "stateSpecified": true
    },
    {
      "fromDt": "12/2009",
      "toDt": null,
      "orgNm": "AMICORD LLC",
      "city": "AUSTIN",
      "state": 45,
      "stateSpecified": true
    },
    {
      "fromDt": "04/2014",
      "toDt": null,
      "orgNm": "ALPHASTAR CAPITAL MANAGEMENT, LLC",
      "city": "CORNELIUS",
      "state": 28,
      "stateSpecified": true
    }
  ],
  "OthrBuss": {
    "OthrBus": {
      "desc": "AMICORD LLC, A NON-INVESTMENT-RELATED INSURANCE AGENCY. LOCATED: 7701 SAN FELIPE BLVD., SUITE 100 AUSTIN, TEXAS 78729. 06/2009 TO PRESENT. POSITION: PRINCIPAL/AGENT. APPROXIMATELY 100 HOURS PER MONTH."
    }
  },
  "DRPs": [
    {
      "hasRegAction": 1,
      "hasRegActionSpecified": true,
      "hasCriminal": 0,
      "hasCriminalSpecified": true,
      "hasBankrupt": 1,
      "hasBankruptSpecified": true,
      "hasCivilJudc": 1,
      "hasCivilJudcSpecified": true,
      "hasBond": 1,
      "hasBondSpecified": true,
      "hasJudgment": 1,
      "hasJudgmentSpecified": true,
      "hasInvstgn": 1,
      "hasInvstgnSpecified": true,
      "hasCustComp": 1,
      "hasCustCompSpecified": true,
      "hasTermination": 1,
      "hasTerminationSpecified": true
    }
  ]
}