{
  "Info": {
    "lastNm": "CHOPRA",
    "firstNm": "ARUN",
    "midNm": "SACHDEV",
    "sufNm": null,
    "indvlPK": "6016150",
    "actvAGReg": 1,
    "link": "http://www.adviserinfo.sec.gov/IAPD/Individual/6016150"
  },
  "OthrNms": [],
  "CrntEmps": [
    {
      "CrntRgstns": [
        {
          "regAuth": 4,
          "regCat": 0,
          "st": 2,
          "stDt": "2015-05-06T00:00:00"
        }
      ],
      "BrnchOfLocs": [
        {
          "str1": null,
          "str2": null,
          "city": "PALO ALTO",
          "state": 4,
          "stateSpecified": true,
          "cntry": "United States",
          "postlCd": null
        },
        {
          "str1": "5050 EL CAMINO REAL",
          "str2": "SUITE 102",
          "city": "LOS ALTOS",
          "state": 4,
          "stateSpecified": true,
          "cntry": "United States",
          "postlCd": "94022"
        }
      ],
      "orgNm": "PARIVEDA INVESTMENT MANAGEMENT",
      "orgPK": "123471",
      "str1": "5050 EL CAMINO REAL",
      "str2": "SUITE 102",
      "city": "LOS ALTOS",
      "state": 4,
      "stateSpecified": true,
      "cntry": "United States",
      "postlCd": "94022"
    },
    {
      "CrntRgstns": [
        {
          "regAuth": 4,
          "regCat": 0,
          "st": 2,
          "stDt": "2016-01-20T00:00:00"
        }
      ],
      "BrnchOfLocs": [
        {
          "str1": "2130 GREER ROAD",
          "str2": null,
          "city": "PALO ALTO",
          "state": 4,
          "stateSpecified": true,
          "cntry": "United States",
          "postlCd": "94303"
        }
      ],
      "orgNm": "TOP-DOWN TECHNICALS LLC",
      "orgPK": "172762",
      "str1": "2130 GREER ROAD",
      "str2": null,
      "city": "PALO ALTO",
      "state": 4,
      "stateSpecified": true,
      "cntry": "United States",
      "postlCd": "94303"
    }
  ],
  "Exms": [],
  "Dsgntns": [
    {
      "dsgntnNm": "Chartered Financial Analyst"
    }
  ],
  "PrevRgstns": [
    {
      "BrnchOfLocs": [
        {
          "city": "PALO ALTO",
          "state": 4,
          "stateSpecified": true
        }
      ],
      "orgNm": "LEGACY WEALTH ADVISORS, LLC",
      "orgPK": "127758",
      "regBeginDt": "2012-01-10T00:00:00",
      "regBeginDtSpecified": true,
      "regEndDt": "2014-01-08T00:00:00",
      "regEndDtSpecified": true
    },
    {
      "BrnchOfLocs": [
        {
          "city": "PALO ALTO",
          "state": 4,
          "stateSpecified": true
        }
      ],
      "orgNm": "TOP-DOWN TECHNICALS LLC",
      "orgPK": "172762",
      "regBeginDt": "2014-09-30T00:00:00",
      "regBeginDtSpecified": true,
      "regEndDt": "2015-12-31T00:00:00",
      "regEndDtSpecified": true
    }
  ],
  "EmpHss": [
    {
      "fromDt": "05/2006",
      "toDt": "05/2008",
      "orgNm": "MATTSON JACK",
      "city": "FOSTER CITY",
      "state": 4,
      "stateSpecified": true
    },
    {
      "fromDt": "05/2008",
      "toDt": "06/2009",
      "orgNm": "STUDY",
      "city": "SEATTLE",
      "state": 49,
      "stateSpecified": true
    },
    {
      "fromDt": "06/2009",
      "toDt": "10/2011",
      "orgNm": "MENLO COLLEGE",
      "city": "PALO ALTO",
      "state": 4,
      "stateSpecified": true
    },
    {
      "fromDt": "06/2010",
      "toDt": null,
      "orgNm": "SELF EMPLOYED",
      "city": "PALO ALTO",
      "state": 4,
      "stateSpecified": true
    },
    {
      "fromDt": "10/2011",
      "toDt": "01/2014",
      "orgNm": "LEGACY WEALTH ADVISORS, LLC",
      "city": "SAN JOSE",
      "state": 4,
      "stateSpecified": true
    },
    {
      "fromDt": "07/2013",
      "toDt": null,
      "orgNm": "TOP-DOWN TECHNICALS LLC",
      "city": "PALO ALTO",
      "state": 4,
      "stateSpecified": true
    },
    {
      "fromDt": "01/2015",
      "toDt": null,
      "orgNm": "PARIVEDA, INC.",
      "city": "PALO ALTO",
      "state": 4,
      "stateSpecified": true
    }
  ],
  "OthrBuss": {
    "OthrBus": null
  },
  "DRPs": []
}