{
  "Info": {
    "lastNm": "COSME",
    "firstNm": "ANTHONY",
    "midNm": null,
    "sufNm": null,
    "indvlPK": "6019654",
    "actvAGReg": 0,
    "link": "http://www.adviserinfo.sec.gov/IAPD/Individual/6019654"
  },
  "OthrNms": [],
  "CrntEmps": [
    {
      "CrntRgstns": [
        {
          "regAuth": 49,
          "regCat": 0,
          "st": 2,
          "stDt": "2016-07-08T00:00:00"
        }
      ],
      "BrnchOfLocs": [
        {
          "str1": "12360 LAKE CITY WAY NE",
          "str2": "STE 430",
          "city": "SEATTLE",
          "state": 49,
          "stateSpecified": true,
          "cntry": "United States",
          "postlCd": "98125"
        }
      ],
      "orgNm": "PFS INVESTMENTS INC.",
      "orgPK": "10111",
      "str1": "1 PRIMERICA PARKWAY",
      "str2": null,
      "city": "DULUTH",
      "state": 10,
      "stateSpecified": true,
      "cntry": "United States",
      "postlCd": "30099-0001"
    }
  ],
  "Exms": [
    {
      "exmCd": 0,
      "exmNm": "Uniform Securities Agent State Law Examination",
      "exmDt": "2012-04-19T00:00:00",
      "exmDtSpecified": true
    },
    {
      "exmCd": 2,
      "exmNm": "Uniform Investment Adviser Law Examination",
      "exmDt": "2016-06-27T00:00:00",
      "exmDtSpecified": true
    }
  ],
  "Dsgntns": [],
  "PrevRgstns": [],
  "EmpHss": [
    {
      "fromDt": "04/2006",
      "toDt": "10/2006",
      "orgNm": "EXPRESS PERSONNEL SERVICES",
      "city": "LYNNWOOD",
      "state": 49,
      "stateSpecified": true
    },
    {
      "fromDt": "08/2006",
      "toDt": null,
      "orgNm": "US NAVY RESERVES",
      "city": "EVERETT",
      "state": 49,
      "stateSpecified": true
    },
    {
      "fromDt": "09/2006",
      "toDt": "06/2009",
      "orgNm": "SHORELINE COMMUNITY COLLEGE",
      "city": "SHORELINE",
      "state": 49,
      "stateSpecified": true
    },
    {
      "fromDt": "10/2006",
      "toDt": "05/2007",
      "orgNm": "WASHINGTON VOCATIONAL SERVICES",
      "city": "MOUNTLAKE TERRACE",
      "state": 49,
      "stateSpecified": true
    },
    {
      "fromDt": "11/2007",
      "toDt": "01/2008",
      "orgNm": "EXPRESS",
      "city": "LYNNWOOD",
      "state": 49,
      "stateSpecified": true
    },
    {
      "fromDt": "06/2009",
      "toDt": "01/2010",
      "orgNm": "SL START & ASSOCAITES",
      "city": "SEATTLE",
      "state": 49,
      "stateSpecified": true
    },
    {
      "fromDt": "09/2009",
      "toDt": null,
      "orgNm": "PRIMERICA FINANCIAL SERVICES",
      "city": "SEATTLE",
      "state": 49,
      "stateSpecified": true
    },
    {
      "fromDt": "04/2010",
      "toDt": "09/2010",
      "orgNm": "MARYSVILLE POLICE DEPARTMENT",
      "city": "MARYSVILLE",
      "state": 49,
      "stateSpecified": true
    },
    {
      "fromDt": "09/2010",
      "toDt": "01/2011",
      "orgNm": "MAXIM HEALTHCARE SERVICES",
      "city": "ARLINGTON",
      "state": 49,
      "stateSpecified": true
    },
    {
      "fromDt": "10/2011",
      "toDt": null,
      "orgNm": "UNIVERSITY OF WASHINGTON",
      "city": "BOTHELL",
      "state": 49,
      "stateSpecified": true
    },
    {
      "fromDt": "03/2012",
      "toDt": null,
      "orgNm": "PFS INVESTMENTS INC",
      "city": "SEATTLE",
      "state": 49,
      "stateSpecified": true
    },
    {
      "fromDt": "12/2014",
      "toDt": "07/2015",
      "orgNm": "MASSAGE ENVY SPA",
      "city": "EVERETT",
      "state": 49,
      "stateSpecified": true
    }
  ],
  "OthrBuss": {
    "OthrBus": {
      "desc": "SALES OF INVESTMENT-RELATED PRODUCTS; PART-TIME OR FULLTIME FOR COMPANIES AFFILIATED WITH PFS INVESTMENTS, INC.  I MAY ALSO RECEIVE NON-INVESTMENT RELATED COMPENSATION FROM PRIMERICA CLIENT SERVICES, INC. (A CO-LOCATED AFFILIATE OF PFS INVESTMENTS INC.) FOR PART-TIME REFERRALS OF HOME SECURITY AND AUTOMATION PRODUCTS, AS WELL AS OTHER HOME RELATED SERVICES."
    }
  },
  "DRPs": []
}