{
  "Info": {
    "lastNm": "HARRISON",
    "firstNm": "MICHELLE",
    "midNm": "MIDORI",
    "sufNm": null,
    "indvlPK": "6021969",
    "actvAGReg": 0,
    "link": "http://www.adviserinfo.sec.gov/IAPD/Individual/6021969"
  },
  "OthrNms": [],
  "CrntEmps": [
    {
      "CrntRgstns": [
        {
          "regAuth": 4,
          "regCat": 0,
          "st": 2,
          "stDt": "2013-03-19T00:00:00"
        }
      ],
      "BrnchOfLocs": [
        {
          "str1": "5010 WATERIDGE VISTA DR",
          "str2": null,
          "city": "SAN DIEGO",
          "state": 4,
          "stateSpecified": true,
          "cntry": "United States",
          "postlCd": "92121"
        }
      ],
      "orgNm": "TD AMERITRADE, INC.",
      "orgPK": "7870",
      "str1": "200 SOUTH 108TH AVENUE",
      "str2": null,
      "city": "OMAHA",
      "state": 30,
      "stateSpecified": true,
      "cntry": "United States",
      "postlCd": "68154"
    }
  ],
  "Exms": [
    {
      "exmCd": 3,
      "exmNm": "Uniform Combined State Law Examination",
      "exmDt": "2012-03-22T00:00:00",
      "exmDtSpecified": true
    }
  ],
  "Dsgntns": [],
  "PrevRgstns": [
    {
      "BrnchOfLocs": [
        {
          "city": "Del Mar",
          "state": 4,
          "stateSpecified": true
        }
      ],
      "orgNm": "SECURIAN FINANCIAL SERVICES, INC.",
      "orgPK": "15296",
      "regBeginDt": "2012-03-28T00:00:00",
      "regBeginDtSpecified": true,
      "regEndDt": "2013-03-20T00:00:00",
      "regEndDtSpecified": true
    }
  ],
  "EmpHss": [
    {
      "fromDt": "09/2001",
      "toDt": "09/2007",
      "orgNm": "ZAMA AMERICAN HIGH SCHOOL",
      "city": "CAMP ZAMA",
      "stateSpecified": false
    },
    {
      "fromDt": "09/2007",
      "toDt": "12/2011",
      "orgNm": "SAN DIEGO STATE UNIVERSITY",
      "city": "SAN DIEGO",
      "state": 4,
      "stateSpecified": true
    },
    {
      "fromDt": "06/2008",
      "toDt": "05/2009",
      "orgNm": "KURIOS",
      "city": "SAN DIEGO",
      "state": 4,
      "stateSpecified": true
    },
    {
      "fromDt": "09/2009",
      "toDt": "06/2010",
      "orgNm": "SCHOOL AGE SERVICES - DOD",
      "city": "SAGAMIHARA",
      "stateSpecified": false
    },
    {
      "fromDt": "11/2009",
      "toDt": "07/2010",
      "orgNm": "TOYO EIWA UNIVERSITY",
      "city": "YOKOHAMA",
      "stateSpecified": false
    },
    {
      "fromDt": "11/2010",
      "toDt": "10/2011",
      "orgNm": "MACY'S",
      "city": "SAN DIEGO",
      "state": 4,
      "stateSpecified": true
    },
    {
      "fromDt": "02/2012",
      "toDt": "06/2012",
      "orgNm": "DEL MAR FINANCIAL PARTNERS",
      "city": "SAN DIEGO",
      "state": 4,
      "stateSpecified": true
    },
    {
      "fromDt": "02/2012",
      "toDt": "06/2012",
      "orgNm": "MINNESOTA LIFE INS CO",
      "city": "ST PAUL",
      "state": 24,
      "stateSpecified": true
    },
    {
      "fromDt": "02/2012",
      "toDt": "06/2012",
      "orgNm": "SECURIAN FINANCIAL SERVICES, INC",
      "city": "ST PAUL",
      "state": 24,
      "stateSpecified": true
    },
    {
      "fromDt": "07/2012",
      "toDt": "01/2013",
      "orgNm": "DEL MAR FINANCIAL PARTNERS",
      "city": "SAN DIEGO",
      "state": 4,
      "stateSpecified": true
    },
    {
      "fromDt": "07/2012",
      "toDt": "01/2013",
      "orgNm": "SECURIAN FINANCIAL SERVICES, INC",
      "city": "ST PAUL",
      "state": 24,
      "stateSpecified": true
    },
    {
      "fromDt": "02/2013",
      "toDt": null,
      "orgNm": "TD AMERITRADE INSTITUTIONAL",
      "city": "SAN DIEGO",
      "state": 4,
      "stateSpecified": true
    }
  ],
  "OthrBuss": {
    "OthrBus": null
  },
  "DRPs": []
}