{
  "Info": {
    "lastNm": "AUGUST",
    "firstNm": "JUDY",
    "midNm": "H",
    "sufNm": null,
    "indvlPK": "6023505",
    "actvAGReg": 1,
    "link": "http://www.adviserinfo.sec.gov/IAPD/Individual/6023505"
  },
  "OthrNms": [],
  "CrntEmps": [
    {
      "CrntRgstns": [
        {
          "regAuth": 28,
          "regCat": 0,
          "st": 2,
          "stDt": "2012-02-13T00:00:00"
        }
      ],
      "BrnchOfLocs": [
        {
          "str1": "6101 CARNEGIE BOULEVARD",
          "str2": "SUITE 360",
          "city": "CHARLOTTE",
          "state": 28,
          "stateSpecified": true,
          "cntry": "United States",
          "postlCd": "28209"
        }
      ],
      "orgNm": "QUEENS OAK ADVISORS",
      "orgPK": "150605",
      "str1": "6101 CARNEGIE BOULEVARD",
      "str2": "SUITE 360",
      "city": "CHARLOTTE",
      "state": 28,
      "stateSpecified": true,
      "cntry": "United States",
      "postlCd": "28209"
    }
  ],
  "Exms": [
    {
      "exmCd": 2,
      "exmNm": "Uniform Investment Adviser Law Examination",
      "exmDt": "2012-02-10T00:00:00",
      "exmDtSpecified": true
    }
  ],
  "Dsgntns": [],
  "PrevRgstns": [],
  "EmpHss": [
    {
      "fromDt": "07/1994",
      "toDt": "12/2011",
      "orgNm": "SELF",
      "city": "CHARLOTTE",
      "state": 28,
      "stateSpecified": true
    },
    {
      "fromDt": "01/2012",
      "toDt": null,
      "orgNm": "SOLAMERE ADVISORS",
      "city": "CHARLOTTE",
      "state": 28,
      "stateSpecified": true
    }
  ],
  "OthrBuss": {
    "OthrBus": null
  },
  "DRPs": []
}