{
  "Info": {
    "lastNm": "JONES",
    "firstNm": "FRANK",
    "midNm": "ALDO",
    "sufNm": null,
    "indvlPK": "6025895",
    "actvAGReg": 0,
    "link": "http://www.adviserinfo.sec.gov/IAPD/Individual/6025895"
  },
  "OthrNms": [],
  "CrntEmps": [
    {
      "CrntRgstns": [
        {
          "regAuth": 45,
          "regCat": 0,
          "st": 2,
          "stDt": "2014-01-29T00:00:00"
        },
        {
          "regAuth": 13,
          "regCat": 0,
          "st": 2,
          "stDt": "2015-02-10T00:00:00"
        },
        {
          "regAuth": 32,
          "regCat": 0,
          "st": 2,
          "stDt": "2016-02-08T00:00:00"
        },
        {
          "regAuth": 47,
          "regCat": 0,
          "st": 2,
          "stDt": "2016-02-08T00:00:00"
        },
        {
          "regAuth": 9,
          "regCat": 0,
          "st": 2,
          "stDt": "2016-02-10T00:00:00"
        },
        {
          "regAuth": 21,
          "regCat": 0,
          "st": 2,
          "stDt": "2016-02-11T00:00:00"
        },
        {
          "regAuth": 2,
          "regCat": 0,
          "st": 2,
          "stDt": "2016-03-04T00:00:00"
        }
      ],
      "BrnchOfLocs": [
        {
          "str1": "1050 E STATE HWY 114",
          "str2": "SUITE 250",
          "city": "SOUTHLAKE",
          "state": 45,
          "stateSpecified": true,
          "cntry": "United States",
          "postlCd": "76092"
        }
      ],
      "orgNm": "WADDELL & REED",
      "orgPK": "866",
      "str1": "6300 LAMAR AVENUE",
      "str2": null,
      "city": "OVERLAND PARK",
      "state": 17,
      "stateSpecified": true,
      "cntry": "United States",
      "postlCd": "66202-4200"
    }
  ],
  "Exms": [
    {
      "exmCd": 3,
      "exmNm": "Uniform Combined State Law Examination",
      "exmDt": "2013-10-09T00:00:00",
      "exmDtSpecified": true
    }
  ],
  "Dsgntns": [],
  "PrevRgstns": [],
  "EmpHss": [
    {
      "fromDt": "01/2004",
      "toDt": "04/2007",
      "orgNm": "CHEDDAR'S CAFE",
      "city": "ARLINGTON",
      "state": 45,
      "stateSpecified": true
    },
    {
      "fromDt": "08/2006",
      "toDt": "05/2010",
      "orgNm": "ALPINE FIRE DEPARTMENT",
      "city": "ALPINE",
      "state": 45,
      "stateSpecified": true
    },
    {
      "fromDt": "02/2010",
      "toDt": "05/2010",
      "orgNm": "MIKE FORRESTER LAW OFFICE",
      "city": "ALPINE",
      "state": 45,
      "stateSpecified": true
    },
    {
      "fromDt": "05/2010",
      "toDt": "12/2010",
      "orgNm": "UNEMPLOYED",
      "city": "ARLINGTON",
      "state": 45,
      "stateSpecified": true
    },
    {
      "fromDt": "12/2010",
      "toDt": "02/2012",
      "orgNm": "ACADEMY SPORTS AND OUTDOORS",
      "city": "ARLINGTON",
      "state": 45,
      "stateSpecified": true
    },
    {
      "fromDt": "02/2012",
      "toDt": "04/2012",
      "orgNm": "EDWARD JONES",
      "city": "ST LOUIS",
      "state": 25,
      "stateSpecified": true
    },
    {
      "fromDt": "04/2012",
      "toDt": "06/2014",
      "orgNm": "JERRY L JONES LAW OFFICE",
      "city": "ARLINGTON",
      "state": 45,
      "stateSpecified": true
    },
    {
      "fromDt": "08/2012",
      "toDt": "04/2013",
      "orgNm": "WADDELL & REED INC",
      "city": "SOUTHLAKE",
      "state": 45,
      "stateSpecified": true
    },
    {
      "fromDt": "01/2014",
      "toDt": null,
      "orgNm": "WADDELL & REED, INC",
      "city": "SOUTHLAKE",
      "state": 45,
      "stateSpecified": true
    },
    {
      "fromDt": "03/2014",
      "toDt": null,
      "orgNm": "VARIOUS INSURANCE CARRIERS FOR W&R INSURANCE AGENCIES",
      "city": "ARLINGTON",
      "state": 45,
      "stateSpecified": true
    },
    {
      "fromDt": "02/2016",
      "toDt": null,
      "orgNm": "Albert Gonzalez",
      "city": "Southlake",
      "state": 45,
      "stateSpecified": true
    },
    {
      "fromDt": "03/2016",
      "toDt": null,
      "orgNm": "ELK'S LODGE #2114",
      "city": "ARLINGTON",
      "state": 45,
      "stateSpecified": true
    },
    {
      "fromDt": "05/2016",
      "toDt": null,
      "orgNm": "VALETA",
      "city": "IRVING",
      "state": 45,
      "stateSpecified": true
    }
  ],
  "OthrBuss": {
    "OthrBus": {
      "desc": "3/2014-PRESENT, VARIOUS INSURANCE CARRIERS FOR W&R INSURANCE AGENCIES, ARLINGTON, TX, INVEST-RELATED: Y, INSURANCE, INSURANCE AGENT. 03/2016-PRESENT, ELK'S LODGE #2114, ARLINGTON, TX, INV-RELATED: N, 501C, LECTURING KNIGHT, 8 HOURS PER MONTH, 0 HOURS DAILY DURING SECURITIES TRADING. 05/2016-PRESENT, VALETA, IRVING, TX, NOT INVESTMENT RELATED, VALET, I PICK UP AND DROP OFF CARS AT ALL TYPES OF VENUES BUT MOSTLY AT THE DFW AIRPORT, 64 HOURS PER MONTH, 0 HOURS DAILY DURING SECURITIES TRADING."
    }
  },
  "DRPs": []
}