{
  "Info": {
    "lastNm": "Haun",
    "firstNm": "Jeremiah",
    "midNm": "Joseph",
    "sufNm": null,
    "indvlPK": "6025872",
    "actvAGReg": 0,
    "link": "http://www.adviserinfo.sec.gov/IAPD/Individual/6025872"
  },
  "OthrNms": [
    {
      "lastNm": "HAUN",
      "firstNm": "JEREMIAH",
      "midNm": null,
      "sufNm": null
    }
  ],
  "CrntEmps": [
    {
      "CrntRgstns": [
        {
          "regAuth": 50,
          "regCat": 0,
          "st": 2,
          "stDt": "2012-06-11T00:00:00"
        }
      ],
      "BrnchOfLocs": [
        {
          "str1": "1115 N SUPERIOR AVE SUITE 3",
          "str2": null,
          "city": "TOMAH",
          "state": 50,
          "stateSpecified": true,
          "cntry": "United States",
          "postlCd": "54660"
        }
      ],
      "orgNm": "EDWARD JONES",
      "orgPK": "250",
      "str1": "12555 MANCHESTER RD",
      "str2": null,
      "city": "ST. LOUIS",
      "state": 25,
      "stateSpecified": true,
      "cntry": "United States",
      "postlCd": "63131"
    }
  ],
  "Exms": [
    {
      "exmCd": 3,
      "exmNm": "Uniform Combined State Law Examination",
      "exmDt": "2012-04-13T00:00:00",
      "exmDtSpecified": true
    }
  ],
  "Dsgntns": [],
  "PrevRgstns": [],
  "EmpHss": [
    {
      "fromDt": "06/2005",
      "toDt": "09/2006",
      "orgNm": "UNITED STATES AMRY",
      "city": "ONALASKA",
      "state": 50,
      "stateSpecified": true
    },
    {
      "fromDt": "09/2006",
      "toDt": "05/2007",
      "orgNm": "UNIVERSITY OF WISCONSIN LA CROSSE",
      "city": "LA CROSSE",
      "state": 50,
      "stateSpecified": true
    },
    {
      "fromDt": "05/2007",
      "toDt": "09/2007",
      "orgNm": "WESCO HOME FUNISHINGS",
      "city": "SPARTA",
      "state": 50,
      "stateSpecified": true
    },
    {
      "fromDt": "09/2007",
      "toDt": "05/2008",
      "orgNm": "UNIVERSITY OF WISCONSIN LA CROSSE",
      "city": "LA CROSSE",
      "state": 50,
      "stateSpecified": true
    },
    {
      "fromDt": "06/2008",
      "toDt": "09/2008",
      "orgNm": "NORTHLAND CONCRETE",
      "city": "BURNSVILLE",
      "state": 24,
      "stateSpecified": true
    },
    {
      "fromDt": "09/2008",
      "toDt": "05/2009",
      "orgNm": "UNIVERSITY OF WISCONSIN LA CROSSE",
      "city": "LA CROSSE",
      "state": 50,
      "stateSpecified": true
    },
    {
      "fromDt": "05/2009",
      "toDt": "07/2009",
      "orgNm": "UNEMPLOYED",
      "city": "LA CROSSE",
      "state": 50,
      "stateSpecified": true
    },
    {
      "fromDt": "07/2009",
      "toDt": "02/2010",
      "orgNm": "AUSTIN ASSOCIATES",
      "city": "FORT MCCOY",
      "state": 50,
      "stateSpecified": true
    },
    {
      "fromDt": "02/2010",
      "toDt": "10/2011",
      "orgNm": "ASHELY FURNITURE INDUSTIRES",
      "city": "ARDADIA",
      "state": 50,
      "stateSpecified": true
    },
    {
      "fromDt": "10/2011",
      "toDt": "02/2012",
      "orgNm": "CHART ENERGY & CHEMICALS",
      "city": "LA CROSSE",
      "state": 50,
      "stateSpecified": true
    },
    {
      "fromDt": "02/2012",
      "toDt": null,
      "orgNm": "EDWARD JONES",
      "city": "ST LOUIS",
      "state": 25,
      "stateSpecified": true
    }
  ],
  "OthrBuss": {
    "OthrBus": null
  },
  "DRPs": [
    {
      "hasRegAction": 1,
      "hasRegActionSpecified": true,
      "hasCriminal": 1,
      "hasCriminalSpecified": true,
      "hasBankrupt": 1,
      "hasBankruptSpecified": true,
      "hasCivilJudc": 1,
      "hasCivilJudcSpecified": true,
      "hasBond": 1,
      "hasBondSpecified": true,
      "hasJudgment": 1,
      "hasJudgmentSpecified": true,
      "hasInvstgn": 1,
      "hasInvstgnSpecified": true,
      "hasCustComp": 0,
      "hasCustCompSpecified": true,
      "hasTermination": 1,
      "hasTerminationSpecified": true
    }
  ]
}