{
  "Info": {
    "lastNm": "MENDELL",
    "firstNm": "PETER",
    "midNm": "CRAIG",
    "sufNm": null,
    "indvlPK": "6030698",
    "actvAGReg": 1,
    "link": "http://www.adviserinfo.sec.gov/IAPD/Individual/6030698"
  },
  "OthrNms": [],
  "CrntEmps": [
    {
      "CrntRgstns": [
        {
          "regAuth": 38,
          "regCat": 0,
          "st": 2,
          "stDt": "2012-06-26T00:00:00"
        },
        {
          "regAuth": 5,
          "regCat": 0,
          "st": 2,
          "stDt": "2013-04-05T00:00:00"
        },
        {
          "regAuth": 14,
          "regCat": 0,
          "st": 2,
          "stDt": "2013-04-05T00:00:00"
        },
        {
          "regAuth": 49,
          "regCat": 0,
          "st": 2,
          "stDt": "2013-04-05T00:00:00"
        }
      ],
      "BrnchOfLocs": [
        {
          "str1": "501 NORTH CATTLEMEN ROAD",
          "str2": "SUITE 106",
          "city": "SARASOTA",
          "state": 9,
          "stateSpecified": true,
          "cntry": "United States",
          "postlCd": "34232"
        },
        {
          "str1": "775 BONNETT WAY",
          "str2": "SUITE 120",
          "city": "BEND",
          "state": 38,
          "stateSpecified": true,
          "cntry": "United States",
          "postlCd": "97702"
        }
      ],
      "orgNm": "GLOBAL FINANCIAL PRIVATE CAPITAL, LLC",
      "orgPK": "132070",
      "str1": "501 NORTH CATTLEMEN ROAD",
      "str2": "SUITE 106",
      "city": "SARASOTA",
      "state": 9,
      "stateSpecified": true,
      "cntry": "United States",
      "postlCd": "34232"
    },
    {
      "CrntRgstns": [
        {
          "regAuth": 38,
          "regCat": 0,
          "st": 2,
          "stDt": "2015-12-16T00:00:00"
        }
      ],
      "BrnchOfLocs": [
        {
          "str1": "775 SW BONNETT WAY",
          "str2": "SUITE 120",
          "city": "BEND",
          "state": 38,
          "stateSpecified": true,
          "cntry": "United States",
          "postlCd": "97702"
        }
      ],
      "orgNm": "ELEVATION CAPITAL ADVISORY, LLC",
      "orgPK": "171473",
      "str1": "775 SW BONNETT WAY",
      "str2": "SUITE 120",
      "city": "BEND",
      "state": 38,
      "stateSpecified": true,
      "cntry": "United States",
      "postlCd": "97702"
    }
  ],
  "Exms": [
    {
      "exmCd": 2,
      "exmNm": "Uniform Investment Adviser Law Examination",
      "exmDt": "2011-12-06T00:00:00",
      "exmDtSpecified": true
    }
  ],
  "Dsgntns": [],
  "PrevRgstns": [
    {
      "BrnchOfLocs": [
        {
          "city": "MEDFORD",
          "state": 38,
          "stateSpecified": true
        }
      ],
      "orgNm": "M GROUP INVESTMENT ADVISOR, LLC",
      "orgPK": "160128",
      "regBeginDt": "2012-02-15T00:00:00",
      "regBeginDtSpecified": true,
      "regEndDt": "2012-12-11T00:00:00",
      "regEndDtSpecified": true
    },
    {
      "BrnchOfLocs": [
        {
          "city": "BEND",
          "state": 38,
          "stateSpecified": true
        }
      ],
      "orgNm": "BROOKSTONE CAPITAL MANAGEMENT LLC",
      "orgPK": "141413",
      "regBeginDt": "2012-02-21T00:00:00",
      "regBeginDtSpecified": true,
      "regEndDt": "2012-06-25T00:00:00",
      "regEndDtSpecified": true
    }
  ],
  "EmpHss": [
    {
      "fromDt": "06/1998",
      "toDt": "05/2007",
      "orgNm": "ACTION WEST 11 CONTRACTORS",
      "city": "MEDFORD",
      "state": 38,
      "stateSpecified": true
    },
    {
      "fromDt": "05/2007",
      "toDt": "04/2008",
      "orgNm": "PETER C. MENDELL CONSTRUCTION",
      "city": "MEDFORD",
      "state": 38,
      "stateSpecified": true
    },
    {
      "fromDt": "04/2008",
      "toDt": "11/2011",
      "orgNm": "MENDELL BROS. CONSTRUCTION LLC",
      "city": "MEDFORD",
      "state": 38,
      "stateSpecified": true
    },
    {
      "fromDt": "12/2011",
      "toDt": "02/2012",
      "orgNm": "MENDELL FINANCIAL SERVICES",
      "city": "BEND",
      "state": 38,
      "stateSpecified": true
    },
    {
      "fromDt": "02/2012",
      "toDt": null,
      "orgNm": "ELEVATION CAPITAL STRATEGIES",
      "city": "BEND",
      "state": 38,
      "stateSpecified": true
    },
    {
      "fromDt": "02/2012",
      "toDt": "12/2012",
      "orgNm": "M GROUP INVESTMENT ADVISOR, LLC",
      "city": "MEDFORD",
      "state": 38,
      "stateSpecified": true
    },
    {
      "fromDt": "06/2012",
      "toDt": null,
      "orgNm": "GLOBAL FINANCIAL PRIVATE CAPITAL",
      "city": "SARASOTA",
      "state": 9,
      "stateSpecified": true
    },
    {
      "fromDt": "06/2014",
      "toDt": null,
      "orgNm": "Elevation Capital Advisory, LLC",
      "city": "Bend",
      "state": 38,
      "stateSpecified": true
    }
  ],
  "OthrBuss": {
    "OthrBus": {
      "desc": "Peter Craig Mendell is an investment adviser representative with investment advisory firms, Global Financial Private Capital, LLC and Elevation Capital Advisory, LLC. Offering clients advice or products from those activities would involve a conflict of interest, and he does not intend to do so. Elevation Capital Advisory, LLC always acts in the best interest of the client and clients are in no way required to use the services of any representative of Elevation Capital Advisory, LLC in connection with such individual's activities outside of Elevation Capital Advisory, LLC."
    }
  },
  "DRPs": []
}