{
  "Info": {
    "lastNm": "SMOAK",
    "firstNm": "CHRISTOPHER",
    "midNm": "GLEN",
    "sufNm": null,
    "indvlPK": "6030577",
    "actvAGReg": 0,
    "link": "http://www.adviserinfo.sec.gov/IAPD/Individual/6030577"
  },
  "OthrNms": [
    {
      "lastNm": "SMOAK",
      "firstNm": "CHRISTOPHER",
      "midNm": null,
      "sufNm": null
    }
  ],
  "CrntEmps": [
    {
      "CrntRgstns": [
        {
          "regAuth": 9,
          "regCat": 0,
          "st": 2,
          "stDt": "2013-10-18T00:00:00"
        }
      ],
      "BrnchOfLocs": [
        {
          "str1": "3030 NORTH ROCKY POINT DRIVE WEST",
          "str2": "SUITE 460",
          "city": "TAMPA",
          "state": 9,
          "stateSpecified": true,
          "cntry": "United States",
          "postlCd": "33607"
        }
      ],
      "orgNm": "PRUCO SECURITIES, LLC.",
      "orgPK": "5685",
      "str1": "751 BROAD STREET",
      "str2": null,
      "city": "NEWARK",
      "state": 32,
      "stateSpecified": true,
      "cntry": "United States",
      "postlCd": "07102-3777"
    }
  ],
  "Exms": [
    {
      "exmCd": 0,
      "exmNm": "Uniform Securities Agent State Law Examination",
      "exmDt": "2013-02-09T00:00:00",
      "exmDtSpecified": true
    },
    {
      "exmCd": 2,
      "exmNm": "Uniform Investment Adviser Law Examination",
      "exmDt": "2013-10-04T00:00:00",
      "exmDtSpecified": true
    }
  ],
  "Dsgntns": [],
  "PrevRgstns": [],
  "EmpHss": [
    {
      "fromDt": "06/2005",
      "toDt": "05/2012",
      "orgNm": "RXSTAT",
      "city": "ST. PETERSBURG",
      "state": 9,
      "stateSpecified": true
    },
    {
      "fromDt": "02/2012",
      "toDt": null,
      "orgNm": "PRUCO SECURITIES, LLC",
      "city": "TAMPA",
      "state": 9,
      "stateSpecified": true
    },
    {
      "fromDt": "02/2012",
      "toDt": null,
      "orgNm": "THE PRUDENTIAL INSURANCE COMPANY OF AMERICA",
      "city": "TAMPA",
      "state": 9,
      "stateSpecified": true
    }
  ],
  "OthrBuss": {
    "OthrBus": {
      "desc": "BNI REFERRAL NET~1500 16TH ST, PALM HARBOR, FL 34683~REFERRAL GENERATING NETWORK~N~LIFE INS, DISABILTY INS, LONG TERM CARE SEAT~1/30/13~8 HRS/MO~0 TRADING HRS/MO|CHRISTOPHER SMOAK~3590-F MAGNOLIA RIDGE CIR, PALM HARBOR, FL 34684~RENTAL PROPERTY~N~OWNER~03/02/2015~8 HRS/MO~0 TRADING HRS/MO|BLUE CROSS & BLUE SHIELD|BLUE CROSS & BLUE SHIELD OF FLORIDA|COLUMBIAN MUTUAL LIFE INS CO|GOLDEN RULE INS CO|HUMANA HEALTH BENEFIT PLAN LA|JACKSON NAT'L LIFE INS CO|METLIFE INS CO OF CONNECTICUT"
    }
  },
  "DRPs": []
}