{
  "Info": {
    "lastNm": "ROSS",
    "firstNm": "JUSTIN",
    "midNm": "DAVID",
    "sufNm": null,
    "indvlPK": "6033849",
    "actvAGReg": 0,
    "link": "http://www.adviserinfo.sec.gov/IAPD/Individual/6033849"
  },
  "OthrNms": [],
  "CrntEmps": [
    {
      "CrntRgstns": [
        {
          "regAuth": 18,
          "regCat": 0,
          "st": 2,
          "stDt": "2013-10-29T00:00:00"
        }
      ],
      "BrnchOfLocs": [
        {
          "str1": "100 REBEL ROAD",
          "str2": null,
          "city": "NICHOLASVILLE",
          "state": 18,
          "stateSpecified": true,
          "cntry": "United States",
          "postlCd": "40356"
        },
        {
          "str1": "3645 HARRODSBURG ROAD",
          "str2": null,
          "city": "LEXINGTON",
          "state": 18,
          "stateSpecified": true,
          "cntry": "United States",
          "postlCd": "40513"
        }
      ],
      "orgNm": "J.P. MORGAN SECURITIES LLC",
      "orgPK": "79",
      "str1": "277 PARK AVENUE",
      "str2": null,
      "city": "NEW YORK",
      "state": 35,
      "stateSpecified": true,
      "cntry": "United States",
      "postlCd": "10172"
    }
  ],
  "Exms": [
    {
      "exmCd": 0,
      "exmNm": "Uniform Securities Agent State Law Examination",
      "exmDt": "2012-04-13T00:00:00",
      "exmDtSpecified": true
    },
    {
      "exmCd": 3,
      "exmNm": "Uniform Combined State Law Examination",
      "exmDt": "2013-10-25T00:00:00",
      "exmDtSpecified": true
    }
  ],
  "Dsgntns": [],
  "PrevRgstns": [],
  "EmpHss": [
    {
      "fromDt": "05/2000",
      "toDt": "02/2008",
      "orgNm": "LOWE'S",
      "city": "LEXINGTON",
      "state": 18,
      "stateSpecified": true
    },
    {
      "fromDt": "02/2008",
      "toDt": "06/2011",
      "orgNm": "MEIJER",
      "city": "LEXINGTON",
      "state": 18,
      "stateSpecified": true
    },
    {
      "fromDt": "05/2008",
      "toDt": "08/2013",
      "orgNm": "FIFTH THIRD BANK",
      "city": "LEXINGTON",
      "state": 18,
      "stateSpecified": true
    },
    {
      "fromDt": "06/2011",
      "toDt": "09/2011",
      "orgNm": "HOME DEPOT",
      "city": "LEXINGTON",
      "state": 18,
      "stateSpecified": true
    },
    {
      "fromDt": "10/2011",
      "toDt": "01/2012",
      "orgNm": "WEST LIQUOR",
      "city": "LEXINGTON",
      "state": 18,
      "stateSpecified": true
    },
    {
      "fromDt": "01/2012",
      "toDt": "08/2013",
      "orgNm": "FIFTH THIRD SECURITIES",
      "city": "LEXINGTON",
      "state": 18,
      "stateSpecified": true
    },
    {
      "fromDt": "09/2013",
      "toDt": null,
      "orgNm": "J.P. MORGAN SECURITIES LLC",
      "city": "LEXINGTON",
      "state": 18,
      "stateSpecified": true
    },
    {
      "fromDt": "08/2015",
      "toDt": null,
      "orgNm": "ENTERPRISE RENTAL CAR",
      "city": "LEXINGTON",
      "state": 18,
      "stateSpecified": true
    },
    {
      "fromDt": "08/2015",
      "toDt": null,
      "orgNm": "FIVE STAR SENIOR LIVING LAFAYETTE PLACE",
      "city": "LEXINGTON",
      "state": 18,
      "stateSpecified": true
    }
  ],
  "OthrBuss": {
    "OthrBus": {
      "desc": "NAME OF ENTITY: ENTERPRISE RENTAL CAR POSITION: DRIVER  DETAILS:   START DATE 08/22/2015, 40 HOURS PER MONTH DEVOTED TO POSITION, 10 HOURS DURING SECURITIES TRADING, NON INVESTMENT RELATED.       NAME OF ENTITY: FIVE STAR SENIOR LIVING LAFAYETTE PLACE  POSITION: PART TIME FRONT DESK / SECURITY  DETAILS: ASSISTS GUESTS, ANSWER PHONES, MAKE SURE NO UNAUTHORIZE PEOPLES ENTER BUILDING.  START DATE 08/08/2015, 64 HOURS PER MONTH DEVOTED TO POSITION, 0 HOURS DURING SECURITIES TRADING, NON INVESTMENT RELATED."
    }
  },
  "DRPs": [
    {
      "hasRegAction": 1,
      "hasRegActionSpecified": true,
      "hasCriminal": 1,
      "hasCriminalSpecified": true,
      "hasBankrupt": 1,
      "hasBankruptSpecified": true,
      "hasCivilJudc": 1,
      "hasCivilJudcSpecified": true,
      "hasBond": 1,
      "hasBondSpecified": true,
      "hasJudgment": 1,
      "hasJudgmentSpecified": true,
      "hasInvstgn": 1,
      "hasInvstgnSpecified": true,
      "hasCustComp": 0,
      "hasCustCompSpecified": true,
      "hasTermination": 1,
      "hasTerminationSpecified": true
    }
  ]
}