{
  "Info": {
    "lastNm": "GRAY",
    "firstNm": "KEITH",
    "midNm": "ALLAN",
    "sufNm": null,
    "indvlPK": "6036964",
    "actvAGReg": 0,
    "link": "http://www.adviserinfo.sec.gov/IAPD/Individual/6036964"
  },
  "OthrNms": [
    {
      "lastNm": "GRAY",
      "firstNm": "KEITH",
      "midNm": "A",
      "sufNm": null
    }
  ],
  "CrntEmps": [
    {
      "CrntRgstns": [
        {
          "regAuth": 4,
          "regCat": 0,
          "st": 2,
          "stDt": "2014-04-29T00:00:00"
        }
      ],
      "BrnchOfLocs": [
        {
          "str1": "1678 MOORPARK ROAD",
          "str2": null,
          "city": "THOUSAND OAKS",
          "state": 4,
          "stateSpecified": true,
          "cntry": "United States",
          "postlCd": "91360"
        },
        {
          "str1": "2072 AVENIDA DE LOS ARBOLES",
          "str2": null,
          "city": "THOUSAND OAKS",
          "state": 4,
          "stateSpecified": true,
          "cntry": "United States",
          "postlCd": "91362"
        },
        {
          "str1": "2790 TAPO CANYON RD",
          "str2": null,
          "city": "SIMI VALLEY",
          "state": 4,
          "stateSpecified": true,
          "cntry": "United States",
          "postlCd": "93063"
        }
      ],
      "orgNm": "J.P. MORGAN SECURITIES LLC",
      "orgPK": "79",
      "str1": "277 PARK AVENUE",
      "str2": null,
      "city": "NEW YORK",
      "state": 35,
      "stateSpecified": true,
      "cntry": "United States",
      "postlCd": "10172"
    }
  ],
  "Exms": [
    {
      "exmCd": 0,
      "exmNm": "Uniform Securities Agent State Law Examination",
      "exmDt": "2012-04-09T00:00:00",
      "exmDtSpecified": true
    },
    {
      "exmCd": 3,
      "exmNm": "Uniform Combined State Law Examination",
      "exmDt": "2014-04-28T00:00:00",
      "exmDtSpecified": true
    }
  ],
  "Dsgntns": [],
  "PrevRgstns": [],
  "EmpHss": [
    {
      "fromDt": "06/2005",
      "toDt": "04/2011",
      "orgNm": "PROCTOR & GAMBLE CO",
      "city": "WOODLAND HILLS",
      "state": 4,
      "stateSpecified": true
    },
    {
      "fromDt": "09/2005",
      "toDt": "06/2011",
      "orgNm": "HAMBURGER HAMLET",
      "city": "PASADENA",
      "state": 4,
      "stateSpecified": true
    },
    {
      "fromDt": "04/2011",
      "toDt": "10/2011",
      "orgNm": "SMITTY'S GRILL",
      "city": "PASADENA",
      "state": 4,
      "stateSpecified": true
    },
    {
      "fromDt": "07/2011",
      "toDt": null,
      "orgNm": "JP MORGAN CHASE BANK",
      "city": "SOUTH PASADENA",
      "state": 4,
      "stateSpecified": true
    },
    {
      "fromDt": "03/2012",
      "toDt": "10/2012",
      "orgNm": "CHASE INVESTMENT SERVICES CORP",
      "city": "SOUTH PASADENA",
      "state": 4,
      "stateSpecified": true
    },
    {
      "fromDt": "10/2012",
      "toDt": null,
      "orgNm": "J.P. MORGAN SECURITIES LLC",
      "city": "SOUTH PASADENA",
      "state": 4,
      "stateSpecified": true
    }
  ],
  "OthrBuss": {
    "OthrBus": {
      "desc": "NAME OF ENTITY: (SELF) POSITION: OWNER / LANDLORD - RENTAL PROPERTY  DETAILS 497 S PASADENA, CA. CONDO. STARTED 08/01/2014. INDEFINITE TERM. 2 HOURS A WEEK AND 0 HOURS DURING SECURITIES TRADING"
    }
  },
  "DRPs": []
}