{
  "Info": {
    "lastNm": "LUSTGARTEN",
    "firstNm": "CRAIG",
    "midNm": null,
    "sufNm": null,
    "indvlPK": "6039724",
    "actvAGReg": 0,
    "link": "http://www.adviserinfo.sec.gov/IAPD/Individual/6039724"
  },
  "OthrNms": [
    {
      "lastNm": "LUSTGARTEN",
      "firstNm": "CRAIG",
      "midNm": "H",
      "sufNm": null
    }
  ],
  "CrntEmps": [
    {
      "CrntRgstns": [
        {
          "regAuth": 34,
          "regCat": 0,
          "st": 2,
          "stDt": "2012-07-06T00:00:00"
        }
      ],
      "BrnchOfLocs": [
        {
          "str1": "280 PILOT RD",
          "str2": null,
          "city": "LAS VEGAS",
          "state": 34,
          "stateSpecified": true,
          "cntry": "United States",
          "postlCd": "89119-3513"
        }
      ],
      "orgNm": "AMERIPRISE FINANCIAL SERVICES, INC.",
      "orgPK": "6363",
      "str1": "707 2ND AVENUE SOUTH",
      "str2": null,
      "city": "MINNEAPOLIS",
      "state": 24,
      "stateSpecified": true,
      "cntry": "United States",
      "postlCd": "55402"
    }
  ],
  "Exms": [
    {
      "exmCd": 3,
      "exmNm": "Uniform Combined State Law Examination",
      "exmDt": "2012-05-14T00:00:00",
      "exmDtSpecified": true
    }
  ],
  "Dsgntns": [],
  "PrevRgstns": [],
  "EmpHss": [
    {
      "fromDt": "07/1999",
      "toDt": "09/2008",
      "orgNm": "WELLS FARGO BANK",
      "city": "LAS VEGAS",
      "state": 34,
      "stateSpecified": true
    },
    {
      "fromDt": "09/2008",
      "toDt": "06/2009",
      "orgNm": "UNEMPLOYED",
      "city": "LAS VEGAS",
      "state": 34,
      "stateSpecified": true
    },
    {
      "fromDt": "06/2009",
      "toDt": "06/2011",
      "orgNm": "CITIBANK/CITIMORTGAGE",
      "city": "LAS VEGAS",
      "state": 34,
      "stateSpecified": true
    },
    {
      "fromDt": "06/2011",
      "toDt": "03/2012",
      "orgNm": "UNEMPLOYED",
      "city": "LAS VEGAS",
      "state": 34,
      "stateSpecified": true
    },
    {
      "fromDt": "03/2012",
      "toDt": null,
      "orgNm": "AMERIPRISE FINANCIAL SERVICES INC",
      "city": "LAS VEGAS",
      "state": 34,
      "stateSpecified": true
    }
  ],
  "OthrBuss": {
    "OthrBus": null
  },
  "DRPs": [
    {
      "hasRegAction": 1,
      "hasRegActionSpecified": true,
      "hasCriminal": 1,
      "hasCriminalSpecified": true,
      "hasBankrupt": 0,
      "hasBankruptSpecified": true,
      "hasCivilJudc": 1,
      "hasCivilJudcSpecified": true,
      "hasBond": 1,
      "hasBondSpecified": true,
      "hasJudgment": 1,
      "hasJudgmentSpecified": true,
      "hasInvstgn": 1,
      "hasInvstgnSpecified": true,
      "hasCustComp": 1,
      "hasCustCompSpecified": true,
      "hasTermination": 1,
      "hasTerminationSpecified": true
    }
  ]
}