{
  "Info": {
    "lastNm": "TSANG",
    "firstNm": "LOK CHING",
    "midNm": null,
    "sufNm": null,
    "indvlPK": "6055814",
    "actvAGReg": 0,
    "link": "http://www.adviserinfo.sec.gov/IAPD/Individual/6055814"
  },
  "OthrNms": [
    {
      "lastNm": "TSANG",
      "firstNm": "ALAN",
      "midNm": null,
      "sufNm": null
    }
  ],
  "CrntEmps": [
    {
      "CrntRgstns": [
        {
          "regAuth": 32,
          "regCat": 0,
          "st": 2,
          "stDt": "2012-07-30T00:00:00"
        }
      ],
      "BrnchOfLocs": [
        {
          "str1": "605 THIRD AVE.",
          "str2": null,
          "city": "NEW YORK",
          "state": 35,
          "stateSpecified": true,
          "cntry": "United States",
          "postlCd": "10158"
        },
        {
          "str1": "SUITES 2010-2020, 20TH FLOOR, JARDINE HOUSE",
          "str2": "1 CONNAUGHT PLACE, CENTRAL",
          "city": "HONG KONG",
          "stateSpecified": false,
          "cntry": "Hong kong",
          "postlCd": null
        }
      ],
      "orgNm": "NEUBERGER BERMAN LLC",
      "orgPK": "2908",
      "str1": "605 THIRD AVENUE",
      "str2": null,
      "city": "NEW YORK",
      "state": 35,
      "stateSpecified": true,
      "cntry": "United States",
      "postlCd": "10158"
    }
  ],
  "Exms": [
    {
      "exmCd": 0,
      "exmNm": "Uniform Securities Agent State Law Examination",
      "exmDt": "2012-08-31T00:00:00",
      "exmDtSpecified": true
    }
  ],
  "Dsgntns": [
    {
      "dsgntnNm": "Chartered Financial Analyst"
    }
  ],
  "PrevRgstns": [],
  "EmpHss": [
    {
      "fromDt": "05/2004",
      "toDt": "11/2008",
      "orgNm": "BASSO CAPITAL MANAGEMENT",
      "city": "STAMFORD",
      "state": 35,
      "stateSpecified": true
    },
    {
      "fromDt": "12/2008",
      "toDt": "05/2010",
      "orgNm": "UNEMPLOYED",
      "city": "NEW YORK",
      "state": 35,
      "stateSpecified": true
    },
    {
      "fromDt": "05/2010",
      "toDt": "04/2012",
      "orgNm": "GWI INVESTMENT MANAGEMENT",
      "city": "NEW YORK",
      "state": 35,
      "stateSpecified": true
    },
    {
      "fromDt": "04/2012",
      "toDt": null,
      "orgNm": "NEUBERGER BERMAN LLC",
      "city": "HONG KONG",
      "stateSpecified": false
    },
    {
      "fromDt": "04/2013",
      "toDt": null,
      "orgNm": "NEUBERGER BERMAN ASIA LIMITED",
      "city": "HONG KONG",
      "stateSpecified": false
    }
  ],
  "OthrBuss": {
    "OthrBus": null
  },
  "DRPs": []
}