{
  "Info": {
    "lastNm": "SOMERS",
    "firstNm": "ETHAN",
    "midNm": "MACDOUGALL",
    "sufNm": null,
    "indvlPK": "6062409",
    "actvAGReg": 0,
    "link": "http://www.adviserinfo.sec.gov/IAPD/Individual/6062409"
  },
  "OthrNms": [],
  "CrntEmps": [
    {
      "CrntRgstns": [
        {
          "regAuth": 41,
          "regCat": 0,
          "st": 2,
          "stDt": "2015-01-02T00:00:00"
        }
      ],
      "BrnchOfLocs": [
        {
          "str1": "200 CLARENDON ST, 19TH & 25TH FLOORS",
          "str2": null,
          "city": "BOSTON",
          "state": 20,
          "stateSpecified": true,
          "cntry": "United States",
          "postlCd": "02116"
        }
      ],
      "orgNm": "MSI FINANCIAL SERVICES, INC.",
      "orgPK": "14251",
      "str1": "1095 AVENUE OF THE AMERICAS",
      "str2": null,
      "city": "NEW YORK",
      "state": 35,
      "stateSpecified": true,
      "cntry": "United States",
      "postlCd": "10036"
    },
    {
      "CrntRgstns": [
        {
          "regAuth": 20,
          "regCat": 0,
          "st": 2,
          "stDt": "2016-04-05T00:00:00"
        }
      ],
      "BrnchOfLocs": [
        {
          "str1": "200 CLARENDON STREET",
          "str2": "25TH FLOOR",
          "city": "BOSTON",
          "state": 20,
          "stateSpecified": true,
          "cntry": "United States",
          "postlCd": "02116"
        }
      ],
      "orgNm": "BAYSTATE WEALTH MANAGEMENT",
      "orgPK": "151664",
      "str1": "200 CLARENDON STREET",
      "str2": "25TH FLOOR",
      "city": "BOSTON",
      "state": 20,
      "stateSpecified": true,
      "cntry": "United States",
      "postlCd": "02116"
    }
  ],
  "Exms": [
    {
      "exmCd": 3,
      "exmNm": "Uniform Combined State Law Examination",
      "exmDt": "2013-12-20T00:00:00",
      "exmDtSpecified": true
    }
  ],
  "Dsgntns": [],
  "PrevRgstns": [
    {
      "BrnchOfLocs": [
        {
          "city": "BOSTON",
          "state": 20,
          "stateSpecified": true
        }
      ],
      "orgNm": "NEW ENGLAND SECURITIES",
      "orgPK": "615",
      "regBeginDt": "2014-11-12T00:00:00",
      "regBeginDtSpecified": true,
      "regEndDt": "2015-01-02T00:00:00",
      "regEndDtSpecified": true
    }
  ],
  "EmpHss": [
    {
      "fromDt": "09/1994",
      "toDt": "08/2007",
      "orgNm": "MANCHESTER PUBLIC SCHOOLS",
      "city": "MANCHESTER",
      "state": 20,
      "stateSpecified": true
    },
    {
      "fromDt": "09/2007",
      "toDt": "06/2011",
      "orgNm": "DENVER UNIVERSITY",
      "city": "DENVER",
      "state": 5,
      "stateSpecified": true
    },
    {
      "fromDt": "06/2010",
      "toDt": "02/2012",
      "orgNm": "OAKMONT PARTNERS",
      "city": "BOSTON",
      "state": 20,
      "stateSpecified": true
    },
    {
      "fromDt": "03/2012",
      "toDt": null,
      "orgNm": "BAYSTATE FINANCIAL SERVICES",
      "city": "BOSTON",
      "state": 20,
      "stateSpecified": true
    },
    {
      "fromDt": "12/2012",
      "toDt": null,
      "orgNm": "NEW ENGLAND SECURITIES",
      "city": "BOSTON",
      "state": 20,
      "stateSpecified": true
    },
    {
      "fromDt": "01/2015",
      "toDt": null,
      "orgNm": "METLIFE SECURITIES INC.",
      "city": "BOSTON",
      "state": 20,
      "stateSpecified": true
    }
  ],
  "OthrBuss": {
    "OthrBus": {
      "desc": "Analyst - Baystate Wealth Management - from business address - 40 sec hrs per week since 04/2016"
    }
  },
  "DRPs": []
}