{
  "Info": {
    "lastNm": "GARRETT",
    "firstNm": "JACQUELINE",
    "midNm": "RENEE",
    "sufNm": null,
    "indvlPK": "6065507",
    "actvAGReg": 0,
    "link": "http://www.adviserinfo.sec.gov/IAPD/Individual/6065507"
  },
  "OthrNms": [
    {
      "lastNm": "GARRETT-LUPTON",
      "firstNm": "JACQUELINE",
      "midNm": null,
      "sufNm": null
    }
  ],
  "CrntEmps": [
    {
      "CrntRgstns": [
        {
          "regAuth": 4,
          "regCat": 0,
          "st": 2,
          "stDt": "2014-04-28T00:00:00"
        }
      ],
      "BrnchOfLocs": [
        {
          "str1": "2245 LAS POSITAS ROAD",
          "str2": null,
          "city": "LIVERMORE",
          "state": 4,
          "stateSpecified": true,
          "cntry": "United States",
          "postlCd": "94551"
        },
        {
          "str1": "4515 ROSEWOOD DRIVE, SUITE 800",
          "str2": null,
          "city": "PLEASANTON",
          "state": 4,
          "stateSpecified": true,
          "cntry": "United States",
          "postlCd": "94588"
        },
        {
          "str1": "5601 LONE TREE WAY, SUITE 100",
          "str2": null,
          "city": "BRENTWOOD",
          "state": 4,
          "stateSpecified": true,
          "cntry": "United States",
          "postlCd": "94513"
        },
        {
          "str1": "7010 AMADOR PLAZA ROAD",
          "str2": null,
          "city": "DUBLIN",
          "state": 4,
          "stateSpecified": true,
          "cntry": "United States",
          "postlCd": "94568"
        }
      ],
      "orgNm": "CUSO FINANCIAL SERVICES, L.P.",
      "orgPK": "42132",
      "str1": "10150 MEANLEY DRIVE, 1ST FLOOR",
      "str2": null,
      "city": "SAN DIEGO",
      "state": 4,
      "stateSpecified": true,
      "cntry": "United States",
      "postlCd": "92131"
    }
  ],
  "Exms": [
    {
      "exmCd": 3,
      "exmNm": "Uniform Combined State Law Examination",
      "exmDt": "2014-04-24T00:00:00",
      "exmDtSpecified": true
    }
  ],
  "Dsgntns": [],
  "PrevRgstns": [],
  "EmpHss": [
    {
      "fromDt": "06/2006",
      "toDt": "08/2006",
      "orgNm": "UNEMPLOYED",
      "city": "LIVERMORE",
      "state": 4,
      "stateSpecified": true
    },
    {
      "fromDt": "09/2006",
      "toDt": "02/2008",
      "orgNm": "EASTER SEALS BAY AREA",
      "city": "DUBLIN",
      "state": 4,
      "stateSpecified": true
    },
    {
      "fromDt": "02/2008",
      "toDt": "05/2012",
      "orgNm": "PATELCO CREDIT UNION",
      "city": "SAN RAMON",
      "state": 4,
      "stateSpecified": true
    },
    {
      "fromDt": "05/2012",
      "toDt": null,
      "orgNm": "CUSO FINANCIAL SERVICES, LP",
      "city": "SAN DIEGO",
      "state": 4,
      "stateSpecified": true
    },
    {
      "fromDt": "05/2012",
      "toDt": null,
      "orgNm": "PATELCO CREDIT UNION",
      "city": "PLEASANTON",
      "state": 4,
      "stateSpecified": true
    }
  ],
  "OthrBuss": {
    "OthrBus": {
      "desc": "NAME OF THE OTHER BUSINESS: NORWEX SALES CONSULTANT               INVESTMENT-RELATED: NO       ADDRESS OF THE OTHER BUSINESS: 1708 HANSEN RD., LIVERMORE, CA 94550   YOUR POSITION OR TITLE: INDEPENDENT CONSULTANT                NATURE OF THE OTHER BUSINESS: GREEN CLEANING AND PERSONAL CARE PRODUCTS SOLD IN A \"PARTY\" SETTING       START DATE: 06/01/2014  APPROXIMATE NUMBER OF HOURS/MONTH: 10   APPROXIMATE NUMBER OF HOURS DURING TRADING HOURS: 0  BRIEFLY DESCRIBE YOUR DUTIES RELATING TO THE OTHER BUSINESS: SALES, MARKETING AND CUSTOMER SERVICE   COMPENSATION: YES             NAME OF THE OTHER BUSINESS: RODAN AND FIELDS INDEPENDENT SALES CONSULTANT               INVESTMENT-RELATED: NO       ADDRESS OF THE OTHER BUSINESS: 1708 HANSEN RD., LIVERMORE, CA 94550   YOUR POSITION OR TITLE: SALES CONSULTANT                NATURE OF THE OTHER BUSINESS: SKIN CARE PARTY PLANER       START DATE: 04/01/2015  APPROXIMATE NUMBER OF HOURS/MONTH: 30   APPROXIMATE NUMBER OF HOURS DURING TRADING HOURS: 0  BRIEFLY DESCRIBE YOUR DUTIES RELATING TO THE OTHER BUSINESS: SALES AND CUSTOMER SERVICE   COMPENSATION: YES"
    }
  },
  "DRPs": []
}