{
  "Info": {
    "lastNm": "KOBELINSKI",
    "firstNm": "MARK",
    "midNm": "T",
    "sufNm": null,
    "indvlPK": "6069544",
    "actvAGReg": 0,
    "link": "http://www.adviserinfo.sec.gov/IAPD/Individual/6069544"
  },
  "OthrNms": [
    {
      "lastNm": "KOBELINSKI",
      "firstNm": "MARK",
      "midNm": "THOMAS",
      "sufNm": null
    }
  ],
  "CrntEmps": [
    {
      "CrntRgstns": [
        {
          "regAuth": 28,
          "regCat": 0,
          "st": 2,
          "stDt": "2015-07-28T00:00:00"
        }
      ],
      "BrnchOfLocs": [
        {
          "str1": "4141 Parklake Ave",
          "str2": "Ste 510",
          "city": "Raleigh",
          "state": 28,
          "stateSpecified": true,
          "cntry": "United States",
          "postlCd": "27612"
        }
      ],
      "orgNm": "PRINCIPAL SECURITIES, INC.",
      "orgPK": "1137",
      "str1": "655 9TH STREET",
      "str2": null,
      "city": "DES MOINES",
      "state": 13,
      "stateSpecified": true,
      "cntry": "United States",
      "postlCd": "50309"
    }
  ],
  "Exms": [
    {
      "exmCd": 0,
      "exmNm": "Uniform Securities Agent State Law Examination",
      "exmDt": "2013-08-09T00:00:00",
      "exmDtSpecified": true
    },
    {
      "exmCd": 2,
      "exmNm": "Uniform Investment Adviser Law Examination",
      "exmDt": "2015-07-22T00:00:00",
      "exmDtSpecified": true
    }
  ],
  "Dsgntns": [],
  "PrevRgstns": [],
  "EmpHss": [
    {
      "fromDt": "07/2004",
      "toDt": "11/2008",
      "orgNm": "TRI CITY INVESTORS, LLC",
      "city": "RALEIGH",
      "state": 28,
      "stateSpecified": true
    },
    {
      "fromDt": "09/2008",
      "toDt": "10/2010",
      "orgNm": "ACCESS ENERGY, INC",
      "city": "MIAMI",
      "state": 9,
      "stateSpecified": true
    },
    {
      "fromDt": "10/2010",
      "toDt": "08/2011",
      "orgNm": "UNEMPLOYED",
      "city": "RALEIGH",
      "state": 28,
      "stateSpecified": true
    },
    {
      "fromDt": "09/2011",
      "toDt": "05/2012",
      "orgNm": "AFLAC",
      "city": "RALEIGH",
      "state": 28,
      "stateSpecified": true
    },
    {
      "fromDt": "06/2012",
      "toDt": "10/2014",
      "orgNm": "NEW YORK LIFE INSURANCE COMPANY",
      "city": "RALEIGH",
      "state": 28,
      "stateSpecified": true
    },
    {
      "fromDt": "04/2013",
      "toDt": "10/2014",
      "orgNm": "NYLIFE SECURITIES LLC",
      "city": "RALEIGH",
      "state": 28,
      "stateSpecified": true
    },
    {
      "fromDt": "10/2014",
      "toDt": null,
      "orgNm": "PRINCIPAL LIFE INSURANCE COMPANY",
      "city": "RALEIGH",
      "state": 28,
      "stateSpecified": true
    },
    {
      "fromDt": "10/2014",
      "toDt": null,
      "orgNm": "PRINCOR FINANCIAL SERVICES CORPORATION",
      "city": "RALEIGH",
      "state": 28,
      "stateSpecified": true
    }
  ],
  "OthrBuss": {
    "OthrBus": {
      "desc": "***Fixed Insurance, Life, Annuities, LTC, DI, 06/13/16. **M&G Family Investment Partnership, Partner, 6/29/16."
    }
  },
  "DRPs": []
}