{
  "Info": {
    "lastNm": "ELLISON",
    "firstNm": "ADAM",
    "midNm": "C",
    "sufNm": null,
    "indvlPK": "6073346",
    "actvAGReg": 0,
    "link": "http://www.adviserinfo.sec.gov/IAPD/Individual/6073346"
  },
  "OthrNms": [
    {
      "lastNm": "ELLISON",
      "firstNm": "ADAM",
      "midNm": "COOLEY",
      "sufNm": null
    }
  ],
  "CrntEmps": [
    {
      "CrntRgstns": [
        {
          "regAuth": 4,
          "regCat": 0,
          "st": 2,
          "stDt": "2012-09-26T00:00:00"
        }
      ],
      "BrnchOfLocs": [
        {
          "str1": "1435 RIVER PARK DR",
          "str2": null,
          "city": "SACRAMENTO",
          "state": 4,
          "stateSpecified": true,
          "cntry": "United States",
          "postlCd": "95815"
        },
        {
          "str1": "200 PALLADIO PKWY",
          "str2": null,
          "city": "FOLSOM",
          "state": 4,
          "stateSpecified": true,
          "cntry": "United States",
          "postlCd": "95630"
        },
        {
          "str1": "3901 PARK DR",
          "str2": null,
          "city": "EL DORADO HILLS",
          "state": 4,
          "stateSpecified": true,
          "cntry": "United States",
          "postlCd": "95762"
        }
      ],
      "orgNm": "MERRILL LYNCH, PIERCE, FENNER & SMITH INCORPORATED",
      "orgPK": "7691",
      "str1": "ONE BRYANT PARK",
      "str2": null,
      "city": "NEW YORK",
      "state": 35,
      "stateSpecified": true,
      "cntry": "United States",
      "postlCd": "10036"
    }
  ],
  "Exms": [
    {
      "exmCd": 3,
      "exmNm": "Uniform Combined State Law Examination",
      "exmDt": "2012-09-25T00:00:00",
      "exmDtSpecified": true
    }
  ],
  "Dsgntns": [],
  "PrevRgstns": [],
  "EmpHss": [
    {
      "fromDt": "09/2004",
      "toDt": null,
      "orgNm": "MERRILL LYNCH, PIERCE, FENNER & SMITH INCORPORATED",
      "city": "SACRAMENTO",
      "state": 4,
      "stateSpecified": true
    },
    {
      "fromDt": "01/2013",
      "toDt": null,
      "orgNm": "BANK OF AMERICA, N.A.",
      "city": "SACRAMENTO",
      "state": 4,
      "stateSpecified": true
    }
  ],
  "OthrBuss": {
    "OthrBus": {
      "desc": "I*479 FOR PROFIT OR NOT FOR PROFIT:   NAME OF OUTSIDE BUSINESS ORGANIZATION: PLACER COUNTY CENTRAL COMMITTEE  INVESTMENT RELATED: N  ADDRESS OF BUSINESS:   PO BOX 605,   LOOMIS, CALIFORNIA 95650  NATURE OF BUSINESS: ,  POSITION, TITLE, ASSOCIATION: COMMITTEE MEMBER,   START DATE OF RELATIONSHIP: 5/8/2015  NUMBER OF HOURS DEVOTED: 3 HOUR(S) MONTHLY  NUMBER OF HOURS DEVOTED DURING TRADING HOURS: 0  DUTIES: ATTEND MONTHLY MEETINGS AND REPRESENT FELLOW REPUBLICANS FROM PLACER COUNTY TO STATE CONVENTION MEETINGS TWICE/YEAR    I*480  FOR PROFIT OR NOT FOR PROFIT:   NAME OF OUTSIDE BUSINESS ORGANIZATION: CA REPUBLICAN PARTY  INVESTMENT RELATED: N  ADDRESS OF BUSINESS:   1121 L ST,   SACRAMENTO, CALIFORNIA 95814  NATURE OF BUSINESS: ,  POSITION, TITLE, ASSOCIATION: DELEGATE,   START DATE OF RELATIONSHIP: 5/6/2015  NUMBER OF HOURS DEVOTED: 1 HOUR(S) MONTHLY  NUMBER OF HOURS DEVOTED DURING TRADING HOURS: 0  DUTIES: I WILL ATTEND SEMI-ANNUAL CONVENTIONS TO REPRESENT REPUBLICANS FROM PLACER COUNTY.    I*518  FOR PROFIT OR NOT FOR PROFIT:   NAME OF OUTSIDE BUSINESS ORGANIZATION: YOUNG REPUBLICAN NATIONAL FEDERATION  INVESTMENT RELATED: N  ADDRESS OF BUSINESS:   1720 ELMWOOD AVE,   WILMETTE, ILLINOIS 60091  NATURE OF BUSINESS: ,  POSITION, TITLE, ASSOCIATION: VICE CHAIR AT LARGE,   START DATE OF RELATIONSHIP: 8/1/2015  NUMBER OF HOURS DEVOTED: 5 HOUR(S) MONTHLY  NUMBER OF HOURS DEVOTED DURING TRADING HOURS: 0  DUTIES: ATTEND QUARTERLY MEETINGS AND HELP COORDINATE INTERNAL ORGANIZATION POLICY - BRAINSTORM WAYS WE CAN BE HELPFUL AS A GROUP TO OUR MEMBERS. POSITION IS ELECTED BY OUR OWN INTERNAL COMMITTEE AND MEMBERS."
    }
  },
  "DRPs": []
}