{
  "Info": {
    "lastNm": "LABRIE",
    "firstNm": "TRAVIS",
    "midNm": "PIERRE",
    "sufNm": null,
    "indvlPK": "6073757",
    "actvAGReg": 0,
    "link": "http://www.adviserinfo.sec.gov/IAPD/Individual/6073757"
  },
  "OthrNms": [],
  "CrntEmps": [
    {
      "CrntRgstns": [
        {
          "regAuth": 31,
          "regCat": 0,
          "st": 2,
          "stDt": "2013-04-18T00:00:00"
        },
        {
          "regAuth": 45,
          "regCat": 0,
          "st": 2,
          "stDt": "2013-04-18T00:00:00"
        }
      ],
      "BrnchOfLocs": [
        {
          "str1": "TWO CONTRA WAY",
          "str2": null,
          "city": "MERRIMACK",
          "state": 31,
          "stateSpecified": true,
          "cntry": "United States",
          "postlCd": "03054"
        }
      ],
      "orgNm": "STRATEGIC ADVISERS, INC.",
      "orgPK": "104555",
      "str1": "245 SUMMER STREET, V10G",
      "str2": null,
      "city": "BOSTON",
      "state": 20,
      "stateSpecified": true,
      "cntry": "United States",
      "postlCd": "02210"
    }
  ],
  "Exms": [
    {
      "exmCd": 0,
      "exmNm": "Uniform Securities Agent State Law Examination",
      "exmDt": "2012-08-24T00:00:00",
      "exmDtSpecified": true
    },
    {
      "exmCd": 3,
      "exmNm": "Uniform Combined State Law Examination",
      "exmDt": "2013-04-12T00:00:00",
      "exmDtSpecified": true
    }
  ],
  "Dsgntns": [],
  "PrevRgstns": [],
  "EmpHss": [
    {
      "fromDt": "05/2004",
      "toDt": "11/2008",
      "orgNm": "NHTI",
      "city": "CONCORD",
      "state": 31,
      "stateSpecified": true
    },
    {
      "fromDt": "05/2005",
      "toDt": "04/2007",
      "orgNm": "WATTS REGULATOR",
      "city": "NORTH ANDOVER",
      "state": 20,
      "stateSpecified": true
    },
    {
      "fromDt": "05/2007",
      "toDt": "11/2008",
      "orgNm": "NASHUA ATHLETIC CLUB",
      "city": "NASHUA",
      "state": 31,
      "stateSpecified": true
    },
    {
      "fromDt": "01/2009",
      "toDt": "12/2010",
      "orgNm": "FLORIDA ATLANTIC UNIVERSITY",
      "city": "BOCA RATON",
      "state": 9,
      "stateSpecified": true
    },
    {
      "fromDt": "12/2009",
      "toDt": "03/2010",
      "orgNm": "BLUE WATER TERRACE",
      "city": "CHRISTIANSTED",
      "state": 53,
      "stateSpecified": true
    },
    {
      "fromDt": "12/2009",
      "toDt": "12/2010",
      "orgNm": "PALM BEACH GYM",
      "city": "DELRAY BEACH",
      "state": 9,
      "stateSpecified": true
    },
    {
      "fromDt": "10/2010",
      "toDt": "04/2011",
      "orgNm": "EPAYMENT AMERICA",
      "city": "NASHUA",
      "state": 31,
      "stateSpecified": true
    },
    {
      "fromDt": "05/2011",
      "toDt": null,
      "orgNm": "FIDELITY INVESTMENTS",
      "city": "MERRIMACK",
      "state": 31,
      "stateSpecified": true
    }
  ],
  "OthrBuss": {
    "OthrBus": null
  },
  "DRPs": []
}