{
  "Info": {
    "lastNm": "WHEELER",
    "firstNm": "EMILY",
    "midNm": "CHRISTINE",
    "sufNm": null,
    "indvlPK": "6076282",
    "actvAGReg": 0,
    "link": "http://www.adviserinfo.sec.gov/IAPD/Individual/6076282"
  },
  "OthrNms": [],
  "CrntEmps": [
    {
      "CrntRgstns": [
        {
          "regAuth": 32,
          "regCat": 0,
          "st": 2,
          "stDt": "2015-02-24T00:00:00"
        },
        {
          "regAuth": 45,
          "regCat": 0,
          "st": 2,
          "stDt": "2015-02-24T00:00:00"
        }
      ],
      "BrnchOfLocs": [
        {
          "str1": "1100-1800 AMERICAN BLVD",
          "str2": "MERRILL EDGE ADVISORY CENTER",
          "city": "PENNINGTON",
          "state": 32,
          "stateSpecified": true,
          "cntry": "United States",
          "postlCd": "08534"
        }
      ],
      "orgNm": "MERRILL LYNCH, PIERCE, FENNER & SMITH INCORPORATED",
      "orgPK": "7691",
      "str1": "ONE BRYANT PARK",
      "str2": null,
      "city": "NEW YORK",
      "state": 35,
      "stateSpecified": true,
      "cntry": "United States",
      "postlCd": "10036"
    }
  ],
  "Exms": [
    {
      "exmCd": 3,
      "exmNm": "Uniform Combined State Law Examination",
      "exmDt": "2015-02-20T00:00:00",
      "exmDtSpecified": true
    }
  ],
  "Dsgntns": [],
  "PrevRgstns": [],
  "EmpHss": [
    {
      "fromDt": "08/2004",
      "toDt": "05/2008",
      "orgNm": "SOUTH LAKE HIGH SCHOOL",
      "city": "GROVELAND",
      "state": 9,
      "stateSpecified": true
    },
    {
      "fromDt": "08/2007",
      "toDt": "12/2008",
      "orgNm": "STEAK AND SHAKE",
      "city": "CLERMONT",
      "state": 9,
      "stateSpecified": true
    },
    {
      "fromDt": "08/2008",
      "toDt": "05/2011",
      "orgNm": "BUCKS COUNTY COMMUNITY COLLEGE",
      "city": "NEWTOWN",
      "state": 39,
      "stateSpecified": true
    },
    {
      "fromDt": "08/2008",
      "toDt": "01/2009",
      "orgNm": "VICTORIA'S SECRET",
      "city": "LANGHORNE",
      "state": 39,
      "stateSpecified": true
    },
    {
      "fromDt": "03/2009",
      "toDt": "05/2009",
      "orgNm": "AMERICAN EAGLE OUTFITTERS CO.",
      "city": "LANGHORNE",
      "state": 39,
      "stateSpecified": true
    },
    {
      "fromDt": "08/2010",
      "toDt": "08/2011",
      "orgNm": "RED ROBIN",
      "city": "LANGHORNE",
      "state": 39,
      "stateSpecified": true
    },
    {
      "fromDt": "08/2011",
      "toDt": "05/2014",
      "orgNm": "TEMPLE UNIVERSITY",
      "city": "PHILADELPHIA",
      "state": 39,
      "stateSpecified": true
    },
    {
      "fromDt": "05/2012",
      "toDt": "01/2013",
      "orgNm": "KRUM INSURANCE & FINANCIAL SERVICES",
      "city": "FEASTERVILLE",
      "state": 39,
      "stateSpecified": true
    },
    {
      "fromDt": "05/2014",
      "toDt": "12/2014",
      "orgNm": "UNEMPLOYED",
      "city": "HULMEVILLE",
      "state": 39,
      "stateSpecified": true
    },
    {
      "fromDt": "12/2014",
      "toDt": null,
      "orgNm": "MERRILL LYNCH, PIERCE, FENNER & SMITH INCORPORATED",
      "city": "PENNINGTON",
      "state": 32,
      "stateSpecified": true
    },
    {
      "fromDt": "02/2015",
      "toDt": null,
      "orgNm": "BANK OF AMERICA, N.A.",
      "city": "PENNINGTON",
      "state": 32,
      "stateSpecified": true
    }
  ],
  "OthrBuss": {
    "OthrBus": null
  },
  "DRPs": []
}