{
  "Info": {
    "lastNm": "MOTLEY",
    "firstNm": "JOHN",
    "midNm": "ROBERT",
    "sufNm": null,
    "indvlPK": "6078927",
    "actvAGReg": 0,
    "link": "http://www.adviserinfo.sec.gov/IAPD/Individual/6078927"
  },
  "OthrNms": [],
  "CrntEmps": [
    {
      "CrntRgstns": [
        {
          "regAuth": 45,
          "regCat": 0,
          "st": 2,
          "stDt": "2016-03-07T00:00:00"
        },
        {
          "regAuth": 9,
          "regCat": 0,
          "st": 2,
          "stDt": "2016-03-16T00:00:00"
        }
      ],
      "BrnchOfLocs": [
        {
          "str1": null,
          "str2": null,
          "city": "New Port Richey,",
          "state": 9,
          "stateSpecified": true,
          "cntry": "United States",
          "postlCd": null
        },
        {
          "str1": "4301 ANCHOR PLAZA PARKWAY",
          "str2": "SUITE # 450",
          "city": "TAMPA",
          "state": 9,
          "stateSpecified": true,
          "cntry": "United States",
          "postlCd": "33634"
        }
      ],
      "orgNm": "J. W. COLE ADVISORS, INC.",
      "orgPK": "112294",
      "str1": "4301 ANCHOR PLAZA PARKWAY",
      "str2": "SUITE # 450",
      "city": "TAMPA",
      "state": 9,
      "stateSpecified": true,
      "cntry": "United States",
      "postlCd": "33634"
    }
  ],
  "Exms": [
    {
      "exmCd": 2,
      "exmNm": "Uniform Investment Adviser Law Examination",
      "exmDt": "2012-08-09T00:00:00",
      "exmDtSpecified": true
    },
    {
      "exmCd": 3,
      "exmNm": "Uniform Combined State Law Examination",
      "exmDt": "2015-08-10T00:00:00",
      "exmDtSpecified": true
    }
  ],
  "Dsgntns": [],
  "PrevRgstns": [
    {
      "BrnchOfLocs": [
        {
          "city": "TAMPA",
          "state": 9,
          "stateSpecified": true
        }
      ],
      "orgNm": "FIRST COMMAND FINANCIAL PLANNING, INC.",
      "orgPK": "3641",
      "regBeginDt": "2012-08-13T00:00:00",
      "regBeginDtSpecified": true,
      "regEndDt": "2012-10-30T00:00:00",
      "regEndDtSpecified": true
    },
    {
      "BrnchOfLocs": [
        {
          "city": "CARMEL",
          "state": 16,
          "stateSpecified": true
        },
        {
          "city": "NEW PORT RICHEY",
          "state": 9,
          "stateSpecified": true
        },
        {
          "city": "NEW PORT RICHEY",
          "state": 9,
          "stateSpecified": true
        }
      ],
      "orgNm": "TRANSAMERICA FINANCIAL ADVISORS, INC",
      "orgPK": "16164",
      "regBeginDt": "2015-08-12T00:00:00",
      "regBeginDtSpecified": true,
      "regEndDt": "2016-03-05T00:00:00",
      "regEndDtSpecified": true
    }
  ],
  "EmpHss": [
    {
      "fromDt": "12/1983",
      "toDt": "06/2011",
      "orgNm": "U.S. ARMY (ACTIVE & RESERVE)",
      "city": "TAMPA",
      "state": 9,
      "stateSpecified": true
    },
    {
      "fromDt": "11/2003",
      "toDt": null,
      "orgNm": "TAVERN PRODUCTS, INC.",
      "city": "NEW PORT RICHEY",
      "state": 9,
      "stateSpecified": true
    },
    {
      "fromDt": "09/2009",
      "toDt": null,
      "orgNm": "2WIN PROMOTIONS, LLC",
      "city": "NEW PORT RICHEY",
      "state": 9,
      "stateSpecified": true
    },
    {
      "fromDt": "06/2011",
      "toDt": "10/2011",
      "orgNm": "BLACKBIRD TECHNOLOGIES, INC.",
      "city": "HERNDON",
      "state": 47,
      "stateSpecified": true
    },
    {
      "fromDt": "05/2013",
      "toDt": "03/2014",
      "orgNm": "TECHMIS, LLC",
      "city": "DADE CITY",
      "state": 9,
      "stateSpecified": true
    },
    {
      "fromDt": "05/2015",
      "toDt": "03/2016",
      "orgNm": "TRANSAMERICA FINANCIAL ADVISORS, INC",
      "city": "NEW PORT RICHEY",
      "state": 9,
      "stateSpecified": true
    },
    {
      "fromDt": "08/2015",
      "toDt": "10/2015",
      "orgNm": "FULL CIRCLE FINANCIAL LLC",
      "city": "NEW PORT RICHEY",
      "state": 9,
      "stateSpecified": true
    },
    {
      "fromDt": "11/2015",
      "toDt": null,
      "orgNm": "DBA BRIDGESPAN",
      "city": "NEW PORT RICHEY",
      "state": 9,
      "stateSpecified": true
    },
    {
      "fromDt": "11/2015",
      "toDt": null,
      "orgNm": "FIXED INSURANCE SALES",
      "city": "NEW PORT RICHEY",
      "state": 9,
      "stateSpecified": true
    },
    {
      "fromDt": "12/2015",
      "toDt": null,
      "orgNm": "MOTLEY FINANCIAL, LLC",
      "city": "NEW PORT RICHEY",
      "state": 9,
      "stateSpecified": true
    },
    {
      "fromDt": "03/2016",
      "toDt": null,
      "orgNm": "J.W. Cole Advisors, Inc.",
      "city": "Tampa",
      "state": 9,
      "stateSpecified": true
    },
    {
      "fromDt": "03/2016",
      "toDt": null,
      "orgNm": "J.W. Cole Financial, Inc.",
      "city": "Tampa",
      "state": 9,
      "stateSpecified": true
    }
  ],
  "OthrBuss": {
    "OthrBus": {
      "desc": "1)A)TAVERN PRODUCTS, INC.B)INVESTMENT RELATED - NO C) ADDRESS: 10749 MIRACLE LANE, NEW PORT RICHEY, FL 34654 D) COCKTAIL MIX MANUFACTURER E) PRESIDENT/OWNER F) START DATE: 11.2003 G) STRATEGIC COMMUNICATION W/VENDORS H) OFFICER/DIRECTOR: YES I) 20 HRS PER MONTH J) 0 DURING TRADING K) CLIENTS INVOLVED: NO   2) A) 2WIN PROMOTIONS,LLC B)INVESTMENT RELATED - NO C) 10749 MIRACLE LANE, NEW PORT RICHEY, FL 34654 D) PROVIDE CUSTOM PROMOTIONAL PRODUCTS E)OWNER/PRESIDENT  F)START DATE: 09/2009 G)OFFICER/DIRECTOR: YES H) 10 HRS PER MONTH I) 0 DURING TRADING J) STRATEGIC COMMUNICATION W/VENDORS - PROMOTIONAL PRODUCTS K)CLIENTS INVOLVED: NO    3)A)FIXED INSURANCE SALES B) YES:INV RELATED C) ADDRESS: 10749 MIRACLE LANE, NEW PORT RICHEY, FL 34654 D) FIXED INSURANCE SALSES E) TITLE/POSITION: PRESIDENT/OWNER F) START DATE: 11/2015 G)156 HRS/MO H) 156 HRS DURING TRADING I)SALES J) OFFICER/DIRECTOR: YES K) CLIENTS INVOLVED: YES.    4)A) ROBERT & MORYNNE MOTLEY/MOTLEY FAMILY TRUST B) EXECUTOR AND SUCCESSOR TRUSTEE FOR IMMEDIATE FAMILY MEMBERS C)10749 MIRACLE LANE, NEW PORT RICHEY, FL 34654 D) TITLE/POSITION : EXECUTOR & SUCCESSOR TRUSTEE FOR FAMILY MEMBERS E) 2 HRS PER MON F) 0 DURING TRADING G) OFFICER/DIRECTOR: NO H) CLIENTS INVOLVED: NO"
    }
  },
  "DRPs": []
}