{
  "Info": {
    "lastNm": "DORNER",
    "firstNm": "NATHAN",
    "midNm": "LEE",
    "sufNm": null,
    "indvlPK": "6079078",
    "actvAGReg": 0,
    "link": "http://www.adviserinfo.sec.gov/IAPD/Individual/6079078"
  },
  "OthrNms": [],
  "CrntEmps": [
    {
      "CrntRgstns": [
        {
          "regAuth": 36,
          "regCat": 0,
          "st": 2,
          "stDt": "2012-08-13T00:00:00"
        }
      ],
      "BrnchOfLocs": [
        {
          "str1": "20445 EMERALD PARKWAY",
          "str2": null,
          "city": "CLEVELAND",
          "state": 36,
          "stateSpecified": true,
          "cntry": "United States",
          "postlCd": "44135"
        }
      ],
      "orgNm": "THRIVENT INVESTMENT MANAGEMENT INC.",
      "orgPK": "18387",
      "str1": "625 FOURTH AVENUE SOUTH",
      "str2": null,
      "city": "MINNEAPOLIS",
      "state": 24,
      "stateSpecified": true,
      "cntry": "United States",
      "postlCd": "55415-1665"
    }
  ],
  "Exms": [
    {
      "exmCd": 3,
      "exmNm": "Uniform Combined State Law Examination",
      "exmDt": "2012-08-10T00:00:00",
      "exmDtSpecified": true
    }
  ],
  "Dsgntns": [],
  "PrevRgstns": [],
  "EmpHss": [
    {
      "fromDt": "07/2001",
      "toDt": "08/2006",
      "orgNm": "FOOTLOCKER",
      "city": "NORTH OLMSTED",
      "state": 36,
      "stateSpecified": true
    },
    {
      "fromDt": "06/2006",
      "toDt": "08/2007",
      "orgNm": "BEST BUY",
      "city": "PARMA",
      "state": 36,
      "stateSpecified": true
    },
    {
      "fromDt": "08/2007",
      "toDt": "05/2008",
      "orgNm": "THE CONCORDIA UNIVERSITY FALCON'S NEST",
      "city": "MEQUON",
      "state": 50,
      "stateSpecified": true
    },
    {
      "fromDt": "05/2008",
      "toDt": "02/2009",
      "orgNm": "QUIZNOS",
      "city": "GRAFTON",
      "state": 50,
      "stateSpecified": true
    },
    {
      "fromDt": "02/2009",
      "toDt": "07/2009",
      "orgNm": "PIZZA HUT",
      "city": "PORT WASHINGTON",
      "state": 50,
      "stateSpecified": true
    },
    {
      "fromDt": "07/2009",
      "toDt": "07/2012",
      "orgNm": "LUTHERAN HIGH SCHOOL EAST",
      "city": "CLEVELAND HEIGHTS",
      "state": 36,
      "stateSpecified": true
    },
    {
      "fromDt": "07/2012",
      "toDt": null,
      "orgNm": "THRIVENT INVESTMENT MANAGEMENT INC",
      "city": "CLEVELAND",
      "state": 36,
      "stateSpecified": true
    },
    {
      "fromDt": "08/2012",
      "toDt": "10/2012",
      "orgNm": "THRIVENT FINANCIAL FOR LUTHERANS",
      "city": "APPLETON",
      "state": 50,
      "stateSpecified": true
    },
    {
      "fromDt": "10/2012",
      "toDt": null,
      "orgNm": "THRIVENT FINANCIAL FOR LUTHERANS",
      "city": "APPLETON",
      "state": 50,
      "stateSpecified": true
    }
  ],
  "OthrBuss": {
    "OthrBus": {
      "desc": "CROSSROADS LUTHERAN CHURCH POSITION: PREACHER/LEADER NATURE: THIS IS A CHURCH PLANT FOR THE LUTHERAN CHURCH MISSOURI SYNOD. INVESTMENT RELATED: NO NUMBER OF HOURS: 20 SECURITIES TRADING HOURS: 0 START DATE: 01/18/2015  ADDRESS: 16311 BROOKPARK RD, BROOK PARK OH 44142  DESCRIPTION: I WILL BE LEADING BIBLE STUDIES, PREACHING 1-2 TIMES PER MONTH, AND ORGANIZING/LEADING VARIOUS CHURCH EVENTS TO DO SERVICE WORK TO THE COMMUNITY."
    }
  },
  "DRPs": []
}