{
  "Info": {
    "lastNm": "HOMAR LOPEZ",
    "firstNm": "ROBERTO",
    "midNm": "A",
    "sufNm": null,
    "indvlPK": "6087528",
    "actvAGReg": 0,
    "link": "http://www.adviserinfo.sec.gov/IAPD/Individual/6087528"
  },
  "OthrNms": [
    {
      "lastNm": "HOMAR",
      "firstNm": "ROBERTO",
      "midNm": "A",
      "sufNm": null
    }
  ],
  "CrntEmps": [
    {
      "CrntRgstns": [
        {
          "regAuth": 40,
          "regCat": 0,
          "st": 2,
          "stDt": "2015-12-19T00:00:00"
        }
      ],
      "BrnchOfLocs": [
        {
          "str1": "209 MUNOZ RIVERA AVENUE",
          "str2": "POPULAR CENTER 12TH FLOOR",
          "city": "SAN JUAN",
          "state": 40,
          "stateSpecified": true,
          "cntry": "United States",
          "postlCd": "00918"
        }
      ],
      "orgNm": "POPULAR SECURITIES, LLC",
      "orgPK": "8096",
      "str1": "POPULAR CENTER, 209 PONCE DE LEON",
      "str2": "SUITE 1200",
      "city": "HATO REY",
      "state": 40,
      "stateSpecified": true,
      "cntry": "United States",
      "postlCd": "00918"
    }
  ],
  "Exms": [
    {
      "exmCd": 2,
      "exmNm": "Uniform Investment Adviser Law Examination",
      "exmDt": "2015-12-19T00:00:00",
      "exmDtSpecified": true
    }
  ],
  "Dsgntns": [],
  "PrevRgstns": [],
  "EmpHss": [
    {
      "fromDt": "10/2004",
      "toDt": "05/2010",
      "orgNm": "ST. JOHN SCHOOL",
      "city": "SAN JUAN",
      "state": 40,
      "stateSpecified": true
    },
    {
      "fromDt": "08/2010",
      "toDt": "05/2015",
      "orgNm": "LOYOLA UNIVERSITY",
      "city": "NEW ORLEANS",
      "state": 19,
      "stateSpecified": true
    },
    {
      "fromDt": "05/2012",
      "toDt": "08/2012",
      "orgNm": "UBS",
      "city": "SAN JUAN",
      "state": 40,
      "stateSpecified": true
    },
    {
      "fromDt": "05/2013",
      "toDt": "08/2013",
      "orgNm": "UBS",
      "city": "NEW YORK",
      "state": 35,
      "stateSpecified": true
    },
    {
      "fromDt": "05/2014",
      "toDt": "08/2014",
      "orgNm": "SPORT TRAINER INDEX.COM",
      "city": "NEW ORLEANS",
      "state": 19,
      "stateSpecified": true
    },
    {
      "fromDt": "08/2014",
      "toDt": "05/2015",
      "orgNm": "Banco Popular de Puerto Rico",
      "city": "SAN JUAN",
      "state": 40,
      "stateSpecified": true
    },
    {
      "fromDt": "06/2015",
      "toDt": null,
      "orgNm": "POPULAR SECURITIES, LLC",
      "city": "SAN JUAN",
      "state": 40,
      "stateSpecified": true
    }
  ],
  "OthrBuss": {
    "OthrBus": {
      "desc": "HOMAR REAL ESTATE - REAL ESTATE INVESTMENT - REAL ESTATE BROKER - FAMILY BUSINESS - 4 HRS PER WEEK / 0 HRS DURING SECURITIES TRADING HOURS - NON-INVESTMENT RELATED."
    }
  },
  "DRPs": []
}