{
  "Info": {
    "lastNm": "MAPLES",
    "firstNm": "WILLIAM",
    "midNm": "G",
    "sufNm": "III",
    "indvlPK": "6089529",
    "actvAGReg": 0,
    "link": "http://www.adviserinfo.sec.gov/IAPD/Individual/6089529"
  },
  "OthrNms": [
    {
      "lastNm": "MAPLES",
      "firstNm": "WILLIAM",
      "midNm": "GREY",
      "sufNm": null
    }
  ],
  "CrntEmps": [
    {
      "CrntRgstns": [
        {
          "regAuth": 10,
          "regCat": 0,
          "st": 2,
          "stDt": "2012-09-24T00:00:00"
        }
      ],
      "BrnchOfLocs": [
        {
          "str1": "3165 PEACHTREE PKWY",
          "str2": null,
          "city": "SUWANEE",
          "state": 10,
          "stateSpecified": true,
          "cntry": "United States",
          "postlCd": "30024"
        }
      ],
      "orgNm": "MERRILL LYNCH, PIERCE, FENNER & SMITH INCORPORATED",
      "orgPK": "7691",
      "str1": "ONE BRYANT PARK",
      "str2": null,
      "city": "NEW YORK",
      "state": 35,
      "stateSpecified": true,
      "cntry": "United States",
      "postlCd": "10036"
    }
  ],
  "Exms": [
    {
      "exmCd": 3,
      "exmNm": "Uniform Combined State Law Examination",
      "exmDt": "2012-09-20T00:00:00",
      "exmDtSpecified": true
    }
  ],
  "Dsgntns": [],
  "PrevRgstns": [],
  "EmpHss": [
    {
      "fromDt": "01/2006",
      "toDt": "09/2006",
      "orgNm": "LOGAN'S ROADHOUSE",
      "city": "SMYRNA",
      "state": 44,
      "stateSpecified": true
    },
    {
      "fromDt": "09/2006",
      "toDt": "03/2007",
      "orgNm": "ARISTABRAT",
      "city": "CUMMING",
      "state": 10,
      "stateSpecified": true
    },
    {
      "fromDt": "03/2007",
      "toDt": "06/2012",
      "orgNm": "ATLANTIC SEAFOOD COMPANY",
      "city": "ALPHARETTA",
      "state": 10,
      "stateSpecified": true
    },
    {
      "fromDt": "06/2012",
      "toDt": null,
      "orgNm": "MERRILL LYNCH, PIERCE, FENNER & SMITH INCORPORATED",
      "city": "ALPHARETTA",
      "state": 10,
      "stateSpecified": true
    },
    {
      "fromDt": "11/2012",
      "toDt": null,
      "orgNm": "BANK OF AMERICA, N.A.",
      "city": "ALPHARETTA",
      "state": 10,
      "stateSpecified": true
    }
  ],
  "OthrBuss": {
    "OthrBus": null
  },
  "DRPs": []
}