{
  "Info": {
    "lastNm": "WHALEY",
    "firstNm": "BRANDON",
    "midNm": null,
    "sufNm": null,
    "indvlPK": "6091906",
    "actvAGReg": 0,
    "link": "http://www.adviserinfo.sec.gov/IAPD/Individual/6091906"
  },
  "OthrNms": [
    {
      "lastNm": "WHALEY",
      "firstNm": "BRANDON",
      "midNm": "T",
      "sufNm": null
    }
  ],
  "CrntEmps": [
    {
      "CrntRgstns": [
        {
          "regAuth": 25,
          "regCat": 0,
          "st": 2,
          "stDt": "2014-10-08T00:00:00"
        }
      ],
      "BrnchOfLocs": [
        {
          "str1": "10230 WATSON RD",
          "str2": null,
          "city": "SAINT LOUIS",
          "state": 25,
          "stateSpecified": true,
          "cntry": "United States",
          "postlCd": "63127"
        }
      ],
      "orgNm": "MERRILL LYNCH, PIERCE, FENNER & SMITH INCORPORATED",
      "orgPK": "7691",
      "str1": "ONE BRYANT PARK",
      "str2": null,
      "city": "NEW YORK",
      "state": 35,
      "stateSpecified": true,
      "cntry": "United States",
      "postlCd": "10036"
    }
  ],
  "Exms": [
    {
      "exmCd": 3,
      "exmNm": "Uniform Combined State Law Examination",
      "exmDt": "2012-09-29T00:00:00",
      "exmDtSpecified": true
    }
  ],
  "Dsgntns": [],
  "PrevRgstns": [
    {
      "BrnchOfLocs": [
        {
          "city": "MANCHESTER",
          "state": 25,
          "stateSpecified": true
        },
        {
          "city": "ST LOUIS",
          "state": 25,
          "stateSpecified": true
        },
        {
          "city": "ST LOUIS",
          "state": 25,
          "stateSpecified": true
        }
      ],
      "orgNm": "EDWARD JONES",
      "orgPK": "250",
      "regBeginDt": "2012-10-02T00:00:00",
      "regBeginDtSpecified": true,
      "regEndDt": "2014-02-07T00:00:00",
      "regEndDtSpecified": true
    },
    {
      "BrnchOfLocs": [
        {
          "city": "CLAYTON",
          "state": 25,
          "stateSpecified": true
        },
        {
          "city": "FARMINGTON",
          "state": 25,
          "stateSpecified": true
        }
      ],
      "orgNm": "FIRST BROKERAGE AMERICA, L.L.C.",
      "orgPK": "43431",
      "regBeginDt": "2014-03-17T00:00:00",
      "regBeginDtSpecified": true,
      "regEndDt": "2014-09-30T00:00:00",
      "regEndDtSpecified": true
    }
  ],
  "EmpHss": [
    {
      "fromDt": "05/2006",
      "toDt": "01/2008",
      "orgNm": "SOUTHEAST MISSOURI STATE BOOKSTORE",
      "city": "CAPE GIRARDEAU",
      "state": 25,
      "stateSpecified": true
    },
    {
      "fromDt": "06/2006",
      "toDt": "06/2007",
      "orgNm": "WALGREENS",
      "city": "CAPE GIRARDEAU",
      "state": 25,
      "stateSpecified": true
    },
    {
      "fromDt": "06/2007",
      "toDt": "01/2008",
      "orgNm": "WALMART",
      "city": "CAPE GIRARDEAU",
      "state": 25,
      "stateSpecified": true
    },
    {
      "fromDt": "01/2008",
      "toDt": "08/2010",
      "orgNm": "WALGREENS",
      "city": "ST. LOUIS",
      "state": 25,
      "stateSpecified": true
    },
    {
      "fromDt": "08/2010",
      "toDt": "07/2012",
      "orgNm": "MIDWEST BANKCENTRE",
      "city": "ST. LOUIS",
      "state": 25,
      "stateSpecified": true
    },
    {
      "fromDt": "07/2012",
      "toDt": "02/2014",
      "orgNm": "EDWARD JONES",
      "city": "ST. LOUIS",
      "state": 25,
      "stateSpecified": true
    },
    {
      "fromDt": "03/2014",
      "toDt": "09/2014",
      "orgNm": "FIRST BROKERAGE AMERICA, LLC",
      "city": "ST. LOUIS",
      "state": 25,
      "stateSpecified": true
    },
    {
      "fromDt": "10/2014",
      "toDt": null,
      "orgNm": "BANK OF AMERICA, N.A.",
      "city": "ST. LOUIS",
      "state": 25,
      "stateSpecified": true
    },
    {
      "fromDt": "10/2014",
      "toDt": null,
      "orgNm": "MERRILL LYNCH, PIERCE, FENNER & SMITH INCORPORATED",
      "city": "ST. LOUIS",
      "state": 25,
      "stateSpecified": true
    }
  ],
  "OthrBuss": {
    "OthrBus": null
  },
  "DRPs": [
    {
      "hasRegAction": 1,
      "hasRegActionSpecified": true,
      "hasCriminal": 1,
      "hasCriminalSpecified": true,
      "hasBankrupt": 1,
      "hasBankruptSpecified": true,
      "hasCivilJudc": 1,
      "hasCivilJudcSpecified": true,
      "hasBond": 1,
      "hasBondSpecified": true,
      "hasJudgment": 1,
      "hasJudgmentSpecified": true,
      "hasInvstgn": 1,
      "hasInvstgnSpecified": true,
      "hasCustComp": 0,
      "hasCustCompSpecified": true,
      "hasTermination": 1,
      "hasTerminationSpecified": true
    }
  ]
}