{
  "Info": {
    "lastNm": "Tilley",
    "firstNm": "Ryan",
    "midNm": "Wayne",
    "sufNm": null,
    "indvlPK": "6100518",
    "actvAGReg": 0,
    "link": "http://www.adviserinfo.sec.gov/IAPD/Individual/6100518"
  },
  "OthrNms": [
    {
      "lastNm": "TILLEY",
      "firstNm": "RYAN",
      "midNm": "WAYNE",
      "sufNm": null
    }
  ],
  "CrntEmps": [
    {
      "CrntRgstns": [
        {
          "regAuth": 28,
          "regCat": 0,
          "st": 2,
          "stDt": "2012-10-02T00:00:00"
        }
      ],
      "BrnchOfLocs": [
        {
          "str1": "1030 S MAIN SUITE K",
          "str2": null,
          "city": "KERNERSVILLE",
          "state": 28,
          "stateSpecified": true,
          "cntry": "United States",
          "postlCd": "27284"
        }
      ],
      "orgNm": "EDWARD JONES",
      "orgPK": "250",
      "str1": "12555 MANCHESTER RD",
      "str2": null,
      "city": "ST. LOUIS",
      "state": 25,
      "stateSpecified": true,
      "cntry": "United States",
      "postlCd": "63131"
    }
  ],
  "Exms": [
    {
      "exmCd": 3,
      "exmNm": "Uniform Combined State Law Examination",
      "exmDt": "2012-09-28T00:00:00",
      "exmDtSpecified": true
    }
  ],
  "Dsgntns": [],
  "PrevRgstns": [],
  "EmpHss": [
    {
      "fromDt": "07/2005",
      "toDt": "08/2007",
      "orgNm": "J.R.S ARCHERY",
      "city": "EDEN",
      "state": 29,
      "stateSpecified": true
    },
    {
      "fromDt": "09/2007",
      "toDt": "10/2007",
      "orgNm": "UNEMPLOYED",
      "city": "STONEVILLE",
      "state": 28,
      "stateSpecified": true
    },
    {
      "fromDt": "10/2007",
      "toDt": "05/2012",
      "orgNm": "U.S. NAVY",
      "city": "CLEVELAND",
      "state": 36,
      "stateSpecified": true
    },
    {
      "fromDt": "06/2012",
      "toDt": "08/2012",
      "orgNm": "UNEMPLOYED",
      "city": "STONEVILLE",
      "state": 28,
      "stateSpecified": true
    },
    {
      "fromDt": "08/2012",
      "toDt": null,
      "orgNm": "EDWARD JONES",
      "city": "ST LOUIS",
      "state": 25,
      "stateSpecified": true
    }
  ],
  "OthrBuss": {
    "OthrBus": null
  },
  "DRPs": [
    {
      "hasRegAction": 1,
      "hasRegActionSpecified": true,
      "hasCriminal": 1,
      "hasCriminalSpecified": true,
      "hasBankrupt": 1,
      "hasBankruptSpecified": true,
      "hasCivilJudc": 1,
      "hasCivilJudcSpecified": true,
      "hasBond": 1,
      "hasBondSpecified": true,
      "hasJudgment": 1,
      "hasJudgmentSpecified": true,
      "hasInvstgn": 1,
      "hasInvstgnSpecified": true,
      "hasCustComp": 0,
      "hasCustCompSpecified": true,
      "hasTermination": 1,
      "hasTerminationSpecified": true
    }
  ]
}