{
  "Info": {
    "lastNm": "HAYES",
    "firstNm": "MARY",
    "midNm": "CATHERINE",
    "sufNm": null,
    "indvlPK": "6101397",
    "actvAGReg": 0,
    "link": "http://www.adviserinfo.sec.gov/IAPD/Individual/6101397"
  },
  "OthrNms": [
    {
      "lastNm": "ROTHER",
      "firstNm": "MARY",
      "midNm": "CATHERINE",
      "sufNm": null
    }
  ],
  "CrntEmps": [
    {
      "CrntRgstns": [
        {
          "regAuth": 9,
          "regCat": 0,
          "st": 2,
          "stDt": "2014-07-30T00:00:00"
        }
      ],
      "BrnchOfLocs": [
        {
          "str1": "2138 ALTERNATE 19",
          "str2": "SUITE D",
          "city": "PALM HARBOR",
          "state": 9,
          "stateSpecified": true,
          "cntry": "United States",
          "postlCd": "34683"
        }
      ],
      "orgNm": "RAYMOND JAMES FINANCIAL SERVICES ADVISORS, INC",
      "orgPK": "149018",
      "str1": "880 CARILLON PARKWAY",
      "str2": null,
      "city": "SAINT PETERSBURG",
      "state": 9,
      "stateSpecified": true,
      "cntry": "United States",
      "postlCd": "33716"
    }
  ],
  "Exms": [
    {
      "exmCd": 3,
      "exmNm": "Uniform Combined State Law Examination",
      "exmDt": "2014-07-09T00:00:00",
      "exmDtSpecified": true
    }
  ],
  "Dsgntns": [],
  "PrevRgstns": [],
  "EmpHss": [
    {
      "fromDt": "08/1982",
      "toDt": "11/2013",
      "orgNm": "HAMMOND, SHINNERS",
      "city": "ST. LOUIS",
      "state": 25,
      "stateSpecified": true
    },
    {
      "fromDt": "03/1991",
      "toDt": "07/2012",
      "orgNm": "SELF EMPLOYED",
      "city": "ST. LOUIS",
      "state": 25,
      "stateSpecified": true
    },
    {
      "fromDt": "02/2004",
      "toDt": "08/2013",
      "orgNm": "SELF EMPLOYED",
      "city": "ST. LOUIS",
      "state": 25,
      "stateSpecified": true
    },
    {
      "fromDt": "07/2012",
      "toDt": "11/2013",
      "orgNm": "RAYMOND JAMES FINANCIAL SERVICES, INC.",
      "city": "PALM HARBOR",
      "state": 9,
      "stateSpecified": true
    },
    {
      "fromDt": "11/2013",
      "toDt": "02/2014",
      "orgNm": "RAYMOND JAMES FINANCIAL SERVICES, INC.",
      "city": "PALM HARBOR",
      "state": 9,
      "stateSpecified": true
    },
    {
      "fromDt": "02/2014",
      "toDt": null,
      "orgNm": "RAYMOND JAMES FINANCIAL SERVICES, INC.",
      "city": "PALM HARBOR",
      "state": 9,
      "stateSpecified": true
    },
    {
      "fromDt": "04/2014",
      "toDt": null,
      "orgNm": "VANLEEUWEN & ASSOCIATES LLC",
      "city": "PALM HARBOR",
      "state": 9,
      "stateSpecified": true
    },
    {
      "fromDt": "07/2014",
      "toDt": null,
      "orgNm": "RAYMOND JAMES FINANCIAL SERVICES ADVISORS INC.",
      "city": "PALM HARBOR",
      "state": 9,
      "stateSpecified": true
    },
    {
      "fromDt": "05/2015",
      "toDt": null,
      "orgNm": "SELF",
      "city": "PALM HARBOR",
      "state": 9,
      "stateSpecified": true
    }
  ],
  "OthrBuss": {
    "OthrBus": {
      "desc": "2. VANLEEUWEN & ASSOCAITES LLC - PALM HARBOR, FL - 04/2014 TO PRESENT - SUPPORT COMPANY/DBA (NON-OWNER) - EMPLOYEE - REGISTERED SALES ASSISTANT - 160 HOURS PER MONTH - 160 HOURS DURING TRADING HOURS - NOT INVESTMENT RELATED    SELF; PALM HARBOR, FL; ORGANIZING BUSINESS/PROFESSIONAL ORGANIZER; OTHER (PAID); NON INVESTMENT RELATED; START 05/2015; 10 HOURS PER MONTH, O HOURS DURING TRADING."
    }
  },
  "DRPs": []
}