{
  "Info": {
    "lastNm": "GRIMSLEY",
    "firstNm": "JOSEPH",
    "midNm": "BRANDON",
    "sufNm": null,
    "indvlPK": "6104585",
    "actvAGReg": 0,
    "link": "http://www.adviserinfo.sec.gov/IAPD/Individual/6104585"
  },
  "OthrNms": [],
  "CrntEmps": [
    {
      "CrntRgstns": [
        {
          "regAuth": 10,
          "regCat": 0,
          "st": 2,
          "stDt": "2013-09-03T00:00:00"
        },
        {
          "regAuth": 28,
          "regCat": 0,
          "st": 2,
          "stDt": "2015-01-02T00:00:00"
        }
      ],
      "BrnchOfLocs": [
        {
          "str1": "1640 EAST MAIN ST",
          "str2": null,
          "city": "SYLVA",
          "state": 28,
          "stateSpecified": true,
          "cntry": "United States",
          "postlCd": "28779"
        },
        {
          "str1": "165 NORTH MAIN ST",
          "str2": null,
          "city": "WAYNESVILLE",
          "state": 28,
          "stateSpecified": true,
          "cntry": "United States",
          "postlCd": "28786"
        },
        {
          "str1": "20 FRANK ALLEN ROAD",
          "str2": null,
          "city": "CASHIERS",
          "state": 28,
          "stateSpecified": true,
          "cntry": "United States",
          "postlCd": "28717"
        },
        {
          "str1": "257 EAST MAIN ST",
          "str2": null,
          "city": "FRANKLIN",
          "state": 28,
          "stateSpecified": true,
          "cntry": "United States",
          "postlCd": "28744"
        }
      ],
      "orgNm": "INVEST FINANCIAL CORPORATION",
      "orgPK": "12984",
      "str1": "12750 CITRUS PARK LANE",
      "str2": "SUITE 300",
      "city": "TAMPA",
      "state": 9,
      "stateSpecified": true,
      "cntry": "United States",
      "postlCd": "33625"
    }
  ],
  "Exms": [
    {
      "exmCd": 3,
      "exmNm": "Uniform Combined State Law Examination",
      "exmDt": "2013-08-30T00:00:00",
      "exmDtSpecified": true
    }
  ],
  "Dsgntns": [],
  "PrevRgstns": [],
  "EmpHss": [
    {
      "fromDt": "01/2002",
      "toDt": null,
      "orgNm": "UNITED COMMUNITY BANK",
      "city": "BLAIRSVILLE",
      "state": 10,
      "stateSpecified": true
    },
    {
      "fromDt": "09/2013",
      "toDt": null,
      "orgNm": "INVEST FINANCIAL CORP.",
      "city": "FRANKLIN",
      "state": 28,
      "stateSpecified": true
    }
  ],
  "OthrBuss": {
    "OthrBus": null
  },
  "DRPs": []
}