{
  "Info": {
    "lastNm": "Gross",
    "firstNm": "Bryan",
    "midNm": "Matthew",
    "sufNm": null,
    "indvlPK": "6105889",
    "actvAGReg": 0,
    "link": "http://www.adviserinfo.sec.gov/IAPD/Individual/6105889"
  },
  "OthrNms": [],
  "CrntEmps": [
    {
      "CrntRgstns": [
        {
          "regAuth": 19,
          "regCat": 0,
          "st": 2,
          "stDt": "2012-12-10T00:00:00"
        }
      ],
      "BrnchOfLocs": [
        {
          "str1": "2700 METAIRIE RD SUITE B2",
          "str2": null,
          "city": "METAIRIE",
          "state": 19,
          "stateSpecified": true,
          "cntry": "United States",
          "postlCd": "70001"
        }
      ],
      "orgNm": "EDWARD JONES",
      "orgPK": "250",
      "str1": "12555 MANCHESTER RD",
      "str2": null,
      "city": "ST. LOUIS",
      "state": 25,
      "stateSpecified": true,
      "cntry": "United States",
      "postlCd": "63131"
    }
  ],
  "Exms": [
    {
      "exmCd": 3,
      "exmNm": "Uniform Combined State Law Examination",
      "exmDt": "2012-10-12T00:00:00",
      "exmDtSpecified": true
    }
  ],
  "Dsgntns": [],
  "PrevRgstns": [],
  "EmpHss": [
    {
      "fromDt": "06/2002",
      "toDt": "05/2008",
      "orgNm": "P.F. CHANG'S CHINA BISTRO",
      "city": "METAIRIE, BATON ROUGE",
      "state": 19,
      "stateSpecified": true
    },
    {
      "fromDt": "01/2008",
      "toDt": "08/2012",
      "orgNm": "CHAMPAGNE PALACE",
      "city": "HARAHAN",
      "state": 19,
      "stateSpecified": true
    },
    {
      "fromDt": "10/2008",
      "toDt": "06/2010",
      "orgNm": "PRIMERICA FINANCIAL SERVICES",
      "city": "METAIRIE",
      "state": 19,
      "stateSpecified": true
    },
    {
      "fromDt": "08/2012",
      "toDt": null,
      "orgNm": "EDWARD JONES",
      "city": "ST LOUIS",
      "state": 25,
      "stateSpecified": true
    }
  ],
  "OthrBuss": {
    "OthrBus": null
  },
  "DRPs": []
}