{
  "Info": {
    "lastNm": "RICHTER",
    "firstNm": "ETHAN",
    "midNm": null,
    "sufNm": null,
    "indvlPK": "6110404",
    "actvAGReg": 0,
    "link": "http://www.adviserinfo.sec.gov/IAPD/Individual/6110404"
  },
  "OthrNms": [],
  "CrntEmps": [
    {
      "CrntRgstns": [
        {
          "regAuth": 15,
          "regCat": 0,
          "st": 2,
          "stDt": "2015-11-09T00:00:00"
        }
      ],
      "BrnchOfLocs": [
        {
          "str1": "120 E. LIBERTY DRIVE",
          "str2": "SUITE 400",
          "city": "WHEATON",
          "state": 15,
          "stateSpecified": true,
          "cntry": "United States",
          "postlCd": "60187"
        }
      ],
      "orgNm": "FIRST TRUST ADVISORS LP",
      "orgPK": "107027",
      "str1": "120 E. LIBERTY DRIVE",
      "str2": "SUITE 400",
      "city": "WHEATON",
      "state": 15,
      "stateSpecified": true,
      "cntry": "United States",
      "postlCd": "60187"
    }
  ],
  "Exms": [
    {
      "exmCd": 0,
      "exmNm": "Uniform Securities Agent State Law Examination",
      "exmDt": "2014-01-24T00:00:00",
      "exmDtSpecified": true
    },
    {
      "exmCd": 3,
      "exmNm": "Uniform Combined State Law Examination",
      "exmDt": "2015-03-09T00:00:00",
      "exmDtSpecified": true
    }
  ],
  "Dsgntns": [],
  "PrevRgstns": [],
  "EmpHss": [
    {
      "fromDt": "08/2004",
      "toDt": "06/2008",
      "orgNm": "LIBERTYVILLE HIGH SCHOOL",
      "city": "LIBERTYVILLE",
      "state": 15,
      "stateSpecified": true
    },
    {
      "fromDt": "08/2008",
      "toDt": "05/2012",
      "orgNm": "INDIANA UNIVERSITY",
      "city": "BLOOMINGTON",
      "state": 16,
      "stateSpecified": true
    },
    {
      "fromDt": "05/2009",
      "toDt": "08/2010",
      "orgNm": "LAKE COUNTY FOREST PRESERVE",
      "city": "LIBERTYVILLE",
      "state": 15,
      "stateSpecified": true
    },
    {
      "fromDt": "05/2011",
      "toDt": "08/2011",
      "orgNm": "AMERICAN HOTEL REGISTER COMPANY",
      "city": "VERNON HILLS",
      "state": 15,
      "stateSpecified": true
    },
    {
      "fromDt": "05/2012",
      "toDt": "08/2012",
      "orgNm": "U.S. SECURITIES & EXCHANGE COMMISSION",
      "city": "WASHINGTON",
      "state": 7,
      "stateSpecified": true
    },
    {
      "fromDt": "08/2012",
      "toDt": null,
      "orgNm": "FIRST TRUST PORTFOLIOS L.P.",
      "city": "WHEATON",
      "state": 15,
      "stateSpecified": true
    },
    {
      "fromDt": "04/2014",
      "toDt": null,
      "orgNm": "FIRST TRUST ADVISORS L.P.",
      "city": "WHEATON",
      "state": 15,
      "stateSpecified": true
    }
  ],
  "OthrBuss": {
    "OthrBus": null
  },
  "DRPs": []
}