{
  "Info": {
    "lastNm": "RING",
    "firstNm": "HEATHER",
    "midNm": "CHRISTINE",
    "sufNm": null,
    "indvlPK": "6112588",
    "actvAGReg": 0,
    "link": "http://www.adviserinfo.sec.gov/IAPD/Individual/6112588"
  },
  "OthrNms": [
    {
      "lastNm": "OSGOOD",
      "firstNm": "HEATHER",
      "midNm": "CHRISTINE",
      "sufNm": null
    },
    {
      "lastNm": "RING",
      "firstNm": "HEATHER",
      "midNm": "CATHERINE",
      "sufNm": null
    }
  ],
  "CrntEmps": [
    {
      "CrntRgstns": [
        {
          "regAuth": 4,
          "regCat": 0,
          "st": 2,
          "stDt": "2013-04-11T00:00:00"
        }
      ],
      "BrnchOfLocs": [
        {
          "str1": "701 B STREET",
          "str2": "SUITE 1500",
          "city": "SAN DIEGO",
          "state": 4,
          "stateSpecified": true,
          "cntry": "United States",
          "postlCd": "92101"
        }
      ],
      "orgNm": "AXA ADVISORS, LLC",
      "orgPK": "6627",
      "str1": "1290 AVENUE OF THE AMERICAS",
      "str2": null,
      "city": "NEW YORK",
      "state": 35,
      "stateSpecified": true,
      "cntry": "United States",
      "postlCd": "10104"
    }
  ],
  "Exms": [
    {
      "exmCd": 3,
      "exmNm": "Uniform Combined State Law Examination",
      "exmDt": "2012-10-29T00:00:00",
      "exmDtSpecified": true
    }
  ],
  "Dsgntns": [],
  "PrevRgstns": [],
  "EmpHss": [
    {
      "fromDt": "08/2005",
      "toDt": "12/2008",
      "orgNm": "UNIVERSITY OF COLORADO AT BOULDER",
      "city": "BOULDER",
      "state": 5,
      "stateSpecified": true
    },
    {
      "fromDt": "08/2006",
      "toDt": "12/2006",
      "orgNm": "UNIVERSITY OF COLORADO AT BOULDER",
      "city": "BOULDER",
      "state": 5,
      "stateSpecified": true
    },
    {
      "fromDt": "09/2007",
      "toDt": "05/2008",
      "orgNm": "UNIVERSITY OF COLORADO AT BOULDER",
      "city": "BOULDER",
      "state": 5,
      "stateSpecified": true
    },
    {
      "fromDt": "12/2008",
      "toDt": "01/2009",
      "orgNm": "UNEMPLOYED",
      "city": "LAFAYETTE",
      "state": 5,
      "stateSpecified": true
    },
    {
      "fromDt": "01/2009",
      "toDt": "05/2009",
      "orgNm": "UNIVERSITY OF COLORADO AT BOULDER",
      "city": "BOULDER",
      "state": 5,
      "stateSpecified": true
    },
    {
      "fromDt": "05/2009",
      "toDt": "08/2009",
      "orgNm": "UNEMPLOYED",
      "city": "LAFAYETTE",
      "state": 5,
      "stateSpecified": true
    },
    {
      "fromDt": "08/2009",
      "toDt": "10/2009",
      "orgNm": "BOULDER VALLEY SCHOOL DISTRICT",
      "city": "BOULDER",
      "state": 5,
      "stateSpecified": true
    },
    {
      "fromDt": "10/2009",
      "toDt": "05/2010",
      "orgNm": "ANGEVINE MIDDLE SCHOOL",
      "city": "LAFAYETTE",
      "state": 5,
      "stateSpecified": true
    },
    {
      "fromDt": "04/2010",
      "toDt": "06/2010",
      "orgNm": "REGIS UNIVERSITY",
      "city": "DENVER",
      "state": 5,
      "stateSpecified": true
    },
    {
      "fromDt": "06/2010",
      "toDt": "08/2011",
      "orgNm": "20/20 TAX RESOLUTION, INC.",
      "city": "BROOMFIELD",
      "state": 5,
      "stateSpecified": true
    },
    {
      "fromDt": "09/2011",
      "toDt": "10/2011",
      "orgNm": "UNEMPLOYED",
      "city": "SAN DIEGO",
      "state": 4,
      "stateSpecified": true
    },
    {
      "fromDt": "10/2011",
      "toDt": "10/2012",
      "orgNm": "H&R BLOCK",
      "city": "SAN DIEGO",
      "state": 4,
      "stateSpecified": true
    },
    {
      "fromDt": "10/2011",
      "toDt": "10/2012",
      "orgNm": "MACY'S",
      "city": "ESCONDIDO",
      "state": 4,
      "stateSpecified": true
    },
    {
      "fromDt": "10/2012",
      "toDt": null,
      "orgNm": "AXA ADVISORS, LLC",
      "city": "NEW YORK",
      "state": 35,
      "stateSpecified": true
    }
  ],
  "OthrBuss": {
    "OthrBus": null
  },
  "DRPs": []
}