{
  "Info": {
    "lastNm": "WINSLOW",
    "firstNm": "RAYMOND",
    "midNm": "MICHAEL",
    "sufNm": null,
    "indvlPK": "6116747",
    "actvAGReg": 1,
    "link": "http://www.adviserinfo.sec.gov/IAPD/Individual/6116747"
  },
  "OthrNms": [
    {
      "lastNm": "WINSLOW",
      "firstNm": "RAY",
      "midNm": null,
      "sufNm": null
    }
  ],
  "CrntEmps": [
    {
      "CrntRgstns": [
        {
          "regAuth": 39,
          "regCat": 0,
          "st": 2,
          "stDt": "2012-09-19T00:00:00"
        }
      ],
      "BrnchOfLocs": [
        {
          "str1": "115 FIREHOUSE CARTWAY",
          "str2": "PO BOX 60",
          "city": "CHICORA",
          "state": 39,
          "stateSpecified": true,
          "cntry": "United States",
          "postlCd": "16025"
        },
        {
          "str1": "1745 S. NAPERVILLE ROAD",
          "str2": "SUITE 200",
          "city": "WHEATON",
          "state": 15,
          "stateSpecified": true,
          "cntry": "United States",
          "postlCd": "60189"
        }
      ],
      "orgNm": "BROOKSTONE CAPITAL MANAGEMENT LLC",
      "orgPK": "141413",
      "str1": "1745 S. NAPERVILLE ROAD",
      "str2": "SUITE 200",
      "city": "WHEATON",
      "state": 15,
      "stateSpecified": true,
      "cntry": "United States",
      "postlCd": "60189"
    }
  ],
  "Exms": [
    {
      "exmCd": 2,
      "exmNm": "Uniform Investment Adviser Law Examination",
      "exmDt": "2012-09-18T00:00:00",
      "exmDtSpecified": true
    }
  ],
  "Dsgntns": [],
  "PrevRgstns": [],
  "EmpHss": [
    {
      "fromDt": "09/2000",
      "toDt": "11/2009",
      "orgNm": "TECHNOTAPE USA",
      "city": "CRETE",
      "state": 15,
      "stateSpecified": true
    },
    {
      "fromDt": "11/2009",
      "toDt": "10/2010",
      "orgNm": "UNEMPLOYED",
      "city": "CHICORA",
      "state": 39,
      "stateSpecified": true
    },
    {
      "fromDt": "10/2010",
      "toDt": "05/2013",
      "orgNm": "GAMBLE FINANCIAL SERVICES",
      "city": "CHICORA",
      "state": 39,
      "stateSpecified": true
    },
    {
      "fromDt": "05/2013",
      "toDt": null,
      "orgNm": "STAR FINANCIAL SERVICES GROUP LLC",
      "city": "CHICORA",
      "state": 39,
      "stateSpecified": true
    }
  ],
  "OthrBuss": {
    "OthrBus": {
      "desc": "STAR FINANCIAL SERVICES, INCOME TAX PREPARATION 4-6 HOURS PER DAY JANUARY - APRIL, ACCOUNTING - OCCASIONAL BOOKKEEPING AND PAYROLL 3-5 HOURS PER MONTH"
    }
  },
  "DRPs": []
}