{
  "Info": {
    "lastNm": "BEAUDRY",
    "firstNm": "JOSEPH",
    "midNm": "PAUL SERGE",
    "sufNm": null,
    "indvlPK": "6117525",
    "actvAGReg": 1,
    "link": "http://www.adviserinfo.sec.gov/IAPD/Individual/6117525"
  },
  "OthrNms": [],
  "CrntEmps": [
    {
      "CrntRgstns": [
        {
          "regAuth": 3,
          "regCat": 0,
          "st": 2,
          "stDt": "2012-10-19T00:00:00"
        }
      ],
      "BrnchOfLocs": [
        {
          "str1": "1100-250 HOWE STREET",
          "str2": null,
          "city": "VANCOUVER, BRITISH COLUMBIA",
          "stateSpecified": false,
          "cntry": "Canada",
          "postlCd": "V6C 3S9"
        }
      ],
      "orgNm": "ODLUM BROWN USA INVESTMENT MANAGEMENT LIMITED",
      "orgPK": "132242",
      "str1": "1100-250 HOWE STREET",
      "str2": null,
      "city": "VANCOUVER, BRITISH COLUMBIA",
      "stateSpecified": false,
      "cntry": "Canada",
      "postlCd": "V6C 3S9"
    }
  ],
  "Exms": [
    {
      "exmCd": 2,
      "exmNm": "Uniform Investment Adviser Law Examination",
      "exmDt": "2012-10-02T00:00:00",
      "exmDtSpecified": true
    }
  ],
  "Dsgntns": [],
  "PrevRgstns": [],
  "EmpHss": [
    {
      "fromDt": "04/2003",
      "toDt": null,
      "orgNm": "ODLUM BROWN LIMITED",
      "city": "KELOWNA, BC",
      "stateSpecified": false
    },
    {
      "fromDt": "09/2012",
      "toDt": null,
      "orgNm": "ODLUM BROWN USA INVESTMENT MANAGEMENT LIMITED",
      "city": "KELOWNA, BC",
      "stateSpecified": false
    }
  ],
  "OthrBuss": {
    "OthrBus": null
  },
  "DRPs": []
}