{
  "Info": {
    "lastNm": "RYKHUS",
    "firstNm": "ERICK",
    "midNm": "JAMES",
    "sufNm": null,
    "indvlPK": "6120503",
    "actvAGReg": 0,
    "link": "http://www.adviserinfo.sec.gov/IAPD/Individual/6120503"
  },
  "OthrNms": [
    {
      "lastNm": "RYKHUS",
      "firstNm": "ERICK",
      "midNm": null,
      "sufNm": null
    }
  ],
  "CrntEmps": [
    {
      "CrntRgstns": [
        {
          "regAuth": 3,
          "regCat": 0,
          "st": 2,
          "stDt": "2015-04-24T00:00:00"
        }
      ],
      "BrnchOfLocs": [
        {
          "str1": "8620 SOUTH RIVER PARKWAY",
          "str2": null,
          "city": "TEMPE",
          "state": 3,
          "stateSpecified": true,
          "cntry": "United States",
          "postlCd": "85284"
        }
      ],
      "orgNm": "EDWARD JONES",
      "orgPK": "250",
      "str1": "12555 MANCHESTER RD",
      "str2": null,
      "city": "ST. LOUIS",
      "state": 25,
      "stateSpecified": true,
      "cntry": "United States",
      "postlCd": "63131"
    }
  ],
  "Exms": [
    {
      "exmCd": 3,
      "exmNm": "Uniform Combined State Law Examination",
      "exmDt": "2015-04-14T00:00:00",
      "exmDtSpecified": true
    }
  ],
  "Dsgntns": [],
  "PrevRgstns": [],
  "EmpHss": [
    {
      "fromDt": "06/2005",
      "toDt": "08/2008",
      "orgNm": "KWIK TRIP, INC",
      "city": "MANKATO",
      "state": 24,
      "stateSpecified": true
    },
    {
      "fromDt": "05/2008",
      "toDt": "01/2009",
      "orgNm": "KATO ENGINEERING",
      "city": "NORTH MANKATO",
      "state": 24,
      "stateSpecified": true
    },
    {
      "fromDt": "12/2008",
      "toDt": "07/2011",
      "orgNm": "SNELL MOTORS, SNELL AUTOWASH",
      "city": "MANKATO",
      "state": 24,
      "stateSpecified": true
    },
    {
      "fromDt": "06/2009",
      "toDt": "08/2009",
      "orgNm": "SCHWICKERT'S",
      "city": "MANKATO",
      "state": 24,
      "stateSpecified": true
    },
    {
      "fromDt": "06/2011",
      "toDt": "06/2013",
      "orgNm": "RED ROCKS",
      "city": "MANKATO",
      "state": 24,
      "stateSpecified": true
    },
    {
      "fromDt": "02/2012",
      "toDt": "08/2012",
      "orgNm": "KATO ENGINEERING",
      "city": "NORTH MANKATO",
      "state": 24,
      "stateSpecified": true
    },
    {
      "fromDt": "10/2012",
      "toDt": "03/2014",
      "orgNm": "METLIFE INVESTORS DIST CO",
      "city": "WEST DES MOINES",
      "state": 13,
      "stateSpecified": true
    },
    {
      "fromDt": "08/2013",
      "toDt": "02/2014",
      "orgNm": "LEGENDS AMERICAN BAR AND GRILL",
      "city": "JOHNSTON",
      "state": 13,
      "stateSpecified": true
    },
    {
      "fromDt": "03/2014",
      "toDt": null,
      "orgNm": "EDWARD JONES",
      "city": "TEMPE",
      "state": 3,
      "stateSpecified": true
    }
  ],
  "OthrBuss": {
    "OthrBus": null
  },
  "DRPs": []
}