{
  "Info": {
    "lastNm": "GAUVIN",
    "firstNm": "JOSEPH",
    "midNm": null,
    "sufNm": null,
    "indvlPK": "6128554",
    "actvAGReg": 0,
    "link": "http://www.adviserinfo.sec.gov/IAPD/Individual/6128554"
  },
  "OthrNms": [],
  "CrntEmps": [
    {
      "CrntRgstns": [
        {
          "regAuth": 20,
          "regCat": 0,
          "st": 2,
          "stDt": "2015-06-26T00:00:00"
        }
      ],
      "BrnchOfLocs": [
        {
          "str1": "1253 HIGHLAND AVE.",
          "str2": null,
          "city": "NEEDHAM",
          "state": 20,
          "stateSpecified": true,
          "cntry": "United States",
          "postlCd": "02492-2682"
        }
      ],
      "orgNm": "COMMONWEALTH FINANCIAL NETWORK",
      "orgPK": "8032",
      "str1": "29 SAWYER ROAD",
      "str2": null,
      "city": "WALTHAM",
      "state": 20,
      "stateSpecified": true,
      "cntry": "United States",
      "postlCd": "02453-3483"
    }
  ],
  "Exms": [
    {
      "exmCd": 3,
      "exmNm": "Uniform Combined State Law Examination",
      "exmDt": "2015-06-18T00:00:00",
      "exmDtSpecified": true
    }
  ],
  "Dsgntns": [],
  "PrevRgstns": [],
  "EmpHss": [
    {
      "fromDt": "09/2005",
      "toDt": "12/2010",
      "orgNm": "COLLEGE",
      "city": "KNOXVILLE",
      "state": 44,
      "stateSpecified": true
    },
    {
      "fromDt": "01/2011",
      "toDt": "10/2012",
      "orgNm": "BANK OF NEW YORK MELLON",
      "city": "WESTBOROUGH",
      "state": 20,
      "stateSpecified": true
    },
    {
      "fromDt": "10/2012",
      "toDt": null,
      "orgNm": "DK BREDE INVESTMENT MANAGEMENT",
      "city": "NEEDHAM",
      "state": 20,
      "stateSpecified": true
    }
  ],
  "OthrBuss": {
    "OthrBus": null
  },
  "DRPs": []
}