{
  "Info": {
    "lastNm": "OKINAKA",
    "firstNm": "MICHAEL",
    "midNm": null,
    "sufNm": null,
    "indvlPK": "6133769",
    "actvAGReg": 0,
    "link": "http://www.adviserinfo.sec.gov/IAPD/Individual/6133769"
  },
  "OthrNms": [],
  "CrntEmps": [
    {
      "CrntRgstns": [
        {
          "regAuth": 49,
          "regCat": 0,
          "st": 2,
          "stDt": "2014-05-01T00:00:00"
        }
      ],
      "BrnchOfLocs": [
        {
          "str1": "200 1ST AVE WEST",
          "str2": "STE 304",
          "city": "SEATTLE",
          "state": 49,
          "stateSpecified": true,
          "cntry": "United States",
          "postlCd": "98119"
        }
      ],
      "orgNm": "CAMBRIDGE INVESTMENT RESEARCH ADVISORS, INC.",
      "orgPK": "134139",
      "str1": "1776 PLEASANT PLAIN RD.",
      "str2": null,
      "city": "FAIRFIELD",
      "state": 13,
      "stateSpecified": true,
      "cntry": "United States",
      "postlCd": "52556-8757"
    }
  ],
  "Exms": [
    {
      "exmCd": 3,
      "exmNm": "Uniform Combined State Law Examination",
      "exmDt": "2014-03-18T00:00:00",
      "exmDtSpecified": true
    }
  ],
  "Dsgntns": [],
  "PrevRgstns": [],
  "EmpHss": [
    {
      "fromDt": "09/2006",
      "toDt": "06/2009",
      "orgNm": "ROOSEVELT HIGH SCHOOL",
      "city": "SEATTLE",
      "state": 49,
      "stateSpecified": true
    },
    {
      "fromDt": "09/2009",
      "toDt": "06/2013",
      "orgNm": "UNIVERSITY OF WASHINGTON",
      "city": "SEATTLE",
      "state": 49,
      "stateSpecified": true
    },
    {
      "fromDt": "06/2010",
      "toDt": "09/2010",
      "orgNm": "SKYHAWKS SPORTS",
      "city": "SEATTLE",
      "state": 49,
      "stateSpecified": true
    },
    {
      "fromDt": "04/2011",
      "toDt": "02/2013",
      "orgNm": "SEATTLE MARINERS",
      "city": "SEATTLE",
      "state": 49,
      "stateSpecified": true
    },
    {
      "fromDt": "07/2013",
      "toDt": null,
      "orgNm": "CAMBRIDGE INVESTMENT RESEARCH, INC.",
      "city": "FAIRFIELD",
      "state": 13,
      "stateSpecified": true
    },
    {
      "fromDt": "05/2014",
      "toDt": null,
      "orgNm": "CAMBRIDGE INVESTMENT RESEARCH ADVISORS, INC.",
      "city": "FAIRFIELD",
      "state": 13,
      "stateSpecified": true
    }
  ],
  "OthrBuss": {
    "OthrBus": {
      "desc": "1)INDEPENDANT INSURANCE AGENT FOR VARIOUS INSURANCE COMPANIES. 2) FINITY TAX. VANCOUVER, WA. STARTED 12/2014 AS REFERRAL SOURCE.  CPA/ENROLLED AGENT/TAX PREPARER/ACCOUNTING SERVICES. SPENDS 1 HR/MO, NONE DURING TRADING."
    }
  },
  "DRPs": []
}