{
  "Info": {
    "lastNm": "SEN",
    "firstNm": "CONOR",
    "midNm": "JAMES",
    "sufNm": null,
    "indvlPK": "6135822",
    "actvAGReg": 1,
    "link": "http://www.adviserinfo.sec.gov/IAPD/Individual/6135822"
  },
  "OthrNms": [],
  "CrntEmps": [
    {
      "CrntRgstns": [
        {
          "regAuth": 10,
          "regCat": 0,
          "st": 2,
          "stDt": "2012-12-12T00:00:00"
        },
        {
          "regAuth": 4,
          "regCat": 0,
          "st": 2,
          "stDt": "2014-08-18T00:00:00"
        }
      ],
      "BrnchOfLocs": [
        {
          "str1": null,
          "str2": null,
          "city": "ATLANTA",
          "state": 10,
          "stateSpecified": true,
          "cntry": "United States",
          "postlCd": null
        },
        {
          "str1": "633 W 5TH ST",
          "str2": "FLOOR 28",
          "city": "LOS ANGELES",
          "state": 4,
          "stateSpecified": true,
          "cntry": "United States",
          "postlCd": "90071-2039"
        }
      ],
      "orgNm": "NEW RIVER INVESTMENTS",
      "orgPK": "157173",
      "str1": "633 W 5TH ST",
      "str2": "FLOOR 28",
      "city": "LOS ANGELES",
      "state": 4,
      "stateSpecified": true,
      "cntry": "United States",
      "postlCd": "90071-2039"
    }
  ],
  "Exms": [
    {
      "exmCd": 2,
      "exmNm": "Uniform Investment Adviser Law Examination",
      "exmDt": "2012-12-11T00:00:00",
      "exmDtSpecified": true
    }
  ],
  "Dsgntns": [],
  "PrevRgstns": [],
  "EmpHss": [
    {
      "fromDt": "12/2005",
      "toDt": "02/2010",
      "orgNm": "PARTNER FUND MANAGEMENT",
      "city": "SAN FRANCISCO",
      "state": 4,
      "stateSpecified": true
    },
    {
      "fromDt": "03/2010",
      "toDt": "02/2011",
      "orgNm": "TRAVEL/UNEMPLOYED",
      "city": "SAN FRANCISCO",
      "state": 4,
      "stateSpecified": true
    },
    {
      "fromDt": "02/2011",
      "toDt": "10/2012",
      "orgNm": "KABBAGE",
      "city": "ATLANTA",
      "state": 10,
      "stateSpecified": true
    },
    {
      "fromDt": "11/2012",
      "toDt": null,
      "orgNm": "NEW RIVER INVESTMENTS",
      "city": "ATLANTA",
      "state": 10,
      "stateSpecified": true
    }
  ],
  "OthrBuss": {
    "OthrBus": null
  },
  "DRPs": []
}