{
  "Info": {
    "lastNm": "BARRON",
    "firstNm": "STEPHEN",
    "midNm": "E",
    "sufNm": null,
    "indvlPK": "6137981",
    "actvAGReg": 0,
    "link": "http://www.adviserinfo.sec.gov/IAPD/Individual/6137981"
  },
  "OthrNms": [
    {
      "lastNm": "BARRON",
      "firstNm": "STEPHEN",
      "midNm": "EDWARD",
      "sufNm": null
    }
  ],
  "CrntEmps": [
    {
      "CrntRgstns": [
        {
          "regAuth": 7,
          "regCat": 0,
          "st": 2,
          "stDt": "2013-02-04T00:00:00"
        },
        {
          "regAuth": 45,
          "regCat": 0,
          "st": 2,
          "stDt": "2013-03-12T00:00:00"
        }
      ],
      "BrnchOfLocs": [
        {
          "str1": "1152 15TH ST NW",
          "str2": null,
          "city": "WASHINGTON",
          "state": 7,
          "stateSpecified": true,
          "cntry": "United States",
          "postlCd": "20005"
        }
      ],
      "orgNm": "MERRILL LYNCH, PIERCE, FENNER & SMITH INCORPORATED",
      "orgPK": "7691",
      "str1": "ONE BRYANT PARK",
      "str2": null,
      "city": "NEW YORK",
      "state": 35,
      "stateSpecified": true,
      "cntry": "United States",
      "postlCd": "10036"
    }
  ],
  "Exms": [
    {
      "exmCd": 3,
      "exmNm": "Uniform Combined State Law Examination",
      "exmDt": "2013-01-22T00:00:00",
      "exmDtSpecified": true
    }
  ],
  "Dsgntns": [],
  "PrevRgstns": [],
  "EmpHss": [
    {
      "fromDt": "08/2003",
      "toDt": "05/2007",
      "orgNm": "BETHESDA CHEVY CHASE HIGHSCHOOL",
      "city": "BETHESDA",
      "state": 21,
      "stateSpecified": true
    },
    {
      "fromDt": "05/2007",
      "toDt": "08/2007",
      "orgNm": "UNEMPLOYED",
      "city": "CHEVY CHASE",
      "state": 21,
      "stateSpecified": true
    },
    {
      "fromDt": "08/2007",
      "toDt": "05/2008",
      "orgNm": "MCGILL UNIVERSITY",
      "city": "MONTREAL",
      "stateSpecified": false
    },
    {
      "fromDt": "05/2008",
      "toDt": "06/2008",
      "orgNm": "UNEMPLOYED",
      "city": "CHEVY CHASE",
      "state": 21,
      "stateSpecified": true
    },
    {
      "fromDt": "06/2008",
      "toDt": "08/2008",
      "orgNm": "GOODGREENHOME.COM",
      "city": "CHEVY CHASE",
      "state": 21,
      "stateSpecified": true
    },
    {
      "fromDt": "08/2008",
      "toDt": "12/2008",
      "orgNm": "MCGILL UNIVERSITY",
      "city": "MONTREAL",
      "stateSpecified": false
    },
    {
      "fromDt": "12/2008",
      "toDt": "05/2009",
      "orgNm": "PREP101",
      "city": "MONTREAL",
      "stateSpecified": false
    },
    {
      "fromDt": "05/2009",
      "toDt": "08/2009",
      "orgNm": "UNEMPLOYED",
      "city": "CHEVY CHASE",
      "state": 21,
      "stateSpecified": true
    },
    {
      "fromDt": "08/2009",
      "toDt": "05/2010",
      "orgNm": "PREP101",
      "city": "MONTREAL",
      "stateSpecified": false
    },
    {
      "fromDt": "05/2010",
      "toDt": "08/2010",
      "orgNm": "UNEMPLOYED",
      "city": "CHEVY CHASE",
      "state": 21,
      "stateSpecified": true
    },
    {
      "fromDt": "08/2010",
      "toDt": "05/2011",
      "orgNm": "PREP101",
      "city": "MONTREAL",
      "stateSpecified": false
    },
    {
      "fromDt": "05/2011",
      "toDt": "08/2011",
      "orgNm": "UNEMPLOYED",
      "city": "CHEVY CHASE",
      "state": 21,
      "stateSpecified": true
    },
    {
      "fromDt": "08/2011",
      "toDt": "05/2012",
      "orgNm": "PREP101",
      "city": "MONTREAL",
      "stateSpecified": false
    },
    {
      "fromDt": "05/2012",
      "toDt": "11/2012",
      "orgNm": "UNEMPLOYED",
      "city": "CHEVY CHASE",
      "state": 21,
      "stateSpecified": true
    },
    {
      "fromDt": "11/2012",
      "toDt": null,
      "orgNm": "BANK OF AMERICA, N.A.",
      "city": "WASHINGTON",
      "state": 7,
      "stateSpecified": true
    },
    {
      "fromDt": "11/2012",
      "toDt": null,
      "orgNm": "MERRILL LYNCH, PIERCE, FENNER & SMITH INCORPORATED",
      "city": "WASHINGTON",
      "state": 7,
      "stateSpecified": true
    }
  ],
  "OthrBuss": {
    "OthrBus": null
  },
  "DRPs": []
}