{
  "Info": {
    "lastNm": "HARBERT",
    "firstNm": "ERIC",
    "midNm": "ALEXANDER",
    "sufNm": null,
    "indvlPK": "6138586",
    "actvAGReg": 1,
    "link": "http://www.adviserinfo.sec.gov/IAPD/Individual/6138586"
  },
  "OthrNms": [],
  "CrntEmps": [
    {
      "CrntRgstns": [
        {
          "regAuth": 28,
          "regCat": 0,
          "st": 2,
          "stDt": "2015-06-16T00:00:00"
        }
      ],
      "BrnchOfLocs": [
        {
          "str1": "8816 RED OAK BLVD",
          "str2": "SUITE 260",
          "city": "CHARLOTTE",
          "state": 28,
          "stateSpecified": true,
          "cntry": "United States",
          "postlCd": "28217"
        }
      ],
      "orgNm": "MCGILL ADVISORS, INC.",
      "orgPK": "111093",
      "str1": "8816 RED OAK BLVD",
      "str2": "SUITE 260",
      "city": "CHARLOTTE",
      "state": 28,
      "stateSpecified": true,
      "cntry": "United States",
      "postlCd": "28217"
    }
  ],
  "Exms": [
    {
      "exmCd": 2,
      "exmNm": "Uniform Investment Adviser Law Examination",
      "exmDt": "2015-08-25T00:00:00",
      "exmDtSpecified": true
    }
  ],
  "Dsgntns": [
    {
      "dsgntnNm": "Certified Financial Planner"
    }
  ],
  "PrevRgstns": [
    {
      "BrnchOfLocs": [
        {
          "city": "CHARLOTTE",
          "state": 28,
          "stateSpecified": true
        }
      ],
      "orgNm": "GREERWALKER WEALTH MANAGEMENT LLC",
      "orgPK": "118154",
      "regBeginDt": "2012-11-20T00:00:00",
      "regBeginDtSpecified": true,
      "regEndDt": "2015-06-30T00:00:00",
      "regEndDtSpecified": true
    }
  ],
  "EmpHss": [
    {
      "fromDt": "06/2006",
      "toDt": "06/2015",
      "orgNm": "GREER & WALKER, LLP",
      "city": "CHARLOTTE",
      "state": 28,
      "stateSpecified": true
    },
    {
      "fromDt": "01/2012",
      "toDt": "06/2015",
      "orgNm": "GREER & WALKER INVESTMENT ADVISORS, LLC",
      "city": "CHARLOTTE",
      "state": 28,
      "stateSpecified": true
    },
    {
      "fromDt": "06/2015",
      "toDt": null,
      "orgNm": "MCGILL ADVISORS, INC.",
      "city": "CHARLOTTE",
      "state": 28,
      "stateSpecified": true
    }
  ],
  "OthrBuss": {
    "OthrBus": null
  },
  "DRPs": []
}