{
  "Info": {
    "lastNm": "SCHMIDT",
    "firstNm": "SCOTLAND",
    "midNm": "COTTIER",
    "sufNm": null,
    "indvlPK": "6146107",
    "actvAGReg": 0,
    "link": "http://www.adviserinfo.sec.gov/IAPD/Individual/6146107"
  },
  "OthrNms": [],
  "CrntEmps": [
    {
      "CrntRgstns": [
        {
          "regAuth": 4,
          "regCat": 0,
          "st": 2,
          "stDt": "2013-03-04T00:00:00"
        }
      ],
      "BrnchOfLocs": [
        {
          "str1": "101 WEST  BROADWAY",
          "str2": "FLOORS 18&19",
          "city": "SAN DIEGO",
          "state": 4,
          "stateSpecified": true,
          "cntry": "United States",
          "postlCd": "92101"
        }
      ],
      "orgNm": "MORGAN STANLEY",
      "orgPK": "149777",
      "str1": "2000 WESTCHESTER AVENUE",
      "str2": null,
      "city": "PURCHASE",
      "state": 35,
      "stateSpecified": true,
      "cntry": "United States",
      "postlCd": "10577-2530"
    }
  ],
  "Exms": [
    {
      "exmCd": 3,
      "exmNm": "Uniform Combined State Law Examination",
      "exmDt": "2013-03-01T00:00:00",
      "exmDtSpecified": true
    }
  ],
  "Dsgntns": [],
  "PrevRgstns": [],
  "EmpHss": [
    {
      "fromDt": "08/2005",
      "toDt": "08/2008",
      "orgNm": "UNIVERSITY OF REDLANDS",
      "city": "REDLANDS",
      "state": 4,
      "stateSpecified": true
    },
    {
      "fromDt": "09/2008",
      "toDt": "08/2009",
      "orgNm": "INDEPENDENT CONTRACTOR",
      "city": "SAN DIEGO",
      "state": 4,
      "stateSpecified": true
    },
    {
      "fromDt": "08/2009",
      "toDt": "11/2012",
      "orgNm": "FOUNDATION ASSOCIATES",
      "city": "SAN DIEGO",
      "state": 4,
      "stateSpecified": true
    },
    {
      "fromDt": "12/2012",
      "toDt": null,
      "orgNm": "MORGAN STANLEY",
      "city": "SAN DIEGO",
      "state": 4,
      "stateSpecified": true
    },
    {
      "fromDt": "01/2015",
      "toDt": null,
      "orgNm": "MORGAN STANLEY PRIVATE BANK, NATIONAL ASSOCIATION",
      "city": "NEW YORK",
      "state": 35,
      "stateSpecified": true
    }
  ],
  "OthrBuss": {
    "OthrBus": null
  },
  "DRPs": []
}