{
  "Info": {
    "lastNm": "Remund",
    "firstNm": "Anthony",
    "midNm": "James",
    "sufNm": null,
    "indvlPK": "6148908",
    "actvAGReg": 0,
    "link": "http://www.adviserinfo.sec.gov/IAPD/Individual/6148908"
  },
  "OthrNms": [],
  "CrntEmps": [
    {
      "CrntRgstns": [
        {
          "regAuth": 24,
          "regCat": 0,
          "st": 2,
          "stDt": "2015-03-10T00:00:00"
        }
      ],
      "BrnchOfLocs": [
        {
          "str1": "11650 ROUND LAKE BLVD NW",
          "str2": "SUITE 105",
          "city": "COON RAPIDS",
          "state": 24,
          "stateSpecified": true,
          "cntry": "United States",
          "postlCd": "55433-2700"
        }
      ],
      "orgNm": "EDWARD JONES",
      "orgPK": "250",
      "str1": "12555 MANCHESTER RD",
      "str2": null,
      "city": "ST. LOUIS",
      "state": 25,
      "stateSpecified": true,
      "cntry": "United States",
      "postlCd": "63131"
    }
  ],
  "Exms": [
    {
      "exmCd": 3,
      "exmNm": "Uniform Combined State Law Examination",
      "exmDt": "2014-09-05T00:00:00",
      "exmDtSpecified": true
    }
  ],
  "Dsgntns": [],
  "PrevRgstns": [],
  "EmpHss": [
    {
      "fromDt": "09/2006",
      "toDt": "06/2010",
      "orgNm": "COON RAPIDS HIGH SCHOOL",
      "city": "COON RAPIDS",
      "state": 24,
      "stateSpecified": true
    },
    {
      "fromDt": "09/2010",
      "toDt": "05/2014",
      "orgNm": "UNIVERSITY OF WISCONSIN-SUPERIOR",
      "city": "SUPERIOR",
      "state": 50,
      "stateSpecified": true
    },
    {
      "fromDt": "03/2013",
      "toDt": "05/2014",
      "orgNm": "NORTHWESTERN MUTUAL",
      "city": "DULUTH",
      "state": 24,
      "stateSpecified": true
    },
    {
      "fromDt": "06/2014",
      "toDt": null,
      "orgNm": "EDWARD JONES",
      "city": "ST LOUIS",
      "state": 25,
      "stateSpecified": true
    }
  ],
  "OthrBuss": {
    "OthrBus": null
  },
  "DRPs": []
}