{
  "Info": {
    "lastNm": "Postma",
    "firstNm": "Brian",
    "midNm": null,
    "sufNm": null,
    "indvlPK": "6150101",
    "actvAGReg": 0,
    "link": "http://www.adviserinfo.sec.gov/IAPD/Individual/6150101"
  },
  "OthrNms": [
    {
      "lastNm": "POSTMA",
      "firstNm": "BRIAN",
      "midNm": "J",
      "sufNm": null
    }
  ],
  "CrntEmps": [
    {
      "CrntRgstns": [
        {
          "regAuth": 23,
          "regCat": 0,
          "st": 2,
          "stDt": "2013-03-12T00:00:00"
        }
      ],
      "BrnchOfLocs": [
        {
          "str1": "294 RIVER STREET",
          "str2": null,
          "city": "MANISTEE",
          "state": 23,
          "stateSpecified": true,
          "cntry": "United States",
          "postlCd": "49660"
        }
      ],
      "orgNm": "EDWARD JONES",
      "orgPK": "250",
      "str1": "12555 MANCHESTER RD",
      "str2": null,
      "city": "ST. LOUIS",
      "state": 25,
      "stateSpecified": true,
      "cntry": "United States",
      "postlCd": "63131"
    }
  ],
  "Exms": [
    {
      "exmCd": 3,
      "exmNm": "Uniform Combined State Law Examination",
      "exmDt": "2013-03-07T00:00:00",
      "exmDtSpecified": true
    }
  ],
  "Dsgntns": [],
  "PrevRgstns": [],
  "EmpHss": [
    {
      "fromDt": "04/1986",
      "toDt": "01/2013",
      "orgNm": "MICHIGAN DEPARTMENT OF STATE POLICE",
      "city": "LANSING",
      "state": 23,
      "stateSpecified": true
    },
    {
      "fromDt": "01/2013",
      "toDt": null,
      "orgNm": "EDWARD JONES",
      "city": "ST LOUIS",
      "state": 25,
      "stateSpecified": true
    }
  ],
  "OthrBuss": {
    "OthrBus": {
      "desc": "SHOWTIME AUCTION SERVICE WOODHAVEN, MI 48183  4/1/2002  LABORER    \"West Shore Medical Center  Manistee, MI  Start date: 2/19/2015  Trustee  Hours per week: 0  Hours during trading: 0  Chosen from area citizens, trustees work to ensure the financial viability and operational stability of the medical center.\"  \"West Shore Community College  Hockey Official  Scottville, MI  Start date: 8/20/2009  Hockey Referee  Hours per week: 4  Hours during trading: 0  Officiate for youth USA sanctioned hockey games, adult hockey leagues and tournaments.\""
    }
  },
  "DRPs": [
    {
      "hasRegAction": 1,
      "hasRegActionSpecified": true,
      "hasCriminal": 1,
      "hasCriminalSpecified": true,
      "hasBankrupt": 0,
      "hasBankruptSpecified": true,
      "hasCivilJudc": 1,
      "hasCivilJudcSpecified": true,
      "hasBond": 1,
      "hasBondSpecified": true,
      "hasJudgment": 1,
      "hasJudgmentSpecified": true,
      "hasInvstgn": 1,
      "hasInvstgnSpecified": true,
      "hasCustComp": 1,
      "hasCustCompSpecified": true,
      "hasTermination": 1,
      "hasTerminationSpecified": true
    }
  ]
}