{
  "Info": {
    "lastNm": "Atkinson",
    "firstNm": "Bradley",
    "midNm": "Alan",
    "sufNm": null,
    "indvlPK": "6158862",
    "actvAGReg": 0,
    "link": "http://www.adviserinfo.sec.gov/IAPD/Individual/6158862"
  },
  "OthrNms": [],
  "CrntEmps": [
    {
      "CrntRgstns": [
        {
          "regAuth": 5,
          "regCat": 0,
          "st": 2,
          "stDt": "2013-06-04T00:00:00"
        }
      ],
      "BrnchOfLocs": [
        {
          "str1": "6662 GUNPARK DRIVE SUITE 100",
          "str2": null,
          "city": "BOULDER",
          "state": 5,
          "stateSpecified": true,
          "cntry": "United States",
          "postlCd": "80301"
        }
      ],
      "orgNm": "EDWARD JONES",
      "orgPK": "250",
      "str1": "12555 MANCHESTER RD",
      "str2": null,
      "city": "ST. LOUIS",
      "state": 25,
      "stateSpecified": true,
      "cntry": "United States",
      "postlCd": "63131"
    }
  ],
  "Exms": [
    {
      "exmCd": 3,
      "exmNm": "Uniform Combined State Law Examination",
      "exmDt": "2013-04-05T00:00:00",
      "exmDtSpecified": true
    }
  ],
  "Dsgntns": [],
  "PrevRgstns": [],
  "EmpHss": [
    {
      "fromDt": "09/2003",
      "toDt": "05/2010",
      "orgNm": "JUNIOR ATHLETICS OF THE MIDWEST",
      "city": "DENVER",
      "state": 5,
      "stateSpecified": true
    },
    {
      "fromDt": "11/2004",
      "toDt": "01/2007",
      "orgNm": "CATERING BY DESIGN",
      "city": "DENVER",
      "state": 5,
      "stateSpecified": true
    },
    {
      "fromDt": "05/2006",
      "toDt": "08/2006",
      "orgNm": "PEABERRY COFFEE",
      "city": "WESTMINSTER",
      "state": 5,
      "stateSpecified": true
    },
    {
      "fromDt": "08/2006",
      "toDt": "12/2006",
      "orgNm": "UNEMPLOYED",
      "city": "LAJUNTA",
      "state": 5,
      "stateSpecified": true
    },
    {
      "fromDt": "01/2007",
      "toDt": "03/2007",
      "orgNm": "CHILIS BAR AND GRILL",
      "city": "LAFAYETTE",
      "state": 5,
      "stateSpecified": true
    },
    {
      "fromDt": "01/2007",
      "toDt": "03/2007",
      "orgNm": "PEABERRY COFFEE",
      "city": "WESTMINSTER",
      "state": 5,
      "stateSpecified": true
    },
    {
      "fromDt": "03/2007",
      "toDt": "01/2008",
      "orgNm": "TEXAS ROADHOUSE",
      "city": "ARVADA",
      "state": 5,
      "stateSpecified": true
    },
    {
      "fromDt": "02/2008",
      "toDt": "04/2008",
      "orgNm": "SPRING COMMUNICATIONS",
      "city": "THORNTON",
      "state": 5,
      "stateSpecified": true
    },
    {
      "fromDt": "05/2008",
      "toDt": "07/2008",
      "orgNm": "AT&T",
      "city": "DENVER",
      "state": 5,
      "stateSpecified": true
    },
    {
      "fromDt": "07/2008",
      "toDt": "12/2010",
      "orgNm": "CITY OF DENVER",
      "city": "DENVER",
      "state": 5,
      "stateSpecified": true
    },
    {
      "fromDt": "02/2010",
      "toDt": "02/2010",
      "orgNm": "ABERCROMBIE AND FITCH",
      "city": "BROOMFIELD",
      "state": 5,
      "stateSpecified": true
    },
    {
      "fromDt": "01/2011",
      "toDt": "02/2013",
      "orgNm": "AIR PURIFICATION COMPANY",
      "city": "DENVER",
      "state": 5,
      "stateSpecified": true
    },
    {
      "fromDt": "04/2011",
      "toDt": "11/2012",
      "orgNm": "ATKINSON ORGANIZATION",
      "city": "DACONO",
      "state": 5,
      "stateSpecified": true
    },
    {
      "fromDt": "03/2012",
      "toDt": "11/2012",
      "orgNm": "IT WORKS GLOBAL",
      "city": "DACONO",
      "state": 5,
      "stateSpecified": true
    },
    {
      "fromDt": "02/2013",
      "toDt": null,
      "orgNm": "EDWARD JONES",
      "city": "DENVER",
      "state": 5,
      "stateSpecified": true
    }
  ],
  "OthrBuss": {
    "OthrBus": null
  },
  "DRPs": []
}