{
  "Info": {
    "lastNm": "BAIL",
    "firstNm": "JEFFREY",
    "midNm": "WALKER",
    "sufNm": null,
    "indvlPK": "6166902",
    "actvAGReg": 0,
    "link": "http://www.adviserinfo.sec.gov/IAPD/Individual/6166902"
  },
  "OthrNms": [],
  "CrntEmps": [
    {
      "CrntRgstns": [
        {
          "regAuth": 36,
          "regCat": 0,
          "st": 2,
          "stDt": "2016-05-31T00:00:00"
        }
      ],
      "BrnchOfLocs": [
        {
          "str1": null,
          "str2": null,
          "city": "WADSWORTH",
          "state": 36,
          "stateSpecified": true,
          "cntry": "United States",
          "postlCd": null
        },
        {
          "str1": "1245 JJ KELLEY MEMORIAL DRIVE",
          "str2": null,
          "city": "ST LOUIS",
          "state": 25,
          "stateSpecified": true,
          "cntry": "United States",
          "postlCd": "63131"
        }
      ],
      "orgNm": "EDWARD JONES",
      "orgPK": "250",
      "str1": "12555 MANCHESTER RD",
      "str2": null,
      "city": "ST. LOUIS",
      "state": 25,
      "stateSpecified": true,
      "cntry": "United States",
      "postlCd": "63131"
    }
  ],
  "Exms": [
    {
      "exmCd": 0,
      "exmNm": "Uniform Securities Agent State Law Examination",
      "exmDt": "2013-05-15T00:00:00",
      "exmDtSpecified": true
    },
    {
      "exmCd": 3,
      "exmNm": "Uniform Combined State Law Examination",
      "exmDt": "2016-06-15T00:00:00",
      "exmDtSpecified": true
    }
  ],
  "Dsgntns": [],
  "PrevRgstns": [],
  "EmpHss": [
    {
      "fromDt": "01/1994",
      "toDt": "05/2016",
      "orgNm": "BAIL CPAS",
      "city": "KENT",
      "state": 36,
      "stateSpecified": true
    },
    {
      "fromDt": "01/2000",
      "toDt": "04/2007",
      "orgNm": "AESCO INC",
      "city": "AKRON",
      "state": 36,
      "stateSpecified": true
    },
    {
      "fromDt": "04/2010",
      "toDt": "09/2015",
      "orgNm": "FIRST NATIONAL COMMUNITY BANK",
      "city": "EAST LIVERPOOL",
      "state": 36,
      "stateSpecified": true
    },
    {
      "fromDt": "12/2010",
      "toDt": "12/2013",
      "orgNm": "DIMENGO & BAIL",
      "city": "AKRON",
      "state": 36,
      "stateSpecified": true
    },
    {
      "fromDt": "02/2013",
      "toDt": "10/2015",
      "orgNm": "INFINEX INVESTMENTS, INC.",
      "city": "EAST LIVERPOOL",
      "state": 36,
      "stateSpecified": true
    },
    {
      "fromDt": "10/2015",
      "toDt": "12/2015",
      "orgNm": "Farmers National Bank",
      "city": "East Liverpool",
      "state": 36,
      "stateSpecified": true
    },
    {
      "fromDt": "11/2015",
      "toDt": "12/2015",
      "orgNm": "Cetera Investment Advisers LLC",
      "city": "East Liverpool",
      "state": 36,
      "stateSpecified": true
    },
    {
      "fromDt": "11/2015",
      "toDt": "12/2015",
      "orgNm": "Cetera Investment Services LLC",
      "city": "St. Cloud",
      "state": 24,
      "stateSpecified": true
    },
    {
      "fromDt": "05/2016",
      "toDt": null,
      "orgNm": "Edward  Jones",
      "city": "St. Louis",
      "state": 25,
      "stateSpecified": true
    }
  ],
  "OthrBuss": {
    "OthrBus": null
  },
  "DRPs": []
}