{
  "Info": {
    "lastNm": "LYONS",
    "firstNm": "GAIL",
    "midNm": "MARIE",
    "sufNm": null,
    "indvlPK": "6166561",
    "actvAGReg": 0,
    "link": "http://www.adviserinfo.sec.gov/IAPD/Individual/6166561"
  },
  "OthrNms": [],
  "CrntEmps": [
    {
      "CrntRgstns": [
        {
          "regAuth": 45,
          "regCat": 0,
          "st": 3,
          "stDt": "2014-07-14T00:00:00"
        }
      ],
      "BrnchOfLocs": [
        {
          "str1": "401 S TRYON ST",
          "str2": "9TH FLOOR [N9-RBO]",
          "city": "CHARLOTTE",
          "state": 28,
          "stateSpecified": true,
          "cntry": "United States",
          "postlCd": "28202"
        }
      ],
      "orgNm": "WELLS FARGO ADVISORS, LLC",
      "orgPK": "19616",
      "str1": "ONE NORTH JEFFERSON AVENUE",
      "str2": "MAIL CODE: H0004-050",
      "city": "ST. LOUIS",
      "state": 25,
      "stateSpecified": true,
      "cntry": "United States",
      "postlCd": "63103-2205"
    }
  ],
  "Exms": [
    {
      "exmCd": 0,
      "exmNm": "Uniform Securities Agent State Law Examination",
      "exmDt": "2013-04-26T00:00:00",
      "exmDtSpecified": true
    }
  ],
  "Dsgntns": [],
  "PrevRgstns": [],
  "EmpHss": [
    {
      "fromDt": "07/2003",
      "toDt": "04/2007",
      "orgNm": "RIFLE HIGH SCHOOL",
      "city": "RIFLE",
      "state": 5,
      "stateSpecified": true
    },
    {
      "fromDt": "02/2005",
      "toDt": "01/2008",
      "orgNm": "UNITED WAY OF GARFIELD COUNTY",
      "city": "RIFLE",
      "state": 5,
      "stateSpecified": true
    },
    {
      "fromDt": "04/2007",
      "toDt": "08/2007",
      "orgNm": "GLENWOOD CAVERNS ADVENTURE PARK",
      "city": "GLENWOOD SPRINGS",
      "state": 5,
      "stateSpecified": true
    },
    {
      "fromDt": "01/2008",
      "toDt": "03/2008",
      "orgNm": "RIFLE HIGH SCHOOL",
      "city": "RIFLE",
      "state": 5,
      "stateSpecified": true
    },
    {
      "fromDt": "03/2008",
      "toDt": "08/2008",
      "orgNm": "TARGET",
      "city": "GLENWOOD SPRINGS",
      "state": 5,
      "stateSpecified": true
    },
    {
      "fromDt": "08/2008",
      "toDt": "06/2009",
      "orgNm": "UNIVERSITY OF CALIFORNIA-SAN DIEGO",
      "city": "SAN DIEGO",
      "state": 4,
      "stateSpecified": true
    },
    {
      "fromDt": "06/2009",
      "toDt": "06/2009",
      "orgNm": "DAIRY QUEEN",
      "city": "GLENWOOD SPRINGS",
      "state": 5,
      "stateSpecified": true
    },
    {
      "fromDt": "06/2009",
      "toDt": "03/2011",
      "orgNm": "UNIVERSITY OF CALIFORNIA-SAN DIEGO",
      "city": "SAN DIEGO",
      "state": 4,
      "stateSpecified": true
    },
    {
      "fromDt": "03/2011",
      "toDt": "11/2011",
      "orgNm": "STARBUCKS",
      "city": "SAN DIEGO",
      "state": 4,
      "stateSpecified": true
    },
    {
      "fromDt": "03/2011",
      "toDt": "06/2012",
      "orgNm": "UNIVERSITY OF CALIFORNIA-SAN DIEGO",
      "city": "SAN DIEGO",
      "state": 4,
      "stateSpecified": true
    },
    {
      "fromDt": "06/2012",
      "toDt": "09/2012",
      "orgNm": "UNEMPLOYED",
      "city": "SILT",
      "state": 5,
      "stateSpecified": true
    },
    {
      "fromDt": "09/2012",
      "toDt": "02/2013",
      "orgNm": "WELLS FARGO BANK",
      "city": "RIFLE",
      "state": 5,
      "stateSpecified": true
    },
    {
      "fromDt": "02/2013",
      "toDt": "02/2014",
      "orgNm": "WELLS FARGO FUNDS DISTRIBUTOR, LLC.",
      "city": "MILWAUKEE",
      "state": 50,
      "stateSpecified": true
    },
    {
      "fromDt": "02/2014",
      "toDt": null,
      "orgNm": "WELLS FARGO ADVISORS",
      "city": "CHARLOTTE",
      "state": 28,
      "stateSpecified": true
    }
  ],
  "OthrBuss": {
    "OthrBus": null
  },
  "DRPs": []
}