{
  "Info": {
    "lastNm": "Coolbaugh",
    "firstNm": "Janelle",
    "midNm": "Marie",
    "sufNm": null,
    "indvlPK": "6169274",
    "actvAGReg": 0,
    "link": "http://www.adviserinfo.sec.gov/IAPD/Individual/6169274"
  },
  "OthrNms": [
    {
      "lastNm": "COLE",
      "firstNm": "JANELLE",
      "midNm": "MARIE",
      "sufNm": null
    },
    {
      "lastNm": "COOLBAUGH",
      "firstNm": "JANELLE",
      "midNm": "MARIE",
      "sufNm": null
    }
  ],
  "CrntEmps": [
    {
      "CrntRgstns": [
        {
          "regAuth": 39,
          "regCat": 0,
          "st": 2,
          "stDt": "2013-04-30T00:00:00"
        }
      ],
      "BrnchOfLocs": [
        {
          "str1": "430 LINCOLN WAY E",
          "str2": null,
          "city": "NEW OXFORD",
          "state": 39,
          "stateSpecified": true,
          "cntry": "United States",
          "postlCd": "17350"
        }
      ],
      "orgNm": "EDWARD JONES",
      "orgPK": "250",
      "str1": "12555 MANCHESTER RD",
      "str2": null,
      "city": "ST. LOUIS",
      "state": 25,
      "stateSpecified": true,
      "cntry": "United States",
      "postlCd": "63131"
    }
  ],
  "Exms": [
    {
      "exmCd": 3,
      "exmNm": "Uniform Combined State Law Examination",
      "exmDt": "2013-04-26T00:00:00",
      "exmDtSpecified": true
    }
  ],
  "Dsgntns": [],
  "PrevRgstns": [],
  "EmpHss": [
    {
      "fromDt": "10/2004",
      "toDt": "03/2013",
      "orgNm": "THE EVENING SUN / MEDIANEWS GROUP",
      "city": "HANOVER",
      "state": 39,
      "stateSpecified": true
    },
    {
      "fromDt": "03/2013",
      "toDt": null,
      "orgNm": "EDWARD JONES",
      "city": "ST. LOUIS",
      "state": 25,
      "stateSpecified": true
    }
  ],
  "OthrBuss": {
    "OthrBus": null
  },
  "DRPs": []
}