{
  "Info": {
    "lastNm": "GOO",
    "firstNm": "ANDREW",
    "midNm": "JEROME",
    "sufNm": null,
    "indvlPK": "6173624",
    "actvAGReg": 0,
    "link": "http://www.adviserinfo.sec.gov/IAPD/Individual/6173624"
  },
  "OthrNms": [],
  "CrntEmps": [
    {
      "CrntRgstns": [
        {
          "regAuth": 6,
          "regCat": 0,
          "st": 2,
          "stDt": "2016-02-08T00:00:00"
        },
        {
          "regAuth": 32,
          "regCat": 0,
          "st": 2,
          "stDt": "2016-02-09T00:00:00"
        },
        {
          "regAuth": 20,
          "regCat": 0,
          "st": 2,
          "stDt": "2016-02-23T00:00:00"
        }
      ],
      "BrnchOfLocs": [
        {
          "str1": null,
          "str2": null,
          "city": "Albany",
          "state": 35,
          "stateSpecified": true,
          "cntry": "United States",
          "postlCd": null
        }
      ],
      "orgNm": "TRANSAMERICA RETIREMENT ADVISORS, LLC",
      "orgPK": "107319",
      "str1": "408 ST PETER ST",
      "str2": "SUITE 240",
      "city": "ST PAUL",
      "state": 24,
      "stateSpecified": true,
      "cntry": "United States",
      "postlCd": "55101"
    }
  ],
  "Exms": [
    {
      "exmCd": 0,
      "exmNm": "Uniform Securities Agent State Law Examination",
      "exmDt": "2015-07-17T00:00:00",
      "exmDtSpecified": true
    },
    {
      "exmCd": 2,
      "exmNm": "Uniform Investment Adviser Law Examination",
      "exmDt": "2016-02-05T00:00:00",
      "exmDtSpecified": true
    }
  ],
  "Dsgntns": [],
  "PrevRgstns": [],
  "EmpHss": [
    {
      "fromDt": "09/2004",
      "toDt": "09/2008",
      "orgNm": "COLONIE CENTRAL HIGH SCHOOL",
      "city": "ALBANY",
      "state": 35,
      "stateSpecified": true
    },
    {
      "fromDt": "09/2008",
      "toDt": "01/2013",
      "orgNm": "SYRACUSE UNIVERSITY",
      "city": "SYRACUSE",
      "state": 35,
      "stateSpecified": true
    },
    {
      "fromDt": "01/2013",
      "toDt": "03/2013",
      "orgNm": "KELLY SERVICES",
      "city": "ALBANY",
      "state": 35,
      "stateSpecified": true
    },
    {
      "fromDt": "03/2013",
      "toDt": "06/2015",
      "orgNm": "NATIONWIDE INVESTMENT SERVICES CORP",
      "city": "COLUMBUS",
      "state": 36,
      "stateSpecified": true
    },
    {
      "fromDt": "06/2015",
      "toDt": null,
      "orgNm": "TRANSAMERICA RETIREMENT SOLUTIONS",
      "city": "ALBANY",
      "state": 35,
      "stateSpecified": true
    },
    {
      "fromDt": "07/2015",
      "toDt": null,
      "orgNm": "TRANSAMERICA INVESTORS SECURITIES CORPORATION",
      "city": "ALBANY",
      "state": 35,
      "stateSpecified": true
    }
  ],
  "OthrBuss": {
    "OthrBus": null
  },
  "DRPs": []
}