{
  "Info": {
    "lastNm": "WOJCIECHOWSKI",
    "firstNm": "MATTHEW",
    "midNm": "L",
    "sufNm": null,
    "indvlPK": "6174422",
    "actvAGReg": 0,
    "link": "http://www.adviserinfo.sec.gov/IAPD/Individual/6174422"
  },
  "OthrNms": [
    {
      "lastNm": "WOJCIECHOWSKI",
      "firstNm": "MATTHEW",
      "midNm": null,
      "sufNm": null
    }
  ],
  "CrntEmps": [
    {
      "CrntRgstns": [
        {
          "regAuth": 45,
          "regCat": 0,
          "st": 2,
          "stDt": "2013-06-11T00:00:00"
        },
        {
          "regAuth": 9,
          "regCat": 0,
          "st": 2,
          "stDt": "2013-06-13T00:00:00"
        }
      ],
      "BrnchOfLocs": [
        {
          "str1": "4800-4804 DEER LAKE DR",
          "str2": "MERRILL EDGE ADVISORY CENTER",
          "city": "JACKSONVILLE",
          "state": 9,
          "stateSpecified": true,
          "cntry": "United States",
          "postlCd": "32246"
        }
      ],
      "orgNm": "MERRILL LYNCH, PIERCE, FENNER & SMITH INCORPORATED",
      "orgPK": "7691",
      "str1": "ONE BRYANT PARK",
      "str2": null,
      "city": "NEW YORK",
      "state": 35,
      "stateSpecified": true,
      "cntry": "United States",
      "postlCd": "10036"
    }
  ],
  "Exms": [
    {
      "exmCd": 3,
      "exmNm": "Uniform Combined State Law Examination",
      "exmDt": "2013-06-07T00:00:00",
      "exmDtSpecified": true
    }
  ],
  "Dsgntns": [],
  "PrevRgstns": [],
  "EmpHss": [
    {
      "fromDt": "08/2003",
      "toDt": "11/2006",
      "orgNm": "JACKSONVILLE UNIVERSITY",
      "city": "JACKSONVILLE",
      "state": 9,
      "stateSpecified": true
    },
    {
      "fromDt": "11/2005",
      "toDt": "01/2007",
      "orgNm": "AMERICAN EAGLE OUTFITTERS",
      "city": "JACKSONVILLE",
      "state": 9,
      "stateSpecified": true
    },
    {
      "fromDt": "02/2007",
      "toDt": "08/2007",
      "orgNm": "UNEMPLOYED",
      "city": "JACKSONVILLE",
      "state": 9,
      "stateSpecified": true
    },
    {
      "fromDt": "08/2007",
      "toDt": "05/2008",
      "orgNm": "JACKSONVILLE UNIVERSITY",
      "city": "JACKSONVILLE",
      "state": 9,
      "stateSpecified": true
    },
    {
      "fromDt": "05/2008",
      "toDt": "07/2008",
      "orgNm": "HANDSHAKE SOFTWARE",
      "city": "TALLAHASSEE",
      "state": 9,
      "stateSpecified": true
    },
    {
      "fromDt": "08/2008",
      "toDt": "05/2009",
      "orgNm": "JACKSONVILLE UNIVERSITY",
      "city": "JACKSONVILLE",
      "state": 9,
      "stateSpecified": true
    },
    {
      "fromDt": "05/2009",
      "toDt": "07/2009",
      "orgNm": "UNEMPLOYED",
      "city": "JACKSONVILLE",
      "state": 9,
      "stateSpecified": true
    },
    {
      "fromDt": "07/2009",
      "toDt": "07/2010",
      "orgNm": "METRO PCS",
      "city": "JACKSONVILLE",
      "state": 9,
      "stateSpecified": true
    },
    {
      "fromDt": "08/2010",
      "toDt": "08/2010",
      "orgNm": "T-MOBILE",
      "city": "JACKSONVILLE",
      "state": 9,
      "stateSpecified": true
    },
    {
      "fromDt": "09/2010",
      "toDt": "09/2010",
      "orgNm": "HH GREGG",
      "city": "JACKSONVILLE",
      "state": 9,
      "stateSpecified": true
    },
    {
      "fromDt": "10/2010",
      "toDt": "10/2010",
      "orgNm": "UNEMPLOYED",
      "city": "JACKSONVILLE",
      "state": 9,
      "stateSpecified": true
    },
    {
      "fromDt": "11/2010",
      "toDt": "03/2013",
      "orgNm": "SPRINT PCS",
      "city": "JACKSONVILLE",
      "state": 9,
      "stateSpecified": true
    },
    {
      "fromDt": "03/2013",
      "toDt": null,
      "orgNm": "MERRILL LYNCH, PIERCE, FENNER & SMITH INCORPORATED",
      "city": "JACKSONVILLE",
      "state": 9,
      "stateSpecified": true
    },
    {
      "fromDt": "05/2013",
      "toDt": null,
      "orgNm": "BANK OF AMERICA, N.A.",
      "city": "JACKSONVILLE",
      "state": 9,
      "stateSpecified": true
    }
  ],
  "OthrBuss": {
    "OthrBus": null
  },
  "DRPs": []
}