{
  "Info": {
    "lastNm": "SCHAFFER",
    "firstNm": "JUSTIN",
    "midNm": "LAWRENCE",
    "sufNm": null,
    "indvlPK": "6174341",
    "actvAGReg": 0,
    "link": "http://www.adviserinfo.sec.gov/IAPD/Individual/6174341"
  },
  "OthrNms": [],
  "CrntEmps": [
    {
      "CrntRgstns": [
        {
          "regAuth": 9,
          "regCat": 0,
          "st": 2,
          "stDt": "2016-05-09T00:00:00"
        }
      ],
      "BrnchOfLocs": [
        {
          "str1": "4211 WEST BOY SCOUT BOULEVARD",
          "str2": null,
          "city": "TAMPA",
          "state": 9,
          "stateSpecified": true,
          "cntry": "United States",
          "postlCd": "33607"
        }
      ],
      "orgNm": "T. ROWE PRICE ADVISORY SERVICES, INC.",
      "orgPK": "108958",
      "str1": "100 EAST PRATT STREET",
      "str2": null,
      "city": "BALTIMORE",
      "state": 21,
      "stateSpecified": true,
      "cntry": "United States",
      "postlCd": "21202"
    }
  ],
  "Exms": [
    {
      "exmCd": 0,
      "exmNm": "Uniform Securities Agent State Law Examination",
      "exmDt": "2013-04-22T00:00:00",
      "exmDtSpecified": true
    },
    {
      "exmCd": 3,
      "exmNm": "Uniform Combined State Law Examination",
      "exmDt": "2016-05-03T00:00:00",
      "exmDtSpecified": true
    }
  ],
  "Dsgntns": [],
  "PrevRgstns": [],
  "EmpHss": [
    {
      "fromDt": "08/2003",
      "toDt": "05/2007",
      "orgNm": "SEMINOLE HIGH SCHOOL",
      "city": "BOCA CIEGA",
      "state": 9,
      "stateSpecified": true
    },
    {
      "fromDt": "05/2006",
      "toDt": "08/2007",
      "orgNm": "RELIABLE PROPERTY MANAGEMENT",
      "city": "PINELLAS PARK",
      "state": 9,
      "stateSpecified": true
    },
    {
      "fromDt": "08/2007",
      "toDt": "08/2012",
      "orgNm": "UNIVERSITY OF NORTH FLORIDA",
      "city": "JACKSONVILLE",
      "state": 9,
      "stateSpecified": true
    },
    {
      "fromDt": "01/2008",
      "toDt": "01/2011",
      "orgNm": "SCHAFFER COMMUNICATIONS INC.",
      "city": "CLEARWATER",
      "state": 9,
      "stateSpecified": true
    },
    {
      "fromDt": "06/2010",
      "toDt": "08/2010",
      "orgNm": "EVERHOME MORTGAGE",
      "city": "JACKSONVILLE",
      "state": 9,
      "stateSpecified": true
    },
    {
      "fromDt": "10/2010",
      "toDt": "12/2010",
      "orgNm": "THE FIRST TEE",
      "city": "ST. AUGUSTINE",
      "state": 9,
      "stateSpecified": true
    },
    {
      "fromDt": "08/2012",
      "toDt": "03/2013",
      "orgNm": "UNEMPLOYED",
      "city": "CLEARWATER",
      "state": 9,
      "stateSpecified": true
    },
    {
      "fromDt": "03/2013",
      "toDt": "11/2013",
      "orgNm": "FIRST INVESTORS CORPORATION",
      "city": "TAMPA",
      "state": 9,
      "stateSpecified": true
    },
    {
      "fromDt": "11/2013",
      "toDt": "07/2014",
      "orgNm": "FIRST INVESTORS CORPORATION",
      "city": "TAMPA",
      "state": 9,
      "stateSpecified": true
    },
    {
      "fromDt": "07/2014",
      "toDt": "09/2015",
      "orgNm": "MASSACHUSETTS MUTUAL LIFE INSURANCE CO",
      "city": "TAMPA",
      "state": 9,
      "stateSpecified": true
    },
    {
      "fromDt": "07/2014",
      "toDt": "09/2015",
      "orgNm": "MML INVESTORS SERVICES, LLC",
      "city": "TAMPA",
      "state": 9,
      "stateSpecified": true
    },
    {
      "fromDt": "09/2015",
      "toDt": "11/2015",
      "orgNm": "Harwood Advisory Group, LLC",
      "city": "Largo",
      "state": 9,
      "stateSpecified": true
    },
    {
      "fromDt": "11/2015",
      "toDt": "02/2016",
      "orgNm": "Unemployed",
      "city": "clearwater",
      "state": 9,
      "stateSpecified": true
    },
    {
      "fromDt": "02/2016",
      "toDt": null,
      "orgNm": "T. Rowe Price",
      "city": "Tampa",
      "state": 9,
      "stateSpecified": true
    }
  ],
  "OthrBuss": {
    "OthrBus": {
      "desc": "Uber; not investment related; Tampa, Fl; 8/2016; driver; 20 hours/week 0 during trading hours."
    }
  },
  "DRPs": []
}