{
  "Info": {
    "lastNm": "BENTLEY",
    "firstNm": "CAROLINE",
    "midNm": "ELIZABETH",
    "sufNm": null,
    "indvlPK": "6176502",
    "actvAGReg": 0,
    "link": "http://www.adviserinfo.sec.gov/IAPD/Individual/6176502"
  },
  "OthrNms": [],
  "CrntEmps": [
    {
      "CrntRgstns": [
        {
          "regAuth": 1,
          "regCat": 0,
          "st": 2,
          "stDt": "2013-05-24T00:00:00"
        }
      ],
      "BrnchOfLocs": [
        {
          "str1": "501 MADISON STREET",
          "str2": null,
          "city": "HUNTSVILLE",
          "state": 1,
          "stateSpecified": true,
          "cntry": "United States",
          "postlCd": "35801"
        }
      ],
      "orgNm": "MORGAN STANLEY",
      "orgPK": "149777",
      "str1": "2000 WESTCHESTER AVENUE",
      "str2": null,
      "city": "PURCHASE",
      "state": 35,
      "stateSpecified": true,
      "cntry": "United States",
      "postlCd": "10577-2530"
    }
  ],
  "Exms": [
    {
      "exmCd": 3,
      "exmNm": "Uniform Combined State Law Examination",
      "exmDt": "2013-05-23T00:00:00",
      "exmDtSpecified": true
    }
  ],
  "Dsgntns": [],
  "PrevRgstns": [],
  "EmpHss": [
    {
      "fromDt": "08/2006",
      "toDt": "07/2008",
      "orgNm": "UNIVERSITY OF NORTH CAROLINA-CHARLOTTE",
      "city": "CHARLOTTE",
      "state": 28,
      "stateSpecified": true
    },
    {
      "fromDt": "08/2008",
      "toDt": "06/2010",
      "orgNm": "UNIVERSITY OF ALABAMA",
      "city": "TUSCALOOSA",
      "state": 1,
      "stateSpecified": true
    },
    {
      "fromDt": "07/2010",
      "toDt": "05/2011",
      "orgNm": "FURMAN UNIVERSITY",
      "city": "GREENVILLE",
      "state": 42,
      "stateSpecified": true
    },
    {
      "fromDt": "06/2011",
      "toDt": "12/2012",
      "orgNm": "J&S AND ASSOCIATES",
      "city": "HUNTSVILLE",
      "state": 1,
      "stateSpecified": true
    },
    {
      "fromDt": "03/2013",
      "toDt": null,
      "orgNm": "MORGAN STANLEY",
      "city": "HUNTSVILLE",
      "state": 1,
      "stateSpecified": true
    },
    {
      "fromDt": "01/2015",
      "toDt": null,
      "orgNm": "MORGAN STANLEY PRIVATE BANK, NATIONAL ASSOCIATION",
      "city": "NEW YORK",
      "state": 35,
      "stateSpecified": true
    }
  ],
  "OthrBuss": {
    "OthrBus": null
  },
  "DRPs": []
}