{
  "Info": {
    "lastNm": "LANG",
    "firstNm": "JARRETT",
    "midNm": "D",
    "sufNm": null,
    "indvlPK": "6178721",
    "actvAGReg": 1,
    "link": "http://www.adviserinfo.sec.gov/IAPD/Individual/6178721"
  },
  "OthrNms": [],
  "CrntEmps": [
    {
      "CrntRgstns": [
        {
          "regAuth": 36,
          "regCat": 0,
          "st": 2,
          "stDt": "2013-03-27T00:00:00"
        }
      ],
      "BrnchOfLocs": [
        {
          "str1": null,
          "str2": null,
          "city": "SANDUSKY",
          "state": 36,
          "stateSpecified": true,
          "cntry": "United States",
          "postlCd": null
        },
        {
          "str1": "4604 TIMBER COMMONS DRIVE",
          "str2": null,
          "city": "SANDUSKY",
          "state": 36,
          "stateSpecified": true,
          "cntry": "United States",
          "postlCd": "44870"
        }
      ],
      "orgNm": "GREAT LAKES RETIREMENT, INC.",
      "orgPK": "146608",
      "str1": "4604 TIMBER COMMONS DRIVE",
      "str2": null,
      "city": "SANDUSKY",
      "state": 36,
      "stateSpecified": true,
      "cntry": "United States",
      "postlCd": "44870"
    }
  ],
  "Exms": [
    {
      "exmCd": 2,
      "exmNm": "Uniform Investment Adviser Law Examination",
      "exmDt": "2013-02-07T00:00:00",
      "exmDtSpecified": true
    }
  ],
  "Dsgntns": [],
  "PrevRgstns": [],
  "EmpHss": [
    {
      "fromDt": "08/2003",
      "toDt": "06/2008",
      "orgNm": "THE OHIO STATE UNIVERSITY",
      "city": "COLUMBUS",
      "state": 36,
      "stateSpecified": true
    },
    {
      "fromDt": "06/2008",
      "toDt": "11/2008",
      "orgNm": "PLUM BROOK COUNTRY CLUB",
      "city": "SANDUSKY",
      "state": 36,
      "stateSpecified": true
    },
    {
      "fromDt": "11/2008",
      "toDt": "01/2012",
      "orgNm": "BEST PRACTICES, LLC",
      "city": "SANDUSKY",
      "state": 36,
      "stateSpecified": true
    },
    {
      "fromDt": "01/2012",
      "toDt": null,
      "orgNm": "W.A. SMITH FINANCIAL GROUP",
      "city": "SANDUSKY",
      "state": 36,
      "stateSpecified": true
    },
    {
      "fromDt": "03/2013",
      "toDt": null,
      "orgNm": "GREAT LAKES RETIREMENT, INC",
      "city": "SANDUSKY",
      "state": 36,
      "stateSpecified": true
    }
  ],
  "OthrBuss": {
    "OthrBus": null
  },
  "DRPs": []
}