{
  "Info": {
    "lastNm": "EBERLEIN",
    "firstNm": "KIMBERLY",
    "midNm": "KAY",
    "sufNm": null,
    "indvlPK": "6180042",
    "actvAGReg": 0,
    "link": "http://www.adviserinfo.sec.gov/IAPD/Individual/6180042"
  },
  "OthrNms": [
    {
      "lastNm": "EBERLEIN",
      "firstNm": "KIMBERLY",
      "midNm": "K",
      "sufNm": null
    },
    {
      "lastNm": "OLESKO",
      "firstNm": "KIMBERLY",
      "midNm": "KAY",
      "sufNm": null
    }
  ],
  "CrntEmps": [
    {
      "CrntRgstns": [
        {
          "regAuth": 45,
          "regCat": 0,
          "st": 2,
          "stDt": "2014-08-04T00:00:00"
        },
        {
          "regAuth": 23,
          "regCat": 0,
          "st": 2,
          "stDt": "2014-08-07T00:00:00"
        }
      ],
      "BrnchOfLocs": [
        {
          "str1": "39577 WOODWARD AVE",
          "str2": null,
          "city": "BLOOMFIELD HILLS",
          "state": 23,
          "stateSpecified": true,
          "cntry": "United States",
          "postlCd": "48304"
        }
      ],
      "orgNm": "MERRILL LYNCH, PIERCE, FENNER & SMITH INCORPORATED",
      "orgPK": "7691",
      "str1": "ONE BRYANT PARK",
      "str2": null,
      "city": "NEW YORK",
      "state": 35,
      "stateSpecified": true,
      "cntry": "United States",
      "postlCd": "10036"
    }
  ],
  "Exms": [
    {
      "exmCd": 3,
      "exmNm": "Uniform Combined State Law Examination",
      "exmDt": "2014-06-09T00:00:00",
      "exmDtSpecified": true
    }
  ],
  "Dsgntns": [],
  "PrevRgstns": [],
  "EmpHss": [
    {
      "fromDt": "07/2005",
      "toDt": "05/2007",
      "orgNm": "ANDIAMO NOVI",
      "city": "NOVI",
      "state": 23,
      "stateSpecified": true
    },
    {
      "fromDt": "05/2006",
      "toDt": "04/2007",
      "orgNm": "LIFETIME FITNESS",
      "city": "COMMERCE TWP.",
      "state": 23,
      "stateSpecified": true
    },
    {
      "fromDt": "05/2007",
      "toDt": "09/2007",
      "orgNm": "SIPS BAR AND GRILL",
      "city": "FARMINGTON HILLS",
      "state": 23,
      "stateSpecified": true
    },
    {
      "fromDt": "08/2007",
      "toDt": "09/2007",
      "orgNm": "ROOSEVELT'S BAR AND GRILL",
      "city": "FARMINGTON HILLS",
      "state": 23,
      "stateSpecified": true
    },
    {
      "fromDt": "09/2007",
      "toDt": "03/2008",
      "orgNm": "THE CHASE BAR AND GRILL",
      "city": "NORTHVILLE",
      "state": 23,
      "stateSpecified": true
    },
    {
      "fromDt": "03/2008",
      "toDt": "03/2013",
      "orgNm": "ANDIAMO LIVONIA",
      "city": "LIVONIA",
      "state": 23,
      "stateSpecified": true
    },
    {
      "fromDt": "09/2009",
      "toDt": "01/2010",
      "orgNm": "ORCHARD'S CHILDRENS SERVICES",
      "city": "SOUTHFIELD",
      "state": 23,
      "stateSpecified": true
    },
    {
      "fromDt": "03/2013",
      "toDt": null,
      "orgNm": "MERRILL LYNCH, PIERCE, FENNER AND SMITH INCORPORATED",
      "city": "BLOOMFIELD HILLS",
      "state": 23,
      "stateSpecified": true
    }
  ],
  "OthrBuss": {
    "OthrBus": null
  },
  "DRPs": []
}