{
  "Info": {
    "lastNm": "NGUYEN",
    "firstNm": "DERRICK",
    "midNm": null,
    "sufNm": null,
    "indvlPK": "6183697",
    "actvAGReg": 0,
    "link": "http://www.adviserinfo.sec.gov/IAPD/Individual/6183697"
  },
  "OthrNms": [],
  "CrntEmps": [
    {
      "CrntRgstns": [
        {
          "regAuth": 4,
          "regCat": 0,
          "st": 2,
          "stDt": "2015-04-21T00:00:00"
        }
      ],
      "BrnchOfLocs": [
        {
          "str1": "18400 VON KARMAN AVENUE",
          "str2": "SUITE 550",
          "city": "IRVINE",
          "state": 4,
          "stateSpecified": true,
          "cntry": "United States",
          "postlCd": "92612"
        }
      ],
      "orgNm": "LINCOLN FINANCIAL ADVISORS CORPORATION",
      "orgPK": "3978",
      "str1": "1300 SOUTH CLINTON STREET",
      "str2": "SUITE 150",
      "city": "FORT WAYNE",
      "state": 16,
      "stateSpecified": true,
      "cntry": "United States",
      "postlCd": "46802"
    }
  ],
  "Exms": [
    {
      "exmCd": 3,
      "exmNm": "Uniform Combined State Law Examination",
      "exmDt": "2015-04-20T00:00:00",
      "exmDtSpecified": true
    }
  ],
  "Dsgntns": [],
  "PrevRgstns": [],
  "EmpHss": [
    {
      "fromDt": "01/2004",
      "toDt": "06/2008",
      "orgNm": "NOT EMPLOYED",
      "city": "N/A",
      "state": 4,
      "stateSpecified": true
    },
    {
      "fromDt": "06/2008",
      "toDt": "12/2009",
      "orgNm": "PUPPIES @ MOONDOGGIES",
      "city": "HUNTINGTON BEACH",
      "state": 4,
      "stateSpecified": true
    },
    {
      "fromDt": "01/2010",
      "toDt": "06/2010",
      "orgNm": "GOLDEN STATE HUMANE SOCIETY",
      "city": "GARDEN GROVE",
      "state": 4,
      "stateSpecified": true
    },
    {
      "fromDt": "06/2010",
      "toDt": "10/2010",
      "orgNm": "FRIENDLY ANIMAL HOSPITAL",
      "city": "HUNTINGTON BEACH",
      "state": 4,
      "stateSpecified": true
    },
    {
      "fromDt": "06/2010",
      "toDt": "12/2010",
      "orgNm": "NUTRO CO.",
      "city": "LONG BEACH",
      "state": 4,
      "stateSpecified": true
    },
    {
      "fromDt": "01/2011",
      "toDt": "12/2011",
      "orgNm": "GYU-KAKU",
      "city": "HUNTINGTON BEACH",
      "state": 4,
      "stateSpecified": true
    },
    {
      "fromDt": "01/2012",
      "toDt": "02/2013",
      "orgNm": "PF CHANGS",
      "city": "IRVINE",
      "state": 4,
      "stateSpecified": true
    },
    {
      "fromDt": "02/2013",
      "toDt": "07/2013",
      "orgNm": "US BANK",
      "city": "FOUNTAIN VALLEY",
      "state": 4,
      "stateSpecified": true
    },
    {
      "fromDt": "06/2013",
      "toDt": "11/2014",
      "orgNm": "LINCOLN FINANCIAL ADVISORS",
      "city": "IRVINE",
      "state": 4,
      "stateSpecified": true
    },
    {
      "fromDt": "11/2014",
      "toDt": null,
      "orgNm": "LINCOLN FINANCIAL ADVISORS",
      "city": "IRVINE",
      "state": 4,
      "stateSpecified": true
    }
  ],
  "OthrBuss": {
    "OthrBus": {
      "desc": "1)DERRICK NGUYEN, 18400 VON KARMAN Suite 550, IRVINE, CA. INSURANCE, INVESTMENT RELATED, AGENT, OFFERING ACCIDENT/HEALTH INSURANCE, DISABILITY INSURANCE, FIXED/INDEXED ANNUITIES, LONG TERM CARE INSURANCE AND TRADITIONAL LIFE INSURANCE PRODUCTS. STARTED ON 01/2015 WORKING 40 HPM ALL DURING TRADING HOURS.   2)NAME AND ADDRESS:  TOKYO TABLE, 2710 ATLON PARKWAY, IRVINE, CA  CATEGORY:  RETAIL  INVESTMENT-RELATED:  NO  TITLE:  WAITER  DUTIES: WAIT TABLES AT RESTAURANT  START DATE: 1/2015  HOURS PER MONTH: 15  HOURS PER MONTH DURING TRADING HOURS:  0"
    }
  },
  "DRPs": []
}