{
  "Info": {
    "lastNm": "PRY",
    "firstNm": "MATHEW",
    "midNm": "C",
    "sufNm": null,
    "indvlPK": "6184625",
    "actvAGReg": 1,
    "link": "http://www.adviserinfo.sec.gov/IAPD/Individual/6184625"
  },
  "OthrNms": [],
  "CrntEmps": [
    {
      "CrntRgstns": [
        {
          "regAuth": 34,
          "regCat": 0,
          "st": 2,
          "stDt": "2013-06-27T00:00:00"
        }
      ],
      "BrnchOfLocs": [
        {
          "str1": "880 NORTHWOOD BOULEVARD",
          "str2": "SUITE 3",
          "city": "INCLINE VILLAGE",
          "state": 34,
          "stateSpecified": true,
          "cntry": "United States",
          "postlCd": "89451"
        }
      ],
      "orgNm": "GRANITE PEAK CAPITAL MANAGEMENT LLC",
      "orgPK": "166924",
      "str1": "880 NORTHWOOD BOULEVARD",
      "str2": "SUITE 3",
      "city": "INCLINE VILLAGE",
      "state": 34,
      "stateSpecified": true,
      "cntry": "United States",
      "postlCd": "89451"
    }
  ],
  "Exms": [
    {
      "exmCd": 2,
      "exmNm": "Uniform Investment Adviser Law Examination",
      "exmDt": "2013-05-22T00:00:00",
      "exmDtSpecified": true
    }
  ],
  "Dsgntns": [],
  "PrevRgstns": [],
  "EmpHss": [
    {
      "fromDt": "03/2006",
      "toDt": "08/2006",
      "orgNm": "AMERICORPS",
      "city": "SAN FRANCISCO",
      "state": 4,
      "stateSpecified": true
    },
    {
      "fromDt": "09/2006",
      "toDt": "09/2007",
      "orgNm": "THE OHIO STATE UNIVERSITY",
      "city": "COLUMBUS",
      "state": 36,
      "stateSpecified": true
    },
    {
      "fromDt": "06/2007",
      "toDt": "03/2011",
      "orgNm": "DIAMOND HILL CAPITAL MANAGEMENT",
      "city": "COLUMBUS",
      "state": 4,
      "stateSpecified": true
    },
    {
      "fromDt": "05/2011",
      "toDt": null,
      "orgNm": "GRANITE PEAK CAPITAL MANAGEMENT LLC",
      "city": "INCLINE VILLAGE",
      "state": 34,
      "stateSpecified": true
    }
  ],
  "OthrBuss": {
    "OthrBus": null
  },
  "DRPs": []
}