{
  "Info": {
    "lastNm": "WITSMAN",
    "firstNm": "MICHAEL",
    "midNm": "JOSEPH",
    "sufNm": "J",
    "indvlPK": "6188945",
    "actvAGReg": 0,
    "link": "http://www.adviserinfo.sec.gov/IAPD/Individual/6188945"
  },
  "OthrNms": [
    {
      "lastNm": "WITSMAN",
      "firstNm": "MICHAEL",
      "midNm": "JOSEPH",
      "sufNm": null
    }
  ],
  "CrntEmps": [
    {
      "CrntRgstns": [
        {
          "regAuth": 15,
          "regCat": 0,
          "st": 2,
          "stDt": "2014-10-14T00:00:00"
        }
      ],
      "BrnchOfLocs": [
        {
          "str1": "2509 WEST ILES AVENUE",
          "str2": null,
          "city": "SPRINGFIELD",
          "state": 15,
          "stateSpecified": true,
          "cntry": "United States",
          "postlCd": "62704"
        }
      ],
      "orgNm": "PRUCO SECURITIES, LLC.",
      "orgPK": "5685",
      "str1": "751 BROAD STREET",
      "str2": null,
      "city": "NEWARK",
      "state": 32,
      "stateSpecified": true,
      "cntry": "United States",
      "postlCd": "07102-3777"
    }
  ],
  "Exms": [
    {
      "exmCd": 0,
      "exmNm": "Uniform Securities Agent State Law Examination",
      "exmDt": "2013-07-16T00:00:00",
      "exmDtSpecified": true
    },
    {
      "exmCd": 2,
      "exmNm": "Uniform Investment Adviser Law Examination",
      "exmDt": "2014-10-09T00:00:00",
      "exmDtSpecified": true
    }
  ],
  "Dsgntns": [],
  "PrevRgstns": [],
  "EmpHss": [
    {
      "fromDt": "05/2003",
      "toDt": "04/2013",
      "orgNm": "UNEMPLOYED",
      "city": "SPRINGFIELD",
      "state": 15,
      "stateSpecified": true
    },
    {
      "fromDt": "04/2013",
      "toDt": null,
      "orgNm": "PRUCO SECURITIES LLC",
      "city": "SPRINGFIELD",
      "state": 15,
      "stateSpecified": true
    },
    {
      "fromDt": "04/2013",
      "toDt": null,
      "orgNm": "THE PRUDENTIAL INSURANCE COMPANY OF AMERICA",
      "city": "SPRINGFIELD",
      "state": 15,
      "stateSpecified": true
    }
  ],
  "OthrBuss": {
    "OthrBus": {
      "desc": "American Bus Club~PO Box 20408, Springfield, IL 62702~Working with the Parking & Finance to help run the duties the club has.~N~Finance Dept for Illinois State Fair~8/2016~32 hrs/mo~0 trading hrs/mo"
    }
  },
  "DRPs": []
}