{
  "Info": {
    "lastNm": "SCHRAM",
    "firstNm": "FRANCES",
    "midNm": "E",
    "sufNm": null,
    "indvlPK": "6191941",
    "actvAGReg": 0,
    "link": "http://www.adviserinfo.sec.gov/IAPD/Individual/6191941"
  },
  "OthrNms": [
    {
      "lastNm": "CHASE",
      "firstNm": "FRANCES",
      "midNm": "E",
      "sufNm": null
    },
    {
      "lastNm": "SCHRAM",
      "firstNm": "FRANCES",
      "midNm": null,
      "sufNm": null
    }
  ],
  "CrntEmps": [
    {
      "CrntRgstns": [
        {
          "regAuth": 49,
          "regCat": 0,
          "st": 2,
          "stDt": "2015-10-01T00:00:00"
        }
      ],
      "BrnchOfLocs": [
        {
          "str1": "126 WELLS AVE S",
          "str2": null,
          "city": "RENTON",
          "state": 49,
          "stateSpecified": true,
          "cntry": "United States",
          "postlCd": "98057"
        },
        {
          "str1": "27001 176TH PLACE SE",
          "str2": null,
          "city": "COVINGTON",
          "state": 49,
          "stateSpecified": true,
          "cntry": "United States",
          "postlCd": "98042"
        }
      ],
      "orgNm": "AMERIPRISE FINANCIAL SERVICES, INC.",
      "orgPK": "6363",
      "str1": "707 2ND AVENUE SOUTH",
      "str2": null,
      "city": "MINNEAPOLIS",
      "state": 24,
      "stateSpecified": true,
      "cntry": "United States",
      "postlCd": "55402"
    }
  ],
  "Exms": [
    {
      "exmCd": 0,
      "exmNm": "Uniform Securities Agent State Law Examination",
      "exmDt": "2014-03-11T00:00:00",
      "exmDtSpecified": true
    },
    {
      "exmCd": 2,
      "exmNm": "Uniform Investment Adviser Law Examination",
      "exmDt": "2015-01-07T00:00:00",
      "exmDtSpecified": true
    }
  ],
  "Dsgntns": [],
  "PrevRgstns": [],
  "EmpHss": [
    {
      "fromDt": "08/1991",
      "toDt": null,
      "orgNm": "SCHRAM & ASSOCIATES",
      "city": "COVINGTON",
      "state": 49,
      "stateSpecified": true
    },
    {
      "fromDt": "05/2013",
      "toDt": null,
      "orgNm": "AMERIPRISE FINANCIAL SERVICES",
      "city": "RENTON",
      "state": 49,
      "stateSpecified": true
    }
  ],
  "OthrBuss": {
    "OthrBus": {
      "desc": "REAL ESTATE OWNERSHIP ; SINGLE FAMILY ; COVINGTON, WA 98042; MAY 2005.     BUSINESS OWNERSHIP ; SCHRAM & ASSOCIATES; PRESIDENT; TAX PREPARATION (CPA) ; COVINGTON, WA 98042; AUGUST 1988; 60+ HRS PER MONTH; 60+ DURING TRADING HRS.      OUTSIDE EMPLOYMENT ; SCHRAM & ASSOCIATES; PRESIDENT; TAX PREPARATION (CPA) ;COVINGTON, WA 98042; AUGUST 19988;  60+ HRS PER MONTH; 60+ DURING TRADING HRS.        FIDUCIARY ACTIVITIES ; NIECE; MAY 2012."
    }
  },
  "DRPs": []
}