{
  "Info": {
    "lastNm": "MALY",
    "firstNm": "THABATA",
    "midNm": "RIBEIRO",
    "sufNm": null,
    "indvlPK": "6192054",
    "actvAGReg": 0,
    "link": "http://www.adviserinfo.sec.gov/IAPD/Individual/6192054"
  },
  "OthrNms": [
    {
      "lastNm": "MORGATH RIBEIRO",
      "firstNm": "THABATA",
      "midNm": null,
      "sufNm": null
    },
    {
      "lastNm": "RIBEIRO",
      "firstNm": "THABATA",
      "midNm": null,
      "sufNm": null
    },
    {
      "lastNm": "RIBEIRO",
      "firstNm": "THABATA",
      "midNm": "MORGATH",
      "sufNm": null
    },
    {
      "lastNm": "THABATA",
      "firstNm": "RIBEIRO",
      "midNm": null,
      "sufNm": null
    }
  ],
  "CrntEmps": [
    {
      "CrntRgstns": [
        {
          "regAuth": 45,
          "regCat": 0,
          "st": 3,
          "stDt": "2014-06-10T00:00:00"
        }
      ],
      "BrnchOfLocs": [
        {
          "str1": "1221 AVE OF THE AMERICAS",
          "str2": "5TH FLOOR",
          "city": "NEW YORK",
          "state": 35,
          "stateSpecified": true,
          "cntry": "United States",
          "postlCd": "10020"
        },
        {
          "str1": "2000 WESTCHESTER AVENUE",
          "str2": null,
          "city": "PURCHASE",
          "state": 35,
          "stateSpecified": true,
          "cntry": "USA",
          "postlCd": "10577-2530"
        }
      ],
      "orgNm": "MORGAN STANLEY",
      "orgPK": "149777",
      "str1": "2000 WESTCHESTER AVENUE",
      "str2": null,
      "city": "PURCHASE",
      "state": 35,
      "stateSpecified": true,
      "cntry": "United States",
      "postlCd": "10577-2530"
    }
  ],
  "Exms": [
    {
      "exmCd": 0,
      "exmNm": "Uniform Securities Agent State Law Examination",
      "exmDt": "2014-05-21T00:00:00",
      "exmDtSpecified": true
    }
  ],
  "Dsgntns": [],
  "PrevRgstns": [],
  "EmpHss": [
    {
      "fromDt": "01/2003",
      "toDt": "08/2007",
      "orgNm": "MIDDLE /  HIGH SCHOOL",
      "city": "WHITE PLAINS",
      "state": 35,
      "stateSpecified": true
    },
    {
      "fromDt": "08/2007",
      "toDt": "08/2012",
      "orgNm": "UNDERGRAD / GRAD SCHOOL",
      "city": "NEW YORK",
      "state": 35,
      "stateSpecified": true
    },
    {
      "fromDt": "08/2012",
      "toDt": "05/2013",
      "orgNm": "CIPERHEALTH",
      "city": "NEW YORK",
      "state": 35,
      "stateSpecified": true
    },
    {
      "fromDt": "05/2013",
      "toDt": null,
      "orgNm": "MORGAN STANLEY PRIVATE BANK, N.A.",
      "city": "PURCHASE",
      "state": 35,
      "stateSpecified": true
    },
    {
      "fromDt": "05/2013",
      "toDt": null,
      "orgNm": "MORGAN STANLEY SMITH BARNEY LLC",
      "city": "PURCHASE",
      "state": 35,
      "stateSpecified": true
    }
  ],
  "OthrBuss": {
    "OthrBus": null
  },
  "DRPs": []
}