{
  "Info": {
    "lastNm": "Hein",
    "firstNm": "Benjamin",
    "midNm": "Edward",
    "sufNm": null,
    "indvlPK": "6192458",
    "actvAGReg": 0,
    "link": "http://www.adviserinfo.sec.gov/IAPD/Individual/6192458"
  },
  "OthrNms": [],
  "CrntEmps": [
    {
      "CrntRgstns": [
        {
          "regAuth": 25,
          "regCat": 0,
          "st": 2,
          "stDt": "2013-09-13T00:00:00"
        },
        {
          "regAuth": 9,
          "regCat": 0,
          "st": 2,
          "stDt": "2014-04-01T00:00:00"
        }
      ],
      "BrnchOfLocs": [
        {
          "str1": "7000 PINE FOREST RD STE B",
          "str2": null,
          "city": "PENSACOLA",
          "state": 9,
          "stateSpecified": true,
          "cntry": "United States",
          "postlCd": "32526"
        }
      ],
      "orgNm": "EDWARD JONES",
      "orgPK": "250",
      "str1": "12555 MANCHESTER RD",
      "str2": null,
      "city": "ST. LOUIS",
      "state": 25,
      "stateSpecified": true,
      "cntry": "United States",
      "postlCd": "63131"
    }
  ],
  "Exms": [
    {
      "exmCd": 3,
      "exmNm": "Uniform Combined State Law Examination",
      "exmDt": "2013-09-12T00:00:00",
      "exmDtSpecified": true
    }
  ],
  "Dsgntns": [],
  "PrevRgstns": [],
  "EmpHss": [
    {
      "fromDt": "10/2004",
      "toDt": "10/2010",
      "orgNm": "DINERSNATION.COM LLC",
      "city": "DESTIN",
      "state": 9,
      "stateSpecified": true
    },
    {
      "fromDt": "06/2006",
      "toDt": "06/2012",
      "orgNm": "FULL-TIME COLLEGE EDUCATION",
      "city": "ORLANDO AND NICEVILLE",
      "state": 9,
      "stateSpecified": true
    },
    {
      "fromDt": "04/2008",
      "toDt": "09/2010",
      "orgNm": "CANDLEWOOD SUITES",
      "city": "MIRIMAR/DESTIN",
      "state": 9,
      "stateSpecified": true
    },
    {
      "fromDt": "03/2011",
      "toDt": "05/2013",
      "orgNm": "THE HOME DEPOT",
      "city": "FORT WALTON BEACH",
      "state": 9,
      "stateSpecified": true
    },
    {
      "fromDt": "05/2013",
      "toDt": null,
      "orgNm": "EDWARD JONES",
      "city": "ST LOUIS",
      "state": 25,
      "stateSpecified": true
    }
  ],
  "OthrBuss": {
    "OthrBus": {
      "desc": "EMERALD COAST FILM GROUP TYPE OF BUSINESS: FILM CLUB  PENSACOLA, FL  START DATE: 6/2/2015  WRITER AND PRODUCER  HOURS PER WEEK: 1  HOURS DURING TRADING: 0  I CONNECT PEOPLE WITHIN A GROUP OF 1500 SOME-ODD FILM ENTHUSIASTS FROM ACROSS THE PANHANDLE OF FLORIDA AND ALABAMA THAT EXCHANGE IDEAS AND COMBINE RESOURCES TO MAKE INDEPENDENT FILMS. I ACT AS A SCREENWRITER & PRODUCER.  IN THE PAST, HAVE COMPETED IN OVER 20 FILM FESTIVALS ACROSS THE COUNTRY."
    }
  },
  "DRPs": []
}