{
  "Info": {
    "lastNm": "JUNG",
    "firstNm": "JONATHAN",
    "midNm": "LOUIS",
    "sufNm": null,
    "indvlPK": "6195393",
    "actvAGReg": 0,
    "link": "http://www.adviserinfo.sec.gov/IAPD/Individual/6195393"
  },
  "OthrNms": [],
  "CrntEmps": [
    {
      "CrntRgstns": [
        {
          "regAuth": 9,
          "regCat": 0,
          "st": 2,
          "stDt": "2014-12-01T00:00:00"
        }
      ],
      "BrnchOfLocs": [
        {
          "str1": "1892 EAST BURLEIGH BLVD",
          "str2": null,
          "city": "TAVARES",
          "state": 9,
          "stateSpecified": true,
          "cntry": "United States",
          "postlCd": "32778"
        }
      ],
      "orgNm": "NBC SECURITIES, INC.",
      "orgPK": "17870",
      "str1": "1927 FIRST AVENUE NORTH",
      "str2": null,
      "city": "BIRMINGHAM",
      "state": 1,
      "stateSpecified": true,
      "cntry": "United States",
      "postlCd": "35203"
    }
  ],
  "Exms": [
    {
      "exmCd": 3,
      "exmNm": "Uniform Combined State Law Examination",
      "exmDt": "2014-11-17T00:00:00",
      "exmDtSpecified": true
    }
  ],
  "Dsgntns": [],
  "PrevRgstns": [],
  "EmpHss": [
    {
      "fromDt": "07/2006",
      "toDt": "05/2007",
      "orgNm": "UNEMPLOYED - STUDENT",
      "city": "ANGOLA",
      "state": 16,
      "stateSpecified": true
    },
    {
      "fromDt": "05/2007",
      "toDt": "09/2008",
      "orgNm": "TRI STATE UNIVERSITY",
      "city": "ANGOLA",
      "state": 16,
      "stateSpecified": true
    },
    {
      "fromDt": "09/2008",
      "toDt": "05/2009",
      "orgNm": "UNEMPOYED - STUDENT",
      "city": "ANGOLA",
      "state": 16,
      "stateSpecified": true
    },
    {
      "fromDt": "05/2009",
      "toDt": "04/2010",
      "orgNm": "GAYS HOPS N SCHNAPPS",
      "city": "ANGOLA",
      "state": 16,
      "stateSpecified": true
    },
    {
      "fromDt": "05/2010",
      "toDt": "06/2011",
      "orgNm": "UNEMPLOYED",
      "city": "CASSELBERRY",
      "state": 9,
      "stateSpecified": true
    },
    {
      "fromDt": "06/2011",
      "toDt": "11/2011",
      "orgNm": "SEARS",
      "city": "LAKE MARY",
      "state": 9,
      "stateSpecified": true
    },
    {
      "fromDt": "11/2011",
      "toDt": "02/2012",
      "orgNm": "UNEMPLOYED",
      "city": "CASSELBERRY",
      "state": 9,
      "stateSpecified": true
    },
    {
      "fromDt": "11/2011",
      "toDt": "02/2012",
      "orgNm": "UNEMPLOYED",
      "city": "CASSELBERRY",
      "state": 9,
      "stateSpecified": true
    },
    {
      "fromDt": "02/2012",
      "toDt": null,
      "orgNm": "NBC SECURITIES, INC.",
      "city": "TAVARES",
      "state": 9,
      "stateSpecified": true
    }
  ],
  "OthrBuss": {
    "OthrBus": null
  },
  "DRPs": []
}