{
  "Info": {
    "lastNm": "Allen",
    "firstNm": "Jared",
    "midNm": null,
    "sufNm": null,
    "indvlPK": "6199002",
    "actvAGReg": 0,
    "link": "http://www.adviserinfo.sec.gov/IAPD/Individual/6199002"
  },
  "OthrNms": [
    {
      "lastNm": "ALLEN",
      "firstNm": "JARED",
      "midNm": "CHRISTOPHER",
      "sufNm": null
    }
  ],
  "CrntEmps": [
    {
      "CrntRgstns": [
        {
          "regAuth": 21,
          "regCat": 0,
          "st": 2,
          "stDt": "2014-08-06T00:00:00"
        }
      ],
      "BrnchOfLocs": [
        {
          "str1": "1039A PULASKI HWY",
          "str2": null,
          "city": "HAVRE DE GRACE",
          "state": 21,
          "stateSpecified": true,
          "cntry": "United States",
          "postlCd": "21078-2603"
        }
      ],
      "orgNm": "EDWARD JONES",
      "orgPK": "250",
      "str1": "12555 MANCHESTER RD",
      "str2": null,
      "city": "ST. LOUIS",
      "state": 25,
      "stateSpecified": true,
      "cntry": "United States",
      "postlCd": "63131"
    }
  ],
  "Exms": [
    {
      "exmCd": 3,
      "exmNm": "Uniform Combined State Law Examination",
      "exmDt": "2014-03-14T00:00:00",
      "exmDtSpecified": true
    }
  ],
  "Dsgntns": [],
  "PrevRgstns": [],
  "EmpHss": [
    {
      "fromDt": "01/2004",
      "toDt": "04/2007",
      "orgNm": "FULL TIME EDUCATION",
      "city": "HAVRE DE GRACE",
      "state": 21,
      "stateSpecified": true
    },
    {
      "fromDt": "04/2007",
      "toDt": "06/2010",
      "orgNm": "SELF EMPLOYMENT",
      "city": "HAVRE DE GRACE",
      "state": 21,
      "stateSpecified": true
    },
    {
      "fromDt": "04/2009",
      "toDt": "08/2009",
      "orgNm": "RITA'S",
      "city": "HAVRE DE GRACE",
      "state": 21,
      "stateSpecified": true
    },
    {
      "fromDt": "02/2010",
      "toDt": "12/2010",
      "orgNm": "PIZZA HUT",
      "city": "HAVRE DE GRACE",
      "state": 21,
      "stateSpecified": true
    },
    {
      "fromDt": "12/2010",
      "toDt": "06/2013",
      "orgNm": "MANCHESTER UNIVERSITY",
      "city": "NORTH MANCHESTER",
      "state": 16,
      "stateSpecified": true
    },
    {
      "fromDt": "06/2011",
      "toDt": "08/2011",
      "orgNm": "HILTON CORPORATION",
      "city": "ABERDEEN",
      "state": 21,
      "stateSpecified": true
    },
    {
      "fromDt": "06/2011",
      "toDt": "12/2012",
      "orgNm": "NIKE",
      "city": "PERRYVILLE",
      "state": 21,
      "stateSpecified": true
    },
    {
      "fromDt": "06/2012",
      "toDt": "08/2012",
      "orgNm": "LA TOLTECA",
      "city": "ABERDEEN",
      "state": 21,
      "stateSpecified": true
    },
    {
      "fromDt": "08/2012",
      "toDt": "06/2013",
      "orgNm": "MANCHESTER UNIVERSITY",
      "city": "NORTH MANCHESTER",
      "state": 16,
      "stateSpecified": true
    },
    {
      "fromDt": "06/2013",
      "toDt": "08/2013",
      "orgNm": "EDWARD JONES",
      "city": "HAVRE DE GRACE",
      "state": 21,
      "stateSpecified": true
    },
    {
      "fromDt": "08/2013",
      "toDt": "12/2013",
      "orgNm": "MANCHESTER UNIVERSITY",
      "city": "NORTH MANCHESTER",
      "state": 16,
      "stateSpecified": true
    },
    {
      "fromDt": "01/2014",
      "toDt": null,
      "orgNm": "EDWARD JONES",
      "city": "ST LOUIS",
      "state": 25,
      "stateSpecified": true
    }
  ],
  "OthrBuss": {
    "OthrBus": {
      "desc": "Edgewood High School Academy of Finance Edgewood, MD  Start date: 1/1/2016  Board Member  Hours per week: 0  Hours during trading: 0  Plan fundraising activities and coordinate alumni to speak in the classrooms to students"
    }
  },
  "DRPs": []
}