{
  "Info": {
    "lastNm": "RICE",
    "firstNm": "J",
    "midNm": "ERIC",
    "sufNm": "JR",
    "indvlPK": "6204339",
    "actvAGReg": 0,
    "link": "http://www.adviserinfo.sec.gov/IAPD/Individual/6204339"
  },
  "OthrNms": [
    {
      "lastNm": "RICE",
      "firstNm": "J",
      "midNm": "ERIC",
      "sufNm": null
    },
    {
      "lastNm": "RICE",
      "firstNm": "J",
      "midNm": "ERIC",
      "sufNm": "JR"
    },
    {
      "lastNm": "RICE",
      "firstNm": "JAY",
      "midNm": "ERIC",
      "sufNm": null
    }
  ],
  "CrntEmps": [
    {
      "CrntRgstns": [
        {
          "regAuth": 7,
          "regCat": 0,
          "st": 2,
          "stDt": "2015-08-19T00:00:00"
        },
        {
          "regAuth": 45,
          "regCat": 0,
          "st": 3,
          "stDt": "2015-08-28T00:00:00"
        }
      ],
      "BrnchOfLocs": [
        {
          "str1": "1152 15TH ST NW",
          "str2": null,
          "city": "WASHINGTON",
          "state": 7,
          "stateSpecified": true,
          "cntry": "United States",
          "postlCd": "20005"
        }
      ],
      "orgNm": "MERRILL LYNCH, PIERCE, FENNER & SMITH INCORPORATED",
      "orgPK": "7691",
      "str1": "ONE BRYANT PARK",
      "str2": null,
      "city": "NEW YORK",
      "state": 35,
      "stateSpecified": true,
      "cntry": "United States",
      "postlCd": "10036"
    }
  ],
  "Exms": [
    {
      "exmCd": 3,
      "exmNm": "Uniform Combined State Law Examination",
      "exmDt": "2013-08-09T00:00:00",
      "exmDtSpecified": true
    }
  ],
  "Dsgntns": [],
  "PrevRgstns": [
    {
      "BrnchOfLocs": [
        {
          "city": "TEMPE",
          "state": 3,
          "stateSpecified": true
        },
        {
          "city": "TEMPE",
          "state": 3,
          "stateSpecified": true
        },
        {
          "city": "WOODBRIDGE",
          "state": 47,
          "stateSpecified": true
        }
      ],
      "orgNm": "EDWARD JONES",
      "orgPK": "250",
      "regBeginDt": "2013-08-29T00:00:00",
      "regBeginDtSpecified": true,
      "regEndDt": "2013-12-26T00:00:00",
      "regEndDtSpecified": true
    }
  ],
  "EmpHss": [
    {
      "fromDt": "09/2005",
      "toDt": "06/2009",
      "orgNm": "ROANOKE CATHOLIC HIGH SCHOOL",
      "city": "ROANOKE",
      "state": 47,
      "stateSpecified": true
    },
    {
      "fromDt": "07/2008",
      "toDt": "07/2008",
      "orgNm": "SONIC",
      "city": "ROANOKE",
      "state": 47,
      "stateSpecified": true
    },
    {
      "fromDt": "04/2009",
      "toDt": "12/2010",
      "orgNm": "KROGER",
      "city": "ROANOKE",
      "state": 47,
      "stateSpecified": true
    },
    {
      "fromDt": "12/2010",
      "toDt": "06/2011",
      "orgNm": "UNEMPLOYED",
      "city": "ROANOKE",
      "state": 47,
      "stateSpecified": true
    },
    {
      "fromDt": "06/2011",
      "toDt": "01/2013",
      "orgNm": "WHITEHURST ASSOCIATES",
      "city": "NEW BERN",
      "state": 28,
      "stateSpecified": true
    },
    {
      "fromDt": "09/2011",
      "toDt": "08/2013",
      "orgNm": "ARAMARK",
      "city": "LEXINGTON",
      "state": 47,
      "stateSpecified": true
    },
    {
      "fromDt": "06/2013",
      "toDt": "06/2015",
      "orgNm": "EDWARD JONES",
      "city": "ST LOUIS",
      "state": 25,
      "stateSpecified": true
    },
    {
      "fromDt": "11/2013",
      "toDt": "07/2015",
      "orgNm": "GOLD HOLDING (GOLD'S GYM)",
      "city": "FAIRFAX STATION",
      "state": 47,
      "stateSpecified": true
    },
    {
      "fromDt": "06/2015",
      "toDt": null,
      "orgNm": "MERRILL LYNCH, PIERCE, FENNER & SMITH INCORPORATED",
      "city": "WASHINGTON",
      "state": 7,
      "stateSpecified": true
    }
  ],
  "OthrBuss": {
    "OthrBus": null
  },
  "DRPs": []
}