{
  "Info": {
    "lastNm": "CULLOP",
    "firstNm": "BENJAMIN",
    "midNm": "NIEL",
    "sufNm": null,
    "indvlPK": "6204627",
    "actvAGReg": 1,
    "link": "http://www.adviserinfo.sec.gov/IAPD/Individual/6204627"
  },
  "OthrNms": [],
  "CrntEmps": [
    {
      "CrntRgstns": [
        {
          "regAuth": 47,
          "regCat": 0,
          "st": 2,
          "stDt": "2013-10-01T00:00:00"
        }
      ],
      "BrnchOfLocs": [
        {
          "str1": "3657 MAIN STREET",
          "str2": null,
          "city": "MANCHESTER",
          "state": 48,
          "stateSpecified": true,
          "cntry": "United States",
          "postlCd": "05254"
        }
      ],
      "orgNm": "MANCHESTER CAPITAL MANAGEMENT LLC",
      "orgPK": "110003",
      "str1": "3657 MAIN STREET",
      "str2": null,
      "city": "MANCHESTER",
      "state": 48,
      "stateSpecified": true,
      "cntry": "United States",
      "postlCd": "05254"
    }
  ],
  "Exms": [
    {
      "exmCd": 2,
      "exmNm": "Uniform Investment Adviser Law Examination",
      "exmDt": "2013-10-01T00:00:00",
      "exmDtSpecified": true
    }
  ],
  "Dsgntns": [],
  "PrevRgstns": [],
  "EmpHss": [
    {
      "fromDt": "06/2005",
      "toDt": "07/2009",
      "orgNm": "UNIVERSITY OF VIRGINIA",
      "city": "CHARLOTTESVILLE",
      "state": 47,
      "stateSpecified": true
    },
    {
      "fromDt": "07/2009",
      "toDt": "07/2011",
      "orgNm": "UNIVERSITY OFVIRGINIA",
      "city": "CHARLOTTESVILLE",
      "state": 47,
      "stateSpecified": true
    },
    {
      "fromDt": "06/2010",
      "toDt": "08/2011",
      "orgNm": "T ROWE PRICE",
      "city": "BALTIMORE",
      "state": 21,
      "stateSpecified": true
    },
    {
      "fromDt": "08/2011",
      "toDt": "01/2013",
      "orgNm": "M & T BANK",
      "city": "WASHINGTON",
      "state": 7,
      "stateSpecified": true
    },
    {
      "fromDt": "01/2013",
      "toDt": "04/2013",
      "orgNm": "M & T BANK",
      "city": "WASHINGTON",
      "state": 7,
      "stateSpecified": true
    },
    {
      "fromDt": "04/2013",
      "toDt": null,
      "orgNm": "MANCHESTER CAPITAL MANAGEMENT",
      "city": "CHARLOTTESVILLE",
      "state": 47,
      "stateSpecified": true
    }
  ],
  "OthrBuss": {
    "OthrBus": null
  },
  "DRPs": []
}