{
  "Info": {
    "lastNm": "O'KEEFE",
    "firstNm": "JOHN",
    "midNm": "TIMOTHY",
    "sufNm": null,
    "indvlPK": "6206152",
    "actvAGReg": 0,
    "link": "http://www.adviserinfo.sec.gov/IAPD/Individual/6206152"
  },
  "OthrNms": [
    {
      "lastNm": "OKEEFE",
      "firstNm": "JOHN",
      "midNm": "TIMOTHY",
      "sufNm": null
    }
  ],
  "CrntEmps": [
    {
      "CrntRgstns": [
        {
          "regAuth": 24,
          "regCat": 0,
          "st": 2,
          "stDt": "2015-08-10T00:00:00"
        }
      ],
      "BrnchOfLocs": [
        {
          "str1": "753 AMERIPRISE FINANCIAL CTR",
          "str2": null,
          "city": "MINNEAPOLIS",
          "state": 24,
          "stateSpecified": true,
          "cntry": "United States",
          "postlCd": "55474-0007"
        }
      ],
      "orgNm": "AMERIPRISE FINANCIAL SERVICES, INC.",
      "orgPK": "6363",
      "str1": "707 2ND AVENUE SOUTH",
      "str2": null,
      "city": "MINNEAPOLIS",
      "state": 24,
      "stateSpecified": true,
      "cntry": "United States",
      "postlCd": "55402"
    }
  ],
  "Exms": [
    {
      "exmCd": 0,
      "exmNm": "Uniform Securities Agent State Law Examination",
      "exmDt": "2013-07-25T00:00:00",
      "exmDtSpecified": true
    },
    {
      "exmCd": 2,
      "exmNm": "Uniform Investment Adviser Law Examination",
      "exmDt": "2015-05-19T00:00:00",
      "exmDtSpecified": true
    }
  ],
  "Dsgntns": [],
  "PrevRgstns": [],
  "EmpHss": [
    {
      "fromDt": "05/1994",
      "toDt": "06/2009",
      "orgNm": "MN SCHOOL DISTRICT 200",
      "city": "HASTINGS",
      "state": 24,
      "stateSpecified": true
    },
    {
      "fromDt": "05/2006",
      "toDt": "09/2008",
      "orgNm": "HASTINGS FAMILY AQUATIC CENTER",
      "city": "HASTINGS",
      "state": 24,
      "stateSpecified": true
    },
    {
      "fromDt": "09/2009",
      "toDt": "05/2013",
      "orgNm": "UNIVERSITY OF MINNESOTA DULUTH",
      "city": "DULUTH",
      "state": 24,
      "stateSpecified": true
    },
    {
      "fromDt": "09/2011",
      "toDt": "05/2013",
      "orgNm": "APPLEBEE'S INTERNATIONAL INC.",
      "city": "DULUTH",
      "state": 24,
      "stateSpecified": true
    },
    {
      "fromDt": "06/2013",
      "toDt": null,
      "orgNm": "AMERIPRISE FINANCIAL SERVICES,INC..",
      "city": "MINNEAPOLIS",
      "state": 24,
      "stateSpecified": true
    }
  ],
  "OthrBuss": {
    "OthrBus": null
  },
  "DRPs": []
}