{
  "Info": {
    "lastNm": "CLARK",
    "firstNm": "BRET",
    "midNm": "JOSEPH",
    "sufNm": null,
    "indvlPK": "6212220",
    "actvAGReg": 0,
    "link": "http://www.adviserinfo.sec.gov/IAPD/Individual/6212220"
  },
  "OthrNms": [
    {
      "lastNm": "CLARK",
      "firstNm": "BRET",
      "midNm": "J",
      "sufNm": null
    }
  ],
  "CrntEmps": [
    {
      "CrntRgstns": [
        {
          "regAuth": 20,
          "regCat": 0,
          "st": 2,
          "stDt": "2015-11-09T00:00:00"
        }
      ],
      "BrnchOfLocs": [
        {
          "str1": "225 FRANKLIN STREET",
          "str2": null,
          "city": "BOSTON",
          "state": 20,
          "stateSpecified": true,
          "cntry": "United States",
          "postlCd": "02110"
        }
      ],
      "orgNm": "COLUMBIA MANAGEMENT INVESTMENT ADVISERS, LLC",
      "orgPK": "108257",
      "str1": "225 FRANKLIN STREET",
      "str2": null,
      "city": "BOSTON",
      "state": 20,
      "stateSpecified": true,
      "cntry": "United States",
      "postlCd": "02110"
    }
  ],
  "Exms": [
    {
      "exmCd": 0,
      "exmNm": "Uniform Securities Agent State Law Examination",
      "exmDt": "2015-01-07T00:00:00",
      "exmDtSpecified": true
    },
    {
      "exmCd": 2,
      "exmNm": "Uniform Investment Adviser Law Examination",
      "exmDt": "2015-11-04T00:00:00",
      "exmDtSpecified": true
    }
  ],
  "Dsgntns": [],
  "PrevRgstns": [],
  "EmpHss": [
    {
      "fromDt": "06/2006",
      "toDt": "06/2010",
      "orgNm": "BRISTOL CENTRAL HIGH SCHOOL",
      "city": "BRISTOL",
      "state": 6,
      "stateSpecified": true
    },
    {
      "fromDt": "06/2010",
      "toDt": "05/2014",
      "orgNm": "ASSUMPTION COLLEGE",
      "city": "WORCESTER",
      "state": 20,
      "stateSpecified": true
    },
    {
      "fromDt": "06/2012",
      "toDt": "08/2012",
      "orgNm": "ROCK SOLID MASONRY",
      "city": "AVON",
      "state": 6,
      "stateSpecified": true
    },
    {
      "fromDt": "06/2013",
      "toDt": "08/2013",
      "orgNm": "CLOVER CONSTRUCTION COMPANY",
      "city": "BRISTOL",
      "state": 6,
      "stateSpecified": true
    },
    {
      "fromDt": "06/2014",
      "toDt": "08/2015",
      "orgNm": "NEW YORK LIFE INSURANCE CO",
      "city": "WALTHAM",
      "state": 20,
      "stateSpecified": true
    },
    {
      "fromDt": "07/2014",
      "toDt": "08/2015",
      "orgNm": "NYLIFE SECURITIES LLC",
      "city": "WALTHAM",
      "state": 20,
      "stateSpecified": true
    },
    {
      "fromDt": "09/2015",
      "toDt": null,
      "orgNm": "Columbia management investment distributors inc",
      "city": "boston",
      "state": 20,
      "stateSpecified": true
    }
  ],
  "OthrBuss": {
    "OthrBus": null
  },
  "DRPs": []
}