{
  "Info": {
    "lastNm": "MULLINS",
    "firstNm": "TARA",
    "midNm": "MARGARET",
    "sufNm": null,
    "indvlPK": "6212851",
    "actvAGReg": 0,
    "link": "http://www.adviserinfo.sec.gov/IAPD/Individual/6212851"
  },
  "OthrNms": [],
  "CrntEmps": [
    {
      "CrntRgstns": [
        {
          "regAuth": 28,
          "regCat": 0,
          "st": 2,
          "stDt": "2014-11-03T00:00:00"
        }
      ],
      "BrnchOfLocs": [
        {
          "str1": "3737 GLENWOOD AVE",
          "str2": "SUITE 320",
          "city": "RALEIGH",
          "state": 28,
          "stateSpecified": true,
          "cntry": "United States",
          "postlCd": "27612"
        }
      ],
      "orgNm": "MORGAN STANLEY",
      "orgPK": "149777",
      "str1": "2000 WESTCHESTER AVENUE",
      "str2": null,
      "city": "PURCHASE",
      "state": 35,
      "stateSpecified": true,
      "cntry": "United States",
      "postlCd": "10577-2530"
    }
  ],
  "Exms": [
    {
      "exmCd": 3,
      "exmNm": "Uniform Combined State Law Examination",
      "exmDt": "2014-11-03T00:00:00",
      "exmDtSpecified": true
    }
  ],
  "Dsgntns": [],
  "PrevRgstns": [],
  "EmpHss": [
    {
      "fromDt": "08/2006",
      "toDt": "08/2009",
      "orgNm": "NEWTOWN HIGH SCHOOL",
      "city": "SANDY HOOK",
      "state": 6,
      "stateSpecified": true
    },
    {
      "fromDt": "08/2009",
      "toDt": "05/2013",
      "orgNm": "GEORGE WASHINGTON UNIVERSITY",
      "city": "WASHINGTON",
      "state": 7,
      "stateSpecified": true
    },
    {
      "fromDt": "06/2013",
      "toDt": null,
      "orgNm": "MORGAN STANLEY",
      "city": "RALEIGH",
      "state": 28,
      "stateSpecified": true
    }
  ],
  "OthrBuss": {
    "OthrBus": null
  },
  "DRPs": []
}