{
  "Info": {
    "lastNm": "BROCKER",
    "firstNm": "MATTHEW",
    "midNm": "MICHAEL",
    "sufNm": null,
    "indvlPK": "6213411",
    "actvAGReg": 0,
    "link": "http://www.adviserinfo.sec.gov/IAPD/Individual/6213411"
  },
  "OthrNms": [],
  "CrntEmps": [
    {
      "CrntRgstns": [
        {
          "regAuth": 24,
          "regCat": 0,
          "st": 2,
          "stDt": "2014-11-14T00:00:00"
        }
      ],
      "BrnchOfLocs": [
        {
          "str1": "683 BIELENBERG DR. SUITE #101",
          "str2": null,
          "city": "WOODBURY",
          "state": 24,
          "stateSpecified": true,
          "cntry": "United States",
          "postlCd": "55125"
        }
      ],
      "orgNm": "M HOLDINGS SECURITIES, INC.",
      "orgPK": "43285",
      "str1": "1125 N.W. COUCH STREET",
      "str2": "SUITE 900",
      "city": "PORTLAND",
      "state": 38,
      "stateSpecified": true,
      "cntry": "United States",
      "postlCd": "97209"
    }
  ],
  "Exms": [
    {
      "exmCd": 0,
      "exmNm": "Uniform Securities Agent State Law Examination",
      "exmDt": "2014-08-15T00:00:00",
      "exmDtSpecified": true
    },
    {
      "exmCd": 2,
      "exmNm": "Uniform Investment Adviser Law Examination",
      "exmDt": "2014-11-10T00:00:00",
      "exmDtSpecified": true
    }
  ],
  "Dsgntns": [],
  "PrevRgstns": [],
  "EmpHss": [
    {
      "fromDt": "09/1998",
      "toDt": "06/2010",
      "orgNm": "NEW LIFE ACADEMY",
      "city": "WOODBURY",
      "state": 24,
      "stateSpecified": true
    },
    {
      "fromDt": "07/2010",
      "toDt": "08/2010",
      "orgNm": "WALMART",
      "city": "WOODBURY",
      "state": 24,
      "stateSpecified": true
    },
    {
      "fromDt": "08/2010",
      "toDt": "05/2014",
      "orgNm": "BETHEL UNIVERSITY",
      "city": "ARDEN HILLS",
      "state": 24,
      "stateSpecified": true
    },
    {
      "fromDt": "06/2011",
      "toDt": "08/2011",
      "orgNm": "NEW LIFE ACADEMY",
      "city": "WOODBURY",
      "state": 24,
      "stateSpecified": true
    },
    {
      "fromDt": "07/2011",
      "toDt": "08/2012",
      "orgNm": "DICK'S SPORTING GOODS",
      "city": "WOODBURY",
      "state": 24,
      "stateSpecified": true
    },
    {
      "fromDt": "06/2013",
      "toDt": null,
      "orgNm": "LEGACY WEALTH",
      "city": "WOODBURY",
      "state": 24,
      "stateSpecified": true
    },
    {
      "fromDt": "06/2014",
      "toDt": null,
      "orgNm": "M HOLDINGS SECURITIES, INC.",
      "city": "PORTLAND",
      "state": 38,
      "stateSpecified": true
    }
  ],
  "OthrBuss": {
    "OthrBus": null
  },
  "DRPs": []
}