{
  "Info": {
    "lastNm": "HEIGL",
    "firstNm": "BERNARD",
    "midNm": null,
    "sufNm": null,
    "indvlPK": "6216811",
    "actvAGReg": 0,
    "link": "http://www.adviserinfo.sec.gov/IAPD/Individual/6216811"
  },
  "OthrNms": [
    {
      "lastNm": "HEIGL III",
      "firstNm": "BERNARD",
      "midNm": null,
      "sufNm": null
    },
    {
      "lastNm": "HEIGL",
      "firstNm": "BERNARD",
      "midNm": null,
      "sufNm": "III"
    }
  ],
  "CrntEmps": [
    {
      "CrntRgstns": [
        {
          "regAuth": 39,
          "regCat": 0,
          "st": 2,
          "stDt": "2014-04-28T00:00:00"
        }
      ],
      "BrnchOfLocs": [
        {
          "str1": "500 SMITHFIELD ST.",
          "str2": "5TH FLOOR",
          "city": "PITTSBURGH",
          "state": 39,
          "stateSpecified": true,
          "cntry": "United States",
          "postlCd": "15222"
        }
      ],
      "orgNm": "PNC INVESTMENTS",
      "orgPK": "129052",
      "str1": "300 FIFTH AVENUE",
      "str2": "26TH FLOOR",
      "city": "PITTSBURGH",
      "state": 39,
      "stateSpecified": true,
      "cntry": "United States",
      "postlCd": "15222-2722"
    }
  ],
  "Exms": [
    {
      "exmCd": 0,
      "exmNm": "Uniform Securities Agent State Law Examination",
      "exmDt": "2014-01-29T00:00:00",
      "exmDtSpecified": true
    },
    {
      "exmCd": 3,
      "exmNm": "Uniform Combined State Law Examination",
      "exmDt": "2014-04-26T00:00:00",
      "exmDtSpecified": true
    }
  ],
  "Dsgntns": [],
  "PrevRgstns": [],
  "EmpHss": [
    {
      "fromDt": "01/2003",
      "toDt": "05/2007",
      "orgNm": "FULL TIME EDUCATION",
      "city": "SLIPPERY ROCK",
      "state": 39,
      "stateSpecified": true
    },
    {
      "fromDt": "05/2007",
      "toDt": "06/2008",
      "orgNm": "THREE RIVERS FITNESS AND SPORTS MEDICINE CENTER",
      "city": "OAKLAND",
      "state": 39,
      "stateSpecified": true
    },
    {
      "fromDt": "06/2008",
      "toDt": "11/2009",
      "orgNm": "GOLDS GYM",
      "city": "PITTSBURGH",
      "state": 39,
      "stateSpecified": true
    },
    {
      "fromDt": "11/2009",
      "toDt": "10/2010",
      "orgNm": "BALLY TOTAL FITNESS",
      "city": "WEXFORD",
      "state": 39,
      "stateSpecified": true
    },
    {
      "fromDt": "10/2010",
      "toDt": "07/2011",
      "orgNm": "NONE",
      "city": "PITTSBURGH",
      "state": 39,
      "stateSpecified": true
    },
    {
      "fromDt": "07/2011",
      "toDt": "03/2012",
      "orgNm": "TELEPLEX",
      "city": "DORMONT",
      "state": 39,
      "stateSpecified": true
    },
    {
      "fromDt": "03/2012",
      "toDt": "05/2013",
      "orgNm": "PNC BANK NA",
      "city": "PITTSBURGH",
      "state": 39,
      "stateSpecified": true
    },
    {
      "fromDt": "05/2013",
      "toDt": "04/2014",
      "orgNm": "PNC INVESTMENTS LLC",
      "city": "PITTSBURGH",
      "state": 39,
      "stateSpecified": true
    },
    {
      "fromDt": "04/2014",
      "toDt": null,
      "orgNm": "PNC INVESTMENTS",
      "city": "PITTSBURGH",
      "state": 39,
      "stateSpecified": true
    }
  ],
  "OthrBuss": {
    "OthrBus": {
      "desc": "1. HEIGL HOMES - A RENTAL PROPERTY BUSINESS - ORGANIZER - THE RESPONSIBILITY TO PROSPECT FOR PROPERTIES WITH A POTENTIAL FOR A POSITIVE RETURN ON INVESTMENT FOR PURCHASE. MONITOR TIMELY PAYMENT OF OBLIGATIONS FOR THE BUSINESS.  2. HEIGL HEALTH AND FITNESS - STRENGTH AND CONDITIONING SPECIALIST - MY ROLE WOULD BE TO ASSIST CLIENTS IN OBTAINING THEIR GOALS, IMPROVING HEALTH AND PERFORMANCE IN THE AREAS OF STRENGTH AND CONDITIONING WHILE WORKING TO PREVENT INJURIES.  ESTIMATED TIME PER MONTH WOULD BE TEN TO TWELVE HOURS TO GENERATE BETWEEN $400 TO $500 PER MONTH IN INCOME."
    }
  },
  "DRPs": []
}