{
  "Info": {
    "lastNm": "POLING",
    "firstNm": "SHAWN",
    "midNm": "KENNETH",
    "sufNm": null,
    "indvlPK": "6219425",
    "actvAGReg": 0,
    "link": "http://www.adviserinfo.sec.gov/IAPD/Individual/6219425"
  },
  "OthrNms": [],
  "CrntEmps": [
    {
      "CrntRgstns": [
        {
          "regAuth": 5,
          "regCat": 0,
          "st": 2,
          "stDt": "2015-01-21T00:00:00"
        },
        {
          "regAuth": 49,
          "regCat": 0,
          "st": 2,
          "stDt": "2015-07-17T00:00:00"
        }
      ],
      "BrnchOfLocs": [
        {
          "str1": "11100 NE 8TH ST.",
          "str2": null,
          "city": "BELLEVUE",
          "state": 49,
          "stateSpecified": true,
          "cntry": "United States",
          "postlCd": "98004-4465"
        }
      ],
      "orgNm": "CHARLES SCHWAB & CO., INC.",
      "orgPK": "5393",
      "str1": "211 MAIN STREET",
      "str2": null,
      "city": "SAN FRANCISCO",
      "state": 4,
      "stateSpecified": true,
      "cntry": "United States",
      "postlCd": "94105"
    }
  ],
  "Exms": [
    {
      "exmCd": 0,
      "exmNm": "Uniform Securities Agent State Law Examination",
      "exmDt": "2013-09-27T00:00:00",
      "exmDtSpecified": true
    },
    {
      "exmCd": 3,
      "exmNm": "Uniform Combined State Law Examination",
      "exmDt": "2015-01-21T00:00:00",
      "exmDtSpecified": true
    }
  ],
  "Dsgntns": [],
  "PrevRgstns": [],
  "EmpHss": [
    {
      "fromDt": "02/2006",
      "toDt": "10/2008",
      "orgNm": "SUBWAY",
      "city": "PONTE VEDRA BEACH",
      "state": 9,
      "stateSpecified": true
    },
    {
      "fromDt": "10/2008",
      "toDt": "09/2009",
      "orgNm": "GREYSTAR",
      "city": "ORLANDO",
      "state": 9,
      "stateSpecified": true
    },
    {
      "fromDt": "09/2009",
      "toDt": "02/2010",
      "orgNm": "UNIVERSITY OF CENTRAL FLORIDA",
      "city": "ORLANDO",
      "state": 9,
      "stateSpecified": true
    },
    {
      "fromDt": "02/2010",
      "toDt": "08/2010",
      "orgNm": "THE VITAMIN SHOPPE",
      "city": "ORLANDO",
      "state": 9,
      "stateSpecified": true
    },
    {
      "fromDt": "07/2010",
      "toDt": "08/2010",
      "orgNm": "GREYSTAR",
      "city": "ORLANDO",
      "state": 9,
      "stateSpecified": true
    },
    {
      "fromDt": "08/2010",
      "toDt": "05/2013",
      "orgNm": "XPRESSPA",
      "city": "ORLANDO",
      "state": 9,
      "stateSpecified": true
    },
    {
      "fromDt": "06/2013",
      "toDt": null,
      "orgNm": "CHARLES SCHWAB & CO., INC.",
      "city": "BELLEVUE",
      "state": 49,
      "stateSpecified": true
    },
    {
      "fromDt": "07/2015",
      "toDt": null,
      "orgNm": "CHARLES SCHWAB BANK",
      "city": "BELLEVUE",
      "state": 49,
      "stateSpecified": true
    }
  ],
  "OthrBuss": {
    "OthrBus": {
      "desc": "CHARLES SCHWAB BANK, 11100 NE 8TH STREET, BELLEVUE, WASHINGTON  98004-4465, INVESTMENT RELATED, 07/16/2015, DUAL EMPLOYEE, BANK PRODUCTS, REFERRALS OF HELOC, MORTGAGES AND INVESTOR CHECKING PRODUCTS FOR APPROXIMATELY 20 HOURS PER MONTH."
    }
  },
  "DRPs": []
}