{
  "Info": {
    "lastNm": "CARTHARN",
    "firstNm": "ERICA",
    "midNm": "SHANICE",
    "sufNm": null,
    "indvlPK": "6222470",
    "actvAGReg": 0,
    "link": "http://www.adviserinfo.sec.gov/IAPD/Individual/6222470"
  },
  "OthrNms": [],
  "CrntEmps": [
    {
      "CrntRgstns": [
        {
          "regAuth": 15,
          "regCat": 0,
          "st": 2,
          "stDt": "2014-06-25T00:00:00"
        },
        {
          "regAuth": 45,
          "regCat": 0,
          "st": 2,
          "stDt": "2014-06-26T00:00:00"
        },
        {
          "regAuth": 46,
          "regCat": 0,
          "st": 2,
          "stDt": "2014-06-27T00:00:00"
        }
      ],
      "BrnchOfLocs": [
        {
          "str1": "227 WEST MONROE STREET",
          "str2": "SUITE 3400",
          "city": "CHICAGO",
          "state": 15,
          "stateSpecified": true,
          "cntry": "United States",
          "postlCd": "60606"
        }
      ],
      "orgNm": "MORGAN STANLEY",
      "orgPK": "149777",
      "str1": "2000 WESTCHESTER AVENUE",
      "str2": null,
      "city": "PURCHASE",
      "state": 35,
      "stateSpecified": true,
      "cntry": "United States",
      "postlCd": "10577-2530"
    }
  ],
  "Exms": [
    {
      "exmCd": 0,
      "exmNm": "Uniform Securities Agent State Law Examination",
      "exmDt": "2013-08-16T00:00:00",
      "exmDtSpecified": true
    },
    {
      "exmCd": 2,
      "exmNm": "Uniform Investment Adviser Law Examination",
      "exmDt": "2014-06-25T00:00:00",
      "exmDtSpecified": true
    }
  ],
  "Dsgntns": [],
  "PrevRgstns": [],
  "EmpHss": [
    {
      "fromDt": "01/2003",
      "toDt": "05/2009",
      "orgNm": "CRETE-MONEE SCHOOL DISTRICT",
      "city": "CRETE",
      "state": 15,
      "stateSpecified": true
    },
    {
      "fromDt": "08/2009",
      "toDt": "05/2013",
      "orgNm": "WITTENBERG UNIVERSITY",
      "city": "SPRINGFIELD",
      "state": 36,
      "stateSpecified": true
    },
    {
      "fromDt": "06/2010",
      "toDt": "08/2010",
      "orgNm": "A PHILLIP RANDOLPH",
      "city": "CHICAGO",
      "state": 15,
      "stateSpecified": true
    },
    {
      "fromDt": "07/2012",
      "toDt": "08/2012",
      "orgNm": "URBAN MINSTRIES",
      "city": "CALUMET CITY",
      "state": 15,
      "stateSpecified": true
    },
    {
      "fromDt": "08/2012",
      "toDt": "05/2013",
      "orgNm": "WITTENBERG UNIVERSITY",
      "city": "SPRINGFIELD",
      "state": 36,
      "stateSpecified": true
    },
    {
      "fromDt": "05/2013",
      "toDt": "07/2013",
      "orgNm": "UNEMPLOYED",
      "city": "CRETE",
      "state": 15,
      "stateSpecified": true
    },
    {
      "fromDt": "07/2013",
      "toDt": "03/2014",
      "orgNm": "FIRST INVESTORS CORPORATION",
      "city": "LOMBARD",
      "state": 15,
      "stateSpecified": true
    },
    {
      "fromDt": "03/2014",
      "toDt": "04/2014",
      "orgNm": "FIRST INVESTORS CORPORATION",
      "city": "LOMBARD",
      "state": 15,
      "stateSpecified": true
    },
    {
      "fromDt": "04/2014",
      "toDt": null,
      "orgNm": "MORGAN STANLEY SMITH BARNEY LLC",
      "city": "CHICAGO",
      "state": 15,
      "stateSpecified": true
    },
    {
      "fromDt": "01/2015",
      "toDt": null,
      "orgNm": "MORGAN STANLEY PRIVATE BANK, NATIONAL ASSOCIATION",
      "city": "NEW YORK",
      "state": 35,
      "stateSpecified": true
    }
  ],
  "OthrBuss": {
    "OthrBus": {
      "desc": "FIRST INVESTORS CORPORATION; AGENT OF RECORD; INVESTMENT RELATED; LIFE INSURANCE; 3/2014; 0 HOURS DURING 0 HOURS AFTER BUSINESS"
    }
  },
  "DRPs": []
}