{
  "Info": {
    "lastNm": "SCHWARTZ",
    "firstNm": "ERIC",
    "midNm": "JAMES",
    "sufNm": null,
    "indvlPK": "6229045",
    "actvAGReg": 0,
    "link": "http://www.adviserinfo.sec.gov/IAPD/Individual/6229045"
  },
  "OthrNms": [],
  "CrntEmps": [
    {
      "CrntRgstns": [
        {
          "regAuth": 50,
          "regCat": 0,
          "st": 2,
          "stDt": "2014-11-13T00:00:00"
        }
      ],
      "BrnchOfLocs": [
        {
          "str1": "660 JOHN NOLEN DRIVE",
          "str2": null,
          "city": "MADISON",
          "state": 50,
          "stateSpecified": true,
          "cntry": "United States",
          "postlCd": "53713"
        }
      ],
      "orgNm": "WEA FINANCIAL ADVISERS, INC.",
      "orgPK": "144919",
      "str1": "660 JOHN NOLEN DRIVE",
      "str2": null,
      "city": "MADISON",
      "state": 50,
      "stateSpecified": true,
      "cntry": "United States",
      "postlCd": "53713"
    }
  ],
  "Exms": [
    {
      "exmCd": 0,
      "exmNm": "Uniform Securities Agent State Law Examination",
      "exmDt": "2013-08-19T00:00:00",
      "exmDtSpecified": true
    },
    {
      "exmCd": 2,
      "exmNm": "Uniform Investment Adviser Law Examination",
      "exmDt": "2014-09-25T00:00:00",
      "exmDtSpecified": true
    }
  ],
  "Dsgntns": [],
  "PrevRgstns": [],
  "EmpHss": [
    {
      "fromDt": "08/2005",
      "toDt": "05/2009",
      "orgNm": "PULASKI HIGH SCHOOL",
      "city": "PULASKI",
      "state": 50,
      "stateSpecified": true
    },
    {
      "fromDt": "07/2008",
      "toDt": "01/2012",
      "orgNm": "MAPLEWOOD PACKING INC.",
      "city": "GREEN BAY",
      "state": 50,
      "stateSpecified": true
    },
    {
      "fromDt": "08/2009",
      "toDt": "05/2013",
      "orgNm": "UNIV. OF WISCONSIN",
      "city": "MADISON",
      "state": 50,
      "stateSpecified": true
    },
    {
      "fromDt": "08/2011",
      "toDt": "05/2013",
      "orgNm": "UNIV. OF WISCONSIN",
      "city": "MADISON",
      "state": 50,
      "stateSpecified": true
    },
    {
      "fromDt": "05/2012",
      "toDt": "05/2013",
      "orgNm": "WEA TRUST MEMBER BENEFITS",
      "city": "MADISON",
      "state": 50,
      "stateSpecified": true
    },
    {
      "fromDt": "05/2013",
      "toDt": "07/2014",
      "orgNm": "WEA TRUST MEMBER BENEFITS",
      "city": "MADISON",
      "state": 50,
      "stateSpecified": true
    },
    {
      "fromDt": "07/2014",
      "toDt": null,
      "orgNm": "WEA MEMBER BENEFITS",
      "city": "MADISON",
      "state": 50,
      "stateSpecified": true
    }
  ],
  "OthrBuss": {
    "OthrBus": null
  },
  "DRPs": []
}