{
  "Info": {
    "lastNm": "FEELEY",
    "firstNm": "MONA",
    "midNm": "LYNN",
    "sufNm": null,
    "indvlPK": "6233075",
    "actvAGReg": 1,
    "link": "http://www.adviserinfo.sec.gov/IAPD/Individual/6233075"
  },
  "OthrNms": [],
  "CrntEmps": [
    {
      "CrntRgstns": [
        {
          "regAuth": 5,
          "regCat": 0,
          "st": 2,
          "stDt": "2016-06-02T00:00:00"
        }
      ],
      "BrnchOfLocs": [
        {
          "str1": "11852 SHAFFER DR.",
          "str2": null,
          "city": "LITTLETON",
          "state": 5,
          "stateSpecified": true,
          "cntry": "United States",
          "postlCd": "80127"
        }
      ],
      "orgNm": "WHIPPLEWOOD ADVISORS, LLC",
      "orgPK": "282860",
      "str1": "11852 SHAFFER DR.",
      "str2": null,
      "city": "LITTLETON",
      "state": 5,
      "stateSpecified": true,
      "cntry": "United States",
      "postlCd": "80127"
    }
  ],
  "Exms": [
    {
      "exmCd": 2,
      "exmNm": "Uniform Investment Adviser Law Examination",
      "exmDt": "2014-01-14T00:00:00",
      "exmDtSpecified": true
    }
  ],
  "Dsgntns": [],
  "PrevRgstns": [
    {
      "BrnchOfLocs": [
        {
          "city": "GREENWOOD VILLAGE",
          "state": 5,
          "stateSpecified": true
        }
      ],
      "orgNm": "FIRST FINANCIAL EQUITY CORPORATION",
      "orgPK": "16507",
      "regBeginDt": "2014-01-14T00:00:00",
      "regBeginDtSpecified": true,
      "regEndDt": "2016-02-05T00:00:00",
      "regEndDtSpecified": true
    }
  ],
  "EmpHss": [
    {
      "fromDt": "02/1999",
      "toDt": null,
      "orgNm": "WHIPPLEWOOD CPAS",
      "city": "LITTLETON",
      "state": 5,
      "stateSpecified": true
    },
    {
      "fromDt": "07/2013",
      "toDt": "02/2016",
      "orgNm": "FIRST FINANCIAL EQUITY CORP",
      "city": "DENVER",
      "state": 5,
      "stateSpecified": true
    }
  ],
  "OthrBuss": {
    "OthrBus": {
      "desc": "WHIPPLEWOOD CPAS - PARTNER, NOT INVESTMENT RELATED, THIS IS MS. FEELEY'S PRIMARY JOB."
    }
  },
  "DRPs": []
}