{
  "Info": {
    "lastNm": "HOFSTROM",
    "firstNm": "CHARLES",
    "midNm": "ROBERT",
    "sufNm": null,
    "indvlPK": "6239090",
    "actvAGReg": 0,
    "link": "http://www.adviserinfo.sec.gov/IAPD/Individual/6239090"
  },
  "OthrNms": [],
  "CrntEmps": [
    {
      "CrntRgstns": [
        {
          "regAuth": 24,
          "regCat": 0,
          "st": 2,
          "stDt": "2015-10-28T00:00:00"
        }
      ],
      "BrnchOfLocs": [
        {
          "str1": "50 South Sixth Street",
          "str2": "Suite 2350",
          "city": "MINNEAPOLIS",
          "state": 24,
          "stateSpecified": true,
          "cntry": "United States",
          "postlCd": "55402"
        }
      ],
      "orgNm": "RBC CAPITAL MARKETS, LLC",
      "orgPK": "31194",
      "str1": "3 WORLD FINANCIAL CENTER",
      "str2": "200 VESEY ST.",
      "city": "NEW YORK",
      "state": 35,
      "stateSpecified": true,
      "cntry": "United States",
      "postlCd": "10281"
    }
  ],
  "Exms": [
    {
      "exmCd": 3,
      "exmNm": "Uniform Combined State Law Examination",
      "exmDt": "2015-10-28T00:00:00",
      "exmDtSpecified": true
    }
  ],
  "Dsgntns": [],
  "PrevRgstns": [],
  "EmpHss": [
    {
      "fromDt": "08/2004",
      "toDt": "02/2007",
      "orgNm": "VEGAS EXPERIENCE",
      "city": "EAU CLAIRE",
      "state": 50,
      "stateSpecified": true
    },
    {
      "fromDt": "05/2006",
      "toDt": "03/2007",
      "orgNm": "WELLS FARGO",
      "city": "EAU CLAIRE",
      "state": 50,
      "stateSpecified": true
    },
    {
      "fromDt": "06/2007",
      "toDt": "12/2013",
      "orgNm": "CLIFTONLARSONALLEN WEALTH ADVISORS",
      "city": "MINNEAPOLIS",
      "state": 24,
      "stateSpecified": true
    },
    {
      "fromDt": "12/2013",
      "toDt": null,
      "orgNm": "RBC CAPITAL MARKETS LLC",
      "city": "MINNEAPOLIS",
      "state": 24,
      "stateSpecified": true
    },
    {
      "fromDt": "12/2013",
      "toDt": null,
      "orgNm": "RBC GLOBAL ASSET MANAGEMENT",
      "city": "MINNEAPOLIS",
      "state": 24,
      "stateSpecified": true
    }
  ],
  "OthrBuss": {
    "OthrBus": {
      "desc": "TITLE/POSITION: LANDLORD, OWNER  NAME OF BUSINESS: N.A.  INVESTMENT-RELATED: NO  BUSINESS ADDRESS: 349 E 43RD ST, MINNEAPOLIS, MN  NATURE OF BUSINESS: RENTAL UNIT  RENTAL START DATE: 2/13/2014  ANTICIPATED END DATE: 12/31/20   HOURS: 1 PER MONTH, ZERO DURING TRADING HOURS"
    }
  },
  "DRPs": []
}