{
  "Info": {
    "lastNm": "KASNER",
    "firstNm": "SHARI",
    "midNm": "LYNN",
    "sufNm": null,
    "indvlPK": "6245844",
    "actvAGReg": 0,
    "link": "http://www.adviserinfo.sec.gov/IAPD/Individual/6245844"
  },
  "OthrNms": [],
  "CrntEmps": [
    {
      "CrntRgstns": [
        {
          "regAuth": 9,
          "regCat": 0,
          "st": 2,
          "stDt": "2016-02-10T00:00:00"
        }
      ],
      "BrnchOfLocs": [
        {
          "str1": "SMITH BARNEY FINANCIAL CENTER",
          "str2": "595 SOUTH FEDERAL HIGHWAY",
          "city": "BOCA RATON",
          "state": 9,
          "stateSpecified": true,
          "cntry": "United States",
          "postlCd": "33432"
        }
      ],
      "orgNm": "MORGAN STANLEY",
      "orgPK": "149777",
      "str1": "2000 WESTCHESTER AVENUE",
      "str2": null,
      "city": "PURCHASE",
      "state": 35,
      "stateSpecified": true,
      "cntry": "United States",
      "postlCd": "10577-2530"
    }
  ],
  "Exms": [
    {
      "exmCd": 0,
      "exmNm": "Uniform Securities Agent State Law Examination",
      "exmDt": "2014-04-30T00:00:00",
      "exmDtSpecified": true
    },
    {
      "exmCd": 2,
      "exmNm": "Uniform Investment Adviser Law Examination",
      "exmDt": "2016-02-05T00:00:00",
      "exmDtSpecified": true
    }
  ],
  "Dsgntns": [],
  "PrevRgstns": [],
  "EmpHss": [
    {
      "fromDt": "05/2005",
      "toDt": "10/2013",
      "orgNm": "02 MEDIA INC",
      "city": "POMPANO BEACH",
      "state": 9,
      "stateSpecified": true
    },
    {
      "fromDt": "01/2014",
      "toDt": "06/2015",
      "orgNm": "HERBERT J. SIMS & CO. INC.",
      "city": "BOCA RATON",
      "state": 9,
      "stateSpecified": true
    },
    {
      "fromDt": "06/2015",
      "toDt": "10/2015",
      "orgNm": "AEGIS CAPITAL CORP",
      "city": "BOCA RATON",
      "state": 9,
      "stateSpecified": true
    },
    {
      "fromDt": "10/2015",
      "toDt": null,
      "orgNm": "MORGAN STANLEY",
      "city": "BOCA RATON",
      "state": 9,
      "stateSpecified": true
    },
    {
      "fromDt": "12/2015",
      "toDt": null,
      "orgNm": "MORGAN STANLEY PRIVATE BANK, NATIONAL ASSOCIATION",
      "city": "NEW YORK",
      "state": 35,
      "stateSpecified": true
    }
  ],
  "OthrBuss": {
    "OthrBus": {
      "desc": "1. SLK VENTURES LLC, OWNER; REAL ESTATE OWNERSHIP; DURING BUSINESS HOURS- 0, AFTER BUSINESS HOURS- 0; START DATE: 09/2008; BOCA RATON, FL 2. VK REALITY LLC, FAMILY BUSINESS REAL ESTATE OWNERSHIP; MANAGEMENT OF TENANT ACCOUNTS; OVERSEE PROPERTY; DURING BUSINESS HOURS- 0, AFTER BUSINESS HOURS- 5; BOCA RATON, FL"
    }
  },
  "DRPs": []
}