{
  "Info": {
    "lastNm": "COLANCECCO",
    "firstNm": "ANTHONY",
    "midNm": "ROBERT",
    "sufNm": "JR",
    "indvlPK": "6247436",
    "actvAGReg": 1,
    "link": "http://www.adviserinfo.sec.gov/IAPD/Individual/6247436"
  },
  "OthrNms": [],
  "CrntEmps": [
    {
      "CrntRgstns": [
        {
          "regAuth": 39,
          "regCat": 0,
          "st": 2,
          "stDt": "2013-09-06T00:00:00"
        }
      ],
      "BrnchOfLocs": [
        {
          "str1": "1801 MARKET STREET",
          "str2": "SUITE 1000",
          "city": "PHILADELPHIA",
          "state": 39,
          "stateSpecified": true,
          "cntry": "United States",
          "postlCd": "19103"
        }
      ],
      "orgNm": "EFFICIENT ADVISORS",
      "orgPK": "150144",
      "str1": "1801 MARKET STREET",
      "str2": "SUITE 1000",
      "city": "PHILADELPHIA",
      "state": 39,
      "stateSpecified": true,
      "cntry": "United States",
      "postlCd": "19103"
    }
  ],
  "Exms": [
    {
      "exmCd": 2,
      "exmNm": "Uniform Investment Adviser Law Examination",
      "exmDt": "2013-08-24T00:00:00",
      "exmDtSpecified": true
    }
  ],
  "Dsgntns": [],
  "PrevRgstns": [],
  "EmpHss": [
    {
      "fromDt": "10/2005",
      "toDt": "08/2009",
      "orgNm": "HOME DEPOT",
      "city": "PHILADELPHIA",
      "state": 39,
      "stateSpecified": true
    },
    {
      "fromDt": "05/2009",
      "toDt": "01/2010",
      "orgNm": "PCS",
      "city": "PHILADELPHIA",
      "state": 39,
      "stateSpecified": true
    },
    {
      "fromDt": "01/2010",
      "toDt": null,
      "orgNm": "EFFICIENT ADVISORS, LLC",
      "city": "PHILADELPHIA",
      "state": 39,
      "stateSpecified": true
    }
  ],
  "OthrBuss": {
    "OthrBus": null
  },
  "DRPs": []
}