{
  "Info": {
    "lastNm": "CRIST",
    "firstNm": "DAYNE",
    "midNm": "LAWRENCE",
    "sufNm": null,
    "indvlPK": "6249241",
    "actvAGReg": 0,
    "link": "http://www.adviserinfo.sec.gov/IAPD/Individual/6249241"
  },
  "OthrNms": [
    {
      "lastNm": "CRIST",
      "firstNm": "DAYNE",
      "midNm": "LAWRENCE",
      "sufNm": null
    },
    {
      "lastNm": "CRIST",
      "firstNm": "DAYNE",
      "midNm": "LAWRENCE",
      "sufNm": null
    }
  ],
  "CrntEmps": [
    {
      "CrntRgstns": [
        {
          "regAuth": 4,
          "regCat": 0,
          "st": 2,
          "stDt": "2015-08-12T00:00:00"
        }
      ],
      "BrnchOfLocs": [
        {
          "str1": "1999 AVENUE OF THE STARS",
          "str2": "SUITE 2150",
          "city": "LOS ANGELES",
          "state": 4,
          "stateSpecified": true,
          "cntry": "United States",
          "postlCd": "90067"
        }
      ],
      "orgNm": "ALLIANCEBERNSTEIN L.P.",
      "orgPK": "108477",
      "str1": "1345 AVE OF THE AMERICAS",
      "str2": null,
      "city": "NEW YORK",
      "state": 35,
      "stateSpecified": true,
      "cntry": "United States",
      "postlCd": "10105"
    }
  ],
  "Exms": [
    {
      "exmCd": 0,
      "exmNm": "Uniform Securities Agent State Law Examination",
      "exmDt": "2014-11-24T00:00:00",
      "exmDtSpecified": true
    },
    {
      "exmCd": 3,
      "exmNm": "Uniform Combined State Law Examination",
      "exmDt": "2015-05-26T00:00:00",
      "exmDtSpecified": true
    }
  ],
  "Dsgntns": [],
  "PrevRgstns": [],
  "EmpHss": [
    {
      "fromDt": "08/2004",
      "toDt": "06/2008",
      "orgNm": "NOTRE DAME HIGH SCHOOL",
      "city": "SHERMAN OAKS",
      "state": 4,
      "stateSpecified": true
    },
    {
      "fromDt": "06/2008",
      "toDt": "12/2011",
      "orgNm": "UNIVERSITY OF NOTRE DAME",
      "city": "NOTRE DAME",
      "state": 16,
      "stateSpecified": true
    },
    {
      "fromDt": "01/2012",
      "toDt": "05/2013",
      "orgNm": "UNIVERSITY OF KANSAS",
      "city": "LAWRENCE",
      "state": 17,
      "stateSpecified": true
    },
    {
      "fromDt": "06/2012",
      "toDt": "08/2012",
      "orgNm": "UNIVERSITY OF KANSAS ALUMNI ASSOCIATION",
      "city": "LAWRENCE",
      "state": 17,
      "stateSpecified": true
    },
    {
      "fromDt": "06/2013",
      "toDt": "07/2013",
      "orgNm": "BALTIMORE RAVENS",
      "city": "OWINGS MILLS",
      "state": 21,
      "stateSpecified": true
    },
    {
      "fromDt": "07/2013",
      "toDt": "12/2013",
      "orgNm": "EQUINOX SPORTS CLUB",
      "city": "IRVINE",
      "state": 4,
      "stateSpecified": true
    },
    {
      "fromDt": "08/2013",
      "toDt": "02/2014",
      "orgNm": "BRETT J BISSELL",
      "city": "IRVINE",
      "state": 4,
      "stateSpecified": true
    },
    {
      "fromDt": "02/2014",
      "toDt": "04/2015",
      "orgNm": "NORTHWESTERN MUTUAL LIFE INSURANCE COMPANY",
      "city": "MILWAUKEE",
      "state": 50,
      "stateSpecified": true
    },
    {
      "fromDt": "06/2014",
      "toDt": "04/2015",
      "orgNm": "NORTHWESTERN MUTUAL INVESTMENT SERVICES LLC",
      "city": "IRVINE",
      "state": 4,
      "stateSpecified": true
    },
    {
      "fromDt": "04/2015",
      "toDt": null,
      "orgNm": "SANFORD C. BERNSTEIN & CO., LLC",
      "city": "LOS ANGELES",
      "state": 4,
      "stateSpecified": true
    }
  ],
  "OthrBuss": {
    "OthrBus": null
  },
  "DRPs": []
}