{
  "Info": {
    "lastNm": "OH",
    "firstNm": "SEUNG",
    "midNm": "IL",
    "sufNm": null,
    "indvlPK": "6250368",
    "actvAGReg": 0,
    "link": "http://www.adviserinfo.sec.gov/IAPD/Individual/6250368"
  },
  "OthrNms": [
    {
      "lastNm": "OH",
      "firstNm": "SEUNG",
      "midNm": null,
      "sufNm": null
    }
  ],
  "CrntEmps": [
    {
      "CrntRgstns": [
        {
          "regAuth": 4,
          "regCat": 0,
          "st": 2,
          "stDt": "2014-11-28T00:00:00"
        }
      ],
      "BrnchOfLocs": [
        {
          "str1": "21370 HAWTHORNE BLVD",
          "str2": null,
          "city": "TORRANCE",
          "state": 4,
          "stateSpecified": true,
          "cntry": "United States",
          "postlCd": "90503"
        }
      ],
      "orgNm": "CHARLES SCHWAB & CO., INC.",
      "orgPK": "5393",
      "str1": "211 MAIN STREET",
      "str2": null,
      "city": "SAN FRANCISCO",
      "state": 4,
      "stateSpecified": true,
      "cntry": "United States",
      "postlCd": "94105"
    }
  ],
  "Exms": [
    {
      "exmCd": 3,
      "exmNm": "Uniform Combined State Law Examination",
      "exmDt": "2014-01-30T00:00:00",
      "exmDtSpecified": true
    }
  ],
  "Dsgntns": [],
  "PrevRgstns": [
    {
      "BrnchOfLocs": [
        {
          "city": "LOS ANGELES",
          "state": 4,
          "stateSpecified": true
        },
        {
          "city": "LOS ANGELES",
          "state": 4,
          "stateSpecified": true
        },
        {
          "city": "LOS ANGELES",
          "state": 4,
          "stateSpecified": true
        }
      ],
      "orgNm": "AXA ADVISORS, LLC",
      "orgPK": "6627",
      "regBeginDt": "2014-02-12T00:00:00",
      "regBeginDtSpecified": true,
      "regEndDt": "2014-10-21T00:00:00",
      "regEndDtSpecified": true
    }
  ],
  "EmpHss": [
    {
      "fromDt": "09/2003",
      "toDt": "08/2007",
      "orgNm": "PALISADE CHARTER HIGH SCHOOL",
      "city": "PACIFIC PALISADE",
      "state": 4,
      "stateSpecified": true
    },
    {
      "fromDt": "09/2007",
      "toDt": "08/2013",
      "orgNm": "BRIGHAM YOUNG UNIVERSITY",
      "city": "PROVO",
      "state": 46,
      "stateSpecified": true
    },
    {
      "fromDt": "05/2008",
      "toDt": "07/2008",
      "orgNm": "PIERCE CONSULTING",
      "city": "LOS ANGELES",
      "state": 4,
      "stateSpecified": true
    },
    {
      "fromDt": "07/2008",
      "toDt": "07/2010",
      "orgNm": "LSD CHURCH",
      "city": "VANCOUVER",
      "stateSpecified": false
    },
    {
      "fromDt": "08/2010",
      "toDt": "08/2013",
      "orgNm": "BRIGHAM YOUNG UNIVERSITY",
      "city": "PROVO",
      "state": 46,
      "stateSpecified": true
    },
    {
      "fromDt": "08/2013",
      "toDt": "12/2013",
      "orgNm": "UNEMPLOYED",
      "city": "LOS ANGELES",
      "state": 4,
      "stateSpecified": true
    },
    {
      "fromDt": "12/2013",
      "toDt": "10/2014",
      "orgNm": "AXA ADVISORS, LLC",
      "city": "NEW YORK",
      "state": 35,
      "stateSpecified": true
    },
    {
      "fromDt": "11/2014",
      "toDt": null,
      "orgNm": "CHARLES SCHWAB & CO., INC.",
      "city": "TORRANCE",
      "state": 4,
      "stateSpecified": true
    },
    {
      "fromDt": "11/2014",
      "toDt": null,
      "orgNm": "CHARLES SCHWAB BANK",
      "city": "TORRANCE",
      "state": 4,
      "stateSpecified": true
    }
  ],
  "OthrBuss": {
    "OthrBus": {
      "desc": "CHARLES SCHWAB BANK-INVESTMENT RELATED, BANK PRODUCTS, DUAL EMPLOYEE, 11/10/2014, TORRANCE, CA,  REFERRALS OF HELOC, MORTGAGES  AND  INVESTOR CHECKING PRODUCTS,  APPROXIMATELY 20 HOURS PER MONTH."
    }
  },
  "DRPs": []
}