{
  "Info": {
    "lastNm": "BOWEN",
    "firstNm": "ASHLI",
    "midNm": "TYLER",
    "sufNm": null,
    "indvlPK": "6251372",
    "actvAGReg": 0,
    "link": "http://www.adviserinfo.sec.gov/IAPD/Individual/6251372"
  },
  "OthrNms": [
    {
      "lastNm": "TYLER",
      "firstNm": "ASHLI",
      "midNm": "JO",
      "sufNm": null
    }
  ],
  "CrntEmps": [
    {
      "CrntRgstns": [
        {
          "regAuth": 24,
          "regCat": 0,
          "st": 2,
          "stDt": "2015-12-01T00:00:00"
        }
      ],
      "BrnchOfLocs": [
        {
          "str1": "2230 LONDON ROAD",
          "str2": null,
          "city": "DULUTH",
          "state": 24,
          "stateSpecified": true,
          "cntry": "United States",
          "postlCd": "55812"
        }
      ],
      "orgNm": "RAYMOND JAMES & ASSOCIATES, INC.",
      "orgPK": "705",
      "str1": "880 CARILLON PARKWAY",
      "str2": null,
      "city": "ST PETERSBURG",
      "state": 9,
      "stateSpecified": true,
      "cntry": "United States",
      "postlCd": "33716"
    }
  ],
  "Exms": [
    {
      "exmCd": 3,
      "exmNm": "Uniform Combined State Law Examination",
      "exmDt": "2015-12-01T00:00:00",
      "exmDtSpecified": true
    }
  ],
  "Dsgntns": [],
  "PrevRgstns": [],
  "EmpHss": [
    {
      "fromDt": "07/2005",
      "toDt": "10/2006",
      "orgNm": "VALPARAISO CHAMBER OF COMM AND ECONOMIC DEV CORP",
      "city": "VALPARAISO",
      "state": 16,
      "stateSpecified": true
    },
    {
      "fromDt": "09/2006",
      "toDt": "12/2007",
      "orgNm": "BOYS AND GIRLS CLUB",
      "city": "BEMIDJI",
      "state": 24,
      "stateSpecified": true
    },
    {
      "fromDt": "01/2008",
      "toDt": "01/2012",
      "orgNm": "UNITED WAY OF BEMIDJI AREA",
      "city": "BEMIDJI",
      "state": 24,
      "stateSpecified": true
    },
    {
      "fromDt": "11/2011",
      "toDt": "07/2012",
      "orgNm": "NORTHERN DENTAL ACCESS",
      "city": "BEMIDJI",
      "state": 24,
      "stateSpecified": true
    },
    {
      "fromDt": "09/2012",
      "toDt": "08/2013",
      "orgNm": "MARSHALL SCHOOL",
      "city": "DULUTH",
      "state": 24,
      "stateSpecified": true
    },
    {
      "fromDt": "08/2013",
      "toDt": null,
      "orgNm": "RAYMOND JAMES & ASSOCIATES",
      "city": "DULUTH",
      "state": 24,
      "stateSpecified": true
    }
  ],
  "OthrBuss": {
    "OthrBus": null
  },
  "DRPs": []
}