{
  "Info": {
    "lastNm": "SHOWALTER",
    "firstNm": "BAILEY",
    "midNm": "BRIENNA",
    "sufNm": null,
    "indvlPK": "6252321",
    "actvAGReg": 0,
    "link": "http://www.adviserinfo.sec.gov/IAPD/Individual/6252321"
  },
  "OthrNms": [],
  "CrntEmps": [
    {
      "CrntRgstns": [
        {
          "regAuth": 38,
          "regCat": 0,
          "st": 2,
          "stDt": "2013-12-05T00:00:00"
        },
        {
          "regAuth": 49,
          "regCat": 0,
          "st": 2,
          "stDt": "2013-12-05T00:00:00"
        }
      ],
      "BrnchOfLocs": [
        {
          "str1": "1300 SW 5TH AVE STES 1500 & 1800",
          "str2": "[WD-RBO]",
          "city": "PORTLAND",
          "state": 38,
          "stateSpecified": true,
          "cntry": "United States",
          "postlCd": "97201"
        },
        {
          "str1": "4233 NORTHEAST SANDY BOULEVARD",
          "str2": null,
          "city": "PORTLAND",
          "state": 38,
          "stateSpecified": true,
          "cntry": "United States",
          "postlCd": "97213"
        }
      ],
      "orgNm": "WELLS FARGO ADVISORS, LLC",
      "orgPK": "19616",
      "str1": "ONE NORTH JEFFERSON AVENUE",
      "str2": "MAIL CODE: H0004-050",
      "city": "ST. LOUIS",
      "state": 25,
      "stateSpecified": true,
      "cntry": "United States",
      "postlCd": "63103-2205"
    }
  ],
  "Exms": [
    {
      "exmCd": 0,
      "exmNm": "Uniform Securities Agent State Law Examination",
      "exmDt": "2013-11-13T00:00:00",
      "exmDtSpecified": true
    },
    {
      "exmCd": 2,
      "exmNm": "Uniform Investment Adviser Law Examination",
      "exmDt": "2013-12-04T00:00:00",
      "exmDtSpecified": true
    }
  ],
  "Dsgntns": [],
  "PrevRgstns": [],
  "EmpHss": [
    {
      "fromDt": "09/2006",
      "toDt": "06/2007",
      "orgNm": "SISTERS HIGH SCHOOL",
      "city": "SISTERS",
      "state": 38,
      "stateSpecified": true
    },
    {
      "fromDt": "09/2007",
      "toDt": "06/2008",
      "orgNm": "SISTERS HIGH SCHOOL",
      "city": "SISTERS",
      "state": 38,
      "stateSpecified": true
    },
    {
      "fromDt": "09/2008",
      "toDt": "06/2009",
      "orgNm": "SISTERS HIGH SCHOOL",
      "city": "SISTERS",
      "state": 38,
      "stateSpecified": true
    },
    {
      "fromDt": "05/2009",
      "toDt": "09/2009",
      "orgNm": "BLACK BUTTE RANCH",
      "city": "SISTERS",
      "state": 38,
      "stateSpecified": true
    },
    {
      "fromDt": "09/2009",
      "toDt": "06/2010",
      "orgNm": "SISTERS HIGH SCHOOL",
      "city": "SISTERS",
      "state": 38,
      "stateSpecified": true
    },
    {
      "fromDt": "05/2010",
      "toDt": "08/2010",
      "orgNm": "BLACK BUTTE RANCH",
      "city": "SISTERS",
      "state": 38,
      "stateSpecified": true
    },
    {
      "fromDt": "09/2010",
      "toDt": "06/2011",
      "orgNm": "WESTERN WASHINGTON UNIVERSITY",
      "city": "BELLINGHAM",
      "state": 49,
      "stateSpecified": true
    },
    {
      "fromDt": "06/2011",
      "toDt": "09/2011",
      "orgNm": "BLACK BUTTE RANCH",
      "city": "SISTERS",
      "state": 38,
      "stateSpecified": true
    },
    {
      "fromDt": "09/2011",
      "toDt": "12/2011",
      "orgNm": "WESTERN OREGON UNIVERSITY",
      "city": "MONMOUTH",
      "state": 38,
      "stateSpecified": true
    },
    {
      "fromDt": "01/2012",
      "toDt": "05/2012",
      "orgNm": "APPLEBEES",
      "city": "TUALATIN",
      "state": 38,
      "stateSpecified": true
    },
    {
      "fromDt": "06/2012",
      "toDt": "09/2012",
      "orgNm": "APPLEBEES",
      "city": "BEND",
      "state": 38,
      "stateSpecified": true
    },
    {
      "fromDt": "06/2012",
      "toDt": "09/2012",
      "orgNm": "THREE CREEKS BREWING CO.",
      "city": "SISTERS",
      "state": 38,
      "stateSpecified": true
    },
    {
      "fromDt": "09/2012",
      "toDt": "03/2013",
      "orgNm": "APPLEBEES",
      "city": "BEAVERTON",
      "state": 38,
      "stateSpecified": true
    },
    {
      "fromDt": "10/2012",
      "toDt": null,
      "orgNm": "WELLS FARGO BANK NA",
      "city": "PORTLAND",
      "state": 38,
      "stateSpecified": true
    },
    {
      "fromDt": "09/2013",
      "toDt": null,
      "orgNm": "WELLS FARGO ADVISORS LLC",
      "city": "PORTLAND",
      "state": 38,
      "stateSpecified": true
    }
  ],
  "OthrBuss": {
    "OthrBus": null
  },
  "DRPs": []
}