{
  "Info": {
    "lastNm": "MILLER",
    "firstNm": "JARED",
    "midNm": "SCOTT",
    "sufNm": null,
    "indvlPK": "6256828",
    "actvAGReg": 0,
    "link": "http://www.adviserinfo.sec.gov/IAPD/Individual/6256828"
  },
  "OthrNms": [],
  "CrntEmps": [
    {
      "CrntRgstns": [
        {
          "regAuth": 16,
          "regCat": 0,
          "st": 2,
          "stDt": "2014-03-05T00:00:00"
        },
        {
          "regAuth": 23,
          "regCat": 0,
          "st": 2,
          "stDt": "2015-09-23T00:00:00"
        }
      ],
      "BrnchOfLocs": [
        {
          "str1": "6910 N MAIN ST BLDG 16 UNIT 41",
          "str2": null,
          "city": "GRANGER",
          "state": 16,
          "stateSpecified": true,
          "cntry": "United States",
          "postlCd": "46530"
        }
      ],
      "orgNm": "KFG WEALTH MANAGEMENT, LLC",
      "orgPK": "128606",
      "str1": "6910 NORTH MAIN STREET",
      "str2": "BUILDING 16, UNIT 41",
      "city": "GRANGER",
      "state": 16,
      "stateSpecified": true,
      "cntry": "United States",
      "postlCd": "46530-8855"
    }
  ],
  "Exms": [
    {
      "exmCd": 3,
      "exmNm": "Uniform Combined State Law Examination",
      "exmDt": "2014-02-27T00:00:00",
      "exmDtSpecified": true
    }
  ],
  "Dsgntns": [],
  "PrevRgstns": [],
  "EmpHss": [
    {
      "fromDt": "08/2003",
      "toDt": "06/2007",
      "orgNm": "GOSHEN HIGH SCHOOL",
      "city": "GOSHEN",
      "state": 16,
      "stateSpecified": true
    },
    {
      "fromDt": "06/2007",
      "toDt": "11/2012",
      "orgNm": "KMC CONTROLS",
      "city": "NEW PARIS",
      "state": 16,
      "stateSpecified": true
    },
    {
      "fromDt": "01/2009",
      "toDt": "05/2010",
      "orgNm": "IUPUI",
      "city": "INDIANAPOLIS",
      "state": 16,
      "stateSpecified": true
    },
    {
      "fromDt": "08/2010",
      "toDt": "08/2012",
      "orgNm": "INDIANA UNIVERSITY-SOUTH BEND",
      "city": "SOUTH BEND",
      "state": 16,
      "stateSpecified": true
    },
    {
      "fromDt": "11/2012",
      "toDt": "07/2013",
      "orgNm": "SYLVIA BENJAMIN - STATE FARM",
      "city": "NAPPANEE",
      "state": 16,
      "stateSpecified": true
    },
    {
      "fromDt": "08/2013",
      "toDt": null,
      "orgNm": "Korhorn Financial Group",
      "city": "Granger",
      "state": 16,
      "stateSpecified": true
    },
    {
      "fromDt": "10/2013",
      "toDt": null,
      "orgNm": "SECURITIES AMERICA INC",
      "city": "GRANGER",
      "state": 16,
      "stateSpecified": true
    },
    {
      "fromDt": "03/2014",
      "toDt": null,
      "orgNm": "KFG WEALTH MANAGEMENT, LLC",
      "city": "GRANGER",
      "state": 16,
      "stateSpecified": true
    }
  ],
  "OthrBuss": {
    "OthrBus": {
      "desc": "KORHORN FINANCIAL GROUP, INC. POSITION: Employee NATURE: offer financial advice, manage investments, prepare taxes, offer insurance to our clients INVESTMENT RELATED: Yes NUMBER OF HOURS: 180 SECURITIES TRADING HOURS: 130 START DATE: 08/01/2013 ADDRESS: 6910 N Main St, Building 16, Unit 41, Granger IN 46530 DESCRIPTION: offer financial advice, manage investments, prepare taxes, offer insurance to our clients through the following business entities: KFG Wealth Management LLC, KFG Insurance agency LLC, KFG Tax & Business Services  KFG TAX & BUSINESS SERVICES POSITION: Tax Preparer NATURE: Tax Preparation INVESTMENT RELATED: No NUMBER OF HOURS: 10 SECURITIES TRADING HOURS: 130 START DATE: 02/01/2014 ADDRESS: 6910 N Main St, Building 16, Unit 41, Granger IN 46530 DESCRIPTION: Tax preparation, accounting, bookkeeping  KFG WEALTH MANAGEMENT, LLC POSITION: Para-Planner NATURE: Financial Planning & Investment Management Services INVESTMENT RELATED: Yes NUMBER OF HOURS: 135 SECURITIES TRADING HOURS: 117 START DATE: 11/01/2013 ADDRESS: 6910 N Main St, Building 16, Unit 41, Granger IN 46530 DESCRIPTION: Provide comprehensive financial planning and investment management services.  KFG INSURANCE AGENCY, LLC POSITION: Agent NATURE: Provide various insurance products and services. INVESTMENT RELATED: No NUMBER OF HOURS: 5 SECURITIES TRADING HOURS: 5 START DATE: 08/01/2013 ADDRESS: 6910 N Main St, Building 16, Unit 41, Granger IN 46530 DESCRIPTION: Provide various insurance products and services."
    }
  },
  "DRPs": []
}