{
  "Info": {
    "lastNm": "RODRIGUEZ",
    "firstNm": "MINDELL",
    "midNm": null,
    "sufNm": null,
    "indvlPK": "6256399",
    "actvAGReg": 0,
    "link": "http://www.adviserinfo.sec.gov/IAPD/Individual/6256399"
  },
  "OthrNms": [
    {
      "lastNm": "BEQUETTE",
      "firstNm": "MINDELL",
      "midNm": null,
      "sufNm": null
    },
    {
      "lastNm": "BEQUETTE",
      "firstNm": "MINDELL",
      "midNm": "KAYE",
      "sufNm": null
    },
    {
      "lastNm": "LANDRETH",
      "firstNm": "MINDELL",
      "midNm": "KAYE",
      "sufNm": null
    }
  ],
  "CrntEmps": [
    {
      "CrntRgstns": [
        {
          "regAuth": 26,
          "regCat": 0,
          "st": 2,
          "stDt": "2014-10-08T00:00:00"
        },
        {
          "regAuth": 45,
          "regCat": 0,
          "st": 2,
          "stDt": "2014-11-13T00:00:00"
        },
        {
          "regAuth": 19,
          "regCat": 0,
          "st": 2,
          "stDt": "2015-01-12T00:00:00"
        }
      ],
      "BrnchOfLocs": [
        {
          "str1": "401 EDWARDS ST",
          "str2": null,
          "city": "SHREVEPORT",
          "state": 19,
          "stateSpecified": true,
          "cntry": "United States",
          "postlCd": "71101"
        }
      ],
      "orgNm": "MERRILL LYNCH, PIERCE, FENNER & SMITH INCORPORATED",
      "orgPK": "7691",
      "str1": "ONE BRYANT PARK",
      "str2": null,
      "city": "NEW YORK",
      "state": 35,
      "stateSpecified": true,
      "cntry": "United States",
      "postlCd": "10036"
    }
  ],
  "Exms": [
    {
      "exmCd": 3,
      "exmNm": "Uniform Combined State Law Examination",
      "exmDt": "2014-10-07T00:00:00",
      "exmDtSpecified": true
    }
  ],
  "Dsgntns": [],
  "PrevRgstns": [],
  "EmpHss": [
    {
      "fromDt": "02/2005",
      "toDt": "01/2007",
      "orgNm": "UNEMPLOYED",
      "city": "LAKENHEATH, ENGLAND",
      "stateSpecified": false
    },
    {
      "fromDt": "01/2007",
      "toDt": "06/2008",
      "orgNm": "AAFES",
      "city": "LAKENHEATH, ENGLAND",
      "stateSpecified": false
    },
    {
      "fromDt": "06/2008",
      "toDt": "11/2010",
      "orgNm": "USAF",
      "city": "LAJES FIELD AZORES",
      "stateSpecified": false
    },
    {
      "fromDt": "11/2010",
      "toDt": "01/2011",
      "orgNm": "UNEMPLOYED",
      "city": "BOSSIER CITY",
      "state": 19,
      "stateSpecified": true
    },
    {
      "fromDt": "01/2011",
      "toDt": "07/2011",
      "orgNm": "SHREVEPORT JOB CORP",
      "city": "SHREVEPORT",
      "state": 19,
      "stateSpecified": true
    },
    {
      "fromDt": "07/2011",
      "toDt": "09/2013",
      "orgNm": "SELECT ENERGY SERVICES",
      "city": "DEBERRY",
      "state": 45,
      "stateSpecified": true
    },
    {
      "fromDt": "09/2013",
      "toDt": null,
      "orgNm": "MERRILL LYNCH, PIERCE, FENNER & SMITH INCORPORATED",
      "city": "SHREVEPORT",
      "state": 19,
      "stateSpecified": true
    }
  ],
  "OthrBuss": {
    "OthrBus": {
      "desc": "I*82700 FOR PROFIT OR NOT FOR PROFIT: NON-PROFIT ORGANIZATION  NAME OF OUTSIDE BUSINESS ORGANIZATION: MADISON PLACE HOA  INVESTMENT RELATED: N  ADDRESS OF BUSINESS:  BOSSIER CITY, LOUISIANA 71112  NATURE OF BUSINESS: CORPORATION,  POSITION, TITLE, ASSOCIATION: OFFICER,   START DATE OF RELATIONSHIP: 6/30/2015  NUMBER OF HOURS DEVOTED: 2 HOUR(S) QUARTERLY  NUMBER OF HOURS DEVOTED DURING TRADING HOURS: 0  DUTIES: I WAS A GENERAL VOLUNTEER OF OUR HOA COMMITTEE, NOW ALL BOARD MEMBERS HAVE UP AND QUIT.  THERE IS A MEETING TONIGHT WHERE I WILL FILL ALL POSITIONS AND TAKE THE ROLE OF PRESIDENT. I WILL RESIDE AT ALL MEETINGS, MONITOR DOCUMENTS, AND GENERAL HELP"
    }
  },
  "DRPs": []
}