{
  "Info": {
    "lastNm": "RILEY",
    "firstNm": "DAVID",
    "midNm": "MICHAEL",
    "sufNm": null,
    "indvlPK": "6263520",
    "actvAGReg": 1,
    "link": "http://www.adviserinfo.sec.gov/IAPD/Individual/6263520"
  },
  "OthrNms": [],
  "CrntEmps": [
    {
      "CrntRgstns": [
        {
          "regAuth": 45,
          "regCat": 0,
          "st": 2,
          "stDt": "2014-04-28T00:00:00"
        }
      ],
      "BrnchOfLocs": [
        {
          "str1": null,
          "str2": null,
          "city": "WESTLAKE",
          "state": 45,
          "stateSpecified": true,
          "cntry": "United States",
          "postlCd": null
        }
      ],
      "orgNm": "COPPER CRESCENT CAPITAL MANAGEMENT, LLC",
      "orgPK": "169402",
      "str1": null,
      "str2": null,
      "city": "WESTLAKE",
      "state": 45,
      "stateSpecified": true,
      "cntry": "United States",
      "postlCd": null
    }
  ],
  "Exms": [
    {
      "exmCd": 2,
      "exmNm": "Uniform Investment Adviser Law Examination",
      "exmDt": "2014-04-27T00:00:00",
      "exmDtSpecified": true
    }
  ],
  "Dsgntns": [],
  "PrevRgstns": [],
  "EmpHss": [
    {
      "fromDt": "07/2005",
      "toDt": "10/2007",
      "orgNm": "NEW HANOVER REGIONAL MEDICAL CENTER",
      "city": "WILMINGTON",
      "state": 28,
      "stateSpecified": true
    },
    {
      "fromDt": "10/2007",
      "toDt": null,
      "orgNm": "PEDIATRIX MEDICAL GROUP OF TEXAS",
      "city": "FORT WORTH",
      "state": 45,
      "stateSpecified": true
    },
    {
      "fromDt": "08/2013",
      "toDt": null,
      "orgNm": "COPPER CRESCENT CAPITAL MANAGEMENT",
      "city": "MANSFIELD",
      "state": 45,
      "stateSpecified": true
    }
  ],
  "OthrBuss": {
    "OthrBus": {
      "desc": "PEDIATRIX MEDICAL GROUP OF TEXAS; NON INVESTMENT-RELATED; 801 SEVENTH AVENUE, FORT WORTH, TEXAS 76104; NEONATOLOGY MEDICAL PRACTICE; POSITION - NEONATOLOGIST; START DATE - 10/2007; APPROXIMATE HOURS PER MONTH - 80-160 (ALL OF WHICH ARE DURING SECURITIES TRADING HOURS)"
    }
  },
  "DRPs": []
}