{
  "Info": {
    "lastNm": "Kluender",
    "firstNm": "Mark",
    "midNm": "Arnold",
    "sufNm": null,
    "indvlPK": "6263037",
    "actvAGReg": 0,
    "link": "http://www.adviserinfo.sec.gov/IAPD/Individual/6263037"
  },
  "OthrNms": [
    {
      "lastNm": "KLUENDER",
      "firstNm": "MARK",
      "midNm": null,
      "sufNm": null
    }
  ],
  "CrntEmps": [
    {
      "CrntRgstns": [
        {
          "regAuth": 24,
          "regCat": 0,
          "st": 2,
          "stDt": "2014-03-06T00:00:00"
        }
      ],
      "BrnchOfLocs": [
        {
          "str1": "2100 HOFFMAN RD",
          "str2": null,
          "city": "MANKATO",
          "state": 24,
          "stateSpecified": true,
          "cntry": "United States",
          "postlCd": "56001"
        }
      ],
      "orgNm": "EDWARD JONES",
      "orgPK": "250",
      "str1": "12555 MANCHESTER RD",
      "str2": null,
      "city": "ST. LOUIS",
      "state": 25,
      "stateSpecified": true,
      "cntry": "United States",
      "postlCd": "63131"
    }
  ],
  "Exms": [
    {
      "exmCd": 3,
      "exmNm": "Uniform Combined State Law Examination",
      "exmDt": "2014-03-06T00:00:00",
      "exmDtSpecified": true
    }
  ],
  "Dsgntns": [],
  "PrevRgstns": [],
  "EmpHss": [
    {
      "fromDt": "06/1999",
      "toDt": "11/2013",
      "orgNm": "SOUTH CENTRAL COLLEGE",
      "city": "NORTH MANKATO",
      "state": 24,
      "stateSpecified": true
    },
    {
      "fromDt": "11/2013",
      "toDt": null,
      "orgNm": "EDWARD JONES",
      "city": "ST LOUIS",
      "state": 25,
      "stateSpecified": true
    }
  ],
  "OthrBuss": {
    "OthrBus": {
      "desc": "Farmland Rental Minnesota Lake, MN  Start date: 4/15/2008  Owner / Landlord  Hours per week: 0  Hours during trading: 0  Maintain Property"
    }
  },
  "DRPs": []
}