{
  "Info": {
    "lastNm": "WOKURKA",
    "firstNm": "JOSHUA",
    "midNm": "KENNETH",
    "sufNm": null,
    "indvlPK": "6264233",
    "actvAGReg": 0,
    "link": "http://www.adviserinfo.sec.gov/IAPD/Individual/6264233"
  },
  "OthrNms": [],
  "CrntEmps": [
    {
      "CrntRgstns": [
        {
          "regAuth": 39,
          "regCat": 0,
          "st": 2,
          "stDt": "2015-01-09T00:00:00"
        }
      ],
      "BrnchOfLocs": [
        {
          "str1": "1500 MARKET STREET",
          "str2": "EAST TOWER 12TH FLOOR",
          "city": "PHILADELPHIA",
          "state": 39,
          "stateSpecified": true,
          "cntry": "United States",
          "postlCd": "19102"
        }
      ],
      "orgNm": "SECURIAN FINANCIAL SERVICES, INC.",
      "orgPK": "15296",
      "str1": "400 ROBERT STREET NORTH",
      "str2": null,
      "city": "ST PAUL",
      "state": 24,
      "stateSpecified": true,
      "cntry": "United States",
      "postlCd": "55101-2098"
    },
    {
      "CrntRgstns": [
        {
          "regAuth": 39,
          "regCat": 0,
          "st": 2,
          "stDt": "2015-01-09T00:00:00"
        }
      ],
      "BrnchOfLocs": [
        {
          "str1": "1500 MARKET STREET",
          "str2": "EAST TOWER 12 FLOOR",
          "city": "PHILADELPHIA",
          "state": 39,
          "stateSpecified": true,
          "cntry": "United States",
          "postlCd": "19102"
        }
      ],
      "orgNm": "CRI SECURITIES, LLC",
      "orgPK": "22589",
      "str1": "400 ROBERT STREET NORTH",
      "str2": null,
      "city": "ST.PAUL",
      "state": 24,
      "stateSpecified": true,
      "cntry": "United States",
      "postlCd": "55101"
    }
  ],
  "Exms": [
    {
      "exmCd": 3,
      "exmNm": "Uniform Combined State Law Examination",
      "exmDt": "2014-12-23T00:00:00",
      "exmDtSpecified": true
    }
  ],
  "Dsgntns": [],
  "PrevRgstns": [],
  "EmpHss": [
    {
      "fromDt": "09/2005",
      "toDt": "09/2009",
      "orgNm": "WILLOWBROOK HIGH SCHOOL",
      "city": "VILLA PARK",
      "state": 15,
      "stateSpecified": true
    },
    {
      "fromDt": "09/2009",
      "toDt": "05/2014",
      "orgNm": "UNIVERSITY OF MINNESOTA",
      "city": "MINNEAPOLIS",
      "state": 24,
      "stateSpecified": true
    },
    {
      "fromDt": "05/2011",
      "toDt": "05/2014",
      "orgNm": "CLASSIC GYMNASTICS",
      "city": "CHANHASSEN",
      "state": 24,
      "stateSpecified": true
    },
    {
      "fromDt": "10/2013",
      "toDt": "05/2014",
      "orgNm": "NORTH STAR CONSULTANTS, INC",
      "city": "MINNEAPOLIS",
      "state": 24,
      "stateSpecified": true
    },
    {
      "fromDt": "10/2013",
      "toDt": "06/2014",
      "orgNm": "SECURIAN FINANCIAL SERVICES, INC",
      "city": "ST PAUL",
      "state": 24,
      "stateSpecified": true
    },
    {
      "fromDt": "05/2014",
      "toDt": "09/2014",
      "orgNm": "NORTH STAR CONSULTANTS, INC",
      "city": "PHILADELPHIA",
      "state": 39,
      "stateSpecified": true
    },
    {
      "fromDt": "06/2014",
      "toDt": "09/2014",
      "orgNm": "CRI SECURITIES, LLC",
      "city": "ST PAUL",
      "state": 24,
      "stateSpecified": true
    },
    {
      "fromDt": "06/2014",
      "toDt": "09/2014",
      "orgNm": "SECURIAN FINANCIAL SERVICES, INC",
      "city": "ST PAUL",
      "state": 24,
      "stateSpecified": true
    },
    {
      "fromDt": "09/2014",
      "toDt": null,
      "orgNm": "CRI SECURITIES, LLC",
      "city": "ST PAUL",
      "state": 24,
      "stateSpecified": true
    },
    {
      "fromDt": "09/2014",
      "toDt": null,
      "orgNm": "MINNESOTA LIFE INSURANCE COMPANY",
      "city": "ST PAUL",
      "state": 24,
      "stateSpecified": true
    },
    {
      "fromDt": "09/2014",
      "toDt": null,
      "orgNm": "NORTH STAR CONSULTANTS, INC",
      "city": "PHILADELPHIA",
      "state": 39,
      "stateSpecified": true
    },
    {
      "fromDt": "09/2014",
      "toDt": null,
      "orgNm": "SECURIAN FINANCIAL SERVICES, INC",
      "city": "ST PAUL",
      "state": 24,
      "stateSpecified": true
    }
  ],
  "OthrBuss": {
    "OthrBus": {
      "desc": "NORTH STAR CONSULTANTS, INC & NORTH STAR BROKERAGE; MINNEAPOLIS, MN; INVESTMENT RELATED; FIXED INSURANCE; AGENT; 06/2016 TO PRESENT; 10 HR/MTH WITH 10 HR/MTH DURING TRADING HOURS."
    }
  },
  "DRPs": []
}