{
  "Info": {
    "lastNm": "GOLDA",
    "firstNm": "MICHAEL",
    "midNm": "B",
    "sufNm": null,
    "indvlPK": "6267330",
    "actvAGReg": 0,
    "link": "http://www.adviserinfo.sec.gov/IAPD/Individual/6267330"
  },
  "OthrNms": [],
  "CrntEmps": [
    {
      "CrntRgstns": [
        {
          "regAuth": 20,
          "regCat": 0,
          "st": 2,
          "stDt": "2015-06-16T00:00:00"
        }
      ],
      "BrnchOfLocs": [
        {
          "str1": "29 SAWYER ROAD",
          "str2": null,
          "city": "WALTHAM",
          "state": 20,
          "stateSpecified": true,
          "cntry": "UNITED STATES",
          "postlCd": "02453-3483"
        }
      ],
      "orgNm": "COMMONWEALTH FINANCIAL NETWORK",
      "orgPK": "8032",
      "str1": "29 SAWYER ROAD",
      "str2": null,
      "city": "WALTHAM",
      "state": 20,
      "stateSpecified": true,
      "cntry": "United States",
      "postlCd": "02453-3483"
    }
  ],
  "Exms": [
    {
      "exmCd": 3,
      "exmNm": "Uniform Combined State Law Examination",
      "exmDt": "2015-06-08T00:00:00",
      "exmDtSpecified": true
    }
  ],
  "Dsgntns": [],
  "PrevRgstns": [],
  "EmpHss": [
    {
      "fromDt": "09/2003",
      "toDt": "05/2007",
      "orgNm": "SAINT RAPHAEL ACADEMY",
      "city": "PAWTUCKET",
      "state": 41,
      "stateSpecified": true
    },
    {
      "fromDt": "09/2007",
      "toDt": "05/2011",
      "orgNm": "FULL-TIME STUDENT/JWU",
      "city": "PROVIDENCE",
      "state": 41,
      "stateSpecified": true
    },
    {
      "fromDt": "01/2011",
      "toDt": "02/2012",
      "orgNm": "CHIPOTLE",
      "city": "CRANSTON",
      "state": 41,
      "stateSpecified": true
    },
    {
      "fromDt": "04/2012",
      "toDt": "05/2013",
      "orgNm": "CONNECT INFINITY/CITIGROUP",
      "city": "NEW YORK CITY",
      "state": 35,
      "stateSpecified": true
    },
    {
      "fromDt": "05/2013",
      "toDt": "09/2013",
      "orgNm": "RETRIEVER MEDICAL/DENTAL PAYMENTS",
      "city": "VALHALLA",
      "state": 35,
      "stateSpecified": true
    },
    {
      "fromDt": "09/2013",
      "toDt": "11/2013",
      "orgNm": "UNEMPLOYED",
      "city": "PAWTUCKET",
      "state": 41,
      "stateSpecified": true
    },
    {
      "fromDt": "11/2013",
      "toDt": null,
      "orgNm": "COMMONWEALTH FINANCIAL NETWORK",
      "city": "WALTHAM",
      "state": 20,
      "stateSpecified": true
    }
  ],
  "OthrBuss": {
    "OthrBus": {
      "desc": "UBER DRIVER; NOT INVESTMENT RELATED; NOT CONDUCTED AT BRANCH LOCATION."
    }
  },
  "DRPs": []
}