{
  "Info": {
    "lastNm": "CONLIN",
    "firstNm": "PATRICK",
    "midNm": "THOMAS",
    "sufNm": null,
    "indvlPK": "6281247",
    "actvAGReg": 1,
    "link": "http://www.adviserinfo.sec.gov/IAPD/Individual/6281247"
  },
  "OthrNms": [],
  "CrntEmps": [
    {
      "CrntRgstns": [
        {
          "regAuth": 4,
          "regCat": 0,
          "st": 2,
          "stDt": "2014-04-04T00:00:00"
        }
      ],
      "BrnchOfLocs": [
        {
          "str1": null,
          "str2": null,
          "city": "BERKELEY",
          "state": 4,
          "stateSpecified": true,
          "cntry": "United States",
          "postlCd": null
        }
      ],
      "orgNm": "PATRICK T. CONLIN",
      "orgPK": "170000",
      "str1": null,
      "str2": null,
      "city": "BERKELEY",
      "state": 4,
      "stateSpecified": true,
      "cntry": "United States",
      "postlCd": null
    }
  ],
  "Exms": [
    {
      "exmCd": 2,
      "exmNm": "Uniform Investment Adviser Law Examination",
      "exmDt": "2014-04-03T00:00:00",
      "exmDtSpecified": true
    }
  ],
  "Dsgntns": [],
  "PrevRgstns": [],
  "EmpHss": [
    {
      "fromDt": "02/2002",
      "toDt": "06/2011",
      "orgNm": "EAP CONSULTANT (SOLE PROPRIETOR)",
      "city": "BERKELEY",
      "state": 4,
      "stateSpecified": true
    },
    {
      "fromDt": "07/2011",
      "toDt": null,
      "orgNm": "VALUEOPTIONS, INC.",
      "city": "SAN FRANCISCO",
      "state": 4,
      "stateSpecified": true
    }
  ],
  "OthrBuss": {
    "OthrBus": {
      "desc": "VALUEOPTIONS, INC. NON-INVESTMENT RELATED  245 MARKET STREET, SAN FRANCISCO, CA 94105  EMPLOYEE ASSISTANCE PROGRAM (EAP)  EAP/FFD SPECIALIST  7/1/2011  80  80  PROVIDE CONSULTATION TO MANAGERS AND SUPERVISORS REGARDING BEHAVIORAL RISKS IN THE WORKPLACE; PROVIDE CASE MANAGEMENT SERVICES TO EMPLOYEES WITH SERIOUS HEALTH PROBLEMS; PROVIDE PROGRAM EVALUATION AND DEVELOPMENT SERVICES."
    }
  },
  "DRPs": []
}