{
  "Info": {
    "lastNm": "WALLACE",
    "firstNm": "ASHLEY",
    "midNm": "NICOLE",
    "sufNm": null,
    "indvlPK": "6283863",
    "actvAGReg": 0,
    "link": "http://www.adviserinfo.sec.gov/IAPD/Individual/6283863"
  },
  "OthrNms": [],
  "CrntEmps": [
    {
      "CrntRgstns": [
        {
          "regAuth": 25,
          "regCat": 0,
          "st": 2,
          "stDt": "2016-02-25T00:00:00"
        },
        {
          "regAuth": 50,
          "regCat": 0,
          "st": 2,
          "stDt": "2016-04-13T00:00:00"
        },
        {
          "regAuth": 4,
          "regCat": 0,
          "st": 2,
          "stDt": "2016-05-03T00:00:00"
        },
        {
          "regAuth": 14,
          "regCat": 0,
          "st": 2,
          "stDt": "2016-07-08T00:00:00"
        }
      ],
      "BrnchOfLocs": [
        {
          "str1": "201 Progress Parkway",
          "str2": null,
          "city": "Maryland Heights",
          "state": 25,
          "stateSpecified": true,
          "cntry": "United States",
          "postlCd": "63043"
        }
      ],
      "orgNm": "EDWARD JONES",
      "orgPK": "250",
      "str1": "12555 MANCHESTER RD",
      "str2": null,
      "city": "ST. LOUIS",
      "state": 25,
      "stateSpecified": true,
      "cntry": "United States",
      "postlCd": "63131"
    }
  ],
  "Exms": [
    {
      "exmCd": 3,
      "exmNm": "Uniform Combined State Law Examination",
      "exmDt": "2014-12-05T00:00:00",
      "exmDtSpecified": true
    }
  ],
  "Dsgntns": [],
  "PrevRgstns": [
    {
      "BrnchOfLocs": [
        {
          "city": "ST LOUIS",
          "state": 25,
          "stateSpecified": true
        },
        {
          "city": "ST LOUIS",
          "state": 25,
          "stateSpecified": true
        },
        {
          "city": "ST LOUIS",
          "state": 25,
          "stateSpecified": true
        },
        {
          "city": "ST LOUIS",
          "state": 25,
          "stateSpecified": true
        }
      ],
      "orgNm": "EDWARD JONES",
      "orgPK": "250",
      "regBeginDt": "2014-12-08T00:00:00",
      "regBeginDtSpecified": true,
      "regEndDt": "2016-01-04T00:00:00",
      "regEndDtSpecified": true
    }
  ],
  "EmpHss": [
    {
      "fromDt": "08/2004",
      "toDt": "05/2009",
      "orgNm": "NORTHWEST R-1 SCHOOL DISTRICT",
      "city": "CEDAR HILL",
      "state": 25,
      "stateSpecified": true
    },
    {
      "fromDt": "05/2006",
      "toDt": "01/2007",
      "orgNm": "TACO BELL",
      "city": "PACIFIC",
      "state": 25,
      "stateSpecified": true
    },
    {
      "fromDt": "04/2007",
      "toDt": "07/2008",
      "orgNm": "SIX FLAGS",
      "city": "EUREKA",
      "state": 25,
      "stateSpecified": true
    },
    {
      "fromDt": "07/2008",
      "toDt": "09/2010",
      "orgNm": "CAPTAIN D'S",
      "city": "HOUSE SPRINGS",
      "state": 25,
      "stateSpecified": true
    },
    {
      "fromDt": "09/2010",
      "toDt": "05/2011",
      "orgNm": "DOLLAR GENERAL",
      "city": "IMPERIAL",
      "state": 25,
      "stateSpecified": true
    },
    {
      "fromDt": "01/2011",
      "toDt": "02/2011",
      "orgNm": "WALMART",
      "city": "FESTUS",
      "state": 25,
      "stateSpecified": true
    },
    {
      "fromDt": "05/2011",
      "toDt": "06/2014",
      "orgNm": "STEAK 'N SHAKE",
      "city": "FENTON",
      "state": 25,
      "stateSpecified": true
    },
    {
      "fromDt": "02/2013",
      "toDt": "11/2013",
      "orgNm": "MONETA GROUP",
      "city": "ST LOUIS",
      "state": 25,
      "stateSpecified": true
    },
    {
      "fromDt": "11/2013",
      "toDt": "10/2014",
      "orgNm": "STEPHEN MATHIAS & CO, INC",
      "city": "ST LOUIS",
      "state": 25,
      "stateSpecified": true
    },
    {
      "fromDt": "10/2014",
      "toDt": "12/2015",
      "orgNm": "EDWARD JONES",
      "city": "ST LOUIS",
      "state": 25,
      "stateSpecified": true
    },
    {
      "fromDt": "12/2015",
      "toDt": "02/2016",
      "orgNm": "UNEMPLOYED",
      "city": "St Louis",
      "state": 25,
      "stateSpecified": true
    },
    {
      "fromDt": "02/2016",
      "toDt": null,
      "orgNm": "Edward Jones",
      "city": "St Louis",
      "state": 25,
      "stateSpecified": true
    }
  ],
  "OthrBuss": {
    "OthrBus": null
  },
  "DRPs": []
}