{
  "Info": {
    "lastNm": "TEMPLETON",
    "firstNm": "DYLAN",
    "midNm": "W",
    "sufNm": null,
    "indvlPK": "6283644",
    "actvAGReg": 0,
    "link": "http://www.adviserinfo.sec.gov/IAPD/Individual/6283644"
  },
  "OthrNms": [
    {
      "lastNm": "TEMPLETON",
      "firstNm": "DYLAN",
      "midNm": "WILLIAM",
      "sufNm": null
    }
  ],
  "CrntEmps": [
    {
      "CrntRgstns": [
        {
          "regAuth": 10,
          "regCat": 0,
          "st": 2,
          "stDt": "2014-04-01T00:00:00"
        },
        {
          "regAuth": 45,
          "regCat": 0,
          "st": 2,
          "stDt": "2014-05-21T00:00:00"
        }
      ],
      "BrnchOfLocs": [
        {
          "str1": "3455 PEACHTREE RD NE",
          "str2": null,
          "city": "ATLANTA",
          "state": 10,
          "stateSpecified": true,
          "cntry": "United States",
          "postlCd": "30326"
        }
      ],
      "orgNm": "MERRILL LYNCH, PIERCE, FENNER & SMITH INCORPORATED",
      "orgPK": "7691",
      "str1": "ONE BRYANT PARK",
      "str2": null,
      "city": "NEW YORK",
      "state": 35,
      "stateSpecified": true,
      "cntry": "United States",
      "postlCd": "10036"
    }
  ],
  "Exms": [
    {
      "exmCd": 3,
      "exmNm": "Uniform Combined State Law Examination",
      "exmDt": "2014-03-28T00:00:00",
      "exmDtSpecified": true
    }
  ],
  "Dsgntns": [],
  "PrevRgstns": [],
  "EmpHss": [
    {
      "fromDt": "09/2003",
      "toDt": "09/2006",
      "orgNm": "AUTREY MILL MIDDLE SCHOOL",
      "city": "JOHNS CREEK",
      "state": 10,
      "stateSpecified": true
    },
    {
      "fromDt": "09/2006",
      "toDt": "09/2010",
      "orgNm": "CHATTAHOOCHEE HIGH SCHOOL",
      "city": "JOHNS CREEK",
      "state": 10,
      "stateSpecified": true
    },
    {
      "fromDt": "09/2010",
      "toDt": "12/2013",
      "orgNm": "UNIVERSITY OF CALIFORNIA SANTA BARBARA",
      "city": "SANTA BARBARA",
      "state": 4,
      "stateSpecified": true
    },
    {
      "fromDt": "12/2013",
      "toDt": null,
      "orgNm": "MERRILL LYNCH, PIERCE, FENNER & SMITH INCORPORATED",
      "city": "ATLANTA",
      "state": 10,
      "stateSpecified": true
    },
    {
      "fromDt": "06/2014",
      "toDt": null,
      "orgNm": "BANK OF AMERICA, N.A.",
      "city": "ATLANTA",
      "state": 10,
      "stateSpecified": true
    }
  ],
  "OthrBuss": {
    "OthrBus": null
  },
  "DRPs": []
}