{
  "Info": {
    "lastNm": "FIERSTEIN",
    "firstNm": "JUSTIN",
    "midNm": "CORTE",
    "sufNm": null,
    "indvlPK": "6292164",
    "actvAGReg": 0,
    "link": "http://www.adviserinfo.sec.gov/IAPD/Individual/6292164"
  },
  "OthrNms": [],
  "CrntEmps": [
    {
      "CrntRgstns": [
        {
          "regAuth": 5,
          "regCat": 0,
          "st": 2,
          "stDt": "2014-04-04T00:00:00"
        },
        {
          "regAuth": 45,
          "regCat": 0,
          "st": 2,
          "stDt": "2014-09-11T00:00:00"
        }
      ],
      "BrnchOfLocs": [
        {
          "str1": "1129 MAIN AVE",
          "str2": null,
          "city": "DURANGO",
          "state": 5,
          "stateSpecified": true,
          "cntry": "United States",
          "postlCd": "81301"
        }
      ],
      "orgNm": "WELLS FARGO ADVISORS, LLC",
      "orgPK": "19616",
      "str1": "ONE NORTH JEFFERSON AVENUE",
      "str2": "MAIL CODE: H0004-050",
      "city": "ST. LOUIS",
      "state": 25,
      "stateSpecified": true,
      "cntry": "United States",
      "postlCd": "63103-2205"
    }
  ],
  "Exms": [
    {
      "exmCd": 3,
      "exmNm": "Uniform Combined State Law Examination",
      "exmDt": "2014-04-04T00:00:00",
      "exmDtSpecified": true
    }
  ],
  "Dsgntns": [],
  "PrevRgstns": [],
  "EmpHss": [
    {
      "fromDt": "10/2005",
      "toDt": "06/2011",
      "orgNm": "BOULDER AVIATION MANAGEMENT",
      "city": "BROOMFIELD",
      "state": 5,
      "stateSpecified": true
    },
    {
      "fromDt": "06/2011",
      "toDt": "01/2014",
      "orgNm": "TRUSTILE DOORS, LLC",
      "city": "DENVER",
      "state": 5,
      "stateSpecified": true
    },
    {
      "fromDt": "01/2014",
      "toDt": null,
      "orgNm": "WELLS FARGO ADVISORS, LLC",
      "city": "DURANGO",
      "state": 5,
      "stateSpecified": true
    }
  ],
  "OthrBuss": {
    "OthrBus": null
  },
  "DRPs": []
}