{
  "Info": {
    "lastNm": "RYAN",
    "firstNm": "BRETT",
    "midNm": "LEE",
    "sufNm": null,
    "indvlPK": "6294824",
    "actvAGReg": 1,
    "link": "http://www.adviserinfo.sec.gov/IAPD/Individual/6294824"
  },
  "OthrNms": [],
  "CrntEmps": [
    {
      "CrntRgstns": [
        {
          "regAuth": 28,
          "regCat": 0,
          "st": 2,
          "stDt": "2015-06-08T00:00:00"
        }
      ],
      "BrnchOfLocs": [
        {
          "str1": "10706 SIKES PLACE",
          "str2": "SUITE 175",
          "city": "CHARLOTTE",
          "state": 28,
          "stateSpecified": true,
          "cntry": "United States",
          "postlCd": "28277"
        }
      ],
      "orgNm": "RONALD BLUE & CO., LLC",
      "orgPK": "104605",
      "str1": "300 COLONIAL CENTER PARKWAY",
      "str2": "SUITE 300",
      "city": "ROSWELL",
      "state": 10,
      "stateSpecified": true,
      "cntry": "United States",
      "postlCd": "30076-8843"
    }
  ],
  "Exms": [
    {
      "exmCd": 2,
      "exmNm": "Uniform Investment Adviser Law Examination",
      "exmDt": "2015-06-08T00:00:00",
      "exmDtSpecified": true
    }
  ],
  "Dsgntns": [],
  "PrevRgstns": [],
  "EmpHss": [
    {
      "fromDt": "02/2005",
      "toDt": "05/2009",
      "orgNm": "FULL TIME STUDENT",
      "city": "CANISTEO",
      "state": 35,
      "stateSpecified": true
    },
    {
      "fromDt": "01/2006",
      "toDt": "06/2014",
      "orgNm": "IMUCORP",
      "city": "CANISTEO",
      "state": 35,
      "stateSpecified": true
    },
    {
      "fromDt": "06/2009",
      "toDt": "09/2009",
      "orgNm": "MARCUS TREE FARMS",
      "city": "ARKPOST",
      "state": 35,
      "stateSpecified": true
    },
    {
      "fromDt": "09/2009",
      "toDt": "05/2011",
      "orgNm": "LIBERTY UNIVERSITY",
      "city": "LYNCHBURG",
      "state": 47,
      "stateSpecified": true
    },
    {
      "fromDt": "06/2011",
      "toDt": "08/2011",
      "orgNm": "VECTOR MARKETING",
      "city": "OLEAN",
      "state": 35,
      "stateSpecified": true
    },
    {
      "fromDt": "09/2011",
      "toDt": "12/2012",
      "orgNm": "LIBERTY UNIVERSITY",
      "city": "LYNCHBURG",
      "state": 47,
      "stateSpecified": true
    },
    {
      "fromDt": "06/2012",
      "toDt": "08/2012",
      "orgNm": "BANK OF AMERICA MERRILL LYNCH",
      "city": "CORNING",
      "state": 35,
      "stateSpecified": true
    },
    {
      "fromDt": "01/2013",
      "toDt": "06/2014",
      "orgNm": "HILLSIDE FAMILY OF AGENCIES",
      "city": "BATH",
      "state": 35,
      "stateSpecified": true
    },
    {
      "fromDt": "01/2014",
      "toDt": "10/2014",
      "orgNm": "CTC FINANCIAL SERVICES",
      "city": "ALMOND",
      "state": 35,
      "stateSpecified": true
    },
    {
      "fromDt": "10/2014",
      "toDt": null,
      "orgNm": "RONALD BLUE & CO.",
      "city": "CHARLOTTE",
      "state": 28,
      "stateSpecified": true
    }
  ],
  "OthrBuss": {
    "OthrBus": null
  },
  "DRPs": []
}