{
  "Info": {
    "lastNm": "CORCHES",
    "firstNm": "MIRCEA",
    "midNm": null,
    "sufNm": null,
    "indvlPK": "6295422",
    "actvAGReg": 0,
    "link": "http://www.adviserinfo.sec.gov/IAPD/Individual/6295422"
  },
  "OthrNms": [
    {
      "lastNm": "CORCHES",
      "firstNm": "MITCH",
      "midNm": null,
      "sufNm": null
    },
    {
      "lastNm": "CORCHES",
      "firstNm": "MITCH",
      "midNm": null,
      "sufNm": null
    }
  ],
  "CrntEmps": [
    {
      "CrntRgstns": [
        {
          "regAuth": 9,
          "regCat": 0,
          "st": 2,
          "stDt": "2015-06-16T00:00:00"
        }
      ],
      "BrnchOfLocs": [
        {
          "str1": "2 ALHAMBRA PLAZA 10TH FLOOR",
          "str2": "SUITE 1050",
          "city": "CORAL GABLES",
          "state": 9,
          "stateSpecified": true,
          "cntry": "United States",
          "postlCd": "33134"
        },
        {
          "str1": "560 VILLAGE BLVD. BRANDYWINE CTR. II",
          "str2": "STE. 100",
          "city": "W. PALM BEACH",
          "state": 9,
          "stateSpecified": true,
          "cntry": "United States",
          "postlCd": "33409"
        }
      ],
      "orgNm": "PRUCO SECURITIES, LLC.",
      "orgPK": "5685",
      "str1": "751 BROAD STREET",
      "str2": null,
      "city": "NEWARK",
      "state": 32,
      "stateSpecified": true,
      "cntry": "United States",
      "postlCd": "07102-3777"
    }
  ],
  "Exms": [
    {
      "exmCd": 2,
      "exmNm": "Uniform Investment Adviser Law Examination",
      "exmDt": "2015-06-04T00:00:00",
      "exmDtSpecified": true
    }
  ],
  "Dsgntns": [],
  "PrevRgstns": [],
  "EmpHss": [
    {
      "fromDt": "09/2003",
      "toDt": "08/2006",
      "orgNm": "THE IMAGE GROUP",
      "city": "SEVERAL",
      "state": 9,
      "stateSpecified": true
    },
    {
      "fromDt": "11/2006",
      "toDt": "12/2012",
      "orgNm": "PARK WEST - PLYMOUTH AUCTIONEERING",
      "city": "SEVERAL",
      "state": 9,
      "stateSpecified": true
    },
    {
      "fromDt": "01/2013",
      "toDt": "06/2013",
      "orgNm": "UNEMPLOYED",
      "city": "MIAMI",
      "state": 9,
      "stateSpecified": true
    },
    {
      "fromDt": "07/2013",
      "toDt": "09/2013",
      "orgNm": "GALLERY OF AMAZING THINGS",
      "city": "DANIA BEACH",
      "state": 9,
      "stateSpecified": true
    },
    {
      "fromDt": "08/2013",
      "toDt": "12/2013",
      "orgNm": "ART FINDERS, LLC",
      "city": "WILMINGTON",
      "state": 8,
      "stateSpecified": true
    },
    {
      "fromDt": "01/2014",
      "toDt": null,
      "orgNm": "PRUCO SECURITIES LLC",
      "city": "CORAL GABLES",
      "state": 9,
      "stateSpecified": true
    },
    {
      "fromDt": "01/2014",
      "toDt": null,
      "orgNm": "THE PRUDENTIAL INSURANCE COMPANY OF AMERICA",
      "city": "CORAL GABLES",
      "state": 9,
      "stateSpecified": true
    }
  ],
  "OthrBuss": {
    "OthrBus": {
      "desc": "Allianz Life Ins Co Of North America|American General Life Ins Co|Assuranceamerica Ins Co|Delaware American Life Ins Co|MetLife Ins Co of Connecticut|Symetra Life Ins Co|United Healthcare of North Carolina"
    }
  },
  "DRPs": []
}