{
  "Info": {
    "lastNm": "KOZELKA",
    "firstNm": "TYLER",
    "midNm": "MICHAEL",
    "sufNm": null,
    "indvlPK": "6298465",
    "actvAGReg": 0,
    "link": "http://www.adviserinfo.sec.gov/IAPD/Individual/6298465"
  },
  "OthrNms": [
    {
      "lastNm": "KOZELKA",
      "firstNm": "TYLER",
      "midNm": null,
      "sufNm": null
    }
  ],
  "CrntEmps": [
    {
      "CrntRgstns": [
        {
          "regAuth": 50,
          "regCat": 0,
          "st": 2,
          "stDt": "2015-05-22T00:00:00"
        }
      ],
      "BrnchOfLocs": [
        {
          "str1": "1500 E. LAPOINTE STREET",
          "str2": null,
          "city": "PRAIRIE DU CHIEN",
          "state": 50,
          "stateSpecified": true,
          "cntry": "United States",
          "postlCd": "53821"
        }
      ],
      "orgNm": "LPL FINANCIAL LLC",
      "orgPK": "6413",
      "str1": "75 STATE STREET, 22ND FLOOR",
      "str2": null,
      "city": "BOSTON",
      "state": 20,
      "stateSpecified": true,
      "cntry": "United States",
      "postlCd": "02109"
    }
  ],
  "Exms": [
    {
      "exmCd": 3,
      "exmNm": "Uniform Combined State Law Examination",
      "exmDt": "2014-04-04T00:00:00",
      "exmDtSpecified": true
    }
  ],
  "Dsgntns": [],
  "PrevRgstns": [
    {
      "BrnchOfLocs": [
        {
          "city": "ONALASKA",
          "state": 50,
          "stateSpecified": true
        },
        {
          "city": "ST LOUIS",
          "state": 25,
          "stateSpecified": true
        },
        {
          "city": "ST LOUIS",
          "state": 25,
          "stateSpecified": true
        }
      ],
      "orgNm": "EDWARD JONES",
      "orgPK": "250",
      "regBeginDt": "2014-04-07T00:00:00",
      "regBeginDtSpecified": true,
      "regEndDt": "2014-12-22T00:00:00",
      "regEndDtSpecified": true
    }
  ],
  "EmpHss": [
    {
      "fromDt": "10/2006",
      "toDt": "08/2010",
      "orgNm": "SPORTS WORLD",
      "city": "PRAIRIE DU CHIEN",
      "state": 50,
      "stateSpecified": true
    },
    {
      "fromDt": "08/2009",
      "toDt": "05/2010",
      "orgNm": "COE COLLEGE",
      "city": "CEDAR RAPIDS",
      "state": 13,
      "stateSpecified": true
    },
    {
      "fromDt": "10/2010",
      "toDt": "08/2012",
      "orgNm": "POLO RALPH LAUREN",
      "city": "JOHNSON CREEK",
      "state": 50,
      "stateSpecified": true
    },
    {
      "fromDt": "06/2012",
      "toDt": "04/2013",
      "orgNm": "THE BLACK SHEEP RESTAURANT",
      "city": "WHITEWATER",
      "state": 50,
      "stateSpecified": true
    },
    {
      "fromDt": "06/2013",
      "toDt": "12/2013",
      "orgNm": "OUR HOUSE SENIOR LIVING",
      "city": "WHITEWATER",
      "state": 50,
      "stateSpecified": true
    },
    {
      "fromDt": "08/2013",
      "toDt": "01/2014",
      "orgNm": "WATERTOWN UNIFIED SCHOOL DISTRICT",
      "city": "WATERTOWN",
      "state": 50,
      "stateSpecified": true
    },
    {
      "fromDt": "02/2014",
      "toDt": "12/2014",
      "orgNm": "EDWARD JONES",
      "city": "ST LOUIS",
      "state": 25,
      "stateSpecified": true
    },
    {
      "fromDt": "03/2015",
      "toDt": "05/2015",
      "orgNm": "THE FREIGHT HOUSE RESTAURANT",
      "city": "LA CROSSE",
      "state": 50,
      "stateSpecified": true
    },
    {
      "fromDt": "05/2015",
      "toDt": null,
      "orgNm": "LPL FINANCIAL",
      "city": "PRAIRIE DU CHIEN",
      "state": 50,
      "stateSpecified": true
    },
    {
      "fromDt": "05/2015",
      "toDt": null,
      "orgNm": "PEOPLES STATE BANK",
      "city": "PRAIRIE DU CHIEN",
      "state": 50,
      "stateSpecified": true
    }
  ],
  "OthrBuss": {
    "OthrBus": {
      "desc": "(1) 06/08/2015 - PEOPLES INVESTMENT CENTER - DBA FOR LPL BUSINESS (ENTITY FOR LPL BUSINESS) - INV REL - 1500 EAST LAPOINTE STREET PRAIRIE DU CHIEN, WI 53821 - START 05/15/2015 - 30 HRS/MO DURING SECS TRDG HRS"
    }
  },
  "DRPs": []
}