{
  "Info": {
    "lastNm": "GALLAGHER",
    "firstNm": "MICHAEL",
    "midNm": "JOSEPH",
    "sufNm": null,
    "indvlPK": "6302939",
    "actvAGReg": 1,
    "link": "http://www.adviserinfo.sec.gov/IAPD/Individual/6302939"
  },
  "OthrNms": [],
  "CrntEmps": [
    {
      "CrntRgstns": [
        {
          "regAuth": 4,
          "regCat": 0,
          "st": 2,
          "stDt": "2014-03-28T00:00:00"
        }
      ],
      "BrnchOfLocs": [
        {
          "str1": "17500 DEPOT STREET",
          "str2": "#220",
          "city": "MORGAN HILL",
          "state": 4,
          "stateSpecified": true,
          "cntry": "United States",
          "postlCd": "95037"
        },
        {
          "str1": "19330 STEVENS CREEK BLVD",
          "str2": "SUITE 200",
          "city": "CUPERTINO",
          "state": 4,
          "stateSpecified": true,
          "cntry": "United States",
          "postlCd": "95014"
        }
      ],
      "orgNm": "OPES ADVISORS, INC.",
      "orgPK": "132996",
      "str1": "19330 STEVENS CREEK BLVD",
      "str2": "SUITE 200",
      "city": "CUPERTINO",
      "state": 4,
      "stateSpecified": true,
      "cntry": "United States",
      "postlCd": "95014"
    }
  ],
  "Exms": [
    {
      "exmCd": 2,
      "exmNm": "Uniform Investment Adviser Law Examination",
      "exmDt": "2014-03-28T00:00:00",
      "exmDtSpecified": true
    }
  ],
  "Dsgntns": [],
  "PrevRgstns": [],
  "EmpHss": [
    {
      "fromDt": "02/2004",
      "toDt": "12/2010",
      "orgNm": "AVANTIS CAPITOL",
      "city": "MORGAN HILL",
      "state": 4,
      "stateSpecified": true
    },
    {
      "fromDt": "01/2011",
      "toDt": "09/2013",
      "orgNm": "WESTERN BANCORD",
      "city": "MORGAN HILL",
      "state": 4,
      "stateSpecified": true
    },
    {
      "fromDt": "09/2013",
      "toDt": null,
      "orgNm": "OPES ADVISORS",
      "city": "MORGAN HILL",
      "state": 4,
      "stateSpecified": true
    }
  ],
  "OthrBuss": {
    "OthrBus": null
  },
  "DRPs": []
}