{
  "Info": {
    "lastNm": "Reed",
    "firstNm": "Scott",
    "midNm": null,
    "sufNm": null,
    "indvlPK": "6302812",
    "actvAGReg": 0,
    "link": "http://www.adviserinfo.sec.gov/IAPD/Individual/6302812"
  },
  "OthrNms": [
    {
      "lastNm": "REED",
      "firstNm": "SCOTT",
      "midNm": null,
      "sufNm": null
    }
  ],
  "CrntEmps": [
    {
      "CrntRgstns": [
        {
          "regAuth": 23,
          "regCat": 0,
          "st": 2,
          "stDt": "2014-07-10T00:00:00"
        }
      ],
      "BrnchOfLocs": [
        {
          "str1": "5140 STATE ST",
          "str2": null,
          "city": "SAGINAW",
          "state": 23,
          "stateSpecified": true,
          "cntry": "United States",
          "postlCd": "48603"
        }
      ],
      "orgNm": "EDWARD JONES",
      "orgPK": "250",
      "str1": "12555 MANCHESTER RD",
      "str2": null,
      "city": "ST. LOUIS",
      "state": 25,
      "stateSpecified": true,
      "cntry": "United States",
      "postlCd": "63131"
    }
  ],
  "Exms": [
    {
      "exmCd": 3,
      "exmNm": "Uniform Combined State Law Examination",
      "exmDt": "2014-05-09T00:00:00",
      "exmDtSpecified": true
    }
  ],
  "Dsgntns": [],
  "PrevRgstns": [],
  "EmpHss": [
    {
      "fromDt": "01/2006",
      "toDt": "06/2010",
      "orgNm": "PFIZER",
      "city": "KALAMAZOO",
      "state": 23,
      "stateSpecified": true
    },
    {
      "fromDt": "07/2010",
      "toDt": "02/2014",
      "orgNm": "DOW CORNING",
      "city": "MIDLAND",
      "state": 23,
      "stateSpecified": true
    },
    {
      "fromDt": "03/2014",
      "toDt": null,
      "orgNm": "EDWARD JONES",
      "city": "ST LOUIS",
      "state": 25,
      "stateSpecified": true
    }
  ],
  "OthrBuss": {
    "OthrBus": null
  },
  "DRPs": []
}