{
  "Info": {
    "lastNm": "BARRICK",
    "firstNm": "THOMAS",
    "midNm": "JEFFREY",
    "sufNm": null,
    "indvlPK": "6304340",
    "actvAGReg": 0,
    "link": "http://www.adviserinfo.sec.gov/IAPD/Individual/6304340"
  },
  "OthrNms": [
    {
      "lastNm": "BARRICK",
      "firstNm": "THOMAS",
      "midNm": "JEFFREY",
      "sufNm": null
    },
    {
      "lastNm": "BARRICK",
      "firstNm": "THOMAS",
      "midNm": "JEFFREY",
      "sufNm": "J"
    }
  ],
  "CrntEmps": [
    {
      "CrntRgstns": [
        {
          "regAuth": 18,
          "regCat": 0,
          "st": 2,
          "stDt": "2015-02-04T00:00:00"
        },
        {
          "regAuth": 45,
          "regCat": 0,
          "st": 2,
          "stDt": "2015-02-04T00:00:00"
        }
      ],
      "BrnchOfLocs": [
        {
          "str1": "100 HOWE DRIVE",
          "str2": null,
          "city": "COVINGTON",
          "state": 18,
          "stateSpecified": true,
          "cntry": "United States",
          "postlCd": "41015"
        }
      ],
      "orgNm": "STRATEGIC ADVISERS, INC.",
      "orgPK": "104555",
      "str1": "245 SUMMER STREET, V10G",
      "str2": null,
      "city": "BOSTON",
      "state": 20,
      "stateSpecified": true,
      "cntry": "United States",
      "postlCd": "02210"
    }
  ],
  "Exms": [
    {
      "exmCd": 0,
      "exmNm": "Uniform Securities Agent State Law Examination",
      "exmDt": "2014-05-07T00:00:00",
      "exmDtSpecified": true
    },
    {
      "exmCd": 3,
      "exmNm": "Uniform Combined State Law Examination",
      "exmDt": "2015-02-02T00:00:00",
      "exmDtSpecified": true
    }
  ],
  "Dsgntns": [],
  "PrevRgstns": [],
  "EmpHss": [
    {
      "fromDt": "01/2004",
      "toDt": "05/2008",
      "orgNm": "GAHANNA LINCOLN",
      "city": "GAHANNA",
      "state": 36,
      "stateSpecified": true
    },
    {
      "fromDt": "05/2008",
      "toDt": "05/2012",
      "orgNm": "NORTHERN KENTUCKY UNIVERSITY",
      "city": "HIGHLAND HEIGHTS",
      "state": 18,
      "stateSpecified": true
    },
    {
      "fromDt": "05/2012",
      "toDt": "09/2012",
      "orgNm": "TOTAL QUALITY LOGISTICS",
      "city": "CINCINNATI",
      "state": 36,
      "stateSpecified": true
    },
    {
      "fromDt": "09/2012",
      "toDt": "07/2013",
      "orgNm": "AAA ALLIED GROUP",
      "city": "CINCINNATI",
      "state": 36,
      "stateSpecified": true
    },
    {
      "fromDt": "07/2013",
      "toDt": null,
      "orgNm": "FIDELITY",
      "city": "COVINGTON",
      "state": 18,
      "stateSpecified": true
    }
  ],
  "OthrBuss": {
    "OthrBus": null
  },
  "DRPs": []
}