{
  "Info": {
    "lastNm": "SILVERMAN",
    "firstNm": "ETHAN",
    "midNm": "MARC",
    "sufNm": null,
    "indvlPK": "6311979",
    "actvAGReg": 0,
    "link": "http://www.adviserinfo.sec.gov/IAPD/Individual/6311979"
  },
  "OthrNms": [],
  "CrntEmps": [
    {
      "CrntRgstns": [
        {
          "regAuth": 25,
          "regCat": 0,
          "st": 2,
          "stDt": "2016-05-20T00:00:00"
        }
      ],
      "BrnchOfLocs": [
        {
          "str1": "7733 Forsyth Boulevard",
          "str2": "Suite 2100",
          "city": "CLAYTON",
          "state": 25,
          "stateSpecified": true,
          "cntry": "United States",
          "postlCd": "63105"
        }
      ],
      "orgNm": "MORGAN STANLEY",
      "orgPK": "149777",
      "str1": "2000 WESTCHESTER AVENUE",
      "str2": null,
      "city": "PURCHASE",
      "state": 35,
      "stateSpecified": true,
      "cntry": "United States",
      "postlCd": "10577-2530"
    }
  ],
  "Exms": [
    {
      "exmCd": 3,
      "exmNm": "Uniform Combined State Law Examination",
      "exmDt": "2014-08-08T00:00:00",
      "exmDtSpecified": true
    }
  ],
  "Dsgntns": [],
  "PrevRgstns": [
    {
      "BrnchOfLocs": [
        {
          "city": "CREVE COEUR",
          "state": 25,
          "stateSpecified": true
        }
      ],
      "orgNm": "WADDELL & REED",
      "orgPK": "866",
      "regBeginDt": "2014-09-05T00:00:00",
      "regBeginDtSpecified": true,
      "regEndDt": "2016-06-02T00:00:00",
      "regEndDtSpecified": true
    }
  ],
  "EmpHss": [
    {
      "fromDt": "01/2004",
      "toDt": "07/2008",
      "orgNm": "FOOTBALL AMERICA/TEAM EXPRESS",
      "city": "LAUREL",
      "state": 21,
      "stateSpecified": true
    },
    {
      "fromDt": "07/2008",
      "toDt": "03/2013",
      "orgNm": "SILVER & STEIN GAMEDAY ACADEMY",
      "city": "VALLEY PARK",
      "state": 25,
      "stateSpecified": true
    },
    {
      "fromDt": "06/2010",
      "toDt": "01/2014",
      "orgNm": "S&S PREP BASEBALL REPORT-MISSOURI",
      "city": "ST. LOUIS",
      "state": 25,
      "stateSpecified": true
    },
    {
      "fromDt": "08/2012",
      "toDt": "10/2014",
      "orgNm": "MID AMERICA TEAM SPORTS",
      "city": "CHESTERFIELD",
      "state": 25,
      "stateSpecified": true
    },
    {
      "fromDt": "03/2014",
      "toDt": "07/2014",
      "orgNm": "MORGAN STANLEY SMITH BARNEY LLC",
      "city": "CLAYTON",
      "state": 25,
      "stateSpecified": true
    },
    {
      "fromDt": "09/2014",
      "toDt": "05/2016",
      "orgNm": "WADDELL AND REED, INC",
      "city": "CREVE COEUR",
      "state": 25,
      "stateSpecified": true
    },
    {
      "fromDt": "10/2014",
      "toDt": "05/2016",
      "orgNm": "VARIOUS INSURANCE CARRIERS FOR W&R INSURANCE AGENCIES",
      "city": "SAINT LOUIS",
      "state": 25,
      "stateSpecified": true
    },
    {
      "fromDt": "05/2016",
      "toDt": null,
      "orgNm": "MORGAN STANLEY SMITH BARNEY LLC",
      "city": "CLAYTON",
      "state": 25,
      "stateSpecified": true
    }
  ],
  "OthrBuss": {
    "OthrBus": null
  },
  "DRPs": []
}