{
  "Info": {
    "lastNm": "HOSTERT",
    "firstNm": "KEVIN",
    "midNm": "WILLIAM",
    "sufNm": null,
    "indvlPK": "6324049",
    "actvAGReg": 0,
    "link": "http://www.adviserinfo.sec.gov/IAPD/Individual/6324049"
  },
  "OthrNms": [],
  "CrntEmps": [
    {
      "CrntRgstns": [
        {
          "regAuth": 3,
          "regCat": 0,
          "st": 2,
          "stDt": "2015-04-02T00:00:00"
        }
      ],
      "BrnchOfLocs": [
        {
          "str1": "6900 E CAMELBACK ROAD SUITE 450",
          "str2": null,
          "city": "SCOTTSDALE",
          "state": 3,
          "stateSpecified": true,
          "cntry": "United States",
          "postlCd": "85251"
        }
      ],
      "orgNm": "SII INVESTMENTS, INC.",
      "orgPK": "2225",
      "str1": "5555 W GRANDE MARKET DRIVE",
      "str2": null,
      "city": "APPLETON",
      "state": 50,
      "stateSpecified": true,
      "cntry": "United States",
      "postlCd": "54913-8403"
    }
  ],
  "Exms": [
    {
      "exmCd": 3,
      "exmNm": "Uniform Combined State Law Examination",
      "exmDt": "2015-03-19T00:00:00",
      "exmDtSpecified": true
    }
  ],
  "Dsgntns": [],
  "PrevRgstns": [],
  "EmpHss": [
    {
      "fromDt": "08/2003",
      "toDt": "06/2007",
      "orgNm": "UNIVERSITY OF ILLINOIS",
      "city": "CHAMPAIGN",
      "state": 15,
      "stateSpecified": true
    },
    {
      "fromDt": "06/2007",
      "toDt": "03/2012",
      "orgNm": "CNH CAPITAL",
      "city": "RACINE",
      "state": 50,
      "stateSpecified": true
    },
    {
      "fromDt": "03/2012",
      "toDt": "04/2014",
      "orgNm": "EMPIRE SOUTHWEST LLC",
      "city": "MESA",
      "state": 3,
      "stateSpecified": true
    },
    {
      "fromDt": "04/2014",
      "toDt": null,
      "orgNm": "ASPEN WEALTH",
      "city": "SCOTTSDALE",
      "state": 3,
      "stateSpecified": true
    }
  ],
  "OthrBuss": {
    "OthrBus": null
  },
  "DRPs": []
}