{
  "Info": {
    "lastNm": "SMITH",
    "firstNm": "BRANDON",
    "midNm": "BRYANT",
    "sufNm": null,
    "indvlPK": "6324290",
    "actvAGReg": 0,
    "link": "http://www.adviserinfo.sec.gov/IAPD/Individual/6324290"
  },
  "OthrNms": [],
  "CrntEmps": [
    {
      "CrntRgstns": [
        {
          "regAuth": 45,
          "regCat": 0,
          "st": 2,
          "stDt": "2015-03-04T00:00:00"
        },
        {
          "regAuth": 46,
          "regCat": 0,
          "st": 2,
          "stDt": "2015-03-04T00:00:00"
        }
      ],
      "BrnchOfLocs": [
        {
          "str1": "49 NORTH 400 WEST",
          "str2": null,
          "city": "SALT LAKE CITY",
          "state": 46,
          "stateSpecified": true,
          "cntry": "United States",
          "postlCd": "84101"
        }
      ],
      "orgNm": "STRATEGIC ADVISERS, INC.",
      "orgPK": "104555",
      "str1": "245 SUMMER STREET, V10G",
      "str2": null,
      "city": "BOSTON",
      "state": 20,
      "stateSpecified": true,
      "cntry": "United States",
      "postlCd": "02210"
    }
  ],
  "Exms": [
    {
      "exmCd": 0,
      "exmNm": "Uniform Securities Agent State Law Examination",
      "exmDt": "2014-07-02T00:00:00",
      "exmDtSpecified": true
    },
    {
      "exmCd": 3,
      "exmNm": "Uniform Combined State Law Examination",
      "exmDt": "2015-02-26T00:00:00",
      "exmDtSpecified": true
    }
  ],
  "Dsgntns": [],
  "PrevRgstns": [],
  "EmpHss": [
    {
      "fromDt": "08/2005",
      "toDt": "09/2006",
      "orgNm": "SOUTH OGDEN CENTER FOR FAMILY MEDICINE",
      "city": "OGDEN",
      "state": 46,
      "stateSpecified": true
    },
    {
      "fromDt": "08/2006",
      "toDt": null,
      "orgNm": "UNITED STATES AIR FORCE RESERVES",
      "city": "LAYTON",
      "state": 46,
      "stateSpecified": true
    },
    {
      "fromDt": "09/2006",
      "toDt": "08/2007",
      "orgNm": "UNITED STATES AIR FORCE",
      "city": "SAN ANTONIO",
      "state": 45,
      "stateSpecified": true
    },
    {
      "fromDt": "08/2007",
      "toDt": "05/2011",
      "orgNm": "LAYTON FAMILY MEDICINE",
      "city": "LAYTON",
      "state": 46,
      "stateSpecified": true
    },
    {
      "fromDt": "05/2011",
      "toDt": "06/2012",
      "orgNm": "SALT LAKE COMMUNITY COLLEGE",
      "city": "SALT LAKE CITY",
      "state": 46,
      "stateSpecified": true
    },
    {
      "fromDt": "06/2012",
      "toDt": "11/2012",
      "orgNm": "FORTIS COLLEGE",
      "city": "SALT LAKE CITY",
      "state": 46,
      "stateSpecified": true
    },
    {
      "fromDt": "11/2012",
      "toDt": "11/2013",
      "orgNm": "JORDAN FAMILY HEALTHCARE",
      "city": "WEST JORDAN",
      "state": 46,
      "stateSpecified": true
    },
    {
      "fromDt": "11/2013",
      "toDt": "04/2014",
      "orgNm": "FIRESTONE",
      "city": "BOUNTIFUL",
      "state": 46,
      "stateSpecified": true
    },
    {
      "fromDt": "04/2014",
      "toDt": null,
      "orgNm": "FIDELITY",
      "city": "SALT LAKE CITY",
      "state": 46,
      "stateSpecified": true
    }
  ],
  "OthrBuss": {
    "OthrBus": {
      "desc": "OAA#: 27984 | ORG NAME:UNITED STATES AIR FORCE | ORG ADDR:LAYTON, UT, US | NATURE OF BUS:UNITED STATES MILITARY ORGANIZATION. | INVST REL:N | TITLE:4N071, MEDICAL TECHNICIAN | DUTIES:MEDICAL POLICY COMPLIANCE AUDITING. | START DT:08/30/2006 | TOTAL HRS P/M:330 | SEC TRDNG HRS P/M:96"
    }
  },
  "DRPs": []
}