{
  "Info": {
    "lastNm": "GRIFFITH",
    "firstNm": "MCKINLEY",
    "midNm": "WORTH",
    "sufNm": null,
    "indvlPK": "6325069",
    "actvAGReg": 0,
    "link": "http://www.adviserinfo.sec.gov/IAPD/Individual/6325069"
  },
  "OthrNms": [],
  "CrntEmps": [
    {
      "CrntRgstns": [
        {
          "regAuth": 3,
          "regCat": 0,
          "st": 2,
          "stDt": "2014-07-07T00:00:00"
        }
      ],
      "BrnchOfLocs": [
        {
          "str1": "80 EAST RIO SALADO PARKWAY",
          "str2": "SUITE 810",
          "city": "TEMPE",
          "state": 3,
          "stateSpecified": true,
          "cntry": "United States",
          "postlCd": "85281"
        }
      ],
      "orgNm": "MORGAN STANLEY",
      "orgPK": "149777",
      "str1": "2000 WESTCHESTER AVENUE",
      "str2": null,
      "city": "PURCHASE",
      "state": 35,
      "stateSpecified": true,
      "cntry": "United States",
      "postlCd": "10577-2530"
    }
  ],
  "Exms": [
    {
      "exmCd": 3,
      "exmNm": "Uniform Combined State Law Examination",
      "exmDt": "2014-06-25T00:00:00",
      "exmDtSpecified": true
    }
  ],
  "Dsgntns": [],
  "PrevRgstns": [],
  "EmpHss": [
    {
      "fromDt": "08/2004",
      "toDt": "12/2008",
      "orgNm": "UNIVERSITY OF ARIZONA",
      "city": "TUCSON",
      "state": 3,
      "stateSpecified": true
    },
    {
      "fromDt": "06/2008",
      "toDt": "03/2009",
      "orgNm": "SUMMIT HUT",
      "city": "TUCSON",
      "state": 3,
      "stateSpecified": true
    },
    {
      "fromDt": "03/2009",
      "toDt": "08/2011",
      "orgNm": "INTERMOUNTAIN CENTERS FOR HUMAN DEVELOPMENT",
      "city": "TUCSON",
      "state": 3,
      "stateSpecified": true
    },
    {
      "fromDt": "08/2011",
      "toDt": "04/2014",
      "orgNm": "ENTERPRISE HOLDINGS",
      "city": "TEMPE",
      "state": 3,
      "stateSpecified": true
    },
    {
      "fromDt": "04/2014",
      "toDt": null,
      "orgNm": "MORGAN STANLEY",
      "city": "TEMPE",
      "state": 3,
      "stateSpecified": true
    },
    {
      "fromDt": "01/2015",
      "toDt": null,
      "orgNm": "MORGAN STANLEY PRIVATE BANK, NATIONAL ASSOCIATION",
      "city": "NEW YORK",
      "state": 35,
      "stateSpecified": true
    }
  ],
  "OthrBuss": {
    "OthrBus": null
  },
  "DRPs": []
}