{
  "Info": {
    "lastNm": "THOMPSON",
    "firstNm": "KENRICK",
    "midNm": null,
    "sufNm": null,
    "indvlPK": "6326093",
    "actvAGReg": 0,
    "link": "http://www.adviserinfo.sec.gov/IAPD/Individual/6326093"
  },
  "OthrNms": [],
  "CrntEmps": [
    {
      "CrntRgstns": [
        {
          "regAuth": 17,
          "regCat": 0,
          "st": 2,
          "stDt": "2015-01-14T00:00:00"
        }
      ],
      "BrnchOfLocs": [
        {
          "str1": "2830 South 4th Street",
          "str2": null,
          "city": "Leavenworth",
          "state": 17,
          "stateSpecified": true,
          "cntry": "United States",
          "postlCd": "66048"
        },
        {
          "str1": "8000 FORSYTH BLVD SUITE 1200 EAST",
          "str2": null,
          "city": "ST. LOUIS",
          "state": 25,
          "stateSpecified": true,
          "cntry": "United States",
          "postlCd": "63105"
        },
        {
          "str1": "955 IOWA",
          "str2": null,
          "city": "LAWRENCE",
          "state": 17,
          "stateSpecified": true,
          "cntry": "United States",
          "postlCd": "66044"
        }
      ],
      "orgNm": "COMMERCE BROKERAGE SERVICES, INC.",
      "orgPK": "17140",
      "str1": "8000 FORSYTH",
      "str2": "SUITE 1200",
      "city": "CLAYTON",
      "state": 25,
      "stateSpecified": true,
      "cntry": "United States",
      "postlCd": "63105-1707"
    }
  ],
  "Exms": [
    {
      "exmCd": 3,
      "exmNm": "Uniform Combined State Law Examination",
      "exmDt": "2014-05-31T00:00:00",
      "exmDtSpecified": true
    }
  ],
  "Dsgntns": [
    {
      "dsgntnNm": "Chartered Financial Consultant"
    }
  ],
  "PrevRgstns": [],
  "EmpHss": [
    {
      "fromDt": "12/2005",
      "toDt": "04/2007",
      "orgNm": "UNEMPLOYED",
      "city": "KANSAS CITY",
      "state": 25,
      "stateSpecified": true
    },
    {
      "fromDt": "04/2007",
      "toDt": "11/2010",
      "orgNm": "SPRINT BY WIRELESS LIFESTYLE",
      "city": "RAYTOWN",
      "state": 25,
      "stateSpecified": true
    },
    {
      "fromDt": "11/2010",
      "toDt": "05/2011",
      "orgNm": "JACKSON HEWITT TAX SERVICES",
      "city": "OLATHE",
      "state": 17,
      "stateSpecified": true
    },
    {
      "fromDt": "05/2011",
      "toDt": "04/2014",
      "orgNm": "COMMERCE BANK",
      "city": "LENEXA",
      "state": 17,
      "stateSpecified": true
    },
    {
      "fromDt": "04/2014",
      "toDt": null,
      "orgNm": "COMMERCE BROKERAGE SERVICES",
      "city": "KANSAS CITY",
      "state": 25,
      "stateSpecified": true
    }
  ],
  "OthrBuss": {
    "OthrBus": null
  },
  "DRPs": []
}