{
  "Info": {
    "lastNm": "PATTERSON",
    "firstNm": "MICHAEL",
    "midNm": "JAFFEE",
    "sufNm": null,
    "indvlPK": "6333158",
    "actvAGReg": 0,
    "link": "http://www.adviserinfo.sec.gov/IAPD/Individual/6333158"
  },
  "OthrNms": [],
  "CrntEmps": [
    {
      "CrntRgstns": [
        {
          "regAuth": 15,
          "regCat": 0,
          "st": 2,
          "stDt": "2015-07-07T00:00:00"
        }
      ],
      "BrnchOfLocs": [
        {
          "str1": "227 WEST MONROE STREET",
          "str2": null,
          "city": "CHICAGO",
          "state": 15,
          "stateSpecified": true,
          "cntry": "United States",
          "postlCd": "60606"
        }
      ],
      "orgNm": "ROBERT W. BAIRD & CO. INCORPORATED",
      "orgPK": "8158",
      "str1": "777 E. WISCONSIN AVE",
      "str2": null,
      "city": "MILWAUKEE",
      "state": 50,
      "stateSpecified": true,
      "cntry": "United States",
      "postlCd": "53202-5391"
    }
  ],
  "Exms": [
    {
      "exmCd": 2,
      "exmNm": "Uniform Investment Adviser Law Examination",
      "exmDt": "2014-05-17T00:00:00",
      "exmDtSpecified": true
    },
    {
      "exmCd": 0,
      "exmNm": "Uniform Securities Agent State Law Examination",
      "exmDt": "2015-09-14T00:00:00",
      "exmDtSpecified": true
    }
  ],
  "Dsgntns": [],
  "PrevRgstns": [
    {
      "BrnchOfLocs": [
        {
          "city": "CHICAGO",
          "state": 15,
          "stateSpecified": true
        }
      ],
      "orgNm": "RMB CAPITAL MANAGEMENT",
      "orgPK": "134249",
      "regBeginDt": "2014-05-17T00:00:00",
      "regBeginDtSpecified": true,
      "regEndDt": "2015-09-16T00:00:00",
      "regEndDtSpecified": true
    }
  ],
  "EmpHss": [
    {
      "fromDt": "09/2005",
      "toDt": "05/2009",
      "orgNm": "NEW TRIER HIGH SCHOOL",
      "city": "WINNETKA",
      "state": 15,
      "stateSpecified": true
    },
    {
      "fromDt": "06/2008",
      "toDt": "08/2008",
      "orgNm": "OIL DRI CORPORATION OF AMERICA",
      "city": "VERNON HILLS",
      "state": 15,
      "stateSpecified": true
    },
    {
      "fromDt": "06/2009",
      "toDt": "09/2009",
      "orgNm": "UNEMPLOYED",
      "city": "WINNETKA",
      "state": 15,
      "stateSpecified": true
    },
    {
      "fromDt": "09/2009",
      "toDt": "05/2013",
      "orgNm": "MIDDLEBURY COLLEGE",
      "city": "MIDDLEBURY",
      "state": 48,
      "stateSpecified": true
    },
    {
      "fromDt": "06/2010",
      "toDt": "08/2010",
      "orgNm": "OIL DRI CORPORATION OF AMERICA",
      "city": "VERNON HILLS",
      "state": 15,
      "stateSpecified": true
    },
    {
      "fromDt": "06/2011",
      "toDt": "08/2011",
      "orgNm": "OIL DRI CORPORATION OF AMERICA",
      "city": "VERNON HILLS",
      "state": 15,
      "stateSpecified": true
    },
    {
      "fromDt": "06/2012",
      "toDt": "08/2012",
      "orgNm": "OFFICE OF CONGRESSMAN PETER ROSKAM",
      "city": "WASHINGTON",
      "state": 7,
      "stateSpecified": true
    },
    {
      "fromDt": "06/2013",
      "toDt": "08/2013",
      "orgNm": "TRAVEL",
      "city": "WINNETKA",
      "state": 15,
      "stateSpecified": true
    },
    {
      "fromDt": "09/2013",
      "toDt": "06/2015",
      "orgNm": "RMB CAPITAL MANAGEMENT LLC",
      "city": "CHICAGO",
      "state": 15,
      "stateSpecified": true
    },
    {
      "fromDt": "07/2015",
      "toDt": null,
      "orgNm": "ROBERT W. BAIRD",
      "city": "CHICAGO",
      "state": 15,
      "stateSpecified": true
    }
  ],
  "OthrBuss": {
    "OthrBus": null
  },
  "DRPs": []
}