{
  "Info": {
    "lastNm": "EISNER",
    "firstNm": "RON",
    "midNm": "YOSEF",
    "sufNm": null,
    "indvlPK": "6333744",
    "actvAGReg": 0,
    "link": "http://www.adviserinfo.sec.gov/IAPD/Individual/6333744"
  },
  "OthrNms": [],
  "CrntEmps": [
    {
      "CrntRgstns": [
        {
          "regAuth": 4,
          "regCat": 0,
          "st": 2,
          "stDt": "2015-10-29T00:00:00"
        },
        {
          "regAuth": 15,
          "regCat": 0,
          "st": 2,
          "stDt": "2015-10-29T00:00:00"
        },
        {
          "regAuth": 32,
          "regCat": 0,
          "st": 2,
          "stDt": "2015-10-29T00:00:00"
        },
        {
          "regAuth": 36,
          "regCat": 0,
          "st": 2,
          "stDt": "2015-10-29T00:00:00"
        },
        {
          "regAuth": 9,
          "regCat": 0,
          "st": 2,
          "stDt": "2015-11-03T00:00:00"
        }
      ],
      "BrnchOfLocs": [
        {
          "str1": "19495 BISCAYNE BLVD.",
          "str2": "SUITE 500",
          "city": "AVENTURA",
          "state": 9,
          "stateSpecified": true,
          "cntry": "United States",
          "postlCd": "33180"
        }
      ],
      "orgNm": "LEUMI INVESTMENT SERVICES INC.",
      "orgPK": "105387",
      "str1": "350 MADISON AVE.",
      "str2": null,
      "city": "NEW YORK",
      "state": 35,
      "stateSpecified": true,
      "cntry": "United States",
      "postlCd": "10017"
    }
  ],
  "Exms": [
    {
      "exmCd": 3,
      "exmNm": "Uniform Combined State Law Examination",
      "exmDt": "2015-10-15T00:00:00",
      "exmDtSpecified": true
    }
  ],
  "Dsgntns": [],
  "PrevRgstns": [],
  "EmpHss": [
    {
      "fromDt": "01/2004",
      "toDt": "01/2007",
      "orgNm": "STENOTRADER, INC.",
      "city": "BOCA RATON",
      "state": 9,
      "stateSpecified": true
    },
    {
      "fromDt": "01/2007",
      "toDt": "03/2009",
      "orgNm": "MATSON DRISCOLL & DAMICO",
      "city": "FORT LAUDERDALE",
      "state": 9,
      "stateSpecified": true
    },
    {
      "fromDt": "01/2008",
      "toDt": null,
      "orgNm": "RESOLVERS LLC",
      "city": "DEERFIELD BEACH",
      "state": 9,
      "stateSpecified": true
    },
    {
      "fromDt": "01/2013",
      "toDt": "05/2015",
      "orgNm": "FLORIDA ATLANTIC UNIVERSITY",
      "city": "BOCA RATON",
      "state": 9,
      "stateSpecified": true
    },
    {
      "fromDt": "08/2013",
      "toDt": "05/2015",
      "orgNm": "FLORIDA ATLANTIC UNIVERSITY",
      "city": "BOCA RATON",
      "state": 9,
      "stateSpecified": true
    },
    {
      "fromDt": "05/2014",
      "toDt": "11/2014",
      "orgNm": "AVM, L.P.",
      "city": "BOCA RATON",
      "state": 9,
      "stateSpecified": true
    },
    {
      "fromDt": "06/2015",
      "toDt": null,
      "orgNm": "LEUMI INVESTMENT SERVICES INC",
      "city": "AVENTURA",
      "state": 9,
      "stateSpecified": true
    }
  ],
  "OthrBuss": {
    "OthrBus": {
      "desc": "THE RESOLVERS - A MUSICAL PERFORMANCE GROUP.  I AM A MEMBER OF THE BAND AND THIS ACTIVITY TAKES UP APPROXIMATELY 10 HOURS A WEEK."
    }
  },
  "DRPs": []
}