{
  "Info": {
    "lastNm": "WANCKET",
    "firstNm": "TYLER",
    "midNm": "ALAN",
    "sufNm": null,
    "indvlPK": "6338864",
    "actvAGReg": 0,
    "link": "http://www.adviserinfo.sec.gov/IAPD/Individual/6338864"
  },
  "OthrNms": [],
  "CrntEmps": [
    {
      "CrntRgstns": [
        {
          "regAuth": 15,
          "regCat": 0,
          "st": 2,
          "stDt": "2016-04-28T00:00:00"
        },
        {
          "regAuth": 23,
          "regCat": 0,
          "st": 2,
          "stDt": "2016-05-02T00:00:00"
        }
      ],
      "BrnchOfLocs": [
        {
          "str1": "26200 AMERICAN DRIVE",
          "str2": "FIFTH FLOOR",
          "city": "SOUTHFIELD",
          "state": 23,
          "stateSpecified": true,
          "cntry": "United States",
          "postlCd": "48034"
        }
      ],
      "orgNm": "HANTZ FINANCIAL SERVICES, INC.",
      "orgPK": "46047",
      "str1": "26200 AMERICAN DRIVE",
      "str2": "FIFTH FLOOR",
      "city": "SOUTHFIELD",
      "state": 23,
      "stateSpecified": true,
      "cntry": "United States",
      "postlCd": "48034"
    }
  ],
  "Exms": [
    {
      "exmCd": 0,
      "exmNm": "Uniform Securities Agent State Law Examination",
      "exmDt": "2015-02-20T00:00:00",
      "exmDtSpecified": true
    },
    {
      "exmCd": 2,
      "exmNm": "Uniform Investment Adviser Law Examination",
      "exmDt": "2016-04-28T00:00:00",
      "exmDtSpecified": true
    }
  ],
  "Dsgntns": [],
  "PrevRgstns": [],
  "EmpHss": [
    {
      "fromDt": "08/2004",
      "toDt": "05/2007",
      "orgNm": "PARKLAND MIDDLE SCHOOL",
      "city": "MCHENRY",
      "state": 15,
      "stateSpecified": true
    },
    {
      "fromDt": "05/2007",
      "toDt": "08/2007",
      "orgNm": "UNEMPLOYED",
      "city": "MCHENRY",
      "state": 15,
      "stateSpecified": true
    },
    {
      "fromDt": "08/2007",
      "toDt": "05/2011",
      "orgNm": "MCHENRY WEST HIGH SCHOOL",
      "city": "MCHENRY",
      "state": 15,
      "stateSpecified": true
    },
    {
      "fromDt": "05/2011",
      "toDt": "08/2011",
      "orgNm": "UNEMPLOYED",
      "city": "MCHENRY",
      "state": 15,
      "stateSpecified": true
    },
    {
      "fromDt": "08/2011",
      "toDt": "05/2015",
      "orgNm": "CENTRAL MICHIGAN UNIVERSITY",
      "city": "MOUNT PLEASANT",
      "state": 23,
      "stateSpecified": true
    },
    {
      "fromDt": "05/2012",
      "toDt": "08/2012",
      "orgNm": "CARDINAL PACKAGING",
      "city": "CRYSTAL LAKE",
      "state": 15,
      "stateSpecified": true
    },
    {
      "fromDt": "05/2013",
      "toDt": "08/2013",
      "orgNm": "BEMIS COMPANY",
      "city": "NEENAH",
      "state": 50,
      "stateSpecified": true
    },
    {
      "fromDt": "05/2014",
      "toDt": "06/2015",
      "orgNm": "HANTZ FINANCIAL SERVICES",
      "city": "SOUTHFIELD",
      "state": 23,
      "stateSpecified": true
    },
    {
      "fromDt": "06/2015",
      "toDt": null,
      "orgNm": "HANTZ FINANCIAL SERVICES",
      "city": "SOUTHFIELD",
      "state": 23,
      "stateSpecified": true
    }
  ],
  "OthrBuss": {
    "OthrBus": null
  },
  "DRPs": []
}