{
  "Info": {
    "lastNm": "RICHARDSON",
    "firstNm": "MEGAN",
    "midNm": "MARGARETE",
    "sufNm": null,
    "indvlPK": "6339729",
    "actvAGReg": 0,
    "link": "http://www.adviserinfo.sec.gov/IAPD/Individual/6339729"
  },
  "OthrNms": [],
  "CrntEmps": [
    {
      "CrntRgstns": [
        {
          "regAuth": 49,
          "regCat": 0,
          "st": 2,
          "stDt": "2016-05-10T00:00:00"
        }
      ],
      "BrnchOfLocs": [
        {
          "str1": "5 CENTERPOINTE DRIVE",
          "str2": "SUITE 270",
          "city": "LAKE OSWEGO",
          "state": 38,
          "stateSpecified": true,
          "cntry": "United States",
          "postlCd": "97035"
        }
      ],
      "orgNm": "ROYAL ALLIANCE ASSOCIATES, INC.",
      "orgPK": "23131",
      "str1": "ONE WORLD FINANCIAL CENTER",
      "str2": "15TH FLOOR",
      "city": "NEW YORK",
      "state": 35,
      "stateSpecified": true,
      "cntry": "United States",
      "postlCd": "10281"
    }
  ],
  "Exms": [
    {
      "exmCd": 3,
      "exmNm": "Uniform Combined State Law Examination",
      "exmDt": "2016-05-09T00:00:00",
      "exmDtSpecified": true
    }
  ],
  "Dsgntns": [],
  "PrevRgstns": [],
  "EmpHss": [
    {
      "fromDt": "04/2006",
      "toDt": "05/2011",
      "orgNm": "STUDENT",
      "city": "PORTLAND",
      "state": 38,
      "stateSpecified": true
    },
    {
      "fromDt": "08/2010",
      "toDt": "05/2015",
      "orgNm": "University of Portland",
      "city": "Portland",
      "state": 38,
      "stateSpecified": true
    },
    {
      "fromDt": "05/2011",
      "toDt": "08/2011",
      "orgNm": "Perkins Coie LLP",
      "city": "Portland",
      "state": 38,
      "stateSpecified": true
    },
    {
      "fromDt": "05/2014",
      "toDt": "01/2015",
      "orgNm": "BLIS, Inc.",
      "city": "Lake Oswego",
      "state": 38,
      "stateSpecified": true
    },
    {
      "fromDt": "05/2014",
      "toDt": "08/2014",
      "orgNm": "Summit Advisors NW, LLC",
      "city": "Portland",
      "state": 38,
      "stateSpecified": true
    },
    {
      "fromDt": "05/2015",
      "toDt": "09/2015",
      "orgNm": "Unemployed",
      "city": "Portland",
      "state": 38,
      "stateSpecified": true
    },
    {
      "fromDt": "09/2015",
      "toDt": null,
      "orgNm": "Royal Alliance Associates",
      "city": "Lake Oswego",
      "state": 38,
      "stateSpecified": true
    }
  ],
  "OthrBuss": {
    "OthrBus": null
  },
  "DRPs": []
}