{
  "Info": {
    "lastNm": "KEEVEN",
    "firstNm": "KRISTINE",
    "midNm": "RENEE",
    "sufNm": null,
    "indvlPK": "6347863",
    "actvAGReg": 0,
    "link": "http://www.adviserinfo.sec.gov/IAPD/Individual/6347863"
  },
  "OthrNms": [
    {
      "lastNm": "CAPOBIANCO",
      "firstNm": "KRISTINE",
      "midNm": "RENEE",
      "sufNm": null
    },
    {
      "lastNm": "KENNEDY",
      "firstNm": "KRISTINE",
      "midNm": "RENEE",
      "sufNm": null
    }
  ],
  "CrntEmps": [
    {
      "CrntRgstns": [
        {
          "regAuth": 25,
          "regCat": 0,
          "st": 2,
          "stDt": "2015-03-02T00:00:00"
        }
      ],
      "BrnchOfLocs": [
        {
          "str1": "12555 MANCHESTER ROAD",
          "str2": null,
          "city": "ST. LOUIS",
          "state": 25,
          "stateSpecified": true,
          "cntry": "United States",
          "postlCd": "63131"
        }
      ],
      "orgNm": "EDWARD JONES",
      "orgPK": "250",
      "str1": "12555 MANCHESTER RD",
      "str2": null,
      "city": "ST. LOUIS",
      "state": 25,
      "stateSpecified": true,
      "cntry": "United States",
      "postlCd": "63131"
    }
  ],
  "Exms": [
    {
      "exmCd": 3,
      "exmNm": "Uniform Combined State Law Examination",
      "exmDt": "2015-02-27T00:00:00",
      "exmDtSpecified": true
    }
  ],
  "Dsgntns": [],
  "PrevRgstns": [],
  "EmpHss": [
    {
      "fromDt": "04/1999",
      "toDt": "02/2007",
      "orgNm": "MISSOURI EQUITY MORTGAGE, LLC",
      "city": "MARYLAND HEIGHTS",
      "state": 25,
      "stateSpecified": true
    },
    {
      "fromDt": "03/2007",
      "toDt": "11/2007",
      "orgNm": "CITIMORTGAGE",
      "city": "OFALLON",
      "state": 25,
      "stateSpecified": true
    },
    {
      "fromDt": "11/2007",
      "toDt": "03/2008",
      "orgNm": "LAYOFF",
      "city": "OFALLON",
      "state": 25,
      "stateSpecified": true
    },
    {
      "fromDt": "03/2008",
      "toDt": "10/2008",
      "orgNm": "BANK OF AMERICA",
      "city": "ST. CHARLES",
      "state": 25,
      "stateSpecified": true
    },
    {
      "fromDt": "10/2008",
      "toDt": "03/2009",
      "orgNm": "LAYOFF",
      "city": "OFALLON",
      "state": 25,
      "stateSpecified": true
    },
    {
      "fromDt": "04/2009",
      "toDt": "10/2010",
      "orgNm": "CITIMORTGAGE",
      "city": "OFALLON",
      "state": 25,
      "stateSpecified": true
    },
    {
      "fromDt": "11/2010",
      "toDt": "03/2012",
      "orgNm": "AEROTEK/ BANK OF AMERICA",
      "city": "ST. CHARLES",
      "state": 25,
      "stateSpecified": true
    },
    {
      "fromDt": "04/2012",
      "toDt": "04/2014",
      "orgNm": "BANK OF AMERICA",
      "city": "ST. CHARLES",
      "state": 25,
      "stateSpecified": true
    },
    {
      "fromDt": "04/2014",
      "toDt": "06/2014",
      "orgNm": "LAYOFF",
      "city": "ST. CHARLES",
      "state": 25,
      "stateSpecified": true
    },
    {
      "fromDt": "06/2014",
      "toDt": null,
      "orgNm": "EDWARD JONES",
      "city": "DES PERES",
      "state": 25,
      "stateSpecified": true
    }
  ],
  "OthrBuss": {
    "OthrBus": {
      "desc": "OWNER OF A PROPERTY THAT I CURRENTLY HAVE A TENANT IN- RENTAL PROPERTY-  ADDRESS:  10 COUNTRY HEIGHTS COURT, LAKE ST. LOUIS, MO  63367.  MORTGAGE PAYMENT IS $1127.00/MONTH; ASSOCIATION DUES ARE $110.00/MONTH; RENTS RECEIVED $1,125.00/MONTH.  CURRENTLY I AM RENTING MY HOME THAT I BUILT BECAUSE I CANNOT SELL DUE TO MARKET CONDITIONS.  THIS IS NOT A PROFITABLE VENTURE FOR ME, AND I AM TRYING TO JUST BREAK EVEN UNTIL THE MARKET RETURNS TO SELL. PLEASE LET ME KNOW IF YOU HAVE ANY ADDITIONAL QUESTIONS.  (NAME ON MORTGAGE- KRISTINE KENNEDY (MAIDEN))"
    }
  },
  "DRPs": [
    {
      "hasRegAction": 1,
      "hasRegActionSpecified": true,
      "hasCriminal": 1,
      "hasCriminalSpecified": true,
      "hasBankrupt": 0,
      "hasBankruptSpecified": true,
      "hasCivilJudc": 1,
      "hasCivilJudcSpecified": true,
      "hasBond": 1,
      "hasBondSpecified": true,
      "hasJudgment": 1,
      "hasJudgmentSpecified": true,
      "hasInvstgn": 1,
      "hasInvstgnSpecified": true,
      "hasCustComp": 1,
      "hasCustCompSpecified": true,
      "hasTermination": 1,
      "hasTerminationSpecified": true
    }
  ]
}