{
  "Info": {
    "lastNm": "MARVIN",
    "firstNm": "JUSTIN",
    "midNm": "J",
    "sufNm": null,
    "indvlPK": "6351879",
    "actvAGReg": 0,
    "link": "http://www.adviserinfo.sec.gov/IAPD/Individual/6351879"
  },
  "OthrNms": [],
  "CrntEmps": [
    {
      "CrntRgstns": [
        {
          "regAuth": 45,
          "regCat": 0,
          "st": 2,
          "stDt": "2016-02-18T00:00:00"
        },
        {
          "regAuth": 24,
          "regCat": 0,
          "st": 2,
          "stDt": "2016-03-02T00:00:00"
        }
      ],
      "BrnchOfLocs": [
        {
          "str1": "753 AMERIPRISE FINANCIAL CTR",
          "str2": null,
          "city": "MINNEAPOLIS",
          "state": 24,
          "stateSpecified": true,
          "cntry": "United States",
          "postlCd": "55474-0007"
        }
      ],
      "orgNm": "AMERIPRISE FINANCIAL SERVICES, INC.",
      "orgPK": "6363",
      "str1": "707 2ND AVENUE SOUTH",
      "str2": null,
      "city": "MINNEAPOLIS",
      "state": 24,
      "stateSpecified": true,
      "cntry": "United States",
      "postlCd": "55402"
    }
  ],
  "Exms": [
    {
      "exmCd": 0,
      "exmNm": "Uniform Securities Agent State Law Examination",
      "exmDt": "2015-10-26T00:00:00",
      "exmDtSpecified": true
    },
    {
      "exmCd": 2,
      "exmNm": "Uniform Investment Adviser Law Examination",
      "exmDt": "2015-12-18T00:00:00",
      "exmDtSpecified": true
    }
  ],
  "Dsgntns": [],
  "PrevRgstns": [],
  "EmpHss": [
    {
      "fromDt": "07/2004",
      "toDt": "05/2015",
      "orgNm": "STUDENT",
      "city": "CHASKA",
      "state": 24,
      "stateSpecified": true
    },
    {
      "fromDt": "09/2012",
      "toDt": "12/2014",
      "orgNm": "UNIVERSITY OF ST. THOMAS",
      "city": "ST. PAUL",
      "state": 24,
      "stateSpecified": true
    },
    {
      "fromDt": "06/2014",
      "toDt": null,
      "orgNm": "AMERIPRISE FINANCIAL SERVICES INC",
      "city": "MINNEAPOLIS",
      "state": 24,
      "stateSpecified": true
    },
    {
      "fromDt": "06/2015",
      "toDt": null,
      "orgNm": "Ameriprise Financial",
      "city": "Minneapolis",
      "state": 24,
      "stateSpecified": true
    }
  ],
  "OthrBuss": {
    "OthrBus": null
  },
  "DRPs": []
}