{
  "Info": {
    "lastNm": "Barry",
    "firstNm": "Tatiana",
    "midNm": "Lynne",
    "sufNm": null,
    "indvlPK": "6351239",
    "actvAGReg": 0,
    "link": "http://www.adviserinfo.sec.gov/IAPD/Individual/6351239"
  },
  "OthrNms": [
    {
      "lastNm": "BARRY",
      "firstNm": "TATIANA",
      "midNm": null,
      "sufNm": null
    }
  ],
  "CrntEmps": [
    {
      "CrntRgstns": [
        {
          "regAuth": 32,
          "regCat": 0,
          "st": 2,
          "stDt": "2015-03-09T00:00:00"
        },
        {
          "regAuth": 25,
          "regCat": 0,
          "st": 2,
          "stDt": "2016-02-08T00:00:00"
        },
        {
          "regAuth": 36,
          "regCat": 0,
          "st": 2,
          "stDt": "2016-04-13T00:00:00"
        },
        {
          "regAuth": 47,
          "regCat": 0,
          "st": 2,
          "stDt": "2016-06-02T00:00:00"
        }
      ],
      "BrnchOfLocs": [
        {
          "str1": "201 Progress Parkway",
          "str2": null,
          "city": "Maryland Heights",
          "state": 25,
          "stateSpecified": true,
          "cntry": "United States",
          "postlCd": "63043"
        }
      ],
      "orgNm": "EDWARD JONES",
      "orgPK": "250",
      "str1": "12555 MANCHESTER RD",
      "str2": null,
      "city": "ST. LOUIS",
      "state": 25,
      "stateSpecified": true,
      "cntry": "United States",
      "postlCd": "63131"
    }
  ],
  "Exms": [
    {
      "exmCd": 3,
      "exmNm": "Uniform Combined State Law Examination",
      "exmDt": "2014-09-05T00:00:00",
      "exmDtSpecified": true
    }
  ],
  "Dsgntns": [],
  "PrevRgstns": [],
  "EmpHss": [
    {
      "fromDt": "06/2004",
      "toDt": "06/2010",
      "orgNm": "JANE BUSER",
      "city": "RACINE",
      "state": 50,
      "stateSpecified": true
    },
    {
      "fromDt": "06/2010",
      "toDt": "08/2013",
      "orgNm": "MILWAUKEE WORLD FESTIVL",
      "city": "MILWAUKEE",
      "state": 50,
      "stateSpecified": true
    },
    {
      "fromDt": "08/2010",
      "toDt": "05/2014",
      "orgNm": "OHIO WESLEYAN UNIVERSITY",
      "city": "DELAWARE",
      "state": 36,
      "stateSpecified": true
    },
    {
      "fromDt": "10/2010",
      "toDt": "05/2014",
      "orgNm": "OHIO WESLEYAN UNIVERSITY",
      "city": "DELAWARE",
      "state": 36,
      "stateSpecified": true
    },
    {
      "fromDt": "05/2012",
      "toDt": "08/2012",
      "orgNm": "LAW OFFICES OF LAKELAW",
      "city": "KENOSHA",
      "state": 50,
      "stateSpecified": true
    },
    {
      "fromDt": "09/2013",
      "toDt": "10/2013",
      "orgNm": "DIAMOND HILL CAPITAL MANAGEMENT",
      "city": "COLUMBUS",
      "state": 36,
      "stateSpecified": true
    },
    {
      "fromDt": "01/2014",
      "toDt": "05/2014",
      "orgNm": "FAMILY FINANCIAL OF CENTRAL OHIO",
      "city": "DELAWARE",
      "state": 36,
      "stateSpecified": true
    },
    {
      "fromDt": "06/2014",
      "toDt": null,
      "orgNm": "EDWARD JONES",
      "city": "ST LOUIS",
      "state": 25,
      "stateSpecified": true
    }
  ],
  "OthrBuss": {
    "OthrBus": null
  },
  "DRPs": []
}