{
  "Info": {
    "lastNm": "HELMAN",
    "firstNm": "TIMOTHY",
    "midNm": "VAN KLEECK",
    "sufNm": null,
    "indvlPK": "6356919",
    "actvAGReg": 0,
    "link": "http://www.adviserinfo.sec.gov/IAPD/Individual/6356919"
  },
  "OthrNms": [],
  "CrntEmps": [
    {
      "CrntRgstns": [
        {
          "regAuth": 20,
          "regCat": 0,
          "st": 2,
          "stDt": "2015-07-16T00:00:00"
        }
      ],
      "BrnchOfLocs": [
        {
          "str1": "ONE UNIVERSITY OFFICE PARK",
          "str2": "29 SAWYER ROAD",
          "city": "WALTHAM",
          "state": 20,
          "stateSpecified": true,
          "cntry": "United States",
          "postlCd": "02453"
        }
      ],
      "orgNm": "COMMONWEALTH FINANCIAL NETWORK",
      "orgPK": "8032",
      "str1": "29 SAWYER ROAD",
      "str2": null,
      "city": "WALTHAM",
      "state": 20,
      "stateSpecified": true,
      "cntry": "United States",
      "postlCd": "02453-3483"
    }
  ],
  "Exms": [
    {
      "exmCd": 3,
      "exmNm": "Uniform Combined State Law Examination",
      "exmDt": "2015-07-07T00:00:00",
      "exmDtSpecified": true
    }
  ],
  "Dsgntns": [],
  "PrevRgstns": [],
  "EmpHss": [
    {
      "fromDt": "08/2006",
      "toDt": "06/2007",
      "orgNm": "WILTON HIGH SCHOOL",
      "city": "WILTON",
      "state": 6,
      "stateSpecified": true
    },
    {
      "fromDt": "08/2007",
      "toDt": "05/2008",
      "orgNm": "KENT SCHOOL",
      "city": "KENT",
      "state": 6,
      "stateSpecified": true
    },
    {
      "fromDt": "08/2008",
      "toDt": "06/2010",
      "orgNm": "WILTON HIGH SCHOOL",
      "city": "WILTON",
      "state": 6,
      "stateSpecified": true
    },
    {
      "fromDt": "08/2010",
      "toDt": "05/2012",
      "orgNm": "UNIVERSITY OF MIAMI",
      "city": "CORAL GABLES",
      "state": 9,
      "stateSpecified": true
    },
    {
      "fromDt": "05/2011",
      "toDt": "08/2011",
      "orgNm": "BOSTON BUSINESS CONCEPTS",
      "city": "WOBURN",
      "state": 20,
      "stateSpecified": true
    },
    {
      "fromDt": "05/2012",
      "toDt": "08/2012",
      "orgNm": "AMERICAN DIABETES ASSOCIATION",
      "city": "FRAMINGHAM",
      "state": 20,
      "stateSpecified": true
    },
    {
      "fromDt": "08/2012",
      "toDt": "05/2014",
      "orgNm": "UNIVERSITY OF VERMONT",
      "city": "BURLINGTON",
      "state": 48,
      "stateSpecified": true
    },
    {
      "fromDt": "06/2014",
      "toDt": null,
      "orgNm": "COMMONWEALTH FINANCIAL NETWORK",
      "city": "WALTHAM",
      "state": 20,
      "stateSpecified": true
    }
  ],
  "OthrBuss": {
    "OthrBus": null
  },
  "DRPs": []
}