{
  "Info": {
    "lastNm": "MINS",
    "firstNm": "GARTH",
    "midNm": "EDWARD",
    "sufNm": null,
    "indvlPK": "6361478",
    "actvAGReg": 0,
    "link": "http://www.adviserinfo.sec.gov/IAPD/Individual/6361478"
  },
  "OthrNms": [],
  "CrntEmps": [
    {
      "CrntRgstns": [
        {
          "regAuth": 30,
          "regCat": 0,
          "st": 2,
          "stDt": "2014-11-14T00:00:00"
        }
      ],
      "BrnchOfLocs": [
        {
          "str1": "505 N JACKSON ST",
          "str2": null,
          "city": "LEXINGTON",
          "state": 30,
          "stateSpecified": true,
          "cntry": "United States",
          "postlCd": "68850-2163"
        }
      ],
      "orgNm": "EDWARD JONES",
      "orgPK": "250",
      "str1": "12555 MANCHESTER RD",
      "str2": null,
      "city": "ST. LOUIS",
      "state": 25,
      "stateSpecified": true,
      "cntry": "United States",
      "postlCd": "63131"
    }
  ],
  "Exms": [
    {
      "exmCd": 3,
      "exmNm": "Uniform Combined State Law Examination",
      "exmDt": "2014-09-19T00:00:00",
      "exmDtSpecified": true
    }
  ],
  "Dsgntns": [],
  "PrevRgstns": [],
  "EmpHss": [
    {
      "fromDt": "01/2006",
      "toDt": "07/2014",
      "orgNm": "NEBRASKA STATE PROBATION",
      "city": "KEARNEY",
      "state": 30,
      "stateSpecified": true
    },
    {
      "fromDt": "07/2014",
      "toDt": null,
      "orgNm": "EDWARD JONES",
      "city": "ST LOUIS",
      "state": 25,
      "stateSpecified": true
    }
  ],
  "OthrBuss": {
    "OthrBus": {
      "desc": "NEBRASKA SCHOLASTIC ACTIVITIES ASSOCIATION OFFICIATING  LEXINGTON, NE  START DATE: 8/1/2008  FOOTBALL OFFICIAL  HOURS PER WEEK: 2  HOURS DURING TRADING: 0  I AM A REGISTERED FOOTBALL OFFICIAL THROUGH THE NEBRASKA SCHOLASTIC ACTIVITES ASSOCIATION AND I OFFICIATE VARSITY AND JUNIOR VARISTY FOOTBALL GAMES DURING THE HIGH SCHOOL FALL SEASON."
    }
  },
  "DRPs": []
}