{
  "Info": {
    "lastNm": "MUNGER",
    "firstNm": "JACOB",
    "midNm": "J",
    "sufNm": null,
    "indvlPK": "6363220",
    "actvAGReg": 0,
    "link": "http://www.adviserinfo.sec.gov/IAPD/Individual/6363220"
  },
  "OthrNms": [
    {
      "lastNm": "MUNGER",
      "firstNm": "JACOB",
      "midNm": "JEFFREY",
      "sufNm": null
    }
  ],
  "CrntEmps": [
    {
      "CrntRgstns": [
        {
          "regAuth": 50,
          "regCat": 0,
          "st": 2,
          "stDt": "2014-09-29T00:00:00"
        },
        {
          "regAuth": 45,
          "regCat": 0,
          "st": 2,
          "stDt": "2015-09-11T00:00:00"
        }
      ],
      "BrnchOfLocs": [
        {
          "str1": "3508 OAKWOOD MALL DR",
          "str2": null,
          "city": "EAU CLAIRE",
          "state": 50,
          "stateSpecified": true,
          "cntry": "United States",
          "postlCd": "54701"
        }
      ],
      "orgNm": "MERRILL LYNCH, PIERCE, FENNER & SMITH INCORPORATED",
      "orgPK": "7691",
      "str1": "ONE BRYANT PARK",
      "str2": null,
      "city": "NEW YORK",
      "state": 35,
      "stateSpecified": true,
      "cntry": "United States",
      "postlCd": "10036"
    }
  ],
  "Exms": [
    {
      "exmCd": 3,
      "exmNm": "Uniform Combined State Law Examination",
      "exmDt": "2014-09-26T00:00:00",
      "exmDtSpecified": true
    }
  ],
  "Dsgntns": [],
  "PrevRgstns": [],
  "EmpHss": [
    {
      "fromDt": "09/2003",
      "toDt": "08/2006",
      "orgNm": "SOUTH MIDDLE SCHOOL",
      "city": "EAU CLAIRE",
      "state": 50,
      "stateSpecified": true
    },
    {
      "fromDt": "09/2006",
      "toDt": "05/2010",
      "orgNm": "MEMORIAL HIGH SCHOOL",
      "city": "EAU CLAIRE",
      "state": 50,
      "stateSpecified": true
    },
    {
      "fromDt": "06/2010",
      "toDt": "08/2010",
      "orgNm": "POWERTEX INC.",
      "city": "EAU CLAIRE",
      "state": 50,
      "stateSpecified": true
    },
    {
      "fromDt": "09/2010",
      "toDt": "05/2011",
      "orgNm": "UNIVERSITY OF ST. THOMAS",
      "city": "ST. PAUL",
      "state": 24,
      "stateSpecified": true
    },
    {
      "fromDt": "06/2011",
      "toDt": "08/2011",
      "orgNm": "PINE MEADOW GOLF COURSE",
      "city": "EAU CLAIRE",
      "state": 50,
      "stateSpecified": true
    },
    {
      "fromDt": "09/2011",
      "toDt": "05/2012",
      "orgNm": "UNIVERSITY OF ST. THOMAS",
      "city": "ST. PAUL",
      "state": 24,
      "stateSpecified": true
    },
    {
      "fromDt": "06/2012",
      "toDt": "08/2012",
      "orgNm": "PINE MEADOW GOLF COURSE",
      "city": "EAU CLAIRE",
      "state": 50,
      "stateSpecified": true
    },
    {
      "fromDt": "09/2012",
      "toDt": "05/2013",
      "orgNm": "UNIVERSITY OF ST. THOMAS",
      "city": "ST. PAUL",
      "state": 24,
      "stateSpecified": true
    },
    {
      "fromDt": "06/2013",
      "toDt": "08/2013",
      "orgNm": "PRECISION PIPELINE",
      "city": "EAU CLAIRE",
      "state": 50,
      "stateSpecified": true
    },
    {
      "fromDt": "09/2013",
      "toDt": "05/2014",
      "orgNm": "UNIVERSITY OF ST. THOMAS",
      "city": "ST. PAUL",
      "state": 24,
      "stateSpecified": true
    },
    {
      "fromDt": "06/2014",
      "toDt": null,
      "orgNm": "MERRILL LYNCH, PIERCE, FENNER & SMITH INCORPORATED",
      "city": "EAU CLAIRE",
      "state": 50,
      "stateSpecified": true
    },
    {
      "fromDt": "11/2014",
      "toDt": null,
      "orgNm": "BANK OF AMERICA, N.A.",
      "city": "EAU CLAIRE",
      "state": 50,
      "stateSpecified": true
    }
  ],
  "OthrBuss": {
    "OthrBus": null
  },
  "DRPs": []
}