{
  "Info": {
    "lastNm": "MAY",
    "firstNm": "JEFFREY",
    "midNm": "AUSTIN",
    "sufNm": null,
    "indvlPK": "6365907",
    "actvAGReg": 1,
    "link": "http://www.adviserinfo.sec.gov/IAPD/Individual/6365907"
  },
  "OthrNms": [],
  "CrntEmps": [
    {
      "CrntRgstns": [
        {
          "regAuth": 45,
          "regCat": 0,
          "st": 2,
          "stDt": "2014-12-22T00:00:00"
        }
      ],
      "BrnchOfLocs": [
        {
          "str1": "6363 WOODWAY DR",
          "str2": "SUITE 900",
          "city": "HOUSTON",
          "state": 45,
          "stateSpecified": true,
          "cntry": "United States",
          "postlCd": "77057-1521"
        }
      ],
      "orgNm": "OFS ENERGY FUND, LLC",
      "orgPK": "160490",
      "str1": "6363 WOODWAY DR",
      "str2": "SUITE 900",
      "city": "HOUSTON",
      "state": 45,
      "stateSpecified": true,
      "cntry": "United States",
      "postlCd": "77057-1521"
    }
  ],
  "Exms": [
    {
      "exmCd": 2,
      "exmNm": "Uniform Investment Adviser Law Examination",
      "exmDt": "2014-12-22T00:00:00",
      "exmDtSpecified": true
    }
  ],
  "Dsgntns": [],
  "PrevRgstns": [],
  "EmpHss": [
    {
      "fromDt": "09/2002",
      "toDt": "12/2007",
      "orgNm": "TEXAS STATE UNIVERSITY",
      "city": "SAN MARCOS",
      "state": 45,
      "stateSpecified": true
    },
    {
      "fromDt": "02/2006",
      "toDt": "12/2008",
      "orgNm": "CALHOUN, THOMSON + MATZA LLP",
      "city": "AUSTIN",
      "state": 45,
      "stateSpecified": true
    },
    {
      "fromDt": "01/2009",
      "toDt": "06/2011",
      "orgNm": "PRICEWATERHOUSECOOPERS, LLP",
      "city": "HOUSTON",
      "state": 45,
      "stateSpecified": true
    },
    {
      "fromDt": "07/2011",
      "toDt": "04/2014",
      "orgNm": "THE STERLING GROUP",
      "city": "HOUSTON",
      "state": 45,
      "stateSpecified": true
    },
    {
      "fromDt": "05/2014",
      "toDt": null,
      "orgNm": "OFS ENERGY FUND, LLC",
      "city": "HOUSTON",
      "state": 45,
      "stateSpecified": true
    }
  ],
  "OthrBuss": {
    "OthrBus": null
  },
  "DRPs": []
}