{
  "Info": {
    "lastNm": "HARTNETT",
    "firstNm": "PATRICK",
    "midNm": "CONABOY",
    "sufNm": null,
    "indvlPK": "6369082",
    "actvAGReg": 0,
    "link": "http://www.adviserinfo.sec.gov/IAPD/Individual/6369082"
  },
  "OthrNms": [
    {
      "lastNm": "HARTNETT",
      "firstNm": "PATRICK",
      "midNm": "C",
      "sufNm": null
    }
  ],
  "CrntEmps": [
    {
      "CrntRgstns": [
        {
          "regAuth": 47,
          "regCat": 0,
          "st": 2,
          "stDt": "2015-09-15T00:00:00"
        }
      ],
      "BrnchOfLocs": [
        {
          "str1": "3141 FAIRVIEW PARK DRIVE",
          "str2": "SUITE 250",
          "city": "FALLS CHURCH",
          "state": 47,
          "stateSpecified": true,
          "cntry": "United States",
          "postlCd": "22042"
        }
      ],
      "orgNm": "AXA ADVISORS, LLC",
      "orgPK": "6627",
      "str1": "1290 AVENUE OF THE AMERICAS",
      "str2": null,
      "city": "NEW YORK",
      "state": 35,
      "stateSpecified": true,
      "cntry": "United States",
      "postlCd": "10104"
    }
  ],
  "Exms": [
    {
      "exmCd": 3,
      "exmNm": "Uniform Combined State Law Examination",
      "exmDt": "2015-08-06T00:00:00",
      "exmDtSpecified": true
    }
  ],
  "Dsgntns": [],
  "PrevRgstns": [],
  "EmpHss": [
    {
      "fromDt": "07/2004",
      "toDt": "09/2006",
      "orgNm": "BAY TRAIL MIDDLE SCHOOL",
      "city": "PENFIELD",
      "state": 35,
      "stateSpecified": true
    },
    {
      "fromDt": "09/2006",
      "toDt": "06/2010",
      "orgNm": "PENFIELD HIGH SCHOOL",
      "city": "PENFIELD",
      "state": 35,
      "stateSpecified": true
    },
    {
      "fromDt": "05/2010",
      "toDt": "11/2014",
      "orgNm": "PENFIELD COUNTRY CLUB",
      "city": "PENFIELD",
      "state": 35,
      "stateSpecified": true
    },
    {
      "fromDt": "08/2010",
      "toDt": "05/2014",
      "orgNm": "WEST VIRGINIA UNIVERSITY",
      "city": "MORGANTOWN",
      "state": 51,
      "stateSpecified": true
    },
    {
      "fromDt": "11/2011",
      "toDt": "05/2012",
      "orgNm": "TAILPIPES",
      "city": "MORGANTOWN",
      "state": 51,
      "stateSpecified": true
    },
    {
      "fromDt": "05/2012",
      "toDt": "08/2012",
      "orgNm": "RED WINGS AAA BASEBALL CLUB",
      "city": "ROCHESTER",
      "state": 35,
      "stateSpecified": true
    },
    {
      "fromDt": "06/2013",
      "toDt": "08/2013",
      "orgNm": "STATE FARM FRANK ARGENTA",
      "city": "WEBSTER",
      "state": 35,
      "stateSpecified": true
    },
    {
      "fromDt": "11/2014",
      "toDt": null,
      "orgNm": "AXA ADVISORS, LLC",
      "city": "NEW YORK",
      "state": 35,
      "stateSpecified": true
    }
  ],
  "OthrBuss": {
    "OthrBus": null
  },
  "DRPs": []
}