{
  "Info": {
    "lastNm": "MILLER",
    "firstNm": "JUSTIN",
    "midNm": "LANE",
    "sufNm": null,
    "indvlPK": "6372582",
    "actvAGReg": 0,
    "link": "http://www.adviserinfo.sec.gov/IAPD/Individual/6372582"
  },
  "OthrNms": [
    {
      "lastNm": "MILLER",
      "firstNm": "JUSTIN",
      "midNm": null,
      "sufNm": null
    }
  ],
  "CrntEmps": [
    {
      "CrntRgstns": [
        {
          "regAuth": 45,
          "regCat": 0,
          "st": 2,
          "stDt": "2016-01-14T00:00:00"
        }
      ],
      "BrnchOfLocs": [
        {
          "str1": "550 BAILEY AVENUE",
          "str2": "SUITE 750",
          "city": "FORT WORTH",
          "state": 45,
          "stateSpecified": true,
          "cntry": "United States",
          "postlCd": "76107"
        }
      ],
      "orgNm": "MML INVESTORS SERVICES, LLC",
      "orgPK": "10409",
      "str1": "1295 STATE STREET",
      "str2": null,
      "city": "SPRINGFIELD",
      "state": 20,
      "stateSpecified": true,
      "cntry": "United States",
      "postlCd": "01111-0001"
    }
  ],
  "Exms": [
    {
      "exmCd": 0,
      "exmNm": "Uniform Securities Agent State Law Examination",
      "exmDt": "2014-10-27T00:00:00",
      "exmDtSpecified": true
    },
    {
      "exmCd": 2,
      "exmNm": "Uniform Investment Adviser Law Examination",
      "exmDt": "2015-12-28T00:00:00",
      "exmDtSpecified": true
    }
  ],
  "Dsgntns": [],
  "PrevRgstns": [],
  "EmpHss": [
    {
      "fromDt": "06/2004",
      "toDt": "05/2009",
      "orgNm": "FOSSI RIDGE HIGHSCHOOL",
      "city": "FORT WORTH",
      "state": 45,
      "stateSpecified": true
    },
    {
      "fromDt": "06/2009",
      "toDt": "12/2010",
      "orgNm": "BEST BUY",
      "city": "FORT WORTH",
      "state": 45,
      "stateSpecified": true
    },
    {
      "fromDt": "01/2011",
      "toDt": "04/2011",
      "orgNm": "CHILIS",
      "city": "FORT WORTH",
      "state": 45,
      "stateSpecified": true
    },
    {
      "fromDt": "04/2011",
      "toDt": "02/2012",
      "orgNm": "T.O.P. MARKETING",
      "city": "FORT WORTH",
      "state": 45,
      "stateSpecified": true
    },
    {
      "fromDt": "02/2012",
      "toDt": "07/2012",
      "orgNm": "OLIVE GARDEN",
      "city": "FORT WORTH",
      "state": 45,
      "stateSpecified": true
    },
    {
      "fromDt": "07/2012",
      "toDt": "02/2013",
      "orgNm": "MACARONI GRILL",
      "city": "FORT WORTH",
      "state": 45,
      "stateSpecified": true
    },
    {
      "fromDt": "02/2013",
      "toDt": null,
      "orgNm": "MASSMUTUAL LIFE INSURANCE CO",
      "city": "FORT WORTH",
      "state": 45,
      "stateSpecified": true
    },
    {
      "fromDt": "04/2014",
      "toDt": null,
      "orgNm": "TEXAS DE BRAZIL",
      "city": "FORT WORTH",
      "state": 45,
      "stateSpecified": true
    },
    {
      "fromDt": "08/2014",
      "toDt": null,
      "orgNm": "MML INVESTORS SERVICES LLC",
      "city": "FORT WORTH",
      "state": 45,
      "stateSpecified": true
    }
  ],
  "OthrBuss": {
    "OthrBus": null
  },
  "DRPs": []
}