{
  "Info": {
    "lastNm": "NIRENSTEIN",
    "firstNm": "JEFFREY",
    "midNm": "ALAN",
    "sufNm": null,
    "indvlPK": "6377878",
    "actvAGReg": 1,
    "link": "http://www.adviserinfo.sec.gov/IAPD/Individual/6377878"
  },
  "OthrNms": [],
  "CrntEmps": [
    {
      "CrntRgstns": [
        {
          "regAuth": 6,
          "regCat": 0,
          "st": 2,
          "stDt": "2014-10-22T00:00:00"
        }
      ],
      "BrnchOfLocs": [
        {
          "str1": "43 WOODLAND STREET",
          "str2": "SUITE 520",
          "city": "HARTFORD",
          "state": 6,
          "stateSpecified": true,
          "cntry": "United States",
          "postlCd": "06105"
        }
      ],
      "orgNm": "BRIGHTSIDE INVESTING, LLC",
      "orgPK": "172227",
      "str1": "43 WOODLAND STREET",
      "str2": "SUITE 520",
      "city": "HARTFORD",
      "state": 6,
      "stateSpecified": true,
      "cntry": "United States",
      "postlCd": "06105"
    }
  ],
  "Exms": [
    {
      "exmCd": 2,
      "exmNm": "Uniform Investment Adviser Law Examination",
      "exmDt": "2014-01-14T00:00:00",
      "exmDtSpecified": true
    }
  ],
  "Dsgntns": [],
  "PrevRgstns": [],
  "EmpHss": [
    {
      "fromDt": "10/1987",
      "toDt": null,
      "orgNm": "NIRENSTEIN, HOROWITZ & ASSOCIATES, P.C.",
      "city": "VICE PRESIDENT",
      "state": 6,
      "stateSpecified": true
    },
    {
      "fromDt": "07/2014",
      "toDt": null,
      "orgNm": "BRIGHTSIDE INVESTING, LLC",
      "city": "HARTFORD",
      "state": 6,
      "stateSpecified": true
    }
  ],
  "OthrBuss": {
    "OthrBus": {
      "desc": "MR. JEFFREY ALAN NIRENSTEIN IS A PRINCIPAL ATTORNEY AT NIRENSTEIN, HOROWITZ & ASSOCIATES, P.C. - MR. NIRENSTEIN RECIEVES NO COMMISSIONS FOR THIS POSITION.    MR. NIRENSTEIN IS AN INDEPENDENT LIFE/HEALTH INSURANCE AGENT. MR. NIRENSTEIN R RECEIVES COMMISSIONS FOR THESE SERVICES."
    }
  },
  "DRPs": []
}