{
  "Info": {
    "lastNm": "RUSTICI",
    "firstNm": "ROBERT",
    "midNm": null,
    "sufNm": null,
    "indvlPK": "6380056",
    "actvAGReg": 0,
    "link": "http://www.adviserinfo.sec.gov/IAPD/Individual/6380056"
  },
  "OthrNms": [
    {
      "lastNm": "RUSTICI",
      "firstNm": "ROBERT",
      "midNm": "DANIEL",
      "sufNm": null
    }
  ],
  "CrntEmps": [
    {
      "CrntRgstns": [
        {
          "regAuth": 9,
          "regCat": 0,
          "st": 2,
          "stDt": "2014-12-18T00:00:00"
        },
        {
          "regAuth": 45,
          "regCat": 0,
          "st": 2,
          "stDt": "2014-12-19T00:00:00"
        }
      ],
      "BrnchOfLocs": [
        {
          "str1": "4800-4804 DEER LAKE DR",
          "str2": "MERRILL EDGE ADVISORY CENTER",
          "city": "JACKSONVILLE",
          "state": 9,
          "stateSpecified": true,
          "cntry": "United States",
          "postlCd": "32246"
        }
      ],
      "orgNm": "MERRILL LYNCH, PIERCE, FENNER & SMITH INCORPORATED",
      "orgPK": "7691",
      "str1": "ONE BRYANT PARK",
      "str2": null,
      "city": "NEW YORK",
      "state": 35,
      "stateSpecified": true,
      "cntry": "United States",
      "postlCd": "10036"
    }
  ],
  "Exms": [
    {
      "exmCd": 3,
      "exmNm": "Uniform Combined State Law Examination",
      "exmDt": "2014-12-13T00:00:00",
      "exmDtSpecified": true
    }
  ],
  "Dsgntns": [],
  "PrevRgstns": [],
  "EmpHss": [
    {
      "fromDt": "01/2006",
      "toDt": "07/2012",
      "orgNm": "PALMS PLUS",
      "city": "ST. AUG",
      "state": 9,
      "stateSpecified": true
    },
    {
      "fromDt": "11/2011",
      "toDt": null,
      "orgNm": "SALTY PALMS APPAREL",
      "city": "ST AUGUSTINE",
      "state": 9,
      "stateSpecified": true
    },
    {
      "fromDt": "08/2012",
      "toDt": "10/2012",
      "orgNm": "UNEMPLOYED",
      "city": "ST. AUG",
      "state": 9,
      "stateSpecified": true
    },
    {
      "fromDt": "10/2012",
      "toDt": "12/2012",
      "orgNm": "UPS",
      "city": "ST. AUGUSTINE",
      "state": 9,
      "stateSpecified": true
    },
    {
      "fromDt": "01/2013",
      "toDt": "01/2014",
      "orgNm": "JOHN'S NURSERY",
      "city": "ST. AUGUSTINE",
      "state": 9,
      "stateSpecified": true
    },
    {
      "fromDt": "01/2014",
      "toDt": "07/2014",
      "orgNm": "BOZARD FORD",
      "city": "ST. AUGUSTINE",
      "state": 9,
      "stateSpecified": true
    },
    {
      "fromDt": "08/2014",
      "toDt": null,
      "orgNm": "MERRILL LYNCH, PIERCE, FENNER & SMITH INCORPORATED",
      "city": "JACKSONVILLE",
      "state": 9,
      "stateSpecified": true
    },
    {
      "fromDt": "12/2014",
      "toDt": null,
      "orgNm": "BANK OF AMERICA, N.A.",
      "city": "JACKSONVILLE",
      "state": 9,
      "stateSpecified": true
    }
  ],
  "OthrBuss": {
    "OthrBus": {
      "desc": "1)SALTY PALMS APPAREL, 1304 PADOLA RD. ST. AUG FL. 32092, TSHIRTS SALES,STARTED NOV. 2011, 12 HOURS/MO. NOT INVESTMENT RELATED, OWNER   2)I*74591  FOR PROFIT OR NOT FOR PROFIT: FOR-PROFIT ORGANIZATION  NAME OF OUTSIDE BUSINESS ORGANIZATION: PALMS PLUS DBA SALTY PALMS  INVESTMENT RELATED: N  ADDRESS OF BUSINESS:  ST. AUGUSTINE, FLORIDA 32092  NATURE OF BUSINESS: LLC,  POSITION, TITLE, ASSOCIATION: OWNER,   START DATE OF RELATIONSHIP: 1/1/2011  NUMBER OF HOURS DEVOTED: 10 HOUR(S) MONTHLY  NUMBER OF HOURS DEVOTED DURING TRADING HOURS: 0  DUTIES: OWNER, T-SHIRT AND HAT WEBSITE."
    }
  },
  "DRPs": []
}