{
  "Info": {
    "lastNm": "SUTHERLAND",
    "firstNm": "PAUL",
    "midNm": "R",
    "sufNm": null,
    "indvlPK": "6386045",
    "actvAGReg": 0,
    "link": "http://www.adviserinfo.sec.gov/IAPD/Individual/6386045"
  },
  "OthrNms": [],
  "CrntEmps": [
    {
      "CrntRgstns": [
        {
          "regAuth": 38,
          "regCat": 0,
          "st": 2,
          "stDt": "2014-12-08T00:00:00"
        }
      ],
      "BrnchOfLocs": [
        {
          "str1": "1454 NW 6th Street",
          "str2": null,
          "city": "GRANTS PASS",
          "state": 38,
          "stateSpecified": true,
          "cntry": "United States",
          "postlCd": "97526"
        }
      ],
      "orgNm": "INDEPENDENT FINANCIAL GROUP, LLC",
      "orgPK": "7717",
      "str1": "12671 HIGH BLUFF DR",
      "str2": "SUITE 200",
      "city": "SAN DIEGO",
      "state": 4,
      "stateSpecified": true,
      "cntry": "United States",
      "postlCd": "92130"
    }
  ],
  "Exms": [
    {
      "exmCd": 3,
      "exmNm": "Uniform Combined State Law Examination",
      "exmDt": "2014-10-23T00:00:00",
      "exmDtSpecified": true
    }
  ],
  "Dsgntns": [],
  "PrevRgstns": [],
  "EmpHss": [
    {
      "fromDt": "04/2005",
      "toDt": "01/2012",
      "orgNm": "EVERGREEN FEDERAL BANK",
      "city": "GRANTS PASS",
      "state": 38,
      "stateSpecified": true
    },
    {
      "fromDt": "01/2012",
      "toDt": "07/2014",
      "orgNm": "EVERGREEN FEDERAL BANK",
      "city": "GRANTS PASS",
      "state": 38,
      "stateSpecified": true
    },
    {
      "fromDt": "07/2014",
      "toDt": null,
      "orgNm": "INDEPENDENT FINANCIAL GROUP LLC",
      "city": "GRANTS PASS",
      "state": 38,
      "stateSpecified": true
    }
  ],
  "OthrBuss": {
    "OthrBus": null
  },
  "DRPs": []
}