{
  "Info": {
    "lastNm": "CHEUNG",
    "firstNm": "DENNIS",
    "midNm": null,
    "sufNm": null,
    "indvlPK": "6391547",
    "actvAGReg": 0,
    "link": "http://www.adviserinfo.sec.gov/IAPD/Individual/6391547"
  },
  "OthrNms": [],
  "CrntEmps": [
    {
      "CrntRgstns": [
        {
          "regAuth": 4,
          "regCat": 0,
          "st": 2,
          "stDt": "2016-03-03T00:00:00"
        },
        {
          "regAuth": 45,
          "regCat": 0,
          "st": 2,
          "stDt": "2016-03-03T00:00:00"
        }
      ],
      "BrnchOfLocs": [
        {
          "str1": "555 CALIFORNIA STREET",
          "str2": "SUITE 4650",
          "city": "SAN FRANCISCO",
          "state": 4,
          "stateSpecified": true,
          "cntry": "United States",
          "postlCd": "94104"
        }
      ],
      "orgNm": "UBS FINANCIAL SERVICES INC.",
      "orgPK": "8174",
      "str1": "1200 HARBOR BOULEVARD",
      "str2": null,
      "city": "WEEHAWKEN",
      "state": 32,
      "stateSpecified": true,
      "cntry": "United States",
      "postlCd": "07086"
    }
  ],
  "Exms": [
    {
      "exmCd": 3,
      "exmNm": "Uniform Combined State Law Examination",
      "exmDt": "2016-01-30T00:00:00",
      "exmDtSpecified": true
    }
  ],
  "Dsgntns": [],
  "PrevRgstns": [
    {
      "BrnchOfLocs": [
        {
          "city": "PASADENA",
          "state": 4,
          "stateSpecified": true
        }
      ],
      "orgNm": "MERRILL LYNCH, PIERCE, FENNER & SMITH INCORPORATED",
      "orgPK": "7691",
      "regBeginDt": "2016-02-01T00:00:00",
      "regBeginDtSpecified": true,
      "regEndDt": "2016-03-02T00:00:00",
      "regEndDtSpecified": true
    }
  ],
  "EmpHss": [
    {
      "fromDt": "08/2004",
      "toDt": "08/2008",
      "orgNm": "LOS ALTOS HIGH SCHOOL",
      "city": "HACIENDA HEIGTHS",
      "state": 4,
      "stateSpecified": true
    },
    {
      "fromDt": "08/2008",
      "toDt": "05/2011",
      "orgNm": "MT SAN ANTONIO COLLEGE",
      "city": "WALNUT",
      "state": 4,
      "stateSpecified": true
    },
    {
      "fromDt": "08/2009",
      "toDt": "06/2010",
      "orgNm": "PURE WIRELESS",
      "city": "CITY OF INDUSTRY",
      "state": 4,
      "stateSpecified": true
    },
    {
      "fromDt": "06/2010",
      "toDt": "09/2014",
      "orgNm": "INVISIBLESHIELD",
      "city": "ARCADIA",
      "state": 4,
      "stateSpecified": true
    },
    {
      "fromDt": "05/2011",
      "toDt": "05/2014",
      "orgNm": "CAL STATE LONG BEACH",
      "city": "LONG BEACH",
      "state": 4,
      "stateSpecified": true
    },
    {
      "fromDt": "09/2014",
      "toDt": "03/2016",
      "orgNm": "MERRILL LYNCH, PIERCE, FENNER & SMITH INCORPORATED",
      "city": "PASADENA",
      "state": 4,
      "stateSpecified": true
    },
    {
      "fromDt": "03/2016",
      "toDt": null,
      "orgNm": "UBS FINANCIAL SERVICES INC.",
      "city": "SAN FRANCISCO",
      "state": 4,
      "stateSpecified": true
    }
  ],
  "OthrBuss": {
    "OthrBus": null
  },
  "DRPs": []
}