{
  "Info": {
    "lastNm": "SPRINGER",
    "firstNm": "BRANDON",
    "midNm": "DOUGLAS",
    "sufNm": null,
    "indvlPK": "6393142",
    "actvAGReg": 1,
    "link": "http://www.adviserinfo.sec.gov/IAPD/Individual/6393142"
  },
  "OthrNms": [],
  "CrntEmps": [
    {
      "CrntRgstns": [
        {
          "regAuth": 49,
          "regCat": 0,
          "st": 2,
          "stDt": "2014-10-06T00:00:00"
        }
      ],
      "BrnchOfLocs": [
        {
          "str1": "17330 135TH AVENUE, NE",
          "str2": "SUITE 2A",
          "city": "WOODINVILLE",
          "state": 49,
          "stateSpecified": true,
          "cntry": "United States",
          "postlCd": "98072"
        }
      ],
      "orgNm": "HELMSMAN FINANCIAL GROUP, LLC",
      "orgPK": "113780",
      "str1": "17330 135TH AVENUE, NE",
      "str2": "SUITE 2A",
      "city": "WOODINVILLE",
      "state": 49,
      "stateSpecified": true,
      "cntry": "United States",
      "postlCd": "98072"
    }
  ],
  "Exms": [
    {
      "exmCd": 2,
      "exmNm": "Uniform Investment Adviser Law Examination",
      "exmDt": "2014-10-06T00:00:00",
      "exmDtSpecified": true
    }
  ],
  "Dsgntns": [],
  "PrevRgstns": [],
  "EmpHss": [
    {
      "fromDt": "09/2002",
      "toDt": "12/2006",
      "orgNm": "CENTRAL WASHINGTON UNIVERSITY",
      "city": "ELLENSBURG",
      "state": 49,
      "stateSpecified": true
    },
    {
      "fromDt": "01/2007",
      "toDt": "03/2007",
      "orgNm": "CH TECHNOLOGIES, INC.",
      "city": "MILL CREEK",
      "state": 49,
      "stateSpecified": true
    },
    {
      "fromDt": "03/2007",
      "toDt": "06/2007",
      "orgNm": "N/A",
      "city": "N/A",
      "state": 49,
      "stateSpecified": true
    },
    {
      "fromDt": "06/2007",
      "toDt": "03/2008",
      "orgNm": "KELLY SERVICES AT MICROSOFT",
      "city": "REDMOND",
      "state": 49,
      "stateSpecified": true
    },
    {
      "fromDt": "03/2008",
      "toDt": "03/2011",
      "orgNm": "WOODINVILLE ALLIANCE CHURCH",
      "city": "WOODINVILLE",
      "state": 49,
      "stateSpecified": true
    },
    {
      "fromDt": "03/2011",
      "toDt": "03/2012",
      "orgNm": "N/A",
      "city": "N/A",
      "state": 49,
      "stateSpecified": true
    },
    {
      "fromDt": "03/2012",
      "toDt": null,
      "orgNm": "HELMSMAN FINANCIAL GROUP, LLC",
      "city": "WOODINVILLE",
      "state": 49,
      "stateSpecified": true
    }
  ],
  "OthrBuss": {
    "OthrBus": null
  },
  "DRPs": []
}