{
  "Info": {
    "lastNm": "FERNANDEZ",
    "firstNm": "MIGUEL",
    "midNm": null,
    "sufNm": null,
    "indvlPK": "6395779",
    "actvAGReg": 0,
    "link": "http://www.adviserinfo.sec.gov/IAPD/Individual/6395779"
  },
  "OthrNms": [],
  "CrntEmps": [
    {
      "CrntRgstns": [
        {
          "regAuth": 6,
          "regCat": 0,
          "st": 2,
          "stDt": "2016-06-27T00:00:00"
        },
        {
          "regAuth": 45,
          "regCat": 0,
          "st": 2,
          "stDt": "2016-06-27T00:00:00"
        }
      ],
      "BrnchOfLocs": [
        {
          "str1": "399 PARK AVE.",
          "str2": "12TH FLOOR",
          "city": "NEW YORK",
          "state": 35,
          "stateSpecified": true,
          "cntry": "United States",
          "postlCd": "10022"
        }
      ],
      "orgNm": "MORGAN STANLEY",
      "orgPK": "149777",
      "str1": "2000 WESTCHESTER AVENUE",
      "str2": null,
      "city": "PURCHASE",
      "state": 35,
      "stateSpecified": true,
      "cntry": "United States",
      "postlCd": "10577-2530"
    }
  ],
  "Exms": [
    {
      "exmCd": 3,
      "exmNm": "Uniform Combined State Law Examination",
      "exmDt": "2014-12-29T00:00:00",
      "exmDtSpecified": true
    }
  ],
  "Dsgntns": [],
  "PrevRgstns": [
    {
      "BrnchOfLocs": [
        {
          "city": "MIAMI",
          "state": 9,
          "stateSpecified": true
        }
      ],
      "orgNm": "RBC CAPITAL MARKETS, LLC",
      "orgPK": "31194",
      "regBeginDt": "2015-01-02T00:00:00",
      "regBeginDtSpecified": true,
      "regEndDt": "2015-04-21T00:00:00",
      "regEndDtSpecified": true
    },
    {
      "BrnchOfLocs": [
        {
          "city": "MIAMI",
          "state": 9,
          "stateSpecified": true
        }
      ],
      "orgNm": "HB ASSET MANAGEMENT, L.C.",
      "orgPK": "112706",
      "regBeginDt": "2015-05-26T00:00:00",
      "regBeginDtSpecified": true,
      "regEndDt": "2015-09-15T00:00:00",
      "regEndDtSpecified": true
    }
  ],
  "EmpHss": [
    {
      "fromDt": "08/2003",
      "toDt": "08/2007",
      "orgNm": "MIAMI CORAL PARK SENIOR HIGH SCHOOL",
      "city": "MIAMI",
      "state": 9,
      "stateSpecified": true
    },
    {
      "fromDt": "08/2007",
      "toDt": "08/2011",
      "orgNm": "FLORIDA INTERNATIONAL UNIVERSITY",
      "city": "MIAMI",
      "state": 9,
      "stateSpecified": true
    },
    {
      "fromDt": "11/2009",
      "toDt": "05/2014",
      "orgNm": "JPMORGAN CHASE",
      "city": "MIAMI",
      "state": 9,
      "stateSpecified": true
    },
    {
      "fromDt": "05/2014",
      "toDt": "09/2014",
      "orgNm": "SUNTRUST BANK",
      "city": "SOUTH MIAMI",
      "state": 9,
      "stateSpecified": true
    },
    {
      "fromDt": "09/2014",
      "toDt": "06/2016",
      "orgNm": "RBC CAPITAL MARKETS, LLC",
      "city": "MIAMI",
      "state": 9,
      "stateSpecified": true
    },
    {
      "fromDt": "06/2016",
      "toDt": null,
      "orgNm": "Morgan Stanley",
      "city": "New York",
      "state": 35,
      "stateSpecified": true
    }
  ],
  "OthrBuss": {
    "OthrBus": null
  },
  "DRPs": []
}