{
  "Info": {
    "lastNm": "MARSH",
    "firstNm": "ROBERT",
    "midNm": "N",
    "sufNm": "JR",
    "indvlPK": "6399774",
    "actvAGReg": 0,
    "link": "http://www.adviserinfo.sec.gov/IAPD/Individual/6399774"
  },
  "OthrNms": [
    {
      "lastNm": "MARSH",
      "firstNm": "ROBERT",
      "midNm": "NORRIS",
      "sufNm": null
    }
  ],
  "CrntEmps": [
    {
      "CrntRgstns": [
        {
          "regAuth": 47,
          "regCat": 0,
          "st": 2,
          "stDt": "2015-01-05T00:00:00"
        },
        {
          "regAuth": 45,
          "regCat": 0,
          "st": 2,
          "stDt": "2015-06-23T00:00:00"
        }
      ],
      "BrnchOfLocs": [
        {
          "str1": "22477 CENTER PKWY",
          "str2": null,
          "city": "ACCOMAC",
          "state": 47,
          "stateSpecified": true,
          "cntry": "United States",
          "postlCd": "23301"
        }
      ],
      "orgNm": "MERRILL LYNCH, PIERCE, FENNER & SMITH INCORPORATED",
      "orgPK": "7691",
      "str1": "ONE BRYANT PARK",
      "str2": null,
      "city": "NEW YORK",
      "state": 35,
      "stateSpecified": true,
      "cntry": "United States",
      "postlCd": "10036"
    }
  ],
  "Exms": [
    {
      "exmCd": 3,
      "exmNm": "Uniform Combined State Law Examination",
      "exmDt": "2014-12-30T00:00:00",
      "exmDtSpecified": true
    }
  ],
  "Dsgntns": [],
  "PrevRgstns": [],
  "EmpHss": [
    {
      "fromDt": "03/2005",
      "toDt": "07/2007",
      "orgNm": "EASTERN SHORE OF VIRGINIA CHAMBER OF COMMERCE",
      "city": "MELFA",
      "state": 47,
      "stateSpecified": true
    },
    {
      "fromDt": "07/2007",
      "toDt": "07/2008",
      "orgNm": "SUNTRUST BANK",
      "city": "PAINTER",
      "state": 47,
      "stateSpecified": true
    },
    {
      "fromDt": "07/2008",
      "toDt": "07/2009",
      "orgNm": "SUNTRUST BANK",
      "city": "LEXINGTON",
      "state": 47,
      "stateSpecified": true
    },
    {
      "fromDt": "07/2009",
      "toDt": "07/2010",
      "orgNm": "SUNTRUST BANK",
      "city": "COLUMBIA",
      "state": 21,
      "stateSpecified": true
    },
    {
      "fromDt": "07/2010",
      "toDt": "12/2011",
      "orgNm": "BB&T BANK",
      "city": "OWINGS MILLS",
      "state": 21,
      "stateSpecified": true
    },
    {
      "fromDt": "01/2012",
      "toDt": "09/2014",
      "orgNm": "BB&T BANK",
      "city": "MAPPSVILLE",
      "state": 47,
      "stateSpecified": true
    },
    {
      "fromDt": "09/2014",
      "toDt": null,
      "orgNm": "MERRILL LYNCH, PIERCE, FENNER & SMITH INCORPORATED",
      "city": "ACCOMAC",
      "state": 47,
      "stateSpecified": true
    },
    {
      "fromDt": "03/2015",
      "toDt": null,
      "orgNm": "BANK OF AMERICA, N.A.",
      "city": "ACCOMAC",
      "state": 47,
      "stateSpecified": true
    }
  ],
  "OthrBuss": {
    "OthrBus": {
      "desc": "I*81543 FOR PROFIT OR NOT FOR PROFIT: NON-PROFIT ORGANIZATION  NAME OF OUTSIDE BUSINESS ORGANIZATION: UNITED WAY OF VIRGINIA'S EASTERN SHORE  INVESTMENT RELATED: N  ADDRESS OF BUSINESS:   MARKET STREET,   ONLEY, VIRGINIA 23418  NATURE OF BUSINESS: CHARITABLE ORGANIZATION,  POSITION, TITLE, ASSOCIATION: COMMITTEE MEMBER,   START DATE OF RELATIONSHIP: 8/3/2015  NUMBER OF HOURS DEVOTED: 50 HOUR(S) ANNUALLY  NUMBER OF HOURS DEVOTED DURING TRADING HOURS: 10  DUTIES: CAMPAIGN COMMITTEE CO-CHAIRPERSON: THIS POSITION IS IN CHARGE OF THE CAMPAIGN COMMITTEE CONSISTING OF PEOPLE THAT RAISE FUNDS FOR CHARITABLE PURPOSES. IT REQUIRES EVENT COORDINATION, MARKETING PLAN EXECUTION, MAILINGS TO DONORS/COMPANY PARTICIPANTS."
    }
  },
  "DRPs": []
}