{
  "Info": {
    "lastNm": "VIGIL",
    "firstNm": "DARRYL",
    "midNm": "MITCH",
    "sufNm": null,
    "indvlPK": "6401328",
    "actvAGReg": 0,
    "link": "http://www.adviserinfo.sec.gov/IAPD/Individual/6401328"
  },
  "OthrNms": [
    {
      "lastNm": "VIGIL",
      "firstNm": "MITCH",
      "midNm": null,
      "sufNm": null
    }
  ],
  "CrntEmps": [
    {
      "CrntRgstns": [
        {
          "regAuth": 33,
          "regCat": 0,
          "st": 2,
          "stDt": "2015-12-23T00:00:00"
        }
      ],
      "BrnchOfLocs": [
        {
          "str1": "6565 AMERICA'S PARKWAY NE",
          "str2": "STE 400",
          "city": "ALBUQUERQUE",
          "state": 33,
          "stateSpecified": true,
          "cntry": "United States",
          "postlCd": "87110"
        }
      ],
      "orgNm": "MORGAN STANLEY",
      "orgPK": "149777",
      "str1": "2000 WESTCHESTER AVENUE",
      "str2": null,
      "city": "PURCHASE",
      "state": 35,
      "stateSpecified": true,
      "cntry": "United States",
      "postlCd": "10577-2530"
    }
  ],
  "Exms": [
    {
      "exmCd": 0,
      "exmNm": "Uniform Securities Agent State Law Examination",
      "exmDt": "2014-11-01T00:00:00",
      "exmDtSpecified": true
    },
    {
      "exmCd": 3,
      "exmNm": "Uniform Combined State Law Examination",
      "exmDt": "2015-12-22T00:00:00",
      "exmDtSpecified": true
    }
  ],
  "Dsgntns": [],
  "PrevRgstns": [],
  "EmpHss": [
    {
      "fromDt": "07/2006",
      "toDt": "05/2007",
      "orgNm": "PEI WEI ASIAN DINER",
      "city": "ALBUQUERQUE",
      "state": 33,
      "stateSpecified": true
    },
    {
      "fromDt": "05/2007",
      "toDt": "08/2007",
      "orgNm": "SHARPE DEVELOPMENTS INC",
      "city": "ALBUQUERQUE",
      "state": 33,
      "stateSpecified": true
    },
    {
      "fromDt": "08/2007",
      "toDt": "12/2007",
      "orgNm": "FULL TIME EDUCATION",
      "city": "ALBUQUERQUE",
      "state": 33,
      "stateSpecified": true
    },
    {
      "fromDt": "12/2007",
      "toDt": "01/2011",
      "orgNm": "PEI WEI ASIAN DINER",
      "city": "ALBUQUERQUE",
      "state": 33,
      "stateSpecified": true
    },
    {
      "fromDt": "05/2009",
      "toDt": "08/2009",
      "orgNm": "VECTOR MARKETING",
      "city": "ALBUQUERQUE",
      "state": 33,
      "stateSpecified": true
    },
    {
      "fromDt": "01/2011",
      "toDt": "07/2011",
      "orgNm": "BUCA DI BEPPO",
      "city": "ALBUQUERQUE",
      "state": 33,
      "stateSpecified": true
    },
    {
      "fromDt": "07/2011",
      "toDt": "08/2011",
      "orgNm": "COCINA AZUL",
      "city": "ALBUQUERQUE",
      "state": 33,
      "stateSpecified": true
    },
    {
      "fromDt": "08/2011",
      "toDt": "08/2014",
      "orgNm": "ENTERPRISE HOLDINGS",
      "city": "ALBUQUERQUE",
      "state": 33,
      "stateSpecified": true
    },
    {
      "fromDt": "08/2014",
      "toDt": "01/2015",
      "orgNm": "AMERICAN RESTORATION WATER AND FIRE LLC",
      "city": "ALBUQUERQUE",
      "state": 33,
      "stateSpecified": true
    },
    {
      "fromDt": "09/2014",
      "toDt": "09/2015",
      "orgNm": "PRUCO SECURITIES, LLC",
      "city": "ALBUQUERQUE",
      "state": 33,
      "stateSpecified": true
    },
    {
      "fromDt": "09/2014",
      "toDt": "09/2015",
      "orgNm": "THE PRUDENTIAL INSURANCE COMPANY OF AMERICA",
      "city": "ALBUQUERQUE",
      "state": 33,
      "stateSpecified": true
    },
    {
      "fromDt": "10/2015",
      "toDt": null,
      "orgNm": "MORGAN STANLEY",
      "city": "ALBUQUERQUE",
      "state": 33,
      "stateSpecified": true
    },
    {
      "fromDt": "01/2016",
      "toDt": null,
      "orgNm": "MORGAN STANLEY PRIVATE BANK, NATIONAL ASSOCIATION",
      "city": "NEW YORK",
      "state": 35,
      "stateSpecified": true
    }
  ],
  "OthrBuss": {
    "OthrBus": null
  },
  "DRPs": []
}