{
  "Info": {
    "lastNm": "SCOTT",
    "firstNm": "MICHAEL",
    "midNm": "EDWARD",
    "sufNm": null,
    "indvlPK": "6402002",
    "actvAGReg": 1,
    "link": "http://www.adviserinfo.sec.gov/IAPD/Individual/6402002"
  },
  "OthrNms": [],
  "CrntEmps": [
    {
      "CrntRgstns": [
        {
          "regAuth": 9,
          "regCat": 0,
          "st": 2,
          "stDt": "2014-10-13T00:00:00"
        }
      ],
      "BrnchOfLocs": [
        {
          "str1": "205 EAST ORANGE STREET",
          "str2": null,
          "city": "LAKELAND",
          "state": 9,
          "stateSpecified": true,
          "cntry": "United States",
          "postlCd": "33801"
        }
      ],
      "orgNm": "CPS INVESTMENT ADVISORS",
      "orgPK": "104914",
      "str1": "205 EAST ORANGE STREET",
      "str2": null,
      "city": "LAKELAND",
      "state": 9,
      "stateSpecified": true,
      "cntry": "United States",
      "postlCd": "33801"
    }
  ],
  "Exms": [
    {
      "exmCd": 2,
      "exmNm": "Uniform Investment Adviser Law Examination",
      "exmDt": "2014-09-13T00:00:00",
      "exmDtSpecified": true
    }
  ],
  "Dsgntns": [],
  "PrevRgstns": [],
  "EmpHss": [
    {
      "fromDt": "08/2003",
      "toDt": "08/2007",
      "orgNm": "ST. MARY MAGDALENE",
      "city": "ALTAMONTE SPRINGS",
      "state": 9,
      "stateSpecified": true
    },
    {
      "fromDt": "08/2007",
      "toDt": "08/2011",
      "orgNm": "BISHOP MOORE CATHOLIC HIGH SCHOOL",
      "city": "ORLANDO",
      "state": 9,
      "stateSpecified": true
    },
    {
      "fromDt": "08/2011",
      "toDt": null,
      "orgNm": "FLORIDA SOUTHERN COLLEGE",
      "city": "LAKELAND",
      "state": 9,
      "stateSpecified": true
    },
    {
      "fromDt": "03/2014",
      "toDt": null,
      "orgNm": "CPS INVESTMENT ADVISORS",
      "city": "LAKELAND",
      "state": 9,
      "stateSpecified": true
    }
  ],
  "OthrBuss": {
    "OthrBus": null
  },
  "DRPs": []
}