{
  "Info": {
    "lastNm": "CASON",
    "firstNm": "DEREK",
    "midNm": "SHANE",
    "sufNm": null,
    "indvlPK": "6404521",
    "actvAGReg": 0,
    "link": "http://www.adviserinfo.sec.gov/IAPD/Individual/6404521"
  },
  "OthrNms": [],
  "CrntEmps": [
    {
      "CrntRgstns": [
        {
          "regAuth": 46,
          "regCat": 0,
          "st": 2,
          "stDt": "2014-12-18T00:00:00"
        },
        {
          "regAuth": 34,
          "regCat": 0,
          "st": 2,
          "stDt": "2016-01-04T00:00:00"
        }
      ],
      "BrnchOfLocs": [
        {
          "str1": "2424 SOUTH CARSON STREET",
          "str2": null,
          "city": "CARSON CITY",
          "state": 34,
          "stateSpecified": true,
          "cntry": "United States",
          "postlCd": "89702"
        },
        {
          "str1": "5340 KIETZKE LN STE 200",
          "str2": null,
          "city": "RENO",
          "state": 34,
          "stateSpecified": true,
          "cntry": "United States",
          "postlCd": "89511"
        }
      ],
      "orgNm": "WELLS FARGO ADVISORS, LLC",
      "orgPK": "19616",
      "str1": "ONE NORTH JEFFERSON AVENUE",
      "str2": "MAIL CODE: H0004-050",
      "city": "ST. LOUIS",
      "state": 25,
      "stateSpecified": true,
      "cntry": "United States",
      "postlCd": "63103-2205"
    }
  ],
  "Exms": [
    {
      "exmCd": 0,
      "exmNm": "Uniform Securities Agent State Law Examination",
      "exmDt": "2014-11-26T00:00:00",
      "exmDtSpecified": true
    },
    {
      "exmCd": 2,
      "exmNm": "Uniform Investment Adviser Law Examination",
      "exmDt": "2014-12-17T00:00:00",
      "exmDtSpecified": true
    }
  ],
  "Dsgntns": [],
  "PrevRgstns": [],
  "EmpHss": [
    {
      "fromDt": "05/2000",
      "toDt": "08/2008",
      "orgNm": "ED LESTER FARMS",
      "city": "COUSHATTA",
      "state": 19,
      "stateSpecified": true
    },
    {
      "fromDt": "08/2007",
      "toDt": "12/2013",
      "orgNm": "BYU",
      "city": "PROVO",
      "state": 46,
      "stateSpecified": true
    },
    {
      "fromDt": "08/2007",
      "toDt": "01/2008",
      "orgNm": "EINSTIEN'S BAGEL",
      "city": "PROVO",
      "state": 46,
      "stateSpecified": true
    },
    {
      "fromDt": "01/2008",
      "toDt": "04/2008",
      "orgNm": "LEGEND'S GRILLE",
      "city": "PROVO",
      "state": 46,
      "stateSpecified": true
    },
    {
      "fromDt": "05/2011",
      "toDt": "07/2012",
      "orgNm": "LA DOLCE VITA RISTORANTE",
      "city": "PROVO",
      "state": 46,
      "stateSpecified": true
    },
    {
      "fromDt": "07/2012",
      "toDt": "04/2013",
      "orgNm": "OLD TOWNE GRILL",
      "city": "PROVO",
      "state": 46,
      "stateSpecified": true
    },
    {
      "fromDt": "07/2012",
      "toDt": null,
      "orgNm": "WELLS FARGO BANK, NA",
      "city": "HIGHLAND",
      "state": 46,
      "stateSpecified": true
    },
    {
      "fromDt": "10/2014",
      "toDt": null,
      "orgNm": "WELLS FARGO ADVISORS, LLC",
      "city": "HIGHLAND",
      "state": 46,
      "stateSpecified": true
    }
  ],
  "OthrBuss": {
    "OthrBus": null
  },
  "DRPs": []
}