{
  "Info": {
    "lastNm": "Freeman",
    "firstNm": "Jay",
    "midNm": "Michael",
    "sufNm": null,
    "indvlPK": "6406327",
    "actvAGReg": 0,
    "link": "http://www.adviserinfo.sec.gov/IAPD/Individual/6406327"
  },
  "OthrNms": [],
  "CrntEmps": [
    {
      "CrntRgstns": [
        {
          "regAuth": 49,
          "regCat": 0,
          "st": 2,
          "stDt": "2015-02-27T00:00:00"
        }
      ],
      "BrnchOfLocs": [
        {
          "str1": "16 W KENNEWICK AVE STE 101",
          "str2": null,
          "city": "KENNEWICK",
          "state": 49,
          "stateSpecified": true,
          "cntry": "United States",
          "postlCd": "99336"
        }
      ],
      "orgNm": "EDWARD JONES",
      "orgPK": "250",
      "str1": "12555 MANCHESTER RD",
      "str2": null,
      "city": "ST. LOUIS",
      "state": 25,
      "stateSpecified": true,
      "cntry": "United States",
      "postlCd": "63131"
    }
  ],
  "Exms": [
    {
      "exmCd": 3,
      "exmNm": "Uniform Combined State Law Examination",
      "exmDt": "2015-01-03T00:00:00",
      "exmDtSpecified": true
    }
  ],
  "Dsgntns": [],
  "PrevRgstns": [],
  "EmpHss": [
    {
      "fromDt": "01/2003",
      "toDt": "09/2011",
      "orgNm": "HAMBRO FOREST PRODUCTS, INC.",
      "city": "CRESCENT CITY",
      "state": 4,
      "stateSpecified": true
    },
    {
      "fromDt": "10/2011",
      "toDt": "04/2014",
      "orgNm": "TMI FOREST PRODUCTS, INC.",
      "city": "MORTON",
      "state": 49,
      "stateSpecified": true
    },
    {
      "fromDt": "05/2014",
      "toDt": "07/2014",
      "orgNm": "ALTA FOREST PRODUCTS, LLC",
      "city": "MORTON",
      "state": 49,
      "stateSpecified": true
    },
    {
      "fromDt": "07/2014",
      "toDt": "11/2014",
      "orgNm": "UNEMPLOYED",
      "city": "Morton",
      "state": 49,
      "stateSpecified": true
    },
    {
      "fromDt": "11/2014",
      "toDt": null,
      "orgNm": "EDWARD JONES",
      "city": "ST LOUIS",
      "state": 25,
      "stateSpecified": true
    }
  ],
  "OthrBuss": {
    "OthrBus": {
      "desc": "Rental Property Crescent City, CA  Start date: 6/1/2009  Landlord  Hours per week: 0  Hours during trading: 0  Manage 1 rental property"
    }
  },
  "DRPs": []
}