{
  "Info": {
    "lastNm": "STICKELMAN",
    "firstNm": "ALEXANDRA",
    "midNm": "ROSE",
    "sufNm": null,
    "indvlPK": "6408420",
    "actvAGReg": 0,
    "link": "http://www.adviserinfo.sec.gov/IAPD/Individual/6408420"
  },
  "OthrNms": [],
  "CrntEmps": [
    {
      "CrntRgstns": [
        {
          "regAuth": 21,
          "regCat": 0,
          "st": 2,
          "stDt": "2015-10-07T00:00:00"
        }
      ],
      "BrnchOfLocs": [
        {
          "str1": "7210 Corporate Court",
          "str2": "Suite A",
          "city": "Frederick",
          "state": 21,
          "stateSpecified": true,
          "cntry": "United States",
          "postlCd": "21703"
        }
      ],
      "orgNm": "CAMBRIDGE INVESTMENT RESEARCH ADVISORS, INC.",
      "orgPK": "134139",
      "str1": "1776 PLEASANT PLAIN RD.",
      "str2": null,
      "city": "FAIRFIELD",
      "state": 13,
      "stateSpecified": true,
      "cntry": "United States",
      "postlCd": "52556-8757"
    }
  ],
  "Exms": [
    {
      "exmCd": 3,
      "exmNm": "Uniform Combined State Law Examination",
      "exmDt": "2015-07-01T00:00:00",
      "exmDtSpecified": true
    }
  ],
  "Dsgntns": [],
  "PrevRgstns": [],
  "EmpHss": [
    {
      "fromDt": "06/2006",
      "toDt": "11/2007",
      "orgNm": "ARIZONA STATE UNIVERSITY",
      "city": "TEMPE",
      "state": 3,
      "stateSpecified": true
    },
    {
      "fromDt": "11/2007",
      "toDt": "06/2009",
      "orgNm": "CADILLAC RANCH TEMPE",
      "city": "TEMPE",
      "state": 3,
      "stateSpecified": true
    },
    {
      "fromDt": "06/2009",
      "toDt": "07/2009",
      "orgNm": "ARIZONA STATE UNIVERSITY",
      "city": "TEMPE",
      "state": 3,
      "stateSpecified": true
    },
    {
      "fromDt": "08/2009",
      "toDt": "12/2011",
      "orgNm": "BOZZUTO GROUP",
      "city": "GREENBELT",
      "state": 21,
      "stateSpecified": true
    },
    {
      "fromDt": "12/2011",
      "toDt": "08/2014",
      "orgNm": "TOWER CONSTRUCTION GROUP",
      "city": "ROCKVILLE",
      "state": 21,
      "stateSpecified": true
    },
    {
      "fromDt": "08/2014",
      "toDt": "10/2014",
      "orgNm": "UNEMPLOYED",
      "city": "FREDERICK",
      "state": 21,
      "stateSpecified": true
    },
    {
      "fromDt": "10/2014",
      "toDt": null,
      "orgNm": "TURNING POINT BENEFIT GROUP, INC",
      "city": "FREDRICK",
      "state": 21,
      "stateSpecified": true
    },
    {
      "fromDt": "04/2015",
      "toDt": null,
      "orgNm": "Cambridge Investment Research, Inc.",
      "city": "Fairfield",
      "state": 13,
      "stateSpecified": true
    },
    {
      "fromDt": "10/2015",
      "toDt": null,
      "orgNm": "Cambridge Investment Research Advisors, Inc.",
      "city": "Fairfield",
      "state": 13,
      "stateSpecified": true
    }
  ],
  "OthrBuss": {
    "OthrBus": {
      "desc": "1)INDEPENDENT INSURANCE AGENT FOR VARIOUS INDEPENDENT INSURANCE COMPANIES"
    }
  },
  "DRPs": []
}