{
  "Info": {
    "lastNm": "HAMILTON",
    "firstNm": "MICHAEL",
    "midNm": "ANDREW",
    "sufNm": null,
    "indvlPK": "6411136",
    "actvAGReg": 1,
    "link": "http://www.adviserinfo.sec.gov/IAPD/Individual/6411136"
  },
  "OthrNms": [
    {
      "lastNm": "HAMILTON",
      "firstNm": "MIKE",
      "midNm": null,
      "sufNm": null
    }
  ],
  "CrntEmps": [
    {
      "CrntRgstns": [
        {
          "regAuth": 42,
          "regCat": 0,
          "st": 2,
          "stDt": "2014-11-04T00:00:00"
        }
      ],
      "BrnchOfLocs": [
        {
          "str1": "4000 FABER PLACE DRIVE",
          "str2": "SUITE 300",
          "city": "NORTH CHARLESTON",
          "state": 42,
          "stateSpecified": true,
          "cntry": "United States",
          "postlCd": "29405"
        }
      ],
      "orgNm": "OCEANSIDE ADVISORS LLC",
      "orgPK": "170307",
      "str1": "4000 FABER PLACE DRIVE",
      "str2": "SUITE 300",
      "city": "NORTH CHARLESTON",
      "state": 42,
      "stateSpecified": true,
      "cntry": "United States",
      "postlCd": "29405"
    }
  ],
  "Exms": [
    {
      "exmCd": 2,
      "exmNm": "Uniform Investment Adviser Law Examination",
      "exmDt": "2014-10-10T00:00:00",
      "exmDtSpecified": true
    }
  ],
  "Dsgntns": [],
  "PrevRgstns": [],
  "EmpHss": [
    {
      "fromDt": "09/2003",
      "toDt": "05/2007",
      "orgNm": "UNIVERSITY OF MAINE",
      "city": "ORONO",
      "state": 22,
      "stateSpecified": true
    },
    {
      "fromDt": "09/2007",
      "toDt": "09/2010",
      "orgNm": "CHICAGO WOLVES",
      "city": "CHICAGO",
      "state": 15,
      "stateSpecified": true
    },
    {
      "fromDt": "09/2010",
      "toDt": "09/2011",
      "orgNm": "VIPITENO BRONCOS",
      "city": "STERZING",
      "stateSpecified": false
    },
    {
      "fromDt": "09/2011",
      "toDt": "01/2012",
      "orgNm": "FIFE FLYERS",
      "city": "FIFE",
      "stateSpecified": false
    },
    {
      "fromDt": "01/2012",
      "toDt": "07/2013",
      "orgNm": "SOUTH CAROLINA STINGRAYS",
      "city": "NORTH CHARLESTON",
      "state": 42,
      "stateSpecified": true
    },
    {
      "fromDt": "07/2013",
      "toDt": "04/2014",
      "orgNm": "UNEMPLOYED",
      "city": "CHARLESTON",
      "state": 42,
      "stateSpecified": true
    },
    {
      "fromDt": "04/2014",
      "toDt": null,
      "orgNm": "OCEANSIDE ADVISORS LLC",
      "city": "MT. PLEASANT",
      "state": 42,
      "stateSpecified": true
    },
    {
      "fromDt": "10/2014",
      "toDt": null,
      "orgNm": "OCEANSIDE ADVISORS LLC",
      "city": "MT. PLEASANT",
      "state": 42,
      "stateSpecified": true
    }
  ],
  "OthrBuss": {
    "OthrBus": null
  },
  "DRPs": []
}