{
  "Info": {
    "lastNm": "RAGUDO",
    "firstNm": "MATTHEW",
    "midNm": "KAPONO HIDEKI",
    "sufNm": null,
    "indvlPK": "6412596",
    "actvAGReg": 0,
    "link": "http://www.adviserinfo.sec.gov/IAPD/Individual/6412596"
  },
  "OthrNms": [
    {
      "lastNm": "RAGUDO",
      "firstNm": "MATTHEW",
      "midNm": null,
      "sufNm": null
    }
  ],
  "CrntEmps": [
    {
      "CrntRgstns": [
        {
          "regAuth": 12,
          "regCat": 0,
          "st": 2,
          "stDt": "2015-05-12T00:00:00"
        }
      ],
      "BrnchOfLocs": [
        {
          "str1": "1585 KAPIOLANI BLVD",
          "str2": "STE 1388",
          "city": "HONOLULU",
          "state": 12,
          "stateSpecified": true,
          "cntry": "United States",
          "postlCd": "96814-4522"
        }
      ],
      "orgNm": "AMERIPRISE FINANCIAL SERVICES, INC.",
      "orgPK": "6363",
      "str1": "707 2ND AVENUE SOUTH",
      "str2": null,
      "city": "MINNEAPOLIS",
      "state": 24,
      "stateSpecified": true,
      "cntry": "United States",
      "postlCd": "55402"
    }
  ],
  "Exms": [
    {
      "exmCd": 3,
      "exmNm": "Uniform Combined State Law Examination",
      "exmDt": "2014-12-11T00:00:00",
      "exmDtSpecified": true
    }
  ],
  "Dsgntns": [],
  "PrevRgstns": [
    {
      "BrnchOfLocs": [
        {
          "city": "HONOLULU",
          "state": 12,
          "stateSpecified": true
        }
      ],
      "orgNm": "AXA ADVISORS, LLC",
      "orgPK": "6627",
      "regBeginDt": "2015-01-02T00:00:00",
      "regBeginDtSpecified": true,
      "regEndDt": "2015-05-14T00:00:00",
      "regEndDtSpecified": true
    }
  ],
  "EmpHss": [
    {
      "fromDt": "08/2002",
      "toDt": "12/2008",
      "orgNm": "UNIVERISTY OF HAWAII",
      "city": "HONOLULU",
      "state": 12,
      "stateSpecified": true
    },
    {
      "fromDt": "01/2006",
      "toDt": "12/2008",
      "orgNm": "UHM ITS LABS",
      "city": "HONOLULU",
      "state": 12,
      "stateSpecified": true
    },
    {
      "fromDt": "08/2007",
      "toDt": "01/2008",
      "orgNm": "STARTS INTERNATIONAL HAWAII",
      "city": "HONOLULU",
      "state": 12,
      "stateSpecified": true
    },
    {
      "fromDt": "01/2009",
      "toDt": "07/2009",
      "orgNm": "DEPARTMENT OF EDUCATION",
      "city": "WAHIAWA",
      "state": 12,
      "stateSpecified": true
    },
    {
      "fromDt": "08/2009",
      "toDt": "08/2012",
      "orgNm": "JAPANESE GOVERNMENT",
      "city": "FUKUOKA",
      "state": 12,
      "stateSpecified": true
    },
    {
      "fromDt": "10/2012",
      "toDt": "09/2014",
      "orgNm": "AULANI A DISNEY RESORT AND SPA",
      "city": "KAPOLEI",
      "state": 12,
      "stateSpecified": true
    },
    {
      "fromDt": "09/2014",
      "toDt": "10/2014",
      "orgNm": "MUTUAL OF OHAMA",
      "city": "HONOLULU",
      "state": 12,
      "stateSpecified": true
    },
    {
      "fromDt": "10/2014",
      "toDt": "05/2015",
      "orgNm": "AXA ADVISORS, LLC",
      "city": "NEW YORK",
      "state": 35,
      "stateSpecified": true
    },
    {
      "fromDt": "05/2015",
      "toDt": null,
      "orgNm": "AMERIPRISE FINANCIAL SERVICES INC",
      "city": "HONOLULU",
      "state": 12,
      "stateSpecified": true
    }
  ],
  "OthrBuss": {
    "OthrBus": {
      "desc": "Independent Insurance Brokering; United Health Care; October 2015. Independent Insurance Brokering; Humana; October 2015."
    }
  },
  "DRPs": []
}