{
  "Info": {
    "lastNm": "Blair",
    "firstNm": "Paul",
    "midNm": "LD",
    "sufNm": "IV",
    "indvlPK": "6414116",
    "actvAGReg": 0,
    "link": "http://www.adviserinfo.sec.gov/IAPD/Individual/6414116"
  },
  "OthrNms": [
    {
      "lastNm": "BLAIR",
      "firstNm": "PAUL",
      "midNm": "LD",
      "sufNm": null
    },
    {
      "lastNm": "BLAIR",
      "firstNm": "PAUL",
      "midNm": "LD",
      "sufNm": "IV"
    }
  ],
  "CrntEmps": [
    {
      "CrntRgstns": [
        {
          "regAuth": 4,
          "regCat": 0,
          "st": 2,
          "stDt": "2015-09-08T00:00:00"
        }
      ],
      "BrnchOfLocs": [
        {
          "str1": "340 N WESTLAKE BLVD SUITE 165",
          "str2": null,
          "city": "WESTLAKE VILLAGE",
          "state": 4,
          "stateSpecified": true,
          "cntry": "United States",
          "postlCd": "91362"
        }
      ],
      "orgNm": "EDWARD JONES",
      "orgPK": "250",
      "str1": "12555 MANCHESTER RD",
      "str2": null,
      "city": "ST. LOUIS",
      "state": 25,
      "stateSpecified": true,
      "cntry": "United States",
      "postlCd": "63131"
    }
  ],
  "Exms": [
    {
      "exmCd": 3,
      "exmNm": "Uniform Combined State Law Examination",
      "exmDt": "2015-05-16T00:00:00",
      "exmDtSpecified": true
    }
  ],
  "Dsgntns": [],
  "PrevRgstns": [],
  "EmpHss": [
    {
      "fromDt": "01/2004",
      "toDt": "08/2009",
      "orgNm": "SCHOOL",
      "city": "JACKSONVILLE",
      "state": 9,
      "stateSpecified": true
    },
    {
      "fromDt": "08/2009",
      "toDt": "12/2012",
      "orgNm": "UNIVERSITY OF CHARLESTON",
      "city": "CHARLESTON",
      "state": 51,
      "stateSpecified": true
    },
    {
      "fromDt": "02/2011",
      "toDt": "09/2012",
      "orgNm": "APPLEBEES",
      "city": "CHARLESTON",
      "state": 51,
      "stateSpecified": true
    },
    {
      "fromDt": "08/2011",
      "toDt": null,
      "orgNm": "SELF EMPLOYEED",
      "city": "PANAMA CITY BEACH",
      "state": 9,
      "stateSpecified": true
    },
    {
      "fromDt": "09/2012",
      "toDt": "05/2013",
      "orgNm": "UNIVERSITY OF CHARLESTON",
      "city": "CHARLESTON",
      "state": 51,
      "stateSpecified": true
    },
    {
      "fromDt": "05/2013",
      "toDt": "08/2013",
      "orgNm": "CITY OF CHARLESTON",
      "city": "CHARLESTON",
      "state": 51,
      "stateSpecified": true
    },
    {
      "fromDt": "08/2013",
      "toDt": "11/2013",
      "orgNm": "UNIVERISTY OF CHARLESTON",
      "city": "CHARLESTON",
      "state": 51,
      "stateSpecified": true
    },
    {
      "fromDt": "11/2013",
      "toDt": "05/2014",
      "orgNm": "CITY OF CHARLESTON",
      "city": "CHARLESTON",
      "state": 51,
      "stateSpecified": true
    },
    {
      "fromDt": "05/2014",
      "toDt": "11/2014",
      "orgNm": "UNEMPLOYED",
      "city": "PANAMA CITY BEACH",
      "state": 9,
      "stateSpecified": true
    },
    {
      "fromDt": "11/2014",
      "toDt": null,
      "orgNm": "EDWARD JONES",
      "city": "ST LOUIS",
      "state": 25,
      "stateSpecified": true
    }
  ],
  "OthrBuss": {
    "OthrBus": null
  },
  "DRPs": []
}