{
  "Info": {
    "lastNm": "Homra",
    "firstNm": "Brian",
    "midNm": "Shakeeb",
    "sufNm": null,
    "indvlPK": "6414014",
    "actvAGReg": 0,
    "link": "http://www.adviserinfo.sec.gov/IAPD/Individual/6414014"
  },
  "OthrNms": [],
  "CrntEmps": [
    {
      "CrntRgstns": [
        {
          "regAuth": 44,
          "regCat": 0,
          "st": 2,
          "stDt": "2015-03-20T00:00:00"
        }
      ],
      "BrnchOfLocs": [
        {
          "str1": "203 NORTH ANDERSON LANE",
          "str2": "SUITE 101",
          "city": "HENDERSONVILLE",
          "state": 44,
          "stateSpecified": true,
          "cntry": "United States",
          "postlCd": "37075"
        }
      ],
      "orgNm": "EDWARD JONES",
      "orgPK": "250",
      "str1": "12555 MANCHESTER RD",
      "str2": null,
      "city": "ST. LOUIS",
      "state": 25,
      "stateSpecified": true,
      "cntry": "United States",
      "postlCd": "63131"
    }
  ],
  "Exms": [
    {
      "exmCd": 3,
      "exmNm": "Uniform Combined State Law Examination",
      "exmDt": "2015-01-23T00:00:00",
      "exmDtSpecified": true
    }
  ],
  "Dsgntns": [],
  "PrevRgstns": [],
  "EmpHss": [
    {
      "fromDt": "03/2003",
      "toDt": "05/2008",
      "orgNm": "ENTERPRISE RENT-A-CAR",
      "city": "FRANKLIN",
      "state": 44,
      "stateSpecified": true
    },
    {
      "fromDt": "06/2008",
      "toDt": "07/2008",
      "orgNm": "CLEARWIRE",
      "city": "FRANKLIN",
      "state": 44,
      "stateSpecified": true
    },
    {
      "fromDt": "08/2008",
      "toDt": "11/2014",
      "orgNm": "COMDATA CORPORATION",
      "city": "BRENTWOOD",
      "state": 44,
      "stateSpecified": true
    },
    {
      "fromDt": "10/2012",
      "toDt": null,
      "orgNm": "THE ANNA COMPANY DBA MEMPHIS MAGIC BBQ SAUCE",
      "city": "HENDERSONVILLE",
      "state": 44,
      "stateSpecified": true
    },
    {
      "fromDt": "11/2014",
      "toDt": null,
      "orgNm": "EDWARD JONES",
      "city": "ST LOUIS",
      "state": 25,
      "stateSpecified": true
    }
  ],
  "OthrBuss": {
    "OthrBus": {
      "desc": "The Anna Company dba Memphis Magic BBQ Sauce Food sales  Hendersonville, TN  Start date: 10/1/2012  Owner  Hours per week: 1  Hours during trading: 0  I am the owner of a very small side business where I sell bbq sauce to a few local businesses and people."
    }
  },
  "DRPs": []
}