{
  "Info": {
    "lastNm": "BUBB",
    "firstNm": "QUENTIN",
    "midNm": "KERRICK",
    "sufNm": null,
    "indvlPK": "6414762",
    "actvAGReg": 0,
    "link": "http://www.adviserinfo.sec.gov/IAPD/Individual/6414762"
  },
  "OthrNms": [],
  "CrntEmps": [
    {
      "CrntRgstns": [
        {
          "regAuth": 4,
          "regCat": 0,
          "st": 2,
          "stDt": "2016-01-22T00:00:00"
        }
      ],
      "BrnchOfLocs": [
        {
          "str1": "617 S. IVY AVE",
          "str2": null,
          "city": "MONROVIA",
          "state": 4,
          "stateSpecified": true,
          "cntry": "United States",
          "postlCd": "91016"
        }
      ],
      "orgNm": "LPL FINANCIAL LLC",
      "orgPK": "6413",
      "str1": "75 STATE STREET, 22ND FLOOR",
      "str2": null,
      "city": "BOSTON",
      "state": 20,
      "stateSpecified": true,
      "cntry": "United States",
      "postlCd": "02109"
    }
  ],
  "Exms": [
    {
      "exmCd": 3,
      "exmNm": "Uniform Combined State Law Examination",
      "exmDt": "2016-01-14T00:00:00",
      "exmDtSpecified": true
    }
  ],
  "Dsgntns": [],
  "PrevRgstns": [],
  "EmpHss": [
    {
      "fromDt": "09/2005",
      "toDt": "06/2009",
      "orgNm": "Unemployed",
      "city": "Redlands",
      "state": 4,
      "stateSpecified": true
    },
    {
      "fromDt": "06/2009",
      "toDt": "08/2014",
      "orgNm": "Catalina Scuba Luv",
      "city": "Avalon",
      "state": 4,
      "stateSpecified": true
    },
    {
      "fromDt": "10/2014",
      "toDt": null,
      "orgNm": "KWB Wealth Managers Group",
      "city": "Redlands",
      "state": 4,
      "stateSpecified": true
    },
    {
      "fromDt": "11/2015",
      "toDt": null,
      "orgNm": "LPL FINANCIAL, LLC",
      "city": "REDLANDS",
      "state": 4,
      "stateSpecified": true
    }
  ],
  "OthrBuss": {
    "OthrBus": null
  },
  "DRPs": []
}