{
  "Info": {
    "lastNm": "NOOR",
    "firstNm": "AMIR",
    "midNm": null,
    "sufNm": null,
    "indvlPK": "6415824",
    "actvAGReg": 0,
    "link": "http://www.adviserinfo.sec.gov/IAPD/Individual/6415824"
  },
  "OthrNms": [],
  "CrntEmps": [
    {
      "CrntRgstns": [
        {
          "regAuth": 32,
          "regCat": 0,
          "st": 2,
          "stDt": "2015-06-25T00:00:00"
        },
        {
          "regAuth": 39,
          "regCat": 0,
          "st": 2,
          "stDt": "2015-08-14T00:00:00"
        },
        {
          "regAuth": 21,
          "regCat": 0,
          "st": 2,
          "stDt": "2015-11-09T00:00:00"
        },
        {
          "regAuth": 28,
          "regCat": 0,
          "st": 2,
          "stDt": "2016-01-04T00:00:00"
        }
      ],
      "BrnchOfLocs": [
        {
          "str1": "31 JEFFERSON PLAZA",
          "str2": null,
          "city": "PRINCETON",
          "state": 32,
          "stateSpecified": true,
          "cntry": "United States",
          "postlCd": "08540"
        }
      ],
      "orgNm": "PARK AVENUE SECURITIES LLC",
      "orgPK": "46173",
      "str1": "7 HANOVER SQUARE",
      "str2": null,
      "city": "NEW YORK",
      "state": 35,
      "stateSpecified": true,
      "cntry": "United States",
      "postlCd": "10004"
    }
  ],
  "Exms": [
    {
      "exmCd": 3,
      "exmNm": "Uniform Combined State Law Examination",
      "exmDt": "2015-06-01T00:00:00",
      "exmDtSpecified": true
    }
  ],
  "Dsgntns": [],
  "PrevRgstns": [],
  "EmpHss": [
    {
      "fromDt": "01/2006",
      "toDt": "05/2014",
      "orgNm": "FULL-TIME STUDENT",
      "city": "NORTHPORT",
      "state": 35,
      "stateSpecified": true
    },
    {
      "fromDt": "05/2008",
      "toDt": "08/2011",
      "orgNm": "CAFFE PORTOFINO",
      "city": "NORTHPORT",
      "state": 35,
      "stateSpecified": true
    },
    {
      "fromDt": "06/2009",
      "toDt": "04/2015",
      "orgNm": "AMIR NOOR CONSULTING SERVICE",
      "city": "NORTHPORT",
      "state": 35,
      "stateSpecified": true
    },
    {
      "fromDt": "06/2009",
      "toDt": "04/2015",
      "orgNm": "W.J. VALONE AGENCY",
      "city": "HUNTINGTON",
      "state": 35,
      "stateSpecified": true
    },
    {
      "fromDt": "04/2015",
      "toDt": "07/2015",
      "orgNm": "GUARDIAN LIFE INSURANCE CO",
      "city": "WOODBURY",
      "state": 35,
      "stateSpecified": true
    },
    {
      "fromDt": "04/2015",
      "toDt": "07/2015",
      "orgNm": "PARK AVENUE SECURITIES LLC",
      "city": "WOODBURY",
      "state": 35,
      "stateSpecified": true
    },
    {
      "fromDt": "07/2015",
      "toDt": null,
      "orgNm": "GUARDIAN LIFE INSURANCE COMPANY",
      "city": "PRINCETON",
      "state": 32,
      "stateSpecified": true
    },
    {
      "fromDt": "07/2015",
      "toDt": null,
      "orgNm": "PARK AVENUE SECURITIES LLC",
      "city": "PRINCETON",
      "state": 32,
      "stateSpecified": true
    }
  ],
  "OthrBuss": {
    "OthrBus": {
      "desc": "1. INSURANCE OTHER THAN GUARDIAN  GROUP & INDIVIDUAL HEALTH BENEFITS; FIXED ANNUITY & FIXED WHOLE LIFE & TERM INS. PRODUCTS  START: 11/1/2014.   Address: 250 CROSSWAYS PARK DR WOODBURY NY 11797.   HRS PER MONTH - TOT/BUS: 40/10  INVESTMENT RELATED    2. BOARD MEMBER/TREASURER FOR NON-PROFIT  I AM A BOARD MEMBER FOR A NON-PROFIT ORGANIZATION CALLED LIINCS. IT'S A YOUNG PROFESSIONAL ORGANIZATION THAT ADVOCATES FOR YOUNG PROFESSIONALS ON LONG ISLAND.  START: 08/31/2015  HRS PER MO - TOT/BUS: 5/2  NOT INVESTMENT RELATED    3. IT CONSULTING  CONSULT PEOPLE WITH COMPUTER PROBLEMS AND FIX/TROUBLESHOOT THE COMPUTERS. SOME WEB DESIGN. SOME VIRUS REMOVAL  START: 02/01/2009  ADDRESS: 60 FRANKLIN STREET, NORTHPORT NY 11768  3 NON BUS HRS PER MO  NOT INVESTMENT RELATED"
    }
  },
  "DRPs": []
}