{
  "Info": {
    "lastNm": "Imbriglia",
    "firstNm": "ALLISON",
    "midNm": "VICTORIA",
    "sufNm": null,
    "indvlPK": "6415980",
    "actvAGReg": 0,
    "link": "http://www.adviserinfo.sec.gov/IAPD/Individual/6415980"
  },
  "OthrNms": [
    {
      "lastNm": "COCHRANE",
      "firstNm": "ALLISON",
      "midNm": "V",
      "sufNm": null
    },
    {
      "lastNm": "COCHRANE",
      "firstNm": "ALLISON",
      "midNm": "VICTORIA",
      "sufNm": null
    }
  ],
  "CrntEmps": [
    {
      "CrntRgstns": [
        {
          "regAuth": 25,
          "regCat": 0,
          "st": 2,
          "stDt": "2016-05-02T00:00:00"
        }
      ],
      "BrnchOfLocs": [
        {
          "str1": "10801 MASTIN BOULEVARD",
          "str2": "SUITE 200",
          "city": "OVERLAND PARK",
          "state": 17,
          "stateSpecified": true,
          "cntry": "United States",
          "postlCd": "66210"
        },
        {
          "str1": "12312 OLIVE BOULEVARD",
          "str2": "SUITE 300",
          "city": "ST. LOUIS",
          "state": 25,
          "stateSpecified": true,
          "cntry": "United States",
          "postlCd": "63141"
        }
      ],
      "orgNm": "PRUCO SECURITIES, LLC.",
      "orgPK": "5685",
      "str1": "751 BROAD STREET",
      "str2": null,
      "city": "NEWARK",
      "state": 32,
      "stateSpecified": true,
      "cntry": "United States",
      "postlCd": "07102-3777"
    }
  ],
  "Exms": [
    {
      "exmCd": 0,
      "exmNm": "Uniform Securities Agent State Law Examination",
      "exmDt": "2014-12-04T00:00:00",
      "exmDtSpecified": true
    },
    {
      "exmCd": 2,
      "exmNm": "Uniform Investment Adviser Law Examination",
      "exmDt": "2016-04-13T00:00:00",
      "exmDtSpecified": true
    }
  ],
  "Dsgntns": [],
  "PrevRgstns": [],
  "EmpHss": [
    {
      "fromDt": "10/2001",
      "toDt": "06/2007",
      "orgNm": "FULL-TIME EDUCATION",
      "city": "VIENNA",
      "state": 47,
      "stateSpecified": true
    },
    {
      "fromDt": "06/2007",
      "toDt": "08/2007",
      "orgNm": "SPORT & HEALTH",
      "city": "MCLEAN",
      "state": 47,
      "stateSpecified": true
    },
    {
      "fromDt": "08/2007",
      "toDt": "05/2008",
      "orgNm": "FULL-TIME EDUCATION",
      "city": "CHARLOTTESVILLE",
      "state": 47,
      "stateSpecified": true
    },
    {
      "fromDt": "05/2008",
      "toDt": "08/2008",
      "orgNm": "UNITED STATES HOLOCAUST MEMORIAL MUSEUM",
      "city": "WASHINGTON",
      "state": 7,
      "stateSpecified": true
    },
    {
      "fromDt": "08/2008",
      "toDt": "05/2009",
      "orgNm": "FULL-TIME EDUCATION",
      "city": "CHARLOTTESVILLE",
      "state": 47,
      "stateSpecified": true
    },
    {
      "fromDt": "05/2009",
      "toDt": "08/2009",
      "orgNm": "UNITED STATES HOLOCAUST MEMORIAL MUSEUM",
      "city": "WASHINGTON",
      "state": 7,
      "stateSpecified": true
    },
    {
      "fromDt": "08/2009",
      "toDt": "09/2010",
      "orgNm": "FULL-TIME EDUCATION",
      "city": "CHARLOTTESVILLE",
      "state": 47,
      "stateSpecified": true
    },
    {
      "fromDt": "09/2010",
      "toDt": "10/2014",
      "orgNm": "SOCIAL SECURITY ADMINISTRATION",
      "city": "CHARLOTTESVILLE",
      "state": 47,
      "stateSpecified": true
    },
    {
      "fromDt": "10/2014",
      "toDt": null,
      "orgNm": "PRUCO SECURITIES LLC",
      "city": "ST LOUIS",
      "state": 25,
      "stateSpecified": true
    },
    {
      "fromDt": "10/2014",
      "toDt": null,
      "orgNm": "THE PRUDENTIAL INSURANCE COMPANY OF AMERICA",
      "city": "ST LOUIS",
      "state": 25,
      "stateSpecified": true
    }
  ],
  "OthrBuss": {
    "OthrBus": {
      "desc": "UVaClub of Saint Louis~UVa Alumni Association 211 Emmett Street S, Charlottesville, VA 22903~University Alumni Club Board of Directors; coordinating young alumni events~N~Young Alumni Rep~02/2016~4 hrs/mo~0 trading hrs/mo"
    }
  },
  "DRPs": []
}