{
  "Info": {
    "lastNm": "LAWRENCE",
    "firstNm": "DARREL",
    "midNm": null,
    "sufNm": null,
    "indvlPK": "6423707",
    "actvAGReg": 0,
    "link": "http://www.adviserinfo.sec.gov/IAPD/Individual/6423707"
  },
  "OthrNms": [],
  "CrntEmps": [
    {
      "CrntRgstns": [
        {
          "regAuth": 4,
          "regCat": 0,
          "st": 2,
          "stDt": "2015-05-12T00:00:00"
        }
      ],
      "BrnchOfLocs": [
        {
          "str1": "1255 LEE ST SE",
          "str2": null,
          "city": "SALEM",
          "state": 38,
          "stateSpecified": true,
          "cntry": "United States",
          "postlCd": "97302"
        }
      ],
      "orgNm": "MERRILL LYNCH, PIERCE, FENNER & SMITH INCORPORATED",
      "orgPK": "7691",
      "str1": "ONE BRYANT PARK",
      "str2": null,
      "city": "NEW YORK",
      "state": 35,
      "stateSpecified": true,
      "cntry": "United States",
      "postlCd": "10036"
    }
  ],
  "Exms": [
    {
      "exmCd": 3,
      "exmNm": "Uniform Combined State Law Examination",
      "exmDt": "2015-05-11T00:00:00",
      "exmDtSpecified": true
    }
  ],
  "Dsgntns": [],
  "PrevRgstns": [],
  "EmpHss": [
    {
      "fromDt": "01/2006",
      "toDt": "08/2007",
      "orgNm": "CHEMEKETA COMMUNITY COLLEGE",
      "city": "SALEM",
      "state": 38,
      "stateSpecified": true
    },
    {
      "fromDt": "09/2007",
      "toDt": "06/2009",
      "orgNm": "WESTERN OREGON UNIVERSITY",
      "city": "MONMOUTH",
      "state": 38,
      "stateSpecified": true
    },
    {
      "fromDt": "06/2009",
      "toDt": "10/2011",
      "orgNm": "STEALTH DEVELOPMENT INC",
      "city": "CANBY",
      "state": 38,
      "stateSpecified": true
    },
    {
      "fromDt": "11/2011",
      "toDt": "07/2012",
      "orgNm": "CONFEDERATED TRIBES OF GRAND RONDE",
      "city": "GRAND RONDE",
      "state": 38,
      "stateSpecified": true
    },
    {
      "fromDt": "08/2012",
      "toDt": "03/2013",
      "orgNm": "UNEMPLOYED",
      "city": "SALEM",
      "state": 38,
      "stateSpecified": true
    },
    {
      "fromDt": "04/2013",
      "toDt": "08/2013",
      "orgNm": "AEROTEK INC",
      "city": "BEAVERTON",
      "state": 38,
      "stateSpecified": true
    },
    {
      "fromDt": "08/2013",
      "toDt": "09/2014",
      "orgNm": "CATAMARAN CORPORATION",
      "city": "SALEM",
      "state": 38,
      "stateSpecified": true
    },
    {
      "fromDt": "09/2014",
      "toDt": "11/2014",
      "orgNm": "UNEMPLOYED",
      "city": "SALEM",
      "state": 38,
      "stateSpecified": true
    },
    {
      "fromDt": "11/2014",
      "toDt": null,
      "orgNm": "MERRILL LYNCH, PIERCE, FENNER & SMITH INCORPORATED",
      "city": "SALEM",
      "state": 38,
      "stateSpecified": true
    },
    {
      "fromDt": "06/2015",
      "toDt": null,
      "orgNm": "BANK OF AMERICA, N.A.",
      "city": "SALEM",
      "state": 38,
      "stateSpecified": true
    }
  ],
  "OthrBuss": {
    "OthrBus": null
  },
  "DRPs": []
}