{
  "Info": {
    "lastNm": "COBB",
    "firstNm": "REX",
    "midNm": null,
    "sufNm": null,
    "indvlPK": "6428099",
    "actvAGReg": 0,
    "link": "http://www.adviserinfo.sec.gov/IAPD/Individual/6428099"
  },
  "OthrNms": [],
  "CrntEmps": [
    {
      "CrntRgstns": [
        {
          "regAuth": 47,
          "regCat": 0,
          "st": 2,
          "stDt": "2015-12-15T00:00:00"
        }
      ],
      "BrnchOfLocs": [
        {
          "str1": "1 FIRSTCOMM PLAZA",
          "str2": null,
          "city": "FORT WORTH",
          "state": 45,
          "stateSpecified": true,
          "cntry": null,
          "postlCd": "76109"
        }
      ],
      "orgNm": "FIRST COMMAND ADVISORY SERVICES",
      "orgPK": "281958",
      "str1": "1 FIRSTCOMM PLAZA",
      "str2": null,
      "city": "FORT WORTH",
      "state": 45,
      "stateSpecified": true,
      "cntry": "United States",
      "postlCd": "76109"
    }
  ],
  "Exms": [
    {
      "exmCd": 3,
      "exmNm": "Uniform Combined State Law Examination",
      "exmDt": "2015-03-19T00:00:00",
      "exmDtSpecified": true
    }
  ],
  "Dsgntns": [],
  "PrevRgstns": [],
  "EmpHss": [
    {
      "fromDt": "02/1983",
      "toDt": "12/2007",
      "orgNm": "U.S. NAVY",
      "city": "WASHINGTON",
      "state": 7,
      "stateSpecified": true
    },
    {
      "fromDt": "01/2008",
      "toDt": "02/2008",
      "orgNm": "UNEMPLOYED",
      "city": "MANASSAS",
      "state": 47,
      "stateSpecified": true
    },
    {
      "fromDt": "03/2008",
      "toDt": "09/2011",
      "orgNm": "COMPUTER SCIENCES CORPORATION",
      "city": "FALLS CHURCH",
      "state": 47,
      "stateSpecified": true
    },
    {
      "fromDt": "10/2011",
      "toDt": "03/2013",
      "orgNm": "STRATFORD UNIVERSITY",
      "city": "WOODBRIDGE",
      "state": 47,
      "stateSpecified": true
    },
    {
      "fromDt": "04/2013",
      "toDt": "12/2013",
      "orgNm": "UNEMPLOYED",
      "city": "MANASSAS",
      "state": 47,
      "stateSpecified": true
    },
    {
      "fromDt": "01/2014",
      "toDt": "08/2015",
      "orgNm": "UNIVERSITY OF FLORIDA",
      "city": "MANASSAS",
      "state": 47,
      "stateSpecified": true
    },
    {
      "fromDt": "12/2014",
      "toDt": "07/2015",
      "orgNm": "First Command Financial Planning, Inc.",
      "city": "Fort Worth",
      "state": 45,
      "stateSpecified": true
    },
    {
      "fromDt": "08/2015",
      "toDt": null,
      "orgNm": "First Command Financial Planning, Inc.",
      "city": "Fort Worth",
      "state": 45,
      "stateSpecified": true
    },
    {
      "fromDt": "08/2015",
      "toDt": null,
      "orgNm": "First Command Insurance Services, Inc.",
      "city": "Fort Worth",
      "state": 45,
      "stateSpecified": true
    },
    {
      "fromDt": "12/2015",
      "toDt": null,
      "orgNm": "FIRST COMMAND ADVISORY SERVICES",
      "city": "FORT WORTH",
      "state": 45,
      "stateSpecified": true
    }
  ],
  "OthrBuss": {
    "OthrBus": null
  },
  "DRPs": []
}