{
  "Info": {
    "lastNm": "SCHMELZLE",
    "firstNm": "JUAN",
    "midNm": "YANG",
    "sufNm": null,
    "indvlPK": "6429320",
    "actvAGReg": 0,
    "link": "http://www.adviserinfo.sec.gov/IAPD/Individual/6429320"
  },
  "OthrNms": [],
  "CrntEmps": [
    {
      "CrntRgstns": [
        {
          "regAuth": 50,
          "regCat": 0,
          "st": 2,
          "stDt": "2016-02-25T00:00:00"
        }
      ],
      "BrnchOfLocs": [
        {
          "str1": "5910 MINERAL POINT RD",
          "str2": null,
          "city": "MADISON",
          "state": 50,
          "stateSpecified": true,
          "cntry": "United States",
          "postlCd": "53705"
        }
      ],
      "orgNm": "MEMBERS CAPITAL ADVISORS, INC.",
      "orgPK": "105960",
      "str1": "5910 MINERAL POINT RD",
      "str2": null,
      "city": "MADISON",
      "state": 50,
      "stateSpecified": true,
      "cntry": "United States",
      "postlCd": "53705"
    }
  ],
  "Exms": [
    {
      "exmCd": 3,
      "exmNm": "Uniform Combined State Law Examination",
      "exmDt": "2016-02-08T00:00:00",
      "exmDtSpecified": true
    }
  ],
  "Dsgntns": [],
  "PrevRgstns": [],
  "EmpHss": [
    {
      "fromDt": "08/2000",
      "toDt": "06/2014",
      "orgNm": "M&I TRUST",
      "city": "MILWAUKEE",
      "state": 50,
      "stateSpecified": true
    },
    {
      "fromDt": "06/2006",
      "toDt": "12/2012",
      "orgNm": "US BANCORP FUND SERVICES",
      "city": "MIWAUKEE",
      "state": 50,
      "stateSpecified": true
    },
    {
      "fromDt": "01/2013",
      "toDt": "02/2014",
      "orgNm": "NORTHWESTERN MUTUAL LIFE INSURANCE",
      "city": "MILWAUKEE",
      "state": 50,
      "stateSpecified": true
    },
    {
      "fromDt": "02/2014",
      "toDt": "12/2014",
      "orgNm": "WPS COMMUNITY BANK",
      "city": "MADISON",
      "state": 50,
      "stateSpecified": true
    },
    {
      "fromDt": "12/2014",
      "toDt": null,
      "orgNm": "CUNA  MUTUAL GROUP",
      "city": "WAVERLY",
      "state": 13,
      "stateSpecified": true
    },
    {
      "fromDt": "12/2014",
      "toDt": null,
      "orgNm": "CUNA BROKERAGE SERVICES, INC",
      "city": "WAVERLY",
      "state": 13,
      "stateSpecified": true
    }
  ],
  "OthrBuss": {
    "OthrBus": null
  },
  "DRPs": []
}