{
  "Info": {
    "lastNm": "PERRON",
    "firstNm": "BENJAMIN",
    "midNm": "MICHAEL",
    "sufNm": null,
    "indvlPK": "6431011",
    "actvAGReg": 1,
    "link": "http://www.adviserinfo.sec.gov/IAPD/Individual/6431011"
  },
  "OthrNms": [],
  "CrntEmps": [
    {
      "CrntRgstns": [
        {
          "regAuth": 21,
          "regCat": 0,
          "st": 2,
          "stDt": "2015-01-15T00:00:00"
        }
      ],
      "BrnchOfLocs": [
        {
          "str1": "4709 MONTGOMERY LN",
          "str2": "STE 201",
          "city": "BETHESDA",
          "state": 21,
          "stateSpecified": true,
          "cntry": "United States",
          "postlCd": "20814"
        },
        {
          "str1": "9000 KEYSTONE CROSSING",
          "str2": "SUITE 630",
          "city": "INDIANAPOLIS",
          "state": 16,
          "stateSpecified": true,
          "cntry": "United States",
          "postlCd": "46240"
        }
      ],
      "orgNm": "ARCHER INVESTMENT CORPORATION",
      "orgPK": "136403",
      "str1": "9000 KEYSTONE CROSSING",
      "str2": "SUITE 630",
      "city": "INDIANAPOLIS",
      "state": 16,
      "stateSpecified": true,
      "cntry": "United States",
      "postlCd": "46240"
    }
  ],
  "Exms": [
    {
      "exmCd": 2,
      "exmNm": "Uniform Investment Adviser Law Examination",
      "exmDt": "2015-01-15T00:00:00",
      "exmDtSpecified": true
    }
  ],
  "Dsgntns": [],
  "PrevRgstns": [],
  "EmpHss": [
    {
      "fromDt": "12/2004",
      "toDt": "07/2014",
      "orgNm": "ELON UNIVERSITY",
      "city": "ELON",
      "state": 28,
      "stateSpecified": true
    },
    {
      "fromDt": "07/2014",
      "toDt": "09/2014",
      "orgNm": "MACK DESIGN + BUILD",
      "city": "ASHBURN",
      "state": 47,
      "stateSpecified": true
    },
    {
      "fromDt": "09/2014",
      "toDt": null,
      "orgNm": "SULLIVAN & CO",
      "city": "BETHESDA",
      "state": 21,
      "stateSpecified": true
    },
    {
      "fromDt": "12/2014",
      "toDt": null,
      "orgNm": "ARCHER INVESTMENT CORPORATION",
      "city": "INDIANAPOLIS",
      "state": 16,
      "stateSpecified": true
    }
  ],
  "OthrBuss": {
    "OthrBus": null
  },
  "DRPs": []
}