{
  "Info": {
    "lastNm": "YABES",
    "firstNm": "KRISTINA",
    "midNm": null,
    "sufNm": null,
    "indvlPK": "6431528",
    "actvAGReg": 0,
    "link": "http://www.adviserinfo.sec.gov/IAPD/Individual/6431528"
  },
  "OthrNms": [],
  "CrntEmps": [
    {
      "CrntRgstns": [
        {
          "regAuth": 15,
          "regCat": 0,
          "st": 2,
          "stDt": "2015-06-17T00:00:00"
        },
        {
          "regAuth": 45,
          "regCat": 0,
          "st": 2,
          "stDt": "2015-07-28T00:00:00"
        }
      ],
      "BrnchOfLocs": [
        {
          "str1": "1033 SKOKIE BLVD",
          "str2": null,
          "city": "NORTHBROOK",
          "state": 15,
          "stateSpecified": true,
          "cntry": "United States",
          "postlCd": "60062"
        }
      ],
      "orgNm": "MERRILL LYNCH, PIERCE, FENNER & SMITH INCORPORATED",
      "orgPK": "7691",
      "str1": "ONE BRYANT PARK",
      "str2": null,
      "city": "NEW YORK",
      "state": 35,
      "stateSpecified": true,
      "cntry": "United States",
      "postlCd": "10036"
    }
  ],
  "Exms": [
    {
      "exmCd": 3,
      "exmNm": "Uniform Combined State Law Examination",
      "exmDt": "2015-06-16T00:00:00",
      "exmDtSpecified": true
    }
  ],
  "Dsgntns": [],
  "PrevRgstns": [],
  "EmpHss": [
    {
      "fromDt": "10/2004",
      "toDt": "08/2006",
      "orgNm": "ABERCROMBIE & FITCH",
      "city": "NORTHBROOK",
      "state": 15,
      "stateSpecified": true
    },
    {
      "fromDt": "08/2006",
      "toDt": "06/2007",
      "orgNm": "STERLING WORKS",
      "city": "SKOKIE",
      "state": 15,
      "stateSpecified": true
    },
    {
      "fromDt": "06/2007",
      "toDt": "06/2008",
      "orgNm": "BANK FINANCIAL",
      "city": "LINCOLNWOOD",
      "state": 15,
      "stateSpecified": true
    },
    {
      "fromDt": "06/2008",
      "toDt": "10/2009",
      "orgNm": "SCW FITNESS EDUCATION",
      "city": "NORTHBROOK",
      "state": 15,
      "stateSpecified": true
    },
    {
      "fromDt": "10/2009",
      "toDt": null,
      "orgNm": "MERRILL LYNCH, PIERCE, FENNER & SMITH INCORPORATED",
      "city": "NORTHBROOK",
      "state": 15,
      "stateSpecified": true
    }
  ],
  "OthrBuss": {
    "OthrBus": null
  },
  "DRPs": []
}