{
  "Info": {
    "lastNm": "STONE",
    "firstNm": "ANDREA",
    "midNm": "ANN",
    "sufNm": null,
    "indvlPK": "6437412",
    "actvAGReg": 1,
    "link": "http://www.adviserinfo.sec.gov/IAPD/Individual/6437412"
  },
  "OthrNms": [
    {
      "lastNm": "COLLINS",
      "firstNm": "ANDREA",
      "midNm": null,
      "sufNm": null
    },
    {
      "lastNm": "JOHNSON",
      "firstNm": "ANDREA",
      "midNm": null,
      "sufNm": null
    }
  ],
  "CrntEmps": [
    {
      "CrntRgstns": [
        {
          "regAuth": 30,
          "regCat": 0,
          "st": 2,
          "stDt": "2015-03-03T00:00:00"
        }
      ],
      "BrnchOfLocs": [
        {
          "str1": "14320 ARBOR ST",
          "str2": null,
          "city": "OMAHA",
          "state": 30,
          "stateSpecified": true,
          "cntry": "United States",
          "postlCd": "68144"
        },
        {
          "str1": "705 N. GRAND AVENUE",
          "str2": null,
          "city": "SPENCER",
          "state": 13,
          "stateSpecified": true,
          "cntry": "United States",
          "postlCd": "51301"
        }
      ],
      "orgNm": "NORTHWEST WEALTH MANAGEMENT, LLC",
      "orgPK": "152816",
      "str1": "705 N. GRAND AVENUE",
      "str2": null,
      "city": "SPENCER",
      "state": 13,
      "stateSpecified": true,
      "cntry": "United States",
      "postlCd": "51301"
    }
  ],
  "Exms": [
    {
      "exmCd": 2,
      "exmNm": "Uniform Investment Adviser Law Examination",
      "exmDt": "2015-03-02T00:00:00",
      "exmDtSpecified": true
    }
  ],
  "Dsgntns": [],
  "PrevRgstns": [],
  "EmpHss": [
    {
      "fromDt": "06/2004",
      "toDt": null,
      "orgNm": "NORTHWEST BANK",
      "city": "OMAHA",
      "state": 30,
      "stateSpecified": true
    },
    {
      "fromDt": "01/2015",
      "toDt": null,
      "orgNm": "NORTHWEST WEALTH MANAGEMENT LLC",
      "city": "OMAHA",
      "state": 30,
      "stateSpecified": true
    }
  ],
  "OthrBuss": {
    "OthrBus": null
  },
  "DRPs": []
}