{
  "Info": {
    "lastNm": "RIZZO",
    "firstNm": "ANTHONY",
    "midNm": "STEVEN",
    "sufNm": null,
    "indvlPK": "6438477",
    "actvAGReg": 1,
    "link": "http://www.adviserinfo.sec.gov/IAPD/Individual/6438477"
  },
  "OthrNms": [
    {
      "lastNm": "RIZZO",
      "firstNm": "TONY",
      "midNm": null,
      "sufNm": null
    }
  ],
  "CrntEmps": [
    {
      "CrntRgstns": [
        {
          "regAuth": 45,
          "regCat": 0,
          "st": 2,
          "stDt": "2016-05-05T00:00:00"
        }
      ],
      "BrnchOfLocs": [
        {
          "str1": null,
          "str2": null,
          "city": "LITTLE ELM",
          "state": 45,
          "stateSpecified": true,
          "cntry": "United States",
          "postlCd": null
        }
      ],
      "orgNm": "PROVISION ASSET, LLC",
      "orgPK": "282183",
      "str1": null,
      "str2": null,
      "city": "LITTLE ELM",
      "state": 45,
      "stateSpecified": true,
      "cntry": "United States",
      "postlCd": null
    }
  ],
  "Exms": [
    {
      "exmCd": 2,
      "exmNm": "Uniform Investment Adviser Law Examination",
      "exmDt": "2014-09-16T00:00:00",
      "exmDtSpecified": true
    }
  ],
  "Dsgntns": [],
  "PrevRgstns": [
    {
      "BrnchOfLocs": [
        {
          "city": "ARDEN HILLS",
          "state": 24,
          "stateSpecified": true
        },
        {
          "city": "FORT WORTH",
          "state": 45,
          "stateSpecified": true
        }
      ],
      "orgNm": "GRADIENT ADVISORS, LLC",
      "orgPK": "152665",
      "regBeginDt": "2015-01-30T00:00:00",
      "regBeginDtSpecified": true,
      "regEndDt": "2016-01-27T00:00:00",
      "regEndDtSpecified": true
    }
  ],
  "EmpHss": [
    {
      "fromDt": "09/2003",
      "toDt": "05/2011",
      "orgNm": "GOSPEL FOR ASIA",
      "city": "CARROLLTON",
      "state": 45,
      "stateSpecified": true
    },
    {
      "fromDt": "05/2011",
      "toDt": "10/2014",
      "orgNm": "SOUTH PUGET SOUND COLLEGE",
      "city": "OLYMPIA",
      "state": 49,
      "stateSpecified": true
    },
    {
      "fromDt": "10/2014",
      "toDt": null,
      "orgNm": "TEXAS HEALTH FORT WORTH",
      "city": "FORT WORTH",
      "state": 45,
      "stateSpecified": true
    },
    {
      "fromDt": "01/2015",
      "toDt": "01/2016",
      "orgNm": "Gradient Advisors, LLC",
      "city": "Fort Worth",
      "state": 45,
      "stateSpecified": true
    },
    {
      "fromDt": "04/2016",
      "toDt": null,
      "orgNm": "Provision Asset, LLC",
      "city": "Fort Worth",
      "state": 45,
      "stateSpecified": true
    }
  ],
  "OthrBuss": {
    "OthrBus": {
      "desc": "TEXAS HEALTH FORT WORTH; NON-INV-RELATED; ER NURSE; START 10/2014; Working on an as needed basis."
    }
  },
  "DRPs": []
}