{
  "Info": {
    "lastNm": "WOLGAMOTT",
    "firstNm": "ROKA",
    "midNm": "DEAN",
    "sufNm": null,
    "indvlPK": "6439383",
    "actvAGReg": 1,
    "link": "http://www.adviserinfo.sec.gov/IAPD/Individual/6439383"
  },
  "OthrNms": [
    {
      "lastNm": "WOLGAMOTT",
      "firstNm": "ROCKY",
      "midNm": "D.",
      "sufNm": null
    }
  ],
  "CrntEmps": [
    {
      "CrntRgstns": [
        {
          "regAuth": 45,
          "regCat": 0,
          "st": 2,
          "stDt": "2015-01-13T00:00:00"
        }
      ],
      "BrnchOfLocs": [
        {
          "str1": "262 CARROLL ST.",
          "str2": null,
          "city": "FORT WORTH",
          "state": 45,
          "stateSpecified": true,
          "cntry": "United States",
          "postlCd": "76107"
        }
      ],
      "orgNm": "PUREWATER CAPITAL, LLC",
      "orgPK": "166154",
      "str1": "262 CARROLL ST.",
      "str2": null,
      "city": "FORT WORTH",
      "state": 45,
      "stateSpecified": true,
      "cntry": "United States",
      "postlCd": "76107"
    }
  ],
  "Exms": [
    {
      "exmCd": 2,
      "exmNm": "Uniform Investment Adviser Law Examination",
      "exmDt": "2014-12-23T00:00:00",
      "exmDtSpecified": true
    }
  ],
  "Dsgntns": [],
  "PrevRgstns": [],
  "EmpHss": [
    {
      "fromDt": "07/1989",
      "toDt": null,
      "orgNm": "U.S. ARMY RESERVE",
      "city": "FORTH WORTH",
      "state": 45,
      "stateSpecified": true
    },
    {
      "fromDt": "07/2004",
      "toDt": null,
      "orgNm": "DEPARTMENT OF HOMELAND SECURITY",
      "city": "CONROE",
      "state": 45,
      "stateSpecified": true
    },
    {
      "fromDt": "01/2015",
      "toDt": null,
      "orgNm": "RAZOR ASSET MANAGEMENT, LLC",
      "city": "FORT WORTH",
      "state": 45,
      "stateSpecified": true
    }
  ],
  "OthrBuss": {
    "OthrBus": null
  },
  "DRPs": []
}