{
  "Info": {
    "lastNm": "KYSAR",
    "firstNm": "ROBERT",
    "midNm": "CLAY",
    "sufNm": null,
    "indvlPK": "6440793",
    "actvAGReg": 0,
    "link": "http://www.adviserinfo.sec.gov/IAPD/Individual/6440793"
  },
  "OthrNms": [
    {
      "lastNm": "KYSAR",
      "firstNm": "ROBERT",
      "midNm": null,
      "sufNm": null
    }
  ],
  "CrntEmps": [
    {
      "CrntRgstns": [
        {
          "regAuth": 33,
          "regCat": 0,
          "st": 2,
          "stDt": "2016-03-08T00:00:00"
        },
        {
          "regAuth": 5,
          "regCat": 0,
          "st": 2,
          "stDt": "2016-04-29T00:00:00"
        }
      ],
      "BrnchOfLocs": [
        {
          "str1": "300 W ARRINGTON ST",
          "str2": null,
          "city": "FARMINGTON",
          "state": 33,
          "stateSpecified": true,
          "cntry": "United States",
          "postlCd": "87401"
        }
      ],
      "orgNm": "CUE FINANCIAL GROUP, INC.",
      "orgPK": "21033",
      "str1": "3200 N. CENTRAL AVE",
      "str2": "SUITE #200",
      "city": "PHOENIX",
      "state": 3,
      "stateSpecified": true,
      "cntry": "United States",
      "postlCd": "85012"
    }
  ],
  "Exms": [
    {
      "exmCd": 0,
      "exmNm": "Uniform Securities Agent State Law Examination",
      "exmDt": "2015-02-27T00:00:00",
      "exmDtSpecified": true
    },
    {
      "exmCd": 2,
      "exmNm": "Uniform Investment Adviser Law Examination",
      "exmDt": "2015-05-07T00:00:00",
      "exmDtSpecified": true
    }
  ],
  "Dsgntns": [],
  "PrevRgstns": [
    {
      "BrnchOfLocs": [
        {
          "city": "DURANGO",
          "state": 5,
          "stateSpecified": true
        }
      ],
      "orgNm": "SECURITIES AMERICA ADVISORS, INC.",
      "orgPK": "110518",
      "regBeginDt": "2015-09-04T00:00:00",
      "regBeginDtSpecified": true,
      "regEndDt": "2016-03-10T00:00:00",
      "regEndDtSpecified": true
    }
  ],
  "EmpHss": [
    {
      "fromDt": "05/2004",
      "toDt": "05/2008",
      "orgNm": "FARMINGTON HIGH SCHOOL",
      "city": "FARMINGTON",
      "state": 33,
      "stateSpecified": true
    },
    {
      "fromDt": "05/2008",
      "toDt": "09/2008",
      "orgNm": "Unemployed",
      "city": "Farmington",
      "state": 33,
      "stateSpecified": true
    },
    {
      "fromDt": "09/2008",
      "toDt": "05/2012",
      "orgNm": "GRAND CANYON UNIVERSITY",
      "city": "PHOENIX",
      "state": 3,
      "stateSpecified": true
    },
    {
      "fromDt": "05/2012",
      "toDt": "07/2012",
      "orgNm": "CITY OF PEORIA",
      "city": "PEORIA",
      "state": 3,
      "stateSpecified": true
    },
    {
      "fromDt": "07/2012",
      "toDt": "05/2013",
      "orgNm": "LIBERTY MUTUAL INSURANCE",
      "city": "PHOENIX",
      "state": 3,
      "stateSpecified": true
    },
    {
      "fromDt": "05/2013",
      "toDt": null,
      "orgNm": "KYSAR INSURANCE AGENCY, INC",
      "city": "FARMINGTON",
      "state": 33,
      "stateSpecified": true
    },
    {
      "fromDt": "01/2015",
      "toDt": "02/2016",
      "orgNm": "SECURITIES AMERICA INC",
      "city": "DURANGO",
      "state": 5,
      "stateSpecified": true
    },
    {
      "fromDt": "09/2015",
      "toDt": "02/2016",
      "orgNm": "SECURITIES AMERICA ADVISORS",
      "city": "DURANGO",
      "state": 5,
      "stateSpecified": true
    },
    {
      "fromDt": "02/2016",
      "toDt": null,
      "orgNm": "Foothill Securities, Inc.",
      "city": "Albuquerque",
      "state": 33,
      "stateSpecified": true
    },
    {
      "fromDt": "03/2016",
      "toDt": null,
      "orgNm": "CUE FINANCIAL GROUP INC",
      "city": "PHOENIX",
      "state": 3,
      "stateSpecified": true
    }
  ],
  "OthrBuss": {
    "OthrBus": {
      "desc": "1)Kysar Insurance Agency, Inc.; Farmington, NM; insurance agency manager; non-investment related; manager of accounting and finance; start date 05/01/2013; 80 per month; 30 hours during trading hours; oversee and monitor accounting practices, create budgets and track sales.   2)CUE Financial Group; Phoenix, AZ; RIA; investment related; investment advisor; start date 03/01/2016; 100 hours per month; 100 hours during trading; provide investment advisory services."
    }
  },
  "DRPs": []
}