{
  "Info": {
    "lastNm": "ELLIS",
    "firstNm": "THOMAS",
    "midNm": "ROBERT",
    "sufNm": null,
    "indvlPK": "6441376",
    "actvAGReg": 0,
    "link": "http://www.adviserinfo.sec.gov/IAPD/Individual/6441376"
  },
  "OthrNms": [],
  "CrntEmps": [
    {
      "CrntRgstns": [
        {
          "regAuth": 4,
          "regCat": 0,
          "st": 2,
          "stDt": "2016-05-11T00:00:00"
        }
      ],
      "BrnchOfLocs": [
        {
          "str1": "6320 CANOGA AVENUE",
          "str2": "SUITE 240",
          "city": "WOODLAND HILLS",
          "state": 4,
          "stateSpecified": true,
          "cntry": "United States",
          "postlCd": "91367"
        }
      ],
      "orgNm": "TRANSAMERICA FINANCIAL ADVISORS, INC",
      "orgPK": "16164",
      "str1": "570 CARILLON PARKWAY",
      "str2": null,
      "city": "ST PETERSBURG",
      "state": 9,
      "stateSpecified": true,
      "cntry": "United States",
      "postlCd": "33716-1202"
    }
  ],
  "Exms": [
    {
      "exmCd": 0,
      "exmNm": "Uniform Securities Agent State Law Examination",
      "exmDt": "2015-12-04T00:00:00",
      "exmDtSpecified": true
    },
    {
      "exmCd": 2,
      "exmNm": "Uniform Investment Adviser Law Examination",
      "exmDt": "2016-05-11T00:00:00",
      "exmDtSpecified": true
    }
  ],
  "Dsgntns": [],
  "PrevRgstns": [],
  "EmpHss": [
    {
      "fromDt": "11/2004",
      "toDt": "04/2007",
      "orgNm": "STUDENT",
      "city": "SAINT FRANCIS",
      "state": 24,
      "stateSpecified": true
    },
    {
      "fromDt": "04/2007",
      "toDt": "06/2009",
      "orgNm": "SUBWAY",
      "city": "SAINT FRANCIS",
      "state": 24,
      "stateSpecified": true
    },
    {
      "fromDt": "06/2009",
      "toDt": "08/2013",
      "orgNm": "ERBERT AND GERBERTS SANDWHICH SHOP",
      "city": "MANKATO",
      "state": 24,
      "stateSpecified": true
    },
    {
      "fromDt": "09/2013",
      "toDt": "04/2014",
      "orgNm": "FUN.COM",
      "city": "NORTH MANKATO",
      "state": 24,
      "stateSpecified": true
    },
    {
      "fromDt": "05/2014",
      "toDt": "07/2014",
      "orgNm": "UNEMPLOYED",
      "city": "MANKATO",
      "state": 24,
      "stateSpecified": true
    },
    {
      "fromDt": "07/2014",
      "toDt": null,
      "orgNm": "WORLD FINANCIAL GROUP, INC.",
      "city": "WOODLAND HILLS",
      "state": 4,
      "stateSpecified": true
    },
    {
      "fromDt": "01/2015",
      "toDt": null,
      "orgNm": "TRANSAMERICA FINANCIAL ADVISORS, INC",
      "city": "WOODLAND HILLS",
      "state": 4,
      "stateSpecified": true
    },
    {
      "fromDt": "06/2016",
      "toDt": null,
      "orgNm": "UBER TECHNOLOGIES",
      "city": "SAN FRANCISCO",
      "state": 4,
      "stateSpecified": true
    }
  ],
  "OthrBuss": {
    "OthrBus": {
      "desc": "UBER TECHNOLODIES,INC-NO/1455 MARKET STREET, #400, SAN FRANCISCO, CA 94103/TAXI/RIDE SHARE/6.9.2016/25/1/DRIVING CUSTOMERS"
    }
  },
  "DRPs": []
}