{
  "Info": {
    "lastNm": "MCGARVEY",
    "firstNm": "CHRISTOPHER",
    "midNm": "JAMES",
    "sufNm": null,
    "indvlPK": "6444867",
    "actvAGReg": 1,
    "link": "http://www.adviserinfo.sec.gov/IAPD/Individual/6444867"
  },
  "OthrNms": [],
  "CrntEmps": [
    {
      "CrntRgstns": [
        {
          "regAuth": 9,
          "regCat": 0,
          "st": 2,
          "stDt": "2016-06-08T00:00:00"
        }
      ],
      "BrnchOfLocs": [
        {
          "str1": "212 E HIGHLAND DRIVE",
          "str2": "SUITE 201",
          "city": "LAKELAND",
          "state": 9,
          "stateSpecified": true,
          "cntry": "United States",
          "postlCd": "33813"
        }
      ],
      "orgNm": "WALL ADVISORS, INC.",
      "orgPK": "125272",
      "str1": "212 E HIGHLAND DRIVE",
      "str2": "SUITE 201",
      "city": "LAKELAND",
      "state": 9,
      "stateSpecified": true,
      "cntry": "United States",
      "postlCd": "33813"
    }
  ],
  "Exms": [
    {
      "exmCd": 3,
      "exmNm": "Uniform Combined State Law Examination",
      "exmDt": "2015-10-01T00:00:00",
      "exmDtSpecified": true
    }
  ],
  "Dsgntns": [],
  "PrevRgstns": [
    {
      "BrnchOfLocs": [
        {
          "city": "Tampa",
          "state": 9,
          "stateSpecified": true
        }
      ],
      "orgNm": "T. ROWE PRICE ADVISORY SERVICES, INC.",
      "orgPK": "108958",
      "regBeginDt": "2015-10-14T00:00:00",
      "regBeginDtSpecified": true,
      "regEndDt": "2016-04-12T00:00:00",
      "regEndDtSpecified": true
    }
  ],
  "EmpHss": [
    {
      "fromDt": "08/2001",
      "toDt": "05/2010",
      "orgNm": "WESTMINSTER ACADEMY",
      "city": "FORT LAUDERDALE",
      "state": 9,
      "stateSpecified": true
    },
    {
      "fromDt": "04/2008",
      "toDt": "08/2011",
      "orgNm": "JEFF ELLIS MANAGEMENT",
      "city": "TAMARAC",
      "state": 9,
      "stateSpecified": true
    },
    {
      "fromDt": "08/2011",
      "toDt": "01/2012",
      "orgNm": "SOUTHEASTERN UNIVERSITY",
      "city": "LAKELAND",
      "state": 9,
      "stateSpecified": true
    },
    {
      "fromDt": "01/2012",
      "toDt": "01/2015",
      "orgNm": "SOUTHEASTERN UNIVERSITY",
      "city": "LAKELAND",
      "state": 9,
      "stateSpecified": true
    },
    {
      "fromDt": "09/2013",
      "toDt": "01/2015",
      "orgNm": "SOUTHEASTERN UNIVERSITY",
      "city": "LAKELAND",
      "state": 9,
      "stateSpecified": true
    },
    {
      "fromDt": "01/2015",
      "toDt": "03/2016",
      "orgNm": "T. ROWE PRICE",
      "city": "TAMPA",
      "state": 9,
      "stateSpecified": true
    },
    {
      "fromDt": "03/2016",
      "toDt": null,
      "orgNm": "Wall Advisors, Inc.",
      "city": "Lakeland",
      "state": 9,
      "stateSpecified": true
    }
  ],
  "OthrBuss": {
    "OthrBus": null
  },
  "DRPs": []
}