{
  "Info": {
    "lastNm": "BOUSQUET",
    "firstNm": "RAYMOND",
    "midNm": "RENE",
    "sufNm": "III",
    "indvlPK": "6446726",
    "actvAGReg": 0,
    "link": "http://www.adviserinfo.sec.gov/IAPD/Individual/6446726"
  },
  "OthrNms": [
    {
      "lastNm": "BOUSQUET",
      "firstNm": "RAYMOND",
      "midNm": "RENE",
      "sufNm": null
    }
  ],
  "CrntEmps": [
    {
      "CrntRgstns": [
        {
          "regAuth": 6,
          "regCat": 0,
          "st": 2,
          "stDt": "2015-04-13T00:00:00"
        }
      ],
      "BrnchOfLocs": [
        {
          "str1": "699 BOYLSTON ST",
          "str2": null,
          "city": "BOSTON",
          "state": 20,
          "stateSpecified": true,
          "cntry": "United States",
          "postlCd": "02116"
        },
        {
          "str1": "855 BOYLSTON ST",
          "str2": null,
          "city": "BOSTON",
          "state": 20,
          "stateSpecified": true,
          "cntry": "United States",
          "postlCd": "02116"
        }
      ],
      "orgNm": "MERRILL LYNCH, PIERCE, FENNER & SMITH INCORPORATED",
      "orgPK": "7691",
      "str1": "ONE BRYANT PARK",
      "str2": null,
      "city": "NEW YORK",
      "state": 35,
      "stateSpecified": true,
      "cntry": "United States",
      "postlCd": "10036"
    }
  ],
  "Exms": [
    {
      "exmCd": 3,
      "exmNm": "Uniform Combined State Law Examination",
      "exmDt": "2015-04-11T00:00:00",
      "exmDtSpecified": true
    }
  ],
  "Dsgntns": [],
  "PrevRgstns": [],
  "EmpHss": [
    {
      "fromDt": "10/1991",
      "toDt": "02/2012",
      "orgNm": "TOWN OF LINCOLN",
      "city": "LINCOLN",
      "state": 41,
      "stateSpecified": true
    },
    {
      "fromDt": "02/2012",
      "toDt": null,
      "orgNm": "BANK OF AMERICA, N.A.",
      "city": "QUINCY",
      "state": 20,
      "stateSpecified": true
    },
    {
      "fromDt": "02/2012",
      "toDt": null,
      "orgNm": "MERRILL LYNCH, PIERCE, FENNER & SMITH INCORPORATED",
      "city": "QUINCY",
      "state": 20,
      "stateSpecified": true
    }
  ],
  "OthrBuss": {
    "OthrBus": null
  },
  "DRPs": []
}