{
  "Info": {
    "lastNm": "BERG",
    "firstNm": "COLBY",
    "midNm": "TODD",
    "sufNm": null,
    "indvlPK": "6449892",
    "actvAGReg": 0,
    "link": "http://www.adviserinfo.sec.gov/IAPD/Individual/6449892"
  },
  "OthrNms": [],
  "CrntEmps": [
    {
      "CrntRgstns": [
        {
          "regAuth": 45,
          "regCat": 0,
          "st": 2,
          "stDt": "2016-06-22T00:00:00"
        },
        {
          "regAuth": 46,
          "regCat": 0,
          "st": 2,
          "stDt": "2016-06-23T00:00:00"
        }
      ],
      "BrnchOfLocs": [
        {
          "str1": "49 NORTH 400 WEST",
          "str2": null,
          "city": "SALT LAKE CITY",
          "state": 46,
          "stateSpecified": true,
          "cntry": "United States",
          "postlCd": "84101"
        }
      ],
      "orgNm": "STRATEGIC ADVISERS, INC.",
      "orgPK": "104555",
      "str1": "245 SUMMER STREET, V10G",
      "str2": null,
      "city": "BOSTON",
      "state": 20,
      "stateSpecified": true,
      "cntry": "United States",
      "postlCd": "02210"
    }
  ],
  "Exms": [
    {
      "exmCd": 2,
      "exmNm": "Uniform Investment Adviser Law Examination",
      "exmDt": "2015-03-12T00:00:00",
      "exmDtSpecified": true
    },
    {
      "exmCd": 0,
      "exmNm": "Uniform Securities Agent State Law Examination",
      "exmDt": "2015-08-15T00:00:00",
      "exmDtSpecified": true
    }
  ],
  "Dsgntns": [],
  "PrevRgstns": [
    {
      "BrnchOfLocs": [
        {
          "city": "SALT LAKE CITY",
          "state": 46,
          "stateSpecified": true
        }
      ],
      "orgNm": "GUARDIAN WEALTH MANAGEMENT",
      "orgPK": "146923",
      "regBeginDt": "2015-03-13T00:00:00",
      "regBeginDtSpecified": true,
      "regEndDt": "2015-07-01T00:00:00",
      "regEndDtSpecified": true
    }
  ],
  "EmpHss": [
    {
      "fromDt": "07/2005",
      "toDt": "06/2008",
      "orgNm": "DAVIS HIGH SCHOOL",
      "city": "KAYSVILLE",
      "state": 46,
      "stateSpecified": true
    },
    {
      "fromDt": "05/2008",
      "toDt": "07/2008",
      "orgNm": "UNEMPLOYED",
      "city": "KAYSVILLE",
      "state": 46,
      "stateSpecified": true
    },
    {
      "fromDt": "08/2008",
      "toDt": "05/2009",
      "orgNm": "SALT LAKE COMMUNITY COLLEGE",
      "city": "SALT LAKE CITY",
      "state": 46,
      "stateSpecified": true
    },
    {
      "fromDt": "05/2009",
      "toDt": "07/2009",
      "orgNm": "UNEMPLOYED",
      "city": "KAYSVILLE",
      "state": 46,
      "stateSpecified": true
    },
    {
      "fromDt": "07/2009",
      "toDt": "07/2011",
      "orgNm": "THE CHURCH OF JESUS CHRIST OF LATTER-DAY SAINTS",
      "city": "SAN ANTONIO",
      "state": 45,
      "stateSpecified": true
    },
    {
      "fromDt": "07/2011",
      "toDt": "09/2012",
      "orgNm": "GUARDIAN WEALTH MANAGEMENT",
      "city": "SALT LAKE CITY",
      "state": 46,
      "stateSpecified": true
    },
    {
      "fromDt": "06/2012",
      "toDt": "08/2012",
      "orgNm": "NORTHWEST SALES",
      "city": "SALT LAKE CITY",
      "state": 46,
      "stateSpecified": true
    },
    {
      "fromDt": "08/2012",
      "toDt": "05/2013",
      "orgNm": "WELLS FARGO BANK",
      "city": "SALT LAKE CITY",
      "state": 46,
      "stateSpecified": true
    },
    {
      "fromDt": "05/2013",
      "toDt": "09/2013",
      "orgNm": "ALTERA",
      "city": "MIDVALE",
      "state": 46,
      "stateSpecified": true
    },
    {
      "fromDt": "09/2013",
      "toDt": "06/2015",
      "orgNm": "GUARDIAN WEALTH MANAGEMENT",
      "city": "SALT LAKE CITY",
      "state": 46,
      "stateSpecified": true
    },
    {
      "fromDt": "06/2015",
      "toDt": null,
      "orgNm": "FIDELITY BROKERAGE SERVICES LLC",
      "city": "SALT LAKE CITY",
      "state": 46,
      "stateSpecified": true
    }
  ],
  "OthrBuss": {
    "OthrBus": null
  },
  "DRPs": []
}