{
  "Info": {
    "lastNm": "HATHAWAY",
    "firstNm": "JOHN",
    "midNm": "ANDREW",
    "sufNm": null,
    "indvlPK": "6459060",
    "actvAGReg": 1,
    "link": "http://www.adviserinfo.sec.gov/IAPD/Individual/6459060"
  },
  "OthrNms": [
    {
      "lastNm": "HATHAWAY",
      "firstNm": "ANDREW",
      "midNm": null,
      "sufNm": null
    }
  ],
  "CrntEmps": [
    {
      "CrntRgstns": [
        {
          "regAuth": 28,
          "regCat": 0,
          "st": 2,
          "stDt": "2015-03-06T00:00:00"
        }
      ],
      "BrnchOfLocs": [
        {
          "str1": "19520 WEST CATAWBA AVENUE",
          "str2": "SUITE 312B",
          "city": "CORNELIUS",
          "state": 28,
          "stateSpecified": true,
          "cntry": "United States",
          "postlCd": "28031"
        }
      ],
      "orgNm": "ALPHASTAR CAPITAL MANAGEMENT, LLC",
      "orgPK": "157423",
      "str1": "19520 WEST CATAWBA AVENUE",
      "str2": "SUITE 312B",
      "city": "CORNELIUS",
      "state": 28,
      "stateSpecified": true,
      "cntry": "United States",
      "postlCd": "28031"
    }
  ],
  "Exms": [
    {
      "exmCd": 2,
      "exmNm": "Uniform Investment Adviser Law Examination",
      "exmDt": "2015-02-14T00:00:00",
      "exmDtSpecified": true
    }
  ],
  "Dsgntns": [],
  "PrevRgstns": [],
  "EmpHss": [
    {
      "fromDt": "08/2004",
      "toDt": "05/2008",
      "orgNm": "DAVIDSON COLLEGE",
      "city": "DAVIDSON",
      "state": 28,
      "stateSpecified": true
    },
    {
      "fromDt": "07/2008",
      "toDt": "09/2009",
      "orgNm": "MULTIPLYING TEAMS INTERNATIONAL",
      "city": "SAN JUAN",
      "state": 28,
      "stateSpecified": true
    },
    {
      "fromDt": "10/2009",
      "toDt": "09/2012",
      "orgNm": "CAMPUS OUTREACH",
      "city": "CHARLOTTE",
      "state": 28,
      "stateSpecified": true
    },
    {
      "fromDt": "10/2012",
      "toDt": "10/2013",
      "orgNm": "RED VENTURES",
      "city": "FORT MILL",
      "state": 42,
      "stateSpecified": true
    },
    {
      "fromDt": "11/2013",
      "toDt": "04/2014",
      "orgNm": "60 DAY MBA",
      "city": "CHARLOTTE",
      "state": 28,
      "stateSpecified": true
    },
    {
      "fromDt": "05/2014",
      "toDt": null,
      "orgNm": "FINANCIAL INDEPENDENCE GROUP",
      "city": "CORNELIUS",
      "state": 28,
      "stateSpecified": true
    },
    {
      "fromDt": "03/2015",
      "toDt": null,
      "orgNm": "ALPHASTAR CAPITAL MANAGEMENT, LLC",
      "city": "CORNELIUS",
      "state": 28,
      "stateSpecified": true
    }
  ],
  "OthrBuss": {
    "OthrBus": null
  },
  "DRPs": []
}