{
  "Info": {
    "lastNm": "GROVE",
    "firstNm": "LAUREN",
    "midNm": null,
    "sufNm": null,
    "indvlPK": "6459248",
    "actvAGReg": 1,
    "link": "http://www.adviserinfo.sec.gov/IAPD/Individual/6459248"
  },
  "OthrNms": [],
  "CrntEmps": [
    {
      "CrntRgstns": [
        {
          "regAuth": 4,
          "regCat": 0,
          "st": 2,
          "stDt": "2015-04-01T00:00:00"
        },
        {
          "regAuth": 5,
          "regCat": 0,
          "st": 2,
          "stDt": "2015-04-01T00:00:00"
        },
        {
          "regAuth": 47,
          "regCat": 0,
          "st": 2,
          "stDt": "2015-04-01T00:00:00"
        }
      ],
      "BrnchOfLocs": [
        {
          "str1": "301 MAPLE AVENUE WEST",
          "str2": "SUITE 600",
          "city": "VIENNA",
          "state": 47,
          "stateSpecified": true,
          "cntry": "United States",
          "postlCd": "22180"
        }
      ],
      "orgNm": "YESKE BUIE INC.",
      "orgPK": "143234",
      "str1": "301 MAPLE AVENUE WEST",
      "str2": "SUITE 600",
      "city": "VIENNA",
      "state": 47,
      "stateSpecified": true,
      "cntry": "United States",
      "postlCd": "22180"
    }
  ],
  "Exms": [],
  "Dsgntns": [
    {
      "dsgntnNm": "Certified Financial Planner"
    }
  ],
  "PrevRgstns": [],
  "EmpHss": [
    {
      "fromDt": "01/2005",
      "toDt": "01/2012",
      "orgNm": "STUDENT",
      "city": "FAIRFAX",
      "state": 47,
      "stateSpecified": true
    },
    {
      "fromDt": "06/2008",
      "toDt": "07/2008",
      "orgNm": "YESKE BUIE INC.",
      "city": "VIENNA",
      "state": 47,
      "stateSpecified": true
    },
    {
      "fromDt": "05/2009",
      "toDt": "02/2013",
      "orgNm": "QIVLIQ LLC",
      "city": "HERNDON",
      "state": 47,
      "stateSpecified": true
    },
    {
      "fromDt": "05/2011",
      "toDt": "08/2011",
      "orgNm": "QIVLIQ LLC",
      "city": "HERNDON",
      "state": 47,
      "stateSpecified": true
    },
    {
      "fromDt": "05/2012",
      "toDt": null,
      "orgNm": "ABACUS PLANNING GROUP",
      "city": "COLUMBIA",
      "state": 42,
      "stateSpecified": true
    },
    {
      "fromDt": "03/2013",
      "toDt": "07/2013",
      "orgNm": "YESKE BUIE INC.",
      "city": "VIENNA",
      "state": 47,
      "stateSpecified": true
    },
    {
      "fromDt": "07/2013",
      "toDt": null,
      "orgNm": "YESKE BUIE INC.",
      "city": "VIENNA",
      "state": 47,
      "stateSpecified": true
    }
  ],
  "OthrBuss": {
    "OthrBus": null
  },
  "DRPs": []
}