{
  "Info": {
    "lastNm": "SENSKE",
    "firstNm": "BRIAN",
    "midNm": "GREGORY",
    "sufNm": null,
    "indvlPK": "6461776",
    "actvAGReg": 1,
    "link": "http://www.adviserinfo.sec.gov/IAPD/Individual/6461776"
  },
  "OthrNms": [],
  "CrntEmps": [
    {
      "CrntRgstns": [
        {
          "regAuth": 24,
          "regCat": 0,
          "st": 2,
          "stDt": "2015-03-18T00:00:00"
        }
      ],
      "BrnchOfLocs": [
        {
          "str1": "3800 AMERICAN BLVD. WEST",
          "str2": "#620",
          "city": "MINNEAPOLIS",
          "state": 24,
          "stateSpecified": true,
          "cntry": "United States",
          "postlCd": "55431"
        }
      ],
      "orgNm": "ALL STAR FINANCIAL INC",
      "orgPK": "110718",
      "str1": "3800 AMERICAN BLVD. WEST",
      "str2": "#620",
      "city": "MINNEAPOLIS",
      "state": 24,
      "stateSpecified": true,
      "cntry": "United States",
      "postlCd": "55431"
    }
  ],
  "Exms": [
    {
      "exmCd": 2,
      "exmNm": "Uniform Investment Adviser Law Examination",
      "exmDt": "2015-03-09T00:00:00",
      "exmDtSpecified": true
    }
  ],
  "Dsgntns": [],
  "PrevRgstns": [],
  "EmpHss": [
    {
      "fromDt": "05/2004",
      "toDt": "11/2007",
      "orgNm": "ERNST & YOUNG",
      "city": "MINNEAPOLIS",
      "state": 24,
      "stateSpecified": true
    },
    {
      "fromDt": "11/2007",
      "toDt": "08/2008",
      "orgNm": "CARVAL INVESTORS",
      "city": "MINNETONKA",
      "state": 24,
      "stateSpecified": true
    },
    {
      "fromDt": "08/2008",
      "toDt": "12/2011",
      "orgNm": "ST. OLAF COLLEGE",
      "city": "NORTHFIELD",
      "state": 24,
      "stateSpecified": true
    },
    {
      "fromDt": "01/2012",
      "toDt": "01/2015",
      "orgNm": "TRYSTAR, INC.",
      "city": "FARIBAULT",
      "state": 24,
      "stateSpecified": true
    },
    {
      "fromDt": "01/2015",
      "toDt": null,
      "orgNm": "ALL STAR FINANCIAL INC",
      "city": "BLOOMINGTON",
      "state": 24,
      "stateSpecified": true
    },
    {
      "fromDt": "03/2015",
      "toDt": null,
      "orgNm": "ALL STAR FINANCIAL INC",
      "city": "BLOOMINGTON",
      "state": 24,
      "stateSpecified": true
    }
  ],
  "OthrBuss": {
    "OthrBus": null
  },
  "DRPs": []
}