{
  "Info": {
    "lastNm": "ROSEN",
    "firstNm": "ERNEST",
    "midNm": "WILLIAM",
    "sufNm": null,
    "indvlPK": "6477487",
    "actvAGReg": 0,
    "link": "http://www.adviserinfo.sec.gov/IAPD/Individual/6477487"
  },
  "OthrNms": [
    {
      "lastNm": "ROSEN",
      "firstNm": "ERNEST",
      "midNm": null,
      "sufNm": null
    },
    {
      "lastNm": "ROSEN",
      "firstNm": "WILL",
      "midNm": null,
      "sufNm": null
    }
  ],
  "CrntEmps": [
    {
      "CrntRgstns": [
        {
          "regAuth": 42,
          "regCat": 0,
          "st": 2,
          "stDt": "2015-10-13T00:00:00"
        }
      ],
      "BrnchOfLocs": [
        {
          "str1": "200 Park Avenue 32nd Floor",
          "str2": "Suite 3200 B",
          "city": "New York",
          "state": 35,
          "stateSpecified": true,
          "cntry": "United States",
          "postlCd": "10166"
        },
        {
          "str1": "277 PARK AVENUE, 41ST FLOOR",
          "str2": null,
          "city": "NEW YORK CITY",
          "state": 35,
          "stateSpecified": true,
          "cntry": "United States",
          "postlCd": "10172"
        }
      ],
      "orgNm": "MSI FINANCIAL SERVICES, INC.",
      "orgPK": "14251",
      "str1": "1095 AVENUE OF THE AMERICAS",
      "str2": null,
      "city": "NEW YORK",
      "state": 35,
      "stateSpecified": true,
      "cntry": "United States",
      "postlCd": "10036"
    }
  ],
  "Exms": [
    {
      "exmCd": 3,
      "exmNm": "Uniform Combined State Law Examination",
      "exmDt": "2015-08-27T00:00:00",
      "exmDtSpecified": true
    }
  ],
  "Dsgntns": [],
  "PrevRgstns": [],
  "EmpHss": [
    {
      "fromDt": "09/2004",
      "toDt": "06/2007",
      "orgNm": "CARDIGAN MOUNTAIN",
      "city": "CANAAN",
      "state": 31,
      "stateSpecified": true
    },
    {
      "fromDt": "06/2007",
      "toDt": "09/2007",
      "orgNm": "UNAFILLIATED",
      "city": "CHARLESTON",
      "state": 42,
      "stateSpecified": true
    },
    {
      "fromDt": "09/2007",
      "toDt": "06/2010",
      "orgNm": "ST. GEORGE'S SCHOOL",
      "city": "NEWPORT",
      "state": 41,
      "stateSpecified": true
    },
    {
      "fromDt": "06/2010",
      "toDt": "09/2010",
      "orgNm": "UNAFILILATED",
      "city": "CHARLESTON",
      "state": 42,
      "stateSpecified": true
    },
    {
      "fromDt": "09/2010",
      "toDt": "06/2011",
      "orgNm": "THE GUNNERY",
      "city": "WASHINGTON",
      "state": 6,
      "stateSpecified": true
    },
    {
      "fromDt": "06/2011",
      "toDt": "08/2011",
      "orgNm": "SAMBAR",
      "city": "NEWPORT",
      "state": 41,
      "stateSpecified": true
    },
    {
      "fromDt": "08/2011",
      "toDt": "05/2015",
      "orgNm": "TRINITY COLLEGE",
      "city": "HARTFORD",
      "state": 6,
      "stateSpecified": true
    },
    {
      "fromDt": "06/2012",
      "toDt": null,
      "orgNm": "WILLKIE, FARR, & GALLAGHER",
      "city": "NEW YORK",
      "state": 35,
      "stateSpecified": true
    },
    {
      "fromDt": "08/2013",
      "toDt": "01/2014",
      "orgNm": "NEXT STEP REALTY",
      "city": "HARTFORD",
      "state": 6,
      "stateSpecified": true
    },
    {
      "fromDt": "06/2014",
      "toDt": "07/2014",
      "orgNm": "OFFICE OF JOHN LEWIS",
      "city": "WASHINGTON DC",
      "state": 7,
      "stateSpecified": true
    },
    {
      "fromDt": "07/2014",
      "toDt": "08/2014",
      "orgNm": "OFFICE OF SENATOR SCOTT",
      "city": "WASHINGTON DC",
      "state": 7,
      "stateSpecified": true
    },
    {
      "fromDt": "07/2015",
      "toDt": null,
      "orgNm": "METLIFE SECURITIES INC",
      "city": "NEW YORK CITY",
      "state": 35,
      "stateSpecified": true
    }
  ],
  "OthrBuss": {
    "OthrBus": null
  },
  "DRPs": []
}