{
  "Info": {
    "lastNm": "HERRERA",
    "firstNm": "DANIEL",
    "midNm": null,
    "sufNm": null,
    "indvlPK": "6487539",
    "actvAGReg": 1,
    "link": "http://www.adviserinfo.sec.gov/IAPD/Individual/6487539"
  },
  "OthrNms": [],
  "CrntEmps": [
    {
      "CrntRgstns": [
        {
          "regAuth": 9,
          "regCat": 0,
          "st": 2,
          "stDt": "2015-08-03T00:00:00"
        }
      ],
      "BrnchOfLocs": [
        {
          "str1": "1600 PONCE DE LEON BLVD",
          "str2": "SUITE 1001",
          "city": "CORAL GABLES",
          "state": 9,
          "stateSpecified": true,
          "cntry": "United States",
          "postlCd": "33134"
        }
      ],
      "orgNm": "SAN JUAN INVESTMENTS LLC",
      "orgPK": "205514",
      "str1": "1600 PONCE DE LEON BLVD",
      "str2": "SUITE 1001",
      "city": "CORAL GABLES",
      "state": 9,
      "stateSpecified": true,
      "cntry": "United States",
      "postlCd": "33134"
    }
  ],
  "Exms": [
    {
      "exmCd": 2,
      "exmNm": "Uniform Investment Adviser Law Examination",
      "exmDt": "2014-10-28T00:00:00",
      "exmDtSpecified": true
    }
  ],
  "Dsgntns": [],
  "PrevRgstns": [],
  "EmpHss": [
    {
      "fromDt": "08/2005",
      "toDt": "08/2006",
      "orgNm": "UNEMPLOYED - TRAVEL",
      "city": "CARACAS",
      "stateSpecified": false
    },
    {
      "fromDt": "08/2006",
      "toDt": "02/2008",
      "orgNm": "UNIVERSIDAD METROPOLITANNA",
      "city": "CARACAS",
      "stateSpecified": false
    },
    {
      "fromDt": "02/2008",
      "toDt": "02/2009",
      "orgNm": "CONSULTORES JURIDICOS",
      "city": "CARACAS",
      "stateSpecified": false
    },
    {
      "fromDt": "02/2009",
      "toDt": "10/2010",
      "orgNm": "UNIVERSIDAD METROPOLANNA",
      "city": "CARACAS",
      "stateSpecified": false
    },
    {
      "fromDt": "10/2010",
      "toDt": "01/2012",
      "orgNm": "IE BUSINESS SCHOOL",
      "city": "MADRID",
      "stateSpecified": false
    },
    {
      "fromDt": "01/2012",
      "toDt": "08/2014",
      "orgNm": "EZKANDA GROUP LLC",
      "city": "MIAMI",
      "state": 9,
      "stateSpecified": true
    },
    {
      "fromDt": "08/2014",
      "toDt": null,
      "orgNm": "HG LATAM CONSULTING LLC",
      "city": "MIAMI",
      "state": 9,
      "stateSpecified": true
    },
    {
      "fromDt": "03/2015",
      "toDt": null,
      "orgNm": "SAN JUAN INVESTMENTS LLC",
      "city": "CORAL GABLES",
      "state": 9,
      "stateSpecified": true
    }
  ],
  "OthrBuss": {
    "OthrBus": {
      "desc": "HG LATAM CONSULTING. MANAGER. NOT INVESTMENT RELATED, SINCE 2014. 10-12 HOURS A WEEK.  GOYANA INVESTMENTS LLC, MEMBER, NOT INVESTMENT RELATED, 0 HOURS A WEEK."
    }
  },
  "DRPs": []
}