{
  "Info": {
    "lastNm": "CHO",
    "firstNm": "EUN",
    "midNm": "HYEONG",
    "sufNm": null,
    "indvlPK": "6488745",
    "actvAGReg": 0,
    "link": "http://www.adviserinfo.sec.gov/IAPD/Individual/6488745"
  },
  "OthrNms": [
    {
      "lastNm": "CHO",
      "firstNm": "EUN",
      "midNm": null,
      "sufNm": null
    },
    {
      "lastNm": "CHO",
      "firstNm": "EUN-HYEONG",
      "midNm": null,
      "sufNm": null
    },
    {
      "lastNm": "CHO",
      "firstNm": "MICHELLE",
      "midNm": null,
      "sufNm": null
    }
  ],
  "CrntEmps": [
    {
      "CrntRgstns": [
        {
          "regAuth": 34,
          "regCat": 0,
          "st": 2,
          "stDt": "2016-02-02T00:00:00"
        }
      ],
      "BrnchOfLocs": [
        {
          "str1": "1140 NORTH TOWN CENTER DRIVE",
          "str2": "SUITE 350",
          "city": "LAS VEGAS",
          "state": 34,
          "stateSpecified": true,
          "cntry": "United States",
          "postlCd": "89144"
        }
      ],
      "orgNm": "MML INVESTORS SERVICES, LLC",
      "orgPK": "10409",
      "str1": "1295 STATE STREET",
      "str2": null,
      "city": "SPRINGFIELD",
      "state": 20,
      "stateSpecified": true,
      "cntry": "United States",
      "postlCd": "01111-0001"
    }
  ],
  "Exms": [
    {
      "exmCd": 3,
      "exmNm": "Uniform Combined State Law Examination",
      "exmDt": "2015-09-22T00:00:00",
      "exmDtSpecified": true
    }
  ],
  "Dsgntns": [],
  "PrevRgstns": [],
  "EmpHss": [
    {
      "fromDt": "08/2004",
      "toDt": "09/2007",
      "orgNm": "SKYVIEW ADVISORS",
      "city": "FORT LEE",
      "state": 32,
      "stateSpecified": true
    },
    {
      "fromDt": "11/2007",
      "toDt": "05/2012",
      "orgNm": "RADIO SEOU/ HANIN NEWS",
      "city": "SAN DIEGO",
      "state": 4,
      "stateSpecified": true
    },
    {
      "fromDt": "06/2012",
      "toDt": "10/2014",
      "orgNm": "WEALTHBUILDER",
      "city": "LAS VEGAS",
      "state": 34,
      "stateSpecified": true
    },
    {
      "fromDt": "11/2014",
      "toDt": "01/2015",
      "orgNm": "ECHO FINANCIAL & INSURANCE",
      "city": "LAS VEGAS",
      "state": 34,
      "stateSpecified": true
    },
    {
      "fromDt": "02/2015",
      "toDt": null,
      "orgNm": "MASSMUTUAL LIFE INSURANCE COMPANY",
      "city": "LAS VEGAS",
      "state": 34,
      "stateSpecified": true
    },
    {
      "fromDt": "06/2015",
      "toDt": null,
      "orgNm": "MML INVESTORS SERVICES LLC",
      "city": "LAS VEGAS",
      "state": 34,
      "stateSpecified": true
    }
  ],
  "OthrBuss": {
    "OthrBus": null
  },
  "DRPs": []
}