{
  "Info": {
    "lastNm": "RIEDER",
    "firstNm": "RACHEL",
    "midNm": "ELIZABETH",
    "sufNm": null,
    "indvlPK": "6493008",
    "actvAGReg": 0,
    "link": "http://www.adviserinfo.sec.gov/IAPD/Individual/6493008"
  },
  "OthrNms": [],
  "CrntEmps": [
    {
      "CrntRgstns": [
        {
          "regAuth": 39,
          "regCat": 0,
          "st": 2,
          "stDt": "2015-09-17T00:00:00"
        }
      ],
      "BrnchOfLocs": [
        {
          "str1": "ONE TOWER BRIDGE, 100 FRONT STREET, 6TH FLOOR",
          "str2": "PWM",
          "city": "WEST CONSHOHOCKEN",
          "state": 39,
          "stateSpecified": true,
          "cntry": "United States",
          "postlCd": "19428"
        }
      ],
      "orgNm": "MORGAN STANLEY",
      "orgPK": "149777",
      "str1": "2000 WESTCHESTER AVENUE",
      "str2": null,
      "city": "PURCHASE",
      "state": 35,
      "stateSpecified": true,
      "cntry": "United States",
      "postlCd": "10577-2530"
    }
  ],
  "Exms": [
    {
      "exmCd": 3,
      "exmNm": "Uniform Combined State Law Examination",
      "exmDt": "2015-09-17T00:00:00",
      "exmDtSpecified": true
    }
  ],
  "Dsgntns": [],
  "PrevRgstns": [],
  "EmpHss": [
    {
      "fromDt": "09/2004",
      "toDt": "09/2008",
      "orgNm": "STETSON MIDDLE SCHOOL",
      "city": "WEST CHESTER",
      "state": 39,
      "stateSpecified": true
    },
    {
      "fromDt": "09/2008",
      "toDt": "06/2011",
      "orgNm": "BAYARD RUSTIN HIGH SCHOOL",
      "city": "WEST CHESTER",
      "state": 39,
      "stateSpecified": true
    },
    {
      "fromDt": "05/2010",
      "toDt": "05/2012",
      "orgNm": "MARBLE SLAB CREAMERY",
      "city": "GLEN MILLS",
      "state": 39,
      "stateSpecified": true
    },
    {
      "fromDt": "08/2011",
      "toDt": "05/2015",
      "orgNm": "PENN STATE",
      "city": "UNIVERSITY PARK",
      "state": 39,
      "stateSpecified": true
    },
    {
      "fromDt": "01/2013",
      "toDt": "05/2015",
      "orgNm": "LION TUTORS",
      "city": "STATE COLLEGE",
      "state": 39,
      "stateSpecified": true
    },
    {
      "fromDt": "05/2014",
      "toDt": "05/2015",
      "orgNm": "MKTG",
      "city": "STATE COLLEGE",
      "state": 39,
      "stateSpecified": true
    },
    {
      "fromDt": "06/2014",
      "toDt": "08/2014",
      "orgNm": "Convergent Wealth Advisors",
      "city": "Potomac",
      "state": 21,
      "stateSpecified": true
    },
    {
      "fromDt": "06/2015",
      "toDt": null,
      "orgNm": "MORGAN STANLEY",
      "city": "WEST CONSHOHOCKEN",
      "state": 39,
      "stateSpecified": true
    }
  ],
  "OthrBuss": {
    "OthrBus": null
  },
  "DRPs": []
}