{
  "Info": {
    "lastNm": "Gay",
    "firstNm": "Harold",
    "midNm": "Tyler",
    "sufNm": null,
    "indvlPK": "6496411",
    "actvAGReg": 0,
    "link": "http://www.adviserinfo.sec.gov/IAPD/Individual/6496411"
  },
  "OthrNms": [
    {
      "lastNm": "GAY",
      "firstNm": "TY",
      "midNm": null,
      "sufNm": null
    }
  ],
  "CrntEmps": [
    {
      "CrntRgstns": [
        {
          "regAuth": 10,
          "regCat": 0,
          "st": 2,
          "stDt": "2015-09-10T00:00:00"
        }
      ],
      "BrnchOfLocs": [
        {
          "str1": "117 N HAMILTON STREET",
          "str2": null,
          "city": "DALTON",
          "state": 10,
          "stateSpecified": true,
          "cntry": "United States",
          "postlCd": "30720"
        }
      ],
      "orgNm": "EDWARD JONES",
      "orgPK": "250",
      "str1": "12555 MANCHESTER RD",
      "str2": null,
      "city": "ST. LOUIS",
      "state": 25,
      "stateSpecified": true,
      "cntry": "United States",
      "postlCd": "63131"
    }
  ],
  "Exms": [
    {
      "exmCd": 3,
      "exmNm": "Uniform Combined State Law Examination",
      "exmDt": "2015-09-04T00:00:00",
      "exmDtSpecified": true
    }
  ],
  "Dsgntns": [],
  "PrevRgstns": [],
  "EmpHss": [
    {
      "fromDt": "09/2004",
      "toDt": "03/2012",
      "orgNm": "PYE AUTOMOBILES",
      "city": "DALTON",
      "state": 10,
      "stateSpecified": true
    },
    {
      "fromDt": "03/2012",
      "toDt": "07/2015",
      "orgNm": "ASPEN MEDICAL PRODUCTS",
      "city": "DALTON",
      "state": 10,
      "stateSpecified": true
    },
    {
      "fromDt": "07/2015",
      "toDt": null,
      "orgNm": "EDWARD JONES",
      "city": "ST LOUIS",
      "state": 25,
      "stateSpecified": true
    }
  ],
  "OthrBuss": {
    "OthrBus": null
  },
  "DRPs": []
}