{
  "Info": {
    "lastNm": "PENDLETON",
    "firstNm": "STEPHEN",
    "midNm": "PORTER",
    "sufNm": null,
    "indvlPK": "6503568",
    "actvAGReg": 0,
    "link": "http://www.adviserinfo.sec.gov/IAPD/Individual/6503568"
  },
  "OthrNms": [
    {
      "lastNm": "PENDLETON",
      "firstNm": "STEPHEN",
      "midNm": null,
      "sufNm": null
    }
  ],
  "CrntEmps": [
    {
      "CrntRgstns": [
        {
          "regAuth": 15,
          "regCat": 0,
          "st": 2,
          "stDt": "2015-12-02T00:00:00"
        }
      ],
      "BrnchOfLocs": [
        {
          "str1": "222 W. ADAMS",
          "str2": null,
          "city": "CHICAGO",
          "state": 15,
          "stateSpecified": true,
          "cntry": "United States",
          "postlCd": "60606"
        },
        {
          "str1": "222 WEST ADAMS ST",
          "str2": null,
          "city": "CHICAGO",
          "state": 15,
          "stateSpecified": true,
          "cntry": "UNITED STATES",
          "postlCd": "60606-5312"
        }
      ],
      "orgNm": "WILLIAM BLAIR",
      "orgPK": "1252",
      "str1": "222 W ADAMS ST",
      "str2": null,
      "city": "CHICAGO",
      "state": 15,
      "stateSpecified": true,
      "cntry": "United States",
      "postlCd": "60606"
    }
  ],
  "Exms": [
    {
      "exmCd": 3,
      "exmNm": "Uniform Combined State Law Examination",
      "exmDt": "2015-12-02T00:00:00",
      "exmDtSpecified": true
    }
  ],
  "Dsgntns": [],
  "PrevRgstns": [],
  "EmpHss": [
    {
      "fromDt": "08/2003",
      "toDt": "05/2007",
      "orgNm": "NEW TRIER",
      "city": "WINNETKA",
      "state": 15,
      "stateSpecified": true
    },
    {
      "fromDt": "08/2007",
      "toDt": "12/2011",
      "orgNm": "FLORIDA STATE UNIVERSITY",
      "city": "TALLAHASSEE",
      "state": 9,
      "stateSpecified": true
    },
    {
      "fromDt": "03/2012",
      "toDt": "05/2015",
      "orgNm": "PERFORMANCE HEALTH",
      "city": "NORTHBROOK",
      "state": 15,
      "stateSpecified": true
    },
    {
      "fromDt": "06/2015",
      "toDt": null,
      "orgNm": "WILLIAM BLAIR & COMPANY",
      "city": "CHICAGO",
      "state": 15,
      "stateSpecified": true
    }
  ],
  "OthrBuss": {
    "OthrBus": null
  },
  "DRPs": []
}