{
  "Info": {
    "lastNm": "KERN",
    "firstNm": "MICHAEL",
    "midNm": "LEO",
    "sufNm": "III",
    "indvlPK": "6511142",
    "actvAGReg": 0,
    "link": "http://www.adviserinfo.sec.gov/IAPD/Individual/6511142"
  },
  "OthrNms": [
    {
      "lastNm": "KERN",
      "firstNm": "MICHAEL",
      "midNm": "LEO",
      "sufNm": null
    }
  ],
  "CrntEmps": [
    {
      "CrntRgstns": [
        {
          "regAuth": 45,
          "regCat": 0,
          "st": 2,
          "stDt": "2015-06-25T00:00:00"
        }
      ],
      "BrnchOfLocs": [
        {
          "str1": "3700 WEST SAM HOUSTON PARKWAY SOUTH",
          "str2": "STE 250",
          "city": "HOUSTON",
          "state": 45,
          "stateSpecified": true,
          "cntry": "United States",
          "postlCd": "77042"
        }
      ],
      "orgNm": "CAPSTONE ASSET MANAGEMENT COMPANY",
      "orgPK": "113360",
      "str1": "3700 WEST SAM HOUSTON PARKWAY SOUTH",
      "str2": "STE 250",
      "city": "HOUSTON",
      "state": 45,
      "stateSpecified": true,
      "cntry": "United States",
      "postlCd": "77042"
    }
  ],
  "Exms": [
    {
      "exmCd": 0,
      "exmNm": "Uniform Securities Agent State Law Examination",
      "exmDt": "2015-07-01T00:00:00",
      "exmDtSpecified": true
    }
  ],
  "Dsgntns": [
    {
      "dsgntnNm": "Chartered Financial Analyst"
    }
  ],
  "PrevRgstns": [],
  "EmpHss": [
    {
      "fromDt": "01/1996",
      "toDt": "05/2015",
      "orgNm": "STOUT RISIUS ROSS, INC.",
      "city": "HOUSTON",
      "state": 45,
      "stateSpecified": true
    },
    {
      "fromDt": "05/2015",
      "toDt": "12/2015",
      "orgNm": "CAPSTONE ASSET MANAGEMENT COMPANY",
      "city": "HOUSTON",
      "state": 45,
      "stateSpecified": true
    },
    {
      "fromDt": "05/2015",
      "toDt": "12/2015",
      "orgNm": "CAPSTONE ASSET PLANNING COMPANY",
      "city": "HOUSTON",
      "state": 45,
      "stateSpecified": true
    },
    {
      "fromDt": "05/2015",
      "toDt": null,
      "orgNm": "CAPSTONE FINANCIAL SERVICES, INC.",
      "city": "HOUSTON",
      "state": 45,
      "stateSpecified": true
    },
    {
      "fromDt": "01/2016",
      "toDt": null,
      "orgNm": "CFS Consulting Services, LLC",
      "city": "Houston",
      "state": 45,
      "stateSpecified": true
    },
    {
      "fromDt": "01/2016",
      "toDt": null,
      "orgNm": "Capstone Asset Management Company",
      "city": "Houston",
      "state": 45,
      "stateSpecified": true
    },
    {
      "fromDt": "01/2016",
      "toDt": null,
      "orgNm": "Capstone Asset Planning Company",
      "city": "Houston",
      "state": 45,
      "stateSpecified": true
    }
  ],
  "OthrBuss": {
    "OthrBus": {
      "desc": "Business: Stratford Cambridge Group Investment Related: No  Description of Business Activities: Private Equity  Position: Member of Advisory Board  Start Date:2011  Approximate number of hours per month:5  Duties: Provide input on board issues    Business: Foundation Capital Resources  Investment Related: Yes  Description of Business Activities: Real Estate Investment Trust   Position: Board member  Start Date:11/3/15  Approximate number of hours per month:2  Duties: provide guidance and input on board matters    Business: Convoy of Hope  Investment Related: No  Description of Business Activities: Non-Profit  Position: Board Member & Treasurer  Start Date: 2002  Approximate number of hours per month:5  Duties: Provide guidance on Board matters & Treasurer"
    }
  },
  "DRPs": []
}