{
  "Info": {
    "lastNm": "MARTIN",
    "firstNm": "KEVIN",
    "midNm": "BAYARD",
    "sufNm": null,
    "indvlPK": "6511099",
    "actvAGReg": 1,
    "link": "http://www.adviserinfo.sec.gov/IAPD/Individual/6511099"
  },
  "OthrNms": [
    {
      "lastNm": "MARTIN",
      "firstNm": "KEVIN",
      "midNm": null,
      "sufNm": null
    },
    {
      "lastNm": "MARTIN",
      "firstNm": "KEVIN",
      "midNm": "B.",
      "sufNm": null
    }
  ],
  "CrntEmps": [
    {
      "CrntRgstns": [
        {
          "regAuth": 4,
          "regCat": 0,
          "st": 2,
          "stDt": "2015-07-21T00:00:00"
        }
      ],
      "BrnchOfLocs": [
        {
          "str1": "540 UNIVERSITY AVENUE",
          "str2": "SUITE 300",
          "city": "PALO ALTO",
          "state": 4,
          "stateSpecified": true,
          "cntry": "United States",
          "postlCd": "94301"
        }
      ],
      "orgNm": "OAK PEAK FINANCIAL",
      "orgPK": "226668",
      "str1": "540 UNIVERSITY AVENUE",
      "str2": "SUITE 300",
      "city": "PALO ALTO",
      "state": 4,
      "stateSpecified": true,
      "cntry": "United States",
      "postlCd": "94301"
    }
  ],
  "Exms": [
    {
      "exmCd": 2,
      "exmNm": "Uniform Investment Adviser Law Examination",
      "exmDt": "2015-04-08T00:00:00",
      "exmDtSpecified": true
    }
  ],
  "Dsgntns": [],
  "PrevRgstns": [],
  "EmpHss": [
    {
      "fromDt": "09/2005",
      "toDt": "09/2008",
      "orgNm": "PRIVATE INVESTOR",
      "city": "PALO ALTO",
      "state": 4,
      "stateSpecified": true
    },
    {
      "fromDt": "10/2008",
      "toDt": "12/2010",
      "orgNm": "DIGITALPERSONA",
      "city": "REDWOOD CITY",
      "state": 4,
      "stateSpecified": true
    },
    {
      "fromDt": "12/2010",
      "toDt": "07/2014",
      "orgNm": "SHORETEL",
      "city": "SUNNYVALE",
      "state": 4,
      "stateSpecified": true
    },
    {
      "fromDt": "07/2014",
      "toDt": "02/2015",
      "orgNm": "DELTA ID",
      "city": "NEWARK",
      "state": 4,
      "stateSpecified": true
    },
    {
      "fromDt": "03/2015",
      "toDt": null,
      "orgNm": "OAK PEAK FINANCIAL",
      "city": "PALO ALTO",
      "state": 4,
      "stateSpecified": true
    }
  ],
  "OthrBuss": {
    "OthrBus": null
  },
  "DRPs": []
}