{
  "Info": {
    "lastNm": "Arens",
    "firstNm": "John",
    "midNm": "Sloan",
    "sufNm": "III",
    "indvlPK": "6518844",
    "actvAGReg": 0,
    "link": "http://www.adviserinfo.sec.gov/IAPD/Individual/6518844"
  },
  "OthrNms": [
    {
      "lastNm": "ARENS",
      "firstNm": "JOHN",
      "midNm": "SLOAN",
      "sufNm": null
    },
    {
      "lastNm": "ARENS",
      "firstNm": "JOHN",
      "midNm": "SLOAN",
      "sufNm": "III"
    }
  ],
  "CrntEmps": [
    {
      "CrntRgstns": [
        {
          "regAuth": 4,
          "regCat": 0,
          "st": 2,
          "stDt": "2015-12-11T00:00:00"
        }
      ],
      "BrnchOfLocs": [
        {
          "str1": null,
          "str2": null,
          "city": "CARSON",
          "state": 4,
          "stateSpecified": true,
          "cntry": "United States",
          "postlCd": null
        }
      ],
      "orgNm": "EDWARD JONES",
      "orgPK": "250",
      "str1": "12555 MANCHESTER RD",
      "str2": null,
      "city": "ST. LOUIS",
      "state": 25,
      "stateSpecified": true,
      "cntry": "United States",
      "postlCd": "63131"
    }
  ],
  "Exms": [
    {
      "exmCd": 3,
      "exmNm": "Uniform Combined State Law Examination",
      "exmDt": "2015-10-17T00:00:00",
      "exmDtSpecified": true
    }
  ],
  "Dsgntns": [],
  "PrevRgstns": [],
  "EmpHss": [
    {
      "fromDt": "01/2005",
      "toDt": "07/2008",
      "orgNm": "KAREN'S SEPTIC AND SEWER COMPANY",
      "city": "WRIGHTWOOD",
      "state": 4,
      "stateSpecified": true
    },
    {
      "fromDt": "01/2006",
      "toDt": "07/2008",
      "orgNm": "MILE HIGH PIZZA COMPANY",
      "city": "WRIGHTWOOD",
      "state": 4,
      "stateSpecified": true
    },
    {
      "fromDt": "07/2008",
      "toDt": "07/2015",
      "orgNm": "LBS FINANCIAL CREDIT UNION",
      "city": "LONG BEACH",
      "state": 4,
      "stateSpecified": true
    },
    {
      "fromDt": "07/2015",
      "toDt": null,
      "orgNm": "EDWARD JONES",
      "city": "ST. LOUIS",
      "state": 25,
      "stateSpecified": true
    }
  ],
  "OthrBuss": {
    "OthrBus": null
  },
  "DRPs": []
}