{
  "Info": {
    "lastNm": "McCormack",
    "firstNm": "Blake",
    "midNm": "K",
    "sufNm": null,
    "indvlPK": "6519312",
    "actvAGReg": 0,
    "link": "http://www.adviserinfo.sec.gov/IAPD/Individual/6519312"
  },
  "OthrNms": [
    {
      "lastNm": "MCCORMACK",
      "firstNm": "BLAKE",
      "midNm": "KENT",
      "sufNm": null
    }
  ],
  "CrntEmps": [
    {
      "CrntRgstns": [
        {
          "regAuth": 45,
          "regCat": 0,
          "st": 2,
          "stDt": "2016-01-15T00:00:00"
        }
      ],
      "BrnchOfLocs": [
        {
          "str1": "2785 GULF FREEWAY SOUTH",
          "str2": "SUITE 110",
          "city": "LEAGUE CITY",
          "state": 45,
          "stateSpecified": true,
          "cntry": "United States",
          "postlCd": "77573"
        }
      ],
      "orgNm": "EDWARD JONES",
      "orgPK": "250",
      "str1": "12555 MANCHESTER RD",
      "str2": null,
      "city": "ST. LOUIS",
      "state": 25,
      "stateSpecified": true,
      "cntry": "United States",
      "postlCd": "63131"
    }
  ],
  "Exms": [
    {
      "exmCd": 3,
      "exmNm": "Uniform Combined State Law Examination",
      "exmDt": "2015-12-02T00:00:00",
      "exmDtSpecified": true
    }
  ],
  "Dsgntns": [],
  "PrevRgstns": [],
  "EmpHss": [
    {
      "fromDt": "05/2005",
      "toDt": "08/2007",
      "orgNm": "HOLLIE LOGISTICS",
      "city": "DALLAS",
      "state": 45,
      "stateSpecified": true
    },
    {
      "fromDt": "09/2007",
      "toDt": "06/2009",
      "orgNm": "HORN HIGH/ STEPHEN F AUSTIN STATE UNIVERSITY",
      "city": "NACOGDOCHES",
      "state": 45,
      "stateSpecified": true
    },
    {
      "fromDt": "07/2009",
      "toDt": "05/2013",
      "orgNm": "BULLFROGS",
      "city": "NAGOGDOCHES",
      "state": 45,
      "stateSpecified": true
    },
    {
      "fromDt": "06/2013",
      "toDt": "10/2013",
      "orgNm": "JOB SEARCH",
      "city": "HOUSTON",
      "state": 45,
      "stateSpecified": true
    },
    {
      "fromDt": "11/2013",
      "toDt": "07/2015",
      "orgNm": "MEDEX SURGICAL",
      "city": "HOUSTON",
      "state": 45,
      "stateSpecified": true
    },
    {
      "fromDt": "07/2015",
      "toDt": null,
      "orgNm": "EDWARD JONES",
      "city": "ST LOUIS",
      "state": 25,
      "stateSpecified": true
    }
  ],
  "OthrBuss": {
    "OthrBus": null
  },
  "DRPs": []
}