{
  "Info": {
    "lastNm": "FILICKY",
    "firstNm": "CHRISTOPHER",
    "midNm": "JOSEPH",
    "sufNm": null,
    "indvlPK": "6524982",
    "actvAGReg": 0,
    "link": "http://www.adviserinfo.sec.gov/IAPD/Individual/6524982"
  },
  "OthrNms": [
    {
      "lastNm": "FILICKY",
      "firstNm": "CHRISTOPHER",
      "midNm": "J",
      "sufNm": null
    }
  ],
  "CrntEmps": [
    {
      "CrntRgstns": [
        {
          "regAuth": 39,
          "regCat": 0,
          "st": 2,
          "stDt": "2015-12-04T00:00:00"
        }
      ],
      "BrnchOfLocs": [
        {
          "str1": "43 SOUTH BEESON BLVD",
          "str2": null,
          "city": "UNIONTOWN",
          "state": 39,
          "stateSpecified": true,
          "cntry": "United States",
          "postlCd": "15401"
        }
      ],
      "orgNm": "JANNEY MONTGOMERY SCOTT LLC",
      "orgPK": "463",
      "str1": "1717 ARCH STREET",
      "str2": null,
      "city": "PHILADELPHIA",
      "state": 39,
      "stateSpecified": true,
      "cntry": "United States",
      "postlCd": "19103"
    }
  ],
  "Exms": [
    {
      "exmCd": 3,
      "exmNm": "Uniform Combined State Law Examination",
      "exmDt": "2015-12-04T00:00:00",
      "exmDtSpecified": true
    }
  ],
  "Dsgntns": [],
  "PrevRgstns": [],
  "EmpHss": [
    {
      "fromDt": "05/2006",
      "toDt": "09/2006",
      "orgNm": "Lowes",
      "city": "Uniontown",
      "state": 39,
      "stateSpecified": true
    },
    {
      "fromDt": "10/2006",
      "toDt": "05/2007",
      "orgNm": "California University of Pennsylvania",
      "city": "California",
      "state": 39,
      "stateSpecified": true
    },
    {
      "fromDt": "05/2007",
      "toDt": "02/2008",
      "orgNm": "Hampton Inn",
      "city": "Uniontown",
      "state": 39,
      "stateSpecified": true
    },
    {
      "fromDt": "03/2008",
      "toDt": "06/2008",
      "orgNm": "California University of Pennsylvania",
      "city": "California",
      "state": 39,
      "stateSpecified": true
    },
    {
      "fromDt": "07/2008",
      "toDt": "02/2012",
      "orgNm": "84 Lumber Company",
      "city": "Uniontown",
      "state": 39,
      "stateSpecified": true
    },
    {
      "fromDt": "03/2012",
      "toDt": "07/2012",
      "orgNm": "Halliburton",
      "city": "Carmichaels",
      "state": 39,
      "stateSpecified": true
    },
    {
      "fromDt": "08/2012",
      "toDt": "06/2015",
      "orgNm": "Guttman Energy",
      "city": "Belle Vernon",
      "state": 39,
      "stateSpecified": true
    },
    {
      "fromDt": "07/2015",
      "toDt": null,
      "orgNm": "JANNEY MONTGOMERY SCOTT LLC",
      "city": "UNTIONTOWN",
      "state": 39,
      "stateSpecified": true
    }
  ],
  "OthrBuss": {
    "OthrBus": null
  },
  "DRPs": []
}