{
  "Info": {
    "lastNm": "McSwain-Escudero",
    "firstNm": "Natalie",
    "midNm": "Elizabeth",
    "sufNm": null,
    "indvlPK": "6524184",
    "actvAGReg": 0,
    "link": "http://www.adviserinfo.sec.gov/IAPD/Individual/6524184"
  },
  "OthrNms": [
    {
      "lastNm": "ESCUDERO",
      "firstNm": "NATALIE",
      "midNm": "ELIZABETH",
      "sufNm": null
    },
    {
      "lastNm": "Greer",
      "firstNm": "Natalie",
      "midNm": "Elizabeth",
      "sufNm": null
    },
    {
      "lastNm": "MCSWAIN-ESCUDERO",
      "firstNm": "NATALIE",
      "midNm": "ELIZABETH",
      "sufNm": null
    },
    {
      "lastNm": "McSwain",
      "firstNm": "Natalie",
      "midNm": "Elizabeth",
      "sufNm": null
    }
  ],
  "CrntEmps": [
    {
      "CrntRgstns": [
        {
          "regAuth": 3,
          "regCat": 0,
          "st": 2,
          "stDt": "2016-06-14T00:00:00"
        }
      ],
      "BrnchOfLocs": [
        {
          "str1": "8620 SOUTH RIVER PARKWAY",
          "str2": null,
          "city": "TEMPE",
          "state": 3,
          "stateSpecified": true,
          "cntry": "United States",
          "postlCd": "85284"
        }
      ],
      "orgNm": "EDWARD JONES",
      "orgPK": "250",
      "str1": "12555 MANCHESTER RD",
      "str2": null,
      "city": "ST. LOUIS",
      "state": 25,
      "stateSpecified": true,
      "cntry": "United States",
      "postlCd": "63131"
    }
  ],
  "Exms": [
    {
      "exmCd": 3,
      "exmNm": "Uniform Combined State Law Examination",
      "exmDt": "2016-06-07T00:00:00",
      "exmDtSpecified": true
    }
  ],
  "Dsgntns": [],
  "PrevRgstns": [],
  "EmpHss": [
    {
      "fromDt": "07/2006",
      "toDt": "06/2015",
      "orgNm": "Capital Group",
      "city": "Scottsdale",
      "state": 3,
      "stateSpecified": true
    },
    {
      "fromDt": "09/2006",
      "toDt": "12/2006",
      "orgNm": "Arena Sports Bar",
      "city": "Scottsdale",
      "state": 3,
      "stateSpecified": true
    },
    {
      "fromDt": "07/2015",
      "toDt": null,
      "orgNm": "Edward Jones",
      "city": "Tempe",
      "state": 3,
      "stateSpecified": true
    }
  ],
  "OthrBuss": {
    "OthrBus": null
  },
  "DRPs": []
}