{
  "Info": {
    "lastNm": "EALY",
    "firstNm": "RYAN",
    "midNm": "KYLE",
    "sufNm": null,
    "indvlPK": "6529451",
    "actvAGReg": 0,
    "link": "http://www.adviserinfo.sec.gov/IAPD/Individual/6529451"
  },
  "OthrNms": [],
  "CrntEmps": [
    {
      "CrntRgstns": [
        {
          "regAuth": 44,
          "regCat": 0,
          "st": 2,
          "stDt": "2015-11-30T00:00:00"
        }
      ],
      "BrnchOfLocs": [
        {
          "str1": "2176 WEST STREET",
          "str2": "SUITE 100",
          "city": "GERMANTOWN",
          "state": 44,
          "stateSpecified": true,
          "cntry": "United States",
          "postlCd": "38138"
        }
      ],
      "orgNm": "SECURIAN FINANCIAL SERVICES, INC.",
      "orgPK": "15296",
      "str1": "400 ROBERT STREET NORTH",
      "str2": null,
      "city": "ST PAUL",
      "state": 24,
      "stateSpecified": true,
      "cntry": "United States",
      "postlCd": "55101-2098"
    }
  ],
  "Exms": [
    {
      "exmCd": 3,
      "exmNm": "Uniform Combined State Law Examination",
      "exmDt": "2015-11-19T00:00:00",
      "exmDtSpecified": true
    }
  ],
  "Dsgntns": [],
  "PrevRgstns": [],
  "EmpHss": [
    {
      "fromDt": "08/2003",
      "toDt": "07/2007",
      "orgNm": "TENNESSEE STATE UNIVERSITY",
      "city": "NASHVILLE",
      "state": 44,
      "stateSpecified": true
    },
    {
      "fromDt": "07/2007",
      "toDt": "02/2009",
      "orgNm": "CENTRAL PARKING SYSTEMS",
      "city": "MEMPHIS",
      "state": 44,
      "stateSpecified": true
    },
    {
      "fromDt": "02/2009",
      "toDt": "06/2014",
      "orgNm": "HEALTHCARE SERVICES GROUP",
      "city": "MEMPHIS",
      "state": 44,
      "stateSpecified": true
    },
    {
      "fromDt": "06/2014",
      "toDt": "10/2015",
      "orgNm": "MEDICONE MEDICAL RESPONSE",
      "city": "MEMPHIS",
      "state": 44,
      "stateSpecified": true
    },
    {
      "fromDt": "07/2015",
      "toDt": null,
      "orgNm": "MINNESOTA LIFE INSURANCE CO",
      "city": "ST PAUL",
      "state": 24,
      "stateSpecified": true
    },
    {
      "fromDt": "07/2015",
      "toDt": null,
      "orgNm": "SECURIAN FINANCIAL SERVICES INC",
      "city": "ST PAUL",
      "state": 24,
      "stateSpecified": true
    },
    {
      "fromDt": "07/2015",
      "toDt": null,
      "orgNm": "SHOEMAKER FINANCIAL",
      "city": "GERMANTOWN",
      "state": 44,
      "stateSpecified": true
    }
  ],
  "OthrBuss": {
    "OthrBus": null
  },
  "DRPs": []
}