{
  "Info": {
    "lastNm": "HENRY",
    "firstNm": "GREGORY",
    "midNm": "COTHRAN",
    "sufNm": null,
    "indvlPK": "6531585",
    "actvAGReg": 0,
    "link": "http://www.adviserinfo.sec.gov/IAPD/Individual/6531585"
  },
  "OthrNms": [
    {
      "lastNm": "HENRY",
      "firstNm": "GREGORY",
      "midNm": "C",
      "sufNm": null
    }
  ],
  "CrntEmps": [
    {
      "CrntRgstns": [
        {
          "regAuth": 36,
          "regCat": 0,
          "st": 2,
          "stDt": "2015-10-05T00:00:00"
        },
        {
          "regAuth": 45,
          "regCat": 0,
          "st": 2,
          "stDt": "2016-05-12T00:00:00"
        }
      ],
      "BrnchOfLocs": [
        {
          "str1": "1375 E 9TH ST",
          "str2": null,
          "city": "CLEVELAND",
          "state": 36,
          "stateSpecified": true,
          "cntry": "United States",
          "postlCd": "44114"
        }
      ],
      "orgNm": "MERRILL LYNCH, PIERCE, FENNER & SMITH INCORPORATED",
      "orgPK": "7691",
      "str1": "ONE BRYANT PARK",
      "str2": null,
      "city": "NEW YORK",
      "state": 35,
      "stateSpecified": true,
      "cntry": "United States",
      "postlCd": "10036"
    }
  ],
  "Exms": [
    {
      "exmCd": 3,
      "exmNm": "Uniform Combined State Law Examination",
      "exmDt": "2015-10-02T00:00:00",
      "exmDtSpecified": true
    }
  ],
  "Dsgntns": [],
  "PrevRgstns": [],
  "EmpHss": [
    {
      "fromDt": "06/2004",
      "toDt": "12/2012",
      "orgNm": "MICHAEL W. HENRY, CPA",
      "city": "GREENSBORO",
      "state": 28,
      "stateSpecified": true
    },
    {
      "fromDt": "08/2007",
      "toDt": "12/2007",
      "orgNm": "UNIVERSITY OF NORTH CAROLINA AT CHARLOTTE",
      "city": "CHARLOTTE",
      "state": 28,
      "stateSpecified": true
    },
    {
      "fromDt": "01/2008",
      "toDt": "07/2008",
      "orgNm": "UNIVERSITY OF NORTH CAROLINA AT GREENSBORO",
      "city": "GREENSBORO",
      "state": 28,
      "stateSpecified": true
    },
    {
      "fromDt": "08/2008",
      "toDt": "07/2009",
      "orgNm": "PITT COMMUNITY COLLEGE",
      "city": "GREENVILLE",
      "state": 28,
      "stateSpecified": true
    },
    {
      "fromDt": "08/2009",
      "toDt": "05/2012",
      "orgNm": "UNIVERSITY OF NORTH CAROLINA AT GREENSBORO",
      "city": "GREENSBORO",
      "state": 28,
      "stateSpecified": true
    },
    {
      "fromDt": "06/2012",
      "toDt": "08/2012",
      "orgNm": "INDIAN HEAD CAMP",
      "city": "HONESDALE",
      "state": 39,
      "stateSpecified": true
    },
    {
      "fromDt": "01/2013",
      "toDt": "12/2014",
      "orgNm": "MURRAY STATE UNIVERISTY",
      "city": "MURRAY",
      "state": 18,
      "stateSpecified": true
    },
    {
      "fromDt": "06/2013",
      "toDt": "08/2013",
      "orgNm": "INDIAN HEAD CAMP",
      "city": "HONESDALE",
      "state": 39,
      "stateSpecified": true
    },
    {
      "fromDt": "12/2014",
      "toDt": "03/2015",
      "orgNm": "UNEMPLOYED",
      "city": "GREENSBORO",
      "state": 28,
      "stateSpecified": true
    },
    {
      "fromDt": "03/2015",
      "toDt": "06/2015",
      "orgNm": "UNEMPLOYED",
      "city": "CLEVELAND",
      "state": 36,
      "stateSpecified": true
    },
    {
      "fromDt": "06/2015",
      "toDt": null,
      "orgNm": "MERRILL LYNCH, PIERCE, FENNER & SMITH INCORPORATED",
      "city": "CLEVELAND",
      "state": 36,
      "stateSpecified": true
    },
    {
      "fromDt": "12/2015",
      "toDt": null,
      "orgNm": "BANK OF AMERICA, N.A.",
      "city": "CLEVELAND",
      "state": 36,
      "stateSpecified": true
    }
  ],
  "OthrBuss": {
    "OthrBus": null
  },
  "DRPs": []
}