{
  "Info": {
    "lastNm": "Miller",
    "firstNm": "MAUREEN",
    "midNm": "Vigland",
    "sufNm": null,
    "indvlPK": "6532557",
    "actvAGReg": 1,
    "link": "http://www.adviserinfo.sec.gov/IAPD/Individual/6532557"
  },
  "OthrNms": [
    {
      "lastNm": "VIGLAND",
      "firstNm": "MAUREEN",
      "midNm": "ELLEN",
      "sufNm": null
    }
  ],
  "CrntEmps": [
    {
      "CrntRgstns": [
        {
          "regAuth": 15,
          "regCat": 0,
          "st": 2,
          "stDt": "2015-10-30T00:00:00"
        }
      ],
      "BrnchOfLocs": [
        {
          "str1": "200 S. WACKER DRIVE",
          "str2": "SUITE 2300",
          "city": "CHICAGO",
          "state": 15,
          "stateSpecified": true,
          "cntry": "United States",
          "postlCd": "60606-5864"
        }
      ],
      "orgNm": "BROWNSON, REHMUS & FOXWORTH, INC.",
      "orgPK": "110608",
      "str1": "200 S. WACKER DRIVE",
      "str2": "SUITE 2300",
      "city": "CHICAGO",
      "state": 15,
      "stateSpecified": true,
      "cntry": "United States",
      "postlCd": "60606-5864"
    }
  ],
  "Exms": [
    {
      "exmCd": 2,
      "exmNm": "Uniform Investment Adviser Law Examination",
      "exmDt": "2015-10-30T00:00:00",
      "exmDtSpecified": true
    }
  ],
  "Dsgntns": [],
  "PrevRgstns": [],
  "EmpHss": [
    {
      "fromDt": "08/2004",
      "toDt": "08/2008",
      "orgNm": "HAZELWOOD WEST HIGH SCHOOL",
      "city": "HAZELWOOD",
      "state": 25,
      "stateSpecified": true
    },
    {
      "fromDt": "05/2008",
      "toDt": "08/2008",
      "orgNm": "ST. PETER'S REC-PLEX",
      "city": "ST. PETERS",
      "state": 25,
      "stateSpecified": true
    },
    {
      "fromDt": "08/2008",
      "toDt": "05/2012",
      "orgNm": "UNIVERSITY OF NOTRE DAME",
      "city": "NOTRE DAME",
      "state": 16,
      "stateSpecified": true
    },
    {
      "fromDt": "05/2009",
      "toDt": "08/2009",
      "orgNm": "ST. PETER'S REC-PLEX",
      "city": "ST. PETERS",
      "state": 25,
      "stateSpecified": true
    },
    {
      "fromDt": "07/2012",
      "toDt": "07/2013",
      "orgNm": "CORNERSTONE RESEARCH",
      "city": "MENLO PARK",
      "state": 4,
      "stateSpecified": true
    },
    {
      "fromDt": "07/2013",
      "toDt": "06/2015",
      "orgNm": "CORNERSTONE RESEARCH",
      "city": "CHICAGO",
      "state": 15,
      "stateSpecified": true
    },
    {
      "fromDt": "07/2015",
      "toDt": null,
      "orgNm": "BROWNSON, REHMUS & FOXWORTH",
      "city": "CHICAGO",
      "state": 15,
      "stateSpecified": true
    }
  ],
  "OthrBuss": {
    "OthrBus": null
  },
  "DRPs": []
}