{
  "Info": {
    "lastNm": "KASDIN",
    "firstNm": "JULIAN",
    "midNm": "MICHAEL",
    "sufNm": null,
    "indvlPK": "6534875",
    "actvAGReg": 0,
    "link": "http://www.adviserinfo.sec.gov/IAPD/Individual/6534875"
  },
  "OthrNms": [
    {
      "lastNm": "KASDIN",
      "firstNm": "JULIAN",
      "midNm": null,
      "sufNm": null
    }
  ],
  "CrntEmps": [
    {
      "CrntRgstns": [
        {
          "regAuth": 9,
          "regCat": 0,
          "st": 2,
          "stDt": "2016-03-16T00:00:00"
        }
      ],
      "BrnchOfLocs": [
        {
          "str1": "102 W WHITING ST STE 400",
          "str2": null,
          "city": "TAMPA",
          "state": 9,
          "stateSpecified": true,
          "cntry": "United States",
          "postlCd": "33602"
        },
        {
          "str1": "4000 HOLLYWOOD BLVD",
          "str2": "STE 555",
          "city": "HOLLYWOOD",
          "state": 9,
          "stateSpecified": true,
          "cntry": "United States",
          "postlCd": "33021"
        }
      ],
      "orgNm": "WELLS FARGO ADVISORS FINANCIAL NETWORK, LLC",
      "orgPK": "11025",
      "str1": "ONE NORTH JEFFERSON AVENUE",
      "str2": "MAIL CODE: H0004-050",
      "city": "ST. LOUIS",
      "state": 25,
      "stateSpecified": true,
      "cntry": "United States",
      "postlCd": "63103"
    },
    {
      "CrntRgstns": [
        {
          "regAuth": 9,
          "regCat": 0,
          "st": 2,
          "stDt": "2016-06-07T00:00:00"
        }
      ],
      "BrnchOfLocs": [
        {
          "str1": "4000 Hollywood Blvd",
          "str2": "Suite 555 - South",
          "city": "Hollywood",
          "state": 9,
          "stateSpecified": true,
          "cntry": "United States",
          "postlCd": "33021"
        }
      ],
      "orgNm": "CAPTRUST ADVISORS, LLC",
      "orgPK": "142941",
      "str1": "102 W. WHITING STREET",
      "str2": "SUITE 400",
      "city": "TAMPA",
      "state": 9,
      "stateSpecified": true,
      "cntry": "United States",
      "postlCd": "33602"
    }
  ],
  "Exms": [
    {
      "exmCd": 3,
      "exmNm": "Uniform Combined State Law Examination",
      "exmDt": "2016-02-16T00:00:00",
      "exmDtSpecified": true
    }
  ],
  "Dsgntns": [],
  "PrevRgstns": [],
  "EmpHss": [
    {
      "fromDt": "08/2005",
      "toDt": "05/2007",
      "orgNm": "Florida International University",
      "city": "Miami",
      "state": 9,
      "stateSpecified": true
    },
    {
      "fromDt": "05/2007",
      "toDt": "01/2008",
      "orgNm": "Unemployed",
      "city": "Miami Beach",
      "state": 9,
      "stateSpecified": true
    },
    {
      "fromDt": "01/2008",
      "toDt": "11/2008",
      "orgNm": "Schwartz Media Strategies",
      "city": "Miami",
      "state": 9,
      "stateSpecified": true
    },
    {
      "fromDt": "11/2008",
      "toDt": "06/2009",
      "orgNm": "City of Miami",
      "city": "Miami",
      "state": 9,
      "stateSpecified": true
    },
    {
      "fromDt": "07/2009",
      "toDt": "05/2011",
      "orgNm": "South Beach Brewing Company",
      "city": "Miami",
      "state": 9,
      "stateSpecified": true
    },
    {
      "fromDt": "05/2011",
      "toDt": "01/2013",
      "orgNm": "Genting Americas",
      "city": "Miami",
      "state": 9,
      "stateSpecified": true
    },
    {
      "fromDt": "01/2013",
      "toDt": "05/2013",
      "orgNm": "Robert K. Futterman and Associates",
      "city": "Miami",
      "state": 9,
      "stateSpecified": true
    },
    {
      "fromDt": "05/2013",
      "toDt": "08/2014",
      "orgNm": "Unemployed",
      "city": "Miami",
      "state": 9,
      "stateSpecified": true
    },
    {
      "fromDt": "08/2014",
      "toDt": "05/2015",
      "orgNm": "University of Miami School of Law",
      "city": "Coral Gables",
      "state": 9,
      "stateSpecified": true
    },
    {
      "fromDt": "07/2015",
      "toDt": null,
      "orgNm": "CapTrust Advisors, LLC",
      "city": "TAMPA",
      "state": 9,
      "stateSpecified": true
    }
  ],
  "OthrBuss": {
    "OthrBus": null
  },
  "DRPs": []
}