{
  "Info": {
    "lastNm": "KULMA",
    "firstNm": "LUKE",
    "midNm": null,
    "sufNm": null,
    "indvlPK": "6534479",
    "actvAGReg": 1,
    "link": "http://www.adviserinfo.sec.gov/IAPD/Individual/6534479"
  },
  "OthrNms": [],
  "CrntEmps": [
    {
      "CrntRgstns": [
        {
          "regAuth": 4,
          "regCat": 0,
          "st": 2,
          "stDt": "2015-07-23T00:00:00"
        }
      ],
      "BrnchOfLocs": [
        {
          "str1": "9777 WILSHIRE BLVD.",
          "str2": "SUITE 1018",
          "city": "BEVERLY HILLS",
          "state": 4,
          "stateSpecified": true,
          "cntry": "United States",
          "postlCd": "90212"
        }
      ],
      "orgNm": "LOURDMURRAY",
      "orgPK": "140305",
      "str1": "9777 WILSHIRE BLVD.",
      "str2": "SUITE 1018",
      "city": "BEVERLY HILLS",
      "state": 4,
      "stateSpecified": true,
      "cntry": "United States",
      "postlCd": "90212"
    }
  ],
  "Exms": [],
  "Dsgntns": [
    {
      "dsgntnNm": "Certified Financial Planner"
    }
  ],
  "PrevRgstns": [],
  "EmpHss": [
    {
      "fromDt": "06/2006",
      "toDt": "02/2008",
      "orgNm": "CINTAS",
      "city": "ROMEOVILLE",
      "state": 15,
      "stateSpecified": true
    },
    {
      "fromDt": "02/2008",
      "toDt": "10/2010",
      "orgNm": "NORTHERN TRUST",
      "city": "CHICAGO",
      "state": 15,
      "stateSpecified": true
    },
    {
      "fromDt": "10/2010",
      "toDt": "08/2011",
      "orgNm": "NORTHERN TRUST",
      "city": "LOS ANGELES",
      "state": 4,
      "stateSpecified": true
    },
    {
      "fromDt": "08/2011",
      "toDt": "03/2015",
      "orgNm": "NORTHERN TRUST",
      "city": "LOS ANGELES",
      "state": 4,
      "stateSpecified": true
    },
    {
      "fromDt": "04/2015",
      "toDt": null,
      "orgNm": "LOURDMURRAY",
      "city": "BEVERLY HILLS",
      "state": 4,
      "stateSpecified": true
    }
  ],
  "OthrBuss": {
    "OthrBus": null
  },
  "DRPs": []
}