{
  "Info": {
    "lastNm": "DEWITT",
    "firstNm": "KATHERINE",
    "midNm": "ELAINE",
    "sufNm": null,
    "indvlPK": "6535679",
    "actvAGReg": 0,
    "link": "http://www.adviserinfo.sec.gov/IAPD/Individual/6535679"
  },
  "OthrNms": [
    {
      "lastNm": "DEWITT",
      "firstNm": "KATIE",
      "midNm": null,
      "sufNm": null
    }
  ],
  "CrntEmps": [
    {
      "CrntRgstns": [
        {
          "regAuth": 9,
          "regCat": 0,
          "st": 2,
          "stDt": "2015-12-22T00:00:00"
        }
      ],
      "BrnchOfLocs": [
        {
          "str1": "1485 INTERNATIONAL PKWY STE 2001",
          "str2": null,
          "city": "HEATHROW",
          "state": 9,
          "stateSpecified": true,
          "cntry": "United States",
          "postlCd": "32746"
        }
      ],
      "orgNm": "THRIVENT INVESTMENT MANAGEMENT INC.",
      "orgPK": "18387",
      "str1": "625 FOURTH AVENUE SOUTH",
      "str2": null,
      "city": "MINNEAPOLIS",
      "state": 24,
      "stateSpecified": true,
      "cntry": "United States",
      "postlCd": "55415-1665"
    }
  ],
  "Exms": [
    {
      "exmCd": 3,
      "exmNm": "Uniform Combined State Law Examination",
      "exmDt": "2015-12-18T00:00:00",
      "exmDtSpecified": true
    }
  ],
  "Dsgntns": [],
  "PrevRgstns": [],
  "EmpHss": [
    {
      "fromDt": "05/2006",
      "toDt": "08/2006",
      "orgNm": "SHORECREST RETAIL PARTNERS",
      "city": "ORLANDO",
      "state": 9,
      "stateSpecified": true
    },
    {
      "fromDt": "08/2006",
      "toDt": "05/2007",
      "orgNm": "FLORIDA STATE UNIVERSITY",
      "city": "TALLAHASSEE",
      "state": 9,
      "stateSpecified": true
    },
    {
      "fromDt": "05/2007",
      "toDt": "10/2007",
      "orgNm": "OLD NAVY",
      "city": "TALLAHASSEE",
      "state": 9,
      "stateSpecified": true
    },
    {
      "fromDt": "10/2007",
      "toDt": "04/2008",
      "orgNm": "FLORIDA STATE UNIVERSITY",
      "city": "TALLAHASSEE",
      "state": 9,
      "stateSpecified": true
    },
    {
      "fromDt": "04/2008",
      "toDt": "07/2009",
      "orgNm": "CHILI'S BAR AND GRILL",
      "city": "TALLAHASSEE",
      "state": 9,
      "stateSpecified": true
    },
    {
      "fromDt": "07/2009",
      "toDt": "08/2015",
      "orgNm": "CSC",
      "city": "ORLANDO",
      "state": 9,
      "stateSpecified": true
    },
    {
      "fromDt": "08/2015",
      "toDt": null,
      "orgNm": "THRIVENT INVESTMENT MANAGEMENT INC",
      "city": "HEATHROW",
      "state": 9,
      "stateSpecified": true
    },
    {
      "fromDt": "02/2016",
      "toDt": "03/2016",
      "orgNm": "Thrivent Financial",
      "city": "Appleton",
      "state": 50,
      "stateSpecified": true
    },
    {
      "fromDt": "03/2016",
      "toDt": null,
      "orgNm": "Thrivent Financial",
      "city": "Appleton",
      "state": 50,
      "stateSpecified": true
    }
  ],
  "OthrBuss": {
    "OthrBus": null
  },
  "DRPs": []
}