{
  "Info": {
    "lastNm": "FRUSHELL",
    "firstNm": "MICHAL-ERIN",
    "midNm": null,
    "sufNm": null,
    "indvlPK": "6538838",
    "actvAGReg": 0,
    "link": "http://www.adviserinfo.sec.gov/IAPD/Individual/6538838"
  },
  "OthrNms": [],
  "CrntEmps": [
    {
      "CrntRgstns": [
        {
          "regAuth": 10,
          "regCat": 0,
          "st": 2,
          "stDt": "2015-12-09T00:00:00"
        }
      ],
      "BrnchOfLocs": [
        {
          "str1": "2300 WINDY RIDGE PKWY",
          "str2": "SUITE 1100",
          "city": "ATLANTA",
          "state": 10,
          "stateSpecified": true,
          "cntry": "UNITED STATES",
          "postlCd": "30339"
        }
      ],
      "orgNm": "FSC SECURITIES CORPORATION",
      "orgPK": "7461",
      "str1": "2300 WINDY RIDGE PKWY, STE 1100",
      "str2": null,
      "city": "ATLANTA",
      "state": 10,
      "stateSpecified": true,
      "cntry": "United States",
      "postlCd": "30339"
    }
  ],
  "Exms": [
    {
      "exmCd": 3,
      "exmNm": "Uniform Combined State Law Examination",
      "exmDt": "2015-11-30T00:00:00",
      "exmDtSpecified": true
    }
  ],
  "Dsgntns": [],
  "PrevRgstns": [],
  "EmpHss": [
    {
      "fromDt": "08/2005",
      "toDt": null,
      "orgNm": "TITAN FINANCIAL GROUP",
      "city": "ATLANTA",
      "state": 10,
      "stateSpecified": true
    },
    {
      "fromDt": "10/2006",
      "toDt": "06/2015",
      "orgNm": "RELIANCE TRUST COMPANY",
      "city": "ATLANTA",
      "state": 10,
      "stateSpecified": true
    },
    {
      "fromDt": "07/2015",
      "toDt": null,
      "orgNm": "FSC SECURITIES",
      "city": "ATLANTA",
      "state": 10,
      "stateSpecified": true
    }
  ],
  "OthrBuss": {
    "OthrBus": null
  },
  "DRPs": []
}