{
  "Info": {
    "lastNm": "Walden",
    "firstNm": "Renee",
    "midNm": "Charmaine",
    "sufNm": null,
    "indvlPK": "6539449",
    "actvAGReg": 0,
    "link": "http://www.adviserinfo.sec.gov/IAPD/Individual/6539449"
  },
  "OthrNms": [
    {
      "lastNm": "LETOURNEAU",
      "firstNm": "RENEE",
      "midNm": "CHARMAINE",
      "sufNm": null
    }
  ],
  "CrntEmps": [
    {
      "CrntRgstns": [
        {
          "regAuth": 49,
          "regCat": 0,
          "st": 2,
          "stDt": "2015-12-02T00:00:00"
        }
      ],
      "BrnchOfLocs": [
        {
          "str1": "4054 CALIFORNIA AVENUE SW",
          "str2": null,
          "city": "SEATTLE",
          "state": 49,
          "stateSpecified": true,
          "cntry": "United States",
          "postlCd": "98116"
        }
      ],
      "orgNm": "EDWARD JONES",
      "orgPK": "250",
      "str1": "12555 MANCHESTER RD",
      "str2": null,
      "city": "ST. LOUIS",
      "state": 25,
      "stateSpecified": true,
      "cntry": "United States",
      "postlCd": "63131"
    }
  ],
  "Exms": [
    {
      "exmCd": 3,
      "exmNm": "Uniform Combined State Law Examination",
      "exmDt": "2015-11-17T00:00:00",
      "exmDtSpecified": true
    }
  ],
  "Dsgntns": [],
  "PrevRgstns": [],
  "EmpHss": [
    {
      "fromDt": "07/2004",
      "toDt": "08/2006",
      "orgNm": "SEATTLE WOMAN MAGAZINE",
      "city": "SEATTLE",
      "state": 49,
      "stateSpecified": true
    },
    {
      "fromDt": "08/2006",
      "toDt": "08/2007",
      "orgNm": "THE REAL ESTATE BOOK",
      "city": "SEATTLE",
      "state": 49,
      "stateSpecified": true
    },
    {
      "fromDt": "08/2007",
      "toDt": "10/2010",
      "orgNm": "SOUND PUBLISHING",
      "city": "ISSAQUAH",
      "state": 49,
      "stateSpecified": true
    },
    {
      "fromDt": "10/2010",
      "toDt": "04/2011",
      "orgNm": "SOUND PUBLISHING",
      "city": "BELLEVUE",
      "state": 49,
      "stateSpecified": true
    },
    {
      "fromDt": "04/2011",
      "toDt": "08/2011",
      "orgNm": "TIGER OAK MEDIA",
      "city": "SEATTLE",
      "state": 49,
      "stateSpecified": true
    },
    {
      "fromDt": "09/2011",
      "toDt": "08/2015",
      "orgNm": "SOUND PUBLISHING",
      "city": "KIRKLAND",
      "state": 49,
      "stateSpecified": true
    },
    {
      "fromDt": "09/2013",
      "toDt": "07/2015",
      "orgNm": "KIRKLAND CHAMBER OF COMMERCE",
      "city": "KIRKLAND",
      "state": 49,
      "stateSpecified": true
    },
    {
      "fromDt": "08/2015",
      "toDt": null,
      "orgNm": "EDWARD JONES",
      "city": "ST LOUIS",
      "state": 25,
      "stateSpecified": true
    }
  ],
  "OthrBuss": {
    "OthrBus": null
  },
  "DRPs": [
    {
      "hasRegAction": 1,
      "hasRegActionSpecified": true,
      "hasCriminal": 1,
      "hasCriminalSpecified": true,
      "hasBankrupt": 0,
      "hasBankruptSpecified": true,
      "hasCivilJudc": 1,
      "hasCivilJudcSpecified": true,
      "hasBond": 1,
      "hasBondSpecified": true,
      "hasJudgment": 1,
      "hasJudgmentSpecified": true,
      "hasInvstgn": 1,
      "hasInvstgnSpecified": true,
      "hasCustComp": 1,
      "hasCustCompSpecified": true,
      "hasTermination": 1,
      "hasTerminationSpecified": true
    }
  ]
}