{
  "Info": {
    "lastNm": "MALU",
    "firstNm": "DISWA",
    "midNm": null,
    "sufNm": null,
    "indvlPK": "6543806",
    "actvAGReg": 0,
    "link": "http://www.adviserinfo.sec.gov/IAPD/Individual/6543806"
  },
  "OthrNms": [],
  "CrntEmps": [
    {
      "CrntRgstns": [
        {
          "regAuth": 9,
          "regCat": 0,
          "st": 2,
          "stDt": "2015-12-02T00:00:00"
        }
      ],
      "BrnchOfLocs": [
        {
          "str1": "101 E KENNEDY BLVD",
          "str2": null,
          "city": "TAMPA",
          "state": 9,
          "stateSpecified": true,
          "cntry": "United States",
          "postlCd": "33602"
        },
        {
          "str1": "200 S BISCAYNE BLVD",
          "str2": "SOUTHEAST DIVISION",
          "city": "MIAMI",
          "state": 9,
          "stateSpecified": true,
          "cntry": "United States",
          "postlCd": "33131"
        }
      ],
      "orgNm": "MERRILL LYNCH, PIERCE, FENNER & SMITH INCORPORATED",
      "orgPK": "7691",
      "str1": "ONE BRYANT PARK",
      "str2": null,
      "city": "NEW YORK",
      "state": 35,
      "stateSpecified": true,
      "cntry": "United States",
      "postlCd": "10036"
    }
  ],
  "Exms": [
    {
      "exmCd": 3,
      "exmNm": "Uniform Combined State Law Examination",
      "exmDt": "2015-11-25T00:00:00",
      "exmDtSpecified": true
    }
  ],
  "Dsgntns": [],
  "PrevRgstns": [],
  "EmpHss": [
    {
      "fromDt": "08/2005",
      "toDt": null,
      "orgNm": "MERRILL LYNCH, PIERCE, FENNER & SMITH INCORPORATED",
      "city": "Tampa",
      "state": 9,
      "stateSpecified": true
    }
  ],
  "OthrBuss": {
    "OthrBus": null
  },
  "DRPs": []
}