{
  "Info": {
    "lastNm": "BENNETT",
    "firstNm": "TREVOR",
    "midNm": null,
    "sufNm": null,
    "indvlPK": "6547688",
    "actvAGReg": 0,
    "link": "http://www.adviserinfo.sec.gov/IAPD/Individual/6547688"
  },
  "OthrNms": [],
  "CrntEmps": [
    {
      "CrntRgstns": [
        {
          "regAuth": 9,
          "regCat": 0,
          "st": 2,
          "stDt": "2016-06-06T00:00:00"
        }
      ],
      "BrnchOfLocs": [
        {
          "str1": "225 WATER STREET",
          "str2": "SUITE 1235",
          "city": "JACKSONVILLE",
          "state": 9,
          "stateSpecified": true,
          "cntry": "United States",
          "postlCd": "32202"
        }
      ],
      "orgNm": "AXA ADVISORS, LLC",
      "orgPK": "6627",
      "str1": "1290 AVENUE OF THE AMERICAS",
      "str2": null,
      "city": "NEW YORK",
      "state": 35,
      "stateSpecified": true,
      "cntry": "United States",
      "postlCd": "10104"
    }
  ],
  "Exms": [
    {
      "exmCd": 3,
      "exmNm": "Uniform Combined State Law Examination",
      "exmDt": "2016-06-01T00:00:00",
      "exmDtSpecified": true
    }
  ],
  "Dsgntns": [],
  "PrevRgstns": [],
  "EmpHss": [
    {
      "fromDt": "08/2004",
      "toDt": "05/2007",
      "orgNm": "MOUNTVIEW MIDDLE SCHOOL",
      "city": "HOLDEN",
      "state": 20,
      "stateSpecified": true
    },
    {
      "fromDt": "08/2007",
      "toDt": "05/2011",
      "orgNm": "WACHUSETT REGIONAL HIGH SCHOOL",
      "city": "HOLDEN",
      "state": 20,
      "stateSpecified": true
    },
    {
      "fromDt": "08/2011",
      "toDt": "12/2014",
      "orgNm": "WORCESTER STATE UNIVERSITY",
      "city": "WORCESTER",
      "state": 20,
      "stateSpecified": true
    },
    {
      "fromDt": "01/2014",
      "toDt": "07/2014",
      "orgNm": "FAIRWAY INDEPENDENT MORTGAGE",
      "city": "AUBURN",
      "state": 20,
      "stateSpecified": true
    },
    {
      "fromDt": "07/2014",
      "toDt": "08/2014",
      "orgNm": "FAIRWAY INDEPENDENT MORTGAGE",
      "city": "SINGER ISLAND",
      "state": 9,
      "stateSpecified": true
    },
    {
      "fromDt": "09/2014",
      "toDt": "12/2014",
      "orgNm": "AMERICAN EQUITY MORTGAGE",
      "city": "JACKSONVILLE",
      "state": 9,
      "stateSpecified": true
    },
    {
      "fromDt": "03/2015",
      "toDt": "05/2015",
      "orgNm": "SHARP MORTGAGES",
      "city": "JACKSONVILLE",
      "state": 9,
      "stateSpecified": true
    },
    {
      "fromDt": "05/2015",
      "toDt": "10/2015",
      "orgNm": "CARBON CAPITAL MORTGAGE",
      "city": "JACKSONVILLE",
      "state": 9,
      "stateSpecified": true
    },
    {
      "fromDt": "05/2015",
      "toDt": "10/2015",
      "orgNm": "EXIT 1 STOP REALTY",
      "city": "JACKSONVILLE",
      "state": 9,
      "stateSpecified": true
    },
    {
      "fromDt": "10/2015",
      "toDt": null,
      "orgNm": "AXA ADVISORS, LLC.",
      "city": "NEW YORK",
      "state": 35,
      "stateSpecified": true
    }
  ],
  "OthrBuss": {
    "OthrBus": null
  },
  "DRPs": []
}