{
  "Info": {
    "lastNm": "STINE",
    "firstNm": "CHRISTIAN",
    "midNm": null,
    "sufNm": null,
    "indvlPK": "6547075",
    "actvAGReg": 0,
    "link": "http://www.adviserinfo.sec.gov/IAPD/Individual/6547075"
  },
  "OthrNms": [],
  "CrntEmps": [
    {
      "CrntRgstns": [
        {
          "regAuth": 32,
          "regCat": 0,
          "st": 2,
          "stDt": "2016-02-16T00:00:00"
        }
      ],
      "BrnchOfLocs": [
        {
          "str1": "90 WOODBRIDGE CENTER DRIVE",
          "str2": "7TH FLOOR",
          "city": "WOODBRIDGE",
          "state": 32,
          "stateSpecified": true,
          "cntry": "United States",
          "postlCd": "07095"
        }
      ],
      "orgNm": "AXA ADVISORS, LLC",
      "orgPK": "6627",
      "str1": "1290 AVENUE OF THE AMERICAS",
      "str2": null,
      "city": "NEW YORK",
      "state": 35,
      "stateSpecified": true,
      "cntry": "United States",
      "postlCd": "10104"
    }
  ],
  "Exms": [
    {
      "exmCd": 0,
      "exmNm": "Uniform Securities Agent State Law Examination",
      "exmDt": "2015-11-03T00:00:00",
      "exmDtSpecified": true
    },
    {
      "exmCd": 2,
      "exmNm": "Uniform Investment Adviser Law Examination",
      "exmDt": "2016-02-12T00:00:00",
      "exmDtSpecified": true
    }
  ],
  "Dsgntns": [],
  "PrevRgstns": [],
  "EmpHss": [
    {
      "fromDt": "09/2004",
      "toDt": "06/2008",
      "orgNm": "HADDON TWP HIGH SCHOOL",
      "city": "WESTMONT",
      "state": 32,
      "stateSpecified": true
    },
    {
      "fromDt": "08/2008",
      "toDt": "12/2013",
      "orgNm": "THE COLLEGE OF NJ",
      "city": "EWING",
      "state": 32,
      "stateSpecified": true
    },
    {
      "fromDt": "01/2014",
      "toDt": "08/2014",
      "orgNm": "UNEMPLOYED",
      "city": "BORDENTOWN",
      "state": 32,
      "stateSpecified": true
    },
    {
      "fromDt": "08/2014",
      "toDt": "06/2015",
      "orgNm": "MONROE TWP BOARD OF EDUCATION",
      "city": "MONROE",
      "state": 32,
      "stateSpecified": true
    },
    {
      "fromDt": "06/2015",
      "toDt": "08/2015",
      "orgNm": "UNEMPLOYED",
      "city": "BORDENTOWN",
      "state": 32,
      "stateSpecified": true
    },
    {
      "fromDt": "09/2015",
      "toDt": null,
      "orgNm": "AXA ADVISORS, LLC",
      "city": "NEW YORK",
      "state": 35,
      "stateSpecified": true
    }
  ],
  "OthrBuss": {
    "OthrBus": null
  },
  "DRPs": []
}