{
  "Info": {
    "lastNm": "STIBICH",
    "firstNm": "RYAN",
    "midNm": "MICHAEL",
    "sufNm": null,
    "indvlPK": "6548415",
    "actvAGReg": 1,
    "link": "http://www.adviserinfo.sec.gov/IAPD/Individual/6548415"
  },
  "OthrNms": [
    {
      "lastNm": "STIBICH",
      "firstNm": "RYAN",
      "midNm": null,
      "sufNm": null
    }
  ],
  "CrntEmps": [
    {
      "CrntRgstns": [
        {
          "regAuth": 5,
          "regCat": 0,
          "st": 2,
          "stDt": "2015-09-29T00:00:00"
        }
      ],
      "BrnchOfLocs": [
        {
          "str1": "1899 WYNKOOP STREET",
          "str2": "SUITE 315",
          "city": "DENVER",
          "state": 5,
          "stateSpecified": true,
          "cntry": "United States",
          "postlCd": "80202"
        }
      ],
      "orgNm": "SYNTRINSIC INVESTMENT COUNSEL, LLC.",
      "orgPK": "147978",
      "str1": "1899 WYNKOOP STREET",
      "str2": "SUITE 315",
      "city": "DENVER",
      "state": 5,
      "stateSpecified": true,
      "cntry": "United States",
      "postlCd": "80202"
    }
  ],
  "Exms": [
    {
      "exmCd": 2,
      "exmNm": "Uniform Investment Adviser Law Examination",
      "exmDt": "2015-09-29T00:00:00",
      "exmDtSpecified": true
    }
  ],
  "Dsgntns": [],
  "PrevRgstns": [],
  "EmpHss": [
    {
      "fromDt": "08/2005",
      "toDt": "09/2007",
      "orgNm": "SCHOOL",
      "city": "SHAMONG",
      "state": 32,
      "stateSpecified": true
    },
    {
      "fromDt": "10/2007",
      "toDt": "04/2011",
      "orgNm": "MEDFORD LAKES COUNTRY CLUB",
      "city": "MEDFORD LAKES",
      "state": 32,
      "stateSpecified": true
    },
    {
      "fromDt": "05/2011",
      "toDt": "02/2013",
      "orgNm": "LAKEHURST NAVAL BASE",
      "city": "LAKEHURST",
      "state": 32,
      "stateSpecified": true
    },
    {
      "fromDt": "03/2013",
      "toDt": "09/2013",
      "orgNm": "UNEMPLOYED",
      "city": "SHAMONG",
      "state": 32,
      "stateSpecified": true
    },
    {
      "fromDt": "10/2013",
      "toDt": "04/2015",
      "orgNm": "SEI INVESTMENT COMPANY",
      "city": "OAKS",
      "state": 39,
      "stateSpecified": true
    },
    {
      "fromDt": "05/2015",
      "toDt": "06/2015",
      "orgNm": "UNEMPLOYED",
      "city": "SHAMONG",
      "state": 32,
      "stateSpecified": true
    },
    {
      "fromDt": "07/2015",
      "toDt": null,
      "orgNm": "SYNTRINSIC INVESTMENT COUNCIL",
      "city": "DENVER",
      "state": 5,
      "stateSpecified": true
    }
  ],
  "OthrBuss": {
    "OthrBus": null
  },
  "DRPs": []
}