{
  "Info": {
    "lastNm": "KANAGAWA",
    "firstNm": "SAM",
    "midNm": "MAKOTO",
    "sufNm": null,
    "indvlPK": "6548857",
    "actvAGReg": 1,
    "link": "http://www.adviserinfo.sec.gov/IAPD/Individual/6548857"
  },
  "OthrNms": [],
  "CrntEmps": [
    {
      "CrntRgstns": [
        {
          "regAuth": 4,
          "regCat": 0,
          "st": 2,
          "stDt": "2015-11-16T00:00:00"
        }
      ],
      "BrnchOfLocs": [
        {
          "str1": "5619 SCOTTS VALLEY DR, SUITE 140",
          "str2": null,
          "city": "SCOTTS VALLEY",
          "state": 4,
          "stateSpecified": true,
          "cntry": "United States",
          "postlCd": "95066-3453"
        }
      ],
      "orgNm": "SCHARF INVESTMENTS, LLC",
      "orgPK": "105508",
      "str1": "5619 SCOTTS VALLEY DR, SUITE 140",
      "str2": null,
      "city": "SCOTTS VALLEY",
      "state": 4,
      "stateSpecified": true,
      "cntry": "United States",
      "postlCd": "95066-3453"
    }
  ],
  "Exms": [
    {
      "exmCd": 2,
      "exmNm": "Uniform Investment Adviser Law Examination",
      "exmDt": "2015-11-16T00:00:00",
      "exmDtSpecified": true
    }
  ],
  "Dsgntns": [],
  "PrevRgstns": [],
  "EmpHss": [
    {
      "fromDt": "09/2004",
      "toDt": "09/2007",
      "orgNm": "BRIDGEWATER-RARITAN MIDDLE SCHOOL",
      "city": "BRIDGEWATER",
      "state": 32,
      "stateSpecified": true
    },
    {
      "fromDt": "09/2007",
      "toDt": "09/2011",
      "orgNm": "FREMONT HIGH SCHOOL",
      "city": "SUNNYVALE",
      "state": 4,
      "stateSpecified": true
    },
    {
      "fromDt": "09/2011",
      "toDt": "06/2013",
      "orgNm": "UNIVERSITY OF CALIFORNIA SANTA CRUZ",
      "city": "SANTA CRUZ",
      "state": 4,
      "stateSpecified": true
    },
    {
      "fromDt": "06/2013",
      "toDt": "07/2014",
      "orgNm": "BEST BUY",
      "city": "SUNNYVALE",
      "state": 4,
      "stateSpecified": true
    },
    {
      "fromDt": "07/2014",
      "toDt": "10/2014",
      "orgNm": "GAP",
      "city": "SANTA CRUZ",
      "state": 4,
      "stateSpecified": true
    },
    {
      "fromDt": "07/2014",
      "toDt": "06/2015",
      "orgNm": "UNIVERSITY OF CALIFORNIA SANTA CRUZ",
      "city": "SANTA CRUZ",
      "state": 4,
      "stateSpecified": true
    }
  ],
  "OthrBuss": {
    "OthrBus": null
  },
  "DRPs": []
}