{
  "Info": {
    "lastNm": "SMITH",
    "firstNm": "MARY",
    "midNm": "FRANCES",
    "sufNm": null,
    "indvlPK": "6549921",
    "actvAGReg": 1,
    "link": "http://www.adviserinfo.sec.gov/IAPD/Individual/6549921"
  },
  "OthrNms": [],
  "CrntEmps": [
    {
      "CrntRgstns": [
        {
          "regAuth": 45,
          "regCat": 0,
          "st": 2,
          "stDt": "2015-10-28T00:00:00"
        }
      ],
      "BrnchOfLocs": [
        {
          "str1": null,
          "str2": null,
          "city": "DALLAS",
          "state": 45,
          "stateSpecified": true,
          "cntry": "United States",
          "postlCd": null
        }
      ],
      "orgNm": "PALAMAR WEALTH ADVISORS, LLC",
      "orgPK": "281338",
      "str1": null,
      "str2": null,
      "city": "DALLAS",
      "state": 45,
      "stateSpecified": true,
      "cntry": "United States",
      "postlCd": null
    }
  ],
  "Exms": [
    {
      "exmCd": 2,
      "exmNm": "Uniform Investment Adviser Law Examination",
      "exmDt": "2015-10-27T00:00:00",
      "exmDtSpecified": true
    }
  ],
  "Dsgntns": [],
  "PrevRgstns": [],
  "EmpHss": [
    {
      "fromDt": "08/2006",
      "toDt": "05/2007",
      "orgNm": "UMS-Wright Preparatory School",
      "city": "Mobile",
      "state": 1,
      "stateSpecified": true
    },
    {
      "fromDt": "08/2007",
      "toDt": "09/2011",
      "orgNm": "University of Alabama",
      "city": "Tuscaloosa",
      "state": 1,
      "stateSpecified": true
    },
    {
      "fromDt": "09/2011",
      "toDt": "04/2012",
      "orgNm": "Regions Bank",
      "city": "Atlanta",
      "state": 10,
      "stateSpecified": true
    },
    {
      "fromDt": "05/2012",
      "toDt": "10/2012",
      "orgNm": "Regions Bank",
      "city": "Atlanta",
      "state": 10,
      "stateSpecified": true
    },
    {
      "fromDt": "02/2013",
      "toDt": "03/2015",
      "orgNm": "First Republic Bank Private Wealth Management",
      "city": "Manhattan",
      "state": 35,
      "stateSpecified": true
    },
    {
      "fromDt": "03/2015",
      "toDt": "10/2015",
      "orgNm": "Unemployed",
      "city": "Dallas",
      "state": 45,
      "stateSpecified": true
    },
    {
      "fromDt": "10/2015",
      "toDt": null,
      "orgNm": "Palamar Wealth Advisors, LLC",
      "city": "Dallas",
      "state": 45,
      "stateSpecified": true
    }
  ],
  "OthrBuss": {
    "OthrBus": null
  },
  "DRPs": []
}