{
  "Info": {
    "lastNm": "GONYEAU",
    "firstNm": "MICHELLE",
    "midNm": "RYAN",
    "sufNm": null,
    "indvlPK": "6554872",
    "actvAGReg": 0,
    "link": "http://www.adviserinfo.sec.gov/IAPD/Individual/6554872"
  },
  "OthrNms": [
    {
      "lastNm": "GONYEAY",
      "firstNm": "MICHELLE",
      "midNm": "RYAN",
      "sufNm": null
    },
    {
      "lastNm": "RYAN",
      "firstNm": "MICHELLE",
      "midNm": "SHANNON",
      "sufNm": null
    }
  ],
  "CrntEmps": [
    {
      "CrntRgstns": [
        {
          "regAuth": 45,
          "regCat": 0,
          "st": 2,
          "stDt": "2016-02-19T00:00:00"
        }
      ],
      "BrnchOfLocs": [
        {
          "str1": "200 S COLLEGE ST",
          "str2": "8TH FL",
          "city": "CHARLOTTE",
          "state": 28,
          "stateSpecified": true,
          "cntry": "United States",
          "postlCd": "28202"
        },
        {
          "str1": "2001 ROSS AVE",
          "str2": "STE 100",
          "city": "DALLAS",
          "state": 45,
          "stateSpecified": true,
          "cntry": "United States",
          "postlCd": "75201"
        }
      ],
      "orgNm": "BB&T INVESTMENT SERVICES, INC.",
      "orgPK": "33856",
      "str1": "200 SOUTH COLLEGE STREET",
      "str2": "8TH FLOOR",
      "city": "CHARLOTTE",
      "state": 28,
      "stateSpecified": true,
      "cntry": "United States",
      "postlCd": "28202"
    }
  ],
  "Exms": [
    {
      "exmCd": 3,
      "exmNm": "Uniform Combined State Law Examination",
      "exmDt": "2016-02-17T00:00:00",
      "exmDtSpecified": true
    }
  ],
  "Dsgntns": [],
  "PrevRgstns": [],
  "EmpHss": [
    {
      "fromDt": "04/2003",
      "toDt": "05/2010",
      "orgNm": "CITIZENS BANK",
      "city": "BOSTON",
      "state": 20,
      "stateSpecified": true
    },
    {
      "fromDt": "05/2010",
      "toDt": "08/2012",
      "orgNm": "UNEMPLOYED",
      "city": "DALLAS",
      "state": 45,
      "stateSpecified": true
    },
    {
      "fromDt": "08/2012",
      "toDt": "08/2013",
      "orgNm": "CITIZEN BANK",
      "city": "CRANBERRY",
      "state": 45,
      "stateSpecified": true
    },
    {
      "fromDt": "08/2013",
      "toDt": "03/2015",
      "orgNm": "CITIBANK",
      "city": "DALLAS",
      "state": 45,
      "stateSpecified": true
    },
    {
      "fromDt": "03/2015",
      "toDt": "08/2015",
      "orgNm": "BB&T BANK",
      "city": "DALLAS",
      "state": 45,
      "stateSpecified": true
    },
    {
      "fromDt": "08/2015",
      "toDt": null,
      "orgNm": "BB&T BANK",
      "city": "DALLAS",
      "state": 45,
      "stateSpecified": true
    },
    {
      "fromDt": "08/2015",
      "toDt": null,
      "orgNm": "BBTIS",
      "city": "CHARLOTTE",
      "state": 28,
      "stateSpecified": true
    }
  ],
  "OthrBuss": {
    "OthrBus": null
  },
  "DRPs": []
}