{
  "Info": {
    "lastNm": "GRUETTER",
    "firstNm": "KEVIN",
    "midNm": "PAUL",
    "sufNm": null,
    "indvlPK": "6555505",
    "actvAGReg": 0,
    "link": "http://www.adviserinfo.sec.gov/IAPD/Individual/6555505"
  },
  "OthrNms": [],
  "CrntEmps": [
    {
      "CrntRgstns": [
        {
          "regAuth": 17,
          "regCat": 0,
          "st": 2,
          "stDt": "2015-11-12T00:00:00"
        }
      ],
      "BrnchOfLocs": [
        {
          "str1": "1861 N. ROCK RD.",
          "str2": "SUITE 100 AND 214",
          "city": "WICHITA",
          "state": 17,
          "stateSpecified": true,
          "cntry": "United States",
          "postlCd": "67206"
        }
      ],
      "orgNm": "WADDELL & REED",
      "orgPK": "866",
      "str1": "6300 LAMAR AVENUE",
      "str2": null,
      "city": "OVERLAND PARK",
      "state": 17,
      "stateSpecified": true,
      "cntry": "United States",
      "postlCd": "66202-4200"
    }
  ],
  "Exms": [
    {
      "exmCd": 3,
      "exmNm": "Uniform Combined State Law Examination",
      "exmDt": "2015-11-12T00:00:00",
      "exmDtSpecified": true
    }
  ],
  "Dsgntns": [],
  "PrevRgstns": [],
  "EmpHss": [
    {
      "fromDt": "06/2006",
      "toDt": "08/2007",
      "orgNm": "STAPLES",
      "city": "BRICK",
      "state": 32,
      "stateSpecified": true
    },
    {
      "fromDt": "08/2007",
      "toDt": "12/2015",
      "orgNm": "DERBY HIGH SCHOOL",
      "city": "DERBY",
      "state": 17,
      "stateSpecified": true
    },
    {
      "fromDt": "05/2011",
      "toDt": null,
      "orgNm": "ASCENSION LUTHERAN CHURCH",
      "city": "WICHITA",
      "state": 17,
      "stateSpecified": true
    },
    {
      "fromDt": "09/2015",
      "toDt": null,
      "orgNm": "WADDELL & REED, INC",
      "city": "WICHITA",
      "state": 17,
      "stateSpecified": true
    },
    {
      "fromDt": "01/2016",
      "toDt": null,
      "orgNm": "VARIOUS INSURANCE CARRIERS FOR W&R INSURANCE AGENCIES",
      "city": "WICHITA",
      "state": 17,
      "stateSpecified": true
    }
  ],
  "OthrBuss": {
    "OthrBus": {
      "desc": "05/2011-Present, Ascension Lutheran Church, Wichita, KS, Non-Investment Related, Coperation, Director Of Worship, 40 Hrs/ Month, 0 Sec Trading Hrs.   01/2016-Present, Various Insurance Carriers For W&R Insurance Agencies,  Wichita, KS, Inv-Related, Insurance Sales, Insurance Agent."
    }
  },
  "DRPs": []
}