{
  "Info": {
    "lastNm": "Gellman",
    "firstNm": "William",
    "midNm": "Arthur",
    "sufNm": null,
    "indvlPK": "6556081",
    "actvAGReg": 0,
    "link": "http://www.adviserinfo.sec.gov/IAPD/Individual/6556081"
  },
  "OthrNms": [],
  "CrntEmps": [
    {
      "CrntRgstns": [
        {
          "regAuth": 39,
          "regCat": 0,
          "st": 2,
          "stDt": "2016-06-10T00:00:00"
        }
      ],
      "BrnchOfLocs": [
        {
          "str1": "101 NORTH POINT BOULEVARD",
          "str2": null,
          "city": "LANCASTER",
          "state": 39,
          "stateSpecified": true,
          "cntry": "United States",
          "postlCd": "17601"
        }
      ],
      "orgNm": "PNC INVESTMENTS",
      "orgPK": "129052",
      "str1": "300 FIFTH AVENUE",
      "str2": "26TH FLOOR",
      "city": "PITTSBURGH",
      "state": 39,
      "stateSpecified": true,
      "cntry": "United States",
      "postlCd": "15222-2722"
    }
  ],
  "Exms": [
    {
      "exmCd": 3,
      "exmNm": "Uniform Combined State Law Examination",
      "exmDt": "2015-11-20T00:00:00",
      "exmDtSpecified": true
    }
  ],
  "Dsgntns": [],
  "PrevRgstns": [
    {
      "BrnchOfLocs": [
        {
          "city": "ST LOUIS",
          "state": 25,
          "stateSpecified": true
        },
        {
          "city": "YORK",
          "state": 39,
          "stateSpecified": true
        },
        {
          "city": "YORK",
          "state": 39,
          "stateSpecified": true
        },
        {
          "city": "YORK",
          "state": 39,
          "stateSpecified": true
        }
      ],
      "orgNm": "EDWARD JONES",
      "orgPK": "250",
      "regBeginDt": "2016-03-01T00:00:00",
      "regBeginDtSpecified": true,
      "regEndDt": "2016-04-05T00:00:00",
      "regEndDtSpecified": true
    }
  ],
  "EmpHss": [
    {
      "fromDt": "07/1996",
      "toDt": "06/2008",
      "orgNm": "The Kinkaid School",
      "city": "Houston",
      "state": 45,
      "stateSpecified": true
    },
    {
      "fromDt": "06/2008",
      "toDt": "08/2011",
      "orgNm": "Sewickley Academy",
      "city": "Sewickley",
      "state": 39,
      "stateSpecified": true
    },
    {
      "fromDt": "08/2011",
      "toDt": "01/2012",
      "orgNm": "Unemployed",
      "city": "York",
      "state": 39,
      "stateSpecified": true
    },
    {
      "fromDt": "01/2012",
      "toDt": "10/2015",
      "orgNm": "First Presbyterian Church",
      "city": "York",
      "state": 39,
      "stateSpecified": true
    },
    {
      "fromDt": "09/2015",
      "toDt": "04/2016",
      "orgNm": "Edward Jones",
      "city": "Saint Louis",
      "state": 25,
      "stateSpecified": true
    },
    {
      "fromDt": "05/2016",
      "toDt": null,
      "orgNm": "PNC Bank, NA",
      "city": "Lancaster",
      "state": 39,
      "stateSpecified": true
    },
    {
      "fromDt": "05/2016",
      "toDt": null,
      "orgNm": "PNC Investments, LLC",
      "city": "Pittsburgh",
      "state": 39,
      "stateSpecified": true
    }
  ],
  "OthrBuss": {
    "OthrBus": {
      "desc": "I am an Instructor for the Pennsylvania Motorcycle Safety Program (PAMSP). This position is seasonal (April to October) and part-time. The bulk of the work occurs on weekends (from 8:00AM - 1:00PM or 1:30PM - 6:30PM); I work approximately 10-20 hours/month during the season. None of the work occurs during typical securities trading hours. I began working in this capacity after I received the appropriate training and certification in October 2014. The PAMSP is based in Harrisburg, PA and the office contact information is: Pennsylvania Motorcycle Safety Program, 1101 South Front Street, Harrisburg, PA 17106 / Telephone: (800) 874-8900"
    }
  },
  "DRPs": []
}