{
  "Info": {
    "lastNm": "Praytor",
    "firstNm": "Carissa",
    "midNm": "Schau",
    "sufNm": null,
    "indvlPK": "6560745",
    "actvAGReg": 1,
    "link": "http://www.adviserinfo.sec.gov/IAPD/Individual/6560745"
  },
  "OthrNms": [
    {
      "lastNm": "Praytor",
      "firstNm": "Carissa",
      "midNm": null,
      "sufNm": null
    },
    {
      "lastNm": "Schau",
      "firstNm": "Carissa",
      "midNm": "Dawn",
      "sufNm": null
    }
  ],
  "CrntEmps": [
    {
      "CrntRgstns": [
        {
          "regAuth": 28,
          "regCat": 0,
          "st": 2,
          "stDt": "2015-11-09T00:00:00"
        },
        {
          "regAuth": 9,
          "regCat": 0,
          "st": 2,
          "stDt": "2016-01-20T00:00:00"
        }
      ],
      "BrnchOfLocs": [
        {
          "str1": "10 ENCOMPASS PLAZA",
          "str2": null,
          "city": "BREVARD",
          "state": 28,
          "stateSpecified": true,
          "cntry": "United States",
          "postlCd": "28712"
        }
      ],
      "orgNm": "ENCOMPASS ADVISORS, LTD.",
      "orgPK": "130857",
      "str1": "10 ENCOMPASS PLAZA",
      "str2": null,
      "city": "BREVARD",
      "state": 28,
      "stateSpecified": true,
      "cntry": "United States",
      "postlCd": "28712"
    }
  ],
  "Exms": [
    {
      "exmCd": 2,
      "exmNm": "Uniform Investment Adviser Law Examination",
      "exmDt": "2015-11-09T00:00:00",
      "exmDtSpecified": true
    }
  ],
  "Dsgntns": [],
  "PrevRgstns": [],
  "EmpHss": [
    {
      "fromDt": "05/2005",
      "toDt": "08/2008",
      "orgNm": "Brevard Family Practice",
      "city": "Brevard",
      "state": 28,
      "stateSpecified": true
    },
    {
      "fromDt": "08/2008",
      "toDt": "07/2015",
      "orgNm": "Pineiro Family Practice, PLLC",
      "city": "Brevard",
      "state": 28,
      "stateSpecified": true
    },
    {
      "fromDt": "07/2015",
      "toDt": null,
      "orgNm": "Encompass Advisors",
      "city": "Brevard",
      "state": 28,
      "stateSpecified": true
    }
  ],
  "OthrBuss": {
    "OthrBus": null
  },
  "DRPs": []
}