{
  "Info": {
    "lastNm": "Unruh",
    "firstNm": "Anthony",
    "midNm": "Joseph",
    "sufNm": null,
    "indvlPK": "6563733",
    "actvAGReg": 0,
    "link": "http://www.adviserinfo.sec.gov/IAPD/Individual/6563733"
  },
  "OthrNms": [],
  "CrntEmps": [
    {
      "CrntRgstns": [
        {
          "regAuth": 15,
          "regCat": 0,
          "st": 2,
          "stDt": "2015-12-01T00:00:00"
        }
      ],
      "BrnchOfLocs": [
        {
          "str1": "ONE NORTH WACKER DRIVE",
          "str2": "STE 37",
          "city": "CHICAGO",
          "state": 15,
          "stateSpecified": true,
          "cntry": "United States",
          "postlCd": "60606"
        }
      ],
      "orgNm": "UBS FINANCIAL SERVICES INC.",
      "orgPK": "8174",
      "str1": "1200 HARBOR BOULEVARD",
      "str2": null,
      "city": "WEEHAWKEN",
      "state": 32,
      "stateSpecified": true,
      "cntry": "United States",
      "postlCd": "07086"
    }
  ],
  "Exms": [
    {
      "exmCd": 3,
      "exmNm": "Uniform Combined State Law Examination",
      "exmDt": "2015-12-01T00:00:00",
      "exmDtSpecified": true
    }
  ],
  "Dsgntns": [],
  "PrevRgstns": [],
  "EmpHss": [
    {
      "fromDt": "07/2003",
      "toDt": "08/2007",
      "orgNm": "Lake Forest High School",
      "city": "Lake Forest",
      "state": 15,
      "stateSpecified": true
    },
    {
      "fromDt": "08/2007",
      "toDt": "08/2011",
      "orgNm": "The University of Iowa",
      "city": "Iowa City",
      "state": 13,
      "stateSpecified": true
    },
    {
      "fromDt": "08/2011",
      "toDt": "03/2012",
      "orgNm": "Emmi Solutions",
      "city": "Chicago",
      "state": 15,
      "stateSpecified": true
    },
    {
      "fromDt": "04/2012",
      "toDt": "07/2014",
      "orgNm": "Northern Trust Hedge Fund Services",
      "city": "Chicago",
      "state": 15,
      "stateSpecified": true
    },
    {
      "fromDt": "08/2014",
      "toDt": "09/2015",
      "orgNm": "Northern Trust",
      "city": "Chicago",
      "state": 15,
      "stateSpecified": true
    },
    {
      "fromDt": "10/2015",
      "toDt": null,
      "orgNm": "UBS",
      "city": "Chicago",
      "state": 15,
      "stateSpecified": true
    }
  ],
  "OthrBuss": {
    "OthrBus": null
  },
  "DRPs": []
}