{
  "Info": {
    "lastNm": "Prescott",
    "firstNm": "Matthew",
    "midNm": null,
    "sufNm": null,
    "indvlPK": "6564523",
    "actvAGReg": 0,
    "link": "http://www.adviserinfo.sec.gov/IAPD/Individual/6564523"
  },
  "OthrNms": [],
  "CrntEmps": [
    {
      "CrntRgstns": [
        {
          "regAuth": 6,
          "regCat": 0,
          "st": 2,
          "stDt": "2016-02-02T00:00:00"
        }
      ],
      "BrnchOfLocs": [
        {
          "str1": "45 WILLIAM ST",
          "str2": null,
          "city": "WELLESLEY HILLS",
          "state": 20,
          "stateSpecified": true,
          "cntry": "United States",
          "postlCd": "02481"
        }
      ],
      "orgNm": "MERRILL LYNCH, PIERCE, FENNER & SMITH INCORPORATED",
      "orgPK": "7691",
      "str1": "ONE BRYANT PARK",
      "str2": null,
      "city": "NEW YORK",
      "state": 35,
      "stateSpecified": true,
      "cntry": "United States",
      "postlCd": "10036"
    }
  ],
  "Exms": [
    {
      "exmCd": 3,
      "exmNm": "Uniform Combined State Law Examination",
      "exmDt": "2016-01-30T00:00:00",
      "exmDtSpecified": true
    }
  ],
  "Dsgntns": [],
  "PrevRgstns": [],
  "EmpHss": [
    {
      "fromDt": "09/2005",
      "toDt": "08/2011",
      "orgNm": "unemployed",
      "city": "Dover",
      "state": 20,
      "stateSpecified": true
    },
    {
      "fromDt": "08/2011",
      "toDt": "05/2015",
      "orgNm": "Saint Michael's College",
      "city": "Colchester",
      "state": 48,
      "stateSpecified": true
    },
    {
      "fromDt": "06/2012",
      "toDt": "08/2012",
      "orgNm": "Wellesley Country Club",
      "city": "Wellesley",
      "state": 20,
      "stateSpecified": true
    },
    {
      "fromDt": "06/2013",
      "toDt": "08/2013",
      "orgNm": "Wellesley Country Club",
      "city": "Wellesley",
      "state": 20,
      "stateSpecified": true
    },
    {
      "fromDt": "06/2014",
      "toDt": "09/2014",
      "orgNm": "Massachusetts Technology Collaborative",
      "city": "Westborough",
      "state": 20,
      "stateSpecified": true
    },
    {
      "fromDt": "06/2015",
      "toDt": "08/2015",
      "orgNm": "Saint Michael's College",
      "city": "Colchester",
      "state": 48,
      "stateSpecified": true
    },
    {
      "fromDt": "09/2015",
      "toDt": null,
      "orgNm": "MERRILL LYNCH, PIERCE, FENNER & SMITH INCORPORATED",
      "city": "WELLESLEY HILLS",
      "state": 20,
      "stateSpecified": true
    },
    {
      "fromDt": "12/2015",
      "toDt": null,
      "orgNm": "BANK OF AMERICA, N.A.",
      "city": "WELLESLEY HILLS",
      "state": 20,
      "stateSpecified": true
    }
  ],
  "OthrBuss": {
    "OthrBus": null
  },
  "DRPs": []
}