{
  "Info": {
    "lastNm": "BRIGHT",
    "firstNm": "JUSTIN",
    "midNm": "DEAN",
    "sufNm": null,
    "indvlPK": "6569627",
    "actvAGReg": 0,
    "link": "http://www.adviserinfo.sec.gov/IAPD/Individual/6569627"
  },
  "OthrNms": [],
  "CrntEmps": [
    {
      "CrntRgstns": [
        {
          "regAuth": 50,
          "regCat": 0,
          "st": 2,
          "stDt": "2016-06-23T00:00:00"
        }
      ],
      "BrnchOfLocs": [
        {
          "str1": "4703 E CAMP LOWELL DR",
          "str2": "SUITE 135",
          "city": "TUCSON",
          "state": 3,
          "stateSpecified": true,
          "cntry": "United States",
          "postlCd": "85712"
        }
      ],
      "orgNm": "WADDELL & REED",
      "orgPK": "866",
      "str1": "6300 LAMAR AVENUE",
      "str2": null,
      "city": "OVERLAND PARK",
      "state": 17,
      "stateSpecified": true,
      "cntry": "United States",
      "postlCd": "66202-4200"
    }
  ],
  "Exms": [
    {
      "exmCd": 3,
      "exmNm": "Uniform Combined State Law Examination",
      "exmDt": "2016-03-07T00:00:00",
      "exmDtSpecified": true
    }
  ],
  "Dsgntns": [],
  "PrevRgstns": [],
  "EmpHss": [
    {
      "fromDt": "03/2005",
      "toDt": "07/2009",
      "orgNm": "STUDENT",
      "city": "DUNCAN",
      "state": 42,
      "stateSpecified": true
    },
    {
      "fromDt": "07/2009",
      "toDt": null,
      "orgNm": "STUDENT",
      "city": "TALLAHASSEE",
      "state": 9,
      "stateSpecified": true
    },
    {
      "fromDt": "10/2015",
      "toDt": null,
      "orgNm": "WADDELL & REED INC",
      "city": "TUCSON",
      "state": 3,
      "stateSpecified": true
    },
    {
      "fromDt": "04/2016",
      "toDt": null,
      "orgNm": "VARIOUS INSURANCE CARRIERS FOR W&R INSURANCE AGENCIES",
      "city": "TUCSON",
      "state": 3,
      "stateSpecified": true
    }
  ],
  "OthrBuss": {
    "OthrBus": {
      "desc": "4/2016-PRESENT, VARIOUS INSURANCE CARRIERS FOR W&R INSURANCE AGENCIES, TUCSON, AZ, INV-RELATED, INSURANCE SALES, INSURANCE AGENT."
    }
  },
  "DRPs": []
}