{
  "Info": {
    "lastNm": "CHAO",
    "firstNm": "JOSHUA",
    "midNm": "DASILVA",
    "sufNm": null,
    "indvlPK": "6573500",
    "actvAGReg": 0,
    "link": "http://www.adviserinfo.sec.gov/IAPD/Individual/6573500"
  },
  "OthrNms": [
    {
      "lastNm": "CHAO",
      "firstNm": "JOSHUA",
      "midNm": null,
      "sufNm": null
    }
  ],
  "CrntEmps": [
    {
      "CrntRgstns": [
        {
          "regAuth": 20,
          "regCat": 0,
          "st": 2,
          "stDt": "2016-06-27T00:00:00"
        }
      ],
      "BrnchOfLocs": [
        {
          "str1": "TWO INTERNATIONAL PLACE",
          "str2": null,
          "city": "BOSTON",
          "state": 20,
          "stateSpecified": true,
          "cntry": "United States",
          "postlCd": "02110"
        }
      ],
      "orgNm": "EATON VANCE MANAGEMENT",
      "orgPK": "104859",
      "str1": "TWO INTERNATIONAL PLACE",
      "str2": null,
      "city": "BOSTON",
      "state": 20,
      "stateSpecified": true,
      "cntry": "United States",
      "postlCd": "02110"
    }
  ],
  "Exms": [
    {
      "exmCd": 3,
      "exmNm": "Uniform Combined State Law Examination",
      "exmDt": "2016-06-09T00:00:00",
      "exmDtSpecified": true
    }
  ],
  "Dsgntns": [],
  "PrevRgstns": [],
  "EmpHss": [
    {
      "fromDt": "09/1998",
      "toDt": "05/2015",
      "orgNm": "Full-Time Education",
      "city": "New Bedford",
      "state": 20,
      "stateSpecified": true
    },
    {
      "fromDt": "06/2012",
      "toDt": "08/2015",
      "orgNm": "Cafe Europa",
      "city": "New Bedford",
      "state": 20,
      "stateSpecified": true
    },
    {
      "fromDt": "08/2015",
      "toDt": "10/2015",
      "orgNm": "World Class Distribution, Inc.",
      "city": "Middleboro",
      "state": 20,
      "stateSpecified": true
    },
    {
      "fromDt": "11/2015",
      "toDt": null,
      "orgNm": "EATON VANCE DISTRIBUTORS, INC.",
      "city": "BOSTON",
      "state": 20,
      "stateSpecified": true
    },
    {
      "fromDt": "11/2015",
      "toDt": null,
      "orgNm": "EATON VANCE MANAGEMENT",
      "city": "BOSTON",
      "state": 20,
      "stateSpecified": true
    }
  ],
  "OthrBuss": {
    "OthrBus": null
  },
  "DRPs": []
}