{
  "Info": {
    "lastNm": "Sawusch",
    "firstNm": "Pamela",
    "midNm": "Suzanne",
    "sufNm": null,
    "indvlPK": "6574496",
    "actvAGReg": 1,
    "link": "http://www.adviserinfo.sec.gov/IAPD/Individual/6574496"
  },
  "OthrNms": [
    {
      "lastNm": "Riemenschneider",
      "firstNm": "Pamela",
      "midNm": "Suzanne",
      "sufNm": null
    }
  ],
  "CrntEmps": [
    {
      "CrntRgstns": [
        {
          "regAuth": 9,
          "regCat": 0,
          "st": 2,
          "stDt": "2015-11-30T00:00:00"
        }
      ],
      "BrnchOfLocs": [
        {
          "str1": "501 NORTH CATTLEMEN ROAD",
          "str2": "SUITE 106",
          "city": "SARASOTA",
          "state": 9,
          "stateSpecified": true,
          "cntry": "United States",
          "postlCd": "34232"
        }
      ],
      "orgNm": "GLOBAL FINANCIAL PRIVATE CAPITAL, LLC",
      "orgPK": "132070",
      "str1": "501 NORTH CATTLEMEN ROAD",
      "str2": "SUITE 106",
      "city": "SARASOTA",
      "state": 9,
      "stateSpecified": true,
      "cntry": "United States",
      "postlCd": "34232"
    }
  ],
  "Exms": [
    {
      "exmCd": 2,
      "exmNm": "Uniform Investment Adviser Law Examination",
      "exmDt": "2015-11-19T00:00:00",
      "exmDtSpecified": true
    }
  ],
  "Dsgntns": [],
  "PrevRgstns": [],
  "EmpHss": [
    {
      "fromDt": "05/2005",
      "toDt": "05/2012",
      "orgNm": "Student",
      "city": "Fort Collins/Berthoud",
      "state": 5,
      "stateSpecified": true
    },
    {
      "fromDt": "04/2008",
      "toDt": "05/2013",
      "orgNm": "Ten-Key Accounting",
      "city": "Berthoud",
      "state": 5,
      "stateSpecified": true
    },
    {
      "fromDt": "06/2008",
      "toDt": "09/2009",
      "orgNm": "Lazer Traxx Laser Tag",
      "city": "Loveland",
      "state": 5,
      "stateSpecified": true
    },
    {
      "fromDt": "01/2011",
      "toDt": "06/2011",
      "orgNm": "Walgreens, Inc.",
      "city": "Fort Collins",
      "state": 5,
      "stateSpecified": true
    },
    {
      "fromDt": "05/2011",
      "toDt": "07/2014",
      "orgNm": "City of Fort Collins",
      "city": "Fort Collins",
      "state": 5,
      "stateSpecified": true
    },
    {
      "fromDt": "08/2012",
      "toDt": "05/2014",
      "orgNm": "Major Asbestas Control, Inc.",
      "city": "Berthoud",
      "state": 5,
      "stateSpecified": true
    },
    {
      "fromDt": "07/2013",
      "toDt": null,
      "orgNm": "PR Weddings & Designs",
      "city": "Fort Collins",
      "state": 9,
      "stateSpecified": true
    },
    {
      "fromDt": "11/2014",
      "toDt": null,
      "orgNm": "Global Financial Private Capital",
      "city": "Sarasota",
      "state": 9,
      "stateSpecified": true
    }
  ],
  "OthrBuss": {
    "OthrBus": {
      "desc": "PR WEDDINGS & DESIGNS, LLC, OBA WIRE WEDDINGS; NON-INVESTMENT RELATED; 99 SIOUX DR., BERTHOUD, CO 80513; WEDDING PLANNING/PRODUCTS; POSITION: PRESIDENT; STARTED 07/2013; TIME DEVOTED PER MONTH: 2 HOURS, 0 HOURS DURING SECURITIES TRADING HOURS; DUTIES ARE MANAGE ANY ONLINE ORDERS, EMAIL CUSTOMERS AND FORWARD ORDERS TO MY PRODUCTION TEAM."
    }
  },
  "DRPs": []
}