{
  "Info": {
    "lastNm": "Ayala",
    "firstNm": "Florencio",
    "midNm": "Gregorio",
    "sufNm": null,
    "indvlPK": "6575741",
    "actvAGReg": 0,
    "link": "http://www.adviserinfo.sec.gov/IAPD/Individual/6575741"
  },
  "OthrNms": [],
  "CrntEmps": [
    {
      "CrntRgstns": [
        {
          "regAuth": 4,
          "regCat": 0,
          "st": 2,
          "stDt": "2016-04-22T00:00:00"
        }
      ],
      "BrnchOfLocs": [
        {
          "str1": "5855 TOPANGA CANYON BLVD",
          "str2": null,
          "city": "WOODLAND HILLS",
          "state": 4,
          "stateSpecified": true,
          "cntry": "United States",
          "postlCd": "91367"
        }
      ],
      "orgNm": "THRIVENT INVESTMENT MANAGEMENT INC.",
      "orgPK": "18387",
      "str1": "625 FOURTH AVENUE SOUTH",
      "str2": null,
      "city": "MINNEAPOLIS",
      "state": 24,
      "stateSpecified": true,
      "cntry": "United States",
      "postlCd": "55415-1665"
    }
  ],
  "Exms": [
    {
      "exmCd": 3,
      "exmNm": "Uniform Combined State Law Examination",
      "exmDt": "2016-04-21T00:00:00",
      "exmDtSpecified": true
    }
  ],
  "Dsgntns": [],
  "PrevRgstns": [],
  "EmpHss": [
    {
      "fromDt": "07/2006",
      "toDt": "12/2006",
      "orgNm": "Big 5 Sporting Goods",
      "city": "Vista",
      "state": 4,
      "stateSpecified": true
    },
    {
      "fromDt": "01/2007",
      "toDt": "07/2007",
      "orgNm": "J&S Excavating",
      "city": "Ventura",
      "state": 4,
      "stateSpecified": true
    },
    {
      "fromDt": "07/2007",
      "toDt": "05/2012",
      "orgNm": "Cappuccini Club",
      "city": "Camarillo",
      "state": 4,
      "stateSpecified": true
    },
    {
      "fromDt": "07/2008",
      "toDt": "11/2015",
      "orgNm": "Griffin Lotz & Holzman",
      "city": "Woodland Hills",
      "state": 4,
      "stateSpecified": true
    },
    {
      "fromDt": "12/2015",
      "toDt": null,
      "orgNm": "Thrivent Investment Management Inc",
      "city": "Woodland Hills",
      "state": 4,
      "stateSpecified": true
    },
    {
      "fromDt": "05/2016",
      "toDt": "07/2016",
      "orgNm": "Thrivent Financial",
      "city": "Appleton",
      "state": 50,
      "stateSpecified": true
    },
    {
      "fromDt": "07/2016",
      "toDt": null,
      "orgNm": "Thrivent Financial",
      "city": "Appleton",
      "state": 50,
      "stateSpecified": true
    }
  ],
  "OthrBuss": {
    "OthrBus": null
  },
  "DRPs": []
}