{
  "Info": {
    "lastNm": "Weidner",
    "firstNm": "David",
    "midNm": null,
    "sufNm": null,
    "indvlPK": "6582274",
    "actvAGReg": 0,
    "link": "http://www.adviserinfo.sec.gov/IAPD/Individual/6582274"
  },
  "OthrNms": [],
  "CrntEmps": [
    {
      "CrntRgstns": [
        {
          "regAuth": 9,
          "regCat": 0,
          "st": 2,
          "stDt": "2016-01-19T00:00:00"
        }
      ],
      "BrnchOfLocs": [
        {
          "str1": "4890 WEST KENNEDY BLVD",
          "str2": "SUITE 700",
          "city": "TAMPA",
          "state": 9,
          "stateSpecified": true,
          "cntry": "United States",
          "postlCd": "33609"
        }
      ],
      "orgNm": "MORGAN STANLEY",
      "orgPK": "149777",
      "str1": "2000 WESTCHESTER AVENUE",
      "str2": null,
      "city": "PURCHASE",
      "state": 35,
      "stateSpecified": true,
      "cntry": "United States",
      "postlCd": "10577-2530"
    }
  ],
  "Exms": [
    {
      "exmCd": 3,
      "exmNm": "Uniform Combined State Law Examination",
      "exmDt": "2016-01-15T00:00:00",
      "exmDtSpecified": true
    }
  ],
  "Dsgntns": [],
  "PrevRgstns": [],
  "EmpHss": [
    {
      "fromDt": "02/1999",
      "toDt": "09/2007",
      "orgNm": "AmerisourceBergen Company",
      "city": "Tampa",
      "state": 9,
      "stateSpecified": true
    },
    {
      "fromDt": "10/2007",
      "toDt": "02/2008",
      "orgNm": "Universal Health Services, Inc.",
      "city": "St Petersburg",
      "state": 9,
      "stateSpecified": true
    },
    {
      "fromDt": "03/2008",
      "toDt": "07/2012",
      "orgNm": "Consulate Management Company",
      "city": "Orlando",
      "state": 9,
      "stateSpecified": true
    },
    {
      "fromDt": "08/2012",
      "toDt": "12/2012",
      "orgNm": "Unemployed",
      "city": "Tampa",
      "state": 9,
      "stateSpecified": true
    },
    {
      "fromDt": "01/2013",
      "toDt": "04/2015",
      "orgNm": "Salveo Specialty Pharmacy, Inc.",
      "city": "St Petersburg",
      "state": 9,
      "stateSpecified": true
    },
    {
      "fromDt": "05/2015",
      "toDt": "10/2015",
      "orgNm": "Unemployed",
      "city": "Tampa",
      "state": 9,
      "stateSpecified": true
    },
    {
      "fromDt": "11/2015",
      "toDt": null,
      "orgNm": "Morgan Stanley Smith Barney LLC",
      "city": "Tampa",
      "state": 9,
      "stateSpecified": true
    },
    {
      "fromDt": "01/2016",
      "toDt": null,
      "orgNm": "Morgan Stanley Private Bank, National Association",
      "city": "New York",
      "state": 35,
      "stateSpecified": true
    }
  ],
  "OthrBuss": {
    "OthrBus": null
  },
  "DRPs": []
}