{
  "Info": {
    "lastNm": "MEYERS",
    "firstNm": "MATTHEW",
    "midNm": "DAVID",
    "sufNm": null,
    "indvlPK": "6582758",
    "actvAGReg": 0,
    "link": "http://www.adviserinfo.sec.gov/IAPD/Individual/6582758"
  },
  "OthrNms": [
    {
      "lastNm": "MEYERS",
      "firstNm": "MATTHEW",
      "midNm": null,
      "sufNm": null
    }
  ],
  "CrntEmps": [
    {
      "CrntRgstns": [
        {
          "regAuth": 36,
          "regCat": 0,
          "st": 2,
          "stDt": "2016-02-16T00:00:00"
        },
        {
          "regAuth": 45,
          "regCat": 0,
          "st": 2,
          "stDt": "2016-04-20T00:00:00"
        }
      ],
      "BrnchOfLocs": [
        {
          "str1": "4100 HORIZONS DR STE 202",
          "str2": null,
          "city": "COLUMBUS",
          "state": 36,
          "stateSpecified": true,
          "cntry": "United States",
          "postlCd": "43220"
        }
      ],
      "orgNm": "WELLS FARGO ADVISORS, LLC",
      "orgPK": "19616",
      "str1": "ONE NORTH JEFFERSON AVENUE",
      "str2": "MAIL CODE: H0004-050",
      "city": "ST. LOUIS",
      "state": 25,
      "stateSpecified": true,
      "cntry": "United States",
      "postlCd": "63103-2205"
    }
  ],
  "Exms": [
    {
      "exmCd": 3,
      "exmNm": "Uniform Combined State Law Examination",
      "exmDt": "2016-02-12T00:00:00",
      "exmDtSpecified": true
    }
  ],
  "Dsgntns": [],
  "PrevRgstns": [],
  "EmpHss": [
    {
      "fromDt": "08/2005",
      "toDt": "06/2009",
      "orgNm": "Full-time Education at St. Charles Preparatory High School",
      "city": "Columbus",
      "state": 36,
      "stateSpecified": true
    },
    {
      "fromDt": "09/2009",
      "toDt": "05/2013",
      "orgNm": "Full-time Education at The Ohio State University",
      "city": "Columbus",
      "state": 36,
      "stateSpecified": true
    },
    {
      "fromDt": "05/2013",
      "toDt": "10/2013",
      "orgNm": "Unemployed",
      "city": "Columbus",
      "state": 36,
      "stateSpecified": true
    },
    {
      "fromDt": "10/2013",
      "toDt": "11/2015",
      "orgNm": "Ernst and Young",
      "city": "Grandview Heights",
      "state": 36,
      "stateSpecified": true
    },
    {
      "fromDt": "11/2015",
      "toDt": null,
      "orgNm": "WELLS FARGO ADVISORS LLC",
      "city": "COLUMBUS",
      "state": 36,
      "stateSpecified": true
    }
  ],
  "OthrBuss": {
    "OthrBus": null
  },
  "DRPs": []
}