{
  "Info": {
    "lastNm": "Jacks",
    "firstNm": "Christina",
    "midNm": "A",
    "sufNm": null,
    "indvlPK": "6586618",
    "actvAGReg": 0,
    "link": "http://www.adviserinfo.sec.gov/IAPD/Individual/6586618"
  },
  "OthrNms": [
    {
      "lastNm": "Jacks",
      "firstNm": "Christina",
      "midNm": "Ann",
      "sufNm": null
    },
    {
      "lastNm": "Kleinheksel",
      "firstNm": "Christina",
      "midNm": "Ann",
      "sufNm": null
    }
  ],
  "CrntEmps": [
    {
      "CrntRgstns": [
        {
          "regAuth": 16,
          "regCat": 0,
          "st": 2,
          "stDt": "2016-04-01T00:00:00"
        }
      ],
      "BrnchOfLocs": [
        {
          "str1": "41 THE MEADOWS",
          "str2": "MEADOWS SHOPPING CENTER",
          "city": "TERRE HAUTE",
          "state": 16,
          "stateSpecified": true,
          "cntry": "United States",
          "postlCd": "47803"
        }
      ],
      "orgNm": "EDWARD JONES",
      "orgPK": "250",
      "str1": "12555 MANCHESTER RD",
      "str2": null,
      "city": "ST. LOUIS",
      "state": 25,
      "stateSpecified": true,
      "cntry": "United States",
      "postlCd": "63131"
    }
  ],
  "Exms": [
    {
      "exmCd": 3,
      "exmNm": "Uniform Combined State Law Examination",
      "exmDt": "2016-02-08T00:00:00",
      "exmDtSpecified": true
    }
  ],
  "Dsgntns": [],
  "PrevRgstns": [],
  "EmpHss": [
    {
      "fromDt": "08/2003",
      "toDt": "11/2015",
      "orgNm": "Turkey Run School Corporation",
      "city": "Marshall",
      "state": 16,
      "stateSpecified": true
    },
    {
      "fromDt": "04/2005",
      "toDt": "02/2007",
      "orgNm": "Pampered Chef",
      "city": "Bloomingdale",
      "state": 16,
      "stateSpecified": true
    },
    {
      "fromDt": "12/2015",
      "toDt": null,
      "orgNm": "EDWARD JONES",
      "city": "St. Louis",
      "state": 25,
      "stateSpecified": true
    }
  ],
  "OthrBuss": {
    "OthrBus": null
  },
  "DRPs": []
}