{
  "Info": {
    "lastNm": "HART",
    "firstNm": "KELLY",
    "midNm": "MARIE",
    "sufNm": null,
    "indvlPK": "6586870",
    "actvAGReg": 0,
    "link": "http://www.adviserinfo.sec.gov/IAPD/Individual/6586870"
  },
  "OthrNms": [],
  "CrntEmps": [
    {
      "CrntRgstns": [
        {
          "regAuth": 23,
          "regCat": 0,
          "st": 2,
          "stDt": "2016-01-25T00:00:00"
        },
        {
          "regAuth": 45,
          "regCat": 0,
          "st": 2,
          "stDt": "2016-02-11T00:00:00"
        }
      ],
      "BrnchOfLocs": [
        {
          "str1": "118 EAST GRAND RIVER",
          "str2": null,
          "city": "FOWLERVILLE",
          "state": 23,
          "stateSpecified": true,
          "cntry": "United States",
          "postlCd": "48836"
        },
        {
          "str1": "2263 WEALTHY ST SE",
          "str2": null,
          "city": "EAST GRAND RAPIDS",
          "state": 23,
          "stateSpecified": true,
          "cntry": "United States",
          "postlCd": "49506"
        },
        {
          "str1": "3238 KNAPP STREET NE",
          "str2": null,
          "city": "GRAND RAPIDS",
          "state": 23,
          "stateSpecified": true,
          "cntry": "United States",
          "postlCd": "49525"
        },
        {
          "str1": "455 ADA S.E.",
          "str2": null,
          "city": "ADA",
          "state": 23,
          "stateSpecified": true,
          "cntry": "United States",
          "postlCd": "49301"
        },
        {
          "str1": "4717 CASCADE ROAD S.E.",
          "str2": null,
          "city": "GRAND RAPIDS",
          "state": 23,
          "stateSpecified": true,
          "cntry": "United States",
          "postlCd": "49546"
        }
      ],
      "orgNm": "J.P. MORGAN SECURITIES LLC",
      "orgPK": "79",
      "str1": "277 PARK AVENUE",
      "str2": null,
      "city": "NEW YORK",
      "state": 35,
      "stateSpecified": true,
      "cntry": "United States",
      "postlCd": "10172"
    }
  ],
  "Exms": [
    {
      "exmCd": 3,
      "exmNm": "Uniform Combined State Law Examination",
      "exmDt": "2016-01-18T00:00:00",
      "exmDtSpecified": true
    }
  ],
  "Dsgntns": [],
  "PrevRgstns": [],
  "EmpHss": [
    {
      "fromDt": "10/2003",
      "toDt": "11/2015",
      "orgNm": "JPMorgan Chase Bank",
      "city": "Fowlervile",
      "state": 23,
      "stateSpecified": true
    },
    {
      "fromDt": "11/2015",
      "toDt": null,
      "orgNm": "JPMorgan Securities LLC",
      "city": "Grand Rapids",
      "state": 23,
      "stateSpecified": true
    }
  ],
  "OthrBuss": {
    "OthrBus": null
  },
  "DRPs": []
}