{
  "Info": {
    "lastNm": "Ferger",
    "firstNm": "Steven",
    "midNm": "Hill",
    "sufNm": null,
    "indvlPK": "6587185",
    "actvAGReg": 1,
    "link": "http://www.adviserinfo.sec.gov/IAPD/Individual/6587185"
  },
  "OthrNms": [],
  "CrntEmps": [
    {
      "CrntRgstns": [
        {
          "regAuth": 4,
          "regCat": 0,
          "st": 2,
          "stDt": "2015-12-04T00:00:00"
        }
      ],
      "BrnchOfLocs": [
        {
          "str1": null,
          "str2": null,
          "city": "EUREKA SPRINGS",
          "state": 2,
          "stateSpecified": true,
          "cntry": "United States",
          "postlCd": null
        },
        {
          "str1": "193 South Civic Drive, Suite D",
          "str2": null,
          "city": "Palm Springs",
          "state": 4,
          "stateSpecified": true,
          "cntry": "United States",
          "postlCd": "92262"
        }
      ],
      "orgNm": "GARRETT INVESTMENT ADVISORS, LLC",
      "orgPK": "159359",
      "str1": null,
      "str2": null,
      "city": "EUREKA SPRINGS",
      "state": 2,
      "stateSpecified": true,
      "cntry": "United States",
      "postlCd": null
    }
  ],
  "Exms": [
    {
      "exmCd": 2,
      "exmNm": "Uniform Investment Adviser Law Examination",
      "exmDt": "2015-10-27T00:00:00",
      "exmDtSpecified": true
    }
  ],
  "Dsgntns": [],
  "PrevRgstns": [],
  "EmpHss": [
    {
      "fromDt": "10/1999",
      "toDt": null,
      "orgNm": "Self employed",
      "city": "Palm Springs",
      "state": 4,
      "stateSpecified": true
    },
    {
      "fromDt": "11/2015",
      "toDt": null,
      "orgNm": "Garrett Investment Advisors, LLC",
      "city": "Palm Springs",
      "state": 4,
      "stateSpecified": true
    }
  ],
  "OthrBuss": {
    "OthrBus": null
  },
  "DRPs": []
}