{
  "Info": {
    "lastNm": "Allen",
    "firstNm": "Stephen",
    "midNm": "Reynolds",
    "sufNm": null,
    "indvlPK": "6589185",
    "actvAGReg": 1,
    "link": "http://www.adviserinfo.sec.gov/IAPD/Individual/6589185"
  },
  "OthrNms": [],
  "CrntEmps": [
    {
      "CrntRgstns": [
        {
          "regAuth": 18,
          "regCat": 0,
          "st": 2,
          "stDt": "2015-12-08T00:00:00"
        }
      ],
      "BrnchOfLocs": [
        {
          "str1": "8784 STATION STREET",
          "str2": null,
          "city": "FISHERS",
          "state": 16,
          "stateSpecified": true,
          "cntry": "United States",
          "postlCd": "46038"
        },
        {
          "str1": "Tates Creek road, Suite 102",
          "str2": null,
          "city": "Lexington",
          "state": 18,
          "stateSpecified": true,
          "cntry": "United States",
          "postlCd": "40502"
        }
      ],
      "orgNm": "BIECHELE ROYCE ADVISORS, INC.",
      "orgPK": "120742",
      "str1": "8784 STATION STREET",
      "str2": null,
      "city": "FISHERS",
      "state": 16,
      "stateSpecified": true,
      "cntry": "United States",
      "postlCd": "46038"
    }
  ],
  "Exms": [],
  "Dsgntns": [
    {
      "dsgntnNm": "Personal Financial Specialist"
    }
  ],
  "PrevRgstns": [],
  "EmpHss": [
    {
      "fromDt": "01/2004",
      "toDt": "11/2007",
      "orgNm": "Stephen R Allen, CPA",
      "city": "Colby",
      "state": 17,
      "stateSpecified": true
    },
    {
      "fromDt": "12/2007",
      "toDt": "11/2014",
      "orgNm": "Ray, Foley, Hensley & Company, PLLC",
      "city": "Lexington",
      "state": 18,
      "stateSpecified": true
    },
    {
      "fromDt": "12/2014",
      "toDt": null,
      "orgNm": "Reitz & Allen, CPAs, PLLC",
      "city": "Lexington",
      "state": 18,
      "stateSpecified": true
    }
  ],
  "OthrBuss": {
    "OthrBus": {
      "desc": "50% owner in Reitz & Allen, CPAs, PLLC, a partnership, Non-investment related, a public accounting CPA firm. 3320 Tates Creek Rd, STE 102. Lexington, KY 40502.  Tax return preparation, tax and financial planning, bookkeeping and auditing. 140-160 hours per month all during securities trading hours.   54.166667% ownership Sonny Hall Wells, partnership, non-investment related, a natural gas producer from 3 operating gas wells in Knott Co, KY. mailing address is 107 Summertree Dr, Nicholasville, KY 40356. I am the managing general partner of the entity, colleting income and making disbursements monthly. Approximately 2-3 hours per month with none during trading hours."
    }
  },
  "DRPs": []
}