{
  "Info": {
    "lastNm": "Jones",
    "firstNm": "Francesco",
    "midNm": "Desanti",
    "sufNm": null,
    "indvlPK": "6591388",
    "actvAGReg": 0,
    "link": "http://www.adviserinfo.sec.gov/IAPD/Individual/6591388"
  },
  "OthrNms": [
    {
      "lastNm": "Jones",
      "firstNm": "Frank",
      "midNm": "D",
      "sufNm": null
    }
  ],
  "CrntEmps": [
    {
      "CrntRgstns": [
        {
          "regAuth": 4,
          "regCat": 0,
          "st": 2,
          "stDt": "2016-04-11T00:00:00"
        }
      ],
      "BrnchOfLocs": [
        {
          "str1": "4900 HOPYARD RD",
          "str2": null,
          "city": "PLEASANTON",
          "state": 4,
          "stateSpecified": true,
          "cntry": "United States",
          "postlCd": "94588"
        }
      ],
      "orgNm": "MERRILL LYNCH, PIERCE, FENNER & SMITH INCORPORATED",
      "orgPK": "7691",
      "str1": "ONE BRYANT PARK",
      "str2": null,
      "city": "NEW YORK",
      "state": 35,
      "stateSpecified": true,
      "cntry": "United States",
      "postlCd": "10036"
    }
  ],
  "Exms": [
    {
      "exmCd": 3,
      "exmNm": "Uniform Combined State Law Examination",
      "exmDt": "2016-04-08T00:00:00",
      "exmDtSpecified": true
    }
  ],
  "Dsgntns": [],
  "PrevRgstns": [],
  "EmpHss": [
    {
      "fromDt": "09/2005",
      "toDt": "09/2009",
      "orgNm": "LandMark Homes & Realty",
      "city": "Hayward",
      "state": 4,
      "stateSpecified": true
    },
    {
      "fromDt": "09/2009",
      "toDt": "11/2012",
      "orgNm": "American Loan Experts",
      "city": "Oakland",
      "state": 4,
      "stateSpecified": true
    },
    {
      "fromDt": "12/2012",
      "toDt": "11/2015",
      "orgNm": "Bank Of America",
      "city": "Union City/San Leandro",
      "state": 4,
      "stateSpecified": true
    },
    {
      "fromDt": "12/2012",
      "toDt": null,
      "orgNm": "MERRILL LYNCH, PIERCE, FENNER & SMITH INCORPORATED",
      "city": "PLEASANTON",
      "state": 4,
      "stateSpecified": true
    },
    {
      "fromDt": "05/2016",
      "toDt": null,
      "orgNm": "BANK OF AMERICA,N.A.",
      "city": "PLEASANTON",
      "state": 4,
      "stateSpecified": true
    }
  ],
  "OthrBuss": {
    "OthrBus": null
  },
  "DRPs": []
}