{
  "Info": {
    "lastNm": "STEINMETZ",
    "firstNm": "KATELYN",
    "midNm": "NAOMI",
    "sufNm": null,
    "indvlPK": "6595656",
    "actvAGReg": 0,
    "link": "http://www.adviserinfo.sec.gov/IAPD/Individual/6595656"
  },
  "OthrNms": [],
  "CrntEmps": [
    {
      "CrntRgstns": [
        {
          "regAuth": 4,
          "regCat": 0,
          "st": 2,
          "stDt": "2016-06-28T00:00:00"
        }
      ],
      "BrnchOfLocs": [
        {
          "str1": "1383 S Main St",
          "str2": null,
          "city": "Walnut Creek",
          "state": 4,
          "stateSpecified": true,
          "cntry": "United States",
          "postlCd": "94596"
        }
      ],
      "orgNm": "AMERIVEST INVESTMENT MANAGEMENT, LLC",
      "orgPK": "111514",
      "str1": "200 SOUTH 108TH AVENUE",
      "str2": null,
      "city": "OMAHA",
      "state": 30,
      "stateSpecified": true,
      "cntry": "United States",
      "postlCd": "68154"
    },
    {
      "CrntRgstns": [
        {
          "regAuth": 4,
          "regCat": 0,
          "st": 2,
          "stDt": "2016-06-28T00:00:00"
        }
      ],
      "BrnchOfLocs": [
        {
          "str1": "1383 South Main Street",
          "str2": null,
          "city": "WALNUT CREEK",
          "state": 4,
          "stateSpecified": true,
          "cntry": "United States",
          "postlCd": "94596"
        }
      ],
      "orgNm": "TD AMERITRADE, INC.",
      "orgPK": "7870",
      "str1": "200 SOUTH 108TH AVENUE",
      "str2": null,
      "city": "OMAHA",
      "state": 30,
      "stateSpecified": true,
      "cntry": "United States",
      "postlCd": "68154"
    }
  ],
  "Exms": [
    {
      "exmCd": 3,
      "exmNm": "Uniform Combined State Law Examination",
      "exmDt": "2016-06-27T00:00:00",
      "exmDtSpecified": true
    }
  ],
  "Dsgntns": [],
  "PrevRgstns": [],
  "EmpHss": [
    {
      "fromDt": "05/2005",
      "toDt": "04/2010",
      "orgNm": "Hollywood Tans/Gary Schwartz LLC (Franchise Owner)",
      "city": "San Diego",
      "state": 4,
      "stateSpecified": true
    },
    {
      "fromDt": "08/2007",
      "toDt": "02/2008",
      "orgNm": "Circuit City",
      "city": "Panama City",
      "state": 9,
      "stateSpecified": true
    },
    {
      "fromDt": "08/2007",
      "toDt": "09/2007",
      "orgNm": "Vicotorias Secret (Limited brands)",
      "city": "Panama City",
      "state": 9,
      "stateSpecified": true
    },
    {
      "fromDt": "08/2007",
      "toDt": "09/2007",
      "orgNm": "Wet Seal",
      "city": "Panama City",
      "state": 9,
      "stateSpecified": true
    },
    {
      "fromDt": "04/2010",
      "toDt": "01/2011",
      "orgNm": "ClickonFloors",
      "city": "San Diego",
      "state": 4,
      "stateSpecified": true
    },
    {
      "fromDt": "12/2010",
      "toDt": "01/2011",
      "orgNm": "Jenny Craig",
      "city": "Carlsbad",
      "state": 4,
      "stateSpecified": true
    },
    {
      "fromDt": "01/2011",
      "toDt": "10/2012",
      "orgNm": "US Bank",
      "city": "Carlsbad",
      "state": 4,
      "stateSpecified": true
    },
    {
      "fromDt": "10/2012",
      "toDt": "03/2013",
      "orgNm": "Opus Bank",
      "city": "Carlsbad",
      "state": 4,
      "stateSpecified": true
    },
    {
      "fromDt": "03/2013",
      "toDt": "12/2015",
      "orgNm": "Citibank",
      "city": "Lafayette",
      "state": 4,
      "stateSpecified": true
    },
    {
      "fromDt": "03/2015",
      "toDt": "05/2015",
      "orgNm": "Farmers and Merchants Bank",
      "city": "Walnut Creek",
      "state": 4,
      "stateSpecified": true
    },
    {
      "fromDt": "11/2015",
      "toDt": "11/2015",
      "orgNm": "Uber",
      "city": "Walnut Creek",
      "state": 4,
      "stateSpecified": true
    },
    {
      "fromDt": "12/2015",
      "toDt": null,
      "orgNm": "TD Ameritrade, INC.",
      "city": "Walnut Creek",
      "state": 4,
      "stateSpecified": true
    }
  ],
  "OthrBuss": {
    "OthrBus": null
  },
  "DRPs": []
}