{
  "Info": {
    "lastNm": "Zeigler",
    "firstNm": "Rhett",
    "midNm": "B",
    "sufNm": null,
    "indvlPK": "6599349",
    "actvAGReg": 1,
    "link": "http://www.adviserinfo.sec.gov/IAPD/Individual/6599349"
  },
  "OthrNms": [
    {
      "lastNm": "Zeigler",
      "firstNm": "Rhett",
      "midNm": null,
      "sufNm": null
    }
  ],
  "CrntEmps": [
    {
      "CrntRgstns": [
        {
          "regAuth": 10,
          "regCat": 0,
          "st": 2,
          "stDt": "2016-05-27T00:00:00"
        }
      ],
      "BrnchOfLocs": [
        {
          "str1": "One Riverside, Suite 120",
          "str2": "4401 Northside Parkway N.W.",
          "city": "Atlanta",
          "state": 10,
          "stateSpecified": true,
          "cntry": "United States",
          "postlCd": "30327"
        }
      ],
      "orgNm": "GENSPRING FAMILY OFFICES, LLC",
      "orgPK": "109278",
      "str1": "150 SOUTH US HIGHWAY 1",
      "str2": null,
      "city": "JUPITER",
      "state": 9,
      "stateSpecified": true,
      "cntry": "United States",
      "postlCd": "33477"
    }
  ],
  "Exms": [
    {
      "exmCd": 2,
      "exmNm": "Uniform Investment Adviser Law Examination",
      "exmDt": "2016-04-29T00:00:00",
      "exmDtSpecified": true
    }
  ],
  "Dsgntns": [],
  "PrevRgstns": [],
  "EmpHss": [
    {
      "fromDt": "12/2005",
      "toDt": "12/2015",
      "orgNm": "SunTrust Bank",
      "city": "Atlanta",
      "state": 10,
      "stateSpecified": true
    },
    {
      "fromDt": "01/2016",
      "toDt": null,
      "orgNm": "GenSpring Family Offices",
      "city": "Atlanta",
      "state": 10,
      "stateSpecified": true
    }
  ],
  "OthrBuss": {
    "OthrBus": null
  },
  "DRPs": []
}