{
  "Info": {
    "lastNm": "Crociata",
    "firstNm": "Mario",
    "midNm": null,
    "sufNm": null,
    "indvlPK": "6602162",
    "actvAGReg": 1,
    "link": "http://www.adviserinfo.sec.gov/IAPD/Individual/6602162"
  },
  "OthrNms": [],
  "CrntEmps": [
    {
      "CrntRgstns": [
        {
          "regAuth": 39,
          "regCat": 0,
          "st": 2,
          "stDt": "2016-03-01T00:00:00"
        },
        {
          "regAuth": 45,
          "regCat": 0,
          "st": 2,
          "stDt": "2016-03-01T00:00:00"
        }
      ],
      "BrnchOfLocs": [
        {
          "str1": "100 VANGUARD BLVD",
          "str2": "V26",
          "city": "MALVERN",
          "state": 39,
          "stateSpecified": true,
          "cntry": "United States",
          "postlCd": "19355"
        }
      ],
      "orgNm": "VANGUARD ADVISERS INC",
      "orgPK": "106715",
      "str1": "100 VANGUARD BLVD",
      "str2": "V26",
      "city": "MALVERN",
      "state": 39,
      "stateSpecified": true,
      "cntry": "United States",
      "postlCd": "19355"
    }
  ],
  "Exms": [],
  "Dsgntns": [
    {
      "dsgntnNm": "Chartered Financial Analyst"
    }
  ],
  "PrevRgstns": [],
  "EmpHss": [
    {
      "fromDt": "05/2003",
      "toDt": "09/2008",
      "orgNm": "Snohomish County Assessor's office",
      "city": "Everett",
      "state": 49,
      "stateSpecified": true
    },
    {
      "fromDt": "09/2008",
      "toDt": "05/2010",
      "orgNm": "University of Washington",
      "city": "Seattle",
      "state": 49,
      "stateSpecified": true
    },
    {
      "fromDt": "07/2010",
      "toDt": "01/2016",
      "orgNm": "The Vanguard Group, Inc",
      "city": "Malvern",
      "state": 39,
      "stateSpecified": true
    },
    {
      "fromDt": "01/2016",
      "toDt": null,
      "orgNm": "Vanguard Advisers, Inc.",
      "city": "Malvern",
      "state": 39,
      "stateSpecified": true
    }
  ],
  "OthrBuss": {
    "OthrBus": {
      "desc": "EMPLOYEE OF THE VANGUARD GROUP, INC. (PARENT COMPANY OF VANGUARD ADVISORS, INC.) 100 VANGUARD BLVD, MALVERN, PA 19355"
    }
  },
  "DRPs": []
}