{
  "Info": {
    "lastNm": "RUSSELL",
    "firstNm": "VICKI",
    "midNm": "M",
    "sufNm": null,
    "indvlPK": "6607053",
    "actvAGReg": 0,
    "link": "http://www.adviserinfo.sec.gov/IAPD/Individual/6607053"
  },
  "OthrNms": [
    {
      "lastNm": "RUSSELL",
      "firstNm": "VICKI",
      "midNm": null,
      "sufNm": null
    }
  ],
  "CrntEmps": [
    {
      "CrntRgstns": [
        {
          "regAuth": 45,
          "regCat": 0,
          "st": 2,
          "stDt": "2016-03-30T00:00:00"
        }
      ],
      "BrnchOfLocs": [
        {
          "str1": "101 JIM WRIGHT FREEWAY 1ST FL",
          "str2": null,
          "city": "FORT WORTH",
          "state": 45,
          "stateSpecified": true,
          "cntry": "United States",
          "postlCd": "76108"
        },
        {
          "str1": "201 MAIN ST 4TH FL",
          "str2": "[TG-RBO]",
          "city": "FORT WORTH",
          "state": 45,
          "stateSpecified": true,
          "cntry": "United States",
          "postlCd": "76102"
        }
      ],
      "orgNm": "WELLS FARGO ADVISORS, LLC",
      "orgPK": "19616",
      "str1": "ONE NORTH JEFFERSON AVENUE",
      "str2": "MAIL CODE: H0004-050",
      "city": "ST. LOUIS",
      "state": 25,
      "stateSpecified": true,
      "cntry": "United States",
      "postlCd": "63103-2205"
    }
  ],
  "Exms": [
    {
      "exmCd": 0,
      "exmNm": "Uniform Securities Agent State Law Examination",
      "exmDt": "2016-03-08T00:00:00",
      "exmDtSpecified": true
    },
    {
      "exmCd": 2,
      "exmNm": "Uniform Investment Adviser Law Examination",
      "exmDt": "2016-03-30T00:00:00",
      "exmDtSpecified": true
    }
  ],
  "Dsgntns": [],
  "PrevRgstns": [],
  "EmpHss": [
    {
      "fromDt": "08/1999",
      "toDt": null,
      "orgNm": "WELLS FARGO BANK, NA",
      "city": "Fort Worth",
      "state": 45,
      "stateSpecified": true
    },
    {
      "fromDt": "01/2016",
      "toDt": null,
      "orgNm": "WELLS FARGO ADVISORS LLC",
      "city": "Fort Worth",
      "state": 45,
      "stateSpecified": true
    }
  ],
  "OthrBuss": {
    "OthrBus": null
  },
  "DRPs": []
}