{
  "Info": {
    "lastNm": "Chao",
    "firstNm": "Michael",
    "midNm": null,
    "sufNm": null,
    "indvlPK": "6618880",
    "actvAGReg": 0,
    "link": "http://www.adviserinfo.sec.gov/IAPD/Individual/6618880"
  },
  "OthrNms": [],
  "CrntEmps": [
    {
      "CrntRgstns": [
        {
          "regAuth": 50,
          "regCat": 0,
          "st": 2,
          "stDt": "2016-04-22T00:00:00"
        }
      ],
      "BrnchOfLocs": [
        {
          "str1": "2801 COHO STREET",
          "str2": "SUITE 202-A",
          "city": "MADISON",
          "state": 50,
          "stateSpecified": true,
          "cntry": "United States",
          "postlCd": "53713"
        }
      ],
      "orgNm": "TRANSAMERICA FINANCIAL ADVISORS, INC",
      "orgPK": "16164",
      "str1": "570 CARILLON PARKWAY",
      "str2": null,
      "city": "ST PETERSBURG",
      "state": 9,
      "stateSpecified": true,
      "cntry": "United States",
      "postlCd": "33716-1202"
    }
  ],
  "Exms": [
    {
      "exmCd": 0,
      "exmNm": "Uniform Securities Agent State Law Examination",
      "exmDt": "2016-03-11T00:00:00",
      "exmDtSpecified": true
    },
    {
      "exmCd": 2,
      "exmNm": "Uniform Investment Adviser Law Examination",
      "exmDt": "2016-04-11T00:00:00",
      "exmDtSpecified": true
    }
  ],
  "Dsgntns": [],
  "PrevRgstns": [],
  "EmpHss": [
    {
      "fromDt": "01/2006",
      "toDt": "12/2012",
      "orgNm": "Student",
      "city": "DURHAM",
      "state": 28,
      "stateSpecified": true
    },
    {
      "fromDt": "03/2013",
      "toDt": "03/2015",
      "orgNm": "EPIC SYSTEMS",
      "city": "VERONA",
      "state": 50,
      "stateSpecified": true
    },
    {
      "fromDt": "03/2015",
      "toDt": "08/2015",
      "orgNm": "Unemployed",
      "city": "MADISON",
      "state": 50,
      "stateSpecified": true
    },
    {
      "fromDt": "08/2015",
      "toDt": null,
      "orgNm": "MIDWEST PAINTING SERVICE",
      "city": "MADISON",
      "state": 50,
      "stateSpecified": true
    },
    {
      "fromDt": "11/2015",
      "toDt": null,
      "orgNm": "WORLD FINANCIAL GROUP, INC.",
      "city": "MADISON",
      "state": 50,
      "stateSpecified": true
    },
    {
      "fromDt": "02/2016",
      "toDt": null,
      "orgNm": "TRANSAMERICA FINANCIAL ADVISORS, INC",
      "city": "MADISON",
      "state": 50,
      "stateSpecified": true
    }
  ],
  "OthrBuss": {
    "OthrBus": {
      "desc": "MIDWEST PAINTING SERVICE/Investment Related - No/706 Hintze Rd. Madison, WI, USA 53704/Commercial and residential painting contractor/Painter/08.2015/40/40/Painting, some administrative duties"
    }
  },
  "DRPs": []
}