{
  "Info": {
    "lastNm": "Farmer",
    "firstNm": "Shallan",
    "midNm": "Genevieve",
    "sufNm": null,
    "indvlPK": "6622662",
    "actvAGReg": 0,
    "link": "http://www.adviserinfo.sec.gov/IAPD/Individual/6622662"
  },
  "OthrNms": [
    {
      "lastNm": "Beaudoin",
      "firstNm": "Shallan",
      "midNm": "Genevieve",
      "sufNm": null
    },
    {
      "lastNm": "Beaudoin-Zahn",
      "firstNm": "Shallan",
      "midNm": "Genevieve",
      "sufNm": null
    },
    {
      "lastNm": "Farmer",
      "firstNm": "Shallan",
      "midNm": "G",
      "sufNm": null
    },
    {
      "lastNm": "Farmer",
      "firstNm": "Shallan",
      "midNm": "Genevieve",
      "sufNm": null
    },
    {
      "lastNm": "Zahn",
      "firstNm": "Shallan",
      "midNm": "Genevieve",
      "sufNm": null
    }
  ],
  "CrntEmps": [
    {
      "CrntRgstns": [
        {
          "regAuth": 10,
          "regCat": 0,
          "st": 2,
          "stDt": "2016-07-06T00:00:00"
        }
      ],
      "BrnchOfLocs": [
        {
          "str1": null,
          "str2": null,
          "city": "Loganville",
          "state": 10,
          "stateSpecified": true,
          "cntry": "United States",
          "postlCd": null
        },
        {
          "str1": "1245 JJ KELLEY MEMORIAL DRIVE",
          "str2": null,
          "city": "ST LOUIS",
          "state": 25,
          "stateSpecified": true,
          "cntry": "United States",
          "postlCd": "63131"
        }
      ],
      "orgNm": "EDWARD JONES",
      "orgPK": "250",
      "str1": "12555 MANCHESTER RD",
      "str2": null,
      "city": "ST. LOUIS",
      "state": 25,
      "stateSpecified": true,
      "cntry": "United States",
      "postlCd": "63131"
    }
  ],
  "Exms": [
    {
      "exmCd": 3,
      "exmNm": "Uniform Combined State Law Examination",
      "exmDt": "2016-07-05T00:00:00",
      "exmDtSpecified": true
    }
  ],
  "Dsgntns": [],
  "PrevRgstns": [],
  "EmpHss": [
    {
      "fromDt": "08/2005",
      "toDt": "02/2010",
      "orgNm": "United Community Bank",
      "city": "Buford",
      "state": 10,
      "stateSpecified": true
    },
    {
      "fromDt": "02/2010",
      "toDt": "05/2014",
      "orgNm": "Premier Kids Care Pharmacy",
      "city": "Monroe",
      "state": 10,
      "stateSpecified": true
    },
    {
      "fromDt": "08/2012",
      "toDt": "03/2013",
      "orgNm": "GLW Electric",
      "city": "Loganville",
      "state": 10,
      "stateSpecified": true
    },
    {
      "fromDt": "05/2014",
      "toDt": "03/2016",
      "orgNm": "AFB&T a division of SYNOVUS",
      "city": "Loganville",
      "state": 10,
      "stateSpecified": true
    },
    {
      "fromDt": "03/2016",
      "toDt": null,
      "orgNm": "Edward Jones",
      "city": "St Louis",
      "state": 25,
      "stateSpecified": true
    }
  ],
  "OthrBuss": {
    "OthrBus": {
      "desc": "Advocare International Type of business: Health Products  Plano, TX  Start date: 6/19/2012  Advisor  Hours per week: 0  Hours during trading: 0  No Responsibilities"
    }
  },
  "DRPs": []
}