{
  "Info": {
    "lastNm": "Ureche",
    "firstNm": "Thomas",
    "midNm": "Craig",
    "sufNm": "Jr.",
    "indvlPK": "6624277",
    "actvAGReg": 1,
    "link": "http://www.adviserinfo.sec.gov/IAPD/Individual/6624277"
  },
  "OthrNms": [
    {
      "lastNm": "Ureche",
      "firstNm": "Thomas",
      "midNm": null,
      "sufNm": null
    },
    {
      "lastNm": "Ureche",
      "firstNm": "Tom",
      "midNm": "Craig",
      "sufNm": "Jr"
    },
    {
      "lastNm": "Ureche",
      "firstNm": "Tommy",
      "midNm": "Craig",
      "sufNm": "Jr."
    }
  ],
  "CrntEmps": [
    {
      "CrntRgstns": [
        {
          "regAuth": 23,
          "regCat": 0,
          "st": 2,
          "stDt": "2016-03-31T00:00:00"
        }
      ],
      "BrnchOfLocs": [
        {
          "str1": "8305 S. SAGINAW STREET",
          "str2": "SUITE 2",
          "city": "GRAND BLANC",
          "state": 23,
          "stateSpecified": true,
          "cntry": "United States",
          "postlCd": "48439"
        }
      ],
      "orgNm": "ACORN WEALTH ADVISORS, LLC",
      "orgPK": "170462",
      "str1": "8305 S. SAGINAW STREET",
      "str2": "SUITE 2",
      "city": "GRAND BLANC",
      "state": 23,
      "stateSpecified": true,
      "cntry": "United States",
      "postlCd": "48439"
    }
  ],
  "Exms": [
    {
      "exmCd": 2,
      "exmNm": "Uniform Investment Adviser Law Examination",
      "exmDt": "2016-03-29T00:00:00",
      "exmDtSpecified": true
    }
  ],
  "Dsgntns": [],
  "PrevRgstns": [],
  "EmpHss": [
    {
      "fromDt": "08/2004",
      "toDt": null,
      "orgNm": "Mt. Morris Consolidated Schools",
      "city": "Mt. Morris",
      "state": 23,
      "stateSpecified": true
    },
    {
      "fromDt": "03/2015",
      "toDt": null,
      "orgNm": "Acorn Wealth Advisors, LLC",
      "city": "Grand Blanc",
      "state": 23,
      "stateSpecified": true
    }
  ],
  "OthrBuss": {
    "OthrBus": {
      "desc": "I am a teacher at Mt. Morris Consolidated Schools in Mt. Morris, MI. I spend approximately 140 hours a week between September and June working."
    }
  },
  "DRPs": []
}