{
  "Info": {
    "lastNm": "NEWSOME",
    "firstNm": "AMANDA",
    "midNm": "Jolene",
    "sufNm": null,
    "indvlPK": "6627309",
    "actvAGReg": 0,
    "link": "http://www.adviserinfo.sec.gov/IAPD/Individual/6627309"
  },
  "OthrNms": [
    {
      "lastNm": "NEWSOME",
      "firstNm": "AMANDA",
      "midNm": null,
      "sufNm": null
    }
  ],
  "CrntEmps": [
    {
      "CrntRgstns": [
        {
          "regAuth": 42,
          "regCat": 0,
          "st": 2,
          "stDt": "2016-06-08T00:00:00"
        }
      ],
      "BrnchOfLocs": [
        {
          "str1": "15 S MAIN ST 2ND FL",
          "str2": "[S3-RBO]",
          "city": "GREENVILLE",
          "state": 42,
          "stateSpecified": true,
          "cntry": "United States",
          "postlCd": "29601"
        },
        {
          "str1": "667 FAIRVIEW ROAD",
          "str2": null,
          "city": "SIMPSONVILLE",
          "state": 42,
          "stateSpecified": true,
          "cntry": "United States",
          "postlCd": "29680"
        }
      ],
      "orgNm": "WELLS FARGO ADVISORS, LLC",
      "orgPK": "19616",
      "str1": "ONE NORTH JEFFERSON AVENUE",
      "str2": "MAIL CODE: H0004-050",
      "city": "ST. LOUIS",
      "state": 25,
      "stateSpecified": true,
      "cntry": "United States",
      "postlCd": "63103-2205"
    }
  ],
  "Exms": [
    {
      "exmCd": 0,
      "exmNm": "Uniform Securities Agent State Law Examination",
      "exmDt": "2016-05-10T00:00:00",
      "exmDtSpecified": true
    },
    {
      "exmCd": 2,
      "exmNm": "Uniform Investment Adviser Law Examination",
      "exmDt": "2016-06-07T00:00:00",
      "exmDtSpecified": true
    }
  ],
  "Dsgntns": [],
  "PrevRgstns": [],
  "EmpHss": [
    {
      "fromDt": "08/2004",
      "toDt": "03/2010",
      "orgNm": "FARA Catastrophe Claims",
      "city": "Mandeville",
      "state": 19,
      "stateSpecified": true
    },
    {
      "fromDt": "01/2007",
      "toDt": "11/2008",
      "orgNm": "mark Turley Allstate Insurance Agency",
      "city": "Greenville",
      "state": 42,
      "stateSpecified": true
    },
    {
      "fromDt": "05/2010",
      "toDt": "06/2011",
      "orgNm": "Maggie Waldrep State Farm Insurance Agency",
      "city": "Anderson",
      "state": 42,
      "stateSpecified": true
    },
    {
      "fromDt": "07/2011",
      "toDt": null,
      "orgNm": "WELLS FARGO BANK NA",
      "city": "SIMPSONVILLE",
      "state": 42,
      "stateSpecified": true
    },
    {
      "fromDt": "03/2016",
      "toDt": null,
      "orgNm": "WELLS FARGO ADVISORS, LLC.",
      "city": "SIMPSONSVILLE",
      "state": 42,
      "stateSpecified": true
    }
  ],
  "OthrBuss": {
    "OthrBus": null
  },
  "DRPs": []
}