{
  "Info": {
    "lastNm": "Hawkins",
    "firstNm": "Jared",
    "midNm": "Mark",
    "sufNm": null,
    "indvlPK": "6631979",
    "actvAGReg": 1,
    "link": "http://www.adviserinfo.sec.gov/IAPD/Individual/6631979"
  },
  "OthrNms": [],
  "CrntEmps": [
    {
      "CrntRgstns": [
        {
          "regAuth": 45,
          "regCat": 0,
          "st": 2,
          "stDt": "2016-05-17T00:00:00"
        },
        {
          "regAuth": 46,
          "regCat": 0,
          "st": 2,
          "stDt": "2016-05-31T00:00:00"
        }
      ],
      "BrnchOfLocs": [
        {
          "str1": null,
          "str2": null,
          "city": "Allen",
          "state": 45,
          "stateSpecified": true,
          "cntry": "United States",
          "postlCd": null
        }
      ],
      "orgNm": "ACTIONPLAN FINANCIAL, LLC",
      "orgPK": "283443",
      "str1": null,
      "str2": null,
      "city": "ALLEN",
      "state": 45,
      "stateSpecified": true,
      "cntry": "United States",
      "postlCd": null
    }
  ],
  "Exms": [
    {
      "exmCd": 2,
      "exmNm": "Uniform Investment Adviser Law Examination",
      "exmDt": "2016-01-22T00:00:00",
      "exmDtSpecified": true
    }
  ],
  "Dsgntns": [],
  "PrevRgstns": [],
  "EmpHss": [
    {
      "fromDt": "04/2006",
      "toDt": "05/2009",
      "orgNm": "N/A",
      "city": "Allen",
      "state": 45,
      "stateSpecified": true
    },
    {
      "fromDt": "06/2009",
      "toDt": "08/2015",
      "orgNm": "Brigham Young University",
      "city": "Provo",
      "state": 46,
      "stateSpecified": true
    },
    {
      "fromDt": "01/2010",
      "toDt": "01/2012",
      "orgNm": "Arizona, Mesa Mission",
      "city": "Mesa",
      "state": 3,
      "stateSpecified": true
    },
    {
      "fromDt": "05/2012",
      "toDt": "05/2014",
      "orgNm": "Spark Marketing",
      "city": "Turlock",
      "state": 4,
      "stateSpecified": true
    },
    {
      "fromDt": "04/2014",
      "toDt": "05/2015",
      "orgNm": "Sorenson Global Impact Investing Center",
      "city": "Salt Lake City",
      "state": 46,
      "stateSpecified": true
    },
    {
      "fromDt": "04/2015",
      "toDt": null,
      "orgNm": "World Financial Group",
      "city": "Orem",
      "state": 46,
      "stateSpecified": true
    },
    {
      "fromDt": "05/2015",
      "toDt": "03/2016",
      "orgNm": "New Haven Residential Treatment Center",
      "city": "Spanish Fork",
      "state": 46,
      "stateSpecified": true
    },
    {
      "fromDt": "03/2016",
      "toDt": null,
      "orgNm": "ActionPlan Financial",
      "city": "Allen",
      "state": 45,
      "stateSpecified": true
    }
  ],
  "OthrBuss": {
    "OthrBus": {
      "desc": "Jared Hawkins is a student at Brigham Young University, completing his master's degree in Marriage and Family Therapy. He is enrolled from Fall 2016 to Spring 2018. He spends 40 hours/week in that activity."
    }
  },
  "DRPs": []
}