{
  "Info": {
    "lastNm": "Burris",
    "firstNm": "Kevin",
    "midNm": null,
    "sufNm": null,
    "indvlPK": "6631863",
    "actvAGReg": 1,
    "link": "http://www.adviserinfo.sec.gov/IAPD/Individual/6631863"
  },
  "OthrNms": [],
  "CrntEmps": [
    {
      "CrntRgstns": [
        {
          "regAuth": 16,
          "regCat": 0,
          "st": 2,
          "stDt": "2016-04-13T00:00:00"
        }
      ],
      "BrnchOfLocs": [
        {
          "str1": "23 E CEDAR ST",
          "str2": null,
          "city": "ZIONSVILLE",
          "state": 16,
          "stateSpecified": true,
          "cntry": "United States",
          "postlCd": "46077"
        }
      ],
      "orgNm": "CANTERBURY INVESTMENT MANAGEMENT, LLC",
      "orgPK": "125680",
      "str1": "23 E CEDAR ST",
      "str2": null,
      "city": "ZIONSVILLE",
      "state": 16,
      "stateSpecified": true,
      "cntry": "United States",
      "postlCd": "46077"
    }
  ],
  "Exms": [
    {
      "exmCd": 2,
      "exmNm": "Uniform Investment Adviser Law Examination",
      "exmDt": "2015-12-02T00:00:00",
      "exmDtSpecified": true
    }
  ],
  "Dsgntns": [],
  "PrevRgstns": [],
  "EmpHss": [
    {
      "fromDt": "02/1987",
      "toDt": "01/2014",
      "orgNm": "Bristol-Myers Squibb",
      "city": "Princeton",
      "state": 32,
      "stateSpecified": true
    },
    {
      "fromDt": "02/2014",
      "toDt": null,
      "orgNm": "AstraZeneca",
      "city": "Indianapolis",
      "state": 16,
      "stateSpecified": true
    }
  ],
  "OthrBuss": {
    "OthrBus": null
  },
  "DRPs": []
}