{
  "Info": {
    "lastNm": "Jaggard",
    "firstNm": "Kristin",
    "midNm": "Lee",
    "sufNm": null,
    "indvlPK": "6635077",
    "actvAGReg": 1,
    "link": "http://www.adviserinfo.sec.gov/IAPD/Individual/6635077"
  },
  "OthrNms": [
    {
      "lastNm": "Toms",
      "firstNm": "Kristin",
      "midNm": "Lee",
      "sufNm": null
    }
  ],
  "CrntEmps": [
    {
      "CrntRgstns": [
        {
          "regAuth": 45,
          "regCat": 0,
          "st": 2,
          "stDt": "2016-04-14T00:00:00"
        }
      ],
      "BrnchOfLocs": [
        {
          "str1": "7200 N. MOPAC, SUITE 315",
          "str2": null,
          "city": "AUSTIN",
          "state": 45,
          "stateSpecified": true,
          "cntry": "United States",
          "postlCd": "78731"
        }
      ],
      "orgNm": "AUSTIN ASSET",
      "orgPK": "105441",
      "str1": "7200 N. MOPAC, SUITE 315",
      "str2": null,
      "city": "AUSTIN",
      "state": 45,
      "stateSpecified": true,
      "cntry": "United States",
      "postlCd": "78731"
    }
  ],
  "Exms": [],
  "Dsgntns": [
    {
      "dsgntnNm": "Certified Financial Planner"
    }
  ],
  "PrevRgstns": [],
  "EmpHss": [
    {
      "fromDt": "02/2003",
      "toDt": "03/2014",
      "orgNm": "Paul Garcia & Associates",
      "city": "San Antonia",
      "state": 45,
      "stateSpecified": true
    },
    {
      "fromDt": "09/2007",
      "toDt": "02/2014",
      "orgNm": "TCW Management LLC",
      "city": "San Antonio",
      "state": 45,
      "stateSpecified": true
    },
    {
      "fromDt": "03/2014",
      "toDt": null,
      "orgNm": "Austin Asset Management Co.",
      "city": "Austin",
      "state": 45,
      "stateSpecified": true
    }
  ],
  "OthrBuss": {
    "OthrBus": null
  },
  "DRPs": []
}