{
  "Info": {
    "lastNm": "SHELTON",
    "firstNm": "ANDREW",
    "midNm": "Gordon",
    "sufNm": null,
    "indvlPK": "6640733",
    "actvAGReg": 0,
    "link": "http://www.adviserinfo.sec.gov/IAPD/Individual/6640733"
  },
  "OthrNms": [
    {
      "lastNm": "SHELTON",
      "firstNm": "ANDREW",
      "midNm": null,
      "sufNm": null
    }
  ],
  "CrntEmps": [
    {
      "CrntRgstns": [
        {
          "regAuth": 47,
          "regCat": 0,
          "st": 2,
          "stDt": "2016-07-09T00:00:00"
        }
      ],
      "BrnchOfLocs": [
        {
          "str1": "10190 STAPLES MILL ROAD",
          "str2": null,
          "city": "GLEN ALLEN",
          "state": 47,
          "stateSpecified": true,
          "cntry": "United States",
          "postlCd": "23060"
        },
        {
          "str1": "1021 E CARY ST",
          "str2": "[V2-RBO]",
          "city": "RICHMOND",
          "state": 47,
          "stateSpecified": true,
          "cntry": "United States",
          "postlCd": "23219"
        }
      ],
      "orgNm": "WELLS FARGO ADVISORS, LLC",
      "orgPK": "19616",
      "str1": "ONE NORTH JEFFERSON AVENUE",
      "str2": "MAIL CODE: H0004-050",
      "city": "ST. LOUIS",
      "state": 25,
      "stateSpecified": true,
      "cntry": "United States",
      "postlCd": "63103-2205"
    }
  ],
  "Exms": [
    {
      "exmCd": 0,
      "exmNm": "Uniform Securities Agent State Law Examination",
      "exmDt": "2016-06-14T00:00:00",
      "exmDtSpecified": true
    },
    {
      "exmCd": 2,
      "exmNm": "Uniform Investment Adviser Law Examination",
      "exmDt": "2016-07-09T00:00:00",
      "exmDtSpecified": true
    }
  ],
  "Dsgntns": [],
  "PrevRgstns": [],
  "EmpHss": [
    {
      "fromDt": "06/2006",
      "toDt": "08/2006",
      "orgNm": "Unemployed",
      "city": "Richmond",
      "state": 47,
      "stateSpecified": true
    },
    {
      "fromDt": "08/2006",
      "toDt": "05/2007",
      "orgNm": "Christopher Newport University",
      "city": "Newport News",
      "state": 47,
      "stateSpecified": true
    },
    {
      "fromDt": "05/2007",
      "toDt": "02/2009",
      "orgNm": "Unemployed",
      "city": "Newport News",
      "state": 47,
      "stateSpecified": true
    },
    {
      "fromDt": "02/2009",
      "toDt": "06/2009",
      "orgNm": "McDonald's",
      "city": "Newport News",
      "state": 47,
      "stateSpecified": true
    },
    {
      "fromDt": "06/2009",
      "toDt": "10/2009",
      "orgNm": "Five Guys Burgers & Fries",
      "city": "Glen Allen",
      "state": 47,
      "stateSpecified": true
    },
    {
      "fromDt": "10/2009",
      "toDt": "04/2010",
      "orgNm": "Jason's Deli - VRP",
      "city": "Glen Allen",
      "state": 47,
      "stateSpecified": true
    },
    {
      "fromDt": "04/2010",
      "toDt": "05/2012",
      "orgNm": "Jason's Deli - VRS",
      "city": "Richmond",
      "state": 47,
      "stateSpecified": true
    },
    {
      "fromDt": "05/2012",
      "toDt": "07/2012",
      "orgNm": "Unemployed",
      "city": "Henrico",
      "state": 47,
      "stateSpecified": true
    },
    {
      "fromDt": "07/2012",
      "toDt": "04/2013",
      "orgNm": "Wells Fargo Bank NA",
      "city": "Glen Allen",
      "state": 47,
      "stateSpecified": true
    },
    {
      "fromDt": "04/2013",
      "toDt": "02/2014",
      "orgNm": "Wells Fargo Bank NA",
      "city": "Glen Allen",
      "state": 47,
      "stateSpecified": true
    },
    {
      "fromDt": "02/2014",
      "toDt": null,
      "orgNm": "WELLS FARGO BANK NA",
      "city": "GLEN ALLEN",
      "state": 47,
      "stateSpecified": true
    },
    {
      "fromDt": "04/2016",
      "toDt": null,
      "orgNm": "WELLS FARGO ADVISORS LLC",
      "city": "GLENN ALLEN",
      "state": 47,
      "stateSpecified": true
    }
  ],
  "OthrBuss": {
    "OthrBus": null
  },
  "DRPs": []
}