{
  "Info": {
    "lastNm": "Morgan",
    "firstNm": "Catherine",
    "midNm": "M",
    "sufNm": null,
    "indvlPK": "6650336",
    "actvAGReg": 1,
    "link": "http://www.adviserinfo.sec.gov/IAPD/Individual/6650336"
  },
  "OthrNms": [
    {
      "lastNm": "Creed",
      "firstNm": "Catherine",
      "midNm": "M",
      "sufNm": null
    }
  ],
  "CrntEmps": [
    {
      "CrntRgstns": [
        {
          "regAuth": 10,
          "regCat": 0,
          "st": 2,
          "stDt": "2016-07-01T00:00:00"
        }
      ],
      "BrnchOfLocs": [
        {
          "str1": "5755 NORTH POINT PKWY",
          "str2": "SUITE 57",
          "city": "ALPHARETTA",
          "state": 10,
          "stateSpecified": true,
          "cntry": "United States",
          "postlCd": "30022-1145"
        }
      ],
      "orgNm": "ELM3 FINANCIAL GROUP, LLC",
      "orgPK": "140594",
      "str1": "5755 NORTH POINT PKWY",
      "str2": "SUITE 57",
      "city": "ALPHARETTA",
      "state": 10,
      "stateSpecified": true,
      "cntry": "United States",
      "postlCd": "30022-1145"
    }
  ],
  "Exms": [
    {
      "exmCd": 2,
      "exmNm": "Uniform Investment Adviser Law Examination",
      "exmDt": "2016-06-30T00:00:00",
      "exmDtSpecified": true
    }
  ],
  "Dsgntns": [],
  "PrevRgstns": [],
  "EmpHss": [
    {
      "fromDt": "06/2005",
      "toDt": "12/2015",
      "orgNm": "Cheryl Greenway CPA PC",
      "city": "Roswell",
      "state": 10,
      "stateSpecified": true
    },
    {
      "fromDt": "01/2016",
      "toDt": null,
      "orgNm": "Elm3 Financial Group",
      "city": "Alpharetta",
      "state": 10,
      "stateSpecified": true
    }
  ],
  "OthrBuss": {
    "OthrBus": null
  },
  "DRPs": []
}