{
  "Info": {
    "lastNm": "Scott",
    "firstNm": "Donald",
    "midNm": "Richard",
    "sufNm": null,
    "indvlPK": "6657760",
    "actvAGReg": 1,
    "link": "http://www.adviserinfo.sec.gov/IAPD/Individual/6657760"
  },
  "OthrNms": [],
  "CrntEmps": [
    {
      "CrntRgstns": [
        {
          "regAuth": 3,
          "regCat": 0,
          "st": 2,
          "stDt": "2016-06-17T00:00:00"
        }
      ],
      "BrnchOfLocs": [
        {
          "str1": "2400 E Arizona Biltmore Circle",
          "str2": "Suite 1200 Bldg 4",
          "city": "Phoenix",
          "state": 3,
          "stateSpecified": true,
          "cntry": "United States",
          "postlCd": "85016"
        }
      ],
      "orgNm": "TFO-TDC, LLC",
      "orgPK": "124407",
      "str1": "1440 ARROWHEAD DRIVE",
      "str2": null,
      "city": "MAUMEE",
      "state": 36,
      "stateSpecified": true,
      "cntry": "United States",
      "postlCd": "43537"
    },
    {
      "CrntRgstns": [
        {
          "regAuth": 45,
          "regCat": 0,
          "st": 2,
          "stDt": "2016-06-02T00:00:00"
        },
        {
          "regAuth": 3,
          "regCat": 0,
          "st": 2,
          "stDt": "2016-06-17T00:00:00"
        }
      ],
      "BrnchOfLocs": [
        {
          "str1": "2400 E. ARIZONA BILTMORE CIRCLE",
          "str2": "SUITE 1400, BUILDING 4",
          "city": "PHOENIX",
          "state": 3,
          "stateSpecified": true,
          "cntry": "United States",
          "postlCd": "85016"
        }
      ],
      "orgNm": "TFO PHOENIX, INC.",
      "orgPK": "159440",
      "str1": "2400 E. ARIZONA BILTMORE CIRCLE",
      "str2": "SUITE 1400, BUILDING 4",
      "city": "PHOENIX",
      "state": 3,
      "stateSpecified": true,
      "cntry": "United States",
      "postlCd": "85016"
    }
  ],
  "Exms": [
    {
      "exmCd": 2,
      "exmNm": "Uniform Investment Adviser Law Examination",
      "exmDt": "2015-05-19T00:00:00",
      "exmDtSpecified": true
    }
  ],
  "Dsgntns": [],
  "PrevRgstns": [],
  "EmpHss": [
    {
      "fromDt": "09/2004",
      "toDt": "05/2007",
      "orgNm": "Student",
      "city": "Phoenix",
      "state": 3,
      "stateSpecified": true
    },
    {
      "fromDt": "05/2007",
      "toDt": "08/2007",
      "orgNm": "Frazer, Ryan, Goldberg & Arnold LLP",
      "city": "Phoenix",
      "state": 3,
      "stateSpecified": true
    },
    {
      "fromDt": "09/2007",
      "toDt": "12/2010",
      "orgNm": "Frazer, Ryan, Goldberg & Arnold LLP",
      "city": "Phoenix",
      "state": 3,
      "stateSpecified": true
    },
    {
      "fromDt": "01/2011",
      "toDt": "12/2015",
      "orgNm": "Husch Blackwell LLP",
      "city": "Phoenix",
      "state": 3,
      "stateSpecified": true
    },
    {
      "fromDt": "01/2016",
      "toDt": "05/2016",
      "orgNm": "Husch Blackwell LLP",
      "city": "Phoenix",
      "state": 3,
      "stateSpecified": true
    },
    {
      "fromDt": "06/2016",
      "toDt": null,
      "orgNm": "TFO Phoenix, Inc.",
      "city": "Phoenix",
      "state": 3,
      "stateSpecified": true
    },
    {
      "fromDt": "06/2016",
      "toDt": null,
      "orgNm": "TFO-TDC , LLC",
      "city": "Phoenix",
      "state": 3,
      "stateSpecified": true
    }
  ],
  "OthrBuss": {
    "OthrBus": {
      "desc": "Name: TFO Phoenix, Inc. Investment Related: Yes  Address:  2400 E Arizona Biltmore Circle Suite 1200 Bldg 2 Phoenix, AZ 85016  Nature:  Registered Investment Adviser firm  Position/Title: Investment Adviser Representative  Start date: 6/1/16  Hrs/mth:  24  Hrs/mth during trading: 24"
    }
  },
  "DRPs": []
}