{
  "Info": {
    "lastNm": "MASSEY",
    "firstNm": "STEWART",
    "midNm": "RICHARD",
    "sufNm": null,
    "indvlPK": "703703",
    "actvAGReg": 1,
    "link": "http://www.adviserinfo.sec.gov/IAPD/Individual/703703"
  },
  "OthrNms": [],
  "CrntEmps": [
    {
      "CrntRgstns": [
        {
          "regAuth": 45,
          "regCat": 0,
          "st": 3,
          "stDt": "2011-07-06T00:00:00"
        },
        {
          "regAuth": 32,
          "regCat": 0,
          "st": 2,
          "stDt": "2013-01-25T00:00:00"
        }
      ],
      "BrnchOfLocs": [
        {
          "str1": "360 MOUNT KEMBLE AVENUE",
          "str2": null,
          "city": "MORRISTOWN",
          "state": 32,
          "stateSpecified": true,
          "cntry": "United States",
          "postlCd": "07960"
        }
      ],
      "orgNm": "MASSEY, QUICK & CO. LLC",
      "orgPK": "132330",
      "str1": "360 MT. KEMBLE AVE",
      "str2": null,
      "city": "MORRISTOWN",
      "state": 32,
      "stateSpecified": true,
      "cntry": "United States",
      "postlCd": "07960"
    }
  ],
  "Exms": [
    {
      "exmCd": 0,
      "exmNm": "Uniform Securities Agent State Law Examination",
      "exmDt": "1980-02-08T00:00:00",
      "exmDtSpecified": true
    }
  ],
  "Dsgntns": [],
  "PrevRgstns": [
    {
      "BrnchOfLocs": [
        {
          "city": "PARSIPPANY",
          "state": 32,
          "stateSpecified": true
        }
      ],
      "orgNm": "THE MDE GROUP, INC.",
      "orgPK": "107718",
      "regBeginDt": "2003-11-25T00:00:00",
      "regBeginDtSpecified": true,
      "regEndDt": "2004-04-28T00:00:00",
      "regEndDtSpecified": true
    }
  ],
  "EmpHss": [
    {
      "fromDt": "06/2004",
      "toDt": null,
      "orgNm": "MASSEY, QUICK & CO. LLC",
      "city": "MORRISTOWN",
      "state": 32,
      "stateSpecified": true
    }
  ],
  "OthrBuss": {
    "OthrBus": {
      "desc": "NAME OF OTHER BUSINESS - THE COLLEGE OF WOOSTER; NOT-INVESTMENT RELATED; ADDRESS - WOOSTER, OH 44691; NATURE OF OTHER BUSINESS - EDUATION; POSITION - CHAIRMAN OF INVESTMENT COMMITTEE; START DATE - 10/19/1987; APPROXIMATE NUMBER OF HOURS PER MONTH DEVOTED TO BUSINESS - 10 HOURS ;"
    }
  },
  "DRPs": []
}