{
  "Info": {
    "lastNm": "MILLER",
    "firstNm": "MICHAEL",
    "midNm": "JOHN",
    "sufNm": null,
    "indvlPK": "705441",
    "actvAGReg": 1,
    "link": "http://www.adviserinfo.sec.gov/IAPD/Individual/705441"
  },
  "OthrNms": [
    {
      "lastNm": "MILLER",
      "firstNm": "MICHAEL",
      "midNm": "J",
      "sufNm": null
    },
    {
      "lastNm": "MILLER",
      "firstNm": "MIKE",
      "midNm": null,
      "sufNm": null
    }
  ],
  "CrntEmps": [
    {
      "CrntRgstns": [
        {
          "regAuth": 50,
          "regCat": 0,
          "st": 2,
          "stDt": "2014-06-19T00:00:00"
        },
        {
          "regAuth": 3,
          "regCat": 0,
          "st": 2,
          "stDt": "2014-09-05T00:00:00"
        }
      ],
      "BrnchOfLocs": [
        {
          "str1": "167 S. MAIN STREET",
          "str2": null,
          "city": "THIENSVILLE",
          "state": 50,
          "stateSpecified": true,
          "cntry": "United States",
          "postlCd": "53092"
        }
      ],
      "orgNm": "BLACKHAWK CAPITAL PARTNERS, LLC",
      "orgPK": "158020",
      "str1": "167 S. MAIN STREET",
      "str2": null,
      "city": "THIENSVILLE",
      "state": 50,
      "stateSpecified": true,
      "cntry": "United States",
      "postlCd": "53092"
    }
  ],
  "Exms": [
    {
      "exmCd": 0,
      "exmNm": "Uniform Securities Agent State Law Examination",
      "exmDt": "1980-03-06T00:00:00",
      "exmDtSpecified": true
    },
    {
      "exmCd": 2,
      "exmNm": "Uniform Investment Adviser Law Examination",
      "exmDt": "2012-10-02T00:00:00",
      "exmDtSpecified": true
    }
  ],
  "Dsgntns": [
    {
      "dsgntnNm": "Personal Financial Specialist"
    }
  ],
  "PrevRgstns": [
    {
      "BrnchOfLocs": [
        {
          "city": "MILWAUKEE",
          "state": 50,
          "stateSpecified": true
        }
      ],
      "orgNm": "CEDAR CREEK SECURITIES, INC.",
      "orgPK": "118498",
      "regBeginDt": "2012-10-15T00:00:00",
      "regBeginDtSpecified": true,
      "regEndDt": "2014-04-17T00:00:00",
      "regEndDtSpecified": true
    }
  ],
  "EmpHss": [
    {
      "fromDt": "05/1983",
      "toDt": null,
      "orgNm": "MILLER FINANCIAL CORP.",
      "city": "MEQUON",
      "state": 50,
      "stateSpecified": true
    }
  ],
  "OthrBuss": {
    "OthrBus": {
      "desc": "TOTAL REALTY - NON INVESTMENT RELATED. 50% OWNER WITH SON. REAL ESTATE SALES AND MANAGEMENT. APPROXIMATELY 15% OF TIME.   CPA/PFS - NON INVESTMENT RELATED.  TAX PREPARATION AND BOOKEEPING. APPROXIMATELY 25% OF TIME. FEBRUARY 2011"
    }
  },
  "DRPs": [
    {
      "hasRegAction": 0,
      "hasRegActionSpecified": true,
      "hasCriminal": 1,
      "hasCriminalSpecified": true,
      "hasBankrupt": 1,
      "hasBankruptSpecified": true,
      "hasCivilJudc": 1,
      "hasCivilJudcSpecified": true,
      "hasBond": 1,
      "hasBondSpecified": true,
      "hasJudgment": 1,
      "hasJudgmentSpecified": true,
      "hasInvstgn": 1,
      "hasInvstgnSpecified": true,
      "hasCustComp": 1,
      "hasCustCompSpecified": true,
      "hasTermination": 1,
      "hasTerminationSpecified": true
    }
  ]
}