{
  "Info": {
    "lastNm": "FERGUSON",
    "firstNm": "BRUCE",
    "midNm": "ANTHONY",
    "sufNm": null,
    "indvlPK": "706218",
    "actvAGReg": 1,
    "link": "http://www.adviserinfo.sec.gov/IAPD/Individual/706218"
  },
  "OthrNms": [
    {
      "lastNm": "FERGUSON",
      "firstNm": "BRUCE",
      "midNm": "A",
      "sufNm": null
    },
    {
      "lastNm": "FERGUSON",
      "firstNm": "BRUCE",
      "midNm": "ANTHONY",
      "sufNm": null
    }
  ],
  "CrntEmps": [
    {
      "CrntRgstns": [
        {
          "regAuth": 3,
          "regCat": 0,
          "st": 2,
          "stDt": "2003-09-24T00:00:00"
        }
      ],
      "BrnchOfLocs": [
        {
          "str1": "3134 N. SWAN RD",
          "str2": null,
          "city": "TUCSON",
          "state": 3,
          "stateSpecified": true,
          "cntry": "United States",
          "postlCd": "85712"
        }
      ],
      "orgNm": "FERGUSON INVESTMENT SERVICES PLLC",
      "orgPK": "126975",
      "str1": "3134 N. SWAN RD.",
      "str2": null,
      "city": "TUCSON",
      "state": 3,
      "stateSpecified": true,
      "cntry": "United States",
      "postlCd": "85712"
    }
  ],
  "Exms": [
    {
      "exmCd": 0,
      "exmNm": "Uniform Securities Agent State Law Examination",
      "exmDt": "1980-02-09T00:00:00",
      "exmDtSpecified": true
    },
    {
      "exmCd": 2,
      "exmNm": "Uniform Investment Adviser Law Examination",
      "exmDt": "2003-09-06T00:00:00",
      "exmDtSpecified": true
    }
  ],
  "Dsgntns": [],
  "PrevRgstns": [],
  "EmpHss": [
    {
      "fromDt": "01/2002",
      "toDt": "05/2010",
      "orgNm": "RAYMOND JAMES FINANCIAL SERVICES, INC",
      "city": "TUCSON",
      "state": 3,
      "stateSpecified": true
    },
    {
      "fromDt": "05/2003",
      "toDt": null,
      "orgNm": "INSURANCE - NON VARIABLE",
      "city": "TUSCON",
      "state": 3,
      "stateSpecified": true
    },
    {
      "fromDt": "09/2003",
      "toDt": null,
      "orgNm": "FERGUSON INVESTMENT SERVICES PLLC",
      "city": "TUCSON",
      "state": 3,
      "stateSpecified": true
    },
    {
      "fromDt": "01/2009",
      "toDt": "05/2010",
      "orgNm": "RAYMOND JAMES FINANCIAL SERVICES",
      "city": "TUCSON",
      "state": 3,
      "stateSpecified": true
    }
  ],
  "OthrBuss": {
    "OthrBus": {
      "desc": "BRUCE FERGUSON HAS BEEN A DIRECTOR OF VILLAGE OFFICES OWNERS ASSOCIATION, 6007 E. GRANT ROAD, TUCSON, AZ 85712, A PROPERTY OWNERS ASSOCIATION, SINCE 8/12/13.  HE DEVOTES APPROXIMATELY TWO HOURS PER MONTH TO THIS ASSOCIATION DURING NON-SECURITIES TRADING HOURS.  THIS IS A NON INVESTMENT-RELATED BUSINESS."
    }
  },
  "DRPs": []
}