{
  "Info": {
    "lastNm": "NELSON",
    "firstNm": "PAUL",
    "midNm": "LEROY",
    "sufNm": null,
    "indvlPK": "708635",
    "actvAGReg": 0,
    "link": "http://www.adviserinfo.sec.gov/IAPD/Individual/708635"
  },
  "OthrNms": [],
  "CrntEmps": [
    {
      "CrntRgstns": [
        {
          "regAuth": 4,
          "regCat": 0,
          "st": 2,
          "stDt": "2008-03-10T00:00:00"
        },
        {
          "regAuth": 24,
          "regCat": 0,
          "st": 2,
          "stDt": "2014-02-18T00:00:00"
        }
      ],
      "BrnchOfLocs": [
        {
          "str1": "11 E. SUPERIOR STREET",
          "str2": "SUITE 504",
          "city": "DULUTH",
          "state": 24,
          "stateSpecified": true,
          "cntry": "United States",
          "postlCd": "55802"
        }
      ],
      "orgNm": "PRESIDENTIAL BROKERAGE, INC.",
      "orgPK": "28784",
      "str1": "5445 DTC PKWY",
      "str2": "SUITE 1100",
      "city": "GREENWOOD VILLAGE",
      "state": 5,
      "stateSpecified": true,
      "cntry": "United States",
      "postlCd": "80111"
    }
  ],
  "Exms": [
    {
      "exmCd": 0,
      "exmNm": "Uniform Securities Agent State Law Examination",
      "exmDt": "1980-05-29T00:00:00",
      "exmDtSpecified": true
    },
    {
      "exmCd": 2,
      "exmNm": "Uniform Investment Adviser Law Examination",
      "exmDt": "1993-12-08T00:00:00",
      "exmDtSpecified": true
    }
  ],
  "Dsgntns": [],
  "PrevRgstns": [
    {
      "BrnchOfLocs": [
        {
          "city": "DULUTH",
          "state": 24,
          "stateSpecified": true
        },
        {
          "city": "DULUTH",
          "state": 24,
          "stateSpecified": true
        }
      ],
      "orgNm": "MERRILL LYNCH, PIERCE, FENNER & SMITH INCORPORATED",
      "orgPK": "7691",
      "regBeginDt": "1999-01-05T00:00:00",
      "regBeginDtSpecified": true,
      "regEndDt": "2008-01-02T00:00:00",
      "regEndDtSpecified": true
    }
  ],
  "EmpHss": [
    {
      "fromDt": "02/1980",
      "toDt": "11/2007",
      "orgNm": "MERRILL LYNCH, PIERCE, FENNER & SMITH INCORPORATED",
      "city": "DULUTH",
      "state": 24,
      "stateSpecified": true
    },
    {
      "fromDt": "01/2008",
      "toDt": null,
      "orgNm": "PRESIDENTIAL BROKERAGE, INC.",
      "city": "GREENWOOD VILLAGE",
      "state": 5,
      "stateSpecified": true
    }
  ],
  "OthrBuss": {
    "OthrBus": null
  },
  "DRPs": [
    {
      "hasRegAction": 1,
      "hasRegActionSpecified": true,
      "hasCriminal": 1,
      "hasCriminalSpecified": true,
      "hasBankrupt": 1,
      "hasBankruptSpecified": true,
      "hasCivilJudc": 1,
      "hasCivilJudcSpecified": true,
      "hasBond": 1,
      "hasBondSpecified": true,
      "hasJudgment": 1,
      "hasJudgmentSpecified": true,
      "hasInvstgn": 1,
      "hasInvstgnSpecified": true,
      "hasCustComp": 0,
      "hasCustCompSpecified": true,
      "hasTermination": 0,
      "hasTerminationSpecified": true
    }
  ]
}