{
  "Info": {
    "lastNm": "HUDSON",
    "firstNm": "JAMES",
    "midNm": "LESTER",
    "sufNm": null,
    "indvlPK": "709972",
    "actvAGReg": 0,
    "link": "http://www.adviserinfo.sec.gov/IAPD/Individual/709972"
  },
  "OthrNms": [],
  "CrntEmps": [
    {
      "CrntRgstns": [
        {
          "regAuth": 21,
          "regCat": 0,
          "st": 2,
          "stDt": "2015-12-15T00:00:00"
        }
      ],
      "BrnchOfLocs": [
        {
          "str1": "1 FIRSTCOMM PLAZA",
          "str2": null,
          "city": "FORT WORTH",
          "state": 45,
          "stateSpecified": true,
          "cntry": null,
          "postlCd": "76109"
        }
      ],
      "orgNm": "FIRST COMMAND ADVISORY SERVICES",
      "orgPK": "281958",
      "str1": "1 FIRSTCOMM PLAZA",
      "str2": null,
      "city": "FORT WORTH",
      "state": 45,
      "stateSpecified": true,
      "cntry": "United States",
      "postlCd": "76109"
    }
  ],
  "Exms": [
    {
      "exmCd": 0,
      "exmNm": "Uniform Securities Agent State Law Examination",
      "exmDt": "1988-01-20T00:00:00",
      "exmDtSpecified": true
    }
  ],
  "Dsgntns": [
    {
      "dsgntnNm": "Certified Financial Planner"
    },
    {
      "dsgntnNm": "Chartered Financial Consultant"
    }
  ],
  "PrevRgstns": [
    {
      "BrnchOfLocs": [
        {
          "city": "ABINGDON",
          "state": 21,
          "stateSpecified": true
        }
      ],
      "orgNm": "LINCOLN FINANCIAL ADVISORS CORPORATION",
      "orgPK": "3978",
      "regBeginDt": "1993-07-27T00:00:00",
      "regBeginDtSpecified": true,
      "regEndDt": "2003-12-19T00:00:00",
      "regEndDtSpecified": true
    },
    {
      "BrnchOfLocs": [
        {
          "city": "COLUMBIA",
          "state": 21,
          "stateSpecified": true
        },
        {
          "city": "FAIRFAX",
          "state": 47,
          "stateSpecified": true
        }
      ],
      "orgNm": "MSI FINANCIAL SERVICES, INC.",
      "orgPK": "14251",
      "regBeginDt": "2005-03-11T00:00:00",
      "regBeginDtSpecified": true,
      "regEndDt": "2007-06-21T00:00:00",
      "regEndDtSpecified": true
    },
    {
      "BrnchOfLocs": [
        {
          "city": "HUNT VALLEY",
          "state": 21,
          "stateSpecified": true
        }
      ],
      "orgNm": "NEW ENGLAND SECURITIES",
      "orgPK": "615",
      "regBeginDt": "2007-08-02T00:00:00",
      "regBeginDtSpecified": true,
      "regEndDt": "2008-07-24T00:00:00",
      "regEndDtSpecified": true
    }
  ],
  "EmpHss": [
    {
      "fromDt": "12/2003",
      "toDt": "06/2007",
      "orgNm": "METLIFE",
      "city": "FAIRFAX",
      "state": 47,
      "stateSpecified": true
    },
    {
      "fromDt": "06/2007",
      "toDt": "07/2008",
      "orgNm": "NEW ENGLAND SECURITIES",
      "city": "HUNT VALLEY",
      "state": 21,
      "stateSpecified": true
    },
    {
      "fromDt": "07/2008",
      "toDt": null,
      "orgNm": "FIRST COMMAND FINANCIAL PLANNING, INC.",
      "city": "FORT WORTH",
      "state": 45,
      "stateSpecified": true
    },
    {
      "fromDt": "07/2008",
      "toDt": null,
      "orgNm": "FIRST COMMAND FINANCIAL SERVICES, INC.",
      "city": "FORT WORTH",
      "state": 45,
      "stateSpecified": true
    },
    {
      "fromDt": "12/2015",
      "toDt": null,
      "orgNm": "FIRST COMMAND ADVISORY SERVICES",
      "city": "FORT WORTH",
      "state": 45,
      "stateSpecified": true
    }
  ],
  "OthrBuss": {
    "OthrBus": null
  },
  "DRPs": []
}