{
  "Info": {
    "lastNm": "RAND",
    "firstNm": "KENAN",
    "midNm": "SLADE",
    "sufNm": null,
    "indvlPK": "710525",
    "actvAGReg": 0,
    "link": "http://www.adviserinfo.sec.gov/IAPD/Individual/710525"
  },
  "OthrNms": [],
  "CrntEmps": [
    {
      "CrntRgstns": [
        {
          "regAuth": 28,
          "regCat": 0,
          "st": 2,
          "stDt": "2009-08-07T00:00:00"
        }
      ],
      "BrnchOfLocs": [
        {
          "str1": "80 GUARDIAN CT STE 115",
          "str2": null,
          "city": "ROCKY MOUNT",
          "state": 28,
          "stateSpecified": true,
          "cntry": "United States",
          "postlCd": "27804"
        }
      ],
      "orgNm": "WELLS FARGO ADVISORS, LLC",
      "orgPK": "19616",
      "str1": "ONE NORTH JEFFERSON AVENUE",
      "str2": "MAIL CODE: H0004-050",
      "city": "ST. LOUIS",
      "state": 25,
      "stateSpecified": true,
      "cntry": "United States",
      "postlCd": "63103-2205"
    }
  ],
  "Exms": [
    {
      "exmCd": 0,
      "exmNm": "Uniform Securities Agent State Law Examination",
      "exmDt": "1984-08-24T00:00:00",
      "exmDtSpecified": true
    },
    {
      "exmCd": 3,
      "exmNm": "Uniform Combined State Law Examination",
      "exmDt": "2009-07-23T00:00:00",
      "exmDtSpecified": true
    }
  ],
  "Dsgntns": [],
  "PrevRgstns": [],
  "EmpHss": [
    {
      "fromDt": "03/1987",
      "toDt": "01/2008",
      "orgNm": "A.G. EDWARDS",
      "city": "ROCKY MOUNT",
      "state": 28,
      "stateSpecified": true
    },
    {
      "fromDt": "01/2008",
      "toDt": "05/2009",
      "orgNm": "WACHOVIA SECURITIES, LLC",
      "city": "ROCKY MOUNT",
      "state": 28,
      "stateSpecified": true
    },
    {
      "fromDt": "05/2009",
      "toDt": null,
      "orgNm": "WELLS FARGO ADVISORS LLC",
      "city": "ROCKY MOUNT",
      "state": 28,
      "stateSpecified": true
    }
  ],
  "OthrBuss": {
    "OthrBus": null
  },
  "DRPs": []
}