{
  "Info": {
    "lastNm": "GREENE",
    "firstNm": "RICHARD",
    "midNm": "LOUIS",
    "sufNm": null,
    "indvlPK": "712710",
    "actvAGReg": 0,
    "link": "http://www.adviserinfo.sec.gov/IAPD/Individual/712710"
  },
  "OthrNms": [
    {
      "lastNm": "GEENE",
      "firstNm": "RICK",
      "midNm": null,
      "sufNm": null
    },
    {
      "lastNm": "GREENE",
      "firstNm": "RICK",
      "midNm": null,
      "sufNm": null
    },
    {
      "lastNm": "GREENE",
      "firstNm": "RICK",
      "midNm": null,
      "sufNm": null
    }
  ],
  "CrntEmps": [
    {
      "CrntRgstns": [
        {
          "regAuth": 45,
          "regCat": 0,
          "st": 2,
          "stDt": "2015-09-21T00:00:00"
        },
        {
          "regAuth": 23,
          "regCat": 0,
          "st": 2,
          "stDt": "2015-09-23T00:00:00"
        },
        {
          "regAuth": 19,
          "regCat": 0,
          "st": 2,
          "stDt": "2016-03-21T00:00:00"
        }
      ],
      "BrnchOfLocs": [
        {
          "str1": "2260 East Saginaw Street",
          "str2": null,
          "city": "East Lansing",
          "state": 23,
          "stateSpecified": true,
          "cntry": "United States",
          "postlCd": "48823"
        },
        {
          "str1": "65 MADISON AVENUE, SUITE 300",
          "str2": null,
          "city": "MORRISTOWN",
          "state": 32,
          "stateSpecified": true,
          "cntry": "United States",
          "postlCd": "07960"
        }
      ],
      "orgNm": "PRIVATE ADVISOR GROUP, LLC",
      "orgPK": "155216",
      "str1": "65 MADISON AVENUE, SUITE 300",
      "str2": null,
      "city": "MORRISTOWN",
      "state": 32,
      "stateSpecified": true,
      "cntry": "United States",
      "postlCd": "07960"
    },
    {
      "CrntRgstns": [
        {
          "regAuth": 23,
          "regCat": 0,
          "st": 2,
          "stDt": "2010-09-14T00:00:00"
        },
        {
          "regAuth": 45,
          "regCat": 0,
          "st": 2,
          "stDt": "2011-01-06T00:00:00"
        }
      ],
      "BrnchOfLocs": [
        {
          "str1": "2260 E SAGINAW ST",
          "str2": "(BRANCH #3)",
          "city": "EAST LANSING",
          "state": 23,
          "stateSpecified": true,
          "cntry": "United States",
          "postlCd": "48823-9674"
        }
      ],
      "orgNm": "LPL FINANCIAL LLC",
      "orgPK": "6413",
      "str1": "75 STATE STREET, 22ND FLOOR",
      "str2": null,
      "city": "BOSTON",
      "state": 20,
      "stateSpecified": true,
      "cntry": "United States",
      "postlCd": "02109"
    }
  ],
  "Exms": [
    {
      "exmCd": 0,
      "exmNm": "Uniform Securities Agent State Law Examination",
      "exmDt": "1980-07-28T00:00:00",
      "exmDtSpecified": true
    }
  ],
  "Dsgntns": [
    {
      "dsgntnNm": "Certified Financial Planner"
    }
  ],
  "PrevRgstns": [],
  "EmpHss": [
    {
      "fromDt": "05/2004",
      "toDt": null,
      "orgNm": "LPL FINANCIAL LLC",
      "city": "EAST LANSING",
      "state": 23,
      "stateSpecified": true
    },
    {
      "fromDt": "09/2015",
      "toDt": null,
      "orgNm": "Private Advisor Group, LLC",
      "city": "Morristown",
      "state": 32,
      "stateSpecified": true
    }
  ],
  "OthrBuss": {
    "OthrBus": {
      "desc": "(1) 8/27/2004 - DBA ONLY - GREENE WEALTH MANAGEMENT, LLC - EAST LANSING, MI.   (2) 3/13/2008 - NON-VARIABLE INSURANCE - WORK WITH A REP OUTSIDE OF LPL THROUGH THE APPLICATION AND UNDERWRITING PROCESS OF LIFE, DISABILITY, AND LONG TERM CARE INSURANCE. - 1% TIME SPENT - EAST LANSING, MI.    (3) 7/26/2011 - OTHER-FINANCIAL EDUCATION RESEARCH AND TOOLS - PERSONOMICS, INC. - PERSONOMICS, INC. DEVELOPS FINANCIAL DECISION MAKING CONCEPTS AND TOOLS BASED ON BEHAVIORAL FINANCE AND PERSONAL VALUES. IT  INCORPORATED IN 1999 BUT HAS BEEN NON-INCOME PRODUCING FOR MANY YEARS (PRIOR TO MY COMING WITH LPL). - TIME SPENT 10%      (4) 08/28/2015 - MICHIGAN FINANCIAL PARTNERS LLC - REAL ESTATE RENTAL - NOT INV REL - 2260 E. SAGINAW, EAST LANSING MI 48823 - START 08/21/2015  (5) 09/15/2015 - Michigan Financial Partners - Business Entity For Tax/Investment Purposes Only - Rental Income - NOT INV REL - 2260 E Saginaw St. East Lansing, MI 48823 - START 08/28/2015    (6) 05/26/2016 * Private Advisor Group * Registered Investment Advisor Hybrid * (Hybrid) Private Advisor Group * inv rel* 2260 E Saginaw, East Lansing, MI 48823 * Advisory Services Offered. * start 10/16/2015 * 160 hrs/mo; 140 hrs during secs trdg hrs."
    }
  },
  "DRPs": []
}