{
  "Info": {
    "lastNm": "BRAFF",
    "firstNm": "JEFFREY",
    "midNm": "PHILIP",
    "sufNm": null,
    "indvlPK": "716496",
    "actvAGReg": 1,
    "link": "http://www.adviserinfo.sec.gov/IAPD/Individual/716496"
  },
  "OthrNms": [],
  "CrntEmps": [
    {
      "CrntRgstns": [
        {
          "regAuth": 32,
          "regCat": 0,
          "st": 2,
          "stDt": "2002-09-18T00:00:00"
        },
        {
          "regAuth": 39,
          "regCat": 0,
          "st": 2,
          "stDt": "2008-07-25T00:00:00"
        },
        {
          "regAuth": 6,
          "regCat": 0,
          "st": 2,
          "stDt": "2008-10-03T00:00:00"
        },
        {
          "regAuth": 4,
          "regCat": 0,
          "st": 2,
          "stDt": "2015-04-21T00:00:00"
        },
        {
          "regAuth": 45,
          "regCat": 0,
          "st": 3,
          "stDt": "2015-04-21T00:00:00"
        },
        {
          "regAuth": 50,
          "regCat": 0,
          "st": 2,
          "stDt": "2015-04-21T00:00:00"
        },
        {
          "regAuth": 28,
          "regCat": 0,
          "st": 2,
          "stDt": "2015-04-22T00:00:00"
        },
        {
          "regAuth": 31,
          "regCat": 0,
          "st": 2,
          "stDt": "2015-04-23T00:00:00"
        },
        {
          "regAuth": 19,
          "regCat": 0,
          "st": 2,
          "stDt": "2015-04-27T00:00:00"
        },
        {
          "regAuth": 9,
          "regCat": 0,
          "st": 2,
          "stDt": "2015-05-15T00:00:00"
        }
      ],
      "BrnchOfLocs": [
        {
          "str1": "1195 HAMBURG TURNPIKE",
          "str2": null,
          "city": "WAYNE",
          "state": 32,
          "stateSpecified": true,
          "cntry": "United States",
          "postlCd": "07470-5055"
        }
      ],
      "orgNm": "HALLMARK CAPITAL MANAGEMENT INC",
      "orgPK": "108879",
      "str1": "1195 HAMBURG TURNPIKE",
      "str2": null,
      "city": "WAYNE",
      "state": 32,
      "stateSpecified": true,
      "cntry": "United States",
      "postlCd": "07470-5055"
    }
  ],
  "Exms": [],
  "Dsgntns": [],
  "PrevRgstns": [],
  "EmpHss": [
    {
      "fromDt": "07/1986",
      "toDt": null,
      "orgNm": "HALLMARK CAPITAL MANAGEMENT, INC.",
      "city": "WAYNE",
      "state": 32,
      "stateSpecified": true
    }
  ],
  "OthrBuss": {
    "OthrBus": null
  },
  "DRPs": []
}