{
  "Info": {
    "lastNm": "RESNIK",
    "firstNm": "NEIL",
    "midNm": "HOWARD",
    "sufNm": null,
    "indvlPK": "716435",
    "actvAGReg": 0,
    "link": "http://www.adviserinfo.sec.gov/IAPD/Individual/716435"
  },
  "OthrNms": [
    {
      "lastNm": "RESNICK",
      "firstNm": "NEAL",
      "midNm": "HOWARD",
      "sufNm": null
    }
  ],
  "CrntEmps": [
    {
      "CrntRgstns": [
        {
          "regAuth": 45,
          "regCat": 0,
          "st": 2,
          "stDt": "2016-04-13T00:00:00"
        }
      ],
      "BrnchOfLocs": [
        {
          "str1": "4500 WESTGROVE DRIVE",
          "str2": "SUITE 356",
          "city": "ADDISON",
          "state": 45,
          "stateSpecified": true,
          "cntry": "United States",
          "postlCd": "75001"
        },
        {
          "str1": "ONE NATIONAL LIFE DRIVE",
          "str2": null,
          "city": "MONTPELIER",
          "state": 48,
          "stateSpecified": true,
          "cntry": "United States",
          "postlCd": "05604"
        }
      ],
      "orgNm": "EQUITY SERVICES, INC.",
      "orgPK": "265",
      "str1": "ONE NATIONAL LIFE DRIVE",
      "str2": null,
      "city": "MONTPELIER",
      "state": 48,
      "stateSpecified": true,
      "cntry": "United States",
      "postlCd": "05604"
    }
  ],
  "Exms": [
    {
      "exmCd": 0,
      "exmNm": "Uniform Securities Agent State Law Examination",
      "exmDt": "1980-09-30T00:00:00",
      "exmDtSpecified": true
    }
  ],
  "Dsgntns": [],
  "PrevRgstns": [
    {
      "BrnchOfLocs": [
        {
          "city": "ADDISON",
          "state": 45,
          "stateSpecified": true
        }
      ],
      "orgNm": "NEW ENGLAND SECURITIES",
      "orgPK": "615",
      "regBeginDt": "2002-07-03T00:00:00",
      "regBeginDtSpecified": true,
      "regEndDt": "2003-03-07T00:00:00",
      "regEndDtSpecified": true
    }
  ],
  "EmpHss": [
    {
      "fromDt": "05/1979",
      "toDt": null,
      "orgNm": "SELF",
      "city": "DALLAS",
      "state": 45,
      "stateSpecified": true
    },
    {
      "fromDt": "07/1980",
      "toDt": null,
      "orgNm": "RESNIK AND ASSOCIATES",
      "city": "DALLAS",
      "state": 45,
      "stateSpecified": true
    },
    {
      "fromDt": "07/1980",
      "toDt": null,
      "orgNm": "SELF EMPLOYED",
      "city": "DALLAS",
      "state": 45,
      "stateSpecified": true
    }
  ],
  "OthrBuss": {
    "OthrBus": {
      "desc": "*CREATIVE FINANCIAL PROFESSIONALS, INV REL, PO BOX 1166, ADDISON TX 75001, LIFE INS. HEALTH INS. SALES, OWNER, 1981, 200 HRS/MO, DUR TRAD HRS, AGENT FOR SEV INS COS TO SELL LIFE, HEALTH AND DIS. *LEENIK VENTURES, LLC. NOT INV REL, CURRENTLY THE COMPANY HOLDS NO ASSETS OR BANK ACCOUNTS. MEMBER, 12/2004, NO HRS/MO, NOT DUR TRD HRS,THE COMPANY PREVIOUSLY OWNED AN OFFICE FURNITURE STORE THAT WAS SOLD IN NOVEMBER 2009."
    }
  },
  "DRPs": []
}