{
  "Info": {
    "lastNm": "Denning",
    "firstNm": "Richard",
    "midNm": "C.",
    "sufNm": null,
    "indvlPK": "721602",
    "actvAGReg": 0,
    "link": "http://www.adviserinfo.sec.gov/IAPD/Individual/721602"
  },
  "OthrNms": [
    {
      "lastNm": "DENNING",
      "firstNm": "DICK",
      "midNm": null,
      "sufNm": null
    },
    {
      "lastNm": "DENNING",
      "firstNm": "RICHARD",
      "midNm": "C",
      "sufNm": "JR"
    }
  ],
  "CrntEmps": [
    {
      "CrntRgstns": [
        {
          "regAuth": 36,
          "regCat": 0,
          "st": 2,
          "stDt": "2007-01-24T00:00:00"
        }
      ],
      "BrnchOfLocs": [
        {
          "str1": "215 E MARKET ST",
          "str2": null,
          "city": "CELINA",
          "state": 36,
          "stateSpecified": true,
          "cntry": "United States",
          "postlCd": "45822-0406"
        }
      ],
      "orgNm": "EDWARD JONES",
      "orgPK": "250",
      "str1": "12555 MANCHESTER RD",
      "str2": null,
      "city": "ST. LOUIS",
      "state": 25,
      "stateSpecified": true,
      "cntry": "United States",
      "postlCd": "63131"
    }
  ],
  "Exms": [
    {
      "exmCd": 0,
      "exmNm": "Uniform Securities Agent State Law Examination",
      "exmDt": "1981-01-05T00:00:00",
      "exmDtSpecified": true
    }
  ],
  "Dsgntns": [],
  "PrevRgstns": [],
  "EmpHss": [
    {
      "fromDt": "09/1980",
      "toDt": null,
      "orgNm": "EDWARD D. JONES",
      "city": "MARYLAND HTS",
      "state": 25,
      "stateSpecified": true
    },
    {
      "fromDt": "01/1981",
      "toDt": null,
      "orgNm": "EDWARD D. JONES & CO., L.P.",
      "city": "CELINA",
      "state": 36,
      "stateSpecified": true
    }
  ],
  "OthrBuss": {
    "OthrBus": {
      "desc": "\"Commercial Rental Property  Type of business: Rental Property  Celina, OH  Start date: 6/15/1997  Owner  Hours per week: 1  Hours during trading: 0  Maintain Property\"    \"The Country Bike Shop  Type of business: Specialty bicycle retailer  Celina, OH  Start date: 7/1/2007  Owner  Hours per week: 1  Hours during trading: 0  \""
    }
  },
  "DRPs": []
}