{
  "Info": {
    "lastNm": "JOHNSON",
    "firstNm": "JANET",
    "midNm": "SUE",
    "sufNm": null,
    "indvlPK": "722883",
    "actvAGReg": 0,
    "link": "http://www.adviserinfo.sec.gov/IAPD/Individual/722883"
  },
  "OthrNms": [
    {
      "lastNm": "CROFT",
      "firstNm": "JANET",
      "midNm": "S",
      "sufNm": null
    },
    {
      "lastNm": "CROFT",
      "firstNm": "JANET",
      "midNm": "SUE",
      "sufNm": null
    },
    {
      "lastNm": "CROFTHILL",
      "firstNm": "JANET",
      "midNm": "SUE",
      "sufNm": null
    },
    {
      "lastNm": "HILL",
      "firstNm": "JANET",
      "midNm": "SUE",
      "sufNm": null
    },
    {
      "lastNm": "HUKLE",
      "firstNm": "JANET",
      "midNm": "S",
      "sufNm": null
    }
  ],
  "CrntEmps": [
    {
      "CrntRgstns": [
        {
          "regAuth": 17,
          "regCat": 0,
          "st": 2,
          "stDt": "2007-12-03T00:00:00"
        },
        {
          "regAuth": 45,
          "regCat": 0,
          "st": 3,
          "stDt": "2007-12-13T00:00:00"
        }
      ],
      "BrnchOfLocs": [
        {
          "str1": "2959 N ROCK RD",
          "str2": null,
          "city": "WICHITA",
          "state": 17,
          "stateSpecified": true,
          "cntry": "United States",
          "postlCd": "67226"
        }
      ],
      "orgNm": "MERRILL LYNCH, PIERCE, FENNER & SMITH INCORPORATED",
      "orgPK": "7691",
      "str1": "ONE BRYANT PARK",
      "str2": null,
      "city": "NEW YORK",
      "state": 35,
      "stateSpecified": true,
      "cntry": "United States",
      "postlCd": "10036"
    }
  ],
  "Exms": [
    {
      "exmCd": 0,
      "exmNm": "Uniform Securities Agent State Law Examination",
      "exmDt": "1981-01-29T00:00:00",
      "exmDtSpecified": true
    },
    {
      "exmCd": 2,
      "exmNm": "Uniform Investment Adviser Law Examination",
      "exmDt": "1999-06-29T00:00:00",
      "exmDtSpecified": true
    }
  ],
  "Dsgntns": [],
  "PrevRgstns": [
    {
      "BrnchOfLocs": [
        {
          "city": "WICHITA",
          "state": 17,
          "stateSpecified": true
        },
        {
          "city": "WICHITA",
          "state": 17,
          "stateSpecified": true
        }
      ],
      "orgNm": "UBS FINANCIAL SERVICES INC.",
      "orgPK": "8174",
      "regBeginDt": "1999-04-29T00:00:00",
      "regBeginDtSpecified": true,
      "regEndDt": "2007-12-07T00:00:00",
      "regEndDtSpecified": true
    }
  ],
  "EmpHss": [
    {
      "fromDt": "04/1999",
      "toDt": "11/2007",
      "orgNm": "UBS FINANCIAL SERVICES INC.",
      "city": "WICHITA",
      "state": 17,
      "stateSpecified": true
    },
    {
      "fromDt": "11/2007",
      "toDt": null,
      "orgNm": "MERRILL LYNCH, PIERCE, FENNER & SMITH INCORPORATED",
      "city": "WICHITA",
      "state": 17,
      "stateSpecified": true
    },
    {
      "fromDt": "11/2009",
      "toDt": null,
      "orgNm": "BANK OF AMERICA, NA",
      "city": "WICHITA",
      "state": 17,
      "stateSpecified": true
    }
  ],
  "OthrBuss": {
    "OthrBus": null
  },
  "DRPs": [
    {
      "hasRegAction": 1,
      "hasRegActionSpecified": true,
      "hasCriminal": 1,
      "hasCriminalSpecified": true,
      "hasBankrupt": 1,
      "hasBankruptSpecified": true,
      "hasCivilJudc": 1,
      "hasCivilJudcSpecified": true,
      "hasBond": 1,
      "hasBondSpecified": true,
      "hasJudgment": 1,
      "hasJudgmentSpecified": true,
      "hasInvstgn": 1,
      "hasInvstgnSpecified": true,
      "hasCustComp": 0,
      "hasCustCompSpecified": true,
      "hasTermination": 1,
      "hasTerminationSpecified": true
    }
  ]
}