{
  "Info": {
    "lastNm": "COOPER",
    "firstNm": "RANDALL",
    "midNm": "RICHARD",
    "sufNm": null,
    "indvlPK": "722860",
    "actvAGReg": 1,
    "link": "http://www.adviserinfo.sec.gov/IAPD/Individual/722860"
  },
  "OthrNms": [],
  "CrntEmps": [
    {
      "CrntRgstns": [
        {
          "regAuth": 9,
          "regCat": 0,
          "st": 2,
          "stDt": "2003-06-04T00:00:00"
        }
      ],
      "BrnchOfLocs": [
        {
          "str1": null,
          "str2": null,
          "city": "TAMPA",
          "state": 9,
          "stateSpecified": true,
          "cntry": "United States",
          "postlCd": null
        }
      ],
      "orgNm": "LIFE TRANSITION PLANNING",
      "orgPK": "126229",
      "str1": null,
      "str2": null,
      "city": "TAMPA",
      "state": 9,
      "stateSpecified": true,
      "cntry": "United States",
      "postlCd": null
    }
  ],
  "Exms": [
    {
      "exmCd": 0,
      "exmNm": "Uniform Securities Agent State Law Examination",
      "exmDt": "1981-02-11T00:00:00",
      "exmDtSpecified": true
    },
    {
      "exmCd": 2,
      "exmNm": "Uniform Investment Adviser Law Examination",
      "exmDt": "2003-02-03T00:00:00",
      "exmDtSpecified": true
    }
  ],
  "Dsgntns": [],
  "PrevRgstns": [
    {
      "BrnchOfLocs": [
        {
          "city": "CLEARWATER",
          "state": 9,
          "stateSpecified": true
        }
      ],
      "orgNm": "AMSOUTH INVESTMENT SERVICES, INC.",
      "orgPK": "15692",
      "regBeginDt": "2003-01-06T00:00:00",
      "regBeginDtSpecified": true,
      "regEndDt": "2003-02-18T00:00:00",
      "regEndDtSpecified": true
    }
  ],
  "EmpHss": [
    {
      "fromDt": "05/2001",
      "toDt": null,
      "orgNm": "AMSOUTH INVESTMENT SERVICES, INC.",
      "city": "CLEARWATER",
      "state": 9,
      "stateSpecified": true
    }
  ],
  "OthrBuss": {
    "OthrBus": null
  },
  "DRPs": []
}