{
  "Info": {
    "lastNm": "LEONARDI",
    "firstNm": "THOMAS",
    "midNm": "M",
    "sufNm": null,
    "indvlPK": "723356",
    "actvAGReg": 0,
    "link": "http://www.adviserinfo.sec.gov/IAPD/Individual/723356"
  },
  "OthrNms": [
    {
      "lastNm": "LEONARDI",
      "firstNm": "THOMAS",
      "midNm": null,
      "sufNm": null
    },
    {
      "lastNm": "LEONARDI",
      "firstNm": "TOM",
      "midNm": null,
      "sufNm": null
    }
  ],
  "CrntEmps": [
    {
      "CrntRgstns": [
        {
          "regAuth": 36,
          "regCat": 0,
          "st": 2,
          "stDt": "2003-02-18T00:00:00"
        }
      ],
      "BrnchOfLocs": [
        {
          "str1": "1717 BRITTAIN ROAD",
          "str2": "SUITE 104",
          "city": "AKRON",
          "state": 36,
          "stateSpecified": true,
          "cntry": "United States",
          "postlCd": "44310"
        },
        {
          "str1": "30 NORTHWEST AVENUE",
          "str2": "BUILDING A, SUITE 100",
          "city": "TALLMADGE",
          "state": 36,
          "stateSpecified": true,
          "cntry": "United States",
          "postlCd": "44278"
        }
      ],
      "orgNm": "STRATEGIC CAPITAL ADVISORS",
      "orgPK": "119375",
      "str1": "30A NORTHWEST AVENUE",
      "str2": "SUITE 100",
      "city": "TALLMADGE",
      "state": 36,
      "stateSpecified": true,
      "cntry": "United States",
      "postlCd": "44278"
    },
    {
      "CrntRgstns": [
        {
          "regAuth": 36,
          "regCat": 0,
          "st": 2,
          "stDt": "2009-02-27T00:00:00"
        }
      ],
      "BrnchOfLocs": [
        {
          "str1": "30 NORTHWEST AVENUE",
          "str2": "BUILDING A, SUITE 100",
          "city": "TALLMADGE",
          "state": 36,
          "stateSpecified": true,
          "cntry": "United States",
          "postlCd": "44278"
        }
      ],
      "orgNm": "FSC SECURITIES CORPORATION",
      "orgPK": "7461",
      "str1": "2300 WINDY RIDGE PKWY, STE 1100",
      "str2": null,
      "city": "ATLANTA",
      "state": 10,
      "stateSpecified": true,
      "cntry": "United States",
      "postlCd": "30339"
    }
  ],
  "Exms": [
    {
      "exmCd": 0,
      "exmNm": "Uniform Securities Agent State Law Examination",
      "exmDt": "1986-11-07T00:00:00",
      "exmDtSpecified": true
    }
  ],
  "Dsgntns": [
    {
      "dsgntnNm": "Certified Financial Planner"
    }
  ],
  "PrevRgstns": [
    {
      "BrnchOfLocs": [
        {
          "city": "HUBBARD",
          "state": 36,
          "stateSpecified": true
        },
        {
          "city": "ROCKY RIVER",
          "state": 36,
          "stateSpecified": true
        },
        {
          "city": "TALLMADGE",
          "state": 36,
          "stateSpecified": true
        }
      ],
      "orgNm": "ADVANTAGE CAPITAL CORPORATION",
      "orgPK": "146",
      "regBeginDt": "2002-02-27T00:00:00",
      "regBeginDtSpecified": true,
      "regEndDt": "2009-02-27T00:00:00",
      "regEndDtSpecified": true
    }
  ],
  "EmpHss": [
    {
      "fromDt": "01/1985",
      "toDt": null,
      "orgNm": "T. M. LEONARDI & ASSOCIATES",
      "city": "TALLMADGE",
      "state": 36,
      "stateSpecified": true
    },
    {
      "fromDt": "11/1992",
      "toDt": "02/2009",
      "orgNm": "ADVANTAGE CAPITAL CORPORATION",
      "city": "TALLMADGE",
      "state": 36,
      "stateSpecified": true
    },
    {
      "fromDt": "02/2002",
      "toDt": null,
      "orgNm": "STRATEGIC CAPITAL ADVISORS, INC.",
      "city": "AKRON",
      "state": 36,
      "stateSpecified": true
    },
    {
      "fromDt": "02/2009",
      "toDt": null,
      "orgNm": "FSC SECURITIES CORPORATION",
      "city": "TALLMADGE",
      "state": 36,
      "stateSpecified": true
    }
  ],
  "OthrBuss": {
    "OthrBus": {
      "desc": "FSC SECURITIES CORPORATION - INVESTMENT AND SECURITIES BROKER, INSURANCE SALES, AND INVESTMENT ADVISORY REPRESENTATIVE. I OWN/MANAGE A RENTAL REAL ESTATE BUSINESS.I WORK FOR 1 HR A WEEK.  INSURANCE DONE THROUGH HIS DBA, STRATEGIC CAPITAL ADVISORS, INC."
    }
  },
  "DRPs": []
}