{
  "Info": {
    "lastNm": "SCHNEIDER AGUILAR",
    "firstNm": "PAULA",
    "midNm": "MARIE",
    "sufNm": null,
    "indvlPK": "726005",
    "actvAGReg": 0,
    "link": "http://www.adviserinfo.sec.gov/IAPD/Individual/726005"
  },
  "OthrNms": [
    {
      "lastNm": "AGUILAR",
      "firstNm": "PAULA",
      "midNm": "MARIE",
      "sufNm": null
    },
    {
      "lastNm": "AQUILAR",
      "firstNm": "PAULA",
      "midNm": "MARIE",
      "sufNm": null
    },
    {
      "lastNm": "SCHNEIDER",
      "firstNm": "PAULA",
      "midNm": "M",
      "sufNm": null
    },
    {
      "lastNm": "SCHNEIDER",
      "firstNm": "PAULA",
      "midNm": "MARIE",
      "sufNm": null
    },
    {
      "lastNm": "SCHNEIDER",
      "firstNm": "PAULA",
      "midNm": "MARIE",
      "sufNm": null
    },
    {
      "lastNm": "SCHNEIDER-AGUILAR",
      "firstNm": "PAULA",
      "midNm": "MARIE",
      "sufNm": null
    }
  ],
  "CrntEmps": [
    {
      "CrntRgstns": [
        {
          "regAuth": 15,
          "regCat": 0,
          "st": 2,
          "stDt": "2011-01-06T00:00:00"
        }
      ],
      "BrnchOfLocs": [
        {
          "str1": "231 S. LASALLE STREET",
          "str2": "4TH FLOOR",
          "city": "CHICAGO",
          "state": 15,
          "stateSpecified": true,
          "cntry": "United States",
          "postlCd": "60604"
        },
        {
          "str1": "576 LINCOLN AVENUE",
          "str2": null,
          "city": "WINNETKA",
          "state": 15,
          "stateSpecified": true,
          "cntry": "United States",
          "postlCd": "60093"
        }
      ],
      "orgNm": "GREAT LAKES ADVISORS, LLC",
      "orgPK": "110757",
      "str1": "231 S. LASALLE STREET",
      "str2": "4TH FLOOR",
      "city": "CHICAGO",
      "state": 15,
      "stateSpecified": true,
      "cntry": "United States",
      "postlCd": "60604"
    },
    {
      "CrntRgstns": [
        {
          "regAuth": 15,
          "regCat": 0,
          "st": 2,
          "stDt": "2011-01-06T00:00:00"
        }
      ],
      "BrnchOfLocs": [
        {
          "str1": "231 SOUTH LASALLE STREET",
          "str2": "13TH FLOOR",
          "city": "CHICAGO",
          "state": 15,
          "stateSpecified": true,
          "cntry": "UNITED STATES",
          "postlCd": "60604"
        },
        {
          "str1": "576 LINCOLN AVE.",
          "str2": null,
          "city": "WINNETKA",
          "state": 15,
          "stateSpecified": true,
          "cntry": "United States",
          "postlCd": "60093"
        }
      ],
      "orgNm": "WAYNE HUMMER INVESTMENTS L.L.C.",
      "orgPK": "875",
      "str1": "231 SOUTH LASALLE STREET",
      "str2": "13TH FLOOR",
      "city": "CHICAGO",
      "state": 15,
      "stateSpecified": true,
      "cntry": "United States",
      "postlCd": "60604"
    }
  ],
  "Exms": [
    {
      "exmCd": 0,
      "exmNm": "Uniform Securities Agent State Law Examination",
      "exmDt": "1991-07-31T00:00:00",
      "exmDtSpecified": true
    },
    {
      "exmCd": 2,
      "exmNm": "Uniform Investment Adviser Law Examination",
      "exmDt": "2006-04-03T00:00:00",
      "exmDtSpecified": true
    }
  ],
  "Dsgntns": [],
  "PrevRgstns": [
    {
      "BrnchOfLocs": [
        {
          "city": "WINNETKA",
          "state": 15,
          "stateSpecified": true
        },
        {
          "city": "WINNETKA",
          "state": 15,
          "stateSpecified": true
        }
      ],
      "orgNm": "MORGAN STANLEY DW INC.",
      "orgPK": "7556",
      "regBeginDt": "2006-04-04T00:00:00",
      "regBeginDtSpecified": true,
      "regEndDt": "2007-04-02T00:00:00",
      "regEndDtSpecified": true
    },
    {
      "BrnchOfLocs": [
        {
          "city": "WINNETKA",
          "state": 15,
          "stateSpecified": true
        }
      ],
      "orgNm": "MORGAN STANLEY & CO. LLC",
      "orgPK": "8209",
      "regBeginDt": "2007-04-02T00:00:00",
      "regBeginDtSpecified": true,
      "regEndDt": "2009-06-01T00:00:00",
      "regEndDtSpecified": true
    },
    {
      "BrnchOfLocs": [
        {
          "city": "LAKE FOREST",
          "state": 15,
          "stateSpecified": true
        },
        {
          "city": "WINNETKA",
          "state": 15,
          "stateSpecified": true
        }
      ],
      "orgNm": "MORGAN STANLEY",
      "orgPK": "149777",
      "regBeginDt": "2009-06-01T00:00:00",
      "regBeginDtSpecified": true,
      "regEndDt": "2011-01-12T00:00:00",
      "regEndDtSpecified": true
    }
  ],
  "EmpHss": [
    {
      "fromDt": "07/2003",
      "toDt": null,
      "orgNm": "SHIEVITZ ENTERPRISES, INC.",
      "city": "NORTHBROOK",
      "state": 15,
      "stateSpecified": true
    },
    {
      "fromDt": "05/2005",
      "toDt": "04/2007",
      "orgNm": "MORGAN STANLEY DW IN",
      "city": "WINNETKA",
      "state": 15,
      "stateSpecified": true
    },
    {
      "fromDt": "04/2007",
      "toDt": null,
      "orgNm": "MORGAN STANLEY & CO., INCORPORATED",
      "city": "WINNETKA",
      "state": 15,
      "stateSpecified": true
    },
    {
      "fromDt": "06/2009",
      "toDt": null,
      "orgNm": "MORGAN STANLEY SMITH BARNEY",
      "city": "WINNETKA",
      "state": 15,
      "stateSpecified": true
    }
  ],
  "OthrBuss": {
    "OthrBus": {
      "desc": "GREAT LAKES ADVISORS IS LOCATED AT 576 LINCOLN AVENUE WINNETKA, IL 60693. INVESTMENT-RELATED, AFFILIATED INVESTMENT ADVISOR. POSITION IS A REGISTERED FINANCIAL ASSOCIATE  ROLE WITH  160 HOURS PER MONTH, OF WHICH 160  HOURS PER MONTH ARE DURING SECURITIES TRADING HOURS. START DATE OF POSITION IS 12/31/2005.  DUTIES INCLUDE ADMINISTRATION AND CLIENT SERVICE. WHI COMPLIANCE HAS REVIEWED THE OUTSIDE EMPLOYMENT AND HAVE DETERMINED THAT ACTIVITY: 1.) DOES NOT INTERFERE WITH OR COMPROMISE EMPLOYEE'S RESPONSIBILTIES TO WHI, AND 2.) WILL NOT BE VIEWED BY THE PUBLIC AS PART OF WHI'S BUSINESS."
    }
  },
  "DRPs": [
    {
      "hasRegAction": 1,
      "hasRegActionSpecified": true,
      "hasCriminal": 1,
      "hasCriminalSpecified": true,
      "hasBankrupt": 1,
      "hasBankruptSpecified": true,
      "hasCivilJudc": 1,
      "hasCivilJudcSpecified": true,
      "hasBond": 1,
      "hasBondSpecified": true,
      "hasJudgment": 0,
      "hasJudgmentSpecified": true,
      "hasInvstgn": 1,
      "hasInvstgnSpecified": true,
      "hasCustComp": 1,
      "hasCustCompSpecified": true,
      "hasTermination": 0,
      "hasTerminationSpecified": true
    }
  ]
}