{
  "Info": {
    "lastNm": "DAVIS",
    "firstNm": "LAWRENCE",
    "midNm": "RHODES",
    "sufNm": null,
    "indvlPK": "729342",
    "actvAGReg": 0,
    "link": "http://www.adviserinfo.sec.gov/IAPD/Individual/729342"
  },
  "OthrNms": [
    {
      "lastNm": "DAVIS",
      "firstNm": "LARRY",
      "midNm": null,
      "sufNm": null
    }
  ],
  "CrntEmps": [
    {
      "CrntRgstns": [
        {
          "regAuth": 45,
          "regCat": 0,
          "st": 2,
          "stDt": "2013-01-08T00:00:00"
        },
        {
          "regAuth": 5,
          "regCat": 0,
          "st": 2,
          "stDt": "2013-01-16T00:00:00"
        },
        {
          "regAuth": 3,
          "regCat": 0,
          "st": 2,
          "stDt": "2013-01-24T00:00:00"
        }
      ],
      "BrnchOfLocs": [
        {
          "str1": null,
          "str2": null,
          "city": "Florence",
          "state": 3,
          "stateSpecified": true,
          "cntry": "United States",
          "postlCd": null
        },
        {
          "str1": "8080 E. GELDING DRIVE",
          "str2": "SUITE 105",
          "city": "SCOTTSDALE",
          "state": 3,
          "stateSpecified": true,
          "cntry": "United States",
          "postlCd": "85260"
        }
      ],
      "orgNm": "NATIONAL PLANNING CORPORATION",
      "orgPK": "29604",
      "str1": "100 NORTH SEPULVEDA BLVD",
      "str2": "SUITE 1800",
      "city": "EL SEGUNDO",
      "state": 4,
      "stateSpecified": true,
      "cntry": "United States",
      "postlCd": "90245"
    }
  ],
  "Exms": [
    {
      "exmCd": 0,
      "exmNm": "Uniform Securities Agent State Law Examination",
      "exmDt": "1984-08-21T00:00:00",
      "exmDtSpecified": true
    }
  ],
  "Dsgntns": [
    {
      "dsgntnNm": "Chartered Financial Consultant"
    }
  ],
  "PrevRgstns": [
    {
      "BrnchOfLocs": [
        {
          "city": "AURORA",
          "state": 5,
          "stateSpecified": true
        }
      ],
      "orgNm": "WS GRIFFITH SECURITIES, INC.",
      "orgPK": "10410",
      "regBeginDt": "1999-01-01T00:00:00",
      "regBeginDtSpecified": true,
      "regEndDt": "2004-06-02T00:00:00",
      "regEndDtSpecified": true
    },
    {
      "BrnchOfLocs": [
        {
          "city": "CASA GRANDE",
          "state": 3,
          "stateSpecified": true
        },
        {
          "city": "ENGLEWOOD",
          "state": 5,
          "stateSpecified": true
        },
        {
          "city": "MARICOPA",
          "state": 3,
          "stateSpecified": true
        }
      ],
      "orgNm": "LPL FINANCIAL LLC",
      "orgPK": "6413",
      "regBeginDt": "2004-06-01T00:00:00",
      "regBeginDtSpecified": true,
      "regEndDt": "2013-01-28T00:00:00",
      "regEndDtSpecified": true
    }
  ],
  "EmpHss": [
    {
      "fromDt": "06/2004",
      "toDt": "01/2013",
      "orgNm": "LINSCO/PRIVATE LEDGER CORP.",
      "city": "CENTENNIAL",
      "state": 5,
      "stateSpecified": true
    },
    {
      "fromDt": "03/2010",
      "toDt": "06/2010",
      "orgNm": "PINAL COUNTY FEDERAL C U",
      "city": "CASA GRANDE",
      "state": 3,
      "stateSpecified": true
    },
    {
      "fromDt": "01/2013",
      "toDt": null,
      "orgNm": "NATIONAL PLANNING CORPORATION",
      "city": "SCOTTSDALE",
      "state": 3,
      "stateSpecified": true
    }
  ],
  "OthrBuss": {
    "OthrBus": {
      "desc": "1. 6/2/2004 - NON-VARIABLE INSURANCE - FIXED INSURANCE - MARICOPA, AZ.--     2. 6/2/2004 - DBA ONLY - DAVIS & ASSOCIATES - MARICOPA, AZ.--      3.  1/26/2011 - NON-VARIABLE INSURANCE DBA - LAWRENCE DAVIS AND ASSOCIATES - FIXED INSURANCE - TIME SPENT 20% - MARICOPA, AZ.--    [LAWRENCE & MARIAN DAVIS REVOCABLE TRUST, 5100 JOHN D. RYAN BLVD # 433 SAN ANTONIO TX 78245, CO-TRUSTEE, 12/17/2012, 5 HOURS TOTAL, 0 DURING TRADING HOURS, PROVIDE ASSISTANCE TO ELDERLY PARENTS IN MANAGEMENT OF INCOME & ASSETS.].--    4.LAWRENCE & MERIAN DAVIS - NO - 41906 W GRANDADA DR, MARICEPA, AZ 85138 - POWER OF ATTORNEY - 05/10/13 - 10/0 HRS/MNTH.--    [LAWRENCE & MARIAN DAVIS REVOCABLE TRUST, 5100 JOHN D. RYAN BLVD # 433 SAN ANTONIO TX 78245, CO-TRUSTEE, 12/17/2012, 5 HOURS TOTAL, 0 DURING TRADING HOURS, PROVIDE ASSISTANCE TO ELDERLY PARENTS IN MANAGEMENT OF INCOME & ASSETS.].--    5. SECURUS FINANCIAL GROUP, 4178 N PRESIDENTIAL DR FLORENCE AZ 85132-3932, REGISTERED REP, 1/4/2013, 150 HOURS TOTAL, 120 DURING TRADING HOURS, DBA ONLY."
    }
  },
  "DRPs": [
    {
      "hasRegAction": 1,
      "hasRegActionSpecified": true,
      "hasCriminal": 1,
      "hasCriminalSpecified": true,
      "hasBankrupt": 0,
      "hasBankruptSpecified": true,
      "hasCivilJudc": 1,
      "hasCivilJudcSpecified": true,
      "hasBond": 1,
      "hasBondSpecified": true,
      "hasJudgment": 1,
      "hasJudgmentSpecified": true,
      "hasInvstgn": 1,
      "hasInvstgnSpecified": true,
      "hasCustComp": 1,
      "hasCustCompSpecified": true,
      "hasTermination": 1,
      "hasTerminationSpecified": true
    }
  ]
}