{
  "Info": {
    "lastNm": "KERN",
    "firstNm": "TED",
    "midNm": "STEVENSON",
    "sufNm": null,
    "indvlPK": "733154",
    "actvAGReg": 0,
    "link": "http://www.adviserinfo.sec.gov/IAPD/Individual/733154"
  },
  "OthrNms": [],
  "CrntEmps": [
    {
      "CrntRgstns": [
        {
          "regAuth": 9,
          "regCat": 0,
          "st": 2,
          "stDt": "2008-08-27T00:00:00"
        }
      ],
      "BrnchOfLocs": [
        {
          "str1": "501 S INDIANA AVE STE A",
          "str2": null,
          "city": "ENGLEWOOD",
          "state": 9,
          "stateSpecified": true,
          "cntry": "United States",
          "postlCd": "34223"
        }
      ],
      "orgNm": "EDWARD JONES",
      "orgPK": "250",
      "str1": "12555 MANCHESTER RD",
      "str2": null,
      "city": "ST. LOUIS",
      "state": 25,
      "stateSpecified": true,
      "cntry": "United States",
      "postlCd": "63131"
    }
  ],
  "Exms": [
    {
      "exmCd": 0,
      "exmNm": "Uniform Securities Agent State Law Examination",
      "exmDt": "1999-07-22T00:00:00",
      "exmDtSpecified": true
    },
    {
      "exmCd": 3,
      "exmNm": "Uniform Combined State Law Examination",
      "exmDt": "2008-08-08T00:00:00",
      "exmDtSpecified": true
    }
  ],
  "Dsgntns": [],
  "PrevRgstns": [],
  "EmpHss": [
    {
      "fromDt": "05/1999",
      "toDt": null,
      "orgNm": "EDWARD D. JONES & CO., L.P.",
      "city": "ST. LOUIS",
      "state": 25,
      "stateSpecified": true
    }
  ],
  "OthrBuss": {
    "OthrBus": {
      "desc": "\"BIG BROTHER / BIG SISTER COMMUNITY BOARD  Englewood, FL  Start date: 12/3/2001  board member  Hours per week: 0  Hours during trading: 0   MEETINGS FOR THE ENGELWOOD AREA\""
    }
  },
  "DRPs": []
}