{
  "Info": {
    "lastNm": "CAVIN",
    "firstNm": "THOMAS",
    "midNm": "FORREST",
    "sufNm": null,
    "indvlPK": "733535",
    "actvAGReg": 0,
    "link": "http://www.adviserinfo.sec.gov/IAPD/Individual/733535"
  },
  "OthrNms": [],
  "CrntEmps": [
    {
      "CrntRgstns": [
        {
          "regAuth": 4,
          "regCat": 0,
          "st": 2,
          "stDt": "1999-07-30T00:00:00"
        },
        {
          "regAuth": 38,
          "regCat": 0,
          "st": 2,
          "stDt": "2015-10-26T00:00:00"
        }
      ],
      "BrnchOfLocs": [
        {
          "str1": "2805 PORTER STREET",
          "str2": null,
          "city": "SOQUEL",
          "state": 4,
          "stateSpecified": true,
          "cntry": "United States",
          "postlCd": "95073"
        },
        {
          "str1": "2900 Lakeside Drive",
          "str2": "Suite 100",
          "city": "Santa Clara",
          "state": 4,
          "stateSpecified": true,
          "cntry": "United States",
          "postlCd": "95054"
        }
      ],
      "orgNm": "FOOTHILL SECURITIES, INC.",
      "orgPK": "1027",
      "str1": "2900 LAKESIDE DRIVE",
      "str2": "SUITE 100",
      "city": "SANTA CLARA",
      "state": 4,
      "stateSpecified": true,
      "cntry": "United States",
      "postlCd": "95054"
    }
  ],
  "Exms": [
    {
      "exmCd": 0,
      "exmNm": "Uniform Securities Agent State Law Examination",
      "exmDt": "1986-07-25T00:00:00",
      "exmDtSpecified": true
    },
    {
      "exmCd": 2,
      "exmNm": "Uniform Investment Adviser Law Examination",
      "exmDt": "1998-09-24T00:00:00",
      "exmDtSpecified": true
    }
  ],
  "Dsgntns": [],
  "PrevRgstns": [],
  "EmpHss": [
    {
      "fromDt": "05/1986",
      "toDt": null,
      "orgNm": "INVESTMENT REAL ESTATE",
      "city": "SOQUEL",
      "state": 4,
      "stateSpecified": true
    },
    {
      "fromDt": "09/1990",
      "toDt": null,
      "orgNm": "Investment Planning Group",
      "city": "Soquel",
      "state": 4,
      "stateSpecified": true
    },
    {
      "fromDt": "03/1999",
      "toDt": null,
      "orgNm": "FOOTHILL SECURITIES, INC.",
      "city": "SOQUEL",
      "state": 4,
      "stateSpecified": true
    }
  ],
  "OthrBuss": {
    "OthrBus": {
      "desc": "1)INVESTMENT REAL ESTATE; INVESTMENT-RELATED; SOQUEL, CA; PERSONAL REAL ESTATE PURCHASED IN LONG TERM HOLD AND RETIREMENT INCOME; PARTNER; START DATE 5/30/1986; 2 HOURS PER MONTH; 2 HRS/MO DURING MARKET HOURS; BOOKKEEPING. 2)INVESTMENT PLANNING GROUP; DBA; SOQUEL, CA; INVESTMENT-RELATED; OWNER; START DATE 09/01/1990; 0 HOURS PER MONTH AND DURING TRADING; JUST USE AS DBA ALL BUSINESS RUNS THOUGH FSI."
    }
  },
  "DRPs": [
    {
      "hasRegAction": 1,
      "hasRegActionSpecified": true,
      "hasCriminal": 1,
      "hasCriminalSpecified": true,
      "hasBankrupt": 1,
      "hasBankruptSpecified": true,
      "hasCivilJudc": 1,
      "hasCivilJudcSpecified": true,
      "hasBond": 1,
      "hasBondSpecified": true,
      "hasJudgment": 1,
      "hasJudgmentSpecified": true,
      "hasInvstgn": 1,
      "hasInvstgnSpecified": true,
      "hasCustComp": 0,
      "hasCustCompSpecified": true,
      "hasTermination": 1,
      "hasTerminationSpecified": true
    }
  ]
}