{
  "Info": {
    "lastNm": "TIRADO",
    "firstNm": "MARILEE",
    "midNm": "JEANNE",
    "sufNm": null,
    "indvlPK": "735897",
    "actvAGReg": 0,
    "link": "http://www.adviserinfo.sec.gov/IAPD/Individual/735897"
  },
  "OthrNms": [
    {
      "lastNm": "HOSPODAR",
      "firstNm": "MARILEE",
      "midNm": "JEANNE",
      "sufNm": null
    }
  ],
  "CrntEmps": [
    {
      "CrntRgstns": [
        {
          "regAuth": 32,
          "regCat": 0,
          "st": 2,
          "stDt": "2009-11-19T00:00:00"
        },
        {
          "regAuth": 45,
          "regCat": 0,
          "st": 3,
          "stDt": "2012-11-19T00:00:00"
        }
      ],
      "BrnchOfLocs": [
        {
          "str1": "333 THORNALL ST",
          "str2": null,
          "city": "EDISON",
          "state": 32,
          "stateSpecified": true,
          "cntry": "United States",
          "postlCd": "08837"
        }
      ],
      "orgNm": "MERRILL LYNCH, PIERCE, FENNER & SMITH INCORPORATED",
      "orgPK": "7691",
      "str1": "ONE BRYANT PARK",
      "str2": null,
      "city": "NEW YORK",
      "state": 35,
      "stateSpecified": true,
      "cntry": "United States",
      "postlCd": "10036"
    }
  ],
  "Exms": [
    {
      "exmCd": 3,
      "exmNm": "Uniform Combined State Law Examination",
      "exmDt": "2009-11-18T00:00:00",
      "exmDtSpecified": true
    }
  ],
  "Dsgntns": [],
  "PrevRgstns": [],
  "EmpHss": [
    {
      "fromDt": "08/1981",
      "toDt": null,
      "orgNm": "MERRILL LYNCH, PIERCE, FENNER & SMITH INCORPORATED",
      "city": "NEW YORK",
      "state": 35,
      "stateSpecified": true
    }
  ],
  "OthrBuss": {
    "OthrBus": {
      "desc": "I*39581 FOR PROFIT OR NOT FOR PROFIT: FOR-PROFIT ORGANIZATION  NAME OF OUTSIDE BUSINESS ORGANIZATION: MARILEE TIRADO PHOTOGRAPHY LLC  INVESTMENT RELATED: N  ADDRESS OF BUSINESS:  EDISON, NEW JERSEY 8817  NATURE OF BUSINESS: LLC,  POSITION, TITLE, ASSOCIATION: OWNER,   START DATE OF RELATIONSHIP: 1/9/2010  NUMBER OF HOURS DEVOTED: 8 HOUR(S) MONTHLY  NUMBER OF HOURS DEVOTED DURING TRADING HOURS: 0  DUTIES: PHOTOGRAPHY/ FAMILY & CHILDREN PORTRAITURE"
    }
  },
  "DRPs": []
}