{
  "Info": {
    "lastNm": "RICHARDS",
    "firstNm": "ROBERT",
    "midNm": "JOHN",
    "sufNm": null,
    "indvlPK": "736106",
    "actvAGReg": 0,
    "link": "http://www.adviserinfo.sec.gov/IAPD/Individual/736106"
  },
  "OthrNms": [],
  "CrntEmps": [
    {
      "CrntRgstns": [
        {
          "regAuth": 32,
          "regCat": 0,
          "st": 2,
          "stDt": "2011-08-31T00:00:00"
        }
      ],
      "BrnchOfLocs": [
        {
          "str1": "2040 US HWY 9",
          "str2": null,
          "city": "TOMS RIVER",
          "state": 32,
          "stateSpecified": true,
          "cntry": "UNITED STATES",
          "postlCd": "08755"
        }
      ],
      "orgNm": "EPA FINANCIAL SERVICES, CORP.",
      "orgPK": "121562",
      "str1": "2040 US HWY 9",
      "str2": null,
      "city": "TOMS RIVER",
      "state": 32,
      "stateSpecified": true,
      "cntry": "United States",
      "postlCd": "08755"
    },
    {
      "CrntRgstns": [
        {
          "regAuth": 45,
          "regCat": 0,
          "st": 2,
          "stDt": "2015-01-02T00:00:00"
        },
        {
          "regAuth": 32,
          "regCat": 0,
          "st": 2,
          "stDt": "2015-01-22T00:00:00"
        }
      ],
      "BrnchOfLocs": [
        {
          "str1": "2040 US HIGHWAY 9",
          "str2": null,
          "city": "TOMS RIVER",
          "state": 32,
          "stateSpecified": true,
          "cntry": "United States",
          "postlCd": "08755"
        }
      ],
      "orgNm": "CAMBRIDGE INVESTMENT RESEARCH ADVISORS, INC.",
      "orgPK": "134139",
      "str1": "1776 PLEASANT PLAIN RD.",
      "str2": null,
      "city": "FAIRFIELD",
      "state": 13,
      "stateSpecified": true,
      "cntry": "United States",
      "postlCd": "52556-8757"
    }
  ],
  "Exms": [
    {
      "exmCd": 0,
      "exmNm": "Uniform Securities Agent State Law Examination",
      "exmDt": "1982-06-07T00:00:00",
      "exmDtSpecified": true
    }
  ],
  "Dsgntns": [
    {
      "dsgntnNm": "Certified Financial Planner"
    }
  ],
  "PrevRgstns": [
    {
      "BrnchOfLocs": [
        {
          "city": "TOMS RIVER",
          "state": 32,
          "stateSpecified": true
        }
      ],
      "orgNm": "CINCINNATI ANALYSTS, INC.",
      "orgPK": "5478",
      "regBeginDt": "2002-06-24T00:00:00",
      "regBeginDtSpecified": true,
      "regEndDt": "2007-10-01T00:00:00",
      "regEndDtSpecified": true
    },
    {
      "BrnchOfLocs": [
        {
          "city": "AUBURNDALE",
          "state": 20,
          "stateSpecified": true
        },
        {
          "city": "El Segundo",
          "state": 4,
          "stateSpecified": true
        },
        {
          "city": "TOMS RIVER",
          "state": 32,
          "stateSpecified": true
        }
      ],
      "orgNm": "NATIONAL PLANNING CORPORATION",
      "orgPK": "29604",
      "regBeginDt": "2007-10-01T00:00:00",
      "regBeginDtSpecified": true,
      "regEndDt": "2015-01-02T00:00:00",
      "regEndDtSpecified": true
    }
  ],
  "EmpHss": [
    {
      "fromDt": "11/1977",
      "toDt": null,
      "orgNm": "SELF EMPLOY",
      "city": "TOMS RIVER",
      "state": 32,
      "stateSpecified": true
    },
    {
      "fromDt": "08/1993",
      "toDt": "10/2007",
      "orgNm": "CAPITAL ANALYSTS, INCORPORATED",
      "city": "TOMS RIVER",
      "state": 32,
      "stateSpecified": true
    },
    {
      "fromDt": "10/2007",
      "toDt": "12/2014",
      "orgNm": "NATIONAL PLANNING CORPORATION",
      "city": "TOMS RIVER",
      "state": 32,
      "stateSpecified": true
    },
    {
      "fromDt": "01/2015",
      "toDt": null,
      "orgNm": "CAMBRIDGE INVESTMENT RESEARCH ADVISORS, INC.",
      "city": "FAIRFIELD",
      "state": 13,
      "stateSpecified": true
    },
    {
      "fromDt": "01/2015",
      "toDt": null,
      "orgNm": "CAMBRIDGE INVESTMENT RESEARCH, INC",
      "city": "FAIRFIELD",
      "state": 13,
      "stateSpecified": true
    }
  ],
  "OthrBuss": {
    "OthrBus": {
      "desc": "1. SOMEBODY CARES. WHITING, NJ. BEGAN 1/2015 AS BOARD MEMBER. ACTS ON BOARD AND WITH CONJUNCTION OF SEVERAL OTHER BOARD MEMBERS MAKE DECISIONS ON THE NON PROFIT ORGANIZATION. SPENDS 10 HR/MO, NONE DURING TRADING.   2. EPA FINANCIAL SERVICES CORP. TOMS RIVER, NJ. STARTED 11/1977 AS CEO. OVERSIGHT OF COMPANY PROCEDURES AND HAPPENINGS. SPENDS 10 HR/WK, NONE DURING TRADING.    3)INDEPENDENT INSURANCE AGENT FOR VARIOUS INDEPENDENT INSURANCE COMPANIES"
    }
  },
  "DRPs": []
}