{
  "Info": {
    "lastNm": "ZUBER",
    "firstNm": "ROBERT",
    "midNm": "JOSEPH",
    "sufNm": null,
    "indvlPK": "736264",
    "actvAGReg": 0,
    "link": "http://www.adviserinfo.sec.gov/IAPD/Individual/736264"
  },
  "OthrNms": [],
  "CrntEmps": [
    {
      "CrntRgstns": [
        {
          "regAuth": 20,
          "regCat": 0,
          "st": 2,
          "stDt": "2010-03-17T00:00:00"
        },
        {
          "regAuth": 48,
          "regCat": 0,
          "st": 2,
          "stDt": "2010-04-15T00:00:00"
        },
        {
          "regAuth": 9,
          "regCat": 0,
          "st": 2,
          "stDt": "2010-05-07T00:00:00"
        },
        {
          "regAuth": 41,
          "regCat": 0,
          "st": 2,
          "stDt": "2013-08-05T00:00:00"
        }
      ],
      "BrnchOfLocs": [
        {
          "str1": "87 EAST ST",
          "str2": null,
          "city": "PITTSFIELD",
          "state": 20,
          "stateSpecified": true,
          "cntry": "United States",
          "postlCd": "01202"
        }
      ],
      "orgNm": "INVEST FINANCIAL CORPORATION",
      "orgPK": "12984",
      "str1": "12750 CITRUS PARK LANE",
      "str2": "SUITE 300",
      "city": "TAMPA",
      "state": 9,
      "stateSpecified": true,
      "cntry": "United States",
      "postlCd": "33625"
    }
  ],
  "Exms": [
    {
      "exmCd": 0,
      "exmNm": "Uniform Securities Agent State Law Examination",
      "exmDt": "1981-06-10T00:00:00",
      "exmDtSpecified": true
    }
  ],
  "Dsgntns": [
    {
      "dsgntnNm": "Chartered Financial Consultant"
    }
  ],
  "PrevRgstns": [],
  "EmpHss": [
    {
      "fromDt": "11/1979",
      "toDt": "02/2010",
      "orgNm": "NEL MUTUAL LIFE INS CO",
      "city": "BOSTON",
      "state": 20,
      "stateSpecified": true
    },
    {
      "fromDt": "03/1981",
      "toDt": "02/2010",
      "orgNm": "NEW ENGLAND SECURITIES",
      "city": "BOSTON",
      "state": 20,
      "stateSpecified": true
    },
    {
      "fromDt": "03/2010",
      "toDt": null,
      "orgNm": "INVEST Financial Corp.",
      "city": "Tampa",
      "state": 9,
      "stateSpecified": true
    }
  ],
  "OthrBuss": {
    "OthrBus": {
      "desc": "(1)BARDWELL, BOWLBY & KARAN INSURANCE AGENCY, INC; 87 EAST ST, PO BOX1700, PITTSFIELD, MA 01202; LIFE INSURANCE SALES (INDIVIDUAL AND GROUP SALES; P & C SALES; INVESTMENT RELATED, START 1/25/10; 80 HRS/MO; 80 HRS DURING TRADING; (2) BARDWELL, BOWLBY & KARAN INSURANCE AGENCY, INC; 87 EAST ST, PO BOX 1700, PITTSFIELD, MA 01202; P & C INSURANCE SALES; LIFE HEALTH INSURANCE SALES; INVESTMENT RELATED; START 1/25/10; 100 HRS/MO; 80 HRS DURING TRADING (3)INSURANCE CHAIR OF UNITED STATED CANOE ASSOCIATION, YES - INVESTMENT RELATED, 11 WESTMINSTER RD LENOX MA 01240, PROVIDES EVENT INSURANCE FOR MEMBERS, INSURANCE CHAIR, START 6/1/2010, 0 HPM/O HRS TRADING 4) ROBERT ZUBER - FIXED INSURANCE SALES - NOT FIA'S, YES INVESTMENT RELATED, 87 EAST ST PITTSFIELD MA 01201, SELL VARIOUS FIXED ANNUITIES & INSURANCE PRODUCTS, OWNER/SELF, START DATE 1/1/2012, SELL FIXED ANNUITIES OR LIFE INSURANCE THAT DOES NOT REQUIRE A BROKER/DEALER, 4 HPM, 0 HRS TRADING."
    }
  },
  "DRPs": []
}