{
  "Info": {
    "lastNm": "GURIAN",
    "firstNm": "LISE",
    "midNm": "BENSOUSSAN",
    "sufNm": null,
    "indvlPK": "737198",
    "actvAGReg": 0,
    "link": "http://www.adviserinfo.sec.gov/IAPD/Individual/737198"
  },
  "OthrNms": [
    {
      "lastNm": "BENSOUSSAN",
      "firstNm": "LISE",
      "midNm": "GURIAN",
      "sufNm": null
    }
  ],
  "CrntEmps": [
    {
      "CrntRgstns": [
        {
          "regAuth": 45,
          "regCat": 0,
          "st": 3,
          "stDt": "2015-08-21T00:00:00"
        }
      ],
      "BrnchOfLocs": [
        {
          "str1": "SMITH BARNEY FINANCIAL CENTER",
          "str2": "595 SOUTH FEDERAL HIGHWAY",
          "city": "BOCA RATON",
          "state": 9,
          "stateSpecified": true,
          "cntry": "United States",
          "postlCd": "33432"
        }
      ],
      "orgNm": "MORGAN STANLEY",
      "orgPK": "149777",
      "str1": "2000 WESTCHESTER AVENUE",
      "str2": null,
      "city": "PURCHASE",
      "state": 35,
      "stateSpecified": true,
      "cntry": "United States",
      "postlCd": "10577-2530"
    }
  ],
  "Exms": [
    {
      "exmCd": 0,
      "exmNm": "Uniform Securities Agent State Law Examination",
      "exmDt": "1995-08-10T00:00:00",
      "exmDtSpecified": true
    }
  ],
  "Dsgntns": [],
  "PrevRgstns": [],
  "EmpHss": [
    {
      "fromDt": "10/2003",
      "toDt": "01/2011",
      "orgNm": "SUMMIT BROKERAGE",
      "city": "CORAL GABLES",
      "state": 9,
      "stateSpecified": true
    },
    {
      "fromDt": "01/2011",
      "toDt": "07/2011",
      "orgNm": "UNEMPLOYED",
      "city": "HOLLYWOOD",
      "state": 9,
      "stateSpecified": true
    },
    {
      "fromDt": "07/2011",
      "toDt": "12/2012",
      "orgNm": "KOVACK SECURITIES, INC.",
      "city": "FT. LAUDERDALE",
      "state": 9,
      "stateSpecified": true
    },
    {
      "fromDt": "01/2013",
      "toDt": "07/2015",
      "orgNm": "ABEL",
      "city": "AVENTURA",
      "state": 9,
      "stateSpecified": true
    },
    {
      "fromDt": "01/2013",
      "toDt": "07/2015",
      "orgNm": "GILMAN CIOCIA, INC.",
      "city": "AVENTURA",
      "state": 9,
      "stateSpecified": true
    },
    {
      "fromDt": "01/2013",
      "toDt": "11/2013",
      "orgNm": "PRIME CAPITAL SERVICES, INC.",
      "city": "AVENTURA",
      "state": 9,
      "stateSpecified": true
    },
    {
      "fromDt": "11/2013",
      "toDt": "07/2015",
      "orgNm": "NATIONAL SECURITIES CORPORATION",
      "city": "AVENTURA",
      "state": 9,
      "stateSpecified": true
    },
    {
      "fromDt": "07/2015",
      "toDt": null,
      "orgNm": "MORGAN STANLEY SMITH BARNEY LLC",
      "city": "BOCA RATON",
      "state": 9,
      "stateSpecified": true
    }
  ],
  "OthrBuss": {
    "OthrBus": null
  },
  "DRPs": [
    {
      "hasRegAction": 1,
      "hasRegActionSpecified": true,
      "hasCriminal": 1,
      "hasCriminalSpecified": true,
      "hasBankrupt": 1,
      "hasBankruptSpecified": true,
      "hasCivilJudc": 1,
      "hasCivilJudcSpecified": true,
      "hasBond": 1,
      "hasBondSpecified": true,
      "hasJudgment": 1,
      "hasJudgmentSpecified": true,
      "hasInvstgn": 1,
      "hasInvstgnSpecified": true,
      "hasCustComp": 1,
      "hasCustCompSpecified": true,
      "hasTermination": 0,
      "hasTerminationSpecified": true
    }
  ]
}