{
  "Info": {
    "lastNm": "MERRILL",
    "firstNm": "ROGER",
    "midNm": "LYNN",
    "sufNm": null,
    "indvlPK": "803094",
    "actvAGReg": 0,
    "link": "http://www.adviserinfo.sec.gov/IAPD/Individual/803094"
  },
  "OthrNms": [],
  "CrntEmps": [
    {
      "CrntRgstns": [
        {
          "regAuth": 46,
          "regCat": 0,
          "st": 2,
          "stDt": "2007-10-05T00:00:00"
        }
      ],
      "BrnchOfLocs": [
        {
          "str1": "3549 N UNIVERSITY AVE",
          "str2": "SUITE 175",
          "city": "PROVO",
          "state": 46,
          "stateSpecified": true,
          "cntry": "United States",
          "postlCd": "84604"
        }
      ],
      "orgNm": "COMMONWEALTH FINANCIAL NETWORK",
      "orgPK": "8032",
      "str1": "29 SAWYER ROAD",
      "str2": null,
      "city": "WALTHAM",
      "state": 20,
      "stateSpecified": true,
      "cntry": "United States",
      "postlCd": "02453-3483"
    }
  ],
  "Exms": [
    {
      "exmCd": 0,
      "exmNm": "Uniform Securities Agent State Law Examination",
      "exmDt": "1984-05-17T00:00:00",
      "exmDtSpecified": true
    },
    {
      "exmCd": 2,
      "exmNm": "Uniform Investment Adviser Law Examination",
      "exmDt": "1999-12-13T00:00:00",
      "exmDtSpecified": true
    },
    {
      "exmCd": 3,
      "exmNm": "Uniform Combined State Law Examination",
      "exmDt": "2005-08-08T00:00:00",
      "exmDtSpecified": true
    }
  ],
  "Dsgntns": [
    {
      "dsgntnNm": "Chartered Financial Consultant"
    }
  ],
  "PrevRgstns": [
    {
      "BrnchOfLocs": [
        {
          "city": "PROVO",
          "state": 46,
          "stateSpecified": true
        }
      ],
      "orgNm": "NORTHWESTERN MUTUAL INVESTMENT SERVICES, LLC",
      "orgPK": "2881",
      "regBeginDt": "2003-08-27T00:00:00",
      "regBeginDtSpecified": true,
      "regEndDt": "2007-10-08T00:00:00",
      "regEndDtSpecified": true
    }
  ],
  "EmpHss": [
    {
      "fromDt": "04/1974",
      "toDt": "10/2007",
      "orgNm": "NORTHWESTERN MUTUAL LIFE",
      "city": "MILWAUKEE",
      "state": 50,
      "stateSpecified": true
    },
    {
      "fromDt": "05/1987",
      "toDt": "10/2007",
      "orgNm": "NORTHWESTERN MUTUAL INVESTMENT SERVICES, LLC",
      "city": "MILWAUKEE",
      "state": 50,
      "stateSpecified": true
    },
    {
      "fromDt": "08/2005",
      "toDt": "10/2007",
      "orgNm": "NORTHWESTERN MUTUAL INVESTMENT SERVICES, LLC.",
      "city": "SALT LAKE CITY",
      "state": 46,
      "stateSpecified": true
    },
    {
      "fromDt": "10/2007",
      "toDt": null,
      "orgNm": "COMMONWEALTH FINANCIAL NETWORK",
      "city": "WALTHAM",
      "state": 20,
      "stateSpecified": true
    },
    {
      "fromDt": "10/2007",
      "toDt": null,
      "orgNm": "MERRILL FINANCIAL ASSOCIATES",
      "city": "PROVO",
      "state": 46,
      "stateSpecified": true
    }
  ],
  "OthrBuss": {
    "OthrBus": {
      "desc": "1. FIXED INSURANCE SALES AT AGENT FROM BRANCH LOCATION, INVESTMENT RELATED. 2. MAM-KAM, LLC - MANAGER OF PRIVATE ENTITY CREATED FOR FAMILY ESTATE PLANING PURPOSES, INVESTMENT RELATED.   3. MAM-GSM, LLC - MANAGER OF PRIVATE ENTITY CREATED FOR FAMILY ESTATE PLANING PURPOSES, INVESTMENT RELATED.   4. MAM-RSM, LLC - MANAGER OF PRIVATE ENTITY CREATED FOR FAMILY ESTATE PLANING PURPOSES, INVESTMENT RELATED.  5. TRUSTEE FOR FAMILY ACCOUNT; NOT FROM THE BRANCH OFFICE; INVESTMENT RELATED.  6. OWNER OF RENTAL PROPERTIES; NOT INVESTMENT RELATED; NOT AT BRANCH LOCATION.  7. LITTLE CARRIBEAN, LLC; MEMBER AND 16.66% OWNER; NOT INVESTMENT RELATED; AT BRANCH LOCATION."
    }
  },
  "DRPs": [
    {
      "hasRegAction": 1,
      "hasRegActionSpecified": true,
      "hasCriminal": 1,
      "hasCriminalSpecified": true,
      "hasBankrupt": 1,
      "hasBankruptSpecified": true,
      "hasCivilJudc": 1,
      "hasCivilJudcSpecified": true,
      "hasBond": 1,
      "hasBondSpecified": true,
      "hasJudgment": 1,
      "hasJudgmentSpecified": true,
      "hasInvstgn": 1,
      "hasInvstgnSpecified": true,
      "hasCustComp": 0,
      "hasCustCompSpecified": true,
      "hasTermination": 1,
      "hasTerminationSpecified": true
    }
  ]
}