{
  "Info": {
    "lastNm": "KING",
    "firstNm": "GARY",
    "midNm": "ALLEN",
    "sufNm": null,
    "indvlPK": "803948",
    "actvAGReg": 0,
    "link": "http://www.adviserinfo.sec.gov/IAPD/Individual/803948"
  },
  "OthrNms": [],
  "CrntEmps": [
    {
      "CrntRgstns": [
        {
          "regAuth": 39,
          "regCat": 0,
          "st": 2,
          "stDt": "2001-04-20T00:00:00"
        }
      ],
      "BrnchOfLocs": [
        {
          "str1": "652 WEST 38TH STREET",
          "str2": null,
          "city": "ERIE",
          "state": 39,
          "stateSpecified": true,
          "cntry": "United States",
          "postlCd": "16508"
        }
      ],
      "orgNm": "LOMBARD ADVISERS INCORPORATED",
      "orgPK": "108231",
      "str1": "1820 LANCASTER ST",
      "str2": null,
      "city": "BALTIMORE",
      "state": 21,
      "stateSpecified": true,
      "cntry": "United States",
      "postlCd": "21231"
    }
  ],
  "Exms": [
    {
      "exmCd": 0,
      "exmNm": "Uniform Securities Agent State Law Examination",
      "exmDt": "1982-08-16T00:00:00",
      "exmDtSpecified": true
    },
    {
      "exmCd": 2,
      "exmNm": "Uniform Investment Adviser Law Examination",
      "exmDt": "2000-11-20T00:00:00",
      "exmDtSpecified": true
    }
  ],
  "Dsgntns": [],
  "PrevRgstns": [],
  "EmpHss": [
    {
      "fromDt": "05/1995",
      "toDt": null,
      "orgNm": "LOMBARD SECURITIES INCORPORATED",
      "city": "ERIE",
      "state": 39,
      "stateSpecified": true
    },
    {
      "fromDt": "01/2001",
      "toDt": null,
      "orgNm": "LOMBARD ADVISERS INCORPORATED",
      "city": "ERIE",
      "state": 39,
      "stateSpecified": true
    }
  ],
  "OthrBuss": {
    "OthrBus": {
      "desc": "1.PASSIVE PARTNER IN 4 LIBERTY TAX SERVICE FRANCHISE STORES. 2. PASSIVE PARTNER IN FAMILY OWNED COMMERATIVE BRICK BUSINESS."
    }
  },
  "DRPs": []
}