{
  "Info": {
    "lastNm": "PRICE",
    "firstNm": "DANIEL",
    "midNm": "CHARLES",
    "sufNm": null,
    "indvlPK": "805777",
    "actvAGReg": 0,
    "link": "http://www.adviserinfo.sec.gov/IAPD/Individual/805777"
  },
  "OthrNms": [
    {
      "lastNm": "PRICE",
      "firstNm": "DANNY",
      "midNm": null,
      "sufNm": null
    }
  ],
  "CrntEmps": [
    {
      "CrntRgstns": [
        {
          "regAuth": 19,
          "regCat": 0,
          "st": 2,
          "stDt": "2009-06-04T00:00:00"
        },
        {
          "regAuth": 45,
          "regCat": 0,
          "st": 3,
          "stDt": "2013-05-24T00:00:00"
        }
      ],
      "BrnchOfLocs": [
        {
          "str1": "9270 SIEGEN LANE",
          "str2": "SUITE 202",
          "city": "BATON ROUGE",
          "state": 19,
          "stateSpecified": true,
          "cntry": "United States",
          "postlCd": "70810"
        }
      ],
      "orgNm": "RAYMOND JAMES FINANCIAL SERVICES ADVISORS, INC",
      "orgPK": "149018",
      "str1": "880 CARILLON PARKWAY",
      "str2": null,
      "city": "SAINT PETERSBURG",
      "state": 9,
      "stateSpecified": true,
      "cntry": "United States",
      "postlCd": "33716"
    }
  ],
  "Exms": [
    {
      "exmCd": 0,
      "exmNm": "Uniform Securities Agent State Law Examination",
      "exmDt": "2003-05-20T00:00:00",
      "exmDtSpecified": true
    }
  ],
  "Dsgntns": [],
  "PrevRgstns": [
    {
      "BrnchOfLocs": [
        {
          "city": "NEW ORLEANS",
          "state": 19,
          "stateSpecified": true
        }
      ],
      "orgNm": "NEW ENGLAND SECURITIES",
      "orgPK": "615",
      "regBeginDt": "2002-07-16T00:00:00",
      "regBeginDtSpecified": true,
      "regEndDt": "2003-01-30T00:00:00",
      "regEndDtSpecified": true
    }
  ],
  "EmpHss": [
    {
      "fromDt": "02/1971",
      "toDt": null,
      "orgNm": "SELF EMPLOYED INSURANCE SALES AGENT",
      "city": "BATON ROUGE",
      "state": 19,
      "stateSpecified": true
    },
    {
      "fromDt": "03/1995",
      "toDt": "03/2015",
      "orgNm": "PRICE, BLACK, & ABEL",
      "city": "BATON ROUGE",
      "state": 19,
      "stateSpecified": true
    },
    {
      "fromDt": "01/2003",
      "toDt": null,
      "orgNm": "RAYMOND JAMES FINANCIAL SERVICES, INC.",
      "city": "BATON ROUGE",
      "state": 19,
      "stateSpecified": true
    },
    {
      "fromDt": "11/2005",
      "toDt": "01/2007",
      "orgNm": "BOARD OF ADVISORS",
      "city": "BATON ROUGE",
      "state": 19,
      "stateSpecified": true
    },
    {
      "fromDt": "06/2009",
      "toDt": null,
      "orgNm": "RAYMOND JAMES FINANCIAL SERVICES ADVISORS, INC",
      "city": "BATON ROUGE",
      "state": 19,
      "stateSpecified": true
    },
    {
      "fromDt": "03/2015",
      "toDt": null,
      "orgNm": "ABEL FINANCIAL SERVICES",
      "city": "BATON ROUGE",
      "state": 19,
      "stateSpecified": true
    }
  ],
  "OthrBuss": {
    "OthrBus": {
      "desc": "1.ABEL FINANCIAL SERVICES:NOT INVESTMENT RELATED:3/2015-PRESENT:BATON ROUGE, LA:INVESTMENT ADVISOR:SUPPORT COMPANY/DBA (NON-OWNER):0 HRS/MO:0 HRS DURING TRADING:RAYMOND JAMES FA 42A2 IN BRANCH 4MK."
    }
  },
  "DRPs": []
}