{
  "Info": {
    "lastNm": "NOBEL",
    "firstNm": "NELAND",
    "midNm": "DANIEL",
    "sufNm": null,
    "indvlPK": "809599",
    "actvAGReg": 0,
    "link": "http://www.adviserinfo.sec.gov/IAPD/Individual/809599"
  },
  "OthrNms": [],
  "CrntEmps": [
    {
      "CrntRgstns": [
        {
          "regAuth": 45,
          "regCat": 0,
          "st": 3,
          "stDt": "1994-05-13T00:00:00"
        }
      ],
      "BrnchOfLocs": [
        {
          "str1": "2555 E. CAMELBACK ROAD",
          "str2": "SUITE 600",
          "city": "PHOENIX",
          "state": 3,
          "stateSpecified": true,
          "cntry": "United States",
          "postlCd": "85016"
        },
        {
          "str1": "2555 EAST CAMELBACK RD.",
          "str2": "SUITE 600",
          "city": "PHOENIX",
          "state": 3,
          "stateSpecified": true,
          "cntry": "United States",
          "postlCd": "85016"
        }
      ],
      "orgNm": "UBS FINANCIAL SERVICES INC.",
      "orgPK": "8174",
      "str1": "1200 HARBOR BOULEVARD",
      "str2": null,
      "city": "WEEHAWKEN",
      "state": 32,
      "stateSpecified": true,
      "cntry": "United States",
      "postlCd": "07086"
    }
  ],
  "Exms": [
    {
      "exmCd": 0,
      "exmNm": "Uniform Securities Agent State Law Examination",
      "exmDt": "1983-02-02T00:00:00",
      "exmDtSpecified": true
    },
    {
      "exmCd": 2,
      "exmNm": "Uniform Investment Adviser Law Examination",
      "exmDt": "1997-10-03T00:00:00",
      "exmDtSpecified": true
    }
  ],
  "Dsgntns": [],
  "PrevRgstns": [],
  "EmpHss": [
    {
      "fromDt": "05/1994",
      "toDt": null,
      "orgNm": "UBS FINANCIAL SERVICES INC.",
      "city": "PHOENIX",
      "state": 3,
      "stateSpecified": true
    }
  ],
  "OthrBuss": {
    "OthrBus": {
      "desc": "MONETARY RESEARCH PARTNERS, PHOENIX AZ 85022. NOT INVESTMENT RELATED. BUSINESS - SPONSOR FOR DORMANT MONETARY RESEARCH PENSION PLAN AND CONDUIT FOR BUSINESS RELATED EXPENSES. TITLE - MEMBER. START DATE - 01/02/1978. DUTIES - BALANCING A CHECKBOOK."
    }
  },
  "DRPs": [
    {
      "hasRegAction": 1,
      "hasRegActionSpecified": true,
      "hasCriminal": 1,
      "hasCriminalSpecified": true,
      "hasBankrupt": 1,
      "hasBankruptSpecified": true,
      "hasCivilJudc": 1,
      "hasCivilJudcSpecified": true,
      "hasBond": 1,
      "hasBondSpecified": true,
      "hasJudgment": 1,
      "hasJudgmentSpecified": true,
      "hasInvstgn": 1,
      "hasInvstgnSpecified": true,
      "hasCustComp": 0,
      "hasCustCompSpecified": true,
      "hasTermination": 1,
      "hasTerminationSpecified": true
    }
  ]
}