{
  "Info": {
    "lastNm": "SQUILLANTE",
    "firstNm": "JAMES",
    "midNm": "THOMAS",
    "sufNm": null,
    "indvlPK": "815403",
    "actvAGReg": 0,
    "link": "http://www.adviserinfo.sec.gov/IAPD/Individual/815403"
  },
  "OthrNms": [],
  "CrntEmps": [
    {
      "CrntRgstns": [
        {
          "regAuth": 9,
          "regCat": 0,
          "st": 2,
          "stDt": "2009-06-01T00:00:00"
        },
        {
          "regAuth": 45,
          "regCat": 0,
          "st": 3,
          "stDt": "2011-04-21T00:00:00"
        }
      ],
      "BrnchOfLocs": [
        {
          "str1": "201 EAST PINE STREET --11FLOOR",
          "str2": null,
          "city": "ORLANDO",
          "state": 9,
          "stateSpecified": true,
          "cntry": "United States",
          "postlCd": "32801"
        }
      ],
      "orgNm": "MORGAN STANLEY",
      "orgPK": "149777",
      "str1": "2000 WESTCHESTER AVENUE",
      "str2": null,
      "city": "PURCHASE",
      "state": 35,
      "stateSpecified": true,
      "cntry": "United States",
      "postlCd": "10577-2530"
    }
  ],
  "Exms": [
    {
      "exmCd": 0,
      "exmNm": "Uniform Securities Agent State Law Examination",
      "exmDt": "1981-02-20T00:00:00",
      "exmDtSpecified": true
    }
  ],
  "Dsgntns": [],
  "PrevRgstns": [
    {
      "BrnchOfLocs": [
        {
          "city": "ORLANDO",
          "state": 9,
          "stateSpecified": true
        },
        {
          "city": "ORLANDO",
          "state": 9,
          "stateSpecified": true
        }
      ],
      "orgNm": "MORGAN STANLEY DW INC.",
      "orgPK": "7556",
      "regBeginDt": "1991-01-01T00:00:00",
      "regBeginDtSpecified": true,
      "regEndDt": "2007-04-02T00:00:00",
      "regEndDtSpecified": true
    },
    {
      "BrnchOfLocs": [
        {
          "city": "ORLANDO",
          "state": 9,
          "stateSpecified": true
        }
      ],
      "orgNm": "MORGAN STANLEY & CO. LLC",
      "orgPK": "8209",
      "regBeginDt": "2007-04-02T00:00:00",
      "regBeginDtSpecified": true,
      "regEndDt": "2009-06-01T00:00:00",
      "regEndDtSpecified": true
    }
  ],
  "EmpHss": [
    {
      "fromDt": "02/1988",
      "toDt": "04/2007",
      "orgNm": "DEAN WITTER REYNOLDS INC.",
      "city": "ORLANDO",
      "state": 9,
      "stateSpecified": true
    },
    {
      "fromDt": "04/2007",
      "toDt": null,
      "orgNm": "MORGAN STANLEY & CO., INCORPORATED",
      "city": "ORLANDO",
      "state": 9,
      "stateSpecified": true
    },
    {
      "fromDt": "06/2009",
      "toDt": null,
      "orgNm": "MORGAN STANLEY SMITH BARNEY",
      "city": "ORLANDO",
      "state": 9,
      "stateSpecified": true
    },
    {
      "fromDt": "01/2015",
      "toDt": null,
      "orgNm": "MORGAN STANLEY PRIVATE BANK, NATIONAL ASSOCIATION",
      "city": "NEW YORK",
      "state": 35,
      "stateSpecified": true
    }
  ],
  "OthrBuss": {
    "OthrBus": {
      "desc": "1. JAYMER GROUP LLC MANAGING PARTNER 2. BLACK ACES LLC, LONGWOOD FL 32779, FAMILY ESTATE PLANNING, MANAGER, 0 HOURS, 0 HOURS."
    }
  },
  "DRPs": []
}