{
  "Info": {
    "lastNm": "CORDER",
    "firstNm": "MAX",
    "midNm": "GEORGE",
    "sufNm": null,
    "indvlPK": "817390",
    "actvAGReg": 1,
    "link": "http://www.adviserinfo.sec.gov/IAPD/Individual/817390"
  },
  "OthrNms": [],
  "CrntEmps": [
    {
      "CrntRgstns": [
        {
          "regAuth": 27,
          "regCat": 0,
          "st": 2,
          "stDt": "2002-12-09T00:00:00"
        }
      ],
      "BrnchOfLocs": [
        {
          "str1": null,
          "str2": null,
          "city": "BIGFORK",
          "state": 27,
          "stateSpecified": true,
          "cntry": "United States",
          "postlCd": null
        }
      ],
      "orgNm": "H R FINANCIAL SERVICES, INC.",
      "orgPK": "116733",
      "str1": null,
      "str2": null,
      "city": "BIGFORK",
      "state": 27,
      "stateSpecified": true,
      "cntry": "United States",
      "postlCd": null
    }
  ],
  "Exms": [
    {
      "exmCd": 0,
      "exmNm": "Uniform Securities Agent State Law Examination",
      "exmDt": "1984-02-09T00:00:00",
      "exmDtSpecified": true
    },
    {
      "exmCd": 2,
      "exmNm": "Uniform Investment Adviser Law Examination",
      "exmDt": "1993-05-20T00:00:00",
      "exmDtSpecified": true
    }
  ],
  "Dsgntns": [],
  "PrevRgstns": [],
  "EmpHss": [
    {
      "fromDt": "02/1990",
      "toDt": null,
      "orgNm": "HR FINANCIAL SERVICES, INC",
      "city": "MARIETTA",
      "state": 10,
      "stateSpecified": true
    },
    {
      "fromDt": "02/1990",
      "toDt": null,
      "orgNm": "HR MANAGEMENT, INC.",
      "city": "MARIETTA",
      "state": 10,
      "stateSpecified": true
    }
  ],
  "OthrBuss": {
    "OthrBus": {
      "desc": "LANDMARK CAPITAL, LLC; INVESTMENT RELATED; 205 LANDMARK LANE, BIGFORK, MT, 59911; GENERAL PARTNER OF A LIMITED LIABILITY PARTNERSHIP; INVESTOR IN A HEDGE FUND; MANAGER OF THE GENERAL PARTNER; 6/1/1999; AVERAGE APPROXIMATELY 5 HRS PER MONTH; LESS THAN 1 HR PER MONTH DURING TRADING HOURS; ADMINISTRATIVE.        "
    }
  },
  "DRPs": []
}