{
  "Info": {
    "lastNm": "PRICE",
    "firstNm": "MICHAEL",
    "midNm": "LEWIS",
    "sufNm": null,
    "indvlPK": "822349",
    "actvAGReg": 0,
    "link": "http://www.adviserinfo.sec.gov/IAPD/Individual/822349"
  },
  "OthrNms": [],
  "CrntEmps": [
    {
      "CrntRgstns": [
        {
          "regAuth": 4,
          "regCat": 0,
          "st": 2,
          "stDt": "2009-10-05T00:00:00"
        }
      ],
      "BrnchOfLocs": [
        {
          "str1": "2 PARK PLZ",
          "str2": "STE 1100",
          "city": "IRVINE",
          "state": 4,
          "stateSpecified": true,
          "cntry": "United States",
          "postlCd": "92614-8521"
        }
      ],
      "orgNm": "AMERIPRISE FINANCIAL SERVICES, INC.",
      "orgPK": "6363",
      "str1": "707 2ND AVENUE SOUTH",
      "str2": null,
      "city": "MINNEAPOLIS",
      "state": 24,
      "stateSpecified": true,
      "cntry": "United States",
      "postlCd": "55402"
    }
  ],
  "Exms": [
    {
      "exmCd": 0,
      "exmNm": "Uniform Securities Agent State Law Examination",
      "exmDt": "1983-10-28T00:00:00",
      "exmDtSpecified": true
    },
    {
      "exmCd": 2,
      "exmNm": "Uniform Investment Adviser Law Examination",
      "exmDt": "2009-07-07T00:00:00",
      "exmDtSpecified": true
    }
  ],
  "Dsgntns": [],
  "PrevRgstns": [
    {
      "BrnchOfLocs": [
        {
          "city": "IRVINE",
          "state": 4,
          "stateSpecified": true
        },
        {
          "city": "MISSION VIEJO",
          "state": 4,
          "stateSpecified": true
        }
      ],
      "orgNm": "UBS FINANCIAL SERVICES INC.",
      "orgPK": "8174",
      "regBeginDt": "1997-07-08T00:00:00",
      "regBeginDtSpecified": true,
      "regEndDt": "2009-05-13T00:00:00",
      "regEndDtSpecified": true
    },
    {
      "BrnchOfLocs": [
        {
          "city": "IRVINE",
          "state": 4,
          "stateSpecified": true
        }
      ],
      "orgNm": "AMERIPRISE ADVISOR SERVICES, INC.",
      "orgPK": "5979",
      "regBeginDt": "2009-07-08T00:00:00",
      "regBeginDtSpecified": true,
      "regEndDt": "2009-10-05T00:00:00",
      "regEndDtSpecified": true
    }
  ],
  "EmpHss": [
    {
      "fromDt": "11/1983",
      "toDt": "04/2009",
      "orgNm": "UBS FINANCIAL SERVICES INC.",
      "city": "MISSION VIEJO",
      "state": 4,
      "stateSpecified": true
    },
    {
      "fromDt": "04/2009",
      "toDt": null,
      "orgNm": "AMERIPRISE ADVISOR SERVICES",
      "city": "IRVINE",
      "state": 4,
      "stateSpecified": true
    },
    {
      "fromDt": "10/2009",
      "toDt": null,
      "orgNm": "AMERIPRISE FINANCIAL SERVICES, INC.",
      "city": "IRVINE",
      "state": 4,
      "stateSpecified": true
    }
  ],
  "OthrBuss": {
    "OthrBus": null
  },
  "DRPs": [
    {
      "hasRegAction": 1,
      "hasRegActionSpecified": true,
      "hasCriminal": 1,
      "hasCriminalSpecified": true,
      "hasBankrupt": 1,
      "hasBankruptSpecified": true,
      "hasCivilJudc": 1,
      "hasCivilJudcSpecified": true,
      "hasBond": 1,
      "hasBondSpecified": true,
      "hasJudgment": 1,
      "hasJudgmentSpecified": true,
      "hasInvstgn": 1,
      "hasInvstgnSpecified": true,
      "hasCustComp": 0,
      "hasCustCompSpecified": true,
      "hasTermination": 1,
      "hasTerminationSpecified": true
    }
  ]
}