{
  "Info": {
    "lastNm": "VANASDALE",
    "firstNm": "DAVID",
    "midNm": "ANDREW",
    "sufNm": "II",
    "indvlPK": "824320",
    "actvAGReg": 1,
    "link": "http://www.adviserinfo.sec.gov/IAPD/Individual/824320"
  },
  "OthrNms": [
    {
      "lastNm": "VANASDALE",
      "firstNm": "DAVID",
      "midNm": "ALAN",
      "sufNm": null
    }
  ],
  "CrntEmps": [
    {
      "CrntRgstns": [
        {
          "regAuth": 9,
          "regCat": 0,
          "st": 2,
          "stDt": "1997-03-24T00:00:00"
        }
      ],
      "BrnchOfLocs": [
        {
          "str1": null,
          "str2": null,
          "city": "VALKARIA",
          "state": 9,
          "stateSpecified": true,
          "cntry": "UNITED STATES",
          "postlCd": null
        },
        {
          "str1": "1581 CONLAN BLVD., NE  SUITE 103",
          "str2": null,
          "city": "PALM BAY",
          "state": 9,
          "stateSpecified": true,
          "cntry": "United States",
          "postlCd": "32905"
        }
      ],
      "orgNm": "DAVID ANDREW VAN ASDALE II R.I.A.",
      "orgPK": "142183",
      "str1": null,
      "str2": null,
      "city": "VALKARIA",
      "state": 9,
      "stateSpecified": true,
      "cntry": "United States",
      "postlCd": null
    }
  ],
  "Exms": [
    {
      "exmCd": 0,
      "exmNm": "Uniform Securities Agent State Law Examination",
      "exmDt": "1986-01-10T00:00:00",
      "exmDtSpecified": true
    }
  ],
  "Dsgntns": [],
  "PrevRgstns": [],
  "EmpHss": [
    {
      "fromDt": "06/1974",
      "toDt": null,
      "orgNm": "VAN ASDALE & ASSOCIATES",
      "city": "PALM BAY",
      "state": 9,
      "stateSpecified": true
    },
    {
      "fromDt": "04/1985",
      "toDt": null,
      "orgNm": "NATIONAL LIFE INS. CO.",
      "city": "JACKSONVILLE",
      "state": 9,
      "stateSpecified": true
    },
    {
      "fromDt": "08/1992",
      "toDt": null,
      "orgNm": "CHELCON INC.",
      "city": "PALM BAY",
      "state": 9,
      "stateSpecified": true
    },
    {
      "fromDt": "08/1992",
      "toDt": null,
      "orgNm": "EARTH TURF INC",
      "city": "PALM BAY",
      "state": 9,
      "stateSpecified": true
    },
    {
      "fromDt": "03/1993",
      "toDt": null,
      "orgNm": "CLARK CAPITAL MANAGEMENT GROUP INC",
      "city": "PHILADELPHIA",
      "state": 39,
      "stateSpecified": true
    },
    {
      "fromDt": "05/1993",
      "toDt": null,
      "orgNm": "RTE ASSET MANAGEMENT (DIV) RIGHTIME ECON",
      "city": "WYNCOTE",
      "state": 39,
      "stateSpecified": true
    },
    {
      "fromDt": "04/2000",
      "toDt": "12/2006",
      "orgNm": "THE INVESTMENT CENTER",
      "city": "PALM BAY",
      "state": 9,
      "stateSpecified": true
    }
  ],
  "OthrBuss": {
    "OthrBus": {
      "desc": "DAVID ANDREW VAN ASDALE II, SOLE PROPRIETOR & RIA. PROVIDE MANAGEMENT SERVICE THROUGH RIA. VAN ASDALE & ASSOC. INC. IS ADDITIONALLY A FLORIDA LICENSED INSURANCE AGENCY AND DAVID A. VAN ASDALE II CONDUCTS INSURANCE BUSINESS THAT IS ANCILLARY TO HIS REGISERED INVESTMENT ADVISORY BUSINESS. DAVID A VAN ASDALE IS ENGAGED AS A PROPERTY MANAGEMENT CONSULTANT WITH 10 HOURS PER WEEK AT THE OFFICE LOCATED AT 1581 CONLAN BLVD., NE 103 PALM BAY, FL 32905 NOT TO INTERFERE WITH THE INVESTMENT ADVISORY BUSINESS AT ANY TIME."
    }
  },
  "DRPs": []
}