{
  "Info": {
    "lastNm": "MALONEY",
    "firstNm": "ROBERT",
    "midNm": "E",
    "sufNm": "JR.",
    "indvlPK": "825047",
    "actvAGReg": 0,
    "link": "http://www.adviserinfo.sec.gov/IAPD/Individual/825047"
  },
  "OthrNms": [
    {
      "lastNm": "MALONEY JR.",
      "firstNm": "ROBERT",
      "midNm": "E",
      "sufNm": "JR"
    },
    {
      "lastNm": "MALONEY",
      "firstNm": "MOAKY",
      "midNm": null,
      "sufNm": null
    },
    {
      "lastNm": "MALONEY",
      "firstNm": "ROBERT",
      "midNm": "ESCHER",
      "sufNm": "JR"
    }
  ],
  "CrntEmps": [
    {
      "CrntRgstns": [
        {
          "regAuth": 39,
          "regCat": 0,
          "st": 2,
          "stDt": "2010-01-29T00:00:00"
        }
      ],
      "BrnchOfLocs": [
        {
          "str1": "670 NORTH RIVER STREET",
          "str2": "SUITE 400",
          "city": "WILKES-BARRE",
          "state": 39,
          "stateSpecified": true,
          "cntry": "United States",
          "postlCd": "18705"
        }
      ],
      "orgNm": "STIFEL, NICOLAUS & COMPANY, INCORPORATED",
      "orgPK": "793",
      "str1": "501 N BROADWAY",
      "str2": null,
      "city": "ST LOUIS",
      "state": 25,
      "stateSpecified": true,
      "cntry": "United States",
      "postlCd": "63102"
    }
  ],
  "Exms": [
    {
      "exmCd": 0,
      "exmNm": "Uniform Securities Agent State Law Examination",
      "exmDt": "1984-02-04T00:00:00",
      "exmDtSpecified": true
    },
    {
      "exmCd": 2,
      "exmNm": "Uniform Investment Adviser Law Examination",
      "exmDt": "2010-01-28T00:00:00",
      "exmDtSpecified": true
    }
  ],
  "Dsgntns": [],
  "PrevRgstns": [],
  "EmpHss": [
    {
      "fromDt": "01/2003",
      "toDt": null,
      "orgNm": "UBS FINANCIAL SERVICES INC.",
      "city": "PLAINS",
      "state": 39,
      "stateSpecified": true
    },
    {
      "fromDt": "09/2009",
      "toDt": null,
      "orgNm": "STIFEL, NICOLAUS & COMPANY, INCORPORATED",
      "city": "PLAINS",
      "state": 39,
      "stateSpecified": true
    }
  ],
  "OthrBuss": {
    "OthrBus": null
  },
  "DRPs": [
    {
      "hasRegAction": 1,
      "hasRegActionSpecified": true,
      "hasCriminal": 1,
      "hasCriminalSpecified": true,
      "hasBankrupt": 1,
      "hasBankruptSpecified": true,
      "hasCivilJudc": 1,
      "hasCivilJudcSpecified": true,
      "hasBond": 1,
      "hasBondSpecified": true,
      "hasJudgment": 1,
      "hasJudgmentSpecified": true,
      "hasInvstgn": 1,
      "hasInvstgnSpecified": true,
      "hasCustComp": 0,
      "hasCustCompSpecified": true,
      "hasTermination": 1,
      "hasTerminationSpecified": true
    }
  ]
}