{
  "Info": {
    "lastNm": "HORAN",
    "firstNm": "TERRENCE",
    "midNm": "JOSEPH",
    "sufNm": null,
    "indvlPK": "830101",
    "actvAGReg": 0,
    "link": "http://www.adviserinfo.sec.gov/IAPD/Individual/830101"
  },
  "OthrNms": [],
  "CrntEmps": [
    {
      "CrntRgstns": [
        {
          "regAuth": 15,
          "regCat": 0,
          "st": 2,
          "stDt": "2000-10-28T00:00:00"
        }
      ],
      "BrnchOfLocs": [
        {
          "str1": "495 CHESTNUT STREET",
          "str2": null,
          "city": "WINNETKA",
          "state": 15,
          "stateSpecified": true,
          "cntry": "United States",
          "postlCd": "60093"
        }
      ],
      "orgNm": "ROBERT W. BAIRD & CO. INCORPORATED",
      "orgPK": "8158",
      "str1": "777 E. WISCONSIN AVE",
      "str2": null,
      "city": "MILWAUKEE",
      "state": 50,
      "stateSpecified": true,
      "cntry": "United States",
      "postlCd": "53202-5391"
    }
  ],
  "Exms": [
    {
      "exmCd": 0,
      "exmNm": "Uniform Securities Agent State Law Examination",
      "exmDt": "1979-11-06T00:00:00",
      "exmDtSpecified": true
    },
    {
      "exmCd": 3,
      "exmNm": "Uniform Combined State Law Examination",
      "exmDt": "2000-01-13T00:00:00",
      "exmDtSpecified": true
    }
  ],
  "Dsgntns": [],
  "PrevRgstns": [],
  "EmpHss": [
    {
      "fromDt": "09/1995",
      "toDt": null,
      "orgNm": "ROBERT W. BAIRD & CO. INCORPORATED",
      "city": "LAKE FOREST",
      "state": 15,
      "stateSpecified": true
    }
  ],
  "OthrBuss": {
    "OthrBus": null
  },
  "DRPs": [
    {
      "hasRegAction": 1,
      "hasRegActionSpecified": true,
      "hasCriminal": 1,
      "hasCriminalSpecified": true,
      "hasBankrupt": 1,
      "hasBankruptSpecified": true,
      "hasCivilJudc": 1,
      "hasCivilJudcSpecified": true,
      "hasBond": 1,
      "hasBondSpecified": true,
      "hasJudgment": 1,
      "hasJudgmentSpecified": true,
      "hasInvstgn": 1,
      "hasInvstgnSpecified": true,
      "hasCustComp": 0,
      "hasCustCompSpecified": true,
      "hasTermination": 1,
      "hasTerminationSpecified": true
    }
  ]
}