{
  "Info": {
    "lastNm": "NEEDHAM",
    "firstNm": "DANIEL",
    "midNm": "JOHN",
    "sufNm": null,
    "indvlPK": "835133",
    "actvAGReg": 0,
    "link": "http://www.adviserinfo.sec.gov/IAPD/Individual/835133"
  },
  "OthrNms": [],
  "CrntEmps": [
    {
      "CrntRgstns": [
        {
          "regAuth": 9,
          "regCat": 0,
          "st": 2,
          "stDt": "2014-05-19T00:00:00"
        }
      ],
      "BrnchOfLocs": [
        {
          "str1": "941 West Morse Boulevart",
          "str2": "Suite 125",
          "city": "WINTER PARK",
          "state": 9,
          "stateSpecified": true,
          "cntry": "United States",
          "postlCd": "32789-3734"
        }
      ],
      "orgNm": "MOORS & CABOT, INC.",
      "orgPK": "594",
      "str1": "111 DEVONSHIRE ST.",
      "str2": null,
      "city": "BOSTON",
      "state": 20,
      "stateSpecified": true,
      "cntry": "United States",
      "postlCd": "02109"
    }
  ],
  "Exms": [
    {
      "exmCd": 0,
      "exmNm": "Uniform Securities Agent State Law Examination",
      "exmDt": "1993-01-13T00:00:00",
      "exmDtSpecified": true
    }
  ],
  "Dsgntns": [
    {
      "dsgntnNm": "Chartered Financial Consultant"
    }
  ],
  "PrevRgstns": [
    {
      "BrnchOfLocs": [
        {
          "city": "ORLANDO",
          "state": 9,
          "stateSpecified": true
        },
        {
          "city": "ORLANDO",
          "state": 9,
          "stateSpecified": true
        }
      ],
      "orgNm": "NEW ENGLAND SECURITIES",
      "orgPK": "615",
      "regBeginDt": "1990-05-11T00:00:00",
      "regBeginDtSpecified": true,
      "regEndDt": "2014-05-27T00:00:00",
      "regEndDtSpecified": true
    }
  ],
  "EmpHss": [
    {
      "fromDt": "06/1973",
      "toDt": "05/2014",
      "orgNm": "NEW ENGLAND FINANCIAL",
      "city": "ORLANDO",
      "state": 9,
      "stateSpecified": true
    },
    {
      "fromDt": "03/1977",
      "toDt": "05/2014",
      "orgNm": "NEW ENGLAND SECURITIES",
      "city": "ORLANDO",
      "state": 9,
      "stateSpecified": true
    },
    {
      "fromDt": "05/2014",
      "toDt": null,
      "orgNm": "MOORS & CABOT",
      "city": "WINTER PARK",
      "state": 9,
      "stateSpecified": true
    }
  ],
  "OthrBuss": {
    "OthrBus": {
      "desc": "INDEPENDENT INSURANCE AGENT FROM BUSINESS ADDRESS(DISABILITY, FIXED ANNUITIES, LIFE/ACCIDENT/HEALTH, LONG-TERM CARE) 2 SECURITIES TRADING HOURS WEEKLY, 0 NON SECURITIES TRADING HOURS WEEKLY, START DATE 7/2013"
    }
  },
  "DRPs": []
}