{
  "Info": {
    "lastNm": "SNYDER",
    "firstNm": "JOHN",
    "midNm": "ANTHONY",
    "sufNm": null,
    "indvlPK": "835281",
    "actvAGReg": 1,
    "link": "http://www.adviserinfo.sec.gov/IAPD/Individual/835281"
  },
  "OthrNms": [],
  "CrntEmps": [
    {
      "CrntRgstns": [
        {
          "regAuth": 49,
          "regCat": 0,
          "st": 2,
          "stDt": "2012-12-07T00:00:00"
        }
      ],
      "BrnchOfLocs": [
        {
          "str1": "521 FIFTH AVENUE",
          "str2": "SUITE 1706",
          "city": "NEW YORK",
          "state": 35,
          "stateSpecified": true,
          "cntry": "United States",
          "postlCd": "10175"
        }
      ],
      "orgNm": "GREENLINE PARTNERS",
      "orgPK": "164192",
      "str1": "521 FIFTH AVENUE",
      "str2": "SUITE 1706",
      "city": "NEW YORK",
      "state": 35,
      "stateSpecified": true,
      "cntry": "United States",
      "postlCd": "10175"
    }
  ],
  "Exms": [
    {
      "exmCd": 2,
      "exmNm": "Uniform Investment Adviser Law Examination",
      "exmDt": "1993-02-16T00:00:00",
      "exmDtSpecified": true
    },
    {
      "exmCd": 0,
      "exmNm": "Uniform Securities Agent State Law Examination",
      "exmDt": "2000-10-24T00:00:00",
      "exmDtSpecified": true
    }
  ],
  "Dsgntns": [],
  "PrevRgstns": [
    {
      "BrnchOfLocs": [
        {
          "city": "BELLEVUE",
          "state": 49,
          "stateSpecified": true
        }
      ],
      "orgNm": "BANC OF AMERICA SECURITIES LLC",
      "orgPK": "26091",
      "regBeginDt": "2001-04-16T00:00:00",
      "regBeginDtSpecified": true,
      "regEndDt": "2003-08-20T00:00:00",
      "regEndDtSpecified": true
    },
    {
      "BrnchOfLocs": [
        {
          "city": "SEATTLE",
          "state": 49,
          "stateSpecified": true
        },
        {
          "city": "SEATTLE",
          "state": 49,
          "stateSpecified": true
        },
        {
          "city": "SEATTLE",
          "state": 49,
          "stateSpecified": true
        }
      ],
      "orgNm": "BANC OF AMERICA INVESTMENT SERVICES, INC.",
      "orgPK": "16361",
      "regBeginDt": "2003-08-19T00:00:00",
      "regBeginDtSpecified": true,
      "regEndDt": "2009-10-23T00:00:00",
      "regEndDtSpecified": true
    },
    {
      "BrnchOfLocs": [
        {
          "city": "SEATTLE",
          "state": 49,
          "stateSpecified": true
        },
        {
          "city": "SEATTLE",
          "state": 49,
          "stateSpecified": true
        }
      ],
      "orgNm": "MERRILL LYNCH, PIERCE, FENNER & SMITH INCORPORATED",
      "orgPK": "7691",
      "regBeginDt": "2009-10-23T00:00:00",
      "regBeginDtSpecified": true,
      "regEndDt": "2010-03-04T00:00:00",
      "regEndDtSpecified": true
    },
    {
      "BrnchOfLocs": [
        {
          "city": "SEATTLE",
          "state": 49,
          "stateSpecified": true
        }
      ],
      "orgNm": "COASTAL RANGE INVESTMENT MANAGEMENT, LLC",
      "orgPK": "155117",
      "regBeginDt": "2010-10-05T00:00:00",
      "regBeginDtSpecified": true,
      "regEndDt": "2013-10-24T00:00:00",
      "regEndDtSpecified": true
    }
  ],
  "EmpHss": [
    {
      "fromDt": "08/2003",
      "toDt": "02/2010",
      "orgNm": "BANC OF AMERICA INVESTMENT SERVICES, INC.",
      "city": "SEATTLE",
      "state": 49,
      "stateSpecified": true
    },
    {
      "fromDt": "08/2003",
      "toDt": "02/2010",
      "orgNm": "BANK OF AMERICA, N.A.",
      "city": "SEATTLE",
      "state": 49,
      "stateSpecified": true
    },
    {
      "fromDt": "10/2009",
      "toDt": "02/2010",
      "orgNm": "MERRILL LYNCH, PIERCE, FENNER & SMITH INCORPORATED",
      "city": "SEATTLE",
      "state": 49,
      "stateSpecified": true
    },
    {
      "fromDt": "03/2010",
      "toDt": "09/2010",
      "orgNm": "RETIRED",
      "city": "SEATTLE",
      "state": 49,
      "stateSpecified": true
    },
    {
      "fromDt": "09/2010",
      "toDt": null,
      "orgNm": "COASTAL RANGE INVESTMENT MANAGEMENT, LLC",
      "city": "SEATTLE",
      "state": 49,
      "stateSpecified": true
    },
    {
      "fromDt": "12/2012",
      "toDt": null,
      "orgNm": "GREENLINE PARTNERS",
      "city": "SEATTLE",
      "state": 49,
      "stateSpecified": true
    }
  ],
  "OthrBuss": {
    "OthrBus": {
      "desc": "JOHN IS THE PRINCIPAL OWNER OF COASTAL RANGE INVESTMENT MANAGEMENT, LLC WHICH IS A REGISTERED INVESTMENT ADVISOR IN THE STATE OF WASHINGTON. COASTAL RANGE IS LOCATED AT 1420 FIFTH AVENUE, FLOOR 22, SEATTLE, WA 98101. COASTAL RANGE MANAGES PORTFOLIOS FOR HIGH NET WORTH INDIVIDUALS. JOHN STARTED COASTAL RANGE ON SEPT 9, 2010. AFTER JOHN MOVES HIS ACCOUNTS TO GREENLINE, HE WILL HAVE NO ON GOING RESPONSIBILITIES WITH COASTAL RANGE AND PLANS TO WIND DOWN ITS LLC IN 2013."
    }
  },
  "DRPs": [
    {
      "hasRegAction": 1,
      "hasRegActionSpecified": true,
      "hasCriminal": 1,
      "hasCriminalSpecified": true,
      "hasBankrupt": 1,
      "hasBankruptSpecified": true,
      "hasCivilJudc": 1,
      "hasCivilJudcSpecified": true,
      "hasBond": 1,
      "hasBondSpecified": true,
      "hasJudgment": 1,
      "hasJudgmentSpecified": true,
      "hasInvstgn": 1,
      "hasInvstgnSpecified": true,
      "hasCustComp": 0,
      "hasCustCompSpecified": true,
      "hasTermination": 1,
      "hasTerminationSpecified": true
    }
  ]
}