{
  "Info": {
    "lastNm": "COOK",
    "firstNm": "STEPHEN",
    "midNm": "GERARD",
    "sufNm": null,
    "indvlPK": "835712",
    "actvAGReg": 0,
    "link": "http://www.adviserinfo.sec.gov/IAPD/Individual/835712"
  },
  "OthrNms": [
    {
      "lastNm": "COOK",
      "firstNm": "STEPHEN",
      "midNm": "G",
      "sufNm": null
    }
  ],
  "CrntEmps": [
    {
      "CrntRgstns": [
        {
          "regAuth": 9,
          "regCat": 0,
          "st": 2,
          "stDt": "2009-03-31T00:00:00"
        },
        {
          "regAuth": 45,
          "regCat": 0,
          "st": 3,
          "stDt": "2011-03-03T00:00:00"
        }
      ],
      "BrnchOfLocs": [
        {
          "str1": "3000 N. UNIVERSITY DRIVE",
          "str2": "#2F",
          "city": "CORAL SPRINGS",
          "state": 9,
          "stateSpecified": true,
          "cntry": "United States",
          "postlCd": "33065"
        }
      ],
      "orgNm": "RAYMOND JAMES FINANCIAL SERVICES ADVISORS, INC",
      "orgPK": "149018",
      "str1": "880 CARILLON PARKWAY",
      "str2": null,
      "city": "SAINT PETERSBURG",
      "state": 9,
      "stateSpecified": true,
      "cntry": "United States",
      "postlCd": "33716"
    }
  ],
  "Exms": [
    {
      "exmCd": 0,
      "exmNm": "Uniform Securities Agent State Law Examination",
      "exmDt": "1979-09-27T00:00:00",
      "exmDtSpecified": true
    }
  ],
  "Dsgntns": [],
  "PrevRgstns": [
    {
      "BrnchOfLocs": [
        {
          "city": "CORAL SPRINGS",
          "state": 9,
          "stateSpecified": true
        }
      ],
      "orgNm": "WILLIAMS FINANCIAL CONSULTANTS",
      "orgPK": "106919",
      "regBeginDt": "2004-04-28T00:00:00",
      "regBeginDtSpecified": true,
      "regEndDt": "2005-12-31T00:00:00",
      "regEndDtSpecified": true
    }
  ],
  "EmpHss": [
    {
      "fromDt": "10/1990",
      "toDt": null,
      "orgNm": "RAYMOND JAMES FINANCIAL SERVICES, INC.",
      "city": "BOCA RATON",
      "state": 9,
      "stateSpecified": true
    },
    {
      "fromDt": "04/2001",
      "toDt": null,
      "orgNm": "WILLIAMS FINANCIAL SERVICES, INC.",
      "city": "CORAL SPRINGS",
      "state": 9,
      "stateSpecified": true
    }
  ],
  "OthrBuss": {
    "OthrBus": {
      "desc": "1.WILLIAMS FINANCIAL SERVICES, INC. - CORAL SPRINGS, FL. 04/2001 TO PRESENT. NOT INVESTMENT RELATED. SUPPORT COMPANY/DBA (NON-OWNER). FINANCIAL ADVISOR.  25 HOURS PER MONTH, 25 HOURS DURING TRADING.   2.INDEPENDENT INSURANCE AGENT:INVESTMENT RELATED:CORAL SPRINGS, FL:INDEPENDENT CONTRACTOR:NON-VARIABLE INSURANCE:1 HR/MO:1 HRS DURING TRADING:OCCASIONALLY IF CLIENT NEEDS WILL WRITE NON-VARIABLE LIFE INSURANCE (TERM) THRU GATEWAY."
    }
  },
  "DRPs": []
}