{
  "Info": {
    "lastNm": "PATTERSON",
    "firstNm": "BRUCE",
    "midNm": "ALLEN",
    "sufNm": null,
    "indvlPK": "837338",
    "actvAGReg": 0,
    "link": "http://www.adviserinfo.sec.gov/IAPD/Individual/837338"
  },
  "OthrNms": [
    {
      "lastNm": "PATTERSON",
      "firstNm": "BRUCE",
      "midNm": "A",
      "sufNm": null
    }
  ],
  "CrntEmps": [
    {
      "CrntRgstns": [
        {
          "regAuth": 16,
          "regCat": 0,
          "st": 2,
          "stDt": "2002-06-18T00:00:00"
        }
      ],
      "BrnchOfLocs": [
        {
          "str1": "3400 EAST COLISEUM BLVD",
          "str2": "STE 220",
          "city": "FORT WAYNE",
          "state": 16,
          "stateSpecified": true,
          "cntry": "United States",
          "postlCd": "46805"
        }
      ],
      "orgNm": "COMPASS FINANCIAL ADVISORS LLC",
      "orgPK": "109131",
      "str1": "9933 DUPONT CIRCLE DRIVE WEST",
      "str2": "SUITE 100",
      "city": "FORT WAYNE",
      "state": 16,
      "stateSpecified": true,
      "cntry": "United States",
      "postlCd": "46825"
    }
  ],
  "Exms": [
    {
      "exmCd": 0,
      "exmNm": "Uniform Securities Agent State Law Examination",
      "exmDt": "1994-04-06T00:00:00",
      "exmDtSpecified": true
    },
    {
      "exmCd": 2,
      "exmNm": "Uniform Investment Adviser Law Examination",
      "exmDt": "1995-11-01T00:00:00",
      "exmDtSpecified": true
    }
  ],
  "Dsgntns": [
    {
      "dsgntnNm": "Chartered Financial Consultant"
    }
  ],
  "PrevRgstns": [
    {
      "BrnchOfLocs": [
        {
          "city": "HUDSON",
          "state": 36,
          "stateSpecified": true
        }
      ],
      "orgNm": "VESTAX SECURITIES CORPORATION",
      "orgPK": "10332",
      "regBeginDt": "1998-12-02T00:00:00",
      "regBeginDtSpecified": true,
      "regEndDt": "2002-06-17T00:00:00",
      "regEndDtSpecified": true
    },
    {
      "BrnchOfLocs": [
        {
          "city": "FORT WAYNE",
          "state": 16,
          "stateSpecified": true
        }
      ],
      "orgNm": "QUESTAR ASSET MANAGEMENT, INC.",
      "orgPK": "133358",
      "regBeginDt": "2005-02-07T00:00:00",
      "regBeginDtSpecified": true,
      "regEndDt": "2005-11-10T00:00:00",
      "regEndDtSpecified": true
    }
  ],
  "EmpHss": [
    {
      "fromDt": "07/1980",
      "toDt": "07/2015",
      "orgNm": "SECURITY LIFE OF DENVER",
      "city": "FT WAYNE",
      "state": 16,
      "stateSpecified": true
    },
    {
      "fromDt": "04/1988",
      "toDt": "07/2015",
      "orgNm": "SECURITY LIFE OF DENVER INSURANCE COMPAN",
      "city": "DENVER",
      "state": 5,
      "stateSpecified": true
    },
    {
      "fromDt": "09/2003",
      "toDt": "10/2007",
      "orgNm": "QUESTAR CAPITAL CORPORATION",
      "city": "ANN ARBOR",
      "state": 23,
      "stateSpecified": true
    },
    {
      "fromDt": "02/2005",
      "toDt": "10/2007",
      "orgNm": "QUESTAR ASSET MANAGEMENT",
      "city": "ANN ARBOR",
      "state": 23,
      "stateSpecified": true
    },
    {
      "fromDt": "06/2007",
      "toDt": null,
      "orgNm": "COMPASS FINANCIAL ADVISORS",
      "city": "FT WAYNE",
      "state": 16,
      "stateSpecified": true
    },
    {
      "fromDt": "10/2007",
      "toDt": "07/2015",
      "orgNm": "FINTEGRA, LLC",
      "city": "MINNEAPOLIS",
      "state": 24,
      "stateSpecified": true
    },
    {
      "fromDt": "07/2015",
      "toDt": null,
      "orgNm": "SECURITIES AMERICA, INC.",
      "city": "FORT WAYNE",
      "state": 16,
      "stateSpecified": true
    },
    {
      "fromDt": "05/2016",
      "toDt": null,
      "orgNm": "Harbour Investments, Inc",
      "city": "Madison",
      "state": 50,
      "stateSpecified": true
    }
  ],
  "OthrBuss": {
    "OthrBus": {
      "desc": "1) FORT WAYNE MAD ANTS - NATURE: PASSIVE OWNER - NATURE: I OWN @ 5% PASSIVE OWNERSHIP IN FORT WAYNE MAD ANTS D-LEAGUE BASKETBALL TEAM - INVESTMENT RELATED: YES - HOURS: 0 - SECURITIES TRADING HOURS: 0 - START DATE: 11/30/2009 - ADDRESS: 1910 ST. JOE CENTER RD. SUITE 61, FT. WAYNE IN 46825    2) GYM RATS INDIANA - POSITION: VOLUNTEER COACH - NATURE: GYM RATS INDIANA BASKETBALL - INVESTMENT RELATED: NO - HOURS: 60 - SECURITIES TRADING HOURS: 0 - START DATE: 07/01/2007 - ADDRESS: SPIECE FIELD HOUSE, FORT WAYNE IN 46825     3) DBA: COMPASS FINANCIAL ADVISORS - POSITION: CEO - NATURE: REGISTERED INVESTMENT ADVISOR - INVESTMENT RELATED: YES - HOURS: 160 - SECURITIES TRADING HOURS: 99 - START DATE: 05/01/2001 - ADDRESS: 9933 DUPONT CIRCLE WEST SUITE 100, FT. WAYNE IN 46825     4) GLEN ABELS REAL ESTATE - POSITION: COULD SELL REAL ESTATE - NATURE: REAL ESTATE LICENSE - INVESTMENT RELATED: NO - HOURS: 0 - SECURITIES TRADING HOURS: 0 - START DATE: 05/01/2015 - ADDRESS: STATE ST., FORT WAYNE IN 46805      5) INSURANCE SALES - AGENT - INVESTMENT RELATED - START DATE: 07/2015 - LOCATED AT 9933 DUPONT CIR DR W, FORT WAYNE, IN 46825"
    }
  },
  "DRPs": []
}