{
  "Info": {
    "lastNm": "KOSITCHEK",
    "firstNm": "BARBARA",
    "midNm": "JO",
    "sufNm": null,
    "indvlPK": "844845",
    "actvAGReg": 0,
    "link": "http://www.adviserinfo.sec.gov/IAPD/Individual/844845"
  },
  "OthrNms": [],
  "CrntEmps": [
    {
      "CrntRgstns": [
        {
          "regAuth": 15,
          "regCat": 0,
          "st": 2,
          "stDt": "2008-06-23T00:00:00"
        }
      ],
      "BrnchOfLocs": [
        {
          "str1": "222 SOUTH RIVERSIDE PLAZA",
          "str2": null,
          "city": "CHICAGO",
          "state": 15,
          "stateSpecified": true,
          "cntry": "United States",
          "postlCd": "60606"
        }
      ],
      "orgNm": "DEUTSCHE BANK SECURITIES INC.",
      "orgPK": "2525",
      "str1": "60 WALL STREET",
      "str2": null,
      "city": "NEW YORK",
      "state": 35,
      "stateSpecified": true,
      "cntry": "United States",
      "postlCd": "10005"
    }
  ],
  "Exms": [
    {
      "exmCd": 0,
      "exmNm": "Uniform Securities Agent State Law Examination",
      "exmDt": "1980-04-08T00:00:00",
      "exmDtSpecified": true
    },
    {
      "exmCd": 3,
      "exmNm": "Uniform Combined State Law Examination",
      "exmDt": "2008-06-21T00:00:00",
      "exmDtSpecified": true
    }
  ],
  "Dsgntns": [],
  "PrevRgstns": [],
  "EmpHss": [
    {
      "fromDt": "01/2001",
      "toDt": "02/2010",
      "orgNm": "DEUTSCHE BANK SECURITIES INC.",
      "city": "NEW YORK",
      "state": 35,
      "stateSpecified": true
    },
    {
      "fromDt": "02/2010",
      "toDt": "10/2011",
      "orgNm": "DEUTSCHE BANK SECURITIES INC.",
      "city": "CHICAGO",
      "state": 15,
      "stateSpecified": true
    },
    {
      "fromDt": "10/2011",
      "toDt": "01/2012",
      "orgNm": "DEUTSCHE BANK SECURITIES INC.",
      "city": "CHICAGO",
      "state": 15,
      "stateSpecified": true
    },
    {
      "fromDt": "01/2012",
      "toDt": null,
      "orgNm": "DEUTSCHE BANK SECURITIES INC",
      "city": "CHICAGO",
      "state": 15,
      "stateSpecified": true
    }
  ],
  "OthrBuss": {
    "OthrBus": {
      "desc": "H. KOSITCHEK & BROS.;  INVESTMENT RELATED? : NO;   ADDRESS:  113 N. WASHINGTON SQ. LANSING, MICHIGAN;  NATURE OF BUSINESS: RETAIL MENS CLOTHING STORE/ FAMILY OWNED;  TITLE/POSITION: DIRECTOR;  START DATE OF AFFILIATION: 2011;   NUMBER OF HOURS PER/MONTH DEVOTED : 0 HRS;  NUMBER OF TRADING HOURS PER/MONTH DEVOTED: 0;  DESCRIPTION OF DUTIES:  FAMILY OWNED,  I AM A LISTED OFFICER.  I HAVE NO DAY TO DAY RESPONSIBILITIES."
    }
  },
  "DRPs": []
}