{
  "Info": {
    "lastNm": "VAN EPPS",
    "firstNm": "JAMES",
    "midNm": "H",
    "sufNm": null,
    "indvlPK": "844958",
    "actvAGReg": 0,
    "link": "http://www.adviserinfo.sec.gov/IAPD/Individual/844958"
  },
  "OthrNms": [
    {
      "lastNm": "VANEPPS",
      "firstNm": "JAMES",
      "midNm": null,
      "sufNm": null
    },
    {
      "lastNm": "VANEPPS",
      "firstNm": "JAMES",
      "midNm": "H",
      "sufNm": null
    },
    {
      "lastNm": "VANEPPS",
      "firstNm": "JIM",
      "midNm": null,
      "sufNm": null
    }
  ],
  "CrntEmps": [
    {
      "CrntRgstns": [
        {
          "regAuth": 10,
          "regCat": 0,
          "st": 2,
          "stDt": "2015-09-02T00:00:00"
        }
      ],
      "BrnchOfLocs": [
        {
          "str1": "10930 CRABAPPLE ROAD",
          "str2": "SUITE 206",
          "city": "ROSWELL",
          "state": 10,
          "stateSpecified": true,
          "cntry": "United States",
          "postlCd": "30075"
        },
        {
          "str1": "10930 Crabapple Road",
          "str2": "Suite 206",
          "city": "Roswell",
          "state": 10,
          "stateSpecified": true,
          "cntry": "United States",
          "postlCd": "30075"
        },
        {
          "str1": "5950 FAIRVIEW ROAD",
          "str2": "SUITE 806",
          "city": "CHARLOTTE",
          "state": 28,
          "stateSpecified": true,
          "cntry": null,
          "postlCd": "28210"
        },
        {
          "str1": "5950 FAIRVIEW ROAD",
          "str2": "SUITE 806",
          "city": "CHARLOTTE",
          "state": 28,
          "stateSpecified": true,
          "cntry": "United States",
          "postlCd": "28210"
        }
      ],
      "orgNm": "INNOVATION PARTNERS LLC",
      "orgPK": "146344",
      "str1": "5950 FAIRVIEW ROAD",
      "str2": "SUITE 806",
      "city": "CHARLOTTE",
      "state": 28,
      "stateSpecified": true,
      "cntry": "United States",
      "postlCd": "28210"
    }
  ],
  "Exms": [
    {
      "exmCd": 0,
      "exmNm": "Uniform Securities Agent State Law Examination",
      "exmDt": "1993-09-14T00:00:00",
      "exmDtSpecified": true
    },
    {
      "exmCd": 2,
      "exmNm": "Uniform Investment Adviser Law Examination",
      "exmDt": "2005-02-25T00:00:00",
      "exmDtSpecified": true
    }
  ],
  "Dsgntns": [],
  "PrevRgstns": [
    {
      "BrnchOfLocs": [
        {
          "city": "ROSWELL",
          "state": 10,
          "stateSpecified": true
        }
      ],
      "orgNm": "FIRST PRINCIPLES CAPITAL MANAGEMENT, LLC",
      "orgPK": "132466",
      "regBeginDt": "2005-11-07T00:00:00",
      "regBeginDtSpecified": true,
      "regEndDt": "2015-10-09T00:00:00",
      "regEndDtSpecified": true
    }
  ],
  "EmpHss": [
    {
      "fromDt": "11/1996",
      "toDt": null,
      "orgNm": "SOLE PROPRIETOR-JAMES H. VAN EPPS",
      "city": "ROSWELL",
      "state": 10,
      "stateSpecified": true
    },
    {
      "fromDt": "01/2004",
      "toDt": "08/2015",
      "orgNm": "FIRST PRINCIPLES CAPITAL MANAGEMENT, LLC",
      "city": "ROSWELL",
      "state": 10,
      "stateSpecified": true
    },
    {
      "fromDt": "10/2005",
      "toDt": "08/2015",
      "orgNm": "FPCM SECURITIES, LLC",
      "city": "NEW YORK",
      "state": 35,
      "stateSpecified": true
    },
    {
      "fromDt": "08/2015",
      "toDt": null,
      "orgNm": "INNOVATION PARTNERS LLC",
      "city": "CHARLOTTE",
      "state": 28,
      "stateSpecified": true
    }
  ],
  "OthrBuss": {
    "OthrBus": {
      "desc": "1)VAN EPPS LLC; INVESTMENT RELATED; 10930 CRABAPPLE RD, SUITE 206, ROSWELL, GA 30075; INSURANCE AGENCY; PRESIDENT; START DATE 02/1999; 38 HRS/MONTH, 27 HRS DURING TRADING; OVERSEE ADMINISTRATION OF NQDC, EXECUTIVE BENEFITS AND BOLI 2)VOLUNTARY EMPLOYEE BENEFIT ADVISORS USA, LLC; NOT INVESTMENT RELATED; 10930 CRABAPPLE ROAD, SUITE 206, ROSWELL GA 30075; WORKSITE SALES; PARTNER; 01/05; 10 HRS/MONTH; 6.5 HRS DURING TRADING; OVERSEE TECHNOLOGY, DEVELOPMENT, DATA MANAGEMENT, FINANCE  3) VAN EPPS, LLLP; NOT INVESTMENT RELATED; 10930 CRABAPPLE ROAD, SUITE 206, ROSWELL GA 30075; REAL ESTATE MANAGEMENT; GENERAL PARTNER; 12/00; 1 HR/MONTH; 0.7 HRS DURING TRADING; OVERSEE PRIMARY OFFICE BUILDING AND TENANT ISSUES  4) INNOBENEFITS, LLC; NOT INVESTMENT RELATED; 1280 BRIGHTON WAY, NEWTOWN SQUARE PA 19073; LIMITED BENEFIT MEDICAL INS SALES; PARTNER; 03/04; 3 HRS/ MONTH; 2 HRS DURING TRADING; OVERSEE TECHNOLOGY, DEVELOPMENT, DATA MANAGEMENT, FINANCE  5) VISION FINANCIAL, INC.; NOT INVESTMENT RELATED; 17 CHURCH STREET, KEENE NH 03431; WORKSITE ADMINISTRATION; PARTNER; 2003; 3 HRS/MONTH; 2 HRS DURING TRADING; GUIDANCE ON SYSTEM DEVELOPMENT AND BUSINESS PLANNING  6) JVE BRUSHY BAYOU, LLC; NOT INVESTMENT RELATED; 10930 CRABAPPLE ROAD, SUITE 206, ROSWELL GA 30075; HUNTING CLUB; MANAGEMENT COMMITTEE; 09/06; 0.5 HRS/MONTH; 0.35 HRS DURING TRADING; NEW MEMBERS, PROPERTY MANAGEMENT, FINANCE  7) VERITY INTEGRATED BENEFITS ADVISORS, LLC; NOT INVESTMENT RELATED; 1319 GREENHILL ROAD, COLUMBIA SC 29206; WORKSITE INSURANCE; PARTNER; 07/11; 0.5 HRS/MONTH; 0.35 HRS DURING TRADING; OVERSEE TECHNOLOGY, DEVELOPMENT, DATA MANAGEMENT, FINANCE  8) SLANE FAMILY TRUSTS; INVESTMENT RELATED; 10930 CRABAPPLE ROAD, ROSWELL GA 30075; TRUST; TRUSTEE; 10/10; 0.5 HRS/MONTH; 0.35 HRS DURING TRADING; FOLLOW INSTRUCTIONS OF GRANTOR FOR TRUST, ASSET ADMINISTRATOR  9) ENROLL VB LLC; NOT INVESTMENT RELATED; 10930 CRABAPPLE ROAD, SUITE 206, ROSWELL GA 30075; SOFTWARE DEVELOPMENT; MANAGING PARTNER; 06/15; 25 HRS/MONTH; 1 HR DURING TRADING; PROVIDE DIRECTION TO SENIOR DATA ENGINEER AS NEEDED"
    }
  },
  "DRPs": [
    {
      "hasRegAction": 0,
      "hasRegActionSpecified": true,
      "hasCriminal": 1,
      "hasCriminalSpecified": true,
      "hasBankrupt": 1,
      "hasBankruptSpecified": true,
      "hasCivilJudc": 1,
      "hasCivilJudcSpecified": true,
      "hasBond": 1,
      "hasBondSpecified": true,
      "hasJudgment": 1,
      "hasJudgmentSpecified": true,
      "hasInvstgn": 1,
      "hasInvstgnSpecified": true,
      "hasCustComp": 1,
      "hasCustCompSpecified": true,
      "hasTermination": 1,
      "hasTerminationSpecified": true
    }
  ]
}