{
  "Info": {
    "lastNm": "DODD",
    "firstNm": "WILLIAM",
    "midNm": "EARLE",
    "sufNm": "III",
    "indvlPK": "845669",
    "actvAGReg": 0,
    "link": "http://www.adviserinfo.sec.gov/IAPD/Individual/845669"
  },
  "OthrNms": [
    {
      "lastNm": "DODD",
      "firstNm": "EARLE",
      "midNm": null,
      "sufNm": "III"
    },
    {
      "lastNm": "DODD",
      "firstNm": "W.EARLE",
      "midNm": "EARLE",
      "sufNm": "III"
    },
    {
      "lastNm": "DODD",
      "firstNm": "WILLIAM",
      "midNm": "EARLE",
      "sufNm": null
    },
    {
      "lastNm": "DODD",
      "firstNm": "WILLIAM",
      "midNm": "EARLE",
      "sufNm": "III"
    }
  ],
  "CrntEmps": [
    {
      "CrntRgstns": [
        {
          "regAuth": 45,
          "regCat": 0,
          "st": 3,
          "stDt": "1995-01-28T00:00:00"
        },
        {
          "regAuth": 37,
          "regCat": 0,
          "st": 2,
          "stDt": "2000-09-26T00:00:00"
        },
        {
          "regAuth": 10,
          "regCat": 0,
          "st": 2,
          "stDt": "2003-01-13T00:00:00"
        }
      ],
      "BrnchOfLocs": [
        {
          "str1": "3455 PEACHTREE RD. NE",
          "str2": null,
          "city": "ATLANTA",
          "state": 10,
          "stateSpecified": true,
          "cntry": "United States",
          "postlCd": "30326"
        },
        {
          "str1": "3455 PEACHTREE ROAD NORTHEAST",
          "str2": "SUITE 1700",
          "city": "ATLANTA",
          "state": 10,
          "stateSpecified": true,
          "cntry": "United States",
          "postlCd": "30326"
        }
      ],
      "orgNm": "UBS FINANCIAL SERVICES INC.",
      "orgPK": "8174",
      "str1": "1200 HARBOR BOULEVARD",
      "str2": null,
      "city": "WEEHAWKEN",
      "state": 32,
      "stateSpecified": true,
      "cntry": "United States",
      "postlCd": "07086"
    }
  ],
  "Exms": [
    {
      "exmCd": 0,
      "exmNm": "Uniform Securities Agent State Law Examination",
      "exmDt": "1980-12-10T00:00:00",
      "exmDtSpecified": true
    },
    {
      "exmCd": 2,
      "exmNm": "Uniform Investment Adviser Law Examination",
      "exmDt": "1990-01-08T00:00:00",
      "exmDtSpecified": true
    }
  ],
  "Dsgntns": [],
  "PrevRgstns": [],
  "EmpHss": [
    {
      "fromDt": "01/1995",
      "toDt": null,
      "orgNm": "UBS FINANCIAL SERVICES INC.",
      "city": "ATLANTA",
      "state": 10,
      "stateSpecified": true
    }
  ],
  "OthrBuss": {
    "OthrBus": null
  },
  "DRPs": []
}