{
  "Info": {
    "lastNm": "JAMES",
    "firstNm": "L",
    "midNm": "T",
    "sufNm": null,
    "indvlPK": "846353",
    "actvAGReg": 0,
    "link": "http://www.adviserinfo.sec.gov/IAPD/Individual/846353"
  },
  "OthrNms": [
    {
      "lastNm": "JAMES",
      "firstNm": "L",
      "midNm": "THORNE",
      "sufNm": null
    },
    {
      "lastNm": "JAMES",
      "firstNm": "L.",
      "midNm": "T",
      "sufNm": null
    },
    {
      "lastNm": "JAMES",
      "firstNm": "L. THORNE",
      "midNm": null,
      "sufNm": null
    },
    {
      "lastNm": "JAMES",
      "firstNm": "LARRY",
      "midNm": "THORNE",
      "sufNm": null
    },
    {
      "lastNm": "JAMES",
      "firstNm": "THORNE",
      "midNm": null,
      "sufNm": null
    }
  ],
  "CrntEmps": [
    {
      "CrntRgstns": [
        {
          "regAuth": 45,
          "regCat": 0,
          "st": 3,
          "stDt": "1995-08-24T00:00:00"
        },
        {
          "regAuth": 28,
          "regCat": 0,
          "st": 2,
          "stDt": "2002-04-19T00:00:00"
        }
      ],
      "BrnchOfLocs": [
        {
          "str1": "4242 SIX FORKS RD",
          "str2": null,
          "city": "RALEIGH",
          "state": 28,
          "stateSpecified": true,
          "cntry": "United States",
          "postlCd": "27609"
        }
      ],
      "orgNm": "MERRILL LYNCH, PIERCE, FENNER & SMITH INCORPORATED",
      "orgPK": "7691",
      "str1": "ONE BRYANT PARK",
      "str2": null,
      "city": "NEW YORK",
      "state": 35,
      "stateSpecified": true,
      "cntry": "United States",
      "postlCd": "10036"
    }
  ],
  "Exms": [
    {
      "exmCd": 0,
      "exmNm": "Uniform Securities Agent State Law Examination",
      "exmDt": "1981-10-22T00:00:00",
      "exmDtSpecified": true
    },
    {
      "exmCd": 2,
      "exmNm": "Uniform Investment Adviser Law Examination",
      "exmDt": "1991-05-20T00:00:00",
      "exmDtSpecified": true
    }
  ],
  "Dsgntns": [
    {
      "dsgntnNm": "Certified Financial Planner"
    }
  ],
  "PrevRgstns": [],
  "EmpHss": [
    {
      "fromDt": "08/1977",
      "toDt": null,
      "orgNm": "MERRILL LYNCH, PIERCE, FENNER & SMITH INCORPORATED",
      "city": "RALEIGH",
      "state": 28,
      "stateSpecified": true
    }
  ],
  "OthrBuss": {
    "OthrBus": {
      "desc": "I*89034 For profit or not for profit: Non-Profit Organization  Name of outside business organization: UNC Wilmington  Investment related: Y  Address of business:   601 S. College Rd,   Wilmington, North Carolina 28403  Nature of business: Charitable Organization,  Position, title, association: Advisory Board Member,   Start date of relationship: 1/14/2016  Number of hours devoted: 8 hour(s) Annually  Number of hours devoted during trading hours: 8  Duties: Endowment Board Member. Duties to assist with general review of money managers and asset allocation."
    }
  },
  "DRPs": [
    {
      "hasRegAction": 1,
      "hasRegActionSpecified": true,
      "hasCriminal": 1,
      "hasCriminalSpecified": true,
      "hasBankrupt": 1,
      "hasBankruptSpecified": true,
      "hasCivilJudc": 1,
      "hasCivilJudcSpecified": true,
      "hasBond": 1,
      "hasBondSpecified": true,
      "hasJudgment": 1,
      "hasJudgmentSpecified": true,
      "hasInvstgn": 1,
      "hasInvstgnSpecified": true,
      "hasCustComp": 0,
      "hasCustCompSpecified": true,
      "hasTermination": 1,
      "hasTerminationSpecified": true
    }
  ]
}