{
  "Info": {
    "lastNm": "WORAVKA",
    "firstNm": "JOHN",
    "midNm": "ROBERT",
    "sufNm": null,
    "indvlPK": "846701",
    "actvAGReg": 0,
    "link": "http://www.adviserinfo.sec.gov/IAPD/Individual/846701"
  },
  "OthrNms": [
    {
      "lastNm": "WORAVKA",
      "firstNm": "JOHN",
      "midNm": "R.",
      "sufNm": null
    }
  ],
  "CrntEmps": [
    {
      "CrntRgstns": [
        {
          "regAuth": 4,
          "regCat": 0,
          "st": 2,
          "stDt": "2008-07-03T00:00:00"
        },
        {
          "regAuth": 45,
          "regCat": 0,
          "st": 3,
          "stDt": "2010-07-08T00:00:00"
        }
      ],
      "BrnchOfLocs": [
        {
          "str1": "19800 MACARTHUR BLVD STE 1400",
          "str2": null,
          "city": "IRVINE",
          "state": 4,
          "stateSpecified": true,
          "cntry": "United States",
          "postlCd": "92612-2445"
        }
      ],
      "orgNm": "WELLS FARGO ADVISORS, LLC",
      "orgPK": "19616",
      "str1": "ONE NORTH JEFFERSON AVENUE",
      "str2": "MAIL CODE: H0004-050",
      "city": "ST. LOUIS",
      "state": 25,
      "stateSpecified": true,
      "cntry": "United States",
      "postlCd": "63103-2205"
    }
  ],
  "Exms": [
    {
      "exmCd": 0,
      "exmNm": "Uniform Securities Agent State Law Examination",
      "exmDt": "1986-06-10T00:00:00",
      "exmDtSpecified": true
    },
    {
      "exmCd": 2,
      "exmNm": "Uniform Investment Adviser Law Examination",
      "exmDt": "1995-02-27T00:00:00",
      "exmDtSpecified": true
    }
  ],
  "Dsgntns": [],
  "PrevRgstns": [
    {
      "BrnchOfLocs": [
        {
          "city": "IRVINE",
          "state": 4,
          "stateSpecified": true
        },
        {
          "city": "IRVINE",
          "state": 4,
          "stateSpecified": true
        },
        {
          "city": "ORANGE",
          "state": 4,
          "stateSpecified": true
        },
        {
          "city": "ORANGE",
          "state": 4,
          "stateSpecified": true
        },
        {
          "city": "WEEHAWKEN",
          "state": 32,
          "stateSpecified": true
        }
      ],
      "orgNm": "UBS FINANCIAL SERVICES INC.",
      "orgPK": "8174",
      "regBeginDt": "1997-07-08T00:00:00",
      "regBeginDtSpecified": true,
      "regEndDt": "2008-07-24T00:00:00",
      "regEndDtSpecified": true
    }
  ],
  "EmpHss": [
    {
      "fromDt": "08/1979",
      "toDt": "07/2008",
      "orgNm": "PAINEWEBBER INCORPORATED",
      "city": "ORANGE",
      "state": 4,
      "stateSpecified": true
    },
    {
      "fromDt": "07/2008",
      "toDt": "05/2009",
      "orgNm": "WACHOVIA SECURITIES, LLC",
      "city": "IRVINE",
      "state": 4,
      "stateSpecified": true
    },
    {
      "fromDt": "05/2009",
      "toDt": null,
      "orgNm": "WELLS FARGO ADVISORS LLC",
      "city": "IRVINE",
      "state": 4,
      "stateSpecified": true
    }
  ],
  "OthrBuss": {
    "OthrBus": {
      "desc": "POWER OF ATTORNEY FOR MOTHER; INV. RELATED; HUNTINGTON BEACH, CA; START DATE 4/4/2011; 1 HR PER MONTH; 0 HRS DURING TRADING. TRUSTEE FOR MOTHER'S TRUST; INV. RELATED; HUNTINGTON BEACH, CA; START DATE 12/1/2010; 1 HR PER MONTH; 0 HRS DURING TRADING."
    }
  },
  "DRPs": []
}