{
  "Info": {
    "lastNm": "CLIMER",
    "firstNm": "MICHAEL",
    "midNm": "WAYNE",
    "sufNm": null,
    "indvlPK": "847799",
    "actvAGReg": 0,
    "link": "http://www.adviserinfo.sec.gov/IAPD/Individual/847799"
  },
  "OthrNms": [],
  "CrntEmps": [
    {
      "CrntRgstns": [
        {
          "regAuth": 28,
          "regCat": 0,
          "st": 2,
          "stDt": "2013-09-25T00:00:00"
        },
        {
          "regAuth": 45,
          "regCat": 0,
          "st": 2,
          "stDt": "2013-09-25T00:00:00"
        }
      ],
      "BrnchOfLocs": [
        {
          "str1": "6000 FAIRVIEW DR STE 800",
          "str2": null,
          "city": "CHARLOTTE",
          "state": 28,
          "stateSpecified": true,
          "cntry": "United States",
          "postlCd": "28210"
        }
      ],
      "orgNm": "WELLS FARGO ADVISORS, LLC",
      "orgPK": "19616",
      "str1": "ONE NORTH JEFFERSON AVENUE",
      "str2": "MAIL CODE: H0004-050",
      "city": "ST. LOUIS",
      "state": 25,
      "stateSpecified": true,
      "cntry": "United States",
      "postlCd": "63103-2205"
    }
  ],
  "Exms": [
    {
      "exmCd": 0,
      "exmNm": "Uniform Securities Agent State Law Examination",
      "exmDt": "1983-07-25T00:00:00",
      "exmDtSpecified": true
    },
    {
      "exmCd": 2,
      "exmNm": "Uniform Investment Adviser Law Examination",
      "exmDt": "2002-07-09T00:00:00",
      "exmDtSpecified": true
    }
  ],
  "Dsgntns": [],
  "PrevRgstns": [
    {
      "BrnchOfLocs": [
        {
          "city": "CHARLOTTE",
          "state": 28,
          "stateSpecified": true
        },
        {
          "city": "CHARLOTTE",
          "state": 28,
          "stateSpecified": true
        }
      ],
      "orgNm": "MERRILL LYNCH, PIERCE, FENNER & SMITH INCORPORATED",
      "orgPK": "7691",
      "regBeginDt": "1997-01-17T00:00:00",
      "regBeginDtSpecified": true,
      "regEndDt": "2013-09-27T00:00:00",
      "regEndDtSpecified": true
    }
  ],
  "EmpHss": [
    {
      "fromDt": "04/1993",
      "toDt": "09/2013",
      "orgNm": "MERRILL LYNCH, PIERCE, FENNER & SMITH INCORPORATED",
      "city": "CHARLOTTE",
      "state": 28,
      "stateSpecified": true
    },
    {
      "fromDt": "11/2009",
      "toDt": "09/2013",
      "orgNm": "BANK OF AMERICA,NA",
      "city": "CHARLOTTE",
      "state": 28,
      "stateSpecified": true
    },
    {
      "fromDt": "09/2013",
      "toDt": null,
      "orgNm": "WELLS FARGO ADVISORS LLC",
      "city": "CHARLOTTE",
      "state": 28,
      "stateSpecified": true
    }
  ],
  "OthrBuss": {
    "OthrBus": {
      "desc": "CLIMER ENTERPRISES, NOT INV RELATED,CHARLOTTE  NC, FAMILY HELD, START 6/1/2011,4 HOUR(S) MONTHLY/ O DURING TRADING, FAMILY FARM & RENTAL HOUSE.  RENTAL PROPERTY; INVESTMENT RELATED; BLACKSBURO, SC; 100% OWNERSHIP; START DATE 6/2007; 2 HOURS PER MONTH; 0 DURING TRADING; DUTIES ARE ARE TO MANAGE PROPERTY WITH LOCAL AGENT."
    }
  },
  "DRPs": []
}