{
  "Info": {
    "lastNm": "VINANSKIE",
    "firstNm": "MICHAEL",
    "midNm": null,
    "sufNm": null,
    "indvlPK": "854984",
    "actvAGReg": 0,
    "link": "http://www.adviserinfo.sec.gov/IAPD/Individual/854984"
  },
  "OthrNms": [
    {
      "lastNm": "VINANSKIE",
      "firstNm": "MICHAEL",
      "midNm": "P",
      "sufNm": null
    },
    {
      "lastNm": "VINANSKIE",
      "firstNm": "MICHAEL",
      "midNm": "PETER",
      "sufNm": null
    }
  ],
  "CrntEmps": [
    {
      "CrntRgstns": [
        {
          "regAuth": 32,
          "regCat": 0,
          "st": 2,
          "stDt": "2010-01-14T00:00:00"
        }
      ],
      "BrnchOfLocs": [
        {
          "str1": "65 MAIN STREET",
          "str2": null,
          "city": "KEYPORT",
          "state": 32,
          "stateSpecified": true,
          "cntry": "United States",
          "postlCd": "07735"
        }
      ],
      "orgNm": "PROEQUITIES, INC.",
      "orgPK": "15708",
      "str1": "2801 HIGHWAY 280 SOUTH",
      "str2": null,
      "city": "BIRMINGHAM",
      "state": 1,
      "stateSpecified": true,
      "cntry": "United States",
      "postlCd": "35223"
    }
  ],
  "Exms": [
    {
      "exmCd": 0,
      "exmNm": "Uniform Securities Agent State Law Examination",
      "exmDt": "1997-04-23T00:00:00",
      "exmDtSpecified": true
    },
    {
      "exmCd": 3,
      "exmNm": "Uniform Combined State Law Examination",
      "exmDt": "2003-01-16T00:00:00",
      "exmDtSpecified": true
    }
  ],
  "Dsgntns": [
    {
      "dsgntnNm": "Chartered Financial Consultant"
    }
  ],
  "PrevRgstns": [
    {
      "BrnchOfLocs": [
        {
          "city": "HAUPPAUGE",
          "state": 35,
          "stateSpecified": true
        },
        {
          "city": "KEYPORT",
          "state": 32,
          "stateSpecified": true
        },
        {
          "city": "WESTFIELD",
          "state": 32,
          "stateSpecified": true
        },
        {
          "city": "WESTFIELD",
          "state": 32,
          "stateSpecified": true
        }
      ],
      "orgNm": "EQUITY SERVICES, INC.",
      "orgPK": "265",
      "regBeginDt": "2003-02-27T00:00:00",
      "regBeginDtSpecified": true,
      "regEndDt": "2009-12-31T00:00:00",
      "regEndDtSpecified": true
    }
  ],
  "EmpHss": [
    {
      "fromDt": "02/1997",
      "toDt": null,
      "orgNm": "COLONIAL INS MGMT, INC",
      "city": "WESTFIELD",
      "state": 32,
      "stateSpecified": true
    },
    {
      "fromDt": "02/1997",
      "toDt": null,
      "orgNm": "NATIONAL LIFE OF VERMONT",
      "city": "MONTPELIER",
      "state": 48,
      "stateSpecified": true
    },
    {
      "fromDt": "10/2000",
      "toDt": "12/2009",
      "orgNm": "EQUITY SERVICES, INC.",
      "city": "MONTPELIER",
      "state": 48,
      "stateSpecified": true
    },
    {
      "fromDt": "01/2010",
      "toDt": null,
      "orgNm": "PROEQUITIES, INC",
      "city": "KEYPORT",
      "state": 32,
      "stateSpecified": true
    }
  ],
  "OthrBuss": {
    "OthrBus": {
      "desc": "POSITION: AGENT NATURE: INSURANCE SALES INVESTMENT RELATED: NO NUMBER OF HOURS: 60 INVESTMENT RELATED HOURS: 2 START DATE: 11/01/1997 ADDRESS: 624 KENSINGTON DRIVE, WESTFIELD NJ 07090  DESCRIPTION: SALES OF INSURANCE PRODUCTS-COMMERCIAL AND PERSONAL INSURANCE"
    }
  },
  "DRPs": []
}