{
  "Info": {
    "lastNm": "ROGO",
    "firstNm": "MARK",
    "midNm": "ANTHONY",
    "sufNm": null,
    "indvlPK": "855009",
    "actvAGReg": 0,
    "link": "http://www.adviserinfo.sec.gov/IAPD/Individual/855009"
  },
  "OthrNms": [],
  "CrntEmps": [
    {
      "CrntRgstns": [
        {
          "regAuth": 50,
          "regCat": 0,
          "st": 2,
          "stDt": "2009-10-16T00:00:00"
        }
      ],
      "BrnchOfLocs": [
        {
          "str1": "3704 OAKWOOD HILLS PKWY",
          "str2": "1ST FLOOR",
          "city": "EAU CLAIRE",
          "state": 50,
          "stateSpecified": true,
          "cntry": "United States",
          "postlCd": "54701"
        }
      ],
      "orgNm": "STIFEL, NICOLAUS & COMPANY, INCORPORATED",
      "orgPK": "793",
      "str1": "501 N BROADWAY",
      "str2": null,
      "city": "ST LOUIS",
      "state": 25,
      "stateSpecified": true,
      "cntry": "United States",
      "postlCd": "63102"
    }
  ],
  "Exms": [
    {
      "exmCd": 0,
      "exmNm": "Uniform Securities Agent State Law Examination",
      "exmDt": "1979-12-14T00:00:00",
      "exmDtSpecified": true
    },
    {
      "exmCd": 2,
      "exmNm": "Uniform Investment Adviser Law Examination",
      "exmDt": "1998-08-12T00:00:00",
      "exmDtSpecified": true
    }
  ],
  "Dsgntns": [],
  "PrevRgstns": [
    {
      "BrnchOfLocs": [
        {
          "city": "EAU CLAIRE",
          "state": 50,
          "stateSpecified": true
        },
        {
          "city": "EAU CLAIRE",
          "state": 50,
          "stateSpecified": true
        },
        {
          "city": "EAU CLAIRE",
          "state": 50,
          "stateSpecified": true
        },
        {
          "city": "WEEHAWKEN",
          "state": 32,
          "stateSpecified": true
        }
      ],
      "orgNm": "UBS FINANCIAL SERVICES INC.",
      "orgPK": "8174",
      "regBeginDt": "2006-08-12T00:00:00",
      "regBeginDtSpecified": true,
      "regEndDt": "2009-10-16T00:00:00",
      "regEndDtSpecified": true
    }
  ],
  "EmpHss": [
    {
      "fromDt": "11/1979",
      "toDt": null,
      "orgNm": "PIPER JAFFRAY INC.",
      "city": "EAU CLAIRE",
      "state": 50,
      "stateSpecified": true
    },
    {
      "fromDt": "08/2006",
      "toDt": null,
      "orgNm": "UBS FINANCIAL SERVICES INC. ",
      "city": "EAU CLAIRE",
      "state": 50,
      "stateSpecified": true
    },
    {
      "fromDt": "10/2009",
      "toDt": null,
      "orgNm": "STIFEL, NICOLAUS & COMPANY, INCORPORATED",
      "city": "EAU CLAIRE",
      "state": 50,
      "stateSpecified": true
    }
  ],
  "OthrBuss": {
    "OthrBus": null
  },
  "DRPs": []
}