{
  "Info": {
    "lastNm": "DIIANNI",
    "firstNm": "JOHN",
    "midNm": "JOSEPH",
    "sufNm": null,
    "indvlPK": "855453",
    "actvAGReg": 0,
    "link": "http://www.adviserinfo.sec.gov/IAPD/Individual/855453"
  },
  "OthrNms": [],
  "CrntEmps": [
    {
      "CrntRgstns": [
        {
          "regAuth": 39,
          "regCat": 0,
          "st": 2,
          "stDt": "2011-09-28T00:00:00"
        }
      ],
      "BrnchOfLocs": [
        {
          "str1": null,
          "str2": null,
          "city": "NORRISTOWN",
          "state": 39,
          "stateSpecified": true,
          "cntry": "United States",
          "postlCd": null
        },
        {
          "str1": "1051 MILLCREEK DR",
          "str2": null,
          "city": "FEASTERVILLE TREVOSE",
          "state": 39,
          "stateSpecified": true,
          "cntry": "United States",
          "postlCd": "19053"
        }
      ],
      "orgNm": "AMERITAS INVESTMENT CORP.",
      "orgPK": "14869",
      "str1": "5900 \"O\" STREET",
      "str2": null,
      "city": "LINCOLN",
      "state": 30,
      "stateSpecified": true,
      "cntry": "United States",
      "postlCd": "68510"
    }
  ],
  "Exms": [
    {
      "exmCd": 0,
      "exmNm": "Uniform Securities Agent State Law Examination",
      "exmDt": "1999-03-08T00:00:00",
      "exmDtSpecified": true
    }
  ],
  "Dsgntns": [
    {
      "dsgntnNm": "Chartered Financial Consultant"
    }
  ],
  "PrevRgstns": [
    {
      "BrnchOfLocs": [
        {
          "city": "NORRISTOWN",
          "state": 39,
          "stateSpecified": true
        },
        {
          "city": "NORRISTOWN",
          "state": 39,
          "stateSpecified": true
        },
        {
          "city": "QUAKERTOWN",
          "state": 39,
          "stateSpecified": true
        }
      ],
      "orgNm": "USALLIANZ SECURITIES, INC.",
      "orgPK": "40875",
      "regBeginDt": "2005-01-24T00:00:00",
      "regBeginDtSpecified": true,
      "regEndDt": "2006-06-16T00:00:00",
      "regEndDtSpecified": true
    }
  ],
  "EmpHss": [
    {
      "fromDt": "09/2001",
      "toDt": null,
      "orgNm": "JOHN J. DIIANNI CLU INSURANCE",
      "city": "NORRISTOWN",
      "state": 39,
      "stateSpecified": true
    },
    {
      "fromDt": "01/2005",
      "toDt": "12/2006",
      "orgNm": "USALLIANZ SECURITIES INC",
      "city": "MINNEAPOLIS",
      "state": 24,
      "stateSpecified": true
    },
    {
      "fromDt": "12/2006",
      "toDt": "05/2007",
      "orgNm": "QUESTAR CAPITAL CORPORATION",
      "city": "NORRISTOWN",
      "state": 39,
      "stateSpecified": true
    },
    {
      "fromDt": "05/2007",
      "toDt": null,
      "orgNm": "AMERITAS INVESTMENT CORP",
      "city": "LINCOLN",
      "state": 30,
      "stateSpecified": true
    },
    {
      "fromDt": "01/2015",
      "toDt": null,
      "orgNm": "AMERITAS LIFE INSURANCE CORP",
      "city": "LINCOLN",
      "state": 30,
      "stateSpecified": true
    }
  ],
  "OthrBuss": {
    "OthrBus": {
      "desc": "LICENSED AS AN IND INS AGT TO SELL FIXED INS PRODUCTS * JOHN J. DIIANNI CLU INSURANCE; SAME AS BRANCH; INV REL; SALES AND SERVICE OF INSURANCE PRODUCTS TO AVERAGE TO ABOVE AVERAGE CLIENTELE; OWNER; START DATE=09/2001; HRS/MO=200; TRADING HRS/MO=160; PROSPECT, CALLS, MARKETING, NEWSLETTER, FILING, AND ADMINISTRATION OF INSURANCE PRODUCTS"
    }
  },
  "DRPs": []
}