{
  "Info": {
    "lastNm": "QUADE",
    "firstNm": "MARIAN",
    "midNm": "STEPHENSON",
    "sufNm": null,
    "indvlPK": "858604",
    "actvAGReg": 1,
    "link": "http://www.adviserinfo.sec.gov/IAPD/Individual/858604"
  },
  "OthrNms": [
    {
      "lastNm": "STEPHENSON",
      "firstNm": "MARIAN",
      "midNm": "ELIZABETH",
      "sufNm": null
    },
    {
      "lastNm": "ZENTMYER",
      "firstNm": "MARIAN",
      "midNm": "ELIZABETH",
      "sufNm": null
    },
    {
      "lastNm": "ZENTMYER",
      "firstNm": "MARIAN",
      "midNm": "ELIZABETH",
      "sufNm": null
    }
  ],
  "CrntEmps": [
    {
      "CrntRgstns": [
        {
          "regAuth": 50,
          "regCat": 0,
          "st": 2,
          "stDt": "2011-01-27T00:00:00"
        },
        {
          "regAuth": 3,
          "regCat": 0,
          "st": 2,
          "stDt": "2014-01-08T00:00:00"
        }
      ],
      "BrnchOfLocs": [
        {
          "str1": "550 SCIENCE DRIVE",
          "str2": null,
          "city": "MADISON",
          "state": 50,
          "stateSpecified": true,
          "cntry": "United States",
          "postlCd": "53711"
        }
      ],
      "orgNm": "MADISON INVESTMENT ADVISORS, LLC",
      "orgPK": "110297",
      "str1": "550 SCIENCE DRIVE",
      "str2": null,
      "city": "MADISON",
      "state": 50,
      "stateSpecified": true,
      "cntry": "United States",
      "postlCd": "53711"
    }
  ],
  "Exms": [],
  "Dsgntns": [
    {
      "dsgntnNm": "Chartered Financial Analyst"
    }
  ],
  "PrevRgstns": [
    {
      "BrnchOfLocs": [
        {
          "city": "MADISON",
          "state": 50,
          "stateSpecified": true
        }
      ],
      "orgNm": "U.S. BANCORP ASSET MANAGEMENT, INC.",
      "orgPK": "111912",
      "regBeginDt": "2002-01-02T00:00:00",
      "regBeginDtSpecified": true,
      "regEndDt": "2005-02-04T00:00:00",
      "regEndDtSpecified": true
    },
    {
      "BrnchOfLocs": [
        {
          "city": "MADISON",
          "state": 50,
          "stateSpecified": true
        }
      ],
      "orgNm": "THOMPSON INVESTMENT MANAGEMENT, INC.",
      "orgPK": "129609",
      "regBeginDt": "2005-01-13T00:00:00",
      "regBeginDtSpecified": true,
      "regEndDt": "2009-02-04T00:00:00",
      "regEndDtSpecified": true
    },
    {
      "BrnchOfLocs": [
        {
          "city": "MADISON",
          "state": 50,
          "stateSpecified": true
        }
      ],
      "orgNm": "MADISON INVESTMENT HOLDINGS, INC",
      "orgPK": "110356",
      "regBeginDt": "2009-01-29T00:00:00",
      "regBeginDtSpecified": true,
      "regEndDt": "2011-12-31T00:00:00",
      "regEndDtSpecified": true
    }
  ],
  "EmpHss": [
    {
      "fromDt": "09/2004",
      "toDt": "12/2009",
      "orgNm": "THOMPSON INVESTMENT MANAGEMENT, INC.",
      "city": "MADISON",
      "state": 50,
      "stateSpecified": true
    },
    {
      "fromDt": "12/2009",
      "toDt": null,
      "orgNm": "MADISON INVESTMENT ADVISORS, LLC",
      "city": "MADISON",
      "state": 50,
      "stateSpecified": true
    },
    {
      "fromDt": "03/2013",
      "toDt": null,
      "orgNm": "MADISON SCOTTSDALE, LC",
      "city": "SCOTTSDALE",
      "state": 3,
      "stateSpecified": true
    }
  ],
  "OthrBuss": {
    "OthrBus": null
  },
  "DRPs": []
}