{
  "Info": {
    "lastNm": "COLE",
    "firstNm": "GERALD",
    "midNm": "THOMAS",
    "sufNm": null,
    "indvlPK": "860177",
    "actvAGReg": 1,
    "link": "http://www.adviserinfo.sec.gov/IAPD/Individual/860177"
  },
  "OthrNms": [
    {
      "lastNm": "COLE",
      "firstNm": "GERALD",
      "midNm": "T",
      "sufNm": null
    }
  ],
  "CrntEmps": [
    {
      "CrntRgstns": [
        {
          "regAuth": 45,
          "regCat": 0,
          "st": 2,
          "stDt": "2008-01-15T00:00:00"
        }
      ],
      "BrnchOfLocs": [
        {
          "str1": "100 CORPORATE PARKWAY",
          "str2": "SUITE 136",
          "city": "AMHERST",
          "state": 35,
          "stateSpecified": true,
          "cntry": "United States",
          "postlCd": "14226"
        }
      ],
      "orgNm": "ARBOR CAPITAL MANAGEMENT CORP",
      "orgPK": "106461",
      "str1": "100 CORPORATE PKWY",
      "str2": "SUITE 308",
      "city": "AMHERST",
      "state": 35,
      "stateSpecified": true,
      "cntry": "United States",
      "postlCd": "14226"
    }
  ],
  "Exms": [],
  "Dsgntns": [
    {
      "dsgntnNm": "Chartered Financial Analyst"
    }
  ],
  "PrevRgstns": [
    {
      "BrnchOfLocs": [
        {
          "city": "JUPITER",
          "state": 9,
          "stateSpecified": true
        }
      ],
      "orgNm": "ARBOR CAPITAL MANAGEMENT",
      "orgPK": "136652",
      "regBeginDt": "1996-09-11T00:00:00",
      "regBeginDtSpecified": true,
      "regEndDt": "2008-01-14T00:00:00",
      "regEndDtSpecified": true
    }
  ],
  "EmpHss": [
    {
      "fromDt": "03/1995",
      "toDt": null,
      "orgNm": "ARBOR CAPITAL MANAGEMENT CORP",
      "city": "AMHERST",
      "state": 35,
      "stateSpecified": true
    },
    {
      "fromDt": "04/1996",
      "toDt": "12/2007",
      "orgNm": "ARBOR CAPITAL MANAGEMENT LC",
      "city": "JUPITER",
      "state": 9,
      "stateSpecified": true
    }
  ],
  "OthrBuss": {
    "OthrBus": null
  },
  "DRPs": []
}