{
  "Info": {
    "lastNm": "ALTIERI",
    "firstNm": "JEFFREY",
    "midNm": "BERNARD",
    "sufNm": null,
    "indvlPK": "862821",
    "actvAGReg": 0,
    "link": "http://www.adviserinfo.sec.gov/IAPD/Individual/862821"
  },
  "OthrNms": [
    {
      "lastNm": "ALTIERI",
      "firstNm": "JEFFREY",
      "midNm": null,
      "sufNm": null
    },
    {
      "lastNm": "ALTIERI",
      "firstNm": "JEFFREY",
      "midNm": "B",
      "sufNm": null
    },
    {
      "lastNm": "ALTIERI",
      "firstNm": "JEFFREY",
      "midNm": "BERNARD",
      "sufNm": null
    }
  ],
  "CrntEmps": [
    {
      "CrntRgstns": [
        {
          "regAuth": 4,
          "regCat": 0,
          "st": 2,
          "stDt": "2010-11-30T00:00:00"
        }
      ],
      "BrnchOfLocs": [
        {
          "str1": "80 LINDEN OAKS",
          "str2": "SUITE 220",
          "city": "ROCHESTER",
          "state": 35,
          "stateSpecified": true,
          "cntry": "United States",
          "postlCd": "14625-2809"
        }
      ],
      "orgNm": "RBC CAPITAL MARKETS, LLC",
      "orgPK": "31194",
      "str1": "3 WORLD FINANCIAL CENTER",
      "str2": "200 VESEY ST.",
      "city": "NEW YORK",
      "state": 35,
      "stateSpecified": true,
      "cntry": "United States",
      "postlCd": "10281"
    }
  ],
  "Exms": [
    {
      "exmCd": 0,
      "exmNm": "Uniform Securities Agent State Law Examination",
      "exmDt": "1983-12-30T00:00:00",
      "exmDtSpecified": true
    },
    {
      "exmCd": 2,
      "exmNm": "Uniform Investment Adviser Law Examination",
      "exmDt": "1994-01-19T00:00:00",
      "exmDtSpecified": true
    }
  ],
  "Dsgntns": [],
  "PrevRgstns": [
    {
      "BrnchOfLocs": [
        {
          "city": "ROCHESTER",
          "state": 35,
          "stateSpecified": true
        },
        {
          "city": "ROCHESTER",
          "state": 35,
          "stateSpecified": true
        }
      ],
      "orgNm": "WELLS FARGO ADVISORS, LLC",
      "orgPK": "19616",
      "regBeginDt": "2000-01-16T00:00:00",
      "regBeginDtSpecified": true,
      "regEndDt": "2009-05-29T00:00:00",
      "regEndDtSpecified": true
    }
  ],
  "EmpHss": [
    {
      "fromDt": "06/2003",
      "toDt": "05/2009",
      "orgNm": "WACHOVIA SECURITIES, LLC",
      "city": "ROCHESTER",
      "state": 35,
      "stateSpecified": true
    },
    {
      "fromDt": "05/2009",
      "toDt": null,
      "orgNm": "RBC CAPITAL MARKETS",
      "city": "ROCHESTER",
      "state": 35,
      "stateSpecified": true
    }
  ],
  "OthrBuss": {
    "OthrBus": null
  },
  "DRPs": []
}