{
  "Info": {
    "lastNm": "EMMELHAINZ",
    "firstNm": "RICHARD",
    "midNm": "NEIL",
    "sufNm": "JR",
    "indvlPK": "863690",
    "actvAGReg": 0,
    "link": "http://www.adviserinfo.sec.gov/IAPD/Individual/863690"
  },
  "OthrNms": [],
  "CrntEmps": [
    {
      "CrntRgstns": [
        {
          "regAuth": 16,
          "regCat": 0,
          "st": 2,
          "stDt": "1998-12-16T00:00:00"
        },
        {
          "regAuth": 45,
          "regCat": 0,
          "st": 3,
          "stDt": "2013-01-23T00:00:00"
        }
      ],
      "BrnchOfLocs": [
        {
          "str1": "200 E. MAIN STREET",
          "str2": null,
          "city": "FORT WAYNE",
          "state": 16,
          "stateSpecified": true,
          "cntry": "United States",
          "postlCd": "46801"
        },
        {
          "str1": "200 EAST MAIN STREET,",
          "str2": "SUITE 900",
          "city": "FT. WAYNE",
          "state": 16,
          "stateSpecified": true,
          "cntry": "United States",
          "postlCd": "46801"
        }
      ],
      "orgNm": "UBS FINANCIAL SERVICES INC.",
      "orgPK": "8174",
      "str1": "1200 HARBOR BOULEVARD",
      "str2": null,
      "city": "WEEHAWKEN",
      "state": 32,
      "stateSpecified": true,
      "cntry": "United States",
      "postlCd": "07086"
    }
  ],
  "Exms": [
    {
      "exmCd": 0,
      "exmNm": "Uniform Securities Agent State Law Examination",
      "exmDt": "1987-05-08T00:00:00",
      "exmDtSpecified": true
    }
  ],
  "Dsgntns": [],
  "PrevRgstns": [],
  "EmpHss": [
    {
      "fromDt": "10/1970",
      "toDt": null,
      "orgNm": "UBS FINANCIAL SERVICES INC.",
      "city": "FT. WAYNE",
      "state": 16,
      "stateSpecified": true
    }
  ],
  "OthrBuss": {
    "OthrBus": null
  },
  "DRPs": []
}