{
  "Info": {
    "lastNm": "MUSSER",
    "firstNm": "WALTER",
    "midNm": "STEVEN",
    "sufNm": null,
    "indvlPK": "868881",
    "actvAGReg": 1,
    "link": "http://www.adviserinfo.sec.gov/IAPD/Individual/868881"
  },
  "OthrNms": [
    {
      "lastNm": "MUSSER",
      "firstNm": "STEVE",
      "midNm": null,
      "sufNm": null
    },
    {
      "lastNm": "MUSSER",
      "firstNm": "W",
      "midNm": "STEVEN",
      "sufNm": null
    }
  ],
  "CrntEmps": [
    {
      "CrntRgstns": [
        {
          "regAuth": 50,
          "regCat": 0,
          "st": 2,
          "stDt": "2008-10-30T00:00:00"
        }
      ],
      "BrnchOfLocs": [
        {
          "str1": "6409 ODANA ROAD",
          "str2": "SUITE 13",
          "city": "MADISON",
          "state": 50,
          "stateSpecified": true,
          "cntry": "United States",
          "postlCd": "53719"
        }
      ],
      "orgNm": "MUSSER CAPITAL ADVISORS, LLC",
      "orgPK": "147936",
      "str1": "6409 ODANA ROAD",
      "str2": "SUITE 13",
      "city": "MADISON",
      "state": 50,
      "stateSpecified": true,
      "cntry": "United States",
      "postlCd": "53719"
    }
  ],
  "Exms": [
    {
      "exmCd": 0,
      "exmNm": "Uniform Securities Agent State Law Examination",
      "exmDt": "1998-12-15T00:00:00",
      "exmDtSpecified": true
    },
    {
      "exmCd": 2,
      "exmNm": "Uniform Investment Adviser Law Examination",
      "exmDt": "1998-12-17T00:00:00",
      "exmDtSpecified": true
    }
  ],
  "Dsgntns": [],
  "PrevRgstns": [
    {
      "BrnchOfLocs": [
        {
          "city": "MADISON",
          "state": 50,
          "stateSpecified": true
        }
      ],
      "orgNm": "M&I INVESTMENT MANAGEMENT CORP.",
      "orgPK": "109802",
      "regBeginDt": "1999-06-15T00:00:00",
      "regBeginDtSpecified": true,
      "regEndDt": "2007-03-28T00:00:00",
      "regEndDtSpecified": true
    }
  ],
  "EmpHss": [
    {
      "fromDt": "08/1997",
      "toDt": null,
      "orgNm": "U.W. - WHITEWATER",
      "city": "WHITEWATER",
      "state": 50,
      "stateSpecified": true
    },
    {
      "fromDt": "06/1998",
      "toDt": null,
      "orgNm": "M&I BROKERAGE SERVICES, INC.",
      "city": "MADISON",
      "state": 50,
      "stateSpecified": true
    },
    {
      "fromDt": "06/1998",
      "toDt": null,
      "orgNm": "M&I INVESTMENT MANAGEMENT CORP.",
      "city": "MADISON",
      "state": 50,
      "stateSpecified": true
    }
  ],
  "OthrBuss": {
    "OthrBus": null
  },
  "DRPs": []
}