{
  "Info": {
    "lastNm": "MARCHESO",
    "firstNm": "JOHN",
    "midNm": "NOEL",
    "sufNm": null,
    "indvlPK": "869337",
    "actvAGReg": 0,
    "link": "http://www.adviserinfo.sec.gov/IAPD/Individual/869337"
  },
  "OthrNms": [],
  "CrntEmps": [
    {
      "CrntRgstns": [
        {
          "regAuth": 14,
          "regCat": 0,
          "st": 2,
          "stDt": "2002-06-14T00:00:00"
        },
        {
          "regAuth": 38,
          "regCat": 0,
          "st": 2,
          "stDt": "2011-01-04T00:00:00"
        },
        {
          "regAuth": 4,
          "regCat": 0,
          "st": 2,
          "stDt": "2011-01-05T00:00:00"
        },
        {
          "regAuth": 9,
          "regCat": 0,
          "st": 2,
          "stDt": "2011-01-05T00:00:00"
        },
        {
          "regAuth": 49,
          "regCat": 0,
          "st": 2,
          "stDt": "2011-01-05T00:00:00"
        },
        {
          "regAuth": 41,
          "regCat": 0,
          "st": 2,
          "stDt": "2013-05-28T00:00:00"
        },
        {
          "regAuth": 28,
          "regCat": 0,
          "st": 2,
          "stDt": "2014-09-05T00:00:00"
        }
      ],
      "BrnchOfLocs": [
        {
          "str1": "320 E. NEIDER AVENUE",
          "str2": "SUITE #103",
          "city": "COEUR D' ALENE",
          "state": 14,
          "stateSpecified": true,
          "cntry": "United States",
          "postlCd": "83815"
        }
      ],
      "orgNm": "CENTAURUS FINANCIAL, INC.",
      "orgPK": "30833",
      "str1": "2300 EAST KATELLA",
      "str2": "SUITE 200",
      "city": "ANAHEIM",
      "state": 4,
      "stateSpecified": true,
      "cntry": "United States",
      "postlCd": "92806"
    }
  ],
  "Exms": [
    {
      "exmCd": 0,
      "exmNm": "Uniform Securities Agent State Law Examination",
      "exmDt": "1983-06-04T00:00:00",
      "exmDtSpecified": true
    },
    {
      "exmCd": 3,
      "exmNm": "Uniform Combined State Law Examination",
      "exmDt": "1999-10-28T00:00:00",
      "exmDtSpecified": true
    }
  ],
  "Dsgntns": [],
  "PrevRgstns": [],
  "EmpHss": [
    {
      "fromDt": "12/2000",
      "toDt": null,
      "orgNm": "CENTAURUS FINANCIAL, INC.",
      "city": "ORANGE",
      "state": 4,
      "stateSpecified": true
    }
  ],
  "OthrBuss": {
    "OthrBus": {
      "desc": "JOHN MARCHESO, NON-INVESTMENT RELATED, 320 E. NEIDER, COEUR D ALENE, ID  83814, SELLING MEDICARE SUPPLEMENTS, AGENT, SINCE 10/1/2014, DEVOTED TIME IS 2 HRS A MONTH.  MARCHESO AND THEW FINANCIAL ADVISERS LLC, INVESTMENT RELATED, 320 E. NEIDER AVE., SUITE 103, COEUR D'ARLENE, ID  83815, PRELIMINARY STEP TO MERGING OUR PRACTICES, MANAGING PARTNER, SINCE 9/15/2015, DEVOTED TIME IS 5 HRS A MONTH. THE LAKES AT HERON LL, BOARD MEMBER, SINCE 3/1/2005, 850 W. IRONWOOD DR., COEUR D ALENE, ID  83814, REVIEW MARKET PLACE CONDITIONS, PAY TAXES AND INSURANCE, HOLD LAND FOR FUTURE DEVELOPMENT WITH THE INTENT TO SELL IN THE FUTURE, DEVOTED TIME IS 2 HRS A MONTH, NON-INVESTMENT RELATED.    JOHN MARCHESO AND ASSOC., INC., PRESIDENT, SINCE 1/1/1992, COEUR D ALENE, IDAHO  83814, MANAGE MY PRACTICE, DEVOTED TIME IS 5 HRS A MONTH, NON-INVESTMENT RELATED.    XTREME TECH LLC, DIRECTOR, SINCE 6/1/1998, 11495 N. WARREN, HAYDEN, ID  83835, DIRECTOR RESPONSIBILITY LIKE PLANNING OBJECTIVES AND GROWTH OPTIONS, DEVOTED TIME IS 4 HRS A MONTH, NON-INVESTMENT RELATED.    TREO DEVELOPEMENT LLC, MEMBER, SINCE 9/1/2007, 850 W. IRONWOOD DR., COEUR D ALENE, ID  83814, REALESTATE DEVELOPMENT, DEVOTED TIME 0, NO DUTIES AT THIS TIME, NON-INVESTMENT RELATED."
    }
  },
  "DRPs": []
}