{
  "Info": {
    "lastNm": "HOCHSTEIN",
    "firstNm": "RONALD",
    "midNm": "JOHN",
    "sufNm": null,
    "indvlPK": "871881",
    "actvAGReg": 0,
    "link": "http://www.adviserinfo.sec.gov/IAPD/Individual/871881"
  },
  "OthrNms": [
    {
      "lastNm": "HOCHSTEIN",
      "firstNm": "RON",
      "midNm": null,
      "sufNm": null
    }
  ],
  "CrntEmps": [
    {
      "CrntRgstns": [
        {
          "regAuth": 47,
          "regCat": 0,
          "st": 2,
          "stDt": "1993-09-22T00:00:00"
        },
        {
          "regAuth": 21,
          "regCat": 0,
          "st": 2,
          "stDt": "2013-01-07T00:00:00"
        }
      ],
      "BrnchOfLocs": [
        {
          "str1": "4205 DOVER ROAD",
          "str2": null,
          "city": "RICHMOND",
          "state": 47,
          "stateSpecified": true,
          "cntry": "United States",
          "postlCd": "23221"
        }
      ],
      "orgNm": "HIGHSTONE GROUP",
      "orgPK": "107549",
      "str1": "4205 DOVER ROAD",
      "str2": null,
      "city": "RICHMOND",
      "state": 47,
      "stateSpecified": true,
      "cntry": "United States",
      "postlCd": "23221"
    }
  ],
  "Exms": [
    {
      "exmCd": 0,
      "exmNm": "Uniform Securities Agent State Law Examination",
      "exmDt": "1984-05-22T00:00:00",
      "exmDtSpecified": true
    }
  ],
  "Dsgntns": [],
  "PrevRgstns": [
    {
      "BrnchOfLocs": [
        {
          "city": "RICHMOND",
          "state": 47,
          "stateSpecified": true
        }
      ],
      "orgNm": "HIGHSTONE GROUP",
      "orgPK": "107549",
      "regBeginDt": "1993-09-22T00:00:00",
      "regBeginDtSpecified": true,
      "regEndDt": "2012-06-12T00:00:00",
      "regEndDtSpecified": true
    }
  ],
  "EmpHss": [
    {
      "fromDt": "02/1979",
      "toDt": null,
      "orgNm": "SELF-EMPLOYED BUSINESS CONSULTANT AND MI",
      "city": "NOT GIVEN",
      "state": 47,
      "stateSpecified": true
    },
    {
      "fromDt": "02/1979",
      "toDt": null,
      "orgNm": "SELF-EMPLOYED INSURANCE AGENT/BROKER",
      "city": "VARIOUS LICENSE APPOINTMENTS",
      "state": 47,
      "stateSpecified": true
    },
    {
      "fromDt": "09/1979",
      "toDt": null,
      "orgNm": "RONALD J. HOCHSTEIN REGISTERED REP",
      "city": "RICHMOND",
      "state": 47,
      "stateSpecified": true
    },
    {
      "fromDt": "09/1979",
      "toDt": null,
      "orgNm": "SELF-EMPLOYED BROKER-DEALER REP.",
      "city": "VARIOUS FIRMS",
      "state": 47,
      "stateSpecified": true
    },
    {
      "fromDt": "01/1986",
      "toDt": null,
      "orgNm": "COMPREHENSIVE FINANCIAL GROUP",
      "city": "RICHMOND",
      "state": 47,
      "stateSpecified": true
    },
    {
      "fromDt": "07/1992",
      "toDt": null,
      "orgNm": "CULLER FARMS FAMILY LIMITED PARTNERSHIP",
      "city": "RICHMOND",
      "state": 47,
      "stateSpecified": true
    },
    {
      "fromDt": "07/1992",
      "toDt": null,
      "orgNm": "CULLER FARMS INC.",
      "city": "RICHMOND",
      "state": 47,
      "stateSpecified": true
    },
    {
      "fromDt": "07/1993",
      "toDt": null,
      "orgNm": "#IA COMPREHENSIVE FINANCIAL BENEFITS PLA",
      "city": "RICHMOND",
      "state": 47,
      "stateSpecified": true
    },
    {
      "fromDt": "07/1993",
      "toDt": null,
      "orgNm": "#IA COMPREHENSIVE FINANCIAL PLANNING COR",
      "city": "RICHMOND",
      "state": 47,
      "stateSpecified": true
    },
    {
      "fromDt": "12/1994",
      "toDt": null,
      "orgNm": "MCP INVESTMENTS LLC",
      "city": "FREDERICK",
      "state": 21,
      "stateSpecified": true
    },
    {
      "fromDt": "06/1996",
      "toDt": null,
      "orgNm": "COMPREHENSIVE FINANCIAL INSURANCE SVCS",
      "city": "RICHMOND",
      "state": 47,
      "stateSpecified": true
    },
    {
      "fromDt": "06/2002",
      "toDt": null,
      "orgNm": "HIGHSTONE GROUP",
      "city": "RICHMOND",
      "state": 47,
      "stateSpecified": true
    },
    {
      "fromDt": "08/2002",
      "toDt": null,
      "orgNm": "SECURITIES SERVICE NETWORK, INC.",
      "city": "RICHMOND",
      "state": 47,
      "stateSpecified": true
    }
  ],
  "OthrBuss": {
    "OthrBus": {
      "desc": "1) COMPREHENSIVE FINANCIAL PLANNING CORPORATION (D/B/A COMPREHENSIVE FINANCIAL INVESTMENT ADVISORS) - 4205 DOVER ROAD, RICHMOND, VA 23221 - PRIV CORP - RIA - 1/1/1993 - 120 HR/MO/TRD HRS - I MEET WITH CLIENTS TO DISCUSS FINANCIAL OBJECTIVES, GOALS, RECENT CHANGES, AND THEN DETERMINE THE METHOD TO OBTAIN THESE GOALS. - INVESTMENT RELATED 2) COMPREHENSIVE FINANCIAL INSURANCE SERVICES, INC - 4205 DOVER ROAD, RICHMOND, VA 23221 - PRIVATE CORPORATION  - AGENT -  - 6/18/1996 - 10 HR/MO/TRD HRS - INSURANCE SALES & SERVICE - INVESTMENT RELATED  3) HIGHSTONE PROPERTIES LLC - 4205 DOVER ROAD, RICHMOND, VA 23221 - PARTNERSHIP - LLC CREATED TO PURCHASE AN OFFICE BUILDING - 5/27/2011 - 0 HR/MO/TRD HRS - BASIC PROPERTY MAINTENANCE - NONINVESTMENT RELATED  4) CULLER FARMS INC. / CULLER FARM FAMILY PARTNERSHIPS I, II, & III - 4205 DOVER ROAD, RICHMOND, VA 23221 - PRIVATE CORP - PRESIDENT -  12/03/1992 - 0 HR/MO/TRD HRS - HOLDING ENTITY FOR UNDEVELOPED FARMLAND - NONINVESTMENT RELATED  5) BUFFALO STREET PROF.CENTER, LLC - 4205 DOVER ROAD, RICHMOND, VA 23221 - LLC - GM - 8/7/2003 - 0 HR/MO/TRD HRS - GENERAL MANAGER FOR A PROFESSIONAL OFFICE BUILDING BEING BUILT BY A CLIENT.  I ACT AS HIS ADVISOR.  DUE TO REAL ESTATE LICENSING LAWS I EITHER NEED TO BE A REAL ESTATE AGENT OR HIS EMPLOYEE.  I DISCUSSED WITH RON KLIMAS AND THIS WAS VERBALLY OK'D. - I HELP THE OWNER WITH MANAGEMENT OF THE OFFICE BUILDING, I.E., RENTAL AGREEMENTS, MAINTENANCE AGREEMENTS AND BASIC BUILDING MANAGEMENT DECISIONS. - NONINVESTMENT RELATED  6) COMPREHENSIVE FINANCIAL GROUP, LLC - 4205 DOVER ROAD, RICHMOND, VA 23221 - 01/1994 - NIR - COMPREHENSIVE FINANCIAL GROUP, LLC CURRENTLY IS THE ENTITY THAT TAX PREPARATION, ACCOUNTING IS CONDUCTED THROUGH OUR FIRM.  THIS ENTITY HAS ONE EMPLOYEE WHO IS A CPA.   WE HAVE HAD THIS BUSINESS NAME IN EFFECT SINCE 1994, BUT USE IT ONLY FOR ACCOUNTING SERVICES.  GENERALLY, WE DO NOT CHARGE FOR TAX PREP FOR INDIVIDUALS WHO HOLD INVESTMENT ADVISORY AGREEMENTS WITH COMPREHENSIVE FINANCIAL INVESTMENT ADVISORS, INC. DBA/HIGHSTONE GROUP.  IN THE PAST HIGHSTONE FINANCIAL GROUP HAD BEEN THE NAME THAT WE MARKETED UNDER UNTIL WE MOVED A FEW YEARS AGO AND MADE FURTHER DEFINITION TO SERVICES PROVIDED. - I AM THE SOLE OWNER OF THIS ENTITY.  ALL ACCOUNTING AND TAX WORK IS COMPLETED BY OUR IN HOUSE CPA.  HE GIVES THE TAX ADVICE... - LLC - 0 HRS/MO TRADING  7) Highstone Group - 6243 River Road, Suite 7, Richmond, Virginia - 02/2012 - NIR - This business name is a \"Doing Business As\", DBA as part of Comprehensive Financial Planning Corporation (CFPC).  The name, Highstone Group was added on 11-11-2011. - See Comprehensive Financial Planning Corporation - Private Corp - 120 hrs/mo trading -"
    }
  },
  "DRPs": []
}