{
  "Info": {
    "lastNm": "DELATEUR",
    "firstNm": "ANTON",
    "midNm": "CAMILLE",
    "sufNm": null,
    "indvlPK": "872875",
    "actvAGReg": 0,
    "link": "http://www.adviserinfo.sec.gov/IAPD/Individual/872875"
  },
  "OthrNms": [
    {
      "lastNm": "DELATEUR",
      "firstNm": "ANTON",
      "midNm": "C",
      "sufNm": null
    }
  ],
  "CrntEmps": [
    {
      "CrntRgstns": [
        {
          "regAuth": 14,
          "regCat": 0,
          "st": 2,
          "stDt": "2009-06-01T00:00:00"
        },
        {
          "regAuth": 45,
          "regCat": 0,
          "st": 3,
          "stDt": "2009-06-01T00:00:00"
        },
        {
          "regAuth": 49,
          "regCat": 0,
          "st": 2,
          "stDt": "2009-06-01T00:00:00"
        }
      ],
      "BrnchOfLocs": [
        {
          "str1": "WASHINGTON TRUST FINANCIAL CTR",
          "str2": "717 W. SPRAGUE AVE. STE 500",
          "city": "SPOKANE",
          "state": 49,
          "stateSpecified": true,
          "cntry": "United States",
          "postlCd": "99201"
        }
      ],
      "orgNm": "MORGAN STANLEY",
      "orgPK": "149777",
      "str1": "2000 WESTCHESTER AVENUE",
      "str2": null,
      "city": "PURCHASE",
      "state": 35,
      "stateSpecified": true,
      "cntry": "United States",
      "postlCd": "10577-2530"
    }
  ],
  "Exms": [
    {
      "exmCd": 0,
      "exmNm": "Uniform Securities Agent State Law Examination",
      "exmDt": "1979-11-01T00:00:00",
      "exmDtSpecified": true
    },
    {
      "exmCd": 2,
      "exmNm": "Uniform Investment Adviser Law Examination",
      "exmDt": "1996-02-03T00:00:00",
      "exmDtSpecified": true
    }
  ],
  "Dsgntns": [],
  "PrevRgstns": [
    {
      "BrnchOfLocs": [
        {
          "city": "SPOKANE",
          "state": 49,
          "stateSpecified": true
        },
        {
          "city": "SPOKANE",
          "state": 49,
          "stateSpecified": true
        }
      ],
      "orgNm": "MORGAN STANLEY DW INC.",
      "orgPK": "7556",
      "regBeginDt": "1999-05-12T00:00:00",
      "regBeginDtSpecified": true,
      "regEndDt": "2007-04-02T00:00:00",
      "regEndDtSpecified": true
    },
    {
      "BrnchOfLocs": [
        {
          "city": "SPOKANE",
          "state": 49,
          "stateSpecified": true
        }
      ],
      "orgNm": "MORGAN STANLEY & CO. LLC",
      "orgPK": "8209",
      "regBeginDt": "2007-04-02T00:00:00",
      "regBeginDtSpecified": true,
      "regEndDt": "2009-06-01T00:00:00",
      "regEndDtSpecified": true
    }
  ],
  "EmpHss": [
    {
      "fromDt": "12/1998",
      "toDt": "04/2007",
      "orgNm": "MORGAN STANLEY DW, INC.",
      "city": "SPOKANE",
      "state": 49,
      "stateSpecified": true
    },
    {
      "fromDt": "04/2007",
      "toDt": null,
      "orgNm": "MORGAN STANLEY & CO., INCORPORATED",
      "city": "SPOKANE",
      "state": 49,
      "stateSpecified": true
    },
    {
      "fromDt": "06/2009",
      "toDt": null,
      "orgNm": "MORGAN STANLEY SMITH BARNEY",
      "city": "SPOKANE",
      "state": 49,
      "stateSpecified": true
    },
    {
      "fromDt": "01/2015",
      "toDt": null,
      "orgNm": "MORGAN STANLEY PRIVATE BANK, NATIONAL ASSOCIATION",
      "city": "NEW YORK",
      "state": 35,
      "stateSpecified": true
    }
  ],
  "OthrBuss": {
    "OthrBus": {
      "desc": "1. OWNER; 920 W KIERNAN SPOKANE, WA; OWNING AND MAINTAINING; 2 AFTER BUSINESS HOURS; 0 DURING BUSINESS HOURS; 06/2012 2. DMT PARTNERS, REGISTERED REPRESENTATIVE; REAL ESTATE DEVELOPMENT; START DATE: 04/2015; DURING BUSINESS- 0, AFTER BUSINESS HOURS- 4; ORGANIZATION, PLANNING & PRESENTATION; INVESTMENT RELATED; SPOKANE, WA"
    }
  },
  "DRPs": []
}