{
  "Info": {
    "lastNm": "ROSS",
    "firstNm": "CHARLES",
    "midNm": "RONALD",
    "sufNm": null,
    "indvlPK": "873558",
    "actvAGReg": 1,
    "link": "http://www.adviserinfo.sec.gov/IAPD/Individual/873558"
  },
  "OthrNms": [
    {
      "lastNm": "ROSS",
      "firstNm": "RON",
      "midNm": null,
      "sufNm": null
    }
  ],
  "CrntEmps": [
    {
      "CrntRgstns": [
        {
          "regAuth": 4,
          "regCat": 0,
          "st": 2,
          "stDt": "1991-07-05T00:00:00"
        }
      ],
      "BrnchOfLocs": [
        {
          "str1": "725 SIXTH STREET",
          "str2": null,
          "city": "EUREKA",
          "state": 4,
          "stateSpecified": true,
          "cntry": "United States",
          "postlCd": "95501"
        }
      ],
      "orgNm": "PREMIER FINANCIAL GROUP INC",
      "orgPK": "107314",
      "str1": "725 SIXTH STREET",
      "str2": null,
      "city": "EUREKA",
      "state": 4,
      "stateSpecified": true,
      "cntry": "United States",
      "postlCd": "95501-1103"
    }
  ],
  "Exms": [
    {
      "exmCd": 0,
      "exmNm": "Uniform Securities Agent State Law Examination",
      "exmDt": "1980-04-25T00:00:00",
      "exmDtSpecified": true
    }
  ],
  "Dsgntns": [
    {
      "dsgntnNm": "Certified Financial Planner"
    }
  ],
  "PrevRgstns": [],
  "EmpHss": [
    {
      "fromDt": "12/1990",
      "toDt": null,
      "orgNm": "PREMIER FINANCIAL GROUP INC.",
      "city": "EUREKA",
      "state": 4,
      "stateSpecified": true
    },
    {
      "fromDt": "04/2002",
      "toDt": null,
      "orgNm": "CANTELLA & CO., INC.",
      "city": "EUREKA",
      "state": 4,
      "stateSpecified": true
    }
  ],
  "OthrBuss": {
    "OthrBus": null
  },
  "DRPs": [
    {
      "hasRegAction": 1,
      "hasRegActionSpecified": true,
      "hasCriminal": 1,
      "hasCriminalSpecified": true,
      "hasBankrupt": 1,
      "hasBankruptSpecified": true,
      "hasCivilJudc": 1,
      "hasCivilJudcSpecified": true,
      "hasBond": 1,
      "hasBondSpecified": true,
      "hasJudgment": 1,
      "hasJudgmentSpecified": true,
      "hasInvstgn": 1,
      "hasInvstgnSpecified": true,
      "hasCustComp": 0,
      "hasCustCompSpecified": true,
      "hasTermination": 1,
      "hasTerminationSpecified": true
    }
  ]
}